2.986
3.327
3.501
3.622
3.684
3.766
3.827
3.861
3.882
3.936
3.984
4.028
4.041
3.965
3.983
4.011
4.030
4.042
4.058
4.086
4.091
4.113
4.119
4.144
4.140
4.158
4.171
4.173
4.189
4.202
4.213
4.205
4.228
4.235
4.245
4.253
4.240
4.257
4.265
4.276
4.292
4.292
4.305
4.300
4.289
4.303
4.309
4.311
4.322
4.328
4.345
4.339
4.348
4.360
4.369
4.364
4.346
4.349
4.361
4.363
4.376
4.365
4.378
4.378
4.386
4.387
4.396
4.403
4.408
4.399
4.412
4.417
4.425
4.430
4.427
4.440
4.438
4.439
4.441
4.453
4.439
4.418
4.428
4.432
4.431
4.432
4.436
4.451
4.451
4.432
4.439
4.441
4.450
4.449
4.455
4.452
4.461
4.477
4.456
4.471
4.475
4.481
4.491
4.480
4.492
4.479
4.490
4.477
4.486
4.488
4.482
4.491
4.500
4.502
4.513
4.509
4.514
4.508
4.508
4.519
4.518
4.529
4.530
4.533
4.531
4.541
4.538
4.544
4.537
4.539
4.533
4.540
4.528
4.539
4.537
4.535
4.548
4.547
4.556
4.556
4.550
4.566
4.560
4.568
4.570
4.569
4.576
4.571
4.572
4.577
4.564
4.551
4.538
4.540
4.537
4.532
4.537
4.535
4.534
4.545
4.543
4.542
4.560
4.566
4.550
4.556
4.572
4.560
4.560
4.562
4.546
4.544
4.553
4.549
4.543
4.547
4.544
4.541
4.530
4.555
4.552
4.544
4.543
4.558
4.565
4.555
4.553
4.557
4.575
4.564
4.560
4.551
4.575
4.573
4.568
4.564
4.565
4.584
4.580
4.586
4.581
4.575
4.595
4.596
4.595
4.591
4.587
4.584
4.586
4.578
4.573
4.583
4.589
4.586
4.585
4.579
4.575
4.587
4.606
4.604
4.598
4.593
4.590
4.594
4.607
4.607
4.605
4.600
4.591
4.595
4.615
4.631
4.624
4.621
4.620
4.607
4.609
4.629
4.633
4.628
4.616
4.627
4.620
4.616
4.635
4.636
4.635
4.629
4.620
4.609
4.615
4.617
4.609
4.604
4.603
4.599
4.605
4.607
4.609
4.607
4.600
4.594
4.594
4.594
4.593
4.609
4.624
4.620
4.620
4.620
4.618
4.612
4.603
4.603
4.619
4.623
4.625
4.628
4.617
4.617
4.608
4.593
4.604
4.620
4.620
4.630
4.627
4.621
4.613
4.608
4.617
4.612
4.612
4.628
4.643
4.641
4.641
4.635
4.630
4.627
4.624
4.626
4.619
4.625
4.639
4.641
4.637
4.637
4.636
4.630
4.640
4.633
4.634
4.628
4.627
4.640
4.654
4.661
4.667
4.665
4.660
4.654
4.660
4.650
4.652
4.646
4.643
4.644
4.657
4.671
4.671
4.667
4.661
4.663
4.660
4.657
4.651
4.647
4.636
4.634
4.647
4.660
4.658
4.659
4.649
4.651
4.640
4.643
4.632
4.627
4.624
4.628
4.625
4.637
4.650
4.663
4.665
4.668
4.666
4.666
4.666
4.652
4.645
4.634
4.639
4.643
4.649
4.637
4.639
4.652
4.664
4.671
4.677
4.679
4.673
4.678
4.677
4.668
4.663
4.660
4.657
4.657
4.655
4.657
4.655
4.660
4.662
4.674
4.685
4.697
4.695
4.696
4.690
4.684
4.684
4.680
4.685
4.686
4.685
4.686
4.681
4.677
4.679
4.677
4.673
4.677
4.688
4.696
4.692
4.700
4.702
4.693
4.682
4.676
4.675
4.672
4.670
4.667
4.664
4.668
4.668
4.672
4.664
4.661
4.672
4.682
4.693
4.700
4.700
4.694
4.693
4.702
4.698
4.697
4.703
4.696
4.689
4.694
4.689
4.691
4.689
4.689
4.685
4.683
4.685
4.689
4.691
4.689
4.699
4.710
4.720
4.730
4.741
4.741
4.736
4.731
4.724
4.714
4.717
4.713
4.710
4.709
4.718
4.710
4.714
4.707
4.703
4.698
4.700
4.702
4.700
4.696
4.702
4.712
4.722
4.731
4.726
4.722
4.720
4.714
4.708
4.703
4.697
4.694
4.687
4.680
4.682
4.684
4.685
4.678
4.677
4.687
4.685
4.680
4.681
4.690
4.682
4.688
4.698
4.704
4.703
4.699
4.704
4.700
4.695
4.693
4.693
4.691
4.689
4.694
4.696
4.689
4.682
4.682
4.683
4.678
4.673
4.675
4.664
4.664
4.662
4.663
4.661
4.664
4.667
4.676
4.685
4.694
4.702
4.711
4.720
4.717
4.714
4.714
4.710
4.708
4.705
4.695
4.697
4.703
4.704
4.705
4.694
4.696
4.692
4.693
4.695
4.697
4.690
4.682
4.675
4.668
4.667
4.668
4.664
4.659
4.659
4.667
4.675
4.684
4.692
4.700
4.705
4.707
4.697
4.691
4.690
4.690
4.700
4.702
4.699
4.699
4.704
4.699
4.698
4.704
4.699
4.705
4.706
4.701
4.702
4.696
4.695
4.695
4.687
4.687
4.682
4.683
4.683
4.682
4.681
4.679
4.679
4.683
4.677
4.680
4.680
4.688
4.696
4.703
4.710
4.706
4.709
4.711
4.707
4.703
4.706
4.708
4.703
4.708
4.712
4.708
4.700
4.694
4.690
4.692
4.701
4.698
4.693
4.696
4.697
4.693
4.692
4.684
4.688
4.692
4.684
4.682
4.689
4.687
4.691
4.699
4.692
4.691
4.688
4.689
4.680
4.678
4.677
4.681
4.689
4.696
4.703
4.707
4.716
4.724
4.717
4.715
4.715
4.718
4.718
4.715
4.717
4.719
4.717
4.716
4.711
4.713
4.718
4.715
4.709
4.703
4.706
4.703
4.707
4.706
4.701
4.701
4.696
4.699
4.693
4.692
4.699
4.706
4.706
4.710
4.705
4.707
4.709
4.705
4.697
4.698
4.698
4.700
4.697
4.698
4.693
4.686
4.681
4.685
4.692
4.699
4.706
4.712
4.719
4.726
4.733
4.737
4.734
4.734
4.729
4.725
4.729
4.734
4.734
4.733
4.732
4.742
4.741
4.745
4.746
4.739
4.736
4.734
4.732
4.726
4.720
4.723
4.724
4.719
4.721
4.723
4.720
4.717
4.719
4.714
4.710
4.707
4.713
4.713
4.710
4.710
4.711
4.711
4.713
4.718
4.718
4.716
4.717
4.710
4.705
4.712
4.720
4.719
4.714
4.712
4.709
4.706
4.708
4.713
4.711
4.712
4.719
4.725
4.731
4.737
4.743
4.750
4.756
4.762
4.766
4.760
4.766
4.771
4.772
4.770
4.766
4.774
4.772
4.770
4.767
4.758
4.763
4.760
4.757
4.761
4.760
4.757
4.753
4.746
4.750
4.749
4.754
4.755
4.753
4.753
4.753
4.751
4.745
4.742
4.744
4.745
4.753
4.757
4.756
4.754
4.747
4.746
4.740
4.735
4.734
4.731
4.725
4.720
4.717
4.714
4.717
4.723
4.725
4.718
4.716
4.719
4.725
4.730
4.725
4.722
4.717
4.712
4.707
4.709
4.715
4.720
4.726
4.732
4.738
4.743
4.743
4.747
4.746
4.754
4.757
4.756
4.757
4.755
4.757
4.754
4.749
4.750
4.750
4.744
4.747
4.750
4.746
4.747
4.743
4.739
4.733
4.728
4.733
4.729
4.725
4.729
4.733
4.723
4.715
4.714
4.717
4.718
4.715
4.719
4.721
4.716
4.724
4.733
4.725
4.717
4.717
4.718
4.716
4.718
4.715
4.714
4.712
4.715
4.723
4.728
4.723
4.721
4.722
4.715
4.716
4.714
4.715
4.716
4.722
4.722
4.721
4.719
4.711
4.706
4.702
4.700
4.696
4.695
4.700
4.695
4.698
4.699
4.702
4.700
4.703
4.708
4.713
4.718
4.724
4.729
4.734
4.739
4.744
4.749
4.755
4.760
4.765
4.770
4.773
4.769
4.770
4.769
4.768
4.769
4.771
4.780
4.770
4.768
4.763
4.756
4.756
4.757
4.757
4.757
4.758
4.752
4.749
4.753
4.760
4.767
4.763
4.763
4.769
4.768
4.771
4.770
4.769
4.767
4.759
4.755
4.757
4.763
4.762
4.761
4.756
4.748
4.752
4.760
4.763
4.763
4.764
4.759
4.759
4.761
4.761
4.765
4.763
4.761
4.758
4.756
4.755
4.757
4.757
4.754
4.751
4.749
4.748
4.746
4.745
4.743
4.740
4.745
4.753
4.751
4.747
4.747
4.740
4.739
4.736
4.732
4.729
4.725
4.722
4.718
4.715
4.722
4.726
4.725
4.723
4.721
4.724
4.721
4.722
4.725
