2.989
3.332
3.502
3.619
3.697
3.764
3.807
3.875
3.938
3.914
3.964
4.004
4.041
4.077
4.100
4.034
4.034
4.053
4.070
4.081
4.094
4.114
4.122
4.141
4.146
4.164
4.170
4.184
4.192
4.200
4.211
4.227
4.222
4.235
4.243
4.261
4.262
4.259
4.269
4.280
4.291
4.297
4.311
4.296
4.297
4.311
4.318
4.329
4.331
4.342
4.346
4.355
4.341
4.341
4.351
4.356
4.364
4.364
4.374
4.384
4.384
4.392
4.387
4.399
4.406
4.414
4.419
4.401
4.393
4.397
4.407
4.404
4.420
4.417
4.412
4.421
4.423
4.436
4.436
4.442
4.448
4.453
4.447
4.449
4.458
4.461
4.468
4.465
4.476
4.486
4.482
4.492
4.482
4.486
4.483
4.490
4.489
4.469
4.463
4.464
4.472
4.479
4.483
4.480
4.490
4.486
4.493
4.489
4.480
4.491
4.487
4.493
4.492
4.495
4.504
4.501
4.508
4.520
4.515
4.501
4.515
4.519
4.521
4.528
4.525
4.534
4.537
4.519
4.531
4.531
4.522
4.535
4.529
4.534
4.531
4.543
4.539
4.555
4.546
4.555
4.551
4.564
4.551
4.561
4.554
4.567
4.561
4.572
4.574
4.572
4.576
4.578
4.582
4.582
4.589
4.581
4.580
4.583
4.582
4.580
4.573
4.579
4.577
4.577
4.586
4.583
4.587
4.601
4.593
4.591
4.602
4.604
4.604
4.608
4.604
4.608
4.621
4.617
4.611
4.624
4.611
4.602
4.592
4.581
4.580
4.578
4.575
4.586
4.591
4.583
4.577
4.592
4.584
4.582
4.588
4.600
4.593
4.590
4.597
4.615
4.604
4.602
4.601
4.609
4.615
4.602
4.602
4.595
4.590
4.581
4.600
4.592
4.581
4.583
4.593
4.593
4.586
4.578
4.585
4.598
4.595
4.593
4.594
4.593
4.614
4.609
4.598
4.602
4.598
4.617
4.608
4.608
4.595
4.596
4.616
4.615
4.608
4.615
4.611
4.611
4.627
4.626
4.629
4.622
4.626
4.621
4.639
4.640
4.639
4.637
4.628
4.624
4.630
4.629
4.625
4.620
4.620
4.623
4.625
4.633
4.625
4.625
4.628
4.621
4.634
4.643
4.642
4.643
4.641
4.640
4.632
4.640
4.645
4.645
4.642
4.641
4.643
4.641
4.639
4.656
4.662
4.661
4.663
4.664
4.655
4.660
4.655
4.665
4.672
4.675
4.673
4.670
4.656
4.649
4.659
4.668
4.678
4.673
4.672
4.669
4.668
4.658
4.649
4.649
4.649
4.652
4.647
4.650
4.645
4.640
4.643
4.649
4.644
4.641
4.644
4.648
4.639
4.634
4.636
4.634
4.648
4.659
4.660
4.655
4.653
4.651
4.655
4.655
4.657
4.647
4.651
4.665
4.659
4.662
4.658
4.654
4.651
4.650
4.654
4.654
4.655
4.659
4.656
4.658
4.650
4.648
4.657
4.656
4.658
4.655
4.652
4.652
4.658
4.671
4.676
4.679
4.674
4.679
4.672
4.669
4.673
4.674
4.673
4.668
4.660
4.672
4.685
4.691
4.687
4.686
4.674
4.670
4.667
4.668
4.661
4.660
4.671
4.667
4.676
4.688
4.695
4.691
4.693
4.692
4.685
4.692
4.696
4.692
4.695
4.690
4.686
4.687
4.683
4.693
4.704
4.714
4.710
4.701
4.698
4.702
4.698
4.698
4.696
4.698
4.698
4.690
4.686
4.685
4.696
4.695
4.687
4.686
4.690
4.696
4.694
4.692
4.688
4.685
4.683
4.673
4.674
4.681
4.678
4.687
4.693
4.697
4.692
4.685
4.687
4.689
4.685
4.687
4.690
4.686
4.686
4.688
4.687
4.686
4.687
4.682
4.688
4.697
4.704
4.705
4.706
4.705
4.704
4.699
4.696
4.699
4.693
4.688
4.690
4.691
4.701
4.703
4.699
4.697
4.697
4.696
4.702
4.712
4.722
4.715
4.715
4.720
4.717
4.717
4.719
4.718
4.718
4.717
4.714
4.711
4.717
4.716
4.717
4.720
4.716
4.717
4.711
4.711
4.720
4.730
4.740
4.744
4.740
4.735
4.729
4.733
4.733
4.731
4.733
4.727
4.723
4.729
4.725
4.721
4.717
4.715
4.707
4.708
4.708
4.710
4.720
4.728
4.729
4.734
4.737
4.734
4.735
4.728
4.723
4.721
4.723
4.723
4.718
4.720
4.721
4.721
4.712
4.722
4.721
4.723
4.714
4.712
4.709
4.710
4.718
4.727
4.736
4.745
4.753
4.753
4.753
4.747
4.746
4.742
4.744
4.751
4.746
4.746
4.751
4.752
4.752
4.747
4.748
4.746
4.742
4.739
4.735
4.734
4.737
4.739
4.739
4.748
4.751
4.754
4.747
4.756
4.764
4.771
4.766
4.768
4.765
4.768
4.760
4.757
4.757
4.762
4.760
4.756
4.755
4.757
4.762
4.764
4.757
4.756
4.752
4.751
4.754
4.754
4.748
4.740
4.738
4.733
4.735
4.740
4.742
4.741
4.739
4.747
4.745
4.743
4.745
4.741
4.741
4.738
4.738
4.744
4.740
4.737
4.735
4.736
4.734
4.742
4.736
4.730
4.724
4.719
4.713
4.707
4.712
4.715
4.710
4.706
4.714
4.722
4.729
4.737
4.744
4.745
4.746
4.740
4.736
4.736
4.732
4.731
4.728
4.728
4.729
4.732
4.732
4.731
4.730
4.728
4.723
4.716
4.713
4.717
4.718
4.720
4.719
4.717
4.710
4.711
4.709
4.716
4.718
4.715
4.712
4.711
4.721
4.727
4.725
4.733
4.740
4.747
4.754
4.760
4.760
4.755
4.757
4.747
4.754
4.748
4.742
4.737
4.737
4.740
4.735
4.729
4.724
4.718
4.714
4.717
4.718
4.717
4.719
4.715
4.712
4.716
4.708
4.712
4.709
4.716
4.714
4.707
4.705
4.706
4.708
4.706
4.708
4.711
4.718
4.725
4.731
4.738
4.745
4.752
4.750
4.750
4.748
4.751
4.750
4.751
4.755
4.762
4.756
4.759
4.758
4.758
4.757
4.752
4.753
4.752
4.753
4.747
4.741
4.738
4.730
4.728
4.726
4.721
4.722
4.724
4.725
4.723
4.716
4.719
4.722
4.723
4.716
4.714
4.714
4.711
4.716
4.715
4.709
4.712
4.715
4.721
4.728
4.734
4.740
4.746
4.753
4.759
4.756
4.755
4.749
4.751
4.748
4.749
4.744
4.751
4.749
4.749
4.747
4.743
4.739
4.741
4.737
4.736
4.744
4.749
4.748
4.752
4.751
4.754
4.749
4.746
4.745
4.740
4.744
4.741
4.733
4.732
4.733
4.737
4.742
4.740
4.737
4.738
4.731
4.732
4.726
4.730
4.726
4.719
4.712
4.706
4.708
4.714
4.720
4.726
4.732
4.738
4.744
4.750
4.756
4.762
4.767
4.773
4.775
4.777
4.774
4.774
4.768
4.767
4.770
4.767
4.764
4.762
4.753
4.760
4.760
4.756
4.751
4.754
4.750
4.752
4.756
4.757
4.756
4.755
4.754
4.749
4.746
4.748
4.747
4.749
4.748
4.741
4.745
4.752
4.750
4.748
4.741
4.736
4.734
4.729
4.731
4.732
4.731
4.738
4.739
4.738
4.740
4.740
4.740
4.741
4.737
4.734
4.736
4.730
4.724
4.729
4.735
4.740
4.746
4.752
4.757
4.762
4.768
4.773
4.779
4.783
4.780
4.782
4.778
4.782
4.783
4.778
4.774
4.776
4.778
4.779
4.782
4.785
4.780
4.779
4.774
4.778
4.779
4.779
4.775
4.777
4.771
4.769
4.764
4.763
4.765
4.763
4.767
4.763
4.765
4.765
4.762
4.760
4.759
4.759
4.762
4.767
4.773
4.770
4.769
4.767
4.765
4.765
4.764
4.762
4.758
4.760
4.754
4.751
4.756
4.755
4.756
4.758
4.761
4.763
4.764
4.761
4.756
4.756
4.757
4.752
4.754
4.757
4.757
4.758
4.760
4.758
4.756
4.761
4.766
4.772
4.777
4.782
4.787
4.792
4.797
4.802
4.807
4.812
4.815
4.813
4.814
4.815
4.811
4.816
4.817
4.811
4.814
4.813
4.813
4.808
4.803
4.799
4.799
4.791
4.788
4.786
4.782
4.783
4.784
4.785
4.789
4.788
4.785
4.786
4.785
4.789
4.788
4.785
4.779
4.784
4.783
4.787
4.788
4.790
4.789
4.786
4.782
4.778
4.778
4.778
4.786
4.780
4.777
4.773
4.769
4.765
4.760
4.756
4.752
4.749
4.751
4.751
