2.988
3.321
3.505
3.628
3.688
3.743
3.832
3.831
3.881
3.937
3.978
4.025
4.012
3.964
3.991
4.002
4.031
4.047
4.062
4.075
4.096
4.102
4.122
4.129
4.146
4.164
4.160
4.175
4.192
4.207
4.195
4.212
4.223
4.231
4.250
4.235
4.244
4.256
4.266
4.281
4.283
4.291
4.289
4.283
4.301
4.307
4.299
4.315
4.331
4.332
4.336
4.349
4.351
4.370
4.357
4.337
4.349
4.348
4.363
4.366
4.359
4.371
4.374
4.378
4.393
4.393
4.389
4.393
4.398
4.415
4.416
4.418
4.429
4.433
4.431
4.437
4.432
4.442
4.431
4.409
4.418
4.426
4.423
4.431
4.432
4.447
4.439
4.432
4.431
4.434
4.446
4.447
4.443
4.450
4.468
4.451
4.465
4.462
4.470
4.477
4.484
4.480
4.469
4.471
4.475
4.472
4.479
4.484
4.481
4.494
4.494
4.501
4.510
4.502
4.508
4.502
4.510
4.514
4.521
4.524
4.521
4.531
4.529
4.537
4.542
4.535
4.525
4.540
4.522
4.532
4.529
4.535
4.534
4.533
4.547
4.540
4.556
4.554
4.552
4.560
4.558
4.565
4.565
4.558
4.567
4.568
4.559
4.546
4.533
4.529
4.521
4.539
4.522
4.525
4.538
4.531
4.531
4.552
4.548
4.546
4.553
4.561
4.553
4.554
4.563
4.547
4.538
4.542
4.547
4.540
4.544
4.535
4.533
4.537
4.545
4.542
4.531
4.543
4.565
4.554
4.549
4.545
4.567
4.562
4.553
4.549
4.567
4.564
4.558
4.550
4.560
4.574
4.571
4.576
4.570
4.572
4.589
4.585
4.583
4.581
4.578
4.576
4.576
4.568
4.568
4.579
4.579
4.569
4.579
4.570
4.575
4.593
4.592
4.594
4.583
4.585
4.586
4.592
4.598
4.595
4.592
4.584
4.591
4.611
4.616
4.616
4.613
4.610
4.602
4.609
4.629
4.623
4.620
4.611
4.610
4.610
4.620
4.624
4.630
4.629
4.616
4.610
4.606
4.604
4.605
4.602
4.598
4.590
4.594
4.600
4.599
4.597
4.596
4.589
4.588
4.586
4.588
4.606
4.611
4.611
4.614
4.613
4.603
4.597
4.596
4.604
4.616
4.609
4.614
4.612
4.615
4.611
4.603
4.593
4.609
4.609
4.614
4.622
4.614
4.608
4.604
4.608
4.606
4.606
4.622
4.633
4.638
4.632
4.635
4.623
4.625
4.613
4.612
4.614
4.623
4.630
4.636
4.624
4.629
4.628
4.629
4.629
4.622
4.627
4.614
4.629
4.644
4.657
4.663
4.660
4.657
4.650
4.648
4.645
4.643
4.639
4.636
4.637
4.652
4.666
4.662
4.659
4.659
4.651
4.651
4.645
4.644
4.644
4.638
4.633
4.647
4.656
4.650
4.646
4.642
4.645
4.639
4.628
4.627
4.620
4.620
4.618
4.629
4.642
4.655
4.657
4.661
4.656
4.656
4.659
4.655
4.644
4.636
4.629
4.637
4.636
4.633
4.637
4.650
4.663
4.667
4.668
4.664
4.669
4.668
4.669
4.668
4.655
4.650
4.647
4.646
4.648
4.649
4.649
4.654
4.666
4.678
4.690
4.693
4.689
4.686
4.684
4.673
4.674
4.673
4.680
4.679
4.679
4.681
4.673
4.670
4.664
4.664
4.675
4.687
4.690
4.688
4.699
4.698
4.693
4.683
4.672
4.668
4.664
4.661
4.657
4.660
4.658
4.661
4.665
4.656
4.666
4.677
4.688
4.695
4.695
4.684
4.685
4.688
4.690
4.691
4.695
4.690
4.686
4.689
4.683
4.684
4.679
4.680
4.673
4.672
4.678
4.682
4.685
4.690
4.701
4.711
4.722
4.733
4.728
4.731
4.731
4.723
4.712
4.708
4.713
4.709
4.703
4.708
4.705
4.705
4.698
4.694
4.691
4.692
4.692
4.691
4.690
4.700
4.710
4.720
4.730
4.720
4.719
4.719
4.714
4.708
4.702
4.697
4.691
4.685
4.679
4.673
4.678
4.667
4.668
4.677
4.675
4.677
4.672
4.674
4.682
4.684
4.694
4.697
4.697
4.695
4.694
4.687
4.688
4.682
4.685
4.678
4.688
4.685
4.691
4.680
4.674
4.673
4.667
4.675
4.667
4.665
4.663
4.652
4.656
4.654
4.652
4.661
4.670
4.679
4.689
4.697
4.707
4.716
4.709
4.703
4.704
4.705
4.699
4.706
4.697
4.693
4.696
4.696
4.691
4.687
4.682
4.684
4.682
4.691
4.691
4.690
4.682
4.675
4.667
4.667
4.657
4.658
4.653
4.661
4.670
4.678
4.687
4.696
4.698
4.701
4.697
4.693
4.682
4.684
4.696
4.693
4.692
4.693
4.697
4.686
4.691
4.694
4.694
4.698
4.691
4.691
4.689
4.689
4.685
4.686
4.682
4.676
4.676
4.674
4.677
4.681
4.680
4.670
4.674
4.673
4.671
4.676
4.684
4.692
4.700
4.702
4.699
4.700
4.699
4.700
4.697
4.696
4.701
4.701
4.697
4.701
4.701
4.696
4.686
4.685
4.693
4.694
4.690
4.692
4.688
4.689
4.680
4.680
4.680
4.681
4.677
4.674
4.682
4.684
4.680
4.692
4.689
4.685
4.680
4.678
4.679
4.674
4.672
4.679
4.687
4.694
4.702
4.707
4.713
4.721
4.718
4.709
4.708
4.709
4.705
4.711
4.716
4.717
4.706
4.706
4.699
4.707
4.710
4.708
4.698
4.697
4.698
4.697
4.699
4.697
4.695
4.687
4.685
4.684
4.686
4.696
4.697
4.700
4.704
4.701
4.699
4.697
4.698
4.692
4.691
4.692
4.695
4.692
4.689
4.684
4.677
4.680
4.687
4.694
4.700
4.708
4.715
4.721
4.728
4.729
4.728
4.724
4.719
4.717
4.724
4.727
4.724
4.721
4.726
4.731
4.733
4.741
4.745
4.736
4.727
4.727
4.725
4.720
4.714
4.716
4.714
4.714
4.714
4.722
4.719
4.710
4.705
4.703
4.705
4.710
4.705
4.707
4.700
4.702
4.703
4.704
4.708
4.706
4.707
4.706
4.704
4.701
4.709
4.714
4.707
4.709
4.708
4.700
4.701
4.702
4.700
4.708
4.712
4.719
4.725
4.732
4.738
4.744
4.751
4.757
4.762
4.761
4.759
4.761
4.762
4.760
4.757
4.759
4.767
4.763
4.761
4.762
4.754
4.754
4.749
4.749
4.752
4.749
4.747
4.739
4.738
4.745
4.747
4.741
4.744
4.753
4.749
4.750
4.745
4.739
4.735
4.740
4.749
4.751
4.745
4.741
4.739
4.736
4.738
4.731
4.724
4.720
4.717
4.715
4.709
4.708
4.716
4.719
4.713
4.708
4.712
4.719
4.721
4.722
4.717
4.714
4.707
4.708
4.709
4.715
4.721
4.727
4.732
4.738
4.737
4.742
4.740
4.748
4.749
4.749
4.748
4.749
4.745
4.746
4.743
4.745
4.743
4.746
4.742
4.740
4.741
4.741
4.732
4.732
4.729
4.725
4.723
4.723
4.716
4.723
4.722
4.722
4.712
4.703
4.705
4.710
4.708
4.713
4.712
4.717
4.721
4.719
4.719
4.715
4.711
4.711
4.711
4.711
4.712
4.705
4.712
4.719
4.715
4.718
4.714
4.707
4.711
4.708
4.703
4.708
4.708
4.711
4.715
4.715
4.709
4.705
4.704
4.696
4.691
4.686
4.686
4.690
4.690
4.692
4.693
4.694
4.699
4.704
4.710
4.715
4.721
4.726
4.731
4.737
4.742
4.747
4.753
4.758
4.763
4.769
4.766
4.765
4.760
4.762
4.765
4.760
4.766
4.763
4.765
4.758
4.753
4.755
4.747
4.749
4.747
4.746
4.747
4.747
4.748
4.755
4.758
4.755
4.756
4.759
4.761
4.764
4.759
4.761
4.762
4.756
4.754
4.754
4.753
4.749
4.753
4.755
4.744
4.751
4.754
4.753
4.759
4.757
4.752
4.754
4.756
4.755
4.755
4.755
4.754
4.748
4.748
4.750
4.751
4.747
4.744
4.737
4.738
4.740
4.736
4.732
4.733
4.738
4.743
4.743
4.742
4.739
4.737
4.741
4.737
4.733
4.730
4.726
4.723
4.719
4.715
4.719
4.721
4.715
4.717
4.714
4.710
4.712
4.719
4.724
4.724
4.727
4.723
4.719
4.721
4.726
4.731
4.736
4.741
4.746
4.750
4.755
4.760
4.765
4.770
4.771
4.766
4.760
4.755
4.757
4.757
4.757
4.756
4.755
4.756
4.750
4.750
4.746
4.742
