2.993
3.328
3.502
3.637
3.700
3.784
3.831
3.858
3.918
3.968
3.946
3.986
4.019
4.056
4.086
4.111
4.142
4.107
4.072
4.087
4.101
4.114
4.126
4.143
4.153
4.171
4.177
4.189
4.196
4.208
4.212
4.221
4.235
4.249
4.243
4.256
4.264
4.280
4.271
4.280
4.293
4.303
4.310
4.302
4.311
4.315
4.329
4.333
4.338
4.344
4.354
4.341
4.343
4.356
4.361
4.367
4.371
4.381
4.387
4.390
4.401
4.402
4.384
4.386
4.392
4.402
4.408
4.411
4.413
4.417
4.423
4.428
4.432
4.432
4.436
4.443
4.449
4.456
4.464
4.458
4.434
4.433
4.444
4.443
4.457
4.454
4.463
4.462
4.460
4.463
4.470
4.469
4.476
4.488
4.481
4.485
4.492
4.500
4.490
4.498
4.493
4.500
4.507
4.513
4.518
4.522
4.520
4.529
4.528
4.533
4.529
4.534
4.534
4.533
4.531
4.516
4.506
4.517
4.514
4.511
4.515
4.523
4.522
4.524
4.521
4.529
4.536
4.535
4.529
4.522
4.532
4.531
4.526
4.539
4.539
4.540
4.545
4.541
4.550
4.556
4.555
4.567
4.552
4.550
4.563
4.560
4.572
4.567
4.574
4.573
4.581
4.575
4.562
4.570
4.570
4.570
4.565
4.575
4.579
4.576
4.578
4.575
4.585
4.582
4.590
4.590
4.597
4.594
4.591
4.602
4.603
4.597
4.595
4.602
4.606
4.601
4.613
4.605
4.609
4.623
4.613
4.619
4.623
4.615
4.629
4.627
4.614
4.624
4.618
4.619
4.627
4.616
4.623
4.621
4.610
4.625
4.629
4.619
4.625
4.635
4.636
4.632
4.642
4.640
4.638
4.641
4.650
4.651
4.646
4.654
4.651
4.656
4.654
4.664
4.655
4.646
4.637
4.628
4.619
4.611
4.612
4.610
4.623
4.624
4.620
4.620
4.630
4.633
4.619
4.612
4.629
4.632
4.629
4.625
4.626
4.639
4.639
4.637
4.636
4.639
4.651
4.647
4.642
4.640
4.649
4.645
4.634
4.624
4.636
4.639
4.631
4.621
4.624
4.636
4.623
4.627
4.627
4.623
4.633
4.636
4.626
4.623
4.623
4.635
4.637
4.638
4.632
4.636
4.632
4.645
4.657
4.646
4.644
4.643
4.642
4.650
4.656
4.647
4.648
4.642
4.636
4.651
4.661
4.656
4.655
4.646
4.651
4.650
4.665
4.666
4.662
4.666
4.664
4.664
4.664
4.673
4.675
4.678
4.676
4.668
4.672
4.664
4.671
4.670
4.667
4.663
4.661
4.657
4.660
4.674
4.667
4.662
4.665
4.661
4.662
4.660
4.668
4.680
4.682
4.680
4.677
4.677
4.680
4.676
4.672
4.686
4.688
4.680
4.680
4.676
4.676
4.678
4.677
4.683
4.697
4.696
4.694
4.691
4.699
4.695
4.693
4.700
4.692
4.702
4.712
4.706
4.700
4.705
4.699
4.703
4.704
4.697
4.700
4.713
4.712
4.715
4.715
4.708
4.705
4.698
4.701
4.693
4.694
4.690
4.684
4.684
4.683
4.681
4.680
4.682
4.678
4.691
4.698
4.692
4.683
4.674
4.671
4.670
4.675
4.676
4.677
4.682
4.694
4.692
4.688
4.689
4.692
4.685
4.681
4.686
4.683
4.677
4.681
4.691
4.702
4.711
4.708
4.702
4.691
4.696
4.694
4.692
4.691
4.683
4.680
4.690
4.702
4.712
4.710
4.702
4.700
4.692
4.686
4.687
4.684
4.682
4.680
4.682
4.693
4.704
4.711
4.715
4.703
4.703
4.705
4.705
4.701
4.700
4.698
4.695
4.698
4.693
4.699
4.708
4.719
4.730
4.724
4.720
4.719
4.712
4.710
4.709
4.713
4.714
4.712
4.709
4.705
4.703
4.713
4.723
4.723
4.719
4.725
4.722
4.719
4.722
4.719
4.720
4.717
4.710
4.711
4.715
4.717
4.718
4.718
4.728
4.738
4.746
4.744
4.747
4.742
4.737
4.736
4.740
4.736
4.741
4.736
4.729
4.727
4.729
4.718
4.721
4.730
4.740
4.750
4.748
4.740
4.736
4.738
4.737
4.731
4.735
4.728
4.721
4.714
4.712
4.712
4.712
4.712
4.721
4.730
4.740
4.740
4.734
4.734
4.734
4.732
4.731
4.722
4.716
4.716
4.716
4.713
4.706
4.710
4.713
4.710
4.709
4.718
4.727
4.736
4.741
4.740
4.735
4.740
4.744
4.740
4.738
4.737
4.744
4.743
4.738
4.732
4.725
4.719
4.721
4.718
4.718
4.723
4.720
4.728
4.737
4.746
4.752
4.750
4.748
4.756
4.753
4.753
4.749
4.752
4.747
4.745
4.747
4.747
4.747
4.748
4.744
4.740
4.734
4.736
4.735
4.732
4.733
4.740
4.748
4.756
4.763
4.765
4.770
4.768
4.763
4.768
4.774
4.772
4.774
4.776
4.768
4.762
4.757
4.759
4.757
4.753
4.757
4.756
4.752
4.754
4.761
4.755
4.749
4.750
4.758
4.767
4.774
4.782
4.782
4.778
4.773
4.776
4.770
4.768
4.764
4.760
4.766
4.762
4.755
4.752
4.752
4.752
4.756
4.749
4.744
4.735
4.732
4.735
4.742
4.743
4.751
4.758
4.766
4.773
4.778
4.777
4.779
4.776
4.772
4.768
4.767
4.766
4.770
4.771
4.770
4.764
4.765
4.760
4.761
4.760
4.759
4.769
4.770
4.772
4.762
4.766
4.760
4.758
4.759
4.759
4.763
4.761
4.769
4.776
4.783
4.790
4.798
4.797
4.802
4.800
4.797
4.796
4.791
4.795
4.794
4.791
4.793
4.792
4.793
4.796
4.794
4.798
4.803
4.800
4.796
4.797
4.791
4.787
4.780
4.779
4.775
4.774
4.780
4.785
4.778
4.773
4.778
4.785
4.792
4.799
4.806
4.811
4.807
4.807
4.808
4.803
4.803
4.801
4.797
4.793
4.789
4.785
4.781
4.777
4.776
4.774
4.772
4.766
4.760
4.755
4.755
4.751
4.746
4.748
4.752
4.747
4.745
4.745
4.751
4.758
4.764
4.771
4.777
4.784
4.786
4.788
4.789
4.793
4.789
4.784
4.779
4.774
4.769
4.765
4.760
4.760
4.758
4.759
4.755
4.755
4.757
4.759
4.754
4.754
4.751
4.752
4.750
4.758
4.760
4.760
4.758
4.757
4.759
4.761
4.753
4.751
4.749
4.745
4.751
4.758
4.764
4.770
4.776
4.779
4.777
4.774
4.767
4.767
4.766
4.771
4.771
4.766
4.761
4.766
4.770
4.778
4.780
4.779
4.775
4.772
4.771
4.771
4.769
4.767
4.767
4.765
4.767
4.769
4.768
4.761
4.759
4.757
4.760
4.763
4.763
4.764
4.758
4.751
4.753
4.751
4.755
4.763
4.767
4.761
4.760
4.766
4.772
4.777
4.783
4.787
4.785
4.786
4.782
4.779
4.776
4.771
4.768
4.770
4.774
4.778
4.770
4.762
4.760
4.761
4.754
4.757
4.756
4.756
4.755
4.751
4.758
4.762
4.765
4.761
4.764
4.762
4.762
4.761
4.754
4.750
4.753
4.750
4.751
4.750
4.751
4.749
4.747
4.749
4.749
4.747
4.745
4.753
4.750
4.753
4.758
4.764
4.769
4.775
4.780
4.786
4.792
4.797
4.800
4.800
4.794
4.789
4.790
4.797
4.792
4.785
4.782
4.782
4.783
4.786
4.784
4.784
4.785
4.786
4.782
4.783
4.780
4.773
4.770
4.765
4.759
4.754
4.751
4.751
4.753
4.749
4.750
4.747
4.747
4.754
4.753
4.751
4.754
4.761
4.767
4.767
4.768
4.765
4.765
4.760
4.761
4.760
4.758
4.754
4.754
4.753
4.753
4.758
4.764
4.769
4.774
4.779
4.784
4.790
4.794
4.793
4.792
4.792
4.790
4.791
4.790
4.792
4.792
4.796
4.795
4.794
4.790
4.790
4.791
4.794
4.789
4.789
4.788
4.787
4.787
4.790
4.795
4.797
4.793
4.792
4.788
4.789
4.787
4.785
4.783
4.783
4.778
4.776
4.770
4.765
4.767
4.766
4.769
4.768
4.767
4.766
4.765
4.765
4.762
4.755
4.755
4.750
4.749
4.749
4.750
4.750
4.747
4.746
4.747
4.754
4.754
4.760
4.764
4.765
4.768
4.773
4.777
4.782
4.787
4.792
4.797
4.802
4.807
4.812
4.813
4.810
4.810
4.808
4.808
4.812
4.808
4.809
4.805
4.800
4.804
4.806
4.803
4.802
4.795
