2.992
3.329
3.515
3.623
3.720
3.765
3.817
3.895
3.903
3.959
4.008
3.981
4.015
4.044
4.076
4.101
4.134
4.154
4.149
4.097
4.099
4.110
4.133
4.144
4.153
4.172
4.175
4.189
4.196
4.211
4.214
4.225
4.238
4.235
4.246
4.259
4.271
4.269
4.275
4.286
4.299
4.291
4.304
4.311
4.318
4.329
4.332
4.324
4.331
4.337
4.348
4.353
4.361
4.369
4.372
4.362
4.372
4.371
4.383
4.385
4.389
4.396
4.405
4.410
4.413
4.414
4.424
4.410
4.411
4.413
4.414
4.426
4.428
4.436
4.436
4.436
4.443
4.451
4.455
4.464
4.461
4.459
4.466
4.469
4.475
4.484
4.483
4.461
4.460
4.459
4.469
4.469
4.479
4.476
4.481
4.489
4.480
4.487
4.486
4.491
4.497
4.506
4.507
4.504
4.505
4.514
4.517
4.514
4.520
4.517
4.517
4.522
4.529
4.536
4.539
4.543
4.540
4.552
4.544
4.554
4.552
4.550
4.551
4.549
4.551
4.544
4.529
4.522
4.534
4.528
4.538
4.535
4.544
4.541
4.547
4.539
4.547
4.556
4.550
4.557
4.552
4.553
4.547
4.555
4.555
4.549
4.559
4.554
4.562
4.565
4.566
4.573
4.569
4.577
4.576
4.579
4.574
4.570
4.581
4.582
4.586
4.589
4.591
4.594
4.594
4.600
4.591
4.585
4.595
4.589
4.594
4.588
4.591
4.597
4.597
4.601
4.594
4.605
4.603
4.603
4.611
4.614
4.620
4.618
4.615
4.621
4.619
4.621
4.613
4.615
4.626
4.627
4.623
4.631
4.625
4.631
4.643
4.635
4.638
4.648
4.639
4.642
4.651
4.642
4.639
4.636
4.639
4.646
4.645
4.643
4.645
4.641
4.636
4.642
4.645
4.645
4.638
4.650
4.648
4.647
4.651
4.666
4.655
4.654
4.663
4.667
4.664
4.665
4.672
4.669
4.669
4.667
4.679
4.678
4.671
4.663
4.655
4.647
4.643
4.639
4.626
4.627
4.645
4.642
4.639
4.640
4.642
4.653
4.647
4.643
4.642
4.645
4.646
4.648
4.643
4.647
4.655
4.650
4.653
4.647
4.653
4.668
4.666
4.672
4.664
4.660
4.674
4.672
4.668
4.658
4.657
4.654
4.653
4.656
4.652
4.655
4.656
4.659
4.648
4.636
4.649
4.657
4.654
4.648
4.644
4.641
4.656
4.652
4.656
4.650
4.651
4.645
4.660
4.669
4.668
4.663
4.665
4.661
4.660
4.675
4.675
4.670
4.670
4.672
4.660
4.670
4.671
4.665
4.668
4.670
4.671
4.667
4.677
4.677
4.682
4.677
4.670
4.667
4.672
4.679
4.694
4.692
4.691
4.697
4.689
4.685
4.682
4.691
4.702
4.695
4.684
4.678
4.680
4.681
4.684
4.694
4.694
4.690
4.688
4.685
4.682
4.674
4.686
4.696
4.689
4.692
4.693
4.693
4.689
4.685
4.683
4.696
4.710
4.709
4.705
4.697
4.701
4.705
4.698
4.692
4.701
4.706
4.702
4.710
4.708
4.700
4.704
4.703
4.702
4.702
4.713
4.725
4.723
4.720
4.722
4.730
4.722
4.716
4.716
4.711
4.718
4.730
4.735
4.734
4.730
4.719
4.714
4.717
4.715
4.716
4.717
4.729
4.732
4.727
4.722
4.715
4.708
4.701
4.698
4.698
4.709
4.713
4.710
4.707
4.708
4.707
4.705
4.708
4.706
4.699
4.697
4.702
4.703
4.704
4.706
4.703
4.703
4.697
4.696
4.700
4.697
4.693
4.698
4.709
4.714
4.705
4.713
4.715
4.711
4.709
4.707
4.709
4.714
4.709
4.706
4.715
4.714
4.723
4.724
4.724
4.718
4.716
4.710
4.713
4.712
4.711
4.709
4.709
4.706
4.711
4.721
4.722
4.717
4.718
4.717
4.711
4.705
4.706
4.709
4.707
4.707
4.708
4.706
4.710
4.719
4.729
4.734
4.732
4.724
4.723
4.730
4.731
4.728
4.727
4.724
4.729
4.728
4.721
4.721
4.728
4.729
4.738
4.742
4.738
4.738
4.738
4.737
4.735
4.734
4.735
4.729
4.723
4.726
4.717
4.715
4.722
4.728
4.737
4.746
4.744
4.745
4.748
4.748
4.746
4.744
4.744
4.745
4.740
4.737
4.735
4.739
4.741
4.742
4.746
4.743
4.744
4.753
4.762
4.764
4.758
4.760
4.755
4.759
4.765
4.759
4.758
4.751
4.748
4.746
4.746
4.748
4.749
4.743
4.747
4.750
4.757
4.766
4.765
4.758
4.751
4.745
4.739
4.734
4.738
4.735
4.736
4.738
4.734
4.736
4.740
4.740
4.736
4.733
4.740
4.749
4.757
4.751
4.749
4.751
4.751
4.748
4.748
4.742
4.733
4.732
4.733
4.735
4.735
4.730
4.729
4.737
4.735
4.734
4.736
4.738
4.745
4.753
4.762
4.769
4.763
4.765
4.769
4.766
4.763
4.756
4.756
4.751
4.745
4.748
4.745
4.745
4.749
4.749
4.743
4.740
4.738
4.737
4.737
4.744
4.752
4.760
4.768
4.776
4.777
4.779
4.782
4.779
4.779
4.781
4.780
4.770
4.761
4.762
4.759
4.756
4.762
4.767
4.764
4.761
4.761
4.757
4.760
4.754
4.758
4.753
4.759
4.767
4.774
4.782
4.789
4.797
4.796
4.792
4.792
4.796
4.786
4.790
4.789
4.785
4.783
4.779
4.778
4.780
4.783
4.781
4.783
4.776
4.768
4.766
4.775
4.773
4.770
4.775
4.771
4.772
4.779
4.786
4.793
4.800
4.796
4.795
4.793
4.788
4.781
4.775
4.769
4.770
4.777
4.775
4.778
4.777
4.769
4.769
4.770
4.768
4.766
4.766
4.767
4.761
4.760
4.763
4.761
4.759
4.765
4.772
4.779
4.786
4.793
4.799
4.801
4.799
4.795
4.793
4.795
4.793
4.791
4.793
4.793
4.789
4.786
4.789
4.789
4.789
4.787
4.786
4.782
4.786
4.786
4.790
4.790
4.791
4.789
4.785
4.780
4.782
4.781
4.782
4.781
4.781
4.787
4.794
4.801
4.807
4.814
4.819
4.822
4.820
4.819
4.818
4.813
4.816
4.817
4.815
4.818
4.819
4.819
4.824
4.827
4.827
4.822
4.820
4.812
4.807
4.804
4.799
4.798
4.795
4.799
4.794
4.791
4.794
4.797
4.805
4.808
4.802
4.797
4.799
4.799
4.805
4.812
4.818
4.817
4.813
4.810
4.806
4.803
4.799
4.795
4.792
4.792
4.793
4.795
4.794
4.790
4.783
4.783
4.781
4.782
4.778
4.769
4.767
4.774
4.773
4.775
4.773
4.773
4.772
4.777
4.776
4.774
4.768
4.767
4.770
4.775
4.781
4.787
4.793
4.799
4.796
4.791
4.790
4.788
4.788
4.788
4.788
4.786
4.785
4.782
4.785
4.784
4.779
4.779
4.781
4.779
4.782
4.782
4.784
4.781
4.777
4.777
4.777
4.777
4.775
4.775
4.783
4.779
4.776
4.770
4.772
4.772
4.771
4.768
4.771
4.771
4.770
4.766
4.768
4.774
4.779
4.785
4.791
4.796
4.798
4.800
4.795
4.793
4.789
4.792
4.787
4.785
4.786
4.786
4.792
4.795
4.795
4.802
4.800
4.799
4.798
4.798
4.797
4.791
4.789
4.791
4.793
4.790
4.791
4.793
4.793
4.791
4.785
4.779
4.773
4.775
4.776
4.779
4.776
4.776
4.777
4.779
4.776
4.777
4.782
4.782
4.780
4.775
4.771
4.777
4.782
4.787
4.792
4.798
4.800
4.797
4.792
4.796
4.798
4.800
4.793
4.786
4.786
4.786
4.794
4.791
4.790
4.784
4.786
4.783
4.779
4.781
4.782
4.782
4.779
4.774
4.774
4.775
4.782
4.784
4.777
4.779
4.779
4.774
4.776
4.777
4.776
4.776
4.774
4.775
4.774
4.775
4.774
4.771
4.773
4.777
4.773
4.774
4.774
4.770
4.774
4.776
4.777
4.777
4.773
4.778
4.783
4.788
4.793
4.799
4.803
4.809
4.814
4.810
4.806
4.803
4.801
4.806
4.808
4.805
4.804
4.808
4.804
4.805
4.807
4.802
4.797
4.797
4.789
4.782
4.782
4.780
4.777
4.779
4.777
4.779
4.778
4.778
4.772
4.776
4.776
4.777
4.777
4.776
4.774
4.772
4.772
4.778
4.782
4.777
4.776
4.778
4.785
4.788
4.789
4.786
4.783
4.788
4.789
4.787
4.785
4.778
