2.991
3.332
3.512
3.638
3.713
3.773
3.829
3.888
3.905
3.959
4.006
3.978
4.010
4.049
4.078
4.106
4.127
4.158
4.165
4.114
4.099
4.120
4.129
4.139
4.149
4.167
4.174
4.189
4.196
4.207
4.221
4.222
4.237
4.244
4.250
4.260
4.270
4.265
4.280
4.287
4.294
4.306
4.300
4.307
4.319
4.323
4.335
4.340
4.333
4.336
4.344
4.356
4.354
4.367
4.371
4.378
4.370
4.375
4.371
4.386
4.390
4.392
4.396
4.405
4.412
4.414
4.423
4.427
4.414
4.418
4.412
4.421
4.425
4.427
4.437
4.440
4.440
4.444
4.451
4.458
4.461
4.458
4.464
4.471
4.470
4.482
4.488
4.485
4.472
4.466
4.461
4.468
4.469
4.479
4.484
4.484
4.491
4.493
4.492
4.492
4.491
4.499
4.505
4.509
4.508
4.506
4.513
4.520
4.521
4.515
4.524
4.520
4.525
4.528
4.533
4.539
4.544
4.542
4.546
4.555
4.554
4.555
4.552
4.548
4.557
4.551
4.557
4.544
4.530
4.529
4.538
4.536
4.536
4.542
4.547
4.547
4.544
4.547
4.554
4.551
4.555
4.564
4.557
4.556
4.549
4.558
4.549
4.559
4.557
4.559
4.568
4.562
4.574
4.569
4.579
4.572
4.584
4.583
4.581
4.578
4.576
4.591
4.585
4.594
4.598
4.597
4.598
4.600
4.595
4.591
4.593
4.599
4.598
4.597
4.596
4.595
4.603
4.595
4.607
4.595
4.609
4.610
4.604
4.618
4.617
4.619
4.621
4.621
4.626
4.625
4.621
4.619
4.621
4.630
4.632
4.627
4.640
4.633
4.629
4.647
4.640
4.638
4.651
4.646
4.639
4.657
4.645
4.636
4.642
4.644
4.640
4.654
4.648
4.635
4.647
4.644
4.632
4.651
4.648
4.647
4.647
4.655
4.655
4.654
4.659
4.663
4.659
4.658
4.667
4.674
4.669
4.671
4.675
4.673
4.673
4.674
4.683
4.677
4.669
4.663
4.655
4.647
4.645
4.638
4.632
4.629
4.644
4.649
4.640
4.643
4.640
4.654
4.653
4.649
4.642
4.651
4.650
4.654
4.648
4.647
4.659
4.654
4.656
4.654
4.651
4.665
4.675
4.677
4.667
4.666
4.669
4.676
4.672
4.662
4.653
4.658
4.659
4.658
4.659
4.647
4.659
4.663
4.655
4.643
4.642
4.654
4.661
4.654
4.645
4.647
4.645
4.660
4.658
4.655
4.656
4.655
4.653
4.662
4.670
4.671
4.669
4.673
4.666
4.662
4.675
4.677
4.673
4.681
4.672
4.660
4.669
4.677
4.673
4.676
4.673
4.673
4.672
4.676
4.684
4.685
4.683
4.676
4.675
4.677
4.677
4.688
4.699
4.698
4.695
4.696
4.691
4.688
4.686
4.699
4.699
4.690
4.683
4.684
4.684
4.681
4.689
4.695
4.695
4.695
4.691
4.688
4.678
4.677
4.689
4.696
4.697
4.696
4.697
4.693
4.692
4.687
4.686
4.698
4.711
4.714
4.707
4.704
4.707
4.707
4.700
4.692
4.700
4.709
4.710
4.715
4.710
4.709
4.708
4.706
4.707
4.704
4.711
4.723
4.727
4.723
4.727
4.729
4.729
4.721
4.721
4.715
4.716
4.726
4.738
4.740
4.733
4.725
4.721
4.721
4.719
4.721
4.721
4.725
4.735
4.731
4.724
4.720
4.713
4.706
4.702
4.704
4.703
4.714
4.714
4.712
4.713
4.714
4.711
4.712
4.711
4.709
4.703
4.699
4.707
4.706
4.710
4.710
4.708
4.707
4.702
4.699
4.702
4.703
4.699
4.699
4.710
4.714
4.711
4.718
4.722
4.717
4.714
4.712
4.714
4.720
4.714
4.712
4.713
4.714
4.722
4.729
4.729
4.723
4.721
4.714
4.711
4.715
4.718
4.714
4.716
4.714
4.714
4.715
4.725
4.720
4.722
4.721
4.719
4.710
4.708
4.712
4.714
4.709
4.714
4.714
4.713
4.715
4.724
4.732
4.740
4.732
4.727
4.726
4.735
4.732
4.732
4.731
4.732
4.731
4.729
4.726
4.727
4.728
4.730
4.739
4.743
4.742
4.746
4.740
4.741
4.740
4.741
4.734
4.733
4.729
4.732
4.723
4.714
4.725
4.727
4.736
4.743
4.750
4.747
4.748
4.752
4.750
4.747
4.748
4.752
4.745
4.743
4.742
4.740
4.745
4.747
4.750
4.752
4.744
4.749
4.758
4.765
4.767
4.765
4.761
4.762
4.764
4.768
4.764
4.758
4.756
4.752
4.748
4.751
4.753
4.749
4.748
4.749
4.751
4.757
4.766
4.763
4.756
4.751
4.745
4.741
4.742
4.741
4.737
4.741
4.742
4.740
4.739
4.744
4.747
4.743
4.739
4.740
4.748
4.755
4.756
4.751
4.751
4.752
4.751
4.752
4.745
4.738
4.734
4.736
4.737
4.741
4.734
4.733
4.737
4.740
4.739
4.738
4.740
4.743
4.750
4.757
4.766
4.770
4.767
4.770
4.772
4.766
4.761
4.758
4.758
4.755
4.750
4.752
4.750
4.749
4.755
4.752
4.747
4.740
4.742
4.741
4.742
4.746
4.755
4.762
4.767
4.776
4.780
4.781
4.786
4.782
4.786
4.785
4.780
4.771
4.766
4.768
4.764
4.762
4.762
4.770
4.770
4.765
4.764
4.765
4.762
4.757
4.762
4.757
4.758
4.765
4.772
4.779
4.786
4.793
4.800
4.799
4.797
4.796
4.794
4.792
4.792
4.792
4.789
4.785
4.784
4.785
4.783
4.788
4.786
4.781
4.773
4.770
4.770
4.779
4.778
4.776
4.778
4.776
4.773
4.781
4.788
4.793
4.800
4.803
4.799
4.792
4.786
4.781
4.777
4.770
4.772
4.779
4.780
4.781
4.778
4.770
4.775
4.774
4.777
4.771
4.772
4.773
4.764
4.763
4.764
4.766
4.762
4.766
4.770
4.777
4.783
4.790
4.797
4.804
4.807
4.801
4.799
4.799
4.800
4.793
4.794
4.796
4.795
4.793
4.788
4.793
4.791
4.795
4.792
4.787
4.789
4.788
4.792
4.793
4.792
4.798
4.792
4.787
4.784
4.787
4.781
4.787
4.786
4.784
4.789
4.795
4.802
4.807
4.813
4.820
4.825
4.823
4.822
4.825
4.816
4.815
4.822
4.825
4.822
4.825
4.827
4.825
4.832
4.829
4.824
4.823
4.814
4.810
4.807
4.801
4.799
4.803
4.803
4.801
4.795
4.792
4.800
4.803
4.811
4.809
4.803
4.801
4.803
4.803
4.810
4.815
4.819
4.815
4.813
4.809
4.805
4.801
4.799
4.796
4.791
4.796
4.799
4.796
4.792
4.790
4.786
4.787
4.788
4.782
4.778
4.774
4.773
4.776
4.777
4.777
4.778
4.777
4.778
4.779
4.780
4.776
4.773
4.773
4.773
4.776
4.781
4.787
4.792
4.798
4.797
4.793
4.792
4.793
4.792
4.792
4.791
4.792
4.791
4.787
4.784
4.788
4.784
4.782
4.784
4.785
4.784
4.787
4.788
4.788
4.784
4.784
4.781
4.781
4.781
4.777
4.780
4.784
4.780
4.776
4.773
4.776
4.778
4.773
4.773
4.774
4.773
4.771
4.770
4.771
4.775
4.781
4.784
4.790
4.795
4.803
4.802
4.801
4.795
4.793
4.792
4.793
4.794
4.792
4.791
4.795
4.795
4.795
4.800
4.806
4.803
4.801
4.802
4.803
4.799
4.796
4.795
4.795
4.794
4.795
4.797
4.798
4.792
4.787
4.781
4.776
4.777
4.779
4.781
4.784
4.783
4.782
4.781
4.782
4.780
4.782
4.786
4.782
4.778
4.773
4.773
4.779
4.784
4.790
4.794
4.799
4.802
4.803
4.797
4.799
4.803
4.799
4.791
4.790
4.791
4.793
4.795
4.796
4.792
4.788
4.789
4.787
4.784
4.782
4.784
4.784
4.783
4.779
4.778
4.777
4.783
4.788
4.783
4.784
4.781
4.782
4.778
4.785
4.781
4.781
4.781
4.779
4.780
4.779
4.780
4.776
4.777
4.779
4.777
4.779
4.781
4.777
4.775
4.779
4.783
4.781
4.778
4.777
4.781
4.787
4.791
4.796
4.802
4.804
4.810
4.815
4.813
4.809
4.803
4.804
4.810
4.812
4.808
4.807
4.810
4.809
4.810
4.806
4.802
4.796
4.795
4.788
4.789
4.784
4.784
4.784
4.784
4.779
4.783
4.782
4.778
4.777
4.780
4.781
4.783
4.782
4.777
4.779
4.778
