2.993
3.321
3.491
3.588
3.592
3.601
3.681
3.713
3.763
3.807
3.838
3.880
3.909
3.911
3.949
3.973
3.967
3.983
4.022
4.025
4.063
4.061
4.083
4.048
4.064
4.092
4.106
4.115
4.109
4.113
4.145
4.135
4.160
4.197
4.152
4.174
4.190
4.206
4.218
4.225
4.227
4.220
4.201
4.204
4.210
4.165
4.187
4.211
4.193
4.195
4.236
4.210
4.229
4.220
4.223
4.239
4.234
4.247
4.264
4.247
4.297
4.270
4.291
4.274
4.284
4.269
4.253
4.265
4.243
4.274
4.279
4.240
4.280
4.284
4.273
4.273
4.298
4.278
4.289
4.305
4.320
4.305
4.301
4.319
4.336
4.325
4.288
4.313
4.328
4.304
4.296
4.290
4.336
4.317
4.324
4.325
4.315
4.336
4.380
4.357
4.339
4.335
4.321
4.354
4.356
4.355
4.352
4.342
4.357
4.344
4.384
4.389
4.411
4.378
4.361
4.355
4.353
4.381
4.415
4.414
4.406
4.414
4.420
4.401
4.379
4.380
4.366
4.353
4.330
4.338
4.344
4.343
4.352
4.343
4.375
4.381
4.374
4.363
4.341
4.341
4.331
4.340
4.335
4.329
4.359
4.389
4.402
4.386
4.352
4.346
4.353
4.351
4.358
4.342
4.343
4.331
4.351
4.379
4.398
4.403
4.388
4.375
4.382
4.388
4.362
4.360
4.370
4.373
4.346
4.348
4.339
4.365
4.390
4.415
4.426
4.406
4.403
4.425
4.421
4.415
4.398
4.404
4.397
4.404
4.367
4.379
4.381
4.397
4.397
4.391
4.401
4.424
4.447
4.470
4.446
4.443
4.443
4.443
4.433
4.412
4.427
4.412
4.404
4.384
4.387
4.369
4.343
4.356
4.360
4.350
4.371
4.391
4.412
4.428
4.448
4.457
4.443
4.444
4.441
4.422
4.429
4.419
4.422
4.418
4.392
4.390
4.398
4.405
4.409
4.427
4.416
4.423
4.399
4.392
4.416
4.419
4.405
4.407
4.406
4.414
4.432
4.451
4.469
4.475
4.461
4.447
4.432
4.441
4.434
4.427
4.417
4.413
4.410
4.392
4.390
4.387
4.387
4.397
4.394
4.392
4.397
4.387
4.367
4.351
4.342
4.362
4.374
4.376
4.359
4.363
4.368
4.377
4.388
4.404
4.420
4.437
4.452
4.468
4.485
4.482
4.480
4.476
4.468
4.438
4.435
4.451
4.438
4.433
4.448
4.428
4.422
4.406
4.406
4.410
4.417
4.432
4.429
4.427
4.415
4.414
4.424
4.432
4.417
4.413
4.392
4.388
4.372
4.367
4.358
4.359
4.352
4.357
4.353
4.351
4.346
4.359
4.363
4.376
4.390
4.404
4.418
4.431
4.445
4.459
4.472
4.486
4.500
4.490
4.488
4.475
4.477
4.471
4.487
4.485
4.479
4.466
4.454
4.453
4.451
4.442
4.438
4.440
4.429
4.433
4.430
4.432
4.446
4.445
4.421
4.415
4.411
4.410
4.401
4.413
4.432
4.415
4.429
4.436
4.430
4.439
4.453
4.448
4.434
4.418
4.428
4.430
4.424
4.418
4.408
4.401
4.397
4.387
4.378
4.386
4.392
4.396
4.412
4.395
4.416
4.421
4.415
4.423
4.427
4.413
4.417
4.425
4.433
4.445
4.456
4.467
4.479
4.490
4.502
4.507
4.496
4.486
4.476
4.465
4.473
4.475
4.455
4.448
4.443
4.445
4.433
4.448
4.459
4.469
4.456
4.446
4.463
4.447
4.448
4.439
4.440
4.447
4.459
4.456
4.449
4.449
4.436
4.442
4.438
4.434
4.430
4.421
4.408
4.411
4.393
4.415
4.401
4.408
4.404
4.404
4.406
4.385
4.391
4.373
4.387
4.389
4.386
4.376
4.380
4.378
4.379
4.384
4.375
4.371
4.363
4.381
4.391
4.387
4.379
4.372
4.362
4.361
4.365
4.364
4.374
4.390
4.400
4.414
4.428
4.419
4.435
4.430
4.412
4.404
4.403
4.396
4.401
4.409
4.404
4.401
4.400
4.396
4.400
4.412
4.414
4.404
4.418
4.412
4.421
4.430
4.439
4.449
4.458
4.467
4.476
4.485
4.494
4.501
4.513
4.505
4.495
4.501
4.495
4.494
4.496
4.477
4.481
4.493
4.483
4.490
4.495
4.498
4.489
4.486
4.471
4.466
4.461
4.465
4.472
4.466
4.461
4.451
4.460
4.447
4.441
4.440
4.440
4.458
4.463
4.469
4.474
4.477
4.473
4.471
4.463
4.459
4.465
4.462
4.459
4.476
4.467
4.458
4.455
4.453
4.443
4.448
4.451
4.445
4.455
4.467
4.479
4.491
4.495
4.492
4.487
4.472
4.456
4.442
4.451
4.458
4.457
4.458
4.455
4.458
4.456
4.461
4.454
4.450
4.449
4.456
4.441
4.432
4.431
4.429
4.426
4.412
4.415
4.409
4.413
4.410
4.422
4.419
4.426
4.417
4.418
4.419
4.411
4.403
4.395
4.405
4.392
4.382
4.395
4.389
4.388
4.387
4.384
4.384
4.396
4.409
4.407
4.407
4.407
4.418
4.415
4.407
4.401
4.391
4.389
4.382
4.385
4.382
4.382
4.393
4.383
4.381
4.377
4.372
4.367
4.360
4.354
4.347
4.350
4.350
4.363
4.373
4.362
4.369
4.356
4.357
4.344
4.335
4.329
4.333
4.329
4.329
4.327
4.334
4.341
4.349
4.354
4.361
4.368
4.375
4.382
4.389
4.396
4.402
4.409
4.416
4.423
4.430
4.436
4.443
4.450
4.457
4.464
4.471
4.478
4.484
4.491
4.498
4.505
4.512
4.519
4.526
4.532
4.539
4.546
4.553
4.560
4.567
4.574
4.570
4.568
4.556
4.557
4.552
4.548
4.552
4.548
4.547
4.546
4.536
4.529
4.520
4.516
4.517
4.523
4.517
4.508
4.509
4.496
4.491
4.493
4.495
4.484
4.490
4.482
4.480
4.472
4.470
4.475
4.464
4.476
4.478
4.489
4.500
4.511
4.515
4.501
4.506
4.502
4.495
4.493
4.495
4.496
4.492
4.490
4.485
4.492
4.496
4.487
4.481
4.492
4.500
4.499
4.497
4.488
4.491
4.492
4.498
4.512
4.504
4.495
4.484
4.478
4.480
4.480
4.490
4.492
4.480
4.468
4.471
4.465
4.462
4.457
4.462
4.454
4.458
4.458
4.451
4.451
4.453
4.453
4.448
4.449
4.438
4.441
4.439
4.429
4.428
4.421
4.425
4.435
4.427
4.420
4.420
4.421
4.416
4.418
4.414
4.416
4.423
4.436
4.422
4.417
4.418
4.409
4.414
4.416
4.419
4.412
4.405
4.399
4.392
4.385
4.379
4.372
4.372
4.374
4.382
4.374
4.367
4.365
4.362
4.374
4.371
4.375
4.374
4.370
4.381
4.375
4.374
4.374
4.367
4.371
4.370
4.371
4.377
4.373
4.375
4.383
4.391
4.399
4.407
4.415
4.423
4.431
4.439
4.438
4.437
4.425
4.429
4.424
4.431
4.437
4.440
4.435
4.433
4.444
4.433
4.425
4.419
4.425
4.422
4.414
4.416
4.426
4.431
4.427
4.435
4.444
4.453
4.460
4.470
4.455
4.453
4.446
4.438
4.429
4.421
4.421
4.416
4.411
4.404
4.399
4.396
4.409
4.411
4.404
4.403
4.401
4.410
4.406
4.401
4.402
4.405
4.404
4.391
4.387
4.385
4.380
4.382
4.383
4.392
4.388
4.395
4.395
4.400
4.391
4.397
4.387
4.396
4.397
4.404
4.397
4.402
4.399
4.394
4.383
4.385
4.384
4.379
4.379
4.371
4.381
4.394
4.391
4.390
4.386
4.394
4.393
4.400
4.406
4.400
4.395
4.390
4.380
4.382
4.370
4.374
4.376
4.370
4.369
4.364
4.355
4.357
4.365
4.364
4.363
4.375
4.364
4.361
4.367
4.371
4.363
4.361
4.371
4.376
4.368
4.364
4.369
4.369
4.363
4.364
4.366
4.362
4.358
4.358
4.356
4.362
4.360
4.356
4.356
4.360
4.360
4.362
4.364
4.358
4.367
4.379
4.378
4.378
4.385
4.379
4.384
4.389
4.391
4.383
4.376
4.375
4.384
4.394
4.391
4.384
4.388
4.393
4.397
4.402
4.407
4.411
4.416
4.420
4.425
4.429
4.434
4.439
4.443
4.448
4.452
4.457
4.461
4.466
4.470
4.475
4.479
4.484
4.488
4.493
4.498
4.502
4.507
4.511
4.516
4.520
4.525
4.530
4.534
4.539
4.534
4.529
4.532
4.519
4.521
4.526
