2.986
3.329
3.506
3.626
3.687
3.746
3.829
3.840
3.886
3.936
3.979
4.021
4.020
3.960
3.987
4.010
4.030
4.048
4.060
4.068
4.092
4.103
4.122
4.130
4.147
4.160
4.162
4.180
4.189
4.204
4.199
4.212
4.224
4.242
4.248
4.240
4.247
4.258
4.267
4.280
4.281
4.299
4.305
4.280
4.293
4.304
4.312
4.317
4.327
4.335
4.327
4.348
4.349
4.363
4.358
4.340
4.343
4.353
4.360
4.366
4.368
4.366
4.371
4.380
4.394
4.394
4.403
4.401
4.395
4.410
4.414
4.420
4.428
4.430
4.435
4.435
4.425
4.437
4.448
4.423
4.420
4.428
4.424
4.421
4.431
4.438
4.452
4.431
4.438
4.433
4.439
4.444
4.456
4.452
4.457
4.469
4.453
4.467
4.468
4.473
4.480
4.487
4.486
4.469
4.478
4.475
4.475
4.478
4.485
4.483
4.498
4.495
4.500
4.510
4.506
4.507
4.502
4.514
4.513
4.523
4.522
4.525
4.529
4.533
4.534
4.544
4.536
4.526
4.537
4.522
4.533
4.531
4.531
4.538
4.540
4.554
4.543
4.550
4.560
4.556
4.565
4.563
4.557
4.570
4.563
4.573
4.568
4.562
4.549
4.536
4.526
4.529
4.540
4.527
4.529
4.541
4.538
4.534
4.544
4.559
4.557
4.543
4.565
4.559
4.554
4.563
4.554
4.537
4.551
4.544
4.543
4.540
4.541
4.537
4.531
4.547
4.545
4.540
4.537
4.555
4.561
4.555
4.548
4.556
4.570
4.565
4.554
4.552
4.566
4.565
4.560
4.559
4.568
4.578
4.570
4.576
4.570
4.579
4.595
4.586
4.589
4.580
4.584
4.577
4.577
4.569
4.572
4.584
4.577
4.573
4.584
4.572
4.578
4.596
4.597
4.599
4.587
4.586
4.589
4.599
4.600
4.596
4.597
4.586
4.592
4.612
4.620
4.617
4.616
4.613
4.608
4.609
4.629
4.622
4.624
4.611
4.618
4.612
4.619
4.632
4.628
4.633
4.621
4.613
4.607
4.610
4.608
4.603
4.601
4.595
4.596
4.597
4.599
4.600
4.599
4.591
4.585
4.586
4.587
4.602
4.615
4.616
4.613
4.616
4.609
4.604
4.601
4.599
4.616
4.619
4.616
4.620
4.611
4.613
4.610
4.595
4.603
4.617
4.616
4.621
4.620
4.613
4.608
4.605
4.609
4.598
4.614
4.630
4.635
4.638
4.632
4.632
4.622
4.618
4.614
4.614
4.618
4.630
4.639
4.631
4.630
4.632
4.626
4.634
4.629
4.626
4.623
4.619
4.634
4.649
4.657
4.664
4.659
4.658
4.649
4.649
4.645
4.646
4.640
4.637
4.641
4.655
4.669
4.664
4.663
4.656
4.656
4.651
4.649
4.647
4.642
4.636
4.635
4.649
4.660
4.655
4.646
4.640
4.647
4.637
4.635
4.626
4.622
4.619
4.619
4.630
4.643
4.656
4.662
4.661
4.659
4.659
4.662
4.656
4.645
4.636
4.631
4.641
4.639
4.640
4.636
4.648
4.661
4.672
4.673
4.667
4.670
4.672
4.672
4.669
4.658
4.655
4.652
4.652
4.650
4.650
4.645
4.652
4.663
4.675
4.687
4.696
4.693
4.692
4.688
4.677
4.679
4.676
4.675
4.679
4.676
4.685
4.677
4.673
4.670
4.670
4.671
4.682
4.692
4.691
4.694
4.702
4.697
4.687
4.677
4.673
4.667
4.665
4.664
4.660
4.667
4.662
4.663
4.665
4.659
4.671
4.682
4.693
4.696
4.694
4.691
4.688
4.689
4.689
4.696
4.693
4.693
4.686
4.692
4.687
4.685
4.682
4.681
4.678
4.677
4.681
4.683
4.690
4.693
4.704
4.714
4.725
4.735
4.733
4.733
4.732
4.724
4.716
4.706
4.714
4.707
4.705
4.711
4.704
4.704
4.702
4.695
4.695
4.696
4.693
4.693
4.691
4.701
4.711
4.721
4.729
4.720
4.719
4.720
4.714
4.708
4.702
4.697
4.691
4.685
4.679
4.677
4.678
4.670
4.671
4.678
4.677
4.678
4.672
4.681
4.683
4.683
4.692
4.695
4.700
4.695
4.697
4.692
4.689
4.685
4.690
4.683
4.685
4.688
4.691
4.684
4.678
4.674
4.671
4.675
4.668
4.667
4.666
4.655
4.657
4.660
4.657
4.658
4.667
4.676
4.685
4.694
4.703
4.712
4.712
4.710
4.709
4.705
4.705
4.705
4.704
4.694
4.698
4.696
4.698
4.694
4.689
4.686
4.688
4.688
4.696
4.694
4.687
4.679
4.671
4.664
4.666
4.659
4.656
4.656
4.664
4.673
4.681
4.690
4.698
4.700
4.704
4.700
4.689
4.687
4.687
4.695
4.697
4.694
4.696
4.697
4.689
4.694
4.696
4.697
4.702
4.697
4.692
4.695
4.690
4.689
4.686
4.682
4.682
4.677
4.677
4.678
4.682
4.679
4.670
4.678
4.676
4.674
4.676
4.684
4.692
4.700
4.705
4.701
4.703
4.702
4.701
4.701
4.701
4.704
4.701
4.702
4.702
4.703
4.702
4.688
4.688
4.691
4.697
4.691
4.690
4.690
4.694
4.684
4.683
4.683
4.681
4.684
4.677
4.679
4.687
4.683
4.689
4.692
4.690
4.683
4.682
4.681
4.677
4.669
4.677
4.684
4.692
4.699
4.706
4.708
4.719
4.723
4.713
4.709
4.712
4.710
4.710
4.712
4.722
4.712
4.709
4.704
4.708
4.711
4.715
4.705
4.700
4.700
4.698
4.701
4.700
4.700
4.691
4.689
4.688
4.687
4.690
4.700
4.699
4.702
4.705
4.698
4.704
4.701
4.701
4.693
4.696
4.694
4.695
4.695
4.693
4.682
4.680
4.681
4.688
4.695
4.702
4.709
4.716
4.723
4.730
4.731
4.732
4.726
4.721
4.721
4.725
4.729
4.727
4.726
4.727
4.735
4.734
4.742
4.746
4.737
4.729
4.730
4.726
4.723
4.716
4.718
4.716
4.714
4.716
4.722
4.719
4.711
4.711
4.705
4.706
4.709
4.705
4.708
4.703
4.705
4.702
4.709
4.710
4.709
4.708
4.708
4.709
4.702
4.707
4.716
4.711
4.711
4.709
4.702
4.701
4.702
4.707
4.708
4.710
4.717
4.723
4.730
4.736
4.742
4.749
4.755
4.761
4.762
4.758
4.763
4.765
4.765
4.760
4.763
4.762
4.768
4.764
4.763
4.758
4.755
4.752
4.749
4.752
4.756
4.749
4.746
4.740
4.742
4.749
4.748
4.744
4.748
4.752
4.753
4.748
4.742
4.737
4.739
4.744
4.753
4.752
4.747
4.744
4.740
4.738
4.736
4.729
4.725
4.721
4.719
4.712
4.709
4.711
4.720
4.718
4.714
4.709
4.714
4.722
4.721
4.724
4.719
4.714
4.710
4.707
4.710
4.716
4.721
4.727
4.733
4.739
4.738
4.743
4.741
4.748
4.752
4.750
4.753
4.751
4.747
4.750
4.744
4.745
4.747
4.746
4.743
4.745
4.743
4.742
4.736
4.734
4.729
4.725
4.724
4.726
4.721
4.725
4.723
4.723
4.714
4.706
4.705
4.713
4.712
4.717
4.716
4.716
4.722
4.724
4.722
4.717
4.713
4.712
4.709
4.712
4.713
4.709
4.709
4.717
4.718
4.719
4.717
4.713
4.713
4.712
4.706
4.708
4.708
4.714
4.718
4.719
4.713
4.711
4.705
4.699
4.696
4.690
4.689
4.691
4.696
4.692
4.694
4.696
4.698
4.702
4.707
4.712
4.718
4.723
4.728
4.734
4.739
4.744
4.749
4.755
4.760
4.765
4.767
4.768
4.767
4.762
4.764
4.766
4.762
4.770
4.769
4.763
4.763
4.756
4.752
4.753
4.749
4.749
4.750
4.750
4.749
4.749
4.756
4.762
4.758
4.757
4.763
4.764
4.763
4.762
4.762
4.763
4.758
4.753
4.755
4.758
4.753
4.757
4.754
4.743
4.751
4.755
4.753
4.760
4.759
4.754
4.755
4.756
4.756
4.758
4.757
4.754
4.751
4.748
4.749
4.752
4.748
4.745
4.742
4.739
4.746
4.738
4.735
4.733
4.739
4.746
4.745
4.742
4.741
4.737
4.741
4.738
4.734
4.731
4.727
4.724
4.720
4.716
4.720
4.723
4.720
4.720
4.716
4.714
4.718
4.716
4.724
4.727
4.728
4.726
4.722
4.719
4.724
4.729
4.734
4.739
4.744
4.748
4.753
4.758
4.763
4.767
4.772
4.770
4.765
4.762
4.758
4.760
