2.994
3.332
3.517
3.633
3.699
3.778
3.828
3.879
3.916
3.965
3.948
3.987
4.020
4.051
4.084
4.116
4.136
4.128
4.073
4.084
4.097
4.111
4.134
4.138
4.149
4.169
4.171
4.189
4.193
4.205
4.219
4.218
4.230
4.243
4.240
4.254
4.267
4.278
4.278
4.281
4.289
4.299
4.310
4.314
4.307
4.310
4.323
4.334
4.340
4.344
4.349
4.359
4.346
4.351
4.362
4.366
4.372
4.377
4.387
4.391
4.393
4.400
4.407
4.395
4.394
4.397
4.405
4.406
4.416
4.415
4.415
4.427
4.434
4.441
4.436
4.444
4.449
4.455
4.458
4.463
4.469
4.451
4.442
4.442
4.451
4.448
4.462
4.457
4.470
4.473
4.469
4.465
4.477
4.477
4.485
4.485
4.493
4.495
4.500
4.499
4.500
4.509
4.501
4.506
4.507
4.515
4.518
4.522
4.518
4.533
4.531
4.540
4.533
4.532
4.540
4.536
4.540
4.524
4.508
4.514
4.514
4.522
4.523
4.524
4.522
4.531
4.532
4.531
4.536
4.545
4.542
4.533
4.528
4.542
4.535
4.531
4.543
4.539
4.541
4.548
4.546
4.555
4.553
4.560
4.566
4.555
4.556
4.557
4.569
4.565
4.579
4.572
4.581
4.578
4.580
4.570
4.567
4.579
4.576
4.574
4.571
4.585
4.580
4.588
4.578
4.586
4.587
4.587
4.600
4.601
4.604
4.604
4.598
4.606
4.603
4.603
4.602
4.606
4.612
4.605
4.619
4.616
4.621
4.625
4.620
4.621
4.629
4.627
4.627
4.629
4.615
4.629
4.624
4.623
4.637
4.619
4.618
4.625
4.615
4.617
4.635
4.631
4.625
4.638
4.639
4.642
4.640
4.649
4.648
4.640
4.650
4.661
4.651
4.644
4.658
4.659
4.663
4.653
4.661
4.652
4.643
4.635
4.626
4.623
4.622
4.618
4.619
4.628
4.628
4.624
4.626
4.629
4.636
4.622
4.620
4.627
4.639
4.635
4.637
4.626
4.641
4.646
4.644
4.639
4.648
4.652
4.651
4.652
4.645
4.650
4.649
4.639
4.632
4.628
4.645
4.638
4.627
4.630
4.634
4.629
4.632
4.633
4.634
4.626
4.640
4.636
4.632
4.628
4.630
4.638
4.647
4.642
4.642
4.638
4.641
4.645
4.662
4.649
4.651
4.650
4.647
4.649
4.659
4.653
4.654
4.648
4.645
4.648
4.664
4.659
4.662
4.658
4.655
4.656
4.659
4.670
4.669
4.667
4.674
4.669
4.665
4.666
4.680
4.683
4.688
4.676
4.674
4.670
4.666
4.679
4.670
4.673
4.671
4.665
4.662
4.666
4.677
4.672
4.669
4.669
4.666
4.669
4.671
4.668
4.683
4.687
4.684
4.685
4.680
4.684
4.678
4.682
4.683
4.691
4.681
4.689
4.680
4.682
4.685
4.682
4.678
4.692
4.705
4.702
4.699
4.701
4.704
4.700
4.703
4.699
4.695
4.707
4.713
4.710
4.708
4.711
4.708
4.711
4.705
4.693
4.703
4.716
4.720
4.720
4.719
4.712
4.710
4.702
4.700
4.693
4.700
4.697
4.691
4.690
4.687
4.685
4.687
4.687
4.684
4.688
4.700
4.694
4.685
4.678
4.681
4.680
4.678
4.684
4.683
4.680
4.689
4.701
4.693
4.696
4.694
4.691
4.691
4.690
4.687
4.688
4.685
4.687
4.694
4.706
4.715
4.710
4.701
4.701
4.700
4.696
4.697
4.692
4.691
4.687
4.691
4.702
4.714
4.710
4.709
4.705
4.697
4.690
4.692
4.692
4.687
4.689
4.688
4.691
4.701
4.712
4.720
4.714
4.711
4.709
4.710
4.709
4.708
4.708
4.703
4.704
4.703
4.702
4.706
4.713
4.724
4.731
4.725
4.728
4.719
4.714
4.715
4.713
4.722
4.722
4.717
4.715
4.705
4.704
4.714
4.724
4.726
4.727
4.731
4.729
4.723
4.727
4.725
4.728
4.722
4.717
4.718
4.721
4.723
4.726
4.723
4.725
4.735
4.745
4.753
4.752
4.749
4.741
4.739
4.745
4.744
4.744
4.747
4.736
4.732
4.734
4.728
4.721
4.726
4.734
4.743
4.753
4.747
4.744
4.743
4.743
4.739
4.741
4.734
4.727
4.720
4.715
4.717
4.721
4.721
4.712
4.721
4.730
4.739
4.745
4.739
4.740
4.741
4.739
4.732
4.731
4.723
4.719
4.721
4.718
4.709
4.709
4.718
4.716
4.711
4.715
4.723
4.732
4.741
4.747
4.745
4.744
4.746
4.750
4.745
4.743
4.744
4.748
4.745
4.736
4.733
4.724
4.727
4.726
4.723
4.725
4.727
4.722
4.729
4.737
4.746
4.754
4.756
4.754
4.758
4.763
4.760
4.755
4.758
4.756
4.754
4.753
4.752
4.750
4.745
4.753
4.742
4.741
4.741
4.738
4.738
4.738
4.739
4.744
4.752
4.761
4.769
4.773
4.775
4.774
4.771
4.772
4.779
4.779
4.780
4.775
4.769
4.767
4.761
4.760
4.760
4.763
4.763
4.763
4.761
4.761
4.764
4.756
4.749
4.751
4.758
4.766
4.774
4.782
4.787
4.786
4.780
4.778
4.779
4.773
4.769
4.764
4.767
4.763
4.759
4.761
4.756
4.757
4.760
4.756
4.748
4.744
4.739
4.738
4.743
4.748
4.746
4.754
4.761
4.769
4.776
4.781
4.783
4.784
4.779
4.772
4.777
4.772
4.773
4.774
4.778
4.773
4.768
4.771
4.767
4.769
4.764
4.765
4.768
4.774
4.773
4.770
4.772
4.765
4.765
4.761
4.769
4.766
4.762
4.766
4.774
4.781
4.788
4.795
4.802
4.806
4.804
4.801
4.800
4.802
4.795
4.800
4.800
4.797
4.799
4.796
4.800
4.802
4.801
4.804
4.812
4.806
4.804
4.800
4.792
4.787
4.785
4.786
4.779
4.780
4.781
4.786
4.783
4.781
4.778
4.785
4.792
4.798
4.805
4.812
4.816
4.813
4.813
4.809
4.805
4.802
4.798
4.794
4.790
4.786
4.782
4.779
4.779
4.783
4.775
4.769
4.763
4.756
4.760
4.754
4.756
4.753
4.753
4.755
4.752
4.753
4.754
4.754
4.759
4.766
4.772
4.778
4.785
4.791
4.791
4.789
4.793
4.788
4.784
4.779
4.774
4.769
4.765
4.769
4.767
4.768
4.762
4.761
4.762
4.758
4.765
4.765
4.762
4.759
4.757
4.759
4.755
4.764
4.765
4.762
4.764
4.763
4.764
4.762
4.755
4.751
4.753
4.753
4.754
4.760
4.766
4.772
4.778
4.784
4.781
4.776
4.774
4.773
4.773
4.778
4.774
4.769
4.765
4.769
4.776
4.778
4.783
4.785
4.781
4.776
4.780
4.778
4.773
4.770
4.769
4.772
4.772
4.774
4.775
4.769
4.767
4.767
4.766
4.766
4.767
4.766
4.760
4.758
4.758
4.753
4.756
4.762
4.767
4.771
4.767
4.764
4.768
4.773
4.779
4.785
4.791
4.791
4.788
4.783
4.783
4.780
4.773
4.774
4.775
4.778
4.777
4.772
4.769
4.769
4.763
4.762
4.763
4.762
4.759
4.761
4.759
4.757
4.764
4.767
4.769
4.765
4.770
4.770
4.763
4.762
4.755
4.754
4.758
4.759
4.757
4.757
4.757
4.750
4.756
4.753
4.754
4.754
4.755
4.756
4.756
4.755
4.760
4.765
4.771
4.776
4.781
4.787
4.792
4.798
4.803
4.800
4.800
4.797
4.795
4.797
4.795
4.787
4.790
4.786
4.790
4.788
4.792
4.788
4.788
4.792
4.791
4.787
4.782
4.777
4.771
4.766
4.761
4.756
4.758
4.756
4.757
4.758
4.751
4.758
4.752
4.753
4.759
4.760
4.754
4.757
4.764
4.771
4.772
4.773
4.770
4.766
4.768
4.767
4.766
4.761
4.763
4.762
4.759
4.759
4.758
4.764
4.769
4.774
4.779
4.784
4.789
4.794
4.799
4.797
4.796
4.795
4.798
4.794
4.795
4.798
4.797
4.801
4.801
4.799
4.798
4.797
4.798
4.797
4.793
4.790
4.792
4.785
4.790
4.794
4.800
4.801
4.801
4.798
4.795
4.793
4.789
4.788
4.788
4.784
4.780
4.775
4.770
4.765
4.768
4.771
4.772
4.774
4.771
4.773
4.772
4.769
4.764
4.759
4.761
4.761
4.757
4.754
4.757
4.758
4.753
4.754
4.755
4.754
4.757
4.760
4.765
4.771
4.769
4.771
4.775
4.780
