2.994
3.335
3.513
3.639
3.715
3.779
3.833
3.891
3.903
3.955
4.003
3.981
4.014
4.045
4.077
4.105
4.128
4.157
4.170
4.119
4.106
4.118
4.129
4.141
4.158
4.168
4.173
4.187
4.194
4.207
4.221
4.221
4.236
4.251
4.247
4.256
4.269
4.266
4.274
4.286
4.295
4.308
4.298
4.306
4.315
4.322
4.336
4.341
4.332
4.340
4.344
4.354
4.358
4.366
4.377
4.376
4.369
4.371
4.377
4.382
4.392
4.388
4.394
4.406
4.413
4.415
4.418
4.426
4.422
4.417
4.411
4.421
4.425
4.429
4.436
4.434
4.438
4.447
4.454
4.451
4.463
4.459
4.468
4.469
4.473
4.480
4.484
4.488
4.481
4.461
4.465
4.466
4.473
4.473
4.481
4.481
4.484
4.491
4.484
4.488
4.495
4.497
4.499
4.505
4.509
4.511
4.512
4.522
4.526
4.511
4.520
4.521
4.521
4.525
4.528
4.533
4.536
4.544
4.539
4.547
4.553
4.558
4.566
4.555
4.558
4.558
4.553
4.554
4.540
4.530
4.528
4.540
4.534
4.544
4.544
4.549
4.545
4.551
4.545
4.555
4.558
4.557
4.567
4.558
4.553
4.555
4.561
4.551
4.556
4.563
4.559
4.568
4.564
4.574
4.572
4.577
4.577
4.587
4.586
4.577
4.581
4.579
4.594
4.585
4.599
4.598
4.600
4.599
4.602
4.593
4.591
4.596
4.602
4.598
4.597
4.598
4.597
4.606
4.595
4.609
4.597
4.610
4.611
4.606
4.621
4.618
4.619
4.620
4.622
4.628
4.625
4.621
4.621
4.621
4.630
4.636
4.629
4.639
4.638
4.634
4.646
4.640
4.640
4.651
4.647
4.642
4.654
4.647
4.635
4.644
4.643
4.644
4.654
4.650
4.636
4.650
4.646
4.637
4.647
4.650
4.651
4.645
4.655
4.658
4.655
4.658
4.668
4.664
4.660
4.666
4.674
4.669
4.673
4.672
4.674
4.675
4.676
4.677
4.679
4.672
4.663
4.658
4.649
4.640
4.641
4.634
4.632
4.639
4.651
4.644
4.646
4.637
4.652
4.655
4.652
4.648
4.644
4.655
4.654
4.653
4.646
4.655
4.658
4.658
4.660
4.656
4.658
4.675
4.674
4.677
4.666
4.664
4.676
4.675
4.666
4.658
4.658
4.662
4.662
4.661
4.654
4.653
4.660
4.659
4.649
4.644
4.647
4.662
4.660
4.656
4.651
4.648
4.651
4.659
4.660
4.658
4.657
4.656
4.654
4.667
4.669
4.672
4.671
4.672
4.666
4.667
4.681
4.677
4.674
4.678
4.668
4.662
4.674
4.678
4.671
4.673
4.674
4.673
4.669
4.678
4.684
4.683
4.684
4.678
4.676
4.680
4.679
4.692
4.699
4.699
4.698
4.694
4.690
4.691
4.688
4.702
4.698
4.686
4.681
4.686
4.688
4.680
4.692
4.695
4.699
4.697
4.693
4.686
4.681
4.680
4.692
4.697
4.699
4.697
4.699
4.695
4.695
4.688
4.688
4.700
4.712
4.714
4.707
4.705
4.710
4.706
4.703
4.692
4.703
4.710
4.710
4.718
4.710
4.711
4.709
4.708
4.706
4.705
4.712
4.722
4.729
4.724
4.728
4.732
4.729
4.722
4.725
4.716
4.715
4.725
4.737
4.741
4.732
4.725
4.721
4.721
4.720
4.722
4.720
4.724
4.734
4.732
4.725
4.721
4.714
4.706
4.701
4.703
4.701
4.711
4.715
4.714
4.714
4.718
4.714
4.714
4.715
4.710
4.707
4.702
4.706
4.703
4.712
4.711
4.710
4.710
4.706
4.705
4.699
4.703
4.701
4.702
4.707
4.716
4.712
4.716
4.721
4.719
4.717
4.711
4.715
4.716
4.718
4.714
4.712
4.714
4.720
4.729
4.729
4.724
4.721
4.718
4.712
4.718
4.718
4.719
4.717
4.713
4.714
4.716
4.721
4.724
4.720
4.725
4.721
4.718
4.710
4.710
4.714
4.713
4.715
4.716
4.714
4.711
4.718
4.727
4.737
4.740
4.732
4.730
4.728
4.736
4.732
4.736
4.734
4.735
4.731
4.729
4.729
4.730
4.731
4.733
4.744
4.741
4.747
4.747
4.740
4.743
4.742
4.740
4.736
4.730
4.729
4.727
4.723
4.719
4.726
4.730
4.739
4.746
4.750
4.747
4.751
4.755
4.753
4.747
4.753
4.749
4.747
4.746
4.742
4.744
4.748
4.751
4.753
4.751
4.745
4.751
4.759
4.768
4.770
4.768
4.762
4.763
4.766
4.769
4.764
4.758
4.756
4.751
4.751
4.752
4.755
4.747
4.751
4.751
4.751
4.758
4.767
4.762
4.756
4.751
4.745
4.744
4.742
4.743
4.739
4.743
4.742
4.740
4.739
4.744
4.748
4.744
4.739
4.740
4.747
4.755
4.758
4.751
4.751
4.752
4.755
4.752
4.745
4.740
4.737
4.738
4.739
4.743
4.736
4.733
4.737
4.741
4.742
4.740
4.744
4.741
4.750
4.755
4.764
4.771
4.769
4.771
4.772
4.768
4.761
4.758
4.758
4.757
4.751
4.752
4.751
4.749
4.755
4.752
4.748
4.740
4.744
4.744
4.745
4.744
4.751
4.760
4.766
4.774
4.781
4.781
4.784
4.787
4.789
4.787
4.783
4.773
4.766
4.768
4.764
4.763
4.764
4.768
4.773
4.769
4.766
4.766
4.766
4.762
4.759
4.760
4.759
4.762
4.770
4.776
4.783
4.790
4.797
4.804
4.800
4.798
4.795
4.795
4.794
4.793
4.789
4.788
4.786
4.787
4.784
4.787
4.789
4.784
4.778
4.773
4.772
4.776
4.780
4.779
4.777
4.781
4.777
4.777
4.784
4.790
4.797
4.801
4.800
4.796
4.789
4.784
4.778
4.774
4.770
4.774
4.783
4.779
4.781
4.774
4.772
4.773
4.775
4.777
4.775
4.773
4.770
4.766
4.767
4.765
4.766
4.762
4.769
4.773
4.780
4.785
4.792
4.799
4.805
4.806
4.802
4.799
4.802
4.799
4.794
4.795
4.799
4.798
4.794
4.790
4.795
4.793
4.795
4.793
4.786
4.792
4.791
4.795
4.795
4.793
4.799
4.792
4.786
4.787
4.789
4.784
4.789
4.788
4.784
4.790
4.795
4.803
4.810
4.814
4.821
4.826
4.824
4.825
4.825
4.817
4.816
4.825
4.825
4.823
4.827
4.828
4.827
4.832
4.829
4.825
4.824
4.815
4.813
4.807
4.802
4.801
4.805
4.803
4.803
4.796
4.792
4.799
4.802
4.812
4.810
4.806
4.803
4.804
4.802
4.809
4.814
4.820
4.816
4.812
4.810
4.806
4.802
4.798
4.799
4.793
4.795
4.799
4.797
4.793
4.789
4.787
4.789
4.788
4.784
4.781
4.777
4.774
4.775
4.779
4.778
4.781
4.780
4.779
4.780
4.781
4.778
4.777
4.773
4.774
4.775
4.779
4.786
4.792
4.795
4.798
4.794
4.795
4.792
4.795
4.794
4.795
4.795
4.795
4.788
4.787
4.789
4.788
4.784
4.787
4.786
4.785
4.786
4.787
4.788
4.787
4.783
4.784
4.784
4.781
4.781
4.782
4.783
4.784
4.778
4.777
4.775
4.774
4.777
4.773
4.777
4.773
4.775
4.769
4.770
4.773
4.778
4.784
4.788
4.793
4.799
4.804
4.803
4.799
4.795
4.795
4.794
4.795
4.791
4.792
4.792
4.796
4.797
4.798
4.803
4.806
4.805
4.801
4.803
4.803
4.797
4.798
4.794
4.795
4.795
4.796
4.799
4.796
4.791
4.785
4.780
4.779
4.780
4.782
4.783
4.785
4.784
4.782
4.781
4.781
4.781
4.784
4.784
4.782
4.777
4.773
4.775
4.781
4.786
4.792
4.795
4.799
4.802
4.803
4.799
4.801
4.803
4.798
4.791
4.792
4.791
4.792
4.797
4.798
4.794
4.792
4.791
4.788
4.784
4.785
4.786
4.784
4.784
4.782
4.780
4.781
4.783
4.788
4.784
4.785
4.783
4.782
4.780
4.787
4.783
4.781
4.783
4.779
4.781
4.781
4.780
4.779
4.778
4.781
4.778
4.779
4.781
4.777
4.778
4.779
4.786
4.782
4.780
4.779
4.781
4.785
4.791
4.796
4.800
4.804
4.810
4.814
4.814
4.810
4.803
4.803
4.808
4.814
4.811
4.809
4.811
4.809
4.811
4.806
4.802
4.798
4.797
4.790
4.791
4.787
4.786
4.785
4.786
4.781
4.784
4.784
4.781
4.781
4.778
4.782
