2.976
3.304
3.474
3.593
3.637
3.743
3.836
3.754
3.781
3.824
3.853
3.891
3.907
3.955
3.964
4.003
4.002
4.034
4.032
4.044
4.069
4.108
4.088
4.088
4.116
4.139
4.152
4.155
4.147
4.164
4.158
4.189
4.194
4.197
4.219
4.220
4.239
4.234
4.245
4.260
4.236
4.237
4.246
4.240
4.247
4.247
4.273
4.259
4.277
4.292
4.309
4.287
4.283
4.296
4.307
4.315
4.321
4.324
4.329
4.336
4.352
4.368
4.352
4.333
4.353
4.357
4.355
4.382
4.373
4.381
4.403
4.386
4.394
4.409
4.384
4.358
4.350
4.368
4.371
4.382
4.382
4.391
4.358
4.355
4.344
4.356
4.359
4.373
4.374
4.381
4.375
4.366
4.379
4.391
4.393
4.404
4.417
4.413
4.403
4.392
4.409
4.394
4.390
4.424
4.404
4.401
4.428
4.429
4.419
4.422
4.446
4.445
4.436
4.445
4.458
4.449
4.424
4.458
4.463
4.444
4.426
4.439
4.413
4.409
4.423
4.449
4.436
4.439
4.416
4.443
4.453
4.431
4.427
4.420
4.449
4.433
4.448
4.444
4.437
4.450
4.467
4.458
4.448
4.443
4.436
4.466
4.474
4.475
4.475
4.471
4.465
4.468
4.495
4.487
4.491
4.489
4.483
4.463
4.485
4.485
4.464
4.463
4.462
4.436
4.457
4.484
4.485
4.489
4.474
4.468
4.460
4.451
4.468
4.493
4.511
4.502
4.495
4.492
4.484
4.477
4.489
4.490
4.508
4.526
4.525
4.527
4.526
4.517
4.513
4.494
4.493
4.502
4.525
4.522
4.512
4.512
4.506
4.501
4.486
4.503
4.497
4.497
4.519
4.534
4.543
4.543
4.536
4.539
4.537
4.541
4.537
4.527
4.531
4.532
4.532
4.553
4.563
4.555
4.556
4.567
4.547
4.547
4.556
4.545
4.528
4.526
4.530
4.536
4.556
4.546
4.554
4.557
4.539
4.543
4.533
4.531
4.516
4.502
4.494
4.491
4.510
4.529
4.537
4.526
4.528
4.532
4.520
4.535
4.532
4.533
4.522
4.518
4.518
4.510
4.500
4.495
4.516
4.524
4.539
4.539
4.536
4.528
4.517
4.504
4.508
4.521
4.517
4.524
4.524
4.518
4.513
4.505
4.500
4.509
4.500
4.514
4.530
4.547
4.541
4.529
4.547
4.543
4.527
4.527
4.528
4.517
4.507
4.515
4.505
4.508
4.510
4.513
4.522
4.520
4.515
4.506
4.508
4.523
4.539
4.553
4.559
4.552
4.544
4.542
4.533
4.538
4.537
4.550
4.548
4.549
4.555
4.548
4.535
4.525
4.520
4.528
4.516
4.518
4.520
4.516
4.507
4.518
4.523
4.537
4.551
4.565
4.579
4.576
4.573
4.569
4.575
4.568
4.584
4.573
4.556
4.540
4.549
4.552
4.549
4.550
4.553
4.562
4.559
4.552
4.553
4.555
4.555
4.552
4.545
4.550
4.545
4.528
4.534
4.541
4.554
4.567
4.580
4.592
4.605
4.618
4.612
4.611
4.607
4.625
4.622
4.609
4.601
4.595
4.596
4.599
4.584
4.571
4.568
4.563
4.571
4.559
4.558
4.569
4.570
4.561
4.553
4.561
4.553
4.543
4.532
4.523
4.514
4.522
4.534
4.546
4.557
4.569
4.580
4.585
4.587
4.588
4.591
4.593
4.582
4.576
4.566
4.570
4.568
4.566
4.569
4.562
4.575
4.578
4.573
4.561
4.562
4.559
4.552
4.561
4.561
4.566
4.559
4.552
4.559
4.549
4.553
4.549
4.547
4.537
4.535
4.533
4.530
4.539
4.533
4.526
4.533
4.542
4.557
4.552
4.560
4.571
4.581
4.592
4.602
4.613
4.623
4.634
4.642
4.639
4.629
4.640
4.639
4.640
4.639
4.634
4.629
4.621
4.625
4.623
4.625
4.631
4.625
4.615
4.615
4.608
4.600
4.593
4.585
4.589
4.575
4.583
4.573
4.563
4.558
4.571
4.561
4.552
4.554
4.555
4.557
4.547
4.537
4.537
4.533
4.529
4.527
4.524
4.509
4.515
4.517
4.526
4.536
4.545
4.554
4.564
4.573
4.582
4.591
4.599
4.596
4.586
4.589
4.583
4.591
4.601
4.591
4.589
4.595
4.608
4.601
4.601
4.605
4.596
4.585
4.589
4.591
4.589
4.583
4.584
4.578
4.581
4.582
4.574
4.573
4.571
4.579
4.584
4.597
4.592
4.589
4.595
4.599
4.602
4.594
4.594
4.591
4.587
4.579
4.572
4.567
4.558
4.557
4.557
4.547
4.555
4.550
4.556
4.563
4.553
4.559
4.552
4.547
4.557
4.555
4.548
4.547
4.545
4.549
4.545
4.547
4.538
4.539
4.545
4.553
4.561
4.569
4.577
4.585
4.593
4.601
4.610
4.618
4.626
4.634
4.639
4.639
4.633
4.632
4.623
4.631
4.630
4.625
4.620
4.610
4.603
4.607
4.596
4.586
4.581
4.582
4.572
4.576
4.583
4.573
4.575
4.570
4.570
4.573
4.584
4.595
4.598
4.589
4.593
4.594
4.588
4.585
4.584
4.584
4.584
4.581
4.591
4.593
4.587
4.583
4.590
4.600
4.592
4.590
4.586
4.587
4.583
4.592
4.580
4.574
4.563
4.563
4.560
4.565
4.564
4.562
4.567
4.558
4.558
4.565
4.555
4.556
4.547
4.548
4.544
4.535
4.530
4.528
4.519
4.529
4.541
4.541
4.542
4.542
4.536
4.549
4.545
4.548
4.552
4.546
4.546
4.556
4.566
4.564
4.563
4.570
4.577
4.584
4.591
4.598
4.605
4.612
4.619
4.626
4.632
4.639
4.647
4.653
4.660
4.651
4.652
4.646
4.650
4.646
4.652
4.641
4.641
4.641
4.635
4.627
4.632
4.641
4.635
4.640
4.640
4.646
4.652
4.656
4.648
4.642
4.632
4.622
4.617
4.614
4.614
4.603
4.599
4.601
4.603
4.605
4.612
4.622
4.626
4.629
4.621
4.620
4.615
4.606
4.595
4.598
4.593
4.586
4.586
4.586
4.589
4.594
4.600
4.600
4.610
4.615
4.609
4.604
4.616
4.607
4.602
4.606
4.608
4.609
4.610
4.607
4.613
4.622
4.623
4.620
4.623
4.616
4.608
4.601
4.594
4.588
4.594
4.595
4.597
4.590
4.584
4.578
4.580
4.584
4.587
4.583
4.575
4.570
4.575
4.569
4.570
4.568
4.562
4.565
4.563
4.566
4.571
4.569
4.564
4.558
4.553
4.548
4.546
4.555
4.560
4.559
4.546
4.550
4.551
4.552
4.551
4.559
4.546
4.533
4.531
4.529
4.532
4.538
4.544
4.550
4.556
4.561
4.567
4.573
4.579
4.585
4.590
4.596
4.602
4.608
4.613
4.619
4.625
4.631
4.627
4.632
4.633
4.637
4.633
4.634
4.635
4.639
4.630
4.626
4.614
4.614
4.612
4.603
4.606
4.607
4.608
4.597
4.600
4.608
4.609
4.603
4.604
4.608
4.616
4.623
4.625
4.619
4.618
4.630
4.624
4.622
4.635
4.624
4.619
4.621
4.612
4.608
4.615
4.616
4.619
4.624
4.619
4.614
4.623
4.629
4.632
4.623
4.621
4.612
4.605
4.610
4.608
4.611
4.603
4.613
4.605
4.604
4.605
4.605
4.610
4.601
4.599
4.592
4.596
4.588
4.595
4.589
4.600
4.600
4.596
4.585
4.587
4.583
4.582
4.588
4.584
4.590
4.583
4.583
4.578
4.578
4.582
4.576
4.576
4.570
4.570
4.566
4.574
4.569
4.571
4.573
4.572
4.574
4.570
4.569
4.573
4.571
4.573
4.578
4.578
4.576
4.578
4.568
4.559
4.565
4.565
4.563
4.557
4.563
4.564
4.574
4.574
4.576
4.567
4.564
4.567
4.568
4.568
4.568
4.569
4.570
4.564
4.562
4.563
4.570
4.571
4.566
4.573
4.571
4.564
4.565
4.573
4.575
4.572
4.579
4.581
4.581
4.588
4.595
4.592
4.593
4.586
4.584
4.586
4.583
4.578
4.572
4.569
4.563
4.554
4.553
4.551
4.557
4.553
4.545
4.542
4.541
4.547
4.549
4.554
4.555
4.548
4.544
4.551
4.549
4.549
4.549
4.558
4.551
4.548
4.541
4.535
4.532
4.528
4.531
4.533
4.534
4.540
4.539
4.544
4.548
4.553
4.558
4.562
4.567
4.571
4.576
4.581
4.585
4.590
4.595
4.599
4.604
4.609
4.613
4.618
4.622
4.627
4.632
4.636
4.641
4.646
