2.991
3.331
3.501
3.621
3.721
3.772
3.822
3.897
3.907
3.960
4.001
3.980
4.014
4.053
4.080
4.108
4.132
4.158
4.126
4.087
4.102
4.114
4.126
4.147
4.154
4.160
4.175
4.182
4.197
4.212
4.214
4.229
4.230
4.240
4.253
4.264
4.258
4.270
4.283
4.290
4.285
4.294
4.301
4.311
4.323
4.325
4.316
4.327
4.329
4.344
4.346
4.355
4.364
4.369
4.356
4.366
4.365
4.374
4.383
4.383
4.390
4.401
4.405
4.407
4.414
4.424
4.400
4.401
4.409
4.413
4.420
4.427
4.422
4.427
4.434
4.443
4.447
4.451
4.452
4.456
4.458
4.464
4.474
4.479
4.479
4.464
4.455
4.453
4.460
4.464
4.472
4.471
4.479
4.483
4.477
4.479
4.482
4.487
4.488
4.498
4.497
4.505
4.507
4.512
4.512
4.505
4.513
4.516
4.518
4.525
4.531
4.533
4.537
4.536
4.540
4.541
4.542
4.549
4.540
4.542
4.551
4.546
4.548
4.533
4.518
4.523
4.529
4.533
4.532
4.534
4.537
4.541
4.538
4.539
4.545
4.549
4.549
4.550
4.549
4.544
4.549
4.549
4.546
4.552
4.557
4.555
4.559
4.558
4.562
4.568
4.571
4.579
4.571
4.575
4.567
4.579
4.575
4.585
4.583
4.590
4.587
4.594
4.589
4.577
4.587
4.588
4.589
4.585
4.587
4.588
4.590
4.593
4.590
4.597
4.597
4.602
4.608
4.604
4.617
4.613
4.614
4.613
4.611
4.620
4.608
4.616
4.620
4.618
4.628
4.629
4.619
4.637
4.634
4.627
4.639
4.640
4.631
4.645
4.646
4.635
4.625
4.631
4.636
4.642
4.639
4.637
4.638
4.635
4.634
4.637
4.636
4.637
4.644
4.643
4.641
4.649
4.655
4.656
4.647
4.660
4.660
4.660
4.657
4.667
4.664
4.660
4.661
4.679
4.675
4.670
4.661
4.653
4.647
4.638
4.636
4.623
4.631
4.638
4.633
4.632
4.631
4.642
4.642
4.637
4.641
4.642
4.638
4.642
4.641
4.640
4.655
4.645
4.649
4.646
4.649
4.660
4.660
4.660
4.660
4.656
4.666
4.665
4.668
4.659
4.650
4.648
4.646
4.651
4.644
4.651
4.653
4.646
4.646
4.635
4.649
4.653
4.649
4.642
4.633
4.646
4.650
4.642
4.646
4.646
4.644
4.651
4.657
4.662
4.658
4.659
4.657
4.659
4.668
4.665
4.664
4.665
4.664
4.665
4.664
4.670
4.663
4.662
4.661
4.665
4.661
4.675
4.672
4.676
4.671
4.668
4.666
4.667
4.679
4.687
4.685
4.684
4.688
4.681
4.682
4.679
4.693
4.697
4.693
4.681
4.672
4.673
4.675
4.689
4.685
4.687
4.685
4.679
4.679
4.678
4.680
4.684
4.688
4.684
4.685
4.684
4.685
4.679
4.680
4.692
4.705
4.701
4.701
4.697
4.694
4.700
4.694
4.690
4.699
4.703
4.699
4.701
4.701
4.698
4.697
4.695
4.693
4.701
4.713
4.719
4.715
4.714
4.718
4.723
4.718
4.712
4.710
4.711
4.721
4.727
4.727
4.727
4.726
4.716
4.710
4.709
4.712
4.712
4.724
4.733
4.723
4.725
4.718
4.711
4.704
4.698
4.696
4.706
4.709
4.703
4.702
4.697
4.702
4.703
4.699
4.701
4.699
4.697
4.697
4.698
4.696
4.698
4.699
4.694
4.694
4.689
4.694
4.690
4.690
4.701
4.712
4.705
4.705
4.706
4.712
4.705
4.702
4.705
4.705
4.703
4.701
4.708
4.710
4.719
4.715
4.720
4.716
4.709
4.710
4.703
4.707
4.708
4.705
4.701
4.701
4.709
4.718
4.719
4.716
4.711
4.707
4.705
4.704
4.701
4.702
4.703
4.705
4.701
4.701
4.711
4.721
4.731
4.727
4.723
4.720
4.722
4.724
4.723
4.721
4.719
4.720
4.723
4.718
4.712
4.720
4.725
4.734
4.742
4.737
4.730
4.729
4.731
4.729
4.733
4.731
4.730
4.723
4.717
4.715
4.714
4.718
4.727
4.735
4.746
4.740
4.739
4.742
4.739
4.742
4.741
4.737
4.736
4.734
4.733
4.734
4.736
4.738
4.741
4.735
4.738
4.748
4.755
4.762
4.761
4.751
4.753
4.749
4.758
4.760
4.752
4.753
4.746
4.740
4.741
4.742
4.739
4.742
4.742
4.746
4.753
4.762
4.760
4.757
4.753
4.746
4.741
4.734
4.731
4.734
4.730
4.731
4.730
4.731
4.733
4.729
4.728
4.734
4.742
4.749
4.753
4.746
4.747
4.743
4.746
4.743
4.741
4.735
4.730
4.729
4.728
4.726
4.728
4.726
4.730
4.729
4.728
4.732
4.734
4.743
4.750
4.757
4.760
4.760
4.760
4.762
4.761
4.760
4.757
4.753
4.749
4.743
4.742
4.740
4.741
4.740
4.744
4.742
4.738
4.731
4.730
4.738
4.746
4.753
4.760
4.768
4.772
4.773
4.774
4.773
4.774
4.775
4.774
4.771
4.766
4.759
4.757
4.756
4.757
4.764
4.755
4.756
4.755
4.753
4.753
4.751
4.752
4.749
4.757
4.765
4.771
4.779
4.786
4.794
4.788
4.787
4.786
4.794
4.786
4.783
4.783
4.783
4.775
4.773
4.772
4.778
4.775
4.775
4.777
4.775
4.768
4.768
4.768
4.764
4.764
4.767
4.768
4.775
4.782
4.787
4.794
4.797
4.791
4.786
4.786
4.783
4.779
4.773
4.766
4.771
4.768
4.773
4.777
4.770
4.764
4.767
4.760
4.759
4.760
4.759
4.758
4.754
4.758
4.754
4.758
4.765
4.772
4.778
4.785
4.792
4.796
4.795
4.793
4.789
4.790
4.786
4.785
4.787
4.790
4.784
4.780
4.783
4.783
4.779
4.779
4.779
4.782
4.781
4.785
4.781
4.780
4.784
4.780
4.781
4.779
4.776
4.775
4.778
4.774
4.779
4.786
4.794
4.799
4.805
4.812
4.816
4.815
4.817
4.813
4.811
4.809
4.812
4.812
4.809
4.815
4.814
4.815
4.819
4.823
4.819
4.820
4.812
4.809
4.801
4.797
4.797
4.791
4.790
4.790
4.786
4.790
4.790
4.797
4.800
4.797
4.794
4.794
4.797
4.804
4.809
4.815
4.817
4.815
4.811
4.807
4.803
4.801
4.797
4.793
4.790
4.786
4.787
4.790
4.789
4.783
4.776
4.774
4.775
4.774
4.767
4.766
4.768
4.768
4.768
4.764
4.767
4.771
4.771
4.772
4.768
4.763
4.765
4.772
4.778
4.783
4.789
4.794
4.798
4.793
4.790
4.786
4.781
4.783
4.781
4.780
4.778
4.780
4.783
4.779
4.775
4.775
4.771
4.774
4.776
4.775
4.783
4.777
4.771
4.771
4.770
4.775
4.768
4.774
4.779
4.779
4.773
4.768
4.768
4.766
4.765
4.764
4.764
4.764
4.764
4.764
4.770
4.775
4.781
4.786
4.792
4.791
4.792
4.793
4.790
4.786
4.787
4.783
4.779
4.780
4.783
4.785
4.789
4.791
4.798
4.794
4.794
4.791
4.794
4.790
4.786
4.785
4.784
4.786
4.786
4.785
4.786
4.785
4.784
4.783
4.778
4.772
4.771
4.772
4.776
4.772
4.768
4.771
4.770
4.774
4.775
4.777
4.783
4.779
4.773
4.774
4.779
4.783
4.789
4.794
4.795
4.796
4.792
4.790
4.792
4.791
4.790
4.788
4.783
4.783
4.789
4.786
4.783
4.779
4.778
4.775
4.775
4.774
4.773
4.775
4.775
4.769
4.768
4.774
4.783
4.780
4.776
4.774
4.770
4.771
4.773
4.769
4.771
4.772
4.773
4.771
4.768
4.768
4.765
4.766
4.768
4.771
4.768
4.766
4.767
4.769
4.773
4.769
4.773
4.772
4.776
4.782
4.787
4.793
4.797
4.801
4.806
4.812
4.812
4.807
4.800
4.799
4.801
4.799
4.795
4.802
4.803
4.804
4.798
4.801
4.801
4.796
4.794
4.788
4.783
4.777
4.773
4.772
4.770
4.774
4.771
4.771
4.770
4.769
4.771
4.771
4.767
4.771
4.768
4.768
4.767
4.774
4.775
4.772
4.771
4.777
4.779
4.783
4.779
4.780
4.779
4.780
4.781
4.783
4.779
4.777
4.771
4.769
4.765
4.768
4.768
4.774
4.778
4.783
4.787
4.791
4.797
4.801
4.806
4.807
4.811
4.809
4.809
4.809
4.808
4.815
4.811
4.813
