2.994
3.331
3.509
3.621
3.720
3.786
3.847
3.879
3.927
3.946
3.995
4.031
4.009
4.040
4.071
4.100
4.126
4.144
4.170
4.194
4.146
4.117
4.126
4.141
4.160
4.168
4.175
4.191
4.197
4.210
4.214
4.227
4.241
4.240
4.250
4.260
4.258
4.271
4.286
4.295
4.285
4.297
4.310
4.317
4.327
4.314
4.326
4.334
4.338
4.347
4.357
4.346
4.354
4.357
4.368
4.375
4.376
4.390
4.392
4.396
4.384
4.390
4.394
4.394
4.403
4.410
4.414
4.420
4.425
4.432
4.434
4.438
4.447
4.435
4.433
4.431
4.434
4.443
4.449
4.448
4.460
4.457
4.460
4.465
4.469
4.471
4.480
4.478
4.486
4.484
4.490
4.498
4.497
4.503
4.501
4.487
4.482
4.483
4.488
4.490
4.490
4.503
4.499
4.501
4.508
4.503
4.508
4.508
4.515
4.516
4.521
4.527
4.527
4.525
4.529
4.533
4.537
4.536
4.538
4.544
4.543
4.546
4.549
4.552
4.556
4.557
4.560
4.560
4.565
4.572
4.573
4.574
4.567
4.569
4.578
4.571
4.570
4.558
4.545
4.549
4.549
4.557
4.549
4.560
4.564
4.568
4.567
4.564
4.565
4.571
4.568
4.579
4.575
4.577
4.576
4.571
4.571
4.575
4.567
4.577
4.578
4.579
4.584
4.580
4.587
4.586
4.598
4.594
4.603
4.601
4.601
4.591
4.595
4.593
4.606
4.604
4.612
4.610
4.614
4.618
4.614
4.615
4.608
4.605
4.608
4.618
4.611
4.610
4.608
4.620
4.619
4.618
4.620
4.616
4.622
4.623
4.622
4.634
4.628
4.629
4.642
4.638
4.639
4.640
4.639
4.643
4.636
4.634
4.647
4.645
4.646
4.656
4.650
4.648
4.658
4.664
4.658
4.662
4.660
4.664
4.661
4.670
4.666
4.657
4.657
4.651
4.657
4.668
4.664
4.664
4.664
4.662
4.658
4.662
4.660
4.659
4.658
4.668
4.668
4.665
4.663
4.679
4.683
4.679
4.672
4.686
4.685
4.679
4.680
4.690
4.690
4.692
4.682
4.690
4.699
4.695
4.688
4.679
4.674
4.667
4.663
4.656
4.655
4.648
4.658
4.659
4.655
4.654
4.657
4.667
4.663
4.665
4.661
4.664
4.671
4.659
4.657
4.659
4.668
4.675
4.671
4.671
4.664
4.668
4.683
4.678
4.677
4.681
4.675
4.683
4.693
4.690
4.682
4.686
4.683
4.675
4.668
4.664
4.663
4.670
4.683
4.673
4.668
4.665
4.668
4.668
4.669
4.665
4.664
4.665
4.668
4.673
4.674
4.671
4.666
4.665
4.658
4.673
4.685
4.678
4.677
4.675
4.675
4.671
4.682
4.694
4.699
4.687
4.682
4.678
4.683
4.686
4.697
4.690
4.691
4.684
4.683
4.676
4.686
4.698
4.701
4.697
4.691
4.690
4.685
4.686
4.694
4.703
4.704
4.701
4.699
4.698
4.699
4.701
4.702
4.712
4.720
4.711
4.713
4.709
4.713
4.709
4.704
4.706
4.707
4.706
4.707
4.701
4.702
4.700
4.699
4.709
4.715
4.706
4.704
4.701
4.694
4.697
4.701
4.703
4.713
4.723
4.718
4.714
4.713
4.714
4.715
4.706
4.707
4.712
4.724
4.733
4.737
4.725
4.718
4.716
4.710
4.712
4.708
4.719
4.729
4.731
4.735
4.734
4.732
4.728
4.724
4.723
4.726
4.730
4.729
4.739
4.751
4.749
4.743
4.744
4.742
4.738
4.735
4.734
4.734
4.734
4.745
4.749
4.745
4.746
4.740
4.742
4.740
4.747
4.745
4.744
4.735
4.734
4.727
4.725
4.726
4.723
4.723
4.719
4.718
4.719
4.715
4.723
4.732
4.738
4.731
4.736
4.732
4.728
4.721
4.714
4.707
4.703
4.708
4.717
4.729
4.731
4.729
4.728
4.726
4.719
4.723
4.714
4.720
4.720
4.718
4.714
4.718
4.727
4.737
4.731
4.737
4.736
4.740
4.741
4.735
4.739
4.737
4.734
4.729
4.723
4.726
4.730
4.738
4.739
4.737
4.739
4.732
4.738
4.732
4.738
4.738
4.738
4.731
4.725
4.723
4.722
4.731
4.738
4.737
4.739
4.738
4.738
4.735
4.734
4.731
4.734
4.732
4.733
4.742
4.734
4.729
4.731
4.735
4.744
4.753
4.755
4.753
4.747
4.748
4.757
4.759
4.753
4.751
4.750
4.753
4.752
4.746
4.739
4.740
4.747
4.746
4.753
4.764
4.766
4.765
4.757
4.751
4.750
4.746
4.749
4.749
4.746
4.751
4.746
4.738
4.739
4.745
4.746
4.748
4.757
4.764
4.772
4.768
4.771
4.771
4.769
4.767
4.769
4.768
4.769
4.762
4.764
4.764
4.766
4.768
4.768
4.773
4.766
4.765
4.764
4.771
4.779
4.787
4.786
4.783
4.780
4.773
4.782
4.778
4.775
4.776
4.772
4.771
4.768
4.775
4.769
4.764
4.757
4.762
4.761
4.767
4.764
4.764
4.761
4.762
4.766
4.765
4.763
4.760
4.766
4.759
4.760
4.760
4.763
4.762
4.763
4.765
4.764
4.757
4.749
4.753
4.760
4.767
4.769
4.770
4.769
4.764
4.764
4.765
4.764
4.760
4.760
4.760
4.760
4.756
4.757
4.756
4.757
4.759
4.758
4.760
4.758
4.760
4.763
4.762
4.761
4.770
4.775
4.783
4.782
4.781
4.780
4.775
4.772
4.770
4.772
4.775
4.774
4.771
4.775
4.771
4.764
4.762
4.764
4.765
4.764
4.767
4.764
4.764
4.760
4.759
4.768
4.771
4.779
4.784
4.791
4.800
4.804
4.801
4.794
4.794
4.796
4.787
4.783
4.781
4.783
4.779
4.782
4.786
4.785
4.790
4.783
4.784
4.785
4.781
4.779
4.778
4.783
4.786
4.780
4.778
4.780
4.787
4.794
4.800
4.807
4.812
4.807
4.808
4.807
4.814
4.808
4.809
4.812
4.812
4.810
4.806
4.801
4.795
4.796
4.794
4.793
4.797
4.794
4.792
4.793
4.795
4.796
4.789
4.790
4.794
4.793
4.789
4.791
4.798
4.804
4.803
4.797
4.798
4.802
4.797
4.796
4.800
4.797
4.795
4.794
4.792
4.788
4.794
4.797
4.795
4.794
4.795
4.801
4.794
4.788
4.790
4.786
4.781
4.782
4.784
4.786
4.781
4.780
4.784
4.785
4.790
4.797
4.803
4.808
4.814
4.821
4.822
4.820
4.816
4.815
4.812
4.812
4.816
4.818
4.816
4.813
4.811
4.812
4.808
4.810
4.805
4.804
4.808
4.807
4.809
4.815
4.812
4.810
4.809
4.807
4.805
4.805
4.806
4.805
4.805
4.808
4.808
4.805
4.809
4.808
4.814
4.820
4.823
4.831
4.836
4.842
4.844
4.843
4.841
4.838
4.836
4.842
4.847
4.845
4.844
4.843
4.841
4.837
4.830
4.827
4.827
4.824
4.822
4.821
4.822
4.820
4.816
4.815
4.817
4.816
4.814
4.815
4.816
4.818
4.823
4.829
4.827
4.823
4.816
4.810
4.814
4.818
4.823
4.826
4.823
4.824
4.819
4.815
4.812
4.812
4.814
4.810
4.805
4.805
4.801
4.802
4.801
4.802
4.806
4.805
4.801
4.799
4.800
4.799
4.794
4.793
4.794
4.801
4.803
4.797
4.800
4.796
4.794
4.796
4.797
4.794
4.789
4.790
4.794
4.796
4.792
4.794
4.798
4.804
4.803
4.805
4.808
4.813
4.816
4.815
4.812
4.813
4.811
4.807
4.805
4.802
4.805
4.808
4.805
4.807
4.806
4.807
4.805
4.807
4.808
4.805
4.805
4.802
4.803
4.802
4.797
4.793
4.787
4.791
4.798
4.796
4.790
4.793
4.792
4.794
4.795
4.790
4.790
4.790
4.786
4.782
4.781
4.785
4.784
4.790
4.795
4.801
4.803
4.808
4.814
4.818
4.816
4.818
4.812
4.813
4.816
4.815
4.809
4.808
4.812
4.813
4.814
4.813
4.819
4.824
4.820
4.821
4.822
4.824
4.817
4.816
4.814
4.812
4.808
4.805
4.808
4.805
4.806
4.801
4.801
4.799
4.798
4.794
4.800
4.802
4.803
4.802
4.801
4.797
4.794
4.790
4.786
4.783
4.789
4.790
4.792
4.790
4.789
4.786
4.790
4.796
4.801
4.804
4.809
4.813
4.817
4.810
4.811
4.812
4.811
4.810
4.806
4.808
4.809
4.810
4.812
4.815
