2.993
3.330
3.509
3.633
3.709
3.779
3.844
3.890
3.915
3.970
3.971
4.011
4.052
4.088
4.056
4.081
4.105
4.130
4.149
4.174
4.189
4.209
4.226
4.244
4.203
4.167
4.184
4.193
4.200
4.213
4.217
4.230
4.233
4.247
4.248
4.259
4.273
4.273
4.285
4.296
4.291
4.301
4.312
4.319
4.318
4.325
4.333
4.342
4.348
4.341
4.350
4.358
4.365
4.372
4.381
4.365
4.376
4.381
4.388
4.398
4.399
4.410
4.411
4.398
4.408
4.413
4.417
4.425
4.428
4.431
4.434
4.443
4.446
4.451
4.435
4.442
4.447
4.446
4.452
4.458
4.461
4.462
4.467
4.472
4.478
4.485
4.486
4.488
4.493
4.499
4.486
4.484
4.488
4.482
4.488
4.491
4.497
4.504
4.505
4.506
4.503
4.510
4.514
4.515
4.522
4.524
4.527
4.533
4.524
4.535
4.532
4.538
4.545
4.544
4.554
4.549
4.551
4.535
4.536
4.529
4.537
4.532
4.537
4.539
4.542
4.549
4.555
4.555
4.554
4.560
4.561
4.553
4.554
4.558
4.558
4.561
4.562
4.569
4.574
4.578
4.580
4.581
4.583
4.589
4.591
4.584
4.585
4.585
4.591
4.589
4.592
4.597
4.595
4.598
4.607
4.612
4.606
4.609
4.608
4.616
4.615
4.621
4.621
4.620
4.612
4.617
4.623
4.624
4.619
4.607
4.596
4.594
4.592
4.598
4.601
4.601
4.611
4.601
4.605
4.611
4.613
4.620
4.607
4.616
4.611
4.615
4.618
4.620
4.623
4.630
4.628
4.615
4.624
4.624
4.623
4.618
4.620
4.618
4.628
4.624
4.632
4.629
4.635
4.630
4.635
4.636
4.633
4.644
4.638
4.649
4.643
4.647
4.649
4.644
4.649
4.645
4.650
4.651
4.650
4.660
4.659
4.661
4.665
4.661
4.670
4.665
4.655
4.656
4.650
4.656
4.655
4.659
4.663
4.651
4.663
4.658
4.661
4.668
4.669
4.663
4.669
4.669
4.662
4.673
4.673
4.672
4.674
4.681
4.683
4.680
4.692
4.689
4.680
4.689
4.688
4.687
4.686
4.687
4.684
4.681
4.696
4.695
4.691
4.692
4.702
4.695
4.697
4.701
4.703
4.704
4.706
4.709
4.707
4.708
4.704
4.715
4.710
4.706
4.702
4.705
4.701
4.697
4.704
4.713
4.712
4.710
4.707
4.708
4.707
4.704
4.704
4.707
4.707
4.703
4.702
4.717
4.718
4.710
4.712
4.712
4.719
4.722
4.721
4.723
4.722
4.729
4.728
4.729
4.725
4.727
4.737
4.733
4.736
4.733
4.731
4.742
4.737
4.731
4.725
4.719
4.713
4.707
4.702
4.706
4.705
4.701
4.701
4.700
4.699
4.698
4.693
4.694
4.696
4.710
4.710
4.705
4.708
4.707
4.703
4.713
4.717
4.717
4.715
4.713
4.707
4.713
4.710
4.713
4.710
4.711
4.713
4.722
4.723
4.717
4.720
4.716
4.717
4.720
4.730
4.731
4.731
4.729
4.728
4.733
4.729
4.736
4.730
4.722
4.715
4.709
4.722
4.720
4.717
4.713
4.717
4.719
4.714
4.724
4.722
4.718
4.715
4.713
4.704
4.712
4.720
4.714
4.714
4.716
4.716
4.717
4.709
4.720
4.719
4.717
4.713
4.715
4.713
4.709
4.714
4.725
4.729
4.727
4.727
4.722
4.720
4.724
4.724
4.727
4.738
4.744
4.734
4.731
4.728
4.727
4.729
4.729
4.735
4.736
4.735
4.737
4.734
4.730
4.727
4.727
4.729
4.740
4.742
4.742
4.749
4.739
4.738
4.737
4.734
4.736
4.741
4.749
4.749
4.750
4.742
4.749
4.745
4.745
4.743
4.744
4.749
4.759
4.766
4.763
4.757
4.754
4.755
4.759
4.752
4.744
4.751
4.749
4.750
4.753
4.751
4.750
4.747
4.746
4.741
4.745
4.750
4.760
4.759
4.750
4.744
4.749
4.750
4.745
4.739
4.739
4.744
4.754
4.760
4.766
4.765
4.765
4.757
4.760
4.758
4.759
4.754
4.752
4.755
4.762
4.772
4.771
4.768
4.771
4.773
4.773
4.763
4.756
4.754
4.754
4.756
4.765
4.775
4.775
4.774
4.773
4.774
4.769
4.774
4.775
4.771
4.768
4.770
4.766
4.772
4.781
4.790
4.791
4.791
4.793
4.793
4.793
4.786
4.776
4.782
4.784
4.782
4.779
4.782
4.791
4.794
4.789
4.788
4.790
4.791
4.785
4.783
4.781
4.781
4.782
4.781
4.780
4.775
4.776
4.774
4.765
4.765
4.764
4.764
4.760
4.763
4.763
4.764
4.761
4.766
4.775
4.777
4.775
4.779
4.777
4.775
4.774
4.772
4.771
4.769
4.763
4.757
4.751
4.758
4.766
4.767
4.766
4.769
4.763
4.766
4.767
4.773
4.770
4.767
4.764
4.768
4.762
4.757
4.756
4.759
4.767
4.775
4.781
4.775
4.776
4.774
4.775
4.776
4.774
4.773
4.772
4.777
4.776
4.776
4.776
4.774
4.770
4.771
4.777
4.785
4.789
4.783
4.785
4.789
4.784
4.782
4.779
4.772
4.772
4.770
4.770
4.771
4.774
4.774
4.772
4.773
4.779
4.787
4.788
4.787
4.785
4.780
4.775
4.772
4.775
4.781
4.776
4.772
4.770
4.766
4.769
4.769
4.764
4.769
4.773
4.780
4.787
4.795
4.799
4.798
4.794
4.792
4.788
4.786
4.792
4.789
4.786
4.782
4.785
4.790
4.787
4.783
4.788
4.785
4.791
4.790
4.787
4.794
4.801
4.808
4.806
4.799
4.801
4.802
4.799
4.800
4.793
4.794
4.798
4.796
4.796
4.794
4.789
4.782
4.788
4.789
4.781
4.784
4.792
4.798
4.805
4.807
4.805
4.808
4.802
4.802
4.806
4.802
4.798
4.802
4.804
4.808
4.804
4.804
4.802
4.801
4.795
4.802
4.803
4.801
4.797
4.796
4.800
4.806
4.813
4.820
4.827
4.831
4.827
4.828
4.827
4.827
4.824
4.821
4.817
4.813
4.811
4.811
4.812
4.813
4.820
4.821
4.815
4.812
4.805
4.806
4.804
4.808
4.810
4.816
4.823
4.821
4.817
4.814
4.816
4.819
4.817
4.812
4.807
4.803
4.798
4.793
4.796
4.791
4.792
4.789
4.787
4.791
4.791
4.797
4.796
4.796
4.796
4.802
4.809
4.815
4.821
4.823
4.820
4.820
4.823
4.822
4.815
4.815
4.816
4.809
4.803
4.803
4.797
4.796
4.798
4.804
4.808
4.800
4.799
4.791
4.788
4.787
4.786
4.789
4.795
4.801
4.807
4.813
4.816
4.813
4.819
4.822
4.825
4.825
4.818
4.820
4.819
4.817
4.816
4.818
4.817
4.817
4.816
4.814
4.815
4.816
4.815
4.813
4.812
4.810
4.811
4.811
4.803
4.802
4.798
4.800
4.806
4.811
4.817
4.823
4.828
4.825
4.826
4.824
4.821
4.826
4.825
4.823
4.821
4.827
4.824
4.827
4.825
4.823
4.825
4.822
4.825
4.826
4.829
4.822
4.824
4.826
4.826
4.825
4.825
4.823
4.816
4.815
4.816
4.815
4.815
4.818
4.824
4.830
4.835
4.841
4.846
4.847
4.842
4.841
4.842
4.839
4.837
4.837
4.837
4.832
4.834
4.837
4.842
4.843
4.838
4.838
4.841
4.845
4.844
4.848
4.845
4.844
4.843
4.843
4.839
4.838
4.832
4.830
4.829
4.829
4.829
4.830
4.829
4.832
4.837
4.842
4.848
4.853
4.850
4.853
4.852
4.856
4.858
4.857
4.860
4.855
4.849
4.846
4.845
4.844
4.843
4.846
4.851
4.850
4.850
4.846
4.845
4.842
4.840
4.836
4.831
4.827
4.822
4.823
4.821
4.819
4.821
4.822
4.822
4.821
4.823
4.828
4.833
4.838
4.843
4.848
4.852
4.853
4.848
4.846
4.853
4.851
4.851
4.847
4.845
4.842
4.842
4.843
4.845
4.848
4.849
4.844
4.846
4.844
4.848
4.845
4.845
4.840
4.835
4.836
4.833
4.833
4.834
4.833
4.835
4.835
4.832
4.833
4.836
4.835
4.836
4.835
4.833
4.838
4.841
4.841
4.841
4.846
4.851
4.856
4.861
4.866
4.866
4.867
4.863
4.863
4.864
4.870
4.871
4.873
4.867
4.866
4.864
4.859
4.863
4.861
4.863
4.859
4.861
4.863
4.859
4.859
4.858
4.861
4.861
