2.992
3.308
3.471
3.623
3.717
3.721
3.807
3.882
3.830
3.834
3.863
3.899
3.922
3.944
3.974
3.998
4.005
4.034
4.045
4.060
4.082
4.098
4.099
4.123
4.135
4.156
4.136
4.162
4.166
4.182
4.189
4.204
4.213
4.212
4.198
4.226
4.216
4.235
4.249
4.265
4.251
4.266
4.278
4.286
4.296
4.289
4.304
4.312
4.281
4.288
4.293
4.310
4.288
4.304
4.312
4.308
4.316
4.332
4.340
4.343
4.360
4.333
4.334
4.332
4.345
4.357
4.372
4.382
4.383
4.376
4.384
4.390
4.405
4.403
4.405
4.398
4.388
4.400
4.398
4.409
4.414
4.423
4.433
4.426
4.446
4.433
4.441
4.444
4.438
4.417
4.405
4.398
4.419
4.417
4.420
4.423
4.423
4.435
4.420
4.418
4.400
4.401
4.391
4.414
4.421
4.410
4.430
4.429
4.424
4.434
4.427
4.435
4.444
4.435
4.441
4.460
4.461
4.447
4.454
4.443
4.438
4.462
4.448
4.442
4.458
4.461
4.459
4.449
4.474
4.472
4.473
4.475
4.483
4.493
4.484
4.485
4.484
4.500
4.499
4.488
4.477
4.508
4.512
4.492
4.473
4.493
4.485
4.461
4.450
4.469
4.486
4.485
4.478
4.471
4.472
4.493
4.493
4.488
4.482
4.470
4.483
4.496
4.491
4.475
4.476
4.484
4.488
4.515
4.506
4.502
4.500
4.490
4.489
4.507
4.508
4.509
4.499
4.511
4.508
4.498
4.512
4.536
4.534
4.538
4.524
4.517
4.518
4.512
4.528
4.540
4.544
4.547
4.528
4.510
4.494
4.506
4.527
4.513
4.511
4.504
4.524
4.513
4.521
4.504
4.514
4.529
4.543
4.529
4.527
4.535
4.530
4.527
4.528
4.523
4.527
4.547
4.559
4.549
4.553
4.565
4.551
4.548
4.537
4.546
4.543
4.549
4.560
4.580
4.561
4.564
4.557
4.561
4.564
4.559
4.552
4.538
4.532
4.551
4.570
4.575
4.572
4.570
4.560
4.564
4.561
4.555
4.559
4.559
4.552
4.557
4.557
4.575
4.594
4.611
4.613
4.599
4.606
4.597
4.599
4.589
4.570
4.567
4.577
4.567
4.568
4.573
4.590
4.608
4.615
4.607
4.611
4.596
4.592
4.590
4.600
4.596
4.586
4.577
4.567
4.557
4.560
4.577
4.593
4.585
4.582
4.579
4.565
4.550
4.549
4.552
4.550
4.547
4.540
4.535
4.538
4.537
4.534
4.550
4.565
4.580
4.595
4.596
4.587
4.584
4.577
4.586
4.589
4.583
4.574
4.573
4.571
4.564
4.549
4.537
4.524
4.536
4.538
4.549
4.564
4.578
4.592
4.587
4.593
4.585
4.585
4.580
4.579
4.576
4.578
4.572
4.570
4.574
4.560
4.563
4.558
4.544
4.550
4.552
4.554
4.553
4.551
4.565
4.578
4.589
4.584
4.579
4.581
4.587
4.585
4.584
4.579
4.589
4.588
4.582
4.575
4.578
4.576
4.566
4.563
4.559
4.563
4.562
4.564
4.561
4.558
4.544
4.546
4.558
4.571
4.583
4.595
4.608
4.600
4.597
4.591
4.594
4.600
4.595
4.596
4.595
4.601
4.601
4.600
4.589
4.584
4.583
4.575
4.565
4.573
4.573
4.563
4.569
4.561
4.565
4.557
4.564
4.566
4.573
4.581
4.574
4.583
4.594
4.606
4.617
4.629
4.621
4.619
4.621
4.622
4.621
4.625
4.628
4.616
4.615
4.611
4.614
4.613
4.605
4.609
4.595
4.602
4.615
4.613
4.606
4.607
4.601
4.607
4.607
4.616
4.612
4.600
4.601
4.601
4.593
4.589
4.592
4.588
4.587
4.597
4.608
4.618
4.628
4.639
4.649
4.651
4.648
4.653
4.648
4.642
4.643
4.646
4.641
4.632
4.637
4.650
4.649
4.638
4.642
4.629
4.623
4.614
4.608
4.599
4.590
4.583
4.580
4.573
4.576
4.579
4.589
4.601
4.601
4.604
4.592
4.580
4.567
4.563
4.566
4.569
4.567
4.577
4.586
4.596
4.605
4.615
4.623
4.630
4.633
4.631
4.639
4.638
4.647
4.639
4.633
4.626
4.626
4.617
4.622
4.615
4.607
4.608
4.621
4.621
4.622
4.621
4.619
4.615
4.620
4.611
4.610
4.610
4.611
4.613
4.610
4.604
4.605
4.607
4.604
4.610
4.609
4.601
4.606
4.595
4.584
4.584
4.582
4.586
4.585
4.588
4.583
4.587
4.596
4.597
4.600
4.610
4.604
4.600
4.605
4.613
4.622
4.631
4.639
4.648
4.656
4.665
4.673
4.682
4.690
4.693
4.686
4.680
4.674
4.667
4.661
4.655
4.651
4.644
4.636
4.636
4.635
4.643
4.635
4.636
4.629
4.630
4.624
4.619
4.612
4.608
4.608
4.621
4.610
4.611
4.619
4.616
4.606
4.599
4.598
4.589
4.591
4.593
4.589
4.594
4.593
4.586
4.583
4.593
4.595
4.592
4.586
4.583
4.577
4.574
4.575
4.569
4.568
4.574
4.569
4.562
4.564
4.572
4.578
4.586
4.593
4.601
4.608
4.616
4.624
4.631
4.639
4.642
4.639
4.641
4.646
4.645
4.649
4.653
4.649
4.649
4.644
4.647
4.657
4.659
4.659
4.666
4.658
4.649
4.649
4.645
4.654
4.648
4.647
4.645
4.644
4.643
4.641
4.642
4.645
4.642
4.634
4.636
4.643
4.643
4.646
4.647
4.646
4.637
4.639
4.645
4.637
4.632
4.626
4.621
4.621
4.618
4.614
4.611
4.611
4.609
4.604
4.600
4.603
4.595
4.598
4.595
4.591
4.590
4.597
4.606
4.606
4.600
4.593
4.586
4.584
4.591
4.581
4.576
4.579
4.578
4.580
4.577
4.576
4.580
4.577
4.586
4.584
4.581
4.576
4.583
4.589
4.596
4.602
4.609
4.616
4.622
4.629
4.636
4.642
4.649
4.655
4.662
4.669
4.675
4.673
4.667
4.655
4.656
4.653
4.648
4.656
4.644
4.643
4.644
4.644
4.650
4.643
4.637
4.629
4.622
4.625
4.619
4.614
4.624
4.631
4.628
4.631
4.622
4.620
4.623
4.624
4.628
4.624
4.633
4.642
4.647
4.647
4.648
4.649
4.649
4.649
4.643
4.643
4.644
4.644
4.640
4.646
4.652
4.656
4.656
4.654
4.650
4.653
4.646
4.644
4.638
4.632
4.625
4.624
4.627
4.622
4.612
4.603
4.602
4.601
4.603
4.606
4.606
4.598
4.594
4.592
4.593
4.599
4.601
4.598
4.597
4.595
4.596
4.591
4.592
4.590
4.594
4.588
4.584
4.594
4.595
4.595
4.593
4.597
4.593
4.600
4.602
4.595
4.594
4.593
4.586
4.584
4.575
4.581
4.576
4.580
4.587
4.595
4.603
4.609
4.612
4.610
4.608
4.608
4.610
4.616
4.621
4.627
4.633
4.638
4.644
4.650
4.655
4.661
4.667
4.672
4.678
4.684
4.689
4.695
4.697
4.696
4.699
4.697
4.703
4.702
4.696
4.697
4.703
4.706
4.702
4.694
4.690
4.682
4.685
4.686
4.682
4.677
4.681
4.682
4.681
4.680
4.684
4.677
4.678
4.671
4.670
4.677
4.680
4.679
4.680
4.677
4.674
4.667
4.659
4.656
4.651
4.654
4.659
4.658
4.652
4.649
4.659
4.653
4.653
4.656
4.649
4.652
4.656
4.661
4.663
4.656
4.654
4.648
4.649
4.648
4.645
4.654
4.655
4.660
4.664
4.660
4.661
4.657
4.664
4.668
4.662
4.656
4.650
4.644
4.638
4.632
4.636
4.643
4.650
4.658
4.663
4.666
4.668
4.659
4.653
4.652
4.649
4.650
4.641
4.640
4.639
4.637
4.638
4.641
4.639
4.633
4.630
4.626
4.621
4.617
4.612
4.608
4.604
4.599
4.595
4.590
4.592
4.581
4.579
4.575
4.573
4.581
4.589
4.591
4.599
4.604
4.605
4.599
4.598
4.600
4.600
4.598
4.604
4.599
4.593
4.586
4.580
4.581
4.583
4.581
4.587
4.591
4.588
4.578
4.570
4.569
4.569
4.574
4.579
4.570
4.575
4.575
4.576
4.580
4.582
4.585
4.590
4.594
4.599
4.604
4.609
4.613
4.618
4.623
4.627
4.632
4.637
4.642
4.646
4.651
4.656
4.660
4.665
4.665
4.672
4.669
4.673
4.678
4.679
4.666
4.662
4.669
4.672
4.661
4.653
4.662
4.659
4.659
4.658
4.660
