2.992
3.334
3.510
3.631
3.717
3.779
3.837
3.872
3.938
3.942
3.990
4.030
4.007
4.036
4.065
4.091
4.116
4.145
4.163
4.187
4.204
4.157
4.130
4.142
4.153
4.170
4.177
4.194
4.199
4.209
4.218
4.231
4.232
4.245
4.254
4.258
4.267
4.279
4.275
4.285
4.297
4.310
4.300
4.310
4.319
4.326
4.338
4.329
4.338
4.343
4.353
4.356
4.368
4.368
4.360
4.368
4.374
4.382
4.388
4.392
4.397
4.408
4.412
4.403
4.404
4.408
4.407
4.416
4.420
4.420
4.427
4.436
4.442
4.447
4.448
4.450
4.460
4.447
4.445
4.445
4.448
4.450
4.459
4.463
4.468
4.466
4.475
4.474
4.478
4.483
4.489
4.496
4.494
4.496
4.497
4.504
4.509
4.515
4.516
4.515
4.497
4.496
4.495
4.496
4.501
4.502
4.508
4.516
4.512
4.518
4.520
4.516
4.522
4.520
4.522
4.526
4.533
4.538
4.544
4.538
4.542
4.549
4.553
4.551
4.549
4.554
4.552
4.554
4.560
4.562
4.564
4.565
4.568
4.573
4.574
4.579
4.582
4.576
4.585
4.581
4.585
4.589
4.590
4.582
4.574
4.562
4.555
4.559
4.566
4.568
4.564
4.575
4.571
4.579
4.577
4.575
4.580
4.579
4.582
4.587
4.585
4.590
4.586
4.584
4.583
4.582
4.585
4.589
4.586
4.594
4.590
4.600
4.591
4.601
4.597
4.608
4.604
4.608
4.608
4.619
4.612
4.611
4.604
4.614
4.616
4.619
4.621
4.619
4.632
4.625
4.634
4.630
4.623
4.616
4.626
4.625
4.626
4.622
4.616
4.630
4.621
4.627
4.634
4.627
4.637
4.631
4.631
4.644
4.637
4.638
4.649
4.650
4.645
4.650
4.653
4.650
4.657
4.650
4.651
4.652
4.651
4.657
4.664
4.660
4.657
4.666
4.660
4.664
4.676
4.669
4.667
4.674
4.681
4.669
4.671
4.674
4.664
4.664
4.670
4.672
4.668
4.677
4.678
4.669
4.668
4.675
4.670
4.668
4.673
4.679
4.678
4.672
4.681
4.683
4.684
4.685
4.684
4.699
4.690
4.690
4.686
4.701
4.700
4.697
4.698
4.701
4.703
4.702
4.701
4.699
4.698
4.691
4.684
4.679
4.671
4.664
4.667
4.672
4.660
4.658
4.659
4.674
4.673
4.672
4.671
4.669
4.679
4.682
4.679
4.679
4.676
4.679
4.679
4.677
4.678
4.679
4.679
4.690
4.686
4.679
4.681
4.685
4.690
4.696
4.695
4.694
4.700
4.694
4.698
4.702
4.700
4.691
4.684
4.683
4.684
4.683
4.682
4.683
4.682
4.688
4.682
4.680
4.682
4.672
4.676
4.680
4.686
4.685
4.681
4.680
4.673
4.685
4.684
4.683
4.678
4.679
4.676
4.683
4.692
4.693
4.690
4.690
4.694
4.690
4.690
4.696
4.703
4.701
4.697
4.699
4.695
4.696
4.697
4.705
4.703
4.702
4.697
4.693
4.690
4.691
4.701
4.713
4.708
4.708
4.705
4.704
4.703
4.699
4.705
4.716
4.719
4.720
4.716
4.716
4.712
4.721
4.716
4.716
4.727
4.727
4.725
4.731
4.722
4.715
4.706
4.712
4.722
4.726
4.717
4.715
4.712
4.718
4.714
4.710
4.714
4.720
4.720
4.718
4.712
4.712
4.717
4.712
4.716
4.713
4.722
4.732
4.731
4.727
4.728
4.729
4.731
4.726
4.725
4.723
4.725
4.737
4.741
4.731
4.728
4.727
4.728
4.727
4.727
4.726
4.728
4.735
4.744
4.746
4.747
4.746
4.742
4.743
4.744
4.740
4.741
4.745
4.745
4.749
4.758
4.759
4.753
4.756
4.755
4.751
4.752
4.751
4.752
4.751
4.745
4.754
4.761
4.759
4.763
4.757
4.760
4.759
4.753
4.746
4.741
4.737
4.739
4.735
4.739
4.743
4.742
4.737
4.730
4.727
4.731
4.731
4.725
4.732
4.741
4.749
4.745
4.738
4.731
4.726
4.723
4.718
4.722
4.720
4.717
4.720
4.730
4.738
4.745
4.742
4.738
4.738
4.736
4.737
4.733
4.729
4.734
4.729
4.727
4.729
4.731
4.738
4.749
4.749
4.755
4.756
4.755
4.757
4.750
4.749
4.744
4.740
4.734
4.735
4.741
4.737
4.742
4.749
4.755
4.756
4.753
4.751
4.753
4.748
4.745
4.743
4.742
4.742
4.739
4.735
4.727
4.737
4.744
4.748
4.752
4.757
4.755
4.753
4.749
4.748
4.744
4.754
4.752
4.745
4.750
4.749
4.744
4.743
4.742
4.748
4.757
4.764
4.768
4.767
4.764
4.768
4.769
4.767
4.768
4.773
4.768
4.760
4.757
4.754
4.757
4.749
4.753
4.756
4.758
4.765
4.771
4.773
4.769
4.762
4.763
4.764
4.761
4.759
4.764
4.762
4.761
4.760
4.760
4.759
4.757
4.757
4.758
4.759
4.766
4.773
4.782
4.779
4.786
4.786
4.780
4.784
4.786
4.782
4.785
4.782
4.780
4.781
4.779
4.778
4.783
4.782
4.775
4.773
4.769
4.773
4.780
4.787
4.794
4.792
4.788
4.784
4.790
4.787
4.794
4.792
4.791
4.789
4.788
4.781
4.775
4.773
4.772
4.770
4.771
4.771
4.768
4.771
4.780
4.781
4.782
4.778
4.774
4.779
4.779
4.778
4.774
4.776
4.774
4.773
4.779
4.778
4.775
4.773
4.772
4.771
4.769
4.764
4.761
4.764
4.771
4.776
4.775
4.778
4.775
4.778
4.780
4.781
4.783
4.776
4.774
4.771
4.774
4.775
4.774
4.771
4.769
4.773
4.771
4.771
4.777
4.775
4.775
4.781
4.777
4.773
4.775
4.782
4.788
4.792
4.790
4.792
4.788
4.789
4.785
4.787
4.785
4.789
4.788
4.784
4.782
4.779
4.780
4.781
4.780
4.782
4.780
4.778
4.779
4.778
4.779
4.775
4.777
4.779
4.782
4.787
4.794
4.800
4.807
4.809
4.810
4.808
4.802
4.808
4.802
4.798
4.797
4.798
4.797
4.797
4.797
4.797
4.797
4.801
4.801
4.795
4.797
4.798
4.799
4.800
4.794
4.798
4.797
4.797
4.797
4.794
4.797
4.803
4.810
4.816
4.821
4.819
4.821
4.819
4.823
4.825
4.826
4.820
4.815
4.814
4.813
4.808
4.802
4.808
4.813
4.809
4.810
4.812
4.813
4.808
4.802
4.801
4.807
4.808
4.804
4.805
4.804
4.801
4.804
4.801
4.807
4.812
4.820
4.814
4.813
4.817
4.813
4.812
4.808
4.806
4.799
4.800
4.802
4.806
4.805
4.809
4.815
4.811
4.808
4.808
4.813
4.805
4.801
4.803
4.799
4.797
4.796
4.795
4.796
4.795
4.794
4.797
4.793
4.795
4.801
4.806
4.812
4.819
4.823
4.828
4.834
4.833
4.831
4.830
4.827
4.825
4.827
4.836
4.831
4.825
4.823
4.820
4.823
4.822
4.823
4.822
4.821
4.825
4.823
4.817
4.824
4.825
4.823
4.828
4.820
4.822
4.820
4.820
4.823
4.822
4.823
4.825
4.823
4.819
4.816
4.822
4.820
4.825
4.832
4.836
4.842
4.847
4.853
4.858
4.857
4.855
4.856
4.857
4.854
4.857
4.853
4.849
4.842
4.842
4.842
4.841
4.843
4.845
4.842
4.836
4.831
4.827
4.829
4.828
4.834
4.831
4.837
4.836
4.831
4.828
4.826
4.828
4.835
4.834
4.831
4.827
4.826
4.822
4.820
4.820
4.826
4.831
4.837
4.834
4.832
4.828
4.823
4.819
4.818
4.820
4.813
4.811
4.815
4.816
4.816
4.816
4.813
4.814
4.818
4.820
4.816
4.814
4.812
4.812
4.810
4.809
4.810
4.812
4.815
4.812
4.813
4.812
4.810
4.805
4.808
4.809
4.812
4.808
4.805
4.806
4.802
4.800
4.801
4.805
4.810
4.816
4.818
4.819
4.824
4.828
4.829
4.828
4.826
4.825
4.823
4.822
4.821
4.817
4.818
4.820
4.824
4.820
4.820
4.819
4.820
4.817
4.820
4.822
4.820
4.814
4.808
4.805
4.805
4.805
4.802
4.801
4.801
4.808
4.812
4.811
4.807
4.806
4.802
4.805
4.799
4.795
4.791
4.795
4.796
4.794
4.791
4.795
4.794
4.797
4.801
4.806
4.810
4.814
4.820
4.823
4.829
4.831
4.832
4.825
4.826
4.827
4.823
4.825
