2.992
3.334
3.512
3.629
3.726
3.791
3.839
3.884
3.916
3.964
3.992
4.008
4.049
4.082
4.074
4.078
4.102
4.125
4.146
4.171
4.186
4.207
4.227
4.245
4.239
4.202
4.178
4.194
4.203
4.210
4.223
4.226
4.241
4.245
4.257
4.264
4.268
4.279
4.279
4.290
4.299
4.309
4.305
4.317
4.327
4.333
4.329
4.341
4.345
4.352
4.357
4.353
4.364
4.369
4.378
4.382
4.390
4.379
4.387
4.393
4.397
4.405
4.409
4.416
4.423
4.407
4.412
4.419
4.423
4.429
4.438
4.437
4.439
4.448
4.457
4.456
4.455
4.446
4.453
4.459
4.457
4.462
4.468
4.473
4.472
4.478
4.480
4.489
4.488
4.494
4.499
4.498
4.504
4.497
4.491
4.492
4.493
4.492
4.496
4.501
4.510
4.512
4.512
4.517
4.515
4.519
4.521
4.528
4.531
4.538
4.535
4.545
4.535
4.542
4.540
4.547
4.551
4.553
4.560
4.560
4.559
4.544
4.546
4.536
4.540
4.544
4.546
4.549
4.553
4.555
4.557
4.561
4.559
4.563
4.567
4.566
4.567
4.571
4.568
4.574
4.578
4.575
4.578
4.580
4.584
4.586
4.584
4.590
4.594
4.601
4.595
4.594
4.592
4.596
4.598
4.602
4.600
4.601
4.606
4.610
4.614
4.618
4.619
4.621
4.617
4.619
4.628
4.629
4.625
4.634
4.627
4.624
4.628
4.635
4.625
4.613
4.605
4.596
4.601
4.601
4.608
4.607
4.614
4.616
4.609
4.619
4.616
4.626
4.620
4.618
4.622
4.626
4.627
4.627
4.631
4.632
4.636
4.634
4.625
4.624
4.636
4.626
4.633
4.627
4.630
4.629
4.638
4.634
4.638
4.637
4.638
4.640
4.636
4.646
4.649
4.649
4.653
4.653
4.655
4.657
4.658
4.656
4.653
4.657
4.652
4.662
4.664
4.657
4.669
4.668
4.666
4.671
4.666
4.673
4.663
4.662
4.664
4.660
4.668
4.671
4.668
4.667
4.664
4.665
4.672
4.671
4.669
4.679
4.675
4.671
4.680
4.673
4.672
4.679
4.685
4.681
4.680
4.694
4.693
4.689
4.694
4.694
4.693
4.690
4.701
4.700
4.690
4.695
4.693
4.692
4.694
4.705
4.702
4.701
4.702
4.712
4.704
4.706
4.710
4.716
4.715
4.706
4.715
4.720
4.719
4.720
4.716
4.712
4.705
4.703
4.713
4.711
4.708
4.708
4.719
4.720
4.723
4.712
4.715
4.716
4.715
4.711
4.712
4.719
4.716
4.711
4.713
4.722
4.723
4.719
4.721
4.717
4.729
4.734
4.734
4.731
4.732
4.734
4.737
4.738
4.734
4.733
4.738
4.747
4.746
4.741
4.740
4.742
4.738
4.733
4.727
4.722
4.716
4.711
4.708
4.708
4.715
4.712
4.712
4.712
4.705
4.708
4.707
4.708
4.708
4.703
4.708
4.720
4.718
4.719
4.715
4.712
4.712
4.723
4.727
4.723
4.716
4.712
4.713
4.722
4.719
4.725
4.723
4.723
4.719
4.725
4.732
4.730
4.724
4.728
4.727
4.727
4.732
4.741
4.745
4.741
4.738
4.742
4.740
4.736
4.731
4.725
4.719
4.716
4.716
4.727
4.729
4.728
4.724
4.728
4.727
4.722
4.726
4.728
4.729
4.720
4.712
4.712
4.712
4.722
4.727
4.723
4.726
4.728
4.726
4.717
4.716
4.727
4.731
4.728
4.721
4.723
4.723
4.722
4.723
4.730
4.737
4.734
4.734
4.734
4.732
4.731
4.732
4.734
4.738
4.747
4.745
4.738
4.743
4.739
4.740
4.741
4.737
4.741
4.751
4.745
4.746
4.736
4.735
4.736
4.735
4.733
4.743
4.753
4.757
4.750
4.751
4.747
4.743
4.742
4.745
4.741
4.751
4.757
4.757
4.755
4.753
4.760
4.754
4.755
4.756
4.753
4.754
4.764
4.773
4.768
4.764
4.766
4.764
4.757
4.753
4.753
4.753
4.760
4.760
4.760
4.765
4.757
4.756
4.757
4.754
4.753
4.753
4.758
4.762
4.757
4.760
4.755
4.756
4.753
4.751
4.750
4.751
4.749
4.757
4.766
4.771
4.774
4.771
4.771
4.770
4.766
4.762
4.769
4.764
4.761
4.764
4.771
4.779
4.782
4.781
4.782
4.779
4.772
4.764
4.766
4.760
4.764
4.767
4.769
4.776
4.786
4.782
4.783
4.782
4.783
4.781
4.783
4.778
4.780
4.779
4.779
4.776
4.780
4.789
4.797
4.801
4.802
4.806
4.801
4.794
4.793
4.786
4.790
4.792
4.786
4.784
4.786
4.795
4.797
4.798
4.797
4.800
4.794
4.794
4.794
4.789
4.791
4.789
4.785
4.779
4.783
4.784
4.779
4.775
4.772
4.775
4.772
4.773
4.771
4.775
4.774
4.771
4.771
4.770
4.777
4.784
4.780
4.786
4.788
4.786
4.786
4.779
4.774
4.770
4.763
4.762
4.755
4.757
4.764
4.771
4.777
4.775
4.777
4.776
4.777
4.776
4.780
4.779
4.772
4.775
4.771
4.767
4.768
4.765
4.766
4.770
4.777
4.782
4.786
4.786
4.786
4.786
4.786
4.786
4.782
4.779
4.780
4.786
4.786
4.784
4.786
4.787
4.782
4.781
4.782
4.787
4.794
4.794
4.793
4.795
4.791
4.784
4.783
4.782
4.785
4.779
4.780
4.782
4.779
4.782
4.783
4.779
4.777
4.782
4.791
4.798
4.793
4.789
4.783
4.781
4.779
4.786
4.788
4.782
4.779
4.778
4.780
4.779
4.779
4.778
4.775
4.775
4.780
4.787
4.794
4.800
4.807
4.805
4.802
4.798
4.797
4.800
4.799
4.795
4.793
4.792
4.794
4.798
4.796
4.795
4.794
4.798
4.797
4.797
4.794
4.795
4.802
4.808
4.808
4.809
4.808
4.809
4.808
4.806
4.805
4.805
4.807
4.809
4.804
4.800
4.796
4.790
4.788
4.794
4.797
4.792
4.793
4.795
4.801
4.806
4.813
4.816
4.815
4.814
4.815
4.811
4.812
4.808
4.808
4.811
4.815
4.819
4.816
4.814
4.808
4.808
4.805
4.809
4.812
4.811
4.805
4.806
4.802
4.809
4.815
4.822
4.827
4.833
4.837
4.834
4.834
4.834
4.831
4.827
4.824
4.823
4.824
4.822
4.821
4.820
4.824
4.825
4.823
4.817
4.816
4.812
4.813
4.816
4.815
4.812
4.819
4.823
4.829
4.827
4.823
4.823
4.819
4.817
4.812
4.809
4.805
4.803
4.802
4.801
4.804
4.797
4.801
4.800
4.799
4.800
4.801
4.801
4.804
4.803
4.802
4.805
4.812
4.816
4.821
4.828
4.834
4.833
4.829
4.823
4.823
4.820
4.816
4.809
4.807
4.806
4.807
4.806
4.807
4.809
4.810
4.809
4.804
4.800
4.796
4.798
4.796
4.797
4.793
4.798
4.804
4.809
4.813
4.820
4.824
4.823
4.827
4.831
4.834
4.834
4.831
4.828
4.826
4.827
4.827
4.830
4.826
4.830
4.826
4.823
4.826
4.823
4.819
4.816
4.818
4.819
4.816
4.816
4.815
4.811
4.812
4.806
4.807
4.812
4.818
4.823
4.827
4.833
4.835
4.833
4.832
4.830
4.837
4.833
4.831
4.833
4.832
4.834
4.835
4.836
4.837
4.836
4.834
4.831
4.835
4.833
4.835
4.834
4.835
4.834
4.835
4.830
4.826
4.825
4.821
4.819
4.824
4.822
4.818
4.822
4.827
4.833
4.837
4.842
4.848
4.852
4.853
4.853
4.851
4.850
4.848
4.845
4.846
4.844
4.843
4.845
4.849
4.852
4.846
4.844
4.848
4.849
4.854
4.855
4.856
4.853
4.854
4.849
4.845
4.844
4.843
4.842
4.840
4.841
4.834
4.838
4.838
4.839
4.840
4.839
4.843
4.847
4.853
4.858
4.860
4.860
4.859
4.866
4.865
4.861
4.857
4.860
4.859
4.857
4.856
4.853
4.851
4.855
4.859
4.857
4.856
4.852
4.846
4.844
4.840
4.834
4.831
4.831
4.831
4.830
4.832
4.830
4.834
4.831
4.829
4.831
4.832
4.830
4.832
4.838
4.840
4.845
4.851
4.855
4.860
4.861
4.860
4.858
4.860
4.858
4.853
4.852
4.854
4.852
4.846
4.849
4.854
4.853
4.856
4.853
4.853
4.853
4.854
4.849
4.846
4.847
4.846
4.844
4.845
4.842
4.843
4.844
4.842
4.842
4.846
