2.959
3.286
3.456
3.586
3.557
3.592
3.662
3.729
3.767
3.823
3.842
3.875
3.869
3.920
3.943
3.973
3.954
3.990
4.009
4.031
4.030
4.078
4.024
4.036
4.050
4.069
4.110
4.100
4.108
4.121
4.139
4.150
4.171
4.141
4.178
4.195
4.182
4.201
4.214
4.236
4.200
4.171
4.195
4.192
4.159
4.193
4.170
4.174
4.203
4.192
4.235
4.213
4.205
4.237
4.216
4.251
4.252
4.256
4.276
4.256
4.272
4.249
4.292
4.249
4.257
4.240
4.240
4.264
4.249
4.254
4.268
4.269
4.254
4.293
4.257
4.267
4.294
4.300
4.291
4.276
4.316
4.319
4.318
4.291
4.303
4.310
4.281
4.272
4.300
4.337
4.310
4.298
4.292
4.312
4.355
4.366
4.339
4.322
4.311
4.338
4.360
4.337
4.336
4.340
4.331
4.338
4.378
4.388
4.393
4.384
4.358
4.343
4.349
4.385
4.406
4.402
4.387
4.399
4.395
4.397
4.373
4.380
4.351
4.323
4.316
4.324
4.323
4.333
4.331
4.365
4.369
4.369
4.355
4.338
4.323
4.321
4.327
4.334
4.329
4.360
4.386
4.386
4.380
4.348
4.347
4.338
4.341
4.326
4.326
4.329
4.335
4.364
4.385
4.405
4.378
4.363
4.368
4.368
4.370
4.350
4.356
4.350
4.351
4.337
4.337
4.364
4.390
4.400
4.424
4.402
4.395
4.413
4.407
4.393
4.401
4.383
4.376
4.382
4.359
4.365
4.386
4.383
4.387
4.392
4.416
4.439
4.453
4.447
4.430
4.443
4.425
4.421
4.416
4.404
4.413
4.407
4.386
4.370
4.353
4.340
4.350
4.337
4.355
4.377
4.398
4.420
4.431
4.443
4.434
4.428
4.429
4.419
4.411
4.397
4.390
4.413
4.385
4.373
4.392
4.391
4.402
4.415
4.412
4.398
4.397
4.391
4.390
4.402
4.398
4.395
4.400
4.419
4.438
4.457
4.476
4.471
4.456
4.441
4.436
4.432
4.415
4.408
4.401
4.386
4.388
4.372
4.376
4.383
4.387
4.389
4.382
4.373
4.376
4.369
4.348
4.343
4.363
4.363
4.351
4.358
4.355
4.362
4.378
4.395
4.412
4.428
4.445
4.461
4.478
4.469
4.466
4.461
4.466
4.442
4.427
4.425
4.423
4.426
4.424
4.409
4.421
4.408
4.399
4.395
4.412
4.420
4.412
4.400
4.399
4.407
4.415
4.413
4.410
4.388
4.381
4.364
4.366
4.349
4.344
4.348
4.339
4.332
4.325
4.337
4.347
4.361
4.376
4.390
4.404
4.418
4.432
4.447
4.461
4.475
4.489
4.488
4.479
4.459
4.460
4.454
4.470
4.469
4.465
4.465
4.446
4.452
4.434
4.444
4.424
4.418
4.418
4.408
4.410
4.430
4.422
4.435
4.415
4.407
4.402
4.392
4.394
4.410
4.410
4.414
4.420
4.433
4.428
4.440
4.439
4.428
4.419
4.409
4.403
4.407
4.416
4.396
4.393
4.392
4.384
4.370
4.375
4.382
4.396
4.392
4.392
4.392
4.399
4.412
4.416
4.405
4.403
4.413
4.425
4.437
4.448
4.460
4.472
4.484
4.496
4.508
4.503
4.492
4.481
4.470
4.460
4.459
4.462
4.436
4.420
4.435
4.434
4.439
4.448
4.463
4.443
4.444
4.435
4.441
4.439
4.427
4.442
4.440
4.458
4.446
4.430
4.429
4.429
4.420
4.433
4.427
4.410
4.411
4.388
4.389
4.386
4.393
4.395
4.383
4.403
4.392
4.391
4.368
4.370
4.374
4.385
4.374
4.374
4.363
4.364
4.381
4.365
4.359
4.352
4.372
4.371
4.368
4.372
4.359
4.364
4.347
4.341
4.355
4.370
4.384
4.398
4.413
4.406
4.410
4.420
4.415
4.407
4.405
4.388
4.384
4.391
4.395
4.382
4.380
4.396
4.391
4.391
4.402
4.401
4.403
4.408
4.417
4.427
4.436
4.446
4.455
4.464
4.474
4.483
4.493
4.502
4.495
4.491
4.483
4.474
4.483
4.488
4.476
4.475
4.480
4.485
4.475
4.479
4.484
4.475
4.474
4.466
4.457
4.452
4.453
4.467
4.464
4.445
4.444
4.438
4.441
4.432
4.428
4.437
4.448
4.463
4.458
4.471
4.455
4.458
4.450
4.448
4.451
4.449
4.459
4.462
4.452
4.446
4.438
4.440
4.433
4.437
4.442
4.439
4.451
4.464
4.476
4.485
4.489
4.488
4.483
4.468
4.452
4.443
4.443
4.438
4.445
4.447
4.441
4.441
4.443
4.444
4.446
4.451
4.447
4.434
4.425
4.411
4.424
4.412
4.406
4.398
4.402
4.393
4.407
4.402
4.410
4.407
4.409
4.405
4.405
4.413
4.405
4.397
4.388
4.382
4.382
4.384
4.380
4.367
4.370
4.375
4.388
4.396
4.392
4.390
4.399
4.396
4.395
4.394
4.391
4.387
4.387
4.376
4.373
4.377
4.381
4.370
4.383
4.376
4.377
4.369
4.358
4.348
4.341
4.335
4.339
4.353
4.358
4.348
4.350
4.343
4.346
4.335
4.341
4.327
4.318
4.316
4.317
4.324
4.331
4.339
4.346
4.353
4.360
4.367
4.374
4.381
4.388
4.395
4.402
4.410
4.417
4.424
4.431
4.438
4.445
4.452
4.459
4.466
4.473
4.480
4.487
4.495
4.502
4.509
4.516
4.523
4.530
4.537
4.544
4.551
4.558
4.566
4.560
4.564
4.556
4.547
4.538
4.534
4.536
4.534
4.533
4.530
4.526
4.528
4.529
4.515
4.504
4.500
4.507
4.501
4.503
4.489
4.488
4.480
4.486
4.473
4.473
4.471
4.470
4.470
4.465
4.452
4.461
4.467
4.479
4.490
4.500
4.498
4.494
4.500
4.493
4.487
4.484
4.484
4.490
4.485
4.479
4.477
4.487
4.486
4.476
4.477
4.481
4.493
4.495
4.493
4.486
4.480
4.487
4.496
4.493
4.499
4.486
4.483
4.475
4.466
4.469
4.475
4.471
4.472
4.461
4.458
4.455
4.448
4.451
4.441
4.440
4.443
4.451
4.444
4.439
4.444
4.442
4.432
4.430
4.428
4.432
4.416
4.423
4.419
4.412
4.411
4.414
4.415
4.409
4.405
4.408
4.407
4.400
4.413
4.417
4.418
4.410
4.409
4.405
4.405
4.405
4.410
4.404
4.406
4.402
4.395
4.388
4.381
4.374
4.368
4.361
4.362
4.365
4.362
4.348
4.352
4.353
4.356
4.365
4.361
4.375
4.365
4.364
4.359
4.361
4.364
4.364
4.362
4.356
4.364
4.373
4.381
4.389
4.397
4.405
4.413
4.421
4.430
4.436
4.434
4.424
4.417
4.411
4.425
4.423
4.421
4.423
4.432
4.433
4.423
4.423
4.420
4.410
4.406
4.402
4.412
4.422
4.419
4.423
4.432
4.441
4.449
4.446
4.438
4.442
4.445
4.435
4.437
4.431
4.422
4.414
4.413
4.400
4.393
4.392
4.397
4.395
4.397
4.390
4.393
4.386
4.391
4.400
4.390
4.394
4.387
4.388
4.386
4.371
4.362
4.365
4.374
4.379
4.370
4.383
4.389
4.384
4.383
4.381
4.381
4.384
4.380
4.383
4.383
4.385
4.382
4.375
4.373
4.376
4.374
4.363
4.362
4.371
4.372
4.383
4.377
4.379
4.379
4.389
4.393
4.395
4.390
4.388
4.380
4.378
4.371
4.361
4.359
4.359
4.359
4.357
4.352
4.350
4.343
4.349
4.356
4.367
4.355
4.353
4.361
4.357
4.361
4.359
4.368
4.363
4.357
4.349
4.351
4.355
4.353
4.352
4.355
4.349
4.347
4.339
4.349
4.350
4.347
4.342
4.349
4.345
4.345
4.352
4.352
4.361
4.367
4.356
4.368
4.367
4.372
4.371
4.375
4.376
4.371
4.373
4.373
4.383
4.383
4.378
4.383
4.388
4.393
4.397
4.402
4.407
4.412
4.416
4.421
4.426
4.430
4.435
4.440
4.444
4.449
4.454
4.458
4.463
4.468
4.473
4.477
4.482
4.487
4.492
4.496
4.501
4.506
4.511
4.515
4.520
4.525
4.530
4.534
4.537
4.535
4.526
4.517
4.512
4.511
4.519
4.530
4.514
4.503
4.509
4.508
4.502
4.494
4.496
4.505
4.513
4.519
4.530
4.525
4.522
4.523
4.526
4.525
4.525
4.518
4.522
4.522
4.516
4.520
4.516
4.512
4.506
4.494
4.506
4.494
4.499
4.500
4.498
4.497
4.494
