2.994
3.331
3.518
3.636
3.717
3.784
3.848
3.891
3.919
3.973
3.974
4.016
4.056
4.072
4.057
4.082
4.108
4.129
4.153
4.171
4.196
4.217
4.235
4.211
4.171
4.168
4.179
4.195
4.201
4.206
4.223
4.225
4.240
4.241
4.253
4.266
4.267
4.279
4.289
4.288
4.295
4.305
4.314
4.310
4.322
4.327
4.336
4.338
4.338
4.348
4.355
4.362
4.368
4.367
4.364
4.373
4.379
4.389
4.391
4.398
4.407
4.392
4.397
4.403
4.408
4.414
4.423
4.423
4.431
4.438
4.440
4.442
4.429
4.439
4.442
4.442
4.448
4.455
4.457
4.455
4.464
4.468
4.475
4.480
4.478
4.483
4.486
4.488
4.475
4.477
4.478
4.482
4.486
4.490
4.494
4.493
4.500
4.497
4.505
4.507
4.506
4.516
4.519
4.520
4.528
4.521
4.527
4.527
4.531
4.537
4.544
4.548
4.545
4.538
4.525
4.524
4.527
4.526
4.527
4.535
4.538
4.540
4.547
4.543
4.544
4.549
4.553
4.549
4.552
4.554
4.557
4.557
4.560
4.564
4.569
4.575
4.572
4.578
4.575
4.581
4.580
4.578
4.577
4.579
4.583
4.586
4.583
4.592
4.590
4.594
4.599
4.605
4.602
4.598
4.605
4.612
4.613
4.608
4.618
4.612
4.610
4.612
4.621
4.614
4.602
4.592
4.582
4.586
4.593
4.590
4.599
4.597
4.594
4.606
4.602
4.612
4.604
4.606
4.608
4.606
4.616
4.611
4.616
4.616
4.621
4.612
4.613
4.617
4.613
4.619
4.615
4.619
4.615
4.622
4.621
4.625
4.624
4.625
4.624
4.627
4.637
4.628
4.640
4.636
4.642
4.645
4.638
4.641
4.637
4.641
4.638
4.649
4.646
4.645
4.656
4.655
4.657
4.658
4.657
4.652
4.643
4.650
4.648
4.649
4.659
4.655
4.653
4.655
4.649
4.660
4.659
4.658
4.664
4.660
4.660
4.663
4.665
4.663
4.671
4.675
4.671
4.674
4.678
4.682
4.675
4.686
4.678
4.679
4.686
4.677
4.675
4.685
4.684
4.686
4.683
4.691
4.690
4.690
4.694
4.694
4.692
4.694
4.703
4.701
4.701
4.696
4.712
4.704
4.703
4.699
4.695
4.693
4.689
4.702
4.701
4.707
4.700
4.708
4.701
4.697
4.697
4.704
4.701
4.697
4.695
4.707
4.708
4.702
4.703
4.707
4.712
4.710
4.708
4.715
4.717
4.724
4.722
4.718
4.714
4.724
4.728
4.724
4.727
4.724
4.731
4.738
4.728
4.727
4.723
4.718
4.712
4.707
4.703
4.701
4.695
4.694
4.694
4.704
4.695
4.686
4.683
4.691
4.705
4.699
4.700
4.699
4.697
4.702
4.709
4.705
4.708
4.704
4.705
4.707
4.701
4.704
4.701
4.702
4.701
4.712
4.716
4.713
4.711
4.708
4.705
4.713
4.722
4.724
4.719
4.718
4.722
4.721
4.725
4.732
4.725
4.724
4.717
4.710
4.714
4.712
4.708
4.707
4.708
4.705
4.714
4.718
4.717
4.712
4.705
4.705
4.703
4.708
4.709
4.705
4.706
4.707
4.708
4.704
4.714
4.716
4.712
4.705
4.708
4.707
4.701
4.712
4.720
4.721
4.720
4.720
4.717
4.710
4.716
4.718
4.727
4.735
4.733
4.732
4.730
4.720
4.717
4.720
4.728
4.738
4.730
4.727
4.728
4.726
4.723
4.716
4.725
4.735
4.733
4.735
4.736
4.738
4.730
4.726
4.730
4.731
4.739
4.740
4.741
4.738
4.741
4.735
4.739
4.737
4.733
4.742
4.750
4.759
4.758
4.753
4.753
4.746
4.750
4.748
4.749
4.746
4.747
4.742
4.742
4.742
4.741
4.745
4.739
4.738
4.739
4.748
4.755
4.751
4.750
4.742
4.742
4.742
4.736
4.735
4.736
4.745
4.755
4.754
4.755
4.754
4.755
4.753
4.749
4.751
4.750
4.743
4.749
4.757
4.768
4.767
4.758
4.764
4.766
4.767
4.764
4.757
4.747
4.751
4.757
4.764
4.768
4.764
4.766
4.768
4.763
4.765
4.768
4.764
4.761
4.760
4.758
4.767
4.775
4.779
4.782
4.783
4.780
4.784
4.783
4.784
4.777
4.776
4.777
4.770
4.772
4.779
4.788
4.787
4.786
4.783
4.782
4.781
4.779
4.773
4.774
4.773
4.772
4.776
4.779
4.775
4.769
4.767
4.763
4.754
4.758
4.754
4.755
4.754
4.753
4.756
4.763
4.770
4.768
4.771
4.771
4.768
4.768
4.764
4.761
4.765
4.763
4.762
4.757
4.751
4.758
4.764
4.757
4.760
4.757
4.756
4.758
4.764
4.760
4.759
4.761
4.759
4.755
4.754
4.749
4.757
4.764
4.771
4.774
4.775
4.768
4.765
4.768
4.762
4.763
4.765
4.768
4.767
4.764
4.765
4.764
4.762
4.764
4.771
4.779
4.779
4.777
4.778
4.779
4.773
4.777
4.775
4.771
4.767
4.761
4.764
4.761
4.765
4.764
4.764
4.771
4.776
4.777
4.778
4.775
4.781
4.777
4.771
4.768
4.770
4.766
4.767
4.768
4.760
4.760
4.759
4.755
4.760
4.769
4.775
4.783
4.790
4.791
4.790
4.786
4.784
4.782
4.779
4.783
4.784
4.779
4.778
4.780
4.778
4.777
4.778
4.777
4.783
4.782
4.781
4.788
4.795
4.802
4.798
4.797
4.794
4.796
4.795
4.793
4.789
4.788
4.787
4.786
4.787
4.786
4.786
4.782
4.783
4.780
4.778
4.783
4.790
4.796
4.801
4.796
4.800
4.796
4.797
4.794
4.797
4.796
4.794
4.796
4.797
4.797
4.795
4.791
4.794
4.791
4.794
4.793
4.792
4.791
4.790
4.797
4.803
4.810
4.817
4.824
4.820
4.820
4.822
4.821
4.819
4.821
4.814
4.810
4.806
4.802
4.803
4.804
4.811
4.810
4.812
4.810
4.805
4.804
4.797
4.799
4.806
4.812
4.819
4.824
4.819
4.813
4.809
4.812
4.817
4.813
4.808
4.804
4.798
4.796
4.790
4.786
4.784
4.780
4.781
4.780
4.787
4.786
4.789
4.791
4.797
4.802
4.809
4.812
4.811
4.810
4.812
4.816
4.817
4.813
4.811
4.805
4.801
4.799
4.800
4.794
4.792
4.791
4.795
4.796
4.795
4.790
4.787
4.786
4.779
4.783
4.790
4.794
4.801
4.807
4.811
4.805
4.811
4.815
4.814
4.816
4.812
4.813
4.806
4.810
4.809
4.810
4.809
4.808
4.808
4.805
4.808
4.807
4.806
4.807
4.811
4.805
4.806
4.802
4.800
4.796
4.795
4.801
4.805
4.812
4.817
4.823
4.822
4.820
4.816
4.815
4.816
4.815
4.814
4.816
4.817
4.816
4.820
4.818
4.816
4.813
4.812
4.816
4.817
4.820
4.819
4.816
4.814
4.821
4.816
4.812
4.816
4.815
4.811
4.812
4.808
4.815
4.820
4.826
4.830
4.837
4.839
4.840
4.841
4.837
4.831
4.827
4.828
4.831
4.830
4.827
4.828
4.829
4.831
4.829
4.833
4.832
4.836
4.834
4.836
4.838
4.839
4.835
4.833
4.835
4.834
4.834
4.828
4.821
4.822
4.824
4.825
4.823
4.828
4.835
4.839
4.845
4.844
4.846
4.844
4.849
4.849
4.849
4.849
4.851
4.852
4.849
4.844
4.840
4.834
4.838
4.842
4.840
4.841
4.845
4.841
4.837
4.838
4.834
4.833
4.831
4.825
4.823
4.817
4.816
4.814
4.815
4.816
4.815
4.820
4.826
4.831
4.835
4.841
4.840
4.844
4.843
4.841
4.842
4.842
4.845
4.841
4.842
4.839
4.834
4.834
4.842
4.839
4.842
4.841
4.838
4.838
4.842
4.836
4.834
4.836
4.834
4.831
4.826
4.823
4.824
4.825
4.826
4.830
4.826
4.825
4.827
4.830
4.829
4.828
4.831
4.833
4.832
4.838
4.842
4.847
4.851
4.857
4.860
4.860
4.854
4.853
4.856
4.858
4.862
4.864
4.862
4.860
4.860
4.858
4.853
4.853
4.854
4.853
4.853
4.852
4.856
4.853
4.851
4.850
4.854
4.860
4.864
4.864
4.860
4.855
4.851
4.853
4.854
4.857
4.854
4.850
4.853
4.852
4.849
4.852
4.851
4.849
4.846
4.849
4.851
4.852
4.857
4.863
4.867
4.872
4.875
4.877
4.875
4.869
4.867
4.869
4.873
4.872
