2.989
3.335
3.511
3.623
3.706
3.762
3.847
3.870
3.937
3.911
3.959
3.997
4.038
4.073
4.104
4.075
4.026
4.046
4.061
4.083
4.100
4.111
4.122
4.138
4.146
4.164
4.181
4.184
4.197
4.203
4.209
4.222
4.238
4.228
4.238
4.251
4.264
4.272
4.267
4.275
4.291
4.296
4.309
4.312
4.306
4.304
4.312
4.326
4.327
4.339
4.344
4.356
4.360
4.369
4.353
4.348
4.360
4.365
4.372
4.373
4.379
4.387
4.394
4.399
4.396
4.406
4.415
4.418
4.425
4.423
4.398
4.398
4.410
4.422
4.419
4.426
4.431
4.429
4.431
4.436
4.444
4.445
4.449
4.457
4.462
4.454
4.463
4.466
4.472
4.473
4.478
4.483
4.485
4.493
4.499
4.505
4.494
4.498
4.497
4.502
4.489
4.479
4.473
4.485
4.484
4.483
4.486
4.483
4.492
4.501
4.505
4.500
4.491
4.497
4.495
4.502
4.502
4.502
4.511
4.516
4.513
4.522
4.525
4.516
4.517
4.529
4.528
4.542
4.532
4.545
4.544
4.544
4.535
4.535
4.539
4.540
4.535
4.547
4.538
4.544
4.543
4.554
4.552
4.567
4.559
4.570
4.563
4.575
4.564
4.571
4.567
4.571
4.577
4.570
4.586
4.589
4.588
4.590
4.583
4.599
4.595
4.589
4.586
4.590
4.590
4.593
4.589
4.588
4.588
4.589
4.586
4.598
4.600
4.597
4.606
4.609
4.605
4.610
4.617
4.618
4.613
4.624
4.621
4.621
4.628
4.626
4.620
4.619
4.608
4.598
4.588
4.578
4.593
4.587
4.588
4.587
4.603
4.589
4.583
4.598
4.598
4.594
4.589
4.605
4.604
4.608
4.603
4.609
4.619
4.614
4.616
4.610
4.622
4.609
4.596
4.607
4.603
4.600
4.596
4.601
4.599
4.596
4.591
4.592
4.604
4.600
4.594
4.593
4.600
4.608
4.610
4.605
4.609
4.608
4.617
4.620
4.613
4.610
4.613
4.621
4.621
4.612
4.612
4.612
4.617
4.628
4.624
4.625
4.621
4.615
4.626
4.638
4.640
4.639
4.635
4.633
4.631
4.649
4.647
4.644
4.640
4.627
4.630
4.643
4.639
4.634
4.635
4.636
4.629
4.641
4.643
4.640
4.644
4.632
4.637
4.634
4.648
4.654
4.656
4.653
4.652
4.647
4.639
4.648
4.656
4.661
4.656
4.652
4.656
4.649
4.649
4.659
4.671
4.680
4.679
4.670
4.667
4.667
4.660
4.663
4.678
4.687
4.680
4.672
4.668
4.667
4.664
4.672
4.675
4.684
4.686
4.681
4.673
4.664
4.655
4.651
4.661
4.661
4.663
4.665
4.660
4.655
4.643
4.653
4.649
4.663
4.658
4.649
4.656
4.650
4.646
4.646
4.643
4.641
4.655
4.669
4.669
4.666
4.668
4.669
4.666
4.667
4.663
4.661
4.656
4.665
4.674
4.666
4.669
4.672
4.668
4.664
4.664
4.667
4.664
4.654
4.667
4.667
4.670
4.668
4.661
4.668
4.669
4.669
4.666
4.662
4.663
4.659
4.672
4.683
4.689
4.695
4.687
4.686
4.683
4.683
4.680
4.684
4.674
4.672
4.667
4.679
4.692
4.701
4.691
4.687
4.680
4.680
4.680
4.676
4.679
4.670
4.677
4.674
4.682
4.688
4.700
4.706
4.705
4.704
4.700
4.698
4.706
4.706
4.706
4.704
4.699
4.696
4.692
4.689
4.697
4.709
4.717
4.714
4.714
4.712
4.708
4.713
4.708
4.707
4.708
4.700
4.690
4.693
4.697
4.695
4.700
4.700
4.700
4.696
4.705
4.708
4.703
4.706
4.698
4.690
4.690
4.685
4.688
4.687
4.678
4.689
4.699
4.710
4.701
4.696
4.695
4.704
4.700
4.696
4.698
4.702
4.699
4.700
4.697
4.696
4.698
4.700
4.695
4.695
4.701
4.711
4.712
4.719
4.713
4.710
4.711
4.714
4.709
4.706
4.702
4.702
4.705
4.704
4.712
4.717
4.714
4.707
4.709
4.704
4.708
4.718
4.727
4.728
4.724
4.731
4.729
4.726
4.725
4.732
4.732
4.727
4.726
4.729
4.726
4.727
4.731
4.726
4.725
4.721
4.721
4.718
4.717
4.727
4.736
4.745
4.745
4.747
4.748
4.744
4.745
4.745
4.743
4.736
4.732
4.738
4.731
4.739
4.727
4.728
4.728
4.723
4.725
4.721
4.715
4.718
4.726
4.735
4.742
4.743
4.743
4.743
4.742
4.737
4.736
4.735
4.730
4.731
4.733
4.729
4.729
4.724
4.725
4.724
4.731
4.730
4.727
4.725
4.728
4.721
4.720
4.725
4.733
4.742
4.750
4.759
4.763
4.758
4.760
4.755
4.756
4.756
4.760
4.761
4.762
4.759
4.760
4.761
4.760
4.758
4.756
4.757
4.752
4.746
4.746
4.749
4.749
4.755
4.750
4.758
4.758
4.758
4.751
4.760
4.768
4.776
4.778
4.781
4.784
4.776
4.772
4.772
4.768
4.769
4.765
4.767
4.763
4.772
4.767
4.773
4.774
4.768
4.768
4.765
4.760
4.756
4.751
4.747
4.742
4.738
4.733
4.737
4.745
4.752
4.756
4.755
4.751
4.755
4.756
4.753
4.753
4.753
4.753
4.750
4.749
4.753
4.747
4.746
4.749
4.746
4.743
4.738
4.732
4.727
4.722
4.716
4.718
4.720
4.721
4.721
4.718
4.717
4.719
4.722
4.729
4.737
4.744
4.751
4.753
4.755
4.750
4.747
4.741
4.742
4.744
4.738
4.734
4.732
4.743
4.743
4.749
4.742
4.731
4.732
4.731
4.727
4.728
4.729
4.730
4.732
4.727
4.724
4.721
4.721
4.719
4.728
4.731
4.725
4.721
4.721
4.726
4.734
4.736
4.736
4.743
4.749
4.756
4.763
4.770
4.768
4.765
4.759
4.753
4.747
4.741
4.742
4.747
4.747
4.746
4.737
4.732
4.727
4.728
4.727
4.725
4.723
4.724
4.726
4.727
4.727
4.725
4.723
4.723
4.723
4.720
4.724
4.719
4.720
4.717
4.715
4.718
4.713
4.710
4.717
4.723
4.730
4.736
4.743
4.749
4.756
4.762
4.762
4.759
4.762
4.759
4.760
4.758
4.766
4.770
4.769
4.765
4.765
4.759
4.760
4.759
4.760
4.761
4.754
4.746
4.740
4.740
4.739
4.734
4.736
4.735
4.734
4.737
4.733
4.728
4.725
4.729
4.726
4.723
4.721
4.723
4.724
4.728
4.721
4.724
4.723
4.721
4.723
4.720
4.726
4.733
4.738
4.744
4.751
4.757
4.763
4.762
4.760
4.758
4.758
4.759
4.753
4.755
4.755
4.762
4.761
4.757
4.755
4.749
4.749
4.748
4.746
4.750
4.751
4.759
4.760
4.761
4.764
4.765
4.758
4.754
4.752
4.748
4.746
4.751
4.746
4.744
4.744
4.744
4.748
4.744
4.748
4.746
4.744
4.739
4.738
4.732
4.725
4.719
4.717
4.717
4.716
4.714
4.718
4.724
4.730
4.735
4.741
4.747
4.752
4.758
4.764
4.769
4.775
4.781
4.786
4.783
4.782
4.782
4.775
4.775
4.779
4.774
4.765
4.767
4.765
4.771
4.771
4.767
4.762
4.762
4.761
4.761
4.764
4.761
4.764
4.764
4.766
4.763
4.761
4.761
4.761
4.757
4.755
4.752
4.748
4.752
4.755
4.751
4.746
4.749
4.747
4.742
4.739
4.741
4.741
4.745
4.745
4.750
4.749
4.752
4.755
4.756
4.749
4.749
4.746
4.741
4.736
4.733
4.730
4.735
4.740
4.745
4.750
4.756
4.761
4.766
4.771
4.777
4.782
4.787
4.793
4.790
4.784
4.787
4.788
4.783
4.782
4.785
4.787
4.789
4.787
4.785
4.792
4.789
4.789
4.788
4.795
4.789
4.789
4.784
4.781
4.778
4.776
4.771
4.773
4.774
4.776
4.777
4.776
4.778
4.776
4.774
4.770
4.774
4.774
4.774
4.772
4.775
4.782
4.778
4.776
4.777
4.771
4.771
4.772
4.771
4.766
4.768
4.769
4.767
4.768
4.770
4.764
4.764
4.763
4.770
4.771
4.773
4.769
4.763
4.757
4.764
4.765
4.768
4.768
4.769
4.767
4.767
4.767
4.764
4.765
4.770
4.775
4.780
4.784
4.789
4.794
4.799
4.804
4.809
4.814
4.819
4.823
4.823
4.827
4.827
4.823
4.825
4.826
4.823
4.818
4.813
4.813
4.812
4.807
