2.987
3.326
3.496
3.626
3.699
3.751
3.839
3.827
3.893
3.942
3.988
4.035
3.957
3.958
3.987
4.007
4.025
4.041
4.052
4.077
4.089
4.109
4.113
4.133
4.151
4.145
4.163
4.184
4.183
4.189
4.203
4.219
4.229
4.219
4.232
4.244
4.250
4.262
4.269
4.278
4.276
4.270
4.277
4.293
4.295
4.308
4.320
4.321
4.326
4.338
4.344
4.346
4.325
4.330
4.341
4.347
4.357
4.346
4.350
4.368
4.369
4.375
4.388
4.387
4.380
4.393
4.396
4.405
4.405
4.420
4.431
4.417
4.423
4.431
4.426
4.401
4.399
4.409
4.410
4.417
4.425
4.439
4.419
4.424
4.421
4.428
4.426
4.440
4.446
4.443
4.447
4.441
4.451
4.466
4.463
4.464
4.476
4.460
4.464
4.461
4.465
4.469
4.472
4.466
4.485
4.478
4.490
4.498
4.492
4.493
4.492
4.500
4.506
4.511
4.518
4.510
4.524
4.523
4.528
4.512
4.516
4.517
4.513
4.507
4.519
4.511
4.537
4.530
4.537
4.532
4.534
4.546
4.539
4.556
4.556
4.544
4.565
4.547
4.560
4.547
4.534
4.520
4.525
4.522
4.514
4.526
4.520
4.516
4.533
4.533
4.532
4.545
4.545
4.541
4.545
4.557
4.550
4.537
4.524
4.519
4.533
4.526
4.518
4.522
4.520
4.528
4.515
4.534
4.539
4.540
4.535
4.542
4.550
4.546
4.545
4.545
4.550
4.544
4.542
4.544
4.556
4.546
4.557
4.549
4.563
4.578
4.568
4.566
4.563
4.576
4.575
4.558
4.551
4.560
4.574
4.571
4.554
4.556
4.562
4.575
4.572
4.573
4.570
4.573
4.580
4.587
4.578
4.576
4.577
4.576
4.592
4.602
4.594
4.602
4.598
4.595
4.597
4.615
4.607
4.609
4.601
4.602
4.596
4.616
4.615
4.613
4.612
4.606
4.598
4.607
4.595
4.583
4.590
4.580
4.577
4.591
4.594
4.581
4.581
4.574
4.574
4.574
4.587
4.595
4.590
4.597
4.598
4.596
4.588
4.587
4.593
4.606
4.598
4.595
4.592
4.600
4.599
4.594
4.589
4.598
4.597
4.601
4.592
4.598
4.588
4.598
4.588
4.594
4.611
4.620
4.619
4.619
4.618
4.611
4.613
4.602
4.597
4.606
4.622
4.630
4.613
4.609
4.610
4.612
4.614
4.606
4.609
4.606
4.621
4.637
4.638
4.646
4.638
4.641
4.636
4.638
4.624
4.634
4.627
4.625
4.640
4.652
4.645
4.643
4.648
4.650
4.643
4.629
4.628
4.626
4.630
4.632
4.644
4.639
4.642
4.631
4.630
4.624
4.633
4.625
4.610
4.610
4.608
4.622
4.636
4.638
4.636
4.641
4.640
4.643
4.643
4.640
4.636
4.626
4.624
4.627
4.619
4.628
4.641
4.649
4.648
4.655
4.645
4.649
4.657
4.652
4.656
4.651
4.643
4.636
4.632
4.628
4.635
4.644
4.656
4.670
4.676
4.675
4.678
4.681
4.668
4.668
4.661
4.660
4.657
4.662
4.667
4.657
4.663
4.661
4.654
4.666
4.677
4.677
4.679
4.683
4.678
4.679
4.673
4.673
4.667
4.656
4.652
4.645
4.647
4.644
4.646
4.644
4.656
4.668
4.680
4.678
4.680
4.676
4.671
4.671
4.672
4.679
4.675
4.671
4.674
4.676
4.672
4.668
4.665
4.656
4.657
4.659
4.667
4.672
4.684
4.695
4.707
4.715
4.707
4.710
4.714
4.719
4.713
4.703
4.699
4.698
4.697
4.698
4.692
4.690
4.684
4.678
4.682
4.678
4.683
4.685
4.687
4.697
4.708
4.719
4.721
4.720
4.712
4.707
4.711
4.703
4.702
4.696
4.690
4.684
4.678
4.671
4.665
4.659
4.666
4.659
4.657
4.664
4.664
4.674
4.684
4.695
4.693
4.686
4.684
4.671
4.667
4.667
4.667
4.669
4.679
4.683
4.676
4.666
4.667
4.656
4.655
4.651
4.660
4.652
4.641
4.645
4.643
4.646
4.655
4.665
4.675
4.684
4.694
4.701
4.696
4.693
4.689
4.685
4.688
4.691
4.682
4.686
4.690
4.680
4.675
4.672
4.667
4.669
4.672
4.680
4.682
4.682
4.683
4.678
4.670
4.662
4.654
4.645
4.654
4.662
4.672
4.681
4.685
4.686
4.684
4.686
4.678
4.678
4.677
4.678
4.678
4.677
4.679
4.671
4.676
4.674
4.681
4.682
4.676
4.673
4.671
4.671
4.671
4.669
4.669
4.670
4.666
4.666
4.668
4.671
4.671
4.670
4.662
4.660
4.669
4.677
4.685
4.694
4.687
4.682
4.686
4.680
4.682
4.682
4.683
4.684
4.691
4.694
4.683
4.676
4.678
4.678
4.683
4.680
4.674
4.677
4.675
4.671
4.665
4.662
4.669
4.671
4.661
4.666
4.666
4.662
4.674
4.671
4.669
4.668
4.665
4.664
4.661
4.667
4.675
4.683
4.691
4.698
4.704
4.706
4.702
4.702
4.701
4.700
4.690
4.694
4.699
4.695
4.693
4.689
4.687
4.692
4.688
4.689
4.683
4.689
4.683
4.686
4.685
4.682
4.680
4.678
4.671
4.676
4.683
4.678
4.687
4.688
4.689
4.693
4.683
4.676
4.676
4.682
4.680
4.680
4.681
4.676
4.671
4.672
4.680
4.687
4.694
4.702
4.709
4.716
4.721
4.724
4.720
4.707
4.704
4.709
4.715
4.711
4.705
4.712
4.713
4.723
4.728
4.731
4.727
4.724
4.721
4.713
4.703
4.703
4.702
4.699
4.696
4.705
4.702
4.698
4.700
4.696
4.696
4.699
4.697
4.695
4.690
4.688
4.687
4.689
4.689
4.688
4.686
4.686
4.687
4.697
4.702
4.695
4.693
4.693
4.687
4.689
4.692
4.694
4.701
4.707
4.714
4.721
4.728
4.734
4.741
4.748
4.750
4.748
4.747
4.751
4.745
4.740
4.740
4.743
4.747
4.747
4.746
4.748
4.750
4.748
4.738
4.734
4.731
4.729
4.727
4.731
4.732
4.731
4.726
4.735
4.740
4.741
4.744
4.739
4.732
4.732
4.732
4.734
4.735
4.732
4.729
4.721
4.723
4.722
4.720
4.720
4.715
4.713
4.706
4.700
4.698
4.693
4.694
4.698
4.701
4.701
4.702
4.702
4.702
4.699
4.695
4.701
4.708
4.714
4.720
4.726
4.724
4.725
4.731
4.733
4.741
4.737
4.739
4.736
4.730
4.727
4.725
4.730
4.734
4.728
4.736
4.736
4.734
4.726
4.720
4.717
4.719
4.717
4.713
4.711
4.708
4.705
4.700
4.697
4.697
4.701
4.693
4.693
4.700
4.698
4.702
4.708
4.701
4.697
4.701
4.707
4.702
4.700
4.703
4.700
4.700
4.706
4.702
4.703
4.702
4.694
4.696
4.696
4.690
4.691
4.691
4.696
4.701
4.698
4.697
4.692
4.690
4.688
4.682
4.683
4.679
4.674
4.681
4.682
4.688
4.693
4.699
4.705
4.710
4.716
4.722
4.727
4.733
4.739
4.744
4.750
4.756
4.755
4.750
4.750
4.750
4.749
4.752
4.747
4.754
4.746
4.744
4.747
4.739
4.741
4.740
4.737
4.736
4.732
4.731
4.738
4.745
4.746
4.744
4.741
4.743
4.745
4.745
4.743
4.742
4.740
4.736
4.740
4.745
4.744
4.737
4.735
4.731
4.740
4.740
4.739
4.740
4.737
4.739
4.742
4.744
4.746
4.741
4.742
4.739
4.734
4.735
4.734
4.734
4.732
4.731
4.726
4.726
4.721
4.719
4.720
4.724
4.724
4.721
4.724
4.723
4.729
4.730
4.732
4.730
4.730
4.729
4.725
4.721
4.717
4.714
4.710
4.706
4.702
4.698
4.704
4.704
4.709
4.711
4.716
4.713
4.714
4.719
4.724
4.729
4.734
4.739
4.744
4.749
4.754
4.759
4.765
4.770
4.769
4.765
4.759
4.753
4.747
4.740
4.735
4.740
4.734
4.739
4.736
4.733
4.729
4.734
4.730
4.723
4.721
4.720
4.720
4.722
4.717
4.723
4.718
4.725
4.730
4.723
4.717
4.723
4.719
4.717
4.716
4.717
4.715
4.712
4.711
4.719
4.719
4.718
4.716
4.716
4.714
4.712
4.718
4.725
4.724
4.725
4.722
4.723
4.716
4.713
4.708
4.703
4.697
4.694
4.697
4.701
4.699
4.701
4.698
4.700
4.697
4.699
4.703
4.706
4.702
4.696
4.696
