2.967
3.233
3.204
3.392
3.466
3.541
3.583
3.666
3.716
3.693
3.763
3.778
3.855
3.845
3.880
3.900
3.832
3.823
3.860
3.883
3.891
3.902
3.922
3.927
3.907
3.913
3.928
3.975
3.923
4.006
3.938
3.954
3.956
3.973
4.059
3.962
4.019
4.028
4.056
4.019
4.107
4.079
4.065
4.065
4.047
4.013
3.964
4.048
4.054
4.028
4.029
3.971
4.048
4.056
4.035
4.008
4.006
3.978
4.039
4.101
4.114
4.125
4.100
4.020
4.060
4.075
4.062
4.122
4.108
4.052
4.065
4.065
4.001
4.031
3.995
4.024
4.069
4.122
4.175
4.205
4.184
4.136
4.126
4.090
4.108
4.078
4.038
3.999
4.016
4.061
4.106
4.151
4.160
4.159
4.154
4.132
4.104
4.108
4.060
4.104
4.041
4.018
4.051
4.040
4.017
4.022
4.011
4.046
4.083
4.120
4.158
4.177
4.192
4.156
4.196
4.130
4.108
4.145
4.178
4.127
4.129
4.166
4.125
4.112
4.119
4.081
4.101
4.101
4.074
4.073
4.045
4.030
4.055
4.085
4.102
4.103
4.090
4.120
4.149
4.179
4.199
4.192
4.214
4.153
4.146
4.128
4.147
4.143
4.105
4.093
4.093
4.112
4.107
4.124
4.122
4.118
4.107
4.143
4.137
4.127
4.089
4.094
4.094
4.073
4.067
4.036
4.013
4.018
3.994
4.004
4.025
4.029
4.048
4.033
4.037
4.003
4.042
4.018
4.038
4.046
4.070
4.060
4.082
4.104
4.127
4.149
4.171
4.193
4.216
4.198
4.222
4.206
4.235
4.258
4.235
4.233
4.196
4.183
4.151
4.149
4.151
4.109
4.102
4.116
4.148
4.144
4.116
4.108
4.098
4.115
4.148
4.118
4.141
4.163
4.150
4.111
4.086
4.077
4.085
4.065
4.063
4.076
4.068
4.059
4.053
4.020
4.016
4.029
4.022
4.043
4.017
4.038
4.014
4.031
4.055
4.080
4.100
4.089
4.092
4.094
4.067
4.066
4.083
4.101
4.100
4.110
4.130
4.110
4.119
4.111
4.098
4.086
4.088
4.085
4.064
4.074
4.086
4.054
4.067
4.047
4.028
4.008
3.999
4.004
4.027
4.006
4.046
4.006
4.029
4.000
4.015
4.030
4.045
4.059
4.074
4.089
4.104
4.118
4.133
4.148
4.163
4.178
4.192
4.207
4.222
4.237
4.252
4.242
4.250
4.264
4.258
4.241
4.220
4.198
4.195
4.225
4.220
4.206
4.207
4.234
4.262
4.234
4.238
4.220
4.231
4.203
4.186
4.192
4.210
4.231
4.199
4.214
4.191
4.189
4.207
4.239
4.223
4.187
4.166
4.170
4.182
4.201
4.186
4.180
4.171
4.172
4.140
4.156
4.172
4.167
4.137
4.136
4.109
4.110
4.116
4.127
4.122
4.127
4.132
4.130
4.109
4.103
4.116
4.136
4.132
4.134
4.115
4.099
4.091
4.104
4.105
4.131
4.150
4.132
4.113
4.100
4.094
4.092
4.079
4.058
4.045
4.032
4.043
4.044
4.055
4.052
4.056
4.067
4.081
4.098
4.110
4.092
4.106
4.075
4.049
4.054
4.068
4.065
4.060
4.057
4.063
4.054
4.051
4.056
4.064
4.064
4.084
4.059
4.055
4.066
4.070
4.088
4.097
4.091
4.081
4.078
4.069
4.074
4.069
4.053
4.038
4.023
4.018
4.021
4.003
4.018
4.036
4.053
4.045
4.059
4.034
4.033
4.022
4.037
4.028
4.025
4.018
4.024
4.047
4.027
4.022
4.007
4.025
4.050
4.060
4.049
4.064
4.064
4.049
4.074
4.082
4.066
4.070
4.069
4.044
4.043
4.064
4.068
4.058
4.049
4.067
4.048
4.026
4.033
4.051
4.031
4.030
4.024
4.031
4.053
4.029
4.007
3.990
3.997
3.994
3.996
4.014
4.007
4.005
4.028
4.024
4.004
3.996
3.981
3.981
3.981
4.009
4.025
4.039
4.020
4.029
4.042
4.054
4.067
4.079
4.092
4.105
4.118
4.107
4.085
4.090
4.082
4.075
4.093
4.094
4.110
4.105
4.086
4.068
4.055
4.063
4.071
4.076
4.092
4.095
4.107
4.104
4.111
4.111
4.103
4.100
4.091
4.096
4.097
4.093
4.093
4.072
4.077
4.070
4.071
4.079
4.078
4.091
4.073
4.078
4.068
4.053
4.040
4.062
4.050
4.036
4.046
4.054
4.056
4.079
4.056
4.056
4.077
4.078
4.068
4.088
4.079
4.066
4.053
4.045
4.047
4.063
4.046
4.047
4.048
4.063
4.041
4.053
4.055
4.057
4.037
4.044
4.044
4.052
4.059
4.067
4.074
4.081
4.089
4.096
4.103
4.111
4.118
4.126
4.133
4.140
4.148
4.155
4.162
4.170
4.177
4.184
4.192
4.199
4.206
4.214
4.221
4.229
4.236
4.244
4.251
4.258
4.266
4.273
4.280
4.288
4.267
4.285
4.292
4.288
4.304
4.302
4.308
4.314
4.298
4.312
4.311
4.314
4.304
4.285
4.291
4.307
4.296
4.290
4.273
4.289
4.304
4.304
4.288
4.274
4.299
4.300
4.295
4.275
4.287
4.261
4.259
4.252
4.247
4.250
4.255
4.248
4.235
4.218
4.218
4.206
4.194
4.193
4.198
4.204
4.199
4.206
4.218
4.229
4.227
4.211
4.226
4.225
4.225
4.205
4.207
4.202
4.212
4.199
4.202
4.214
4.214
4.209
4.214
4.209
4.201
4.207
4.211
4.208
4.202
4.193
4.200
4.187
4.198
4.212
4.227
4.241
4.235
4.232
4.228
4.225
4.216
4.200
4.188
4.211
4.195
4.185
4.183
4.174
4.184
4.165
4.164
4.179
4.165
4.164
4.156
4.154
4.160
4.156
4.150
4.151
4.148
4.145
4.138
4.141
4.141
4.142
4.148
4.163
4.162
4.151
4.161
4.166
4.143
4.155
4.155
4.152
4.143
4.144
4.151
4.149
4.151
4.152
4.148
4.144
4.130
4.122
4.127
4.128
4.124
4.113
4.122
4.113
4.119
4.120
4.105
4.090
4.083
4.097
4.094
4.095
4.102
4.121
4.102
4.096
4.091
4.079
4.083
4.081
4.103
4.100
4.091
4.086
4.075
4.084
4.100
4.102
4.095
4.075
4.083
4.084
4.087
4.101
4.102
4.113
4.124
4.134
4.145
4.156
4.157
4.158
4.147
4.138
4.152
4.155
4.166
4.164
4.143
4.134
4.128
4.120
4.125
4.121
4.103
4.086
4.072
4.077
4.091
4.085
4.091
4.102
4.097
4.103
4.095
4.080
4.076
4.071
4.085
4.096
4.091
4.098
4.097
4.074
4.071
4.083
4.072
4.081
4.086
4.098
4.112
4.123
4.139
4.136
4.125
4.115
4.105
4.094
4.084
4.078
4.084
4.090
4.089
4.100
4.083
4.082
4.082
4.072
4.084
4.075
4.075
4.071
4.057
4.051
4.063
4.053
4.057
4.059
4.054
4.035
4.033
4.028
4.034
4.031
4.044
4.025
4.033
4.032
4.029
4.016
4.030
4.026
4.028
4.043
4.048
4.062
4.069
4.056
4.058
4.068
4.064
4.050
4.070
4.067
4.050
4.038
4.026
4.019
4.018
4.014
4.023
4.039
4.046
4.044
4.057
4.060
4.065
4.075
4.077
4.086
4.097
4.096
4.107
4.117
4.127
4.127
4.118
4.108
4.101
4.083
4.093
4.101
4.088
4.075
4.071
4.071
4.082
4.078
4.067
4.057
4.057
4.067
4.064
4.072
4.085
4.075
4.066
4.065
4.073
4.071
4.067
4.077
4.070
4.066
4.058
4.043
4.052
4.052
4.038
4.043
4.048
4.054
4.036
4.029
4.033
4.037
4.037
4.057
4.057
4.059
4.061
4.042
4.040
4.033
4.030
4.023
4.014
4.010
4.022
4.034
4.038
4.036
4.036
4.039
4.048
4.052
4.052
4.049
4.045
4.058
4.043
4.046
4.059
4.043
4.053
4.050
4.054
4.067
4.050
4.068
4.050
4.047
4.040
4.038
4.041
4.051
4.059
4.053
4.050
4.054
4.062
4.067
4.073
4.079
4.086
4.092
4.098
4.105
4.111
4.117
4.124
4.130
4.136
4.125
4.136
4.142
4.137
4.130
4.131
4.128
4.118
4.115
4.110
4.103
4.106
4.116
4.126
4.132
4.124
4.134
4.127
4.131
4.139
4.141
4.140
4.149
4.147
4.153
4.141
4.135
4.130
4.146
4.148
4.136
4.148
4.148
4.164
4.157
4.158
4.145
4.135
