2.992
3.335
3.509
3.629
3.707
3.796
3.854
3.886
3.901
3.951
4.002
3.990
4.013
4.044
4.074
4.102
4.129
4.155
4.173
4.152
4.104
4.114
4.123
4.147
4.156
4.163
4.180
4.185
4.200
4.204
4.216
4.231
4.230
4.244
4.257
4.253
4.265
4.278
4.276
4.286
4.290
4.299
4.314
4.303
4.315
4.319
4.331
4.338
4.350
4.341
4.345
4.349
4.356
4.365
4.369
4.377
4.381
4.385
4.377
4.381
4.386
4.392
4.399
4.399
4.405
4.417
4.421
4.421
4.424
4.434
4.435
4.423
4.422
4.421
4.429
4.437
4.444
4.447
4.449
4.447
4.457
4.462
4.466
4.472
4.470
4.473
4.474
4.483
4.492
4.491
4.496
4.483
4.466
4.473
4.473
4.483
4.482
4.489
4.492
4.492
4.498
4.492
4.496
4.500
4.506
4.505
4.512
4.516
4.515
4.521
4.528
4.533
4.529
4.524
4.531
4.529
4.529
4.538
4.540
4.549
4.547
4.555
4.553
4.559
4.558
4.560
4.569
4.557
4.562
4.571
4.567
4.562
4.548
4.535
4.542
4.541
4.540
4.549
4.551
4.551
4.551
4.559
4.553
4.559
4.566
4.565
4.567
4.571
4.559
4.560
4.566
4.562
4.567
4.568
4.569
4.574
4.573
4.576
4.575
4.585
4.580
4.585
4.588
4.596
4.591
4.588
4.591
4.595
4.599
4.601
4.602
4.606
4.603
4.606
4.607
4.595
4.600
4.599
4.600
4.603
4.594
4.606
4.600
4.612
4.607
4.607
4.610
4.610
4.622
4.620
4.618
4.629
4.630
4.628
4.632
4.626
4.638
4.634
4.625
4.633
4.633
4.634
4.643
4.637
4.640
4.645
4.646
4.647
4.652
4.650
4.649
4.658
4.651
4.655
4.652
4.639
4.646
4.656
4.655
4.651
4.659
4.650
4.647
4.658
4.651
4.644
4.654
4.662
4.655
4.655
4.663
4.669
4.666
4.669
4.673
4.675
4.673
4.667
4.679
4.684
4.684
4.678
4.684
4.686
4.684
4.686
4.682
4.675
4.666
4.661
4.654
4.647
4.647
4.644
4.644
4.642
4.643
4.659
4.655
4.655
4.647
4.653
4.665
4.662
4.649
4.644
4.660
4.666
4.662
4.658
4.655
4.664
4.670
4.669
4.666
4.667
4.668
4.683
4.685
4.675
4.674
4.673
4.681
4.673
4.663
4.655
4.662
4.672
4.673
4.666
4.654
4.655
4.670
4.661
4.652
4.650
4.655
4.659
4.668
4.659
4.663
4.658
4.651
4.659
4.671
4.669
4.665
4.666
4.663
4.659
4.673
4.683
4.684
4.681
4.677
4.669
4.670
4.681
4.685
4.684
4.681
4.677
4.670
4.673
4.687
4.684
4.681
4.688
4.685
4.678
4.676
4.688
4.690
4.694
4.692
4.686
4.687
4.691
4.685
4.699
4.710
4.707
4.704
4.700
4.698
4.700
4.701
4.703
4.698
4.696
4.695
4.694
4.695
4.686
4.692
4.703
4.704
4.707
4.699
4.689
4.688
4.684
4.687
4.699
4.707
4.710
4.710
4.705
4.704
4.700
4.696
4.697
4.704
4.714
4.720
4.721
4.718
4.714
4.712
4.703
4.696
4.702
4.712
4.724
4.721
4.722
4.720
4.721
4.718
4.714
4.715
4.716
4.720
4.729
4.739
4.740
4.740
4.736
4.737
4.733
4.728
4.722
4.721
4.729
4.739
4.743
4.739
4.735
4.728
4.730
4.736
4.730
4.737
4.735
4.733
4.733
4.726
4.721
4.715
4.711
4.706
4.713
4.710
4.707
4.717
4.724
4.723
4.724
4.725
4.719
4.723
4.721
4.715
4.708
4.701
4.707
4.715
4.719
4.723
4.724
4.715
4.716
4.712
4.705
4.710
4.711
4.710
4.705
4.714
4.722
4.726
4.727
4.725
4.725
4.728
4.725
4.726
4.727
4.728
4.724
4.720
4.722
4.721
4.730
4.733
4.733
4.728
4.721
4.725
4.721
4.725
4.730
4.726
4.725
4.726
4.719
4.720
4.729
4.725
4.732
4.733
4.725
4.720
4.722
4.720
4.724
4.723
4.721
4.726
4.729
4.723
4.721
4.729
4.738
4.747
4.741
4.737
4.740
4.740
4.744
4.742
4.747
4.744
4.738
4.739
4.741
4.739
4.733
4.734
4.740
4.747
4.754
4.756
4.755
4.750
4.751
4.747
4.738
4.739
4.743
4.739
4.736
4.731
4.730
4.731
4.730
4.739
4.746
4.755
4.760
4.758
4.765
4.759
4.757
4.758
4.759
4.758
4.757
4.753
4.752
4.751
4.755
4.759
4.760
4.758
4.755
4.755
4.763
4.770
4.777
4.773
4.774
4.775
4.771
4.772
4.765
4.767
4.765
4.759
4.759
4.759
4.760
4.759
4.759
4.759
4.754
4.758
4.765
4.766
4.759
4.753
4.752
4.756
4.752
4.751
4.752
4.748
4.751
4.750
4.749
4.750
4.752
4.758
4.755
4.748
4.749
4.748
4.755
4.759
4.754
4.761
4.760
4.761
4.757
4.755
4.751
4.748
4.746
4.751
4.749
4.745
4.743
4.745
4.746
4.750
4.751
4.748
4.749
4.751
4.751
4.759
4.766
4.772
4.777
4.780
4.776
4.770
4.771
4.764
4.765
4.766
4.765
4.758
4.763
4.764
4.762
4.761
4.755
4.750
4.752
4.756
4.755
4.756
4.747
4.755
4.762
4.769
4.777
4.783
4.790
4.791
4.798
4.794
4.790
4.784
4.781
4.780
4.774
4.772
4.770
4.772
4.773
4.777
4.779
4.775
4.774
4.773
4.771
4.772
4.765
4.770
4.771
4.770
4.773
4.780
4.787
4.792
4.799
4.807
4.809
4.802
4.798
4.803
4.801
4.800
4.799
4.800
4.799
4.796
4.790
4.792
4.792
4.786
4.784
4.784
4.784
4.783
4.781
4.789
4.788
4.786
4.782
4.781
4.782
4.786
4.793
4.799
4.806
4.802
4.795
4.789
4.787
4.786
4.785
4.784
4.781
4.784
4.790
4.783
4.785
4.786
4.781
4.783
4.787
4.788
4.784
4.778
4.776
4.775
4.771
4.772
4.776
4.773
4.774
4.775
4.782
4.788
4.793
4.800
4.806
4.813
4.812
4.811
4.809
4.807
4.804
4.800
4.804
4.808
4.804
4.800
4.799
4.803
4.804
4.800
4.796
4.797
4.795
4.796
4.803
4.803
4.807
4.802
4.796
4.796
4.795
4.792
4.795
4.794
4.795
4.796
4.793
4.796
4.803
4.808
4.814
4.819
4.826
4.832
4.833
4.830
4.829
4.827
4.825
4.830
4.834
4.830
4.836
4.836
4.837
4.835
4.836
4.829
4.825
4.819
4.814
4.811
4.809
4.807
4.812
4.811
4.804
4.802
4.799
4.800
4.807
4.811
4.818
4.816
4.815
4.810
4.812
4.810
4.812
4.818
4.817
4.814
4.810
4.810
4.809
4.803
4.801
4.803
4.806
4.802
4.801
4.797
4.796
4.791
4.796
4.800
4.795
4.792
4.790
4.788
4.785
4.783
4.782
4.788
4.790
4.788
4.792
4.789
4.785
4.786
4.785
4.786
4.782
4.781
4.779
4.781
4.787
4.792
4.798
4.797
4.795
4.799
4.803
4.803
4.804
4.803
4.806
4.800
4.799
4.797
4.793
4.796
4.796
4.797
4.796
4.794
4.795
4.797
4.795
4.796
4.798
4.796
4.792
4.791
4.790
4.792
4.790
4.784
4.787
4.786
4.787
4.783
4.781
4.784
4.784
4.784
4.785
4.778
4.781
4.778
4.777
4.777
4.782
4.788
4.792
4.797
4.803
4.808
4.809
4.805
4.804
4.802
4.804
4.803
4.803
4.802
4.799
4.802
4.801
4.808
4.806
4.813
4.815
4.813
4.810
4.811
4.810
4.805
4.806
4.802
4.803
4.807
4.803
4.799
4.796
4.789
4.792
4.789
4.787
4.784
4.790
4.789
4.790
4.797
4.793
4.792
4.790
4.789
4.788
4.784
4.781
4.778
4.774
4.775
4.781
4.786
4.790
4.796
4.799
4.803
4.809
4.813
4.809
4.807
4.803
4.800
4.798
4.799
4.801
4.799
4.801
4.803
4.806
4.802
4.798
4.797
4.796
4.796
4.793
4.791
4.793
4.794
4.792
4.792
4.787
4.789
4.795
4.791
4.793
4.791
4.792
4.792
4.795
4.792
4.788
4.789
4.788
4.789
4.790
4.791
4.790
4.788
4.787
4.789
4.788
4.789
4.792
4.788
4.787
4.788
4.790
4.789
4.792
4.789
4.788
