2.987
3.315
3.485
3.625
3.725
3.771
3.775
3.839
3.903
3.962
3.987
3.911
3.926
3.957
3.982
3.997
4.020
4.047
4.056
4.081
4.086
4.111
4.110
4.123
4.143
4.145
4.159
4.176
4.184
4.187
4.190
4.204
4.218
4.230
4.246
4.254
4.231
4.244
4.256
4.266
4.272
4.282
4.290
4.296
4.314
4.310
4.285
4.305
4.303
4.316
4.315
4.319
4.338
4.342
4.346
4.345
4.343
4.357
4.369
4.372
4.381
4.387
4.384
4.380
4.400
4.397
4.368
4.370
4.380
4.377
4.391
4.395
4.384
4.385
4.391
4.396
4.406
4.411
4.415
4.412
4.415
4.418
4.424
4.428
4.445
4.424
4.434
4.432
4.425
4.431
4.445
4.444
4.452
4.460
4.458
4.452
4.470
4.464
4.473
4.484
4.475
4.490
4.481
4.501
4.489
4.480
4.483
4.477
4.481
4.484
4.496
4.491
4.501
4.497
4.517
4.502
4.525
4.523
4.527
4.528
4.521
4.528
4.520
4.504
4.490
4.486
4.486
4.493
4.488
4.497
4.499
4.503
4.518
4.508
4.500
4.528
4.517
4.510
4.495
4.491
4.503
4.491
4.479
4.502
4.497
4.487
4.496
4.511
4.507
4.495
4.517
4.518
4.515
4.503
4.522
4.513
4.513
4.513
4.530
4.527
4.525
4.524
4.546
4.538
4.543
4.529
4.543
4.528
4.527
4.524
4.539
4.530
4.540
4.525
4.528
4.549
4.553
4.551
4.542
4.536
4.561
4.554
4.549
4.547
4.547
4.562
4.576
4.575
4.564
4.559
4.558
4.581
4.585
4.577
4.576
4.569
4.569
4.591
4.580
4.575
4.582
4.568
4.571
4.563
4.558
4.562
4.554
4.548
4.562
4.553
4.553
4.552
4.542
4.543
4.554
4.575
4.576
4.572
4.561
4.557
4.557
4.553
4.574
4.577
4.577
4.567
4.548
4.549
4.548
4.564
4.583
4.569
4.576
4.576
4.565
4.574
4.568
4.565
4.583
4.598
4.593
4.589
4.587
4.583
4.579
4.565
4.571
4.590
4.599
4.598
4.598
4.600
4.588
4.596
4.591
4.599
4.591
4.603
4.620
4.613
4.610
4.612
4.613
4.604
4.597
4.600
4.599
4.607
4.620
4.624
4.621
4.608
4.596
4.596
4.592
4.583
4.581
4.589
4.603
4.597
4.600
4.592
4.598
4.596
4.590
4.597
4.586
4.596
4.605
4.594
4.610
4.617
4.607
4.614
4.608
4.611
4.608
4.610
4.605
4.606
4.609
4.606
4.600
4.614
4.629
4.638
4.635
4.626
4.635
4.630
4.629
4.625
4.629
4.628
4.627
4.623
4.621
4.615
4.629
4.644
4.654
4.649
4.655
4.654
4.643
4.632
4.635
4.622
4.631
4.627
4.628
4.629
4.628
4.625
4.639
4.642
4.641
4.641
4.638
4.638
4.641
4.644
4.638
4.628
4.630
4.629
4.636
4.633
4.625
4.621
4.628
4.641
4.654
4.667
4.680
4.685
4.677
4.665
4.667
4.665
4.655
4.657
4.665
4.669
4.676
4.669
4.666
4.658
4.650
4.657
4.654
4.658
4.670
4.683
4.678
4.683
4.678
4.685
4.686
4.691
4.685
4.678
4.676
4.663
4.655
4.662
4.663
4.655
4.663
4.656
4.649
4.648
4.660
4.669
4.669
4.673
4.667
4.666
4.660
4.661
4.661
4.653
4.646
4.641
4.636
4.634
4.629
4.627
4.626
4.620
4.615
4.613
4.624
4.635
4.646
4.651
4.659
4.664
4.660
4.653
4.646
4.643
4.647
4.641
4.647
4.649
4.651
4.647
4.639
4.638
4.642
4.648
4.637
4.638
4.636
4.632
4.636
4.642
4.636
4.635
4.645
4.656
4.651
4.651
4.643
4.641
4.634
4.646
4.644
4.646
4.647
4.647
4.636
4.638
4.638
4.637
4.630
4.627
4.633
4.622
4.623
4.623
4.624
4.626
4.634
4.645
4.642
4.639
4.638
4.640
4.650
4.659
4.669
4.673
4.667
4.662
4.661
4.657
4.655
4.657
4.650
4.642
4.644
4.641
4.637
4.651
4.653
4.651
4.647
4.648
4.644
4.633
4.631
4.631
4.623
4.629
4.623
4.630
4.632
4.626
4.621
4.624
4.633
4.642
4.651
4.660
4.670
4.673
4.674
4.684
4.682
4.678
4.680
4.675
4.671
4.667
4.657
4.656
4.649
4.647
4.645
4.642
4.649
4.642
4.649
4.645
4.649
4.648
4.644
4.645
4.650
4.644
4.652
4.650
4.645
4.645
4.641
4.640
4.649
4.645
4.647
4.649
4.643
4.651
4.660
4.668
4.677
4.684
4.674
4.675
4.676
4.674
4.672
4.674
4.680
4.685
4.678
4.676
4.686
4.686
4.689
4.679
4.680
4.677
4.679
4.676
4.672
4.678
4.677
4.671
4.667
4.663
4.657
4.655
4.663
4.664
4.667
4.662
4.669
4.667
4.661
4.655
4.648
4.653
4.649
4.658
4.655
4.653
4.654
4.655
4.663
4.671
4.679
4.687
4.694
4.702
4.710
4.718
4.720
4.720
4.713
4.718
4.715
4.710
4.701
4.706
4.713
4.706
4.703
4.703
4.704
4.703
4.703
4.703
4.701
4.694
4.694
4.703
4.697
4.702
4.703
4.703
4.700
4.698
4.702
4.704
4.715
4.715
4.709
4.702
4.694
4.696
4.700
4.696
4.689
4.682
4.674
4.676
4.680
4.683
4.681
4.679
4.678
4.670
4.663
4.671
4.678
4.685
4.692
4.699
4.706
4.705
4.703
4.708
4.711
4.703
4.703
4.707
4.700
4.696
4.688
4.694
4.692
4.694
4.697
4.694
4.693
4.693
4.689
4.687
4.686
4.690
4.683
4.688
4.678
4.675
4.666
4.660
4.661
4.664
4.666
4.669
4.668
4.657
4.658
4.662
4.662
4.666
4.667
4.676
4.685
4.687
4.678
4.671
4.665
4.661
4.656
4.656
4.652
4.660
4.654
4.656
4.651
4.646
4.642
4.639
4.647
4.652
4.659
4.665
4.672
4.678
4.685
4.691
4.698
4.704
4.711
4.717
4.724
4.726
4.727
4.724
4.722
4.716
4.710
4.714
4.713
4.718
4.712
4.708
4.710
4.701
4.704
4.698
4.696
4.700
4.709
4.714
4.715
4.717
4.709
4.711
4.715
4.715
4.710
4.699
4.699
4.701
4.703
4.701
4.703
4.702
4.709
4.709
4.708
4.710
4.702
4.701
4.706
4.706
4.698
4.697
4.695
4.700
4.701
4.696
4.691
4.688
4.687
4.689
4.687
4.687
4.686
4.691
4.687
4.682
4.682
4.685
4.692
4.695
4.690
4.693
4.695
4.694
4.697
4.704
4.699
4.701
4.697
4.695
4.697
4.697
4.693
4.694
4.700
4.706
4.712
4.717
4.723
4.729
4.735
4.737
4.741
4.741
4.741
4.739
4.735
4.729
4.727
4.723
4.721
4.722
4.716
4.716
4.707
4.707
4.710
4.703
4.698
4.693
4.693
4.690
4.691
4.686
4.687
4.681
4.686
4.687
4.685
4.689
4.692
4.685
4.687
4.683
4.682
4.681
4.679
4.682
4.682
4.687
4.695
4.695
4.686
4.689
4.688
4.684
4.680
4.681
4.680
4.681
4.679
4.679
4.682
4.680
4.684
4.681
4.675
4.669
4.667
4.662
4.660
4.662
4.662
4.652
4.651
4.652
4.653
4.654
4.645
4.644
4.646
4.648
4.645
4.639
4.640
4.641
4.641
4.636
4.645
4.648
4.646
4.651
4.655
4.650
4.649
4.654
4.659
4.664
4.670
4.675
4.680
4.686
4.691
4.696
4.701
4.706
4.712
4.717
4.722
4.727
4.733
4.738
4.743
4.748
4.751
4.751
4.745
4.739
4.742
4.746
4.744
4.750
4.747
4.755
4.762
4.760
4.754
4.758
4.754
4.751
4.746
4.740
4.742
4.736
4.733
4.737
4.734
4.731
4.722
4.717
4.721
4.720
4.714
4.712
4.708
4.714
4.718
4.714
4.708
4.712
4.711
4.711
4.711
4.707
4.704
4.711
4.711
4.705
4.700
4.695
4.691
4.686
4.680
4.675
4.675
4.681
4.676
4.673
4.672
4.671
4.669
4.666
4.664
4.663
4.664
4.669
4.670
4.669
4.670
4.669
4.662
4.655
4.648
4.645
4.649
4.656
4.662
4.667
4.667
4.666
4.675
4.673
4.675
4.678
4.671
4.675
4.676
4.669
4.668
4.671
4.669
4.668
4.667
4.668
4.673
4.674
4.675
4.678
4.679
4.682
