2.992
3.331
3.508
3.635
3.718
3.796
3.827
3.897
3.929
3.949
3.984
4.023
4.061
4.032
4.058
4.086
4.113
4.134
4.162
4.179
4.200
4.218
4.183
4.142
4.157
4.172
4.178
4.190
4.201
4.204
4.219
4.223
4.236
4.249
4.250
4.262
4.274
4.270
4.280
4.292
4.293
4.301
4.308
4.314
4.326
4.319
4.332
4.338
4.343
4.355
4.343
4.353
4.357
4.366
4.370
4.380
4.386
4.383
4.379
4.388
4.392
4.399
4.405
4.408
4.416
4.420
4.425
4.423
4.416
4.423
4.425
4.431
4.438
4.440
4.439
4.443
4.453
4.456
4.464
4.464
4.469
4.475
4.463
4.459
4.464
4.464
4.466
4.473
4.479
4.481
4.488
4.483
4.490
4.490
4.491
4.503
4.507
4.506
4.504
4.511
4.510
4.516
4.520
4.528
4.524
4.534
4.523
4.511
4.507
4.509
4.513
4.517
4.516
4.522
4.532
4.531
4.527
4.533
4.537
4.534
4.538
4.536
4.542
4.541
4.545
4.550
4.556
4.555
4.557
4.558
4.565
4.568
4.557
4.563
4.570
4.569
4.567
4.575
4.575
4.575
4.581
4.588
4.592
4.588
4.587
4.596
4.600
4.601
4.603
4.594
4.597
4.607
4.605
4.596
4.583
4.572
4.570
4.579
4.575
4.585
4.581
4.577
4.589
4.591
4.590
4.593
4.589
4.593
4.598
4.596
4.605
4.604
4.611
4.601
4.600
4.602
4.594
4.602
4.597
4.604
4.601
4.608
4.605
4.612
4.608
4.613
4.609
4.620
4.616
4.627
4.620
4.632
4.628
4.629
4.625
4.627
4.625
4.627
4.636
4.635
4.642
4.642
4.638
4.648
4.639
4.632
4.631
4.637
4.636
4.637
4.642
4.631
4.641
4.638
4.636
4.648
4.647
4.643
4.652
4.640
4.650
4.653
4.652
4.657
4.661
4.662
4.663
4.670
4.661
4.665
4.666
4.668
4.666
4.665
4.661
4.665
4.675
4.671
4.672
4.681
4.682
4.675
4.679
4.687
4.688
4.678
4.691
4.689
4.688
4.687
4.693
4.687
4.677
4.683
4.680
4.679
4.686
4.694
4.694
4.687
4.691
4.686
4.688
4.681
4.690
4.686
4.685
4.686
4.697
4.695
4.691
4.692
4.697
4.705
4.705
4.706
4.699
4.712
4.708
4.705
4.707
4.711
4.720
4.716
4.712
4.712
4.720
4.719
4.712
4.706
4.701
4.694
4.686
4.684
4.686
4.686
4.680
4.676
4.683
4.679
4.680
4.681
4.679
4.689
4.693
4.687
4.688
4.686
4.688
4.700
4.696
4.689
4.680
4.684
4.697
4.700
4.697
4.695
4.693
4.692
4.701
4.703
4.707
4.697
4.699
4.700
4.710
4.716
4.720
4.714
4.710
4.701
4.710
4.701
4.693
4.694
4.688
4.697
4.701
4.706
4.705
4.697
4.691
4.694
4.702
4.694
4.690
4.689
4.686
4.687
4.699
4.708
4.699
4.694
4.690
4.690
4.690
4.701
4.697
4.701
4.699
4.703
4.696
4.697
4.702
4.714
4.715
4.712
4.710
4.716
4.715
4.708
4.710
4.719
4.721
4.719
4.715
4.712
4.708
4.709
4.713
4.716
4.715
4.717
4.715
4.714
4.713
4.712
4.715
4.725
4.724
4.727
4.718
4.720
4.720
4.720
4.716
4.723
4.734
4.739
4.740
4.738
4.737
4.734
4.735
4.731
4.726
4.738
4.742
4.734
4.731
4.725
4.720
4.722
4.720
4.725
4.735
4.739
4.737
4.733
4.729
4.734
4.731
4.723
4.720
4.730
4.735
4.734
4.738
4.736
4.731
4.734
4.731
4.739
4.731
4.731
4.740
4.750
4.749
4.745
4.748
4.749
4.745
4.739
4.742
4.742
4.745
4.745
4.748
4.747
4.746
4.745
4.746
4.747
4.749
4.744
4.742
4.742
4.748
4.757
4.762
4.766
4.764
4.764
4.762
4.763
4.759
4.757
4.764
4.768
4.760
4.763
4.771
4.771
4.767
4.771
4.773
4.772
4.770
4.763
4.759
4.758
4.756
4.761
4.770
4.779
4.775
4.768
4.762
4.758
4.753
4.747
4.742
4.736
4.743
4.752
4.757
4.755
4.756
4.755
4.753
4.750
4.742
4.742
4.748
4.744
4.748
4.744
4.749
4.749
4.742
4.742
4.738
4.738
4.738
4.739
4.737
4.742
4.738
4.742
4.738
4.738
4.746
4.755
4.757
4.758
4.757
4.758
4.753
4.752
4.745
4.744
4.749
4.752
4.753
4.745
4.745
4.747
4.756
4.763
4.771
4.777
4.771
4.766
4.757
4.758
4.759
4.760
4.757
4.755
4.748
4.750
4.746
4.747
4.756
4.763
4.771
4.772
4.765
4.760
4.756
4.755
4.760
4.763
4.756
4.747
4.748
4.745
4.746
4.744
4.749
4.755
4.764
4.769
4.776
4.774
4.771
4.771
4.771
4.764
4.767
4.768
4.764
4.760
4.767
4.763
4.757
4.758
4.759
4.763
4.765
4.774
4.781
4.786
4.783
4.782
4.784
4.786
4.783
4.779
4.776
4.775
4.776
4.771
4.765
4.763
4.764
4.768
4.775
4.774
4.773
4.779
4.787
4.786
4.783
4.782
4.778
4.775
4.779
4.775
4.776
4.780
4.783
4.780
4.775
4.771
4.773
4.774
4.776
4.779
4.776
4.777
4.784
4.790
4.797
4.799
4.806
4.801
4.800
4.802
4.805
4.804
4.805
4.801
4.798
4.797
4.795
4.791
4.794
4.791
4.794
4.791
4.787
4.791
4.792
4.793
4.798
4.805
4.809
4.804
4.803
4.804
4.806
4.805
4.800
4.797
4.795
4.794
4.790
4.790
4.790
4.785
4.779
4.777
4.771
4.768
4.775
4.782
4.787
4.794
4.798
4.796
4.798
4.793
4.795
4.794
4.795
4.796
4.797
4.796
4.792
4.791
4.787
4.786
4.786
4.783
4.778
4.771
4.770
4.772
4.773
4.774
4.778
4.785
4.789
4.794
4.790
4.794
4.797
4.797
4.797
4.793
4.795
4.790
4.790
4.791
4.792
4.793
4.790
4.788
4.787
4.791
4.789
4.790
4.795
4.793
4.794
4.797
4.794
4.790
4.786
4.793
4.797
4.804
4.805
4.804
4.806
4.805
4.805
4.804
4.800
4.796
4.800
4.796
4.800
4.802
4.801
4.801
4.797
4.796
4.798
4.799
4.798
4.797
4.798
4.801
4.797
4.793
4.795
4.794
4.800
4.802
4.803
4.808
4.814
4.820
4.825
4.824
4.822
4.821
4.819
4.820
4.817
4.815
4.814
4.808
4.811
4.813
4.814
4.810
4.811
4.818
4.819
4.818
4.819
4.815
4.817
4.815
4.816
4.820
4.819
4.815
4.814
4.815
4.816
4.810
4.816
4.821
4.825
4.832
4.838
4.838
4.834
4.832
4.831
4.834
4.831
4.832
4.831
4.829
4.825
4.826
4.822
4.826
4.828
4.823
4.823
4.820
4.822
4.823
4.822
4.821
4.817
4.821
4.816
4.818
4.814
4.813
4.808
4.805
4.811
4.816
4.820
4.827
4.833
4.827
4.828
4.824
4.820
4.821
4.823
4.821
4.819
4.821
4.820
4.823
4.825
4.826
4.827
4.826
4.823
4.821
4.827
4.824
4.822
4.818
4.816
4.810
4.811
4.810
4.812
4.810
4.808
4.807
4.809
4.815
4.811
4.810
4.816
4.818
4.822
4.829
4.833
4.838
4.844
4.848
4.849
4.849
4.849
4.842
4.841
4.843
4.844
4.842
4.838
4.838
4.841
4.840
4.842
4.843
4.838
4.837
4.836
4.835
4.833
4.834
4.839
4.843
4.842
4.842
4.842
4.840
4.841
4.842
4.841
4.838
4.833
4.837
4.838
4.837
4.836
4.835
4.834
4.831
4.836
4.840
4.845
4.851
4.855
4.860
4.866
4.871
4.872
4.868
4.863
4.860
4.858
4.856
4.857
4.856
4.855
4.859
4.858
4.853
4.855
4.853
4.850
4.851
4.850
4.853
4.849
4.848
4.850
4.854
4.850
4.851
4.847
4.845
4.842
4.838
4.836
4.834
4.830
4.829
4.827
4.823
4.820
4.821
4.827
4.831
4.834
4.840
4.839
4.837
4.834
4.837
4.831
4.827
4.828
4.831
4.833
4.831
4.827
4.831
4.828
4.832
4.830
4.829
4.827
4.831
4.838
4.835
4.831
4.834
4.831
4.829
4.828
4.826
4.825
4.826
4.831
4.826
4.825
4.826
4.825
4.823
4.820
4.816
4.814
4.810
