2.992
3.334
3.514
3.632
3.727
3.796
3.833
3.900
3.924
3.961
3.979
4.021
4.063
4.031
4.061
4.084
4.108
4.136
4.159
4.182
4.201
4.216
4.197
4.155
4.160
4.168
4.175
4.191
4.200
4.216
4.217
4.234
4.234
4.246
4.249
4.260
4.274
4.273
4.283
4.292
4.302
4.297
4.310
4.319
4.324
4.320
4.329
4.334
4.345
4.350
4.359
4.352
4.359
4.364
4.373
4.377
4.382
4.393
4.378
4.386
4.392
4.396
4.405
4.407
4.411
4.421
4.428
4.429
4.422
4.424
4.428
4.426
4.431
4.440
4.445
4.445
4.449
4.456
4.461
4.467
4.468
4.470
4.475
4.467
4.463
4.471
4.463
4.465
4.471
4.479
4.480
4.487
4.482
4.494
4.494
4.497
4.505
4.505
4.510
4.509
4.513
4.514
4.516
4.522
4.529
4.533
4.537
4.531
4.515
4.511
4.512
4.514
4.518
4.520
4.526
4.531
4.534
4.528
4.532
4.539
4.537
4.539
4.540
4.539
4.543
4.545
4.549
4.558
4.559
4.555
4.562
4.566
4.571
4.571
4.560
4.566
4.575
4.572
4.573
4.575
4.576
4.582
4.590
4.591
4.590
4.586
4.594
4.602
4.603
4.597
4.606
4.601
4.603
4.602
4.609
4.597
4.586
4.575
4.575
4.577
4.579
4.590
4.584
4.585
4.592
4.591
4.597
4.591
4.594
4.601
4.595
4.601
4.600
4.608
4.606
4.605
4.605
4.601
4.600
4.601
4.601
4.604
4.608
4.608
4.608
4.610
4.614
4.613
4.617
4.615
4.625
4.621
4.627
4.626
4.636
4.626
4.630
4.629
4.630
4.631
4.633
4.640
4.639
4.643
4.645
4.638
4.652
4.643
4.636
4.632
4.641
4.642
4.638
4.646
4.634
4.643
4.645
4.638
4.652
4.649
4.642
4.653
4.644
4.648
4.656
4.656
4.653
4.667
4.664
4.659
4.672
4.667
4.666
4.673
4.675
4.670
4.671
4.664
4.666
4.675
4.677
4.675
4.674
4.684
4.680
4.675
4.686
4.694
4.686
4.682
4.694
4.692
4.694
4.692
4.694
4.684
4.683
4.686
4.682
4.682
4.691
4.698
4.693
4.687
4.693
4.689
4.688
4.684
4.694
4.689
4.688
4.690
4.697
4.701
4.699
4.695
4.699
4.711
4.710
4.708
4.702
4.712
4.713
4.711
4.710
4.708
4.723
4.717
4.715
4.716
4.718
4.720
4.713
4.706
4.702
4.695
4.690
4.682
4.691
4.687
4.686
4.681
4.682
4.687
4.683
4.684
4.685
4.682
4.696
4.695
4.694
4.687
4.691
4.695
4.702
4.695
4.686
4.684
4.690
4.703
4.705
4.698
4.697
4.698
4.697
4.705
4.708
4.708
4.702
4.703
4.705
4.714
4.723
4.720
4.716
4.709
4.707
4.708
4.699
4.695
4.696
4.692
4.699
4.708
4.708
4.706
4.697
4.695
4.694
4.703
4.693
4.690
4.693
4.689
4.688
4.697
4.707
4.703
4.697
4.697
4.694
4.689
4.699
4.701
4.702
4.705
4.708
4.701
4.697
4.698
4.708
4.717
4.716
4.712
4.718
4.719
4.712
4.706
4.715
4.725
4.726
4.723
4.719
4.711
4.712
4.709
4.718
4.720
4.718
4.719
4.718
4.719
4.719
4.716
4.718
4.728
4.727
4.727
4.723
4.725
4.719
4.722
4.718
4.725
4.735
4.742
4.743
4.742
4.740
4.736
4.738
4.731
4.732
4.738
4.742
4.736
4.735
4.725
4.723
4.725
4.723
4.725
4.734
4.742
4.745
4.736
4.732
4.736
4.735
4.727
4.723
4.728
4.737
4.738
4.743
4.739
4.735
4.739
4.737
4.736
4.737
4.733
4.738
4.747
4.754
4.749
4.751
4.752
4.748
4.749
4.745
4.745
4.749
4.742
4.751
4.753
4.751
4.752
4.748
4.749
4.753
4.753
4.746
4.745
4.746
4.750
4.759
4.766
4.768
4.769
4.765
4.768
4.767
4.763
4.762
4.768
4.770
4.760
4.764
4.772
4.775
4.771
4.773
4.777
4.776
4.769
4.765
4.763
4.762
4.756
4.760
4.769
4.778
4.774
4.768
4.764
4.759
4.753
4.748
4.742
4.738
4.741
4.749
4.758
4.760
4.756
4.759
4.758
4.754
4.747
4.745
4.749
4.749
4.752
4.749
4.747
4.753
4.745
4.748
4.747
4.740
4.744
4.745
4.741
4.742
4.745
4.746
4.742
4.740
4.741
4.748
4.758
4.760
4.763
4.762
4.760
4.757
4.752
4.745
4.747
4.754
4.758
4.756
4.749
4.749
4.749
4.757
4.764
4.773
4.780
4.771
4.766
4.762
4.763
4.760
4.761
4.764
4.756
4.753
4.752
4.751
4.747
4.756
4.763
4.771
4.774
4.768
4.761
4.762
4.758
4.759
4.763
4.759
4.750
4.749
4.752
4.751
4.749
4.746
4.755
4.760
4.769
4.775
4.779
4.778
4.774
4.775
4.771
4.768
4.772
4.770
4.764
4.764
4.768
4.764
4.760
4.762
4.764
4.765
4.769
4.776
4.783
4.787
4.786
4.786
4.788
4.790
4.785
4.782
4.782
4.779
4.775
4.773
4.768
4.770
4.768
4.770
4.779
4.776
4.772
4.779
4.786
4.790
4.786
4.784
4.780
4.781
4.782
4.782
4.779
4.786
4.788
4.786
4.780
4.776
4.775
4.776
4.779
4.782
4.780
4.775
4.782
4.789
4.796
4.801
4.807
4.805
4.802
4.808
4.807
4.811
4.807
4.805
4.799
4.805
4.799
4.795
4.793
4.795
4.796
4.798
4.793
4.794
4.796
4.792
4.796
4.801
4.808
4.809
4.808
4.808
4.808
4.809
4.805
4.798
4.804
4.800
4.797
4.794
4.793
4.789
4.783
4.781
4.775
4.773
4.771
4.775
4.782
4.789
4.794
4.801
4.801
4.801
4.794
4.798
4.799
4.800
4.801
4.801
4.801
4.795
4.791
4.792
4.790
4.790
4.785
4.779
4.775
4.775
4.774
4.778
4.774
4.778
4.783
4.790
4.796
4.797
4.794
4.800
4.802
4.798
4.799
4.798
4.796
4.794
4.794
4.797
4.796
4.795
4.796
4.789
4.791
4.794
4.791
4.794
4.797
4.798
4.797
4.801
4.793
4.789
4.788
4.794
4.799
4.806
4.807
4.806
4.810
4.809
4.810
4.805
4.802
4.798
4.802
4.801
4.804
4.806
4.804
4.805
4.799
4.800
4.801
4.801
4.802
4.801
4.804
4.805
4.799
4.797
4.797
4.797
4.801
4.808
4.804
4.808
4.813
4.819
4.824
4.825
4.826
4.827
4.826
4.823
4.823
4.819
4.816
4.812
4.810
4.816
4.818
4.814
4.813
4.816
4.823
4.825
4.821
4.820
4.816
4.822
4.819
4.822
4.821
4.823
4.818
4.819
4.818
4.812
4.813
4.817
4.824
4.828
4.834
4.839
4.838
4.834
4.837
4.834
4.835
4.838
4.835
4.834
4.832
4.831
4.831
4.825
4.829
4.828
4.826
4.827
4.823
4.827
4.827
4.825
4.821
4.820
4.824
4.822
4.819
4.819
4.813
4.809
4.805
4.811
4.816
4.820
4.826
4.831
4.829
4.830
4.827
4.823
4.826
4.830
4.826
4.822
4.824
4.827
4.824
4.827
4.827
4.827
4.832
4.827
4.826
4.828
4.831
4.827
4.821
4.819
4.815
4.816
4.815
4.814
4.813
4.814
4.812
4.811
4.813
4.817
4.812
4.814
4.818
4.823
4.824
4.830
4.835
4.839
4.845
4.850
4.853
4.853
4.849
4.844
4.845
4.845
4.848
4.847
4.843
4.842
4.845
4.842
4.848
4.844
4.842
4.838
4.838
4.841
4.837
4.838
4.838
4.844
4.845
4.847
4.846
4.844
4.843
4.847
4.843
4.842
4.837
4.836
4.842
4.842
4.838
4.838
4.840
4.836
4.835
4.839
4.845
4.849
4.854
4.860
4.864
4.869
4.873
4.871
4.867
4.861
4.862
4.858
4.860
4.861
4.859
4.856
4.862
4.856
4.856
4.858
4.857
4.856
4.854
4.856
4.853
4.853
4.854
4.855
4.856
4.853
4.849
4.847
4.845
4.841
4.838
4.836
4.834
4.831
4.829
4.825
4.823
4.820
4.821
4.827
4.831
4.836
4.840
4.842
4.843
4.839
4.840
4.834
4.832
4.831
4.834
4.836
4.834
4.831
4.831
4.833
4.834
4.834
4.834
4.828
4.829
4.834
4.842
4.839
4.835
4.834
4.837
