2.994
3.331
3.512
3.631
3.715
3.792
3.833
3.877
3.942
3.957
4.007
4.004
4.043
4.077
4.109
4.075
4.101
4.124
4.147
4.165
4.188
4.201
4.219
4.237
4.255
4.253
4.216
4.193
4.205
4.210
4.225
4.231
4.240
4.245
4.260
4.264
4.273
4.273
4.284
4.295
4.293
4.303
4.312
4.319
4.320
4.332
4.339
4.347
4.344
4.349
4.355
4.365
4.370
4.366
4.369
4.379
4.383
4.392
4.394
4.398
4.392
4.399
4.402
4.409
4.419
4.420
4.425
4.431
4.421
4.423
4.432
4.433
4.436
4.447
4.451
4.451
4.457
4.466
4.470
4.473
4.460
4.461
4.465
4.467
4.470
4.475
4.481
4.483
4.485
4.488
4.490
4.499
4.503
4.505
4.504
4.511
4.512
4.516
4.499
4.505
4.507
4.505
4.509
4.511
4.514
4.521
4.528
4.525
4.529
4.525
4.531
4.532
4.537
4.541
4.545
4.543
4.550
4.549
4.550
4.554
4.553
4.560
4.566
4.566
4.567
4.574
4.567
4.554
4.551
4.551
4.555
4.555
4.550
4.557
4.559
4.562
4.567
4.571
4.572
4.574
4.578
4.581
4.575
4.577
4.581
4.581
4.583
4.585
4.586
4.587
4.592
4.598
4.602
4.596
4.603
4.601
4.603
4.610
4.599
4.604
4.611
4.607
4.607
4.612
4.611
4.614
4.619
4.621
4.625
4.625
4.629
4.633
4.627
4.631
4.636
4.636
4.638
4.644
4.636
4.636
4.640
4.637
4.640
4.629
4.621
4.610
4.607
4.614
4.613
4.618
4.622
4.621
4.630
4.618
4.625
4.626
4.635
4.634
4.630
4.631
4.633
4.634
4.633
4.637
4.643
4.639
4.647
4.644
4.633
4.639
4.644
4.640
4.638
4.639
4.636
4.639
4.644
4.642
4.651
4.648
4.649
4.655
4.647
4.653
4.652
4.659
4.660
4.658
4.670
4.659
4.666
4.667
4.658
4.669
4.663
4.667
4.668
4.667
4.676
4.677
4.673
4.683
4.682
4.680
4.687
4.680
4.671
4.672
4.670
4.678
4.673
4.673
4.684
4.680
4.670
4.681
4.677
4.673
4.687
4.683
4.687
4.686
4.688
4.684
4.684
4.689
4.692
4.688
4.698
4.699
4.698
4.695
4.704
4.708
4.703
4.705
4.707
4.705
4.701
4.707
4.703
4.702
4.706
4.711
4.707
4.710
4.714
4.714
4.717
4.714
4.718
4.724
4.717
4.718
4.721
4.727
4.725
4.721
4.721
4.735
4.731
4.725
4.720
4.714
4.718
4.718
4.718
4.725
4.726
4.727
4.726
4.732
4.726
4.721
4.720
4.724
4.729
4.725
4.718
4.721
4.729
4.729
4.729
4.730
4.729
4.736
4.736
4.735
4.733
4.732
4.740
4.751
4.748
4.738
4.739
4.744
4.751
4.747
4.750
4.744
4.747
4.755
4.755
4.754
4.748
4.743
4.737
4.733
4.728
4.722
4.723
4.719
4.725
4.716
4.715
4.727
4.728
4.721
4.712
4.707
4.718
4.722
4.725
4.721
4.720
4.718
4.721
4.733
4.729
4.725
4.729
4.724
4.725
4.733
4.733
4.729
4.721
4.722
4.721
4.729
4.737
4.738
4.740
4.733
4.731
4.732
4.737
4.741
4.740
4.741
4.744
4.741
4.739
4.740
4.750
4.758
4.758
4.754
4.750
4.743
4.737
4.732
4.734
4.730
4.728
4.727
4.729
4.736
4.742
4.743
4.742
4.735
4.736
4.730
4.733
4.732
4.726
4.725
4.725
4.722
4.726
4.725
4.734
4.743
4.740
4.738
4.733
4.733
4.726
4.725
4.734
4.741
4.739
4.733
4.737
4.738
4.736
4.735
4.734
4.743
4.747
4.749
4.750
4.751
4.747
4.747
4.747
4.749
4.747
4.755
4.755
4.751
4.755
4.757
4.755
4.747
4.740
4.746
4.755
4.754
4.751
4.751
4.750
4.749
4.748
4.751
4.748
4.752
4.761
4.763
4.764
4.760
4.761
4.758
4.751
4.755
4.756
4.754
4.762
4.770
4.772
4.770
4.767
4.771
4.770
4.771
4.770
4.770
4.766
4.771
4.780
4.781
4.773
4.768
4.762
4.768
4.762
4.755
4.755
4.763
4.772
4.776
4.770
4.773
4.772
4.768
4.770
4.766
4.761
4.765
4.762
4.771
4.772
4.771
4.769
4.763
4.769
4.768
4.766
4.768
4.764
4.763
4.766
4.774
4.783
4.784
4.784
4.782
4.780
4.776
4.777
4.779
4.781
4.779
4.778
4.774
4.781
4.790
4.791
4.787
4.783
4.782
4.780
4.774
4.775
4.776
4.777
4.779
4.777
4.784
4.791
4.798
4.799
4.796
4.799
4.792
4.794
4.796
4.792
4.792
4.794
4.792
4.789
4.792
4.797
4.803
4.811
4.814
4.810
4.807
4.803
4.801
4.800
4.796
4.802
4.801
4.799
4.799
4.795
4.801
4.810
4.809
4.807
4.809
4.808
4.804
4.800
4.795
4.791
4.787
4.783
4.779
4.786
4.790
4.789
4.790
4.786
4.785
4.784
4.784
4.788
4.787
4.786
4.782
4.778
4.779
4.777
4.782
4.789
4.795
4.794
4.795
4.791
4.785
4.780
4.773
4.773
4.770
4.770
4.770
4.767
4.768
4.770
4.779
4.784
4.790
4.794
4.792
4.792
4.790
4.788
4.790
4.784
4.784
4.781
4.785
4.780
4.781
4.780
4.781
4.780
4.784
4.789
4.796
4.802
4.801
4.803
4.799
4.797
4.795
4.792
4.793
4.795
4.799
4.802
4.799
4.799
4.793
4.786
4.781
4.788
4.795
4.800
4.806
4.803
4.799
4.795
4.796
4.797
4.796
4.797
4.796
4.794
4.795
4.795
4.790
4.786
4.784
4.780
4.784
4.791
4.798
4.803
4.798
4.795
4.798
4.795
4.795
4.792
4.795
4.797
4.792
4.792
4.793
4.794
4.793
4.794
4.790
4.789
4.790
4.791
4.793
4.800
4.806
4.811
4.815
4.816
4.815
4.813
4.806
4.807
4.810
4.811
4.809
4.807
4.806
4.808
4.810
4.810
4.809
4.808
4.807
4.811
4.809
4.805
4.806
4.811
4.817
4.818
4.815
4.819
4.818
4.821
4.821
4.822
4.817
4.811
4.810
4.808
4.806
4.807
4.803
4.799
4.801
4.807
4.809
4.805
4.801
4.805
4.809
4.816
4.820
4.827
4.826
4.827
4.823
4.819
4.823
4.824
4.823
4.824
4.825
4.827
4.829
4.824
4.821
4.821
4.821
4.818
4.820
4.821
4.823
4.822
4.820
4.814
4.818
4.821
4.828
4.833
4.837
4.844
4.844
4.844
4.839
4.840
4.840
4.838
4.839
4.838
4.836
4.835
4.836
4.833
4.828
4.833
4.833
4.827
4.828
4.830
4.826
4.824
4.826
4.829
4.825
4.825
4.833
4.832
4.826
4.824
4.820
4.821
4.820
4.819
4.821
4.819
4.815
4.814
4.809
4.814
4.812
4.811
4.814
4.814
4.814
4.811
4.815
4.811
4.817
4.816
4.812
4.811
4.817
4.822
4.829
4.833
4.837
4.835
4.833
4.829
4.826
4.824
4.825
4.819
4.817
4.814
4.817
4.822
4.823
4.819
4.817
4.818
4.817
4.814
4.812
4.810
4.809
4.810
4.809
4.810
4.809
4.807
4.812
4.818
4.823
4.827
4.833
4.836
4.837
4.843
4.848
4.846
4.840
4.841
4.839
4.838
4.839
4.841
4.840
4.840
4.839
4.833
4.829
4.829
4.828
4.825
4.826
4.825
4.825
4.827
4.829
4.825
4.823
4.819
4.817
4.818
4.818
4.821
4.826
4.830
4.836
4.841
4.847
4.847
4.847
4.844
4.850
4.846
4.842
4.841
4.842
4.847
4.847
4.852
4.850
4.851
4.848
4.843
4.844
4.849
4.847
4.849
4.847
4.843
4.842
4.841
4.837
4.833
4.834
4.833
4.829
4.830
4.834
4.830
4.834
4.835
4.837
4.843
4.847
4.851
4.856
4.862
4.867
4.868
4.864
4.862
4.859
4.858
4.861
4.862
4.859
4.857
4.859
4.862
4.862
4.860
4.861
4.863
4.862
4.865
4.866
4.863
4.858
4.858
4.855
4.855
4.855
4.854
4.851
4.852
4.851
4.847
4.848
4.851
4.848
4.846
4.842
4.846
4.851
4.855
4.859
4.865
4.870
4.874
4.869
4.870
4.870
4.873
4.873
4.876
4.872
4.870
4.869
4.870
4.869
4.865
4.862
4.858
4.855
4.851
4.848
