2.991
3.332
3.512
3.619
3.722
3.770
3.819
3.894
3.907
3.960
4.008
3.981
4.018
4.048
4.078
4.103
4.136
4.155
4.141
4.089
4.098
4.115
4.128
4.141
4.152
4.171
4.177
4.192
4.196
4.211
4.211
4.225
4.240
4.236
4.246
4.261
4.257
4.269
4.282
4.289
4.300
4.294
4.300
4.311
4.318
4.326
4.336
4.327
4.333
4.338
4.352
4.352
4.363
4.365
4.374
4.363
4.364
4.370
4.381
4.390
4.388
4.393
4.400
4.404
4.407
4.418
4.422
4.404
4.403
4.412
4.419
4.422
4.429
4.426
4.430
4.434
4.446
4.448
4.454
4.450
4.455
4.461
4.470
4.475
4.478
4.485
4.468
4.455
4.455
4.461
4.468
4.470
4.478
4.474
4.487
4.485
4.484
4.485
4.489
4.491
4.501
4.507
4.503
4.502
4.511
4.513
4.512
4.516
4.515
4.513
4.520
4.522
4.533
4.535
4.537
4.540
4.548
4.543
4.553
4.552
4.550
4.551
4.548
4.549
4.542
4.529
4.523
4.530
4.528
4.533
4.539
4.540
4.534
4.543
4.544
4.544
4.550
4.552
4.556
4.549
4.550
4.546
4.553
4.554
4.547
4.557
4.559
4.557
4.566
4.560
4.570
4.566
4.575
4.576
4.577
4.581
4.569
4.584
4.578
4.592
4.589
4.595
4.591
4.601
4.592
4.582
4.581
4.596
4.589
4.585
4.583
4.595
4.597
4.600
4.597
4.596
4.600
4.600
4.611
4.609
4.608
4.620
4.610
4.623
4.619
4.615
4.613
4.612
4.626
4.622
4.622
4.633
4.627
4.623
4.643
4.639
4.630
4.644
4.643
4.636
4.651
4.645
4.635
4.631
4.637
4.639
4.644
4.641
4.638
4.642
4.637
4.636
4.641
4.641
4.638
4.650
4.648
4.645
4.649
4.661
4.659
4.653
4.662
4.666
4.662
4.663
4.670
4.667
4.663
4.666
4.676
4.677
4.671
4.663
4.657
4.648
4.640
4.639
4.626
4.626
4.641
4.637
4.640
4.636
4.641
4.648
4.644
4.641
4.640
4.642
4.643
4.647
4.638
4.650
4.652
4.648
4.649
4.648
4.655
4.666
4.666
4.667
4.662
4.661
4.670
4.670
4.665
4.655
4.655
4.653
4.649
4.652
4.648
4.652
4.657
4.653
4.644
4.639
4.654
4.656
4.651
4.644
4.638
4.645
4.652
4.648
4.649
4.652
4.644
4.652
4.663
4.663
4.660
4.664
4.665
4.661
4.666
4.672
4.668
4.669
4.668
4.666
4.662
4.674
4.666
4.666
4.663
4.670
4.666
4.670
4.676
4.677
4.676
4.674
4.670
4.670
4.674
4.688
4.690
4.689
4.692
4.685
4.685
4.678
4.687
4.700
4.698
4.686
4.678
4.680
4.676
4.680
4.693
4.689
4.685
4.685
4.682
4.681
4.674
4.683
4.692
4.689
4.689
4.689
4.690
4.685
4.684
4.683
4.695
4.708
4.707
4.703
4.696
4.699
4.704
4.696
4.689
4.700
4.704
4.700
4.706
4.705
4.700
4.700
4.701
4.699
4.701
4.713
4.722
4.719
4.718
4.724
4.728
4.721
4.715
4.711
4.711
4.719
4.731
4.730
4.731
4.727
4.718
4.715
4.714
4.715
4.712
4.721
4.731
4.729
4.726
4.719
4.712
4.707
4.700
4.697
4.703
4.713
4.709
4.707
4.704
4.700
4.709
4.707
4.704
4.707
4.698
4.700
4.698
4.702
4.703
4.700
4.704
4.699
4.693
4.694
4.695
4.696
4.693
4.702
4.714
4.707
4.712
4.710
4.715
4.708
4.704
4.708
4.711
4.710
4.703
4.708
4.711
4.719
4.723
4.724
4.720
4.710
4.714
4.708
4.709
4.711
4.707
4.707
4.704
4.708
4.717
4.719
4.718
4.713
4.712
4.710
4.706
4.703
4.707
4.703
4.709
4.705
4.703
4.708
4.718
4.727
4.733
4.729
4.722
4.721
4.726
4.729
4.726
4.724
4.722
4.727
4.726
4.716
4.718
4.726
4.729
4.737
4.742
4.735
4.737
4.735
4.734
4.733
4.733
4.733
4.726
4.722
4.722
4.713
4.714
4.719
4.729
4.737
4.747
4.743
4.745
4.743
4.745
4.743
4.741
4.743
4.744
4.735
4.736
4.733
4.741
4.741
4.745
4.743
4.741
4.748
4.755
4.762
4.763
4.757
4.758
4.754
4.758
4.762
4.758
4.757
4.748
4.743
4.742
4.741
4.745
4.744
4.741
4.748
4.753
4.760
4.766
4.762
4.755
4.748
4.744
4.737
4.736
4.733
4.736
4.733
4.733
4.735
4.736
4.738
4.734
4.732
4.737
4.746
4.753
4.754
4.752
4.748
4.748
4.746
4.747
4.741
4.736
4.730
4.733
4.732
4.731
4.732
4.726
4.732
4.733
4.730
4.736
4.737
4.744
4.751
4.759
4.768
4.761
4.763
4.766
4.765
4.763
4.757
4.755
4.751
4.745
4.746
4.744
4.743
4.744
4.748
4.744
4.740
4.734
4.733
4.736
4.744
4.752
4.759
4.767
4.774
4.775
4.776
4.780
4.779
4.777
4.778
4.777
4.770
4.761
4.757
4.759
4.755
4.763
4.762
4.759
4.759
4.759
4.757
4.756
4.754
4.755
4.754
4.761
4.768
4.775
4.782
4.789
4.796
4.792
4.789
4.791
4.793
4.788
4.787
4.786
4.784
4.780
4.776
4.777
4.779
4.781
4.781
4.780
4.773
4.767
4.770
4.770
4.768
4.767
4.773
4.772
4.774
4.781
4.789
4.796
4.798
4.792
4.790
4.789
4.784
4.780
4.773
4.767
4.774
4.770
4.774
4.780
4.773
4.766
4.768
4.769
4.763
4.763
4.763
4.763
4.757
4.759
4.760
4.756
4.763
4.770
4.776
4.783
4.790
4.797
4.798
4.800
4.795
4.791
4.792
4.791
4.789
4.791
4.790
4.788
4.785
4.786
4.787
4.786
4.785
4.783
4.784
4.786
4.787
4.788
4.785
4.786
4.787
4.785
4.779
4.781
4.779
4.778
4.779
4.781
4.787
4.794
4.801
4.807
4.812
4.818
4.818
4.819
4.817
4.815
4.811
4.815
4.815
4.811
4.817
4.816
4.817
4.821
4.825
4.824
4.820
4.816
4.811
4.803
4.803
4.799
4.795
4.794
4.795
4.791
4.789
4.791
4.796
4.803
4.803
4.800
4.796
4.796
4.801
4.808
4.812
4.819
4.815
4.813
4.809
4.807
4.803
4.799
4.795
4.791
4.790
4.788
4.792
4.791
4.787
4.780
4.778
4.780
4.778
4.772
4.766
4.769
4.773
4.774
4.771
4.769
4.771
4.772
4.776
4.772
4.770
4.767
4.766
4.772
4.779
4.785
4.790
4.796
4.796
4.794
4.790
4.786
4.785
4.786
4.787
4.783
4.782
4.785
4.782
4.783
4.779
4.780
4.778
4.777
4.781
4.778
4.782
4.781
4.776
4.775
4.773
4.775
4.773
4.774
4.781
4.780
4.778
4.770
4.770
4.772
4.768
4.767
4.768
4.769
4.766
4.766
4.768
4.774
4.779
4.783
4.789
4.796
4.796
4.797
4.795
4.792
4.787
4.788
4.785
4.783
4.785
4.785
4.789
4.791
4.795
4.800
4.800
4.796
4.796
4.797
4.793
4.789
4.787
4.788
4.790
4.788
4.790
4.791
4.790
4.788
4.784
4.778
4.773
4.774
4.776
4.780
4.774
4.772
4.774
4.777
4.776
4.777
4.781
4.783
4.778
4.774
4.773
4.778
4.784
4.788
4.793
4.799
4.800
4.794
4.790
4.796
4.795
4.796
4.790
4.785
4.784
4.789
4.790
4.789
4.785
4.781
4.782
4.780
4.778
4.778
4.778
4.780
4.774
4.772
4.773
4.778
4.784
4.778
4.779
4.775
4.774
4.775
4.776
4.774
4.774
4.775
4.776
4.772
4.773
4.772
4.770
4.770
4.774
4.772
4.770
4.770
4.768
4.770
4.776
4.774
4.776
4.772
4.778
4.783
4.789
4.792
4.796
4.802
4.807
4.811
4.811
4.807
4.804
4.800
4.804
4.805
4.801
4.803
4.807
4.803
4.803
4.805
4.801
4.799
4.795
4.789
4.784
4.781
4.778
4.777
4.776
4.775
4.774
4.774
4.776
4.770
4.776
4.774
4.774
4.772
4.774
4.772
4.768
4.772
4.779
4.777
4.774
4.777
4.781
4.781
4.787
4.785
4.782
4.783
4.785
4.788
4.785
4.783
4.776
4.775
4.768
4.766
4.770
4.770
4.776
4.780
4.785
