2.992
3.332
3.512
3.632
3.724
3.795
3.837
3.882
3.921
3.964
3.995
4.007
4.047
4.082
4.078
4.076
4.102
4.123
4.144
4.170
4.187
4.208
4.225
4.243
4.245
4.207
4.177
4.194
4.203
4.208
4.221
4.225
4.242
4.241
4.255
4.269
4.270
4.277
4.281
4.288
4.299
4.309
4.308
4.318
4.325
4.334
4.330
4.337
4.344
4.355
4.363
4.351
4.360
4.367
4.376
4.381
4.392
4.378
4.385
4.392
4.398
4.405
4.406
4.414
4.421
4.414
4.414
4.421
4.423
4.425
4.436
4.440
4.445
4.451
4.456
4.454
4.459
4.446
4.451
4.455
4.455
4.462
4.466
4.474
4.475
4.476
4.480
4.488
4.492
4.495
4.495
4.499
4.502
4.504
4.491
4.493
4.497
4.495
4.500
4.503
4.510
4.512
4.511
4.517
4.516
4.520
4.518
4.525
4.527
4.536
4.533
4.542
4.540
4.542
4.543
4.544
4.547
4.555
4.558
4.564
4.562
4.553
4.546
4.540
4.543
4.545
4.541
4.545
4.547
4.551
4.557
4.562
4.563
4.562
4.571
4.573
4.563
4.566
4.573
4.566
4.574
4.577
4.576
4.583
4.588
4.589
4.587
4.586
4.590
4.595
4.603
4.591
4.592
4.599
4.598
4.595
4.601
4.602
4.607
4.605
4.610
4.619
4.615
4.619
4.617
4.624
4.621
4.630
4.631
4.624
4.629
4.629
4.628
4.630
4.632
4.624
4.612
4.602
4.599
4.603
4.603
4.607
4.610
4.616
4.615
4.610
4.621
4.618
4.628
4.619
4.620
4.624
4.625
4.629
4.629
4.633
4.632
4.636
4.632
4.627
4.626
4.636
4.628
4.633
4.629
4.632
4.629
4.638
4.634
4.640
4.639
4.638
4.642
4.636
4.647
4.649
4.650
4.654
4.653
4.655
4.658
4.658
4.658
4.652
4.658
4.652
4.662
4.666
4.658
4.671
4.669
4.666
4.675
4.669
4.673
4.663
4.659
4.668
4.664
4.666
4.675
4.668
4.670
4.666
4.666
4.673
4.675
4.671
4.677
4.677
4.673
4.677
4.673
4.676
4.678
4.687
4.684
4.682
4.692
4.693
4.691
4.692
4.697
4.695
4.692
4.703
4.700
4.692
4.695
4.698
4.692
4.696
4.705
4.704
4.703
4.701
4.710
4.707
4.708
4.704
4.719
4.720
4.710
4.710
4.722
4.718
4.722
4.715
4.716
4.707
4.702
4.712
4.710
4.714
4.708
4.714
4.724
4.723
4.718
4.710
4.721
4.718
4.714
4.712
4.721
4.717
4.716
4.714
4.716
4.726
4.724
4.725
4.722
4.723
4.733
4.734
4.732
4.736
4.729
4.739
4.738
4.739
4.733
4.736
4.744
4.747
4.743
4.740
4.740
4.742
4.736
4.729
4.724
4.720
4.714
4.709
4.708
4.712
4.716
4.714
4.711
4.712
4.707
4.709
4.708
4.709
4.707
4.706
4.714
4.720
4.721
4.717
4.714
4.714
4.718
4.729
4.727
4.723
4.714
4.712
4.718
4.723
4.724
4.728
4.724
4.723
4.721
4.728
4.730
4.729
4.725
4.729
4.729
4.725
4.735
4.744
4.744
4.742
4.740
4.744
4.736
4.737
4.730
4.723
4.719
4.715
4.719
4.729
4.730
4.728
4.725
4.732
4.730
4.720
4.727
4.728
4.727
4.718
4.713
4.712
4.713
4.723
4.729
4.725
4.727
4.729
4.725
4.717
4.718
4.728
4.732
4.729
4.722
4.723
4.724
4.723
4.724
4.731
4.738
4.736
4.735
4.736
4.735
4.732
4.733
4.737
4.738
4.748
4.744
4.739
4.744
4.739
4.740
4.740
4.738
4.742
4.751
4.747
4.746
4.736
4.736
4.739
4.738
4.734
4.743
4.753
4.758
4.753
4.752
4.750
4.744
4.744
4.746
4.742
4.751
4.758
4.760
4.758
4.754
4.759
4.754
4.758
4.757
4.755
4.755
4.764
4.773
4.770
4.766
4.770
4.765
4.758
4.752
4.756
4.752
4.759
4.762
4.762
4.766
4.759
4.755
4.759
4.755
4.753
4.755
4.756
4.763
4.758
4.758
4.756
4.755
4.756
4.754
4.750
4.754
4.753
4.755
4.764
4.773
4.777
4.773
4.770
4.769
4.770
4.763
4.767
4.768
4.762
4.768
4.767
4.776
4.781
4.781
4.780
4.779
4.775
4.765
4.767
4.762
4.762
4.768
4.769
4.774
4.783
4.785
4.784
4.784
4.788
4.782
4.784
4.784
4.781
4.779
4.780
4.777
4.778
4.785
4.792
4.799
4.807
4.803
4.802
4.799
4.794
4.790
4.786
4.793
4.792
4.784
4.784
4.790
4.797
4.798
4.799
4.799
4.797
4.796
4.795
4.793
4.791
4.792
4.786
4.782
4.778
4.787
4.781
4.777
4.775
4.774
4.775
4.773
4.773
4.773
4.777
4.774
4.772
4.768
4.772
4.779
4.783
4.782
4.786
4.787
4.788
4.784
4.778
4.773
4.767
4.763
4.761
4.757
4.759
4.766
4.773
4.781
4.777
4.781
4.777
4.779
4.775
4.782
4.777
4.774
4.775
4.773
4.767
4.768
4.764
4.766
4.772
4.779
4.784
4.788
4.786
4.787
4.786
4.788
4.784
4.782
4.781
4.782
4.788
4.787
4.786
4.787
4.788
4.784
4.781
4.782
4.788
4.796
4.794
4.796
4.797
4.792
4.786
4.784
4.783
4.785
4.780
4.781
4.783
4.782
4.783
4.784
4.778
4.777
4.783
4.792
4.799
4.792
4.789
4.785
4.781
4.779
4.786
4.788
4.783
4.781
4.780
4.782
4.780
4.781
4.780
4.777
4.777
4.781
4.788
4.795
4.800
4.807
4.807
4.803
4.800
4.801
4.800
4.798
4.797
4.795
4.794
4.796
4.799
4.798
4.795
4.795
4.799
4.798
4.797
4.795
4.794
4.801
4.807
4.810
4.811
4.810
4.807
4.810
4.808
4.807
4.808
4.807
4.810
4.806
4.800
4.795
4.792
4.792
4.794
4.798
4.794
4.795
4.794
4.799
4.805
4.810
4.818
4.815
4.818
4.814
4.814
4.812
4.808
4.810
4.811
4.815
4.816
4.820
4.814
4.812
4.808
4.809
4.808
4.814
4.810
4.807
4.808
4.804
4.807
4.814
4.819
4.826
4.832
4.837
4.836
4.836
4.835
4.834
4.830
4.825
4.824
4.826
4.821
4.825
4.824
4.825
4.825
4.825
4.821
4.820
4.816
4.814
4.818
4.815
4.814
4.815
4.822
4.826
4.829
4.826
4.825
4.821
4.819
4.815
4.810
4.807
4.807
4.803
4.805
4.803
4.802
4.798
4.802
4.803
4.800
4.801
4.803
4.804
4.807
4.806
4.803
4.807
4.813
4.818
4.824
4.829
4.833
4.832
4.827
4.826
4.824
4.820
4.814
4.807
4.808
4.807
4.808
4.807
4.808
4.812
4.811
4.807
4.803
4.799
4.797
4.799
4.795
4.796
4.795
4.799
4.805
4.810
4.814
4.821
4.827
4.821
4.829
4.834
4.836
4.834
4.832
4.829
4.825
4.828
4.830
4.829
4.827
4.829
4.825
4.823
4.825
4.823
4.818
4.817
4.819
4.820
4.816
4.818
4.814
4.814
4.811
4.807
4.807
4.812
4.819
4.825
4.829
4.834
4.835
4.832
4.833
4.831
4.838
4.834
4.832
4.834
4.833
4.837
4.836
4.837
4.838
4.839
4.835
4.832
4.835
4.832
4.838
4.836
4.836
4.837
4.835
4.832
4.827
4.826
4.822
4.818
4.825
4.823
4.819
4.823
4.829
4.832
4.838
4.842
4.847
4.853
4.854
4.856
4.854
4.851
4.851
4.847
4.847
4.845
4.844
4.845
4.849
4.853
4.849
4.847
4.849
4.850
4.854
4.856
4.855
4.856
4.854
4.850
4.846
4.844
4.844
4.845
4.843
4.842
4.836
4.839
4.838
4.839
4.841
4.840
4.843
4.847
4.851
4.856
4.862
4.862
4.858
4.864
4.868
4.862
4.860
4.861
4.860
4.859
4.858
4.856
4.852
4.855
4.857
4.859
4.855
4.853
4.847
4.845
4.841
4.837
4.832
4.831
4.833
4.831
4.829
4.831
4.833
4.832
4.829
4.831
4.833
4.832
4.833
4.834
4.840
4.844
4.847
4.853
4.858
4.862
4.862
4.859
4.863
4.858
4.857
4.853
4.855
4.855
4.849
4.847
4.852
4.853
4.855
4.856
4.851
4.855
4.855
4.853
4.847
4.848
4.849
4.845
4.846
4.845
4.844
