2.990
3.333
3.509
3.619
3.705
3.786
3.834
3.859
3.921
3.975
3.951
3.987
4.026
4.053
4.090
4.119
4.141
4.083
4.065
4.083
4.094
4.119
4.129
4.136
4.157
4.158
4.176
4.179
4.198
4.214
4.213
4.225
4.237
4.234
4.245
4.259
4.272
4.265
4.272
4.286
4.294
4.302
4.294
4.304
4.307
4.322
4.326
4.331
4.345
4.348
4.340
4.343
4.349
4.358
4.363
4.371
4.376
4.379
4.387
4.394
4.388
4.385
4.382
4.391
4.399
4.403
4.405
4.406
4.419
4.426
4.430
4.424
4.431
4.435
4.443
4.449
4.456
4.461
4.436
4.431
4.431
4.443
4.448
4.449
4.450
4.465
4.454
4.462
4.458
4.470
4.475
4.475
4.482
4.485
4.489
4.489
4.492
4.493
4.484
4.494
4.498
4.506
4.507
4.509
4.513
4.516
4.522
4.526
4.522
4.525
4.523
4.522
4.520
4.503
4.509
4.505
4.507
4.511
4.518
4.515
4.518
4.519
4.517
4.526
4.538
4.528
4.518
4.521
4.522
4.527
4.532
4.534
4.533
4.534
4.544
4.538
4.545
4.551
4.556
4.552
4.546
4.557
4.558
4.566
4.568
4.566
4.574
4.572
4.564
4.561
4.566
4.566
4.558
4.568
4.570
4.571
4.574
4.572
4.575
4.574
4.586
4.585
4.596
4.589
4.593
4.593
4.591
4.592
4.588
4.602
4.603
4.599
4.606
4.599
4.615
4.618
4.609
4.621
4.615
4.615
4.626
4.623
4.609
4.612
4.612
4.622
4.621
4.614
4.616
4.610
4.618
4.620
4.615
4.619
4.624
4.630
4.626
4.642
4.634
4.634
4.639
4.644
4.640
4.643
4.647
4.648
4.647
4.649
4.655
4.651
4.645
4.636
4.627
4.618
4.609
4.605
4.613
4.619
4.617
4.610
4.618
4.625
4.623
4.612
4.619
4.630
4.619
4.621
4.620
4.630
4.631
4.628
4.628
4.634
4.652
4.641
4.641
4.633
4.646
4.646
4.636
4.625
4.635
4.634
4.628
4.617
4.622
4.636
4.622
4.616
4.617
4.624
4.628
4.625
4.620
4.618
4.623
4.636
4.632
4.630
4.628
4.626
4.635
4.652
4.647
4.641
4.632
4.635
4.643
4.658
4.648
4.637
4.642
4.630
4.647
4.657
4.653
4.649
4.642
4.639
4.646
4.660
4.655
4.654
4.659
4.653
4.654
4.658
4.672
4.669
4.669
4.668
4.666
4.666
4.663
4.666
4.668
4.657
4.655
4.655
4.652
4.665
4.670
4.660
4.655
4.657
4.654
4.654
4.662
4.675
4.676
4.673
4.669
4.671
4.674
4.668
4.668
4.682
4.686
4.679
4.671
4.671
4.667
4.670
4.669
4.682
4.696
4.689
4.682
4.687
4.693
4.685
4.683
4.686
4.690
4.704
4.706
4.698
4.695
4.692
4.697
4.701
4.697
4.692
4.705
4.703
4.703
4.712
4.710
4.703
4.690
4.695
4.697
4.689
4.691
4.684
4.677
4.680
4.677
4.670
4.673
4.676
4.689
4.687
4.691
4.684
4.675
4.666
4.661
4.672
4.669
4.671
4.683
4.691
4.681
4.684
4.684
4.681
4.675
4.674
4.682
4.671
4.671
4.683
4.695
4.707
4.705
4.699
4.698
4.687
4.687
4.687
4.686
4.683
4.675
4.686
4.698
4.701
4.704
4.704
4.694
4.688
4.682
4.678
4.677
4.679
4.672
4.681
4.693
4.703
4.707
4.709
4.703
4.696
4.701
4.699
4.696
4.693
4.690
4.693
4.686
4.690
4.701
4.712
4.723
4.723
4.720
4.712
4.712
4.703
4.699
4.710
4.704
4.706
4.704
4.697
4.702
4.710
4.717
4.717
4.714
4.712
4.718
4.714
4.713
4.713
4.712
4.713
4.706
4.710
4.712
4.713
4.714
4.718
4.729
4.739
4.741
4.740
4.737
4.734
4.735
4.734
4.730
4.732
4.731
4.726
4.723
4.722
4.723
4.715
4.725
4.735
4.745
4.749
4.744
4.736
4.732
4.731
4.728
4.728
4.728
4.724
4.717
4.709
4.706
4.703
4.711
4.720
4.730
4.736
4.733
4.734
4.733
4.731
4.728
4.727
4.722
4.712
4.711
4.712
4.704
4.703
4.704
4.707
4.703
4.712
4.722
4.731
4.738
4.734
4.728
4.732
4.737
4.734
4.733
4.731
4.739
4.737
4.733
4.733
4.724
4.718
4.715
4.713
4.715
4.712
4.718
4.727
4.736
4.743
4.749
4.741
4.745
4.748
4.747
4.745
4.746
4.740
4.738
4.739
4.740
4.740
4.740
4.742
4.735
4.730
4.729
4.728
4.722
4.729
4.735
4.743
4.752
4.754
4.757
4.766
4.763
4.756
4.763
4.771
4.765
4.765
4.768
4.766
4.759
4.755
4.749
4.753
4.749
4.750
4.749
4.746
4.753
4.756
4.750
4.748
4.751
4.759
4.767
4.775
4.772
4.779
4.772
4.767
4.767
4.766
4.764
4.757
4.758
4.764
4.757
4.753
4.746
4.745
4.749
4.742
4.742
4.740
4.730
4.730
4.733
4.740
4.748
4.756
4.764
4.771
4.773
4.771
4.773
4.769
4.765
4.764
4.757
4.761
4.765
4.763
4.757
4.761
4.759
4.756
4.754
4.753
4.760
4.760
4.762
4.761
4.760
4.755
4.756
4.752
4.752
4.759
4.757
4.764
4.772
4.779
4.787
4.793
4.790
4.792
4.796
4.794
4.792
4.788
4.792
4.787
4.785
4.789
4.790
4.789
4.790
4.792
4.792
4.791
4.790
4.789
4.791
4.785
4.786
4.778
4.769
4.771
4.773
4.776
4.779
4.772
4.773
4.780
4.787
4.794
4.801
4.808
4.807
4.798
4.799
4.798
4.794
4.796
4.797
4.795
4.791
4.787
4.783
4.779
4.775
4.771
4.768
4.766
4.759
4.755
4.751
4.748
4.743
4.744
4.741
4.741
4.740
4.744
4.751
4.758
4.764
4.771
4.778
4.778
4.779
4.781
4.787
4.792
4.788
4.783
4.778
4.773
4.768
4.763
4.758
4.754
4.754
4.752
4.750
4.752
4.750
4.746
4.746
4.746
4.746
4.747
4.751
4.752
4.755
4.752
4.749
4.758
4.755
4.752
4.748
4.745
4.745
4.751
4.758
4.764
4.770
4.777
4.770
4.767
4.768
4.761
4.759
4.760
4.761
4.761
4.763
4.759
4.764
4.772
4.776
4.772
4.770
4.768
4.768
4.763
4.761
4.762
4.761
4.758
4.760
4.762
4.760
4.759
4.755
4.751
4.754
4.757
4.760
4.759
4.758
4.752
4.746
4.746
4.755
4.761
4.761
4.755
4.760
4.766
4.772
4.778
4.780
4.779
4.780
4.777
4.776
4.774
4.768
4.766
4.764
4.767
4.772
4.773
4.765
4.759
4.754
4.754
4.751
4.748
4.751
4.747
4.747
4.753
4.759
4.759
4.755
4.757
4.757
4.754
4.759
4.753
4.748
4.751
4.743
4.743
4.743
4.741
4.744
4.744
4.742
4.743
4.740
4.744
4.748
4.748
4.754
4.760
4.765
4.771
4.776
4.782
4.788
4.794
4.797
4.795
4.793
4.788
4.786
4.793
4.793
4.789
4.782
4.777
4.776
4.777
4.780
4.781
4.781
4.776
4.775
4.773
4.776
4.771
4.767
4.764
4.760
4.755
4.749
4.748
4.744
4.744
4.743
4.739
4.747
4.749
4.748
4.748
4.756
4.758
4.759
4.763
4.759
4.758
4.761
4.757
4.755
4.750
4.748
4.747
4.745
4.751
4.756
4.762
4.767
4.772
4.777
4.783
4.788
4.786
4.787
4.789
4.788
4.786
4.780
4.788
4.786
4.791
4.790
4.789
4.785
4.784
4.783
4.785
4.785
4.783
4.784
4.782
4.782
4.782
4.788
4.788
4.789
4.785
4.782
4.781
4.781
4.780
4.779
4.778
4.775
4.772
4.771
4.768
4.762
4.761
4.762
4.762
4.761
4.760
4.758
4.760
4.757
4.756
4.749
4.744
4.741
4.743
4.743
4.742
4.740
4.739
4.745
4.749
4.754
4.759
4.758
4.763
4.768
4.773
4.778
4.784
4.788
4.793
4.798
4.803
4.806
4.806
4.806
4.804
4.802
4.804
4.805
4.804
4.802
4.802
4.801
4.799
4.801
4.796
4.795
4.792
4.789
4.791
4.789
4.791
4.796
4.798
4.801
4.797
4.797
4.792
4.786
4.780
4.774
4.770
4.767
4.766
4.761
4.766
4.773
4.774
4.775
4.783
4.779
4.782
