2.615
2.822
3.223
3.293
3.345
3.468
3.382
3.391
3.432
3.463
3.436
3.430
3.635
3.470
3.708
3.685
3.688
3.518
3.557
3.708
3.543
3.481
3.639
3.770
3.592
3.519
3.538
3.642
3.772
3.716
3.600
3.728
3.513
3.490
3.593
3.696
3.798
3.769
3.721
3.691
3.678
3.678
3.626
3.699
3.628
3.546
3.571
3.647
3.723
3.799
3.847
3.802
3.860
3.757
3.657
3.641
3.659
3.714
3.785
3.674
3.568
3.526
3.557
3.643
3.678
3.618
3.642
3.558
3.588
3.501
3.551
3.601
3.651
3.701
3.751
3.801
3.851
3.901
3.834
3.831
3.859
3.801
3.815
3.802
3.740
3.778
3.748
3.754
3.775
3.752
3.726
3.630
3.662
3.747
3.666
3.608
3.636
3.589
3.611
3.641
3.592
3.610
3.683
3.653
3.612
3.573
3.588
3.549
3.603
3.557
3.532
3.555
3.596
3.550
3.548
3.573
3.560
3.557
3.575
3.550
3.614
3.522
3.617
3.524
3.553
3.524
3.524
3.524
3.566
3.608
3.649
3.611
3.629
3.572
3.596
3.640
3.641
3.629
3.672
3.672
3.694
3.616
3.588
3.636
3.625
3.605
3.630
3.655
3.679
3.704
3.729
3.753
3.778
3.803
3.827
3.852
3.877
3.901
3.926
3.951
3.940
3.973
3.886
3.905
3.864
3.915
3.904
3.856
3.835
3.841
3.887
3.881
3.878
3.799
3.816
3.799
3.801
3.820
3.821
3.794
3.789
3.805
3.779
3.741
3.736
3.783
3.785
3.703
3.751
3.721
3.753
3.771
3.721
3.675
3.674
3.688
3.693
3.720
3.699
3.680
3.635
3.683
3.673
3.666
3.630
3.608
3.586
3.628
3.654
3.666
3.660
3.708
3.719
3.671
3.643
3.629
3.618
3.640
3.585
3.576
3.632
3.631
3.600
3.644
3.668
3.694
3.664
3.641
3.645
3.606
3.590
3.592
3.562
3.551
3.579
3.534
3.536
3.554
3.571
3.566
3.574
3.607
3.616
3.640
3.658
3.646
3.669
3.619
3.583
3.584
3.586
3.592
3.631
3.583
3.632
3.670
3.631
3.607
3.576
3.550
3.571
3.592
3.613
3.634
3.655
3.675
3.696
3.717
3.738
3.759
3.750
3.718
3.732
3.689
3.629
3.692
3.677
3.709
3.741
3.750
3.700
3.695
3.679
3.684
3.724
3.690
3.705
3.656
3.640
3.663
3.653
3.599
3.611
3.601
3.625
3.615
3.632
3.642
3.639
3.595
3.623
3.626
3.602
3.647
3.607
3.594
3.624
3.665
3.685
3.673
3.645
3.617
3.589
3.589
3.606
3.601
3.594
3.586
3.588
3.610
3.619
3.604
3.587
3.576
3.608
3.559
3.583
3.587
3.543
3.579
3.594
3.604
3.594
3.579
3.553
3.572
3.600
3.622
3.638
3.620
3.625
3.572
3.593
3.583
3.602
3.621
3.640
3.659
3.677
3.694
3.715
3.680
3.659
3.672
3.655
3.663
3.638
3.653
3.667
3.702
3.710
3.710
3.684
3.682
3.673
3.638
3.634
3.625
3.647
3.606
3.621
3.621
3.643
3.664
3.634
3.636
3.645
3.619
3.636
3.640
3.660
3.626
3.629
3.602
3.584
3.622
3.584
3.595
3.623
3.608
3.598
3.601
3.597
3.611
3.626
3.628
3.610
3.611
3.598
3.599
3.607
3.562
3.561
3.594
3.569
3.560
3.546
3.591
3.600
3.564
3.590
3.601
3.617
3.599
3.578
3.568
3.571
3.588
3.606
3.623
3.641
3.658
3.670
3.647
3.638
3.635
3.635
3.661
3.640
3.636
3.669
3.689
3.662
3.639
3.617
3.632
3.612
3.659
3.660
3.646
3.649
3.652
3.640
3.601
3.608
3.606
3.612
3.606
3.637
3.624
3.655
3.642
3.603
3.620
3.603
3.615
3.613
3.609
3.625
3.596
3.604
3.604
3.584
3.592
3.598
3.586
3.572
3.615
3.606
3.587
3.570
3.586
3.570
3.567
3.603
3.586
3.594
3.586
3.579
3.548
3.575
3.586
3.609
3.611
3.594
3.605
3.589
3.606
3.622
3.639
3.655
3.672
3.679
3.669
3.635
3.631
3.618
3.638
3.612
3.623
3.634
3.671
3.655
3.667
3.669
3.647
3.618
3.647
3.632
3.619
3.624
3.633
3.625
3.604
3.593
3.598
3.615
3.641
3.639
3.618
3.627
3.586
3.583
3.588
3.597
3.623
3.597
3.587
3.589
3.578
3.574
3.573
3.573
3.569
3.588
3.596
3.585
3.616
3.616
3.639
3.624
3.635
3.606
3.602
3.581
3.561
3.556
3.540
3.566
3.568
3.595
3.602
3.594
3.608
3.624
3.639
3.655
3.644
3.650
3.625
3.597
3.626
3.648
3.640
3.627
3.633
3.628
3.651
3.674
3.651
3.664
3.650
3.637
3.629
3.627
3.623
3.606
3.582
3.603
3.575
3.614
3.573
3.591
3.582
3.591
3.613
3.606
3.620
3.598
3.608
3.621
3.582
3.599
3.614
3.610
3.613
3.628
3.623
3.624
3.619
3.596
3.591
3.616
3.611
3.591
3.599
3.583
3.550
3.565
3.571
3.559
3.550
3.550
3.555
3.569
3.584
3.599
3.614
3.617
3.642
3.657
3.643
3.665
3.644
3.665
3.667
3.672
3.672
3.650
3.675
3.651
3.654
3.639
3.620
3.602
3.595
3.623
3.640
3.602
3.591
3.618
3.602
3.589
3.613
3.578
3.580
3.597
3.598
3.614
3.619
3.629
3.628
3.617
3.627
3.640
3.634
3.632
3.601
3.594
3.600
3.607
3.598
3.607
3.580
3.611
3.596
3.578
3.560
3.566
3.575
3.558
3.568
3.587
3.608
3.606
3.589
3.573
3.587
3.602
3.616
3.630
3.645
3.648
3.657
3.642
3.664
3.664
3.643
3.665
3.651
3.636
3.651
3.651
3.640
3.602
3.613
3.596
3.581
3.576
3.597
3.618
3.637
3.623
3.619
3.625
3.612
3.633
3.597
3.602
3.624
3.604
3.597
3.578
3.601
3.603
3.589
3.569
3.574
3.576
3.602
3.615
3.618
3.633
3.638
3.614
3.605
3.593
3.596
3.579
3.576
3.569
3.556
3.587
3.555
3.577
3.575
3.601
3.611
3.596
3.609
3.623
3.622
3.604
3.597
3.628
3.633
3.628
3.649
3.630
3.617
3.641
3.621
3.605
3.625
3.646
3.652
3.644
3.629
3.609
3.592
3.619
3.590
3.580
3.566
3.585
3.564
3.593
3.595
3.588
3.609
3.627
3.620
3.598
3.601
3.604
3.608
3.579
3.583
3.602
3.598
3.586
3.612
3.619
3.609
3.599
3.619
3.621
3.605
3.623
3.606
3.590
3.573
3.579
3.578
3.576
3.584
3.578
3.591
3.601
3.618
3.621
3.633
3.610
3.630
3.638
3.624
3.642
3.649
3.646
3.651
3.627
3.648
3.619
3.612
3.628
3.624
3.644
3.621
3.632
3.624
3.616
3.604
3.608
3.590
3.600
3.598
3.595
3.569
3.570
3.586
3.605
3.615
3.577
3.591
3.590
3.614
3.621
3.606
3.590
3.604
3.608
3.629
3.613
3.590
3.578
3.573
3.579
3.582
3.568
3.579
3.581
3.594
3.592
3.594
3.578
3.590
3.601
3.613
3.626
3.622
3.626
3.651
3.629
3.620
3.602
3.627
3.611
3.603
3.621
3.634
3.643
3.644
3.626
3.645
3.624
3.628
3.611
3.620
3.593
3.607
3.609
3.596
3.615
3.622
3.612
3.604
3.589
3.606
3.612
3.614
3.590
3.611
3.623
3.582
3.581
3.579
3.560
3.571
3.577
3.583
3.603
3.587
3.582
3.566
3.569
3.583
3.591
3.604
3.608
3.620
3.624
3.606
3.584
3.594
3.606
3.619
3.623
3.625
3.638
3.618
3.637
3.623
3.600
3.604
3.612
3.634
3.637
3.604
3.598
3.588
3.586
3.577
3.596
3.614
3.632
3.642
3.615
3.638
3.617
3.643
3.614
3.644
3.615
3.610
3.612
3.612
3.596
3.608
3.606
3.591
3.577
3.576
3.574
3.563
3.576
3.574
3.569
3.588
3.593
3.605
3.610
3.597
3.577
3.595
3.588
3.591
3.579
3.566
3.572
3.584
3.598
3.609
3.621
3.633
3.639
3.621
3.647
3.653
3.639
3.621
3.609
3.594
3.600
3.624
3.618
3.625
3.609
3.609
3.583
3.613
3.631
3.632
3.606
3.597
3.603
3.614
3.606
3.605
3.602
3.615
