2.991
3.323
3.512
3.614
3.714
3.763
3.829
3.838
3.901
3.954
3.996
3.950
3.935
3.959
3.985
4.007
4.027
4.039
4.065
4.073
4.101
4.099
4.131
4.129
4.140
4.158
4.156
4.169
4.180
4.195
4.216
4.194
4.212
4.221
4.240
4.246
4.258
4.252
4.250
4.264
4.265
4.276
4.288
4.297
4.303
4.313
4.328
4.328
4.305
4.306
4.314
4.329
4.319
4.322
4.339
4.344
4.354
4.366
4.365
4.361
4.376
4.382
4.381
4.395
4.401
4.399
4.394
4.400
4.413
4.387
4.385
4.383
4.386
4.397
4.407
4.408
4.396
4.394
4.398
4.400
4.415
4.417
4.434
4.416
4.429
4.434
4.433
4.445
4.450
4.445
4.444
4.442
4.440
4.445
4.455
4.449
4.463
4.471
4.465
4.469
4.474
4.470
4.478
4.482
4.493
4.500
4.494
4.505
4.506
4.498
4.497
4.504
4.497
4.487
4.497
4.500
4.513
4.508
4.514
4.520
4.523
4.524
4.526
4.540
4.530
4.536
4.531
4.528
4.531
4.516
4.502
4.498
4.504
4.490
4.506
4.500
4.495
4.519
4.522
4.511
4.530
4.522
4.519
4.537
4.521
4.507
4.510
4.512
4.504
4.502
4.502
4.498
4.511
4.504
4.506
4.516
4.529
4.516
4.514
4.530
4.532
4.521
4.512
4.537
4.526
4.536
4.519
4.542
4.553
4.545
4.545
4.541
4.561
4.558
4.551
4.544
4.548
4.545
4.544
4.539
4.548
4.560
4.552
4.541
4.546
4.555
4.569
4.567
4.554
4.548
4.556
4.573
4.571
4.563
4.568
4.565
4.574
4.592
4.587
4.574
4.576
4.577
4.585
4.593
4.593
4.590
4.587
4.575
4.588
4.601
4.596
4.583
4.570
4.562
4.578
4.579
4.579
4.571
4.556
4.553
4.571
4.570
4.569
4.563
4.563
4.559
4.561
4.572
4.592
4.583
4.574
4.569
4.566
4.567
4.564
4.583
4.591
4.575
4.562
4.563
4.560
4.573
4.566
4.584
4.595
4.586
4.587
4.594
4.591
4.593
4.582
4.580
4.593
4.611
4.616
4.605
4.600
4.589
4.580
4.582
4.585
4.591
4.608
4.614
4.616
4.616
4.612
4.609
4.610
4.606
4.616
4.608
4.611
4.628
4.633
4.621
4.617
4.623
4.618
4.622
4.616
4.615
4.607
4.618
4.633
4.621
4.612
4.605
4.615
4.609
4.603
4.592
4.597
4.596
4.611
4.607
4.615
4.617
4.608
4.618
4.612
4.611
4.607
4.602
4.616
4.610
4.606
4.620
4.630
4.624
4.627
4.621
4.621
4.629
4.626
4.629
4.624
4.622
4.616
4.611
4.613
4.628
4.642
4.648
4.645
4.643
4.650
4.653
4.642
4.650
4.639
4.645
4.638
4.639
4.630
4.639
4.631
4.645
4.658
4.665
4.665
4.665
4.656
4.658
4.644
4.644
4.647
4.646
4.648
4.642
4.633
4.629
4.629
4.642
4.655
4.654
4.660
4.659
4.657
4.655
4.651
4.655
4.647
4.645
4.648
4.648
4.651
4.644
4.645
4.639
4.632
4.644
4.657
4.669
4.682
4.694
4.688
4.681
4.683
4.683
4.682
4.676
4.675
4.683
4.680
4.684
4.677
4.676
4.675
4.664
4.663
4.660
4.661
4.672
4.683
4.695
4.694
4.695
4.693
4.703
4.701
4.700
4.690
4.678
4.678
4.678
4.676
4.680
4.673
4.667
4.660
4.653
4.647
4.649
4.660
4.671
4.682
4.686
4.682
4.684
4.680
4.671
4.663
4.655
4.655
4.654
4.661
4.649
4.651
4.646
4.644
4.633
4.629
4.619
4.624
4.628
4.633
4.644
4.654
4.663
4.672
4.679
4.672
4.668
4.665
4.657
4.662
4.666
4.655
4.664
4.666
4.670
4.663
4.656
4.656
4.653
4.652
4.656
4.655
4.654
4.653
4.651
4.657
4.653
4.645
4.648
4.658
4.662
4.658
4.664
4.655
4.658
4.649
4.658
4.661
4.662
4.658
4.655
4.646
4.653
4.649
4.656
4.653
4.645
4.646
4.643
4.644
4.642
4.642
4.644
4.644
4.645
4.656
4.653
4.642
4.652
4.646
4.656
4.665
4.674
4.684
4.679
4.677
4.678
4.672
4.663
4.656
4.659
4.667
4.663
4.662
4.657
4.655
4.661
4.665
4.665
4.658
4.656
4.654
4.644
4.642
4.643
4.640
4.641
4.640
4.641
4.641
4.647
4.639
4.636
4.638
4.641
4.649
4.658
4.667
4.675
4.684
4.681
4.692
4.699
4.692
4.691
4.683
4.674
4.682
4.679
4.670
4.659
4.657
4.663
4.666
4.660
4.663
4.658
4.665
4.665
4.665
4.660
4.654
4.650
4.661
4.662
4.659
4.660
4.660
4.662
4.658
4.655
4.655
4.663
4.661
4.656
4.663
4.654
4.656
4.664
4.672
4.680
4.688
4.689
4.689
4.692
4.694
4.693
4.691
4.687
4.693
4.688
4.684
4.686
4.696
4.700
4.701
4.700
4.694
4.701
4.697
4.697
4.695
4.688
4.685
4.677
4.684
4.681
4.674
4.668
4.666
4.675
4.679
4.684
4.679
4.675
4.671
4.669
4.665
4.659
4.656
4.667
4.670
4.680
4.674
4.673
4.677
4.668
4.670
4.678
4.685
4.693
4.700
4.707
4.715
4.722
4.730
4.732
4.728
4.725
4.725
4.725
4.730
4.722
4.720
4.720
4.713
4.716
4.722
4.724
4.721
4.724
4.720
4.713
4.714
4.707
4.708
4.707
4.711
4.716
4.710
4.716
4.717
4.715
4.720
4.717
4.723
4.721
4.717
4.716
4.712
4.705
4.702
4.696
4.689
4.692
4.688
4.692
4.693
4.697
4.691
4.683
4.676
4.674
4.679
4.676
4.677
4.684
4.690
4.697
4.704
4.711
4.718
4.714
4.712
4.715
4.717
4.715
4.718
4.715
4.711
4.710
4.702
4.703
4.703
4.710
4.713
4.716
4.709
4.708
4.706
4.704
4.702
4.700
4.691
4.695
4.689
4.678
4.674
4.674
4.673
4.671
4.678
4.682
4.677
4.675
4.676
4.676
4.676
4.677
4.680
4.682
4.686
4.689
4.691
4.687
4.684
4.680
4.675
4.669
4.666
4.669
4.668
4.675
4.670
4.669
4.660
4.664
4.664
4.658
4.661
4.664
4.662
4.667
4.673
4.680
4.686
4.692
4.698
4.704
4.710
4.717
4.723
4.729
4.736
4.738
4.729
4.725
4.729
4.724
4.727
4.730
4.725
4.734
4.724
4.723
4.718
4.714
4.714
4.710
4.709
4.712
4.716
4.724
4.726
4.726
4.726
4.727
4.725
4.722
4.719
4.718
4.709
4.712
4.718
4.723
4.719
4.718
4.721
4.721
4.722
4.717
4.717
4.713
4.716
4.713
4.714
4.714
4.715
4.718
4.711
4.713
4.708
4.712
4.706
4.706
4.704
4.706
4.701
4.696
4.705
4.700
4.695
4.696
4.695
4.702
4.704
4.706
4.715
4.712
4.711
4.709
4.701
4.707
4.715
4.713
4.710
4.706
4.702
4.697
4.693
4.692
4.697
4.703
4.709
4.714
4.720
4.725
4.731
4.736
4.742
4.748
4.750
4.750
4.752
4.748
4.747
4.739
4.743
4.741
4.735
4.726
4.724
4.725
4.719
4.712
4.717
4.716
4.713
4.708
4.706
4.705
4.701
4.694
4.693
4.703
4.700
4.695
4.702
4.705
4.705
4.705
4.696
4.690
4.691
4.694
4.695
4.698
4.697
4.697
4.698
4.695
4.702
4.703
4.700
4.701
4.700
4.705
4.700
4.697
4.698
4.694
4.689
4.690
4.691
4.690
4.684
4.678
4.674
4.677
4.679
4.678
4.681
4.672
4.671
4.672
4.676
4.672
4.667
4.664
4.666
4.664
4.661
4.661
4.654
4.665
4.662
4.656
4.649
4.651
4.657
4.648
4.652
4.659
4.662
4.664
4.669
4.668
4.658
4.657
4.662
4.667
4.672
4.677
4.682
4.687
4.692
4.697
4.702
4.706
4.711
4.716
4.721
4.726
4.731
4.736
4.741
4.746
4.751
4.756
4.761
4.765
4.762
4.755
4.756
4.760
4.761
4.764
4.763
4.763
4.768
4.772
4.769
4.763
4.761
4.758
4.757
4.750
4.750
4.752
4.748
4.742
4.736
4.739
4.734
4.734
4.730
4.732
4.728
4.724
4.724
4.729
4.726
4.725
4.724
4.727
4.720
4.718
4.714
4.721
4.719
4.718
4.713
4.709
