2.988
3.332
3.518
3.630
3.713
3.759
3.852
3.867
3.933
3.917
3.958
3.996
4.036
4.071
4.097
4.082
4.027
4.043
4.060
4.086
4.100
4.112
4.132
4.136
4.151
4.161
4.182
4.179
4.199
4.210
4.209
4.225
4.237
4.226
4.239
4.256
4.264
4.275
4.266
4.268
4.284
4.292
4.299
4.309
4.319
4.312
4.311
4.325
4.331
4.334
4.350
4.348
4.361
4.371
4.354
4.351
4.356
4.368
4.373
4.373
4.383
4.392
4.393
4.404
4.401
4.401
4.412
4.419
4.423
4.428
4.409
4.400
4.406
4.418
4.420
4.425
4.435
4.431
4.427
4.437
4.438
4.448
4.449
4.450
4.462
4.465
4.461
4.459
4.465
4.470
4.474
4.483
4.487
4.495
4.494
4.500
4.496
4.496
4.494
4.495
4.501
4.483
4.479
4.479
4.488
4.494
4.489
4.489
4.489
4.499
4.500
4.513
4.500
4.499
4.498
4.495
4.501
4.508
4.500
4.510
4.520
4.512
4.525
4.530
4.519
4.519
4.533
4.528
4.544
4.534
4.550
4.546
4.542
4.537
4.537
4.542
4.541
4.539
4.549
4.540
4.546
4.543
4.557
4.556
4.567
4.559
4.570
4.564
4.574
4.564
4.572
4.571
4.569
4.580
4.569
4.592
4.590
4.588
4.594
4.584
4.600
4.594
4.591
4.587
4.586
4.597
4.590
4.593
4.591
4.584
4.590
4.589
4.593
4.605
4.600
4.601
4.604
4.609
4.604
4.619
4.618
4.612
4.624
4.621
4.626
4.630
4.634
4.626
4.622
4.611
4.601
4.591
4.581
4.589
4.590
4.589
4.587
4.602
4.594
4.588
4.589
4.598
4.600
4.594
4.596
4.609
4.606
4.609
4.609
4.621
4.619
4.608
4.616
4.621
4.615
4.602
4.601
4.612
4.595
4.594
4.594
4.598
4.602
4.596
4.591
4.601
4.600
4.595
4.592
4.596
4.608
4.611
4.606
4.612
4.609
4.611
4.618
4.621
4.615
4.616
4.615
4.626
4.621
4.616
4.613
4.614
4.623
4.628
4.626
4.623
4.622
4.618
4.631
4.640
4.642
4.643
4.635
4.636
4.635
4.650
4.648
4.644
4.637
4.626
4.633
4.646
4.639
4.637
4.634
4.637
4.627
4.642
4.645
4.644
4.645
4.635
4.637
4.634
4.649
4.658
4.658
4.658
4.652
4.649
4.642
4.649
4.660
4.663
4.655
4.653
4.656
4.651
4.650
4.658
4.672
4.679
4.680
4.674
4.672
4.668
4.661
4.661
4.677
4.691
4.680
4.673
4.673
4.669
4.667
4.672
4.675
4.685
4.688
4.683
4.674
4.665
4.656
4.648
4.662
4.666
4.667
4.667
4.662
4.658
4.650
4.653
4.652
4.660
4.661
4.650
4.658
4.654
4.652
4.648
4.647
4.644
4.650
4.664
4.670
4.667
4.670
4.671
4.664
4.665
4.666
4.665
4.661
4.660
4.673
4.670
4.670
4.672
4.673
4.666
4.668
4.668
4.669
4.658
4.661
4.671
4.666
4.670
4.665
4.662
4.670
4.674
4.673
4.662
4.662
4.661
4.665
4.677
4.689
4.696
4.695
4.692
4.684
4.687
4.683
4.682
4.679
4.675
4.673
4.672
4.684
4.696
4.699
4.687
4.684
4.678
4.681
4.679
4.678
4.681
4.673
4.679
4.675
4.685
4.691
4.703
4.708
4.707
4.706
4.704
4.702
4.707
4.706
4.706
4.706
4.699
4.694
4.694
4.691
4.699
4.710
4.721
4.716
4.717
4.716
4.710
4.716
4.711
4.708
4.708
4.698
4.693
4.697
4.702
4.696
4.701
4.704
4.703
4.697
4.708
4.708
4.705
4.707
4.698
4.690
4.692
4.688
4.690
4.688
4.680
4.688
4.699
4.709
4.702
4.699
4.695
4.702
4.704
4.698
4.697
4.704
4.704
4.699
4.701
4.696
4.701
4.701
4.696
4.697
4.699
4.709
4.715
4.719
4.715
4.712
4.714
4.717
4.711
4.708
4.702
4.701
4.703
4.703
4.712
4.719
4.716
4.711
4.710
4.709
4.705
4.714
4.724
4.733
4.729
4.729
4.729
4.726
4.727
4.730
4.732
4.729
4.728
4.732
4.729
4.728
4.729
4.730
4.725
4.727
4.721
4.721
4.717
4.722
4.731
4.741
4.748
4.752
4.745
4.749
4.745
4.747
4.748
4.739
4.734
4.736
4.734
4.737
4.734
4.728
4.733
4.730
4.726
4.724
4.720
4.712
4.721
4.730
4.738
4.746
4.744
4.747
4.745
4.742
4.742
4.738
4.735
4.733
4.732
4.735
4.732
4.729
4.728
4.726
4.727
4.732
4.732
4.728
4.724
4.726
4.725
4.722
4.726
4.735
4.743
4.752
4.760
4.761
4.760
4.761
4.758
4.760
4.757
4.761
4.763
4.764
4.758
4.762
4.762
4.761
4.759
4.756
4.757
4.752
4.749
4.748
4.750
4.752
4.757
4.754
4.757
4.758
4.758
4.751
4.759
4.767
4.775
4.780
4.780
4.785
4.778
4.775
4.774
4.768
4.770
4.766
4.766
4.767
4.772
4.768
4.771
4.775
4.772
4.770
4.766
4.761
4.757
4.752
4.748
4.743
4.739
4.734
4.736
4.743
4.751
4.758
4.758
4.753
4.757
4.756
4.755
4.755
4.754
4.758
4.752
4.751
4.754
4.751
4.747
4.748
4.746
4.745
4.740
4.734
4.729
4.723
4.721
4.719
4.721
4.723
4.721
4.721
4.721
4.721
4.721
4.726
4.733
4.741
4.747
4.755
4.759
4.758
4.751
4.745
4.742
4.741
4.740
4.739
4.730
4.737
4.747
4.746
4.748
4.737
4.734
4.735
4.733
4.733
4.731
4.729
4.730
4.729
4.731
4.728
4.722
4.724
4.723
4.732
4.732
4.724
4.721
4.727
4.729
4.738
4.740
4.737
4.744
4.751
4.758
4.765
4.772
4.767
4.763
4.758
4.752
4.746
4.744
4.744
4.749
4.749
4.745
4.736
4.734
4.727
4.730
4.728
4.727
4.724
4.725
4.728
4.729
4.727
4.726
4.724
4.723
4.726
4.724
4.728
4.723
4.723
4.719
4.717
4.721
4.713
4.710
4.717
4.723
4.730
4.736
4.742
4.749
4.755
4.762
4.763
4.763
4.767
4.759
4.760
4.762
4.765
4.773
4.770
4.768
4.767
4.762
4.765
4.762
4.763
4.760
4.755
4.747
4.743
4.743
4.744
4.735
4.738
4.735
4.737
4.739
4.736
4.730
4.730
4.727
4.728
4.722
4.724
4.723
4.726
4.729
4.727
4.726
4.726
4.723
4.727
4.720
4.724
4.730
4.736
4.742
4.748
4.754
4.760
4.765
4.764
4.762
4.762
4.762
4.755
4.755
4.759
4.758
4.765
4.761
4.760
4.753
4.751
4.751
4.750
4.748
4.752
4.755
4.761
4.762
4.766
4.766
4.764
4.757
4.754
4.754
4.748
4.748
4.751
4.746
4.745
4.747
4.745
4.750
4.748
4.749
4.748
4.744
4.742
4.736
4.730
4.724
4.720
4.718
4.721
4.717
4.716
4.720
4.725
4.731
4.737
4.742
4.748
4.754
4.759
4.765
4.770
4.776
4.782
4.787
4.784
4.784
4.781
4.777
4.776
4.779
4.774
4.767
4.769
4.767
4.772
4.774
4.768
4.764
4.765
4.762
4.763
4.764
4.762
4.768
4.767
4.767
4.766
4.765
4.762
4.764
4.758
4.756
4.757
4.749
4.752
4.755
4.753
4.747
4.748
4.747
4.745
4.745
4.742
4.744
4.747
4.744
4.752
4.753
4.754
4.754
4.757
4.752
4.752
4.748
4.742
4.737
4.735
4.734
4.735
4.739
4.744
4.749
4.755
4.760
4.765
4.770
4.775
4.781
4.786
4.791
4.793
4.786
4.789
4.791
4.786
4.787
4.785
4.785
4.793
4.788
4.787
4.789
4.791
4.791
4.792
4.790
4.793
4.792
4.787
4.784
4.781
4.778
4.777
4.773
4.774
4.777
4.776
4.782
4.780
4.779
4.778
4.776
4.773
4.774
4.775
4.775
4.776
4.779
4.782
4.778
4.780
4.775
4.774
4.771
4.776
4.772
4.770
4.771
4.770
4.771
4.767
4.769
4.765
4.763
4.766
4.771
4.771
4.775
4.768
4.761
4.760
4.767
4.769
4.770
4.771
4.769
4.769
4.769
4.767
4.762
4.766
4.771
4.776
4.781
4.785
4.790
4.795
4.800
4.805
4.810
4.814
4.819
4.824
4.826
4.827
4.830
4.824
4.826
