2.994
3.332
3.510
3.636
3.714
3.782
3.836
3.889
3.899
3.955
4.003
3.979
4.016
4.045
4.076
4.103
4.126
4.155
4.175
4.124
4.103
4.116
4.131
4.140
4.161
4.166
4.172
4.187
4.194
4.209
4.221
4.220
4.235
4.247
4.247
4.256
4.268
4.270
4.277
4.286
4.295
4.305
4.295
4.310
4.315
4.324
4.334
4.336
4.328
4.340
4.340
4.354
4.359
4.365
4.375
4.381
4.377
4.368
4.373
4.379
4.391
4.398
4.395
4.404
4.411
4.414
4.418
4.425
4.432
4.415
4.413
4.417
4.424
4.431
4.435
4.440
4.438
4.439
4.449
4.455
4.458
4.467
4.465
4.462
4.476
4.477
4.484
4.488
4.488
4.469
4.466
4.461
4.473
4.475
4.482
4.484
4.485
4.495
4.493
4.494
4.493
4.492
4.498
4.507
4.514
4.511
4.510
4.518
4.520
4.521
4.523
4.527
4.525
4.527
4.533
4.538
4.544
4.546
4.547
4.546
4.550
4.546
4.558
4.557
4.550
4.563
4.558
4.563
4.548
4.535
4.533
4.538
4.536
4.538
4.545
4.547
4.547
4.546
4.551
4.549
4.556
4.565
4.558
4.565
4.558
4.557
4.551
4.555
4.558
4.560
4.567
4.563
4.569
4.565
4.572
4.574
4.578
4.582
4.586
4.588
4.580
4.584
4.580
4.588
4.589
4.599
4.599
4.603
4.603
4.606
4.591
4.593
4.592
4.603
4.597
4.596
4.597
4.599
4.607
4.596
4.608
4.599
4.613
4.612
4.608
4.623
4.621
4.621
4.621
4.623
4.629
4.626
4.622
4.623
4.624
4.631
4.636
4.631
4.640
4.639
4.636
4.647
4.641
4.640
4.651
4.648
4.644
4.653
4.647
4.636
4.646
4.645
4.644
4.653
4.652
4.637
4.651
4.648
4.640
4.645
4.651
4.651
4.647
4.658
4.662
4.658
4.660
4.670
4.666
4.661
4.662
4.672
4.673
4.677
4.670
4.680
4.679
4.673
4.677
4.681
4.673
4.666
4.658
4.651
4.643
4.644
4.636
4.634
4.635
4.648
4.647
4.648
4.641
4.648
4.658
4.655
4.652
4.640
4.655
4.653
4.654
4.648
4.651
4.664
4.658
4.661
4.657
4.655
4.670
4.680
4.677
4.667
4.666
4.672
4.679
4.669
4.658
4.653
4.663
4.664
4.662
4.659
4.647
4.662
4.665
4.655
4.641
4.645
4.655
4.664
4.657
4.650
4.652
4.645
4.660
4.662
4.660
4.661
4.657
4.655
4.660
4.672
4.674
4.675
4.677
4.669
4.663
4.672
4.682
4.677
4.681
4.673
4.665
4.667
4.681
4.675
4.671
4.678
4.677
4.673
4.673
4.684
4.687
4.684
4.682
4.677
4.676
4.680
4.685
4.697
4.701
4.697
4.701
4.694
4.687
4.688
4.693
4.702
4.693
4.683
4.682
4.689
4.688
4.684
4.696
4.695
4.698
4.697
4.693
4.684
4.682
4.683
4.695
4.697
4.699
4.699
4.701
4.699
4.695
4.688
4.690
4.702
4.715
4.714
4.707
4.707
4.710
4.707
4.701
4.692
4.706
4.711
4.712
4.719
4.710
4.714
4.712
4.708
4.707
4.708
4.714
4.724
4.731
4.725
4.729
4.732
4.731
4.724
4.726
4.719
4.717
4.727
4.737
4.741
4.734
4.729
4.721
4.722
4.723
4.724
4.723
4.725
4.734
4.732
4.725
4.721
4.714
4.707
4.701
4.705
4.701
4.711
4.717
4.714
4.714
4.719
4.714
4.716
4.718
4.710
4.710
4.703
4.706
4.705
4.715
4.711
4.714
4.711
4.706
4.708
4.699
4.705
4.703
4.703
4.706
4.714
4.715
4.714
4.723
4.718
4.718
4.716
4.715
4.718
4.720
4.716
4.712
4.718
4.717
4.725
4.733
4.725
4.725
4.719
4.715
4.714
4.718
4.721
4.717
4.716
4.718
4.719
4.718
4.725
4.721
4.725
4.726
4.719
4.712
4.710
4.714
4.718
4.710
4.718
4.717
4.716
4.717
4.724
4.733
4.743
4.737
4.730
4.729
4.735
4.736
4.733
4.736
4.736
4.734
4.732
4.729
4.732
4.728
4.732
4.739
4.746
4.745
4.749
4.745
4.743
4.745
4.743
4.736
4.735
4.733
4.733
4.726
4.721
4.726
4.724
4.734
4.743
4.751
4.752
4.751
4.758
4.753
4.751
4.753
4.754
4.748
4.746
4.744
4.743
4.745
4.749
4.750
4.757
4.748
4.746
4.755
4.762
4.767
4.770
4.766
4.766
4.767
4.765
4.770
4.762
4.761
4.755
4.750
4.751
4.755
4.754
4.748
4.752
4.753
4.754
4.761
4.766
4.759
4.754
4.748
4.746
4.742
4.744
4.744
4.740
4.745
4.744
4.739
4.741
4.748
4.749
4.744
4.740
4.742
4.749
4.756
4.755
4.751
4.754
4.753
4.755
4.751
4.744
4.742
4.740
4.742
4.741
4.742
4.736
4.736
4.738
4.742
4.744
4.740
4.744
4.742
4.751
4.756
4.765
4.772
4.771
4.773
4.774
4.767
4.762
4.759
4.758
4.758
4.755
4.756
4.754
4.753
4.757
4.753
4.749
4.744
4.744
4.747
4.746
4.744
4.752
4.759
4.766
4.773
4.781
4.780
4.785
4.788
4.790
4.786
4.784
4.773
4.768
4.769
4.763
4.762
4.763
4.767
4.776
4.770
4.768
4.766
4.766
4.764
4.760
4.761
4.760
4.761
4.768
4.775
4.782
4.789
4.796
4.803
4.804
4.800
4.795
4.797
4.795
4.794
4.792
4.791
4.790
4.788
4.784
4.788
4.792
4.786
4.779
4.773
4.774
4.775
4.781
4.783
4.779
4.781
4.779
4.775
4.782
4.789
4.795
4.802
4.804
4.797
4.792
4.786
4.781
4.778
4.774
4.775
4.781
4.781
4.784
4.778
4.774
4.777
4.777
4.783
4.776
4.773
4.776
4.769
4.765
4.766
4.768
4.766
4.766
4.772
4.777
4.783
4.788
4.795
4.803
4.808
4.804
4.803
4.801
4.802
4.796
4.795
4.798
4.799
4.798
4.792
4.793
4.795
4.795
4.795
4.790
4.791
4.792
4.792
4.796
4.795
4.795
4.797
4.790
4.786
4.785
4.788
4.787
4.789
4.788
4.786
4.792
4.799
4.804
4.810
4.817
4.822
4.826
4.825
4.826
4.822
4.818
4.819
4.825
4.827
4.821
4.829
4.828
4.827
4.833
4.827
4.826
4.821
4.815
4.811
4.807
4.802
4.803
4.807
4.804
4.802
4.795
4.794
4.801
4.805
4.812
4.811
4.807
4.807
4.804
4.803
4.810
4.816
4.820
4.816
4.812
4.808
4.806
4.802
4.798
4.799
4.795
4.795
4.799
4.797
4.793
4.791
4.788
4.792
4.790
4.784
4.781
4.778
4.774
4.775
4.781
4.780
4.781
4.780
4.782
4.781
4.781
4.778
4.777
4.773
4.774
4.777
4.779
4.784
4.792
4.795
4.798
4.794
4.795
4.794
4.796
4.795
4.796
4.797
4.796
4.789
4.790
4.788
4.788
4.786
4.787
4.788
4.788
4.788
4.788
4.788
4.788
4.784
4.785
4.786
4.781
4.784
4.782
4.783
4.784
4.780
4.779
4.777
4.777
4.777
4.774
4.777
4.777
4.777
4.771
4.772
4.773
4.777
4.782
4.786
4.792
4.797
4.803
4.803
4.801
4.797
4.796
4.795
4.796
4.795
4.793
4.792
4.796
4.795
4.798
4.802
4.809
4.808
4.803
4.803
4.806
4.800
4.799
4.795
4.796
4.795
4.798
4.800
4.798
4.794
4.788
4.781
4.779
4.780
4.782
4.783
4.784
4.786
4.784
4.784
4.784
4.781
4.784
4.786
4.784
4.780
4.774
4.772
4.777
4.783
4.788
4.792
4.798
4.802
4.806
4.802
4.799
4.805
4.801
4.795
4.790
4.791
4.795
4.794
4.799
4.795
4.795
4.794
4.793
4.789
4.785
4.788
4.787
4.784
4.785
4.781
4.781
4.783
4.785
4.789
4.784
4.786
4.784
4.783
4.782
4.788
4.785
4.783
4.782
4.781
4.782
4.783
4.779
4.780
4.782
4.780
4.781
4.781
4.782
4.778
4.781
4.780
4.785
4.783
4.781
4.780
4.782
4.788
4.792
4.797
4.801
4.805
4.810
4.814
4.814
4.808
4.806
4.805
4.809
4.816
4.812
4.811
4.810
4.811
4.810
4.807
4.801
4.799
4.798
4.792
4.792
4.786
4.788
4.788
4.787
4.783
4.785
