2.993
3.333
3.506
3.623
3.684
3.753
3.832
3.847
3.885
3.933
3.982
4.023
4.028
3.961
3.987
4.009
4.030
4.047
4.062
4.082
4.096
4.097
4.123
4.137
4.140
4.159
4.165
4.172
4.189
4.207
4.198
4.212
4.221
4.236
4.244
4.241
4.239
4.261
4.259
4.273
4.284
4.293
4.308
4.282
4.292
4.297
4.309
4.315
4.323
4.331
4.337
4.348
4.349
4.360
4.366
4.354
4.342
4.353
4.357
4.366
4.364
4.371
4.370
4.382
4.383
4.392
4.403
4.401
4.397
4.404
4.409
4.425
4.420
4.425
4.442
4.437
4.432
4.443
4.449
4.437
4.413
4.420
4.424
4.424
4.430
4.430
4.442
4.442
4.429
4.431
4.436
4.441
4.442
4.456
4.459
4.459
4.466
4.455
4.470
4.479
4.472
4.486
4.486
4.486
4.473
4.482
4.481
4.480
4.482
4.487
4.482
4.501
4.501
4.504
4.512
4.503
4.510
4.506
4.514
4.517
4.523
4.525
4.529
4.531
4.534
4.536
4.543
4.537
4.531
4.537
4.527
4.535
4.531
4.530
4.542
4.544
4.554
4.549
4.548
4.560
4.557
4.565
4.566
4.561
4.574
4.564
4.570
4.571
4.563
4.551
4.538
4.531
4.531
4.536
4.534
4.535
4.539
4.542
4.539
4.539
4.560
4.559
4.543
4.563
4.562
4.557
4.558
4.557
4.541
4.546
4.542
4.553
4.535
4.543
4.540
4.536
4.541
4.545
4.545
4.538
4.546
4.567
4.563
4.555
4.546
4.571
4.569
4.559
4.548
4.566
4.572
4.559
4.558
4.558
4.578
4.577
4.580
4.578
4.570
4.590
4.591
4.588
4.585
4.584
4.581
4.582
4.575
4.570
4.577
4.585
4.581
4.583
4.579
4.572
4.587
4.601
4.604
4.593
4.593
4.590
4.596
4.601
4.604
4.595
4.595
4.593
4.598
4.617
4.624
4.614
4.617
4.613
4.602
4.614
4.634
4.625
4.624
4.608
4.619
4.612
4.622
4.636
4.633
4.628
4.622
4.614
4.605
4.609
4.610
4.606
4.604
4.598
4.600
4.599
4.602
4.602
4.600
4.595
4.589
4.589
4.589
4.603
4.617
4.616
4.615
4.617
4.610
4.604
4.600
4.598
4.615
4.620
4.616
4.622
4.615
4.618
4.609
4.596
4.602
4.618
4.617
4.623
4.623
4.616
4.610
4.606
4.610
4.604
4.612
4.628
4.638
4.640
4.636
4.635
4.623
4.624
4.619
4.620
4.619
4.627
4.635
4.640
4.631
4.632
4.631
4.632
4.634
4.628
4.629
4.623
4.630
4.645
4.659
4.662
4.666
4.662
4.652
4.646
4.650
4.646
4.645
4.642
4.638
4.650
4.664
4.669
4.667
4.660
4.658
4.653
4.650
4.648
4.649
4.641
4.631
4.642
4.656
4.653
4.654
4.650
4.645
4.644
4.637
4.634
4.624
4.623
4.622
4.623
4.635
4.648
4.660
4.663
4.662
4.661
4.662
4.663
4.653
4.646
4.634
4.637
4.640
4.643
4.634
4.640
4.652
4.665
4.671
4.674
4.669
4.672
4.677
4.674
4.667
4.659
4.654
4.652
4.655
4.655
4.653
4.648
4.657
4.665
4.677
4.689
4.699
4.692
4.695
4.690
4.676
4.683
4.678
4.678
4.681
4.679
4.687
4.676
4.673
4.673
4.671
4.671
4.683
4.691
4.691
4.696
4.706
4.697
4.687
4.678
4.673
4.667
4.668
4.665
4.661
4.666
4.663
4.666
4.666
4.658
4.669
4.680
4.691
4.697
4.698
4.692
4.691
4.693
4.694
4.693
4.698
4.695
4.686
4.693
4.689
4.689
4.686
4.686
4.679
4.677
4.681
4.686
4.692
4.690
4.700
4.711
4.721
4.732
4.735
4.740
4.735
4.729
4.722
4.709
4.712
4.711
4.707
4.709
4.711
4.710
4.703
4.702
4.696
4.698
4.696
4.697
4.697
4.696
4.706
4.716
4.726
4.727
4.719
4.723
4.717
4.711
4.705
4.700
4.694
4.688
4.682
4.677
4.679
4.680
4.673
4.672
4.682
4.679
4.681
4.677
4.686
4.682
4.686
4.696
4.701
4.699
4.696
4.700
4.696
4.689
4.689
4.688
4.685
4.688
4.690
4.692
4.688
4.678
4.676
4.675
4.679
4.669
4.669
4.664
4.657
4.657
4.661
4.660
4.659
4.668
4.677
4.686
4.695
4.704
4.713
4.714
4.714
4.711
4.710
4.705
4.708
4.703
4.693
4.700
4.699
4.699
4.697
4.691
4.687
4.691
4.689
4.695
4.694
4.687
4.679
4.671
4.664
4.668
4.664
4.660
4.655
4.664
4.672
4.680
4.689
4.697
4.701
4.708
4.699
4.690
4.685
4.687
4.697
4.699
4.696
4.694
4.701
4.693
4.695
4.700
4.697
4.704
4.701
4.694
4.697
4.694
4.691
4.689
4.688
4.685
4.678
4.679
4.681
4.678
4.682
4.674
4.680
4.681
4.675
4.676
4.681
4.689
4.697
4.705
4.706
4.702
4.708
4.704
4.702
4.699
4.704
4.705
4.701
4.706
4.707
4.704
4.694
4.689
4.687
4.696
4.698
4.690
4.696
4.692
4.691
4.686
4.684
4.681
4.686
4.684
4.676
4.684
4.686
4.683
4.693
4.692
4.686
4.687
4.683
4.683
4.673
4.672
4.679
4.687
4.694
4.701
4.707
4.711
4.722
4.720
4.712
4.713
4.716
4.712
4.714
4.714
4.722
4.712
4.712
4.707
4.710
4.713
4.715
4.706
4.699
4.702
4.698
4.704
4.703
4.700
4.694
4.690
4.691
4.690
4.690
4.701
4.703
4.704
4.706
4.700
4.706
4.703
4.703
4.695
4.697
4.695
4.699
4.695
4.695
4.684
4.681
4.681
4.688
4.695
4.702
4.708
4.715
4.722
4.729
4.731
4.733
4.730
4.722
4.726
4.723
4.735
4.730
4.731
4.726
4.738
4.736
4.741
4.749
4.743
4.732
4.733
4.728
4.727
4.717
4.719
4.721
4.717
4.718
4.720
4.722
4.713
4.715
4.710
4.709
4.706
4.709
4.713
4.707
4.704
4.708
4.710
4.707
4.712
4.713
4.710
4.713
4.705
4.703
4.712
4.716
4.712
4.712
4.709
4.706
4.705
4.707
4.708
4.711
4.714
4.720
4.726
4.733
4.739
4.745
4.752
4.758
4.764
4.761
4.760
4.766
4.766
4.766
4.763
4.768
4.767
4.768
4.765
4.763
4.758
4.757
4.755
4.754
4.757
4.753
4.749
4.744
4.744
4.745
4.752
4.749
4.747
4.750
4.751
4.753
4.747
4.741
4.740
4.742
4.747
4.755
4.753
4.749
4.746
4.742
4.741
4.734
4.728
4.729
4.723
4.720
4.713
4.711
4.714
4.722
4.724
4.715
4.711
4.718
4.723
4.725
4.725
4.722
4.717
4.712
4.707
4.710
4.716
4.721
4.727
4.733
4.739
4.739
4.743
4.742
4.748
4.754
4.755
4.754
4.754
4.750
4.751
4.747
4.746
4.749
4.747
4.747
4.745
4.745
4.743
4.741
4.736
4.732
4.728
4.725
4.729
4.722
4.724
4.726
4.726
4.718
4.708
4.711
4.714
4.712
4.713
4.722
4.713
4.722
4.727
4.727
4.719
4.713
4.715
4.712
4.715
4.717
4.713
4.706
4.714
4.722
4.722
4.722
4.717
4.715
4.714
4.712
4.709
4.712
4.715
4.717
4.719
4.717
4.717
4.708
4.704
4.698
4.695
4.691
4.691
4.695
4.694
4.697
4.694
4.697
4.699
4.704
4.709
4.714
4.720
4.725
4.730
4.736
4.741
4.746
4.751
4.757
4.762
4.767
4.769
4.770
4.764
4.766
4.767
4.765
4.766
4.773
4.772
4.763
4.763
4.759
4.750
4.753
4.755
4.753
4.752
4.752
4.748
4.750
4.758
4.762
4.762
4.760
4.763
4.766
4.765
4.766
4.765
4.765
4.758
4.752
4.755
4.760
4.759
4.759
4.754
4.747
4.751
4.755
4.758
4.761
4.758
4.754
4.756
4.758
4.757
4.759
4.760
4.756
4.754
4.749
4.750
4.753
4.756
4.750
4.745
4.742
4.744
4.740
4.739
4.738
4.740
4.746
4.748
4.746
4.745
4.742
4.742
4.738
4.735
4.731
4.728
4.724
4.721
4.717
4.718
4.725
4.721
4.718
4.721
4.718
4.717
4.716
4.722
4.730
4.726
4.730
4.725
4.719
4.723
4.727
4.732
4.737
4.742
4.746
4.751
4.756
4.761
