2.992
3.335
3.511
3.628
3.723
3.774
3.825
3.903
3.912
3.964
3.971
3.981
4.016
4.050
4.082
4.108
4.140
4.152
4.097
4.081
4.095
4.119
4.128
4.136
4.158
4.164
4.181
4.186
4.199
4.202
4.220
4.231
4.230
4.244
4.255
4.252
4.260
4.276
4.287
4.276
4.291
4.295
4.301
4.317
4.321
4.311
4.319
4.327
4.342
4.340
4.352
4.356
4.367
4.355
4.357
4.364
4.372
4.372
4.377
4.387
4.394
4.400
4.403
4.415
4.397
4.400
4.398
4.406
4.413
4.420
4.416
4.419
4.428
4.437
4.440
4.449
4.442
4.448
4.458
4.459
4.464
4.472
4.474
4.451
4.445
4.450
4.454
4.459
4.464
4.466
4.472
4.481
4.471
4.474
4.477
4.478
4.489
4.498
4.494
4.494
4.501
4.508
4.499
4.505
4.504
4.506
4.511
4.517
4.524
4.522
4.521
4.527
4.534
4.536
4.546
4.533
4.542
4.542
4.543
4.538
4.522
4.512
4.520
4.517
4.529
4.526
4.532
4.530
4.536
4.531
4.537
4.544
4.544
4.549
4.542
4.538
4.539
4.538
4.541
4.543
4.549
4.554
4.549
4.558
4.555
4.559
4.568
4.571
4.568
4.561
4.567
4.567
4.575
4.574
4.586
4.580
4.586
4.585
4.575
4.579
4.577
4.590
4.574
4.585
4.578
4.589
4.583
4.587
4.587
4.584
4.597
4.598
4.606
4.607
4.602
4.611
4.604
4.617
4.610
4.608
4.614
4.609
4.622
4.618
4.614
4.625
4.626
4.624
4.633
4.624
4.629
4.630
4.636
4.636
4.623
4.619
4.633
4.636
4.626
4.632
4.630
4.621
4.632
4.625
4.624
4.637
4.638
4.631
4.638
4.649
4.648
4.644
4.655
4.653
4.650
4.647
4.664
4.661
4.651
4.658
4.670
4.669
4.661
4.663
4.654
4.646
4.638
4.629
4.621
4.626
4.626
4.627
4.620
4.636
4.632
4.632
4.632
4.636
4.629
4.631
4.628
4.632
4.647
4.640
4.638
4.634
4.643
4.652
4.653
4.650
4.653
4.652
4.661
4.660
4.655
4.654
4.650
4.639
4.639
4.638
4.641
4.640
4.641
4.638
4.638
4.640
4.639
4.638
4.639
4.634
4.636
4.644
4.640
4.630
4.638
4.635
4.645
4.653
4.653
4.648
4.645
4.647
4.651
4.662
4.654
4.658
4.656
4.651
4.653
4.663
4.665
4.654
4.649
4.651
4.654
4.663
4.667
4.667
4.665
4.664
4.660
4.660
4.671
4.677
4.676
4.673
4.681
4.678
4.675
4.674
4.689
4.694
4.688
4.684
4.675
4.664
4.673
4.678
4.679
4.678
4.673
4.673
4.671
4.672
4.681
4.675
4.681
4.673
4.675
4.679
4.680
4.670
4.684
4.694
4.693
4.692
4.688
4.689
4.689
4.690
4.682
4.695
4.691
4.694
4.690
4.694
4.694
4.686
4.688
4.690
4.701
4.711
4.707
4.707
4.707
4.711
4.708
4.707
4.704
4.701
4.713
4.719
4.718
4.716
4.719
4.715
4.712
4.701
4.703
4.706
4.718
4.731
4.723
4.720
4.721
4.714
4.706
4.699
4.692
4.705
4.700
4.700
4.694
4.689
4.695
4.698
4.691
4.695
4.694
4.697
4.696
4.690
4.688
4.686
4.688
4.688
4.679
4.690
4.686
4.683
4.695
4.706
4.698
4.702
4.695
4.700
4.704
4.692
4.693
4.695
4.690
4.694
4.703
4.708
4.719
4.712
4.710
4.709
4.706
4.697
4.701
4.700
4.695
4.693
4.690
4.701
4.712
4.710
4.712
4.712
4.702
4.697
4.697
4.698
4.691
4.696
4.695
4.692
4.697
4.708
4.718
4.722
4.722
4.716
4.714
4.717
4.713
4.717
4.712
4.709
4.711
4.714
4.707
4.709
4.715
4.726
4.736
4.734
4.732
4.722
4.723
4.721
4.722
4.721
4.726
4.725
4.715
4.708
4.708
4.713
4.723
4.733
4.735
4.736
4.732
4.732
4.731
4.732
4.734
4.728
4.728
4.724
4.720
4.729
4.729
4.730
4.731
4.729
4.739
4.748
4.758
4.758
4.748
4.747
4.745
4.748
4.753
4.751
4.749
4.741
4.740
4.733
4.733
4.728
4.731
4.736
4.743
4.752
4.754
4.753
4.748
4.746
4.747
4.741
4.734
4.728
4.725
4.722
4.719
4.727
4.727
4.722
4.718
4.726
4.735
4.744
4.744
4.741
4.742
4.745
4.736
4.739
4.733
4.729
4.726
4.724
4.718
4.717
4.718
4.720
4.719
4.718
4.719
4.724
4.733
4.741
4.750
4.753
4.752
4.750
4.754
4.754
4.749
4.750
4.751
4.747
4.741
4.736
4.732
4.734
4.730
4.733
4.733
4.733
4.728
4.726
4.734
4.742
4.750
4.759
4.762
4.764
4.764
4.769
4.765
4.763
4.765
4.764
4.761
4.758
4.757
4.749
4.749
4.755
4.750
4.750
4.745
4.749
4.746
4.742
4.749
4.744
4.752
4.760
4.768
4.776
4.778
4.784
4.782
4.778
4.780
4.789
4.785
4.782
4.774
4.775
4.772
4.763
4.764
4.769
4.768
4.767
4.771
4.769
4.766
4.761
4.756
4.755
4.757
4.761
4.768
4.776
4.784
4.789
4.790
4.786
4.783
4.781
4.777
4.774
4.776
4.769
4.763
4.760
4.766
4.764
4.762
4.763
4.758
4.753
4.750
4.749
4.747
4.749
4.751
4.752
4.751
4.758
4.766
4.773
4.780
4.787
4.791
4.787
4.782
4.782
4.781
4.780
4.777
4.782
4.782
4.779
4.772
4.776
4.776
4.773
4.771
4.769
4.774
4.779
4.777
4.781
4.773
4.773
4.770
4.772
4.773
4.770
4.768
4.768
4.773
4.780
4.786
4.794
4.801
4.807
4.810
4.807
4.809
4.809
4.804
4.801
4.807
4.804
4.801
4.805
4.805
4.808
4.809
4.809
4.813
4.817
4.813
4.805
4.798
4.793
4.791
4.792
4.785
4.777
4.781
4.787
4.788
4.793
4.787
4.786
4.789
4.792
4.798
4.805
4.811
4.818
4.817
4.814
4.810
4.806
4.802
4.798
4.795
4.791
4.787
4.783
4.780
4.787
4.784
4.778
4.772
4.765
4.761
4.765
4.760
4.759
4.761
4.760
4.759
4.762
4.762
4.759
4.765
4.762
4.760
4.767
4.773
4.779
4.786
4.792
4.798
4.797
4.792
4.788
4.783
4.779
4.774
4.769
4.770
4.771
4.775
4.771
4.768
4.767
4.765
4.769
4.768
4.773
4.769
4.766
4.765
4.760
4.764
4.762
4.768
4.768
4.773
4.771
4.767
4.767
4.762
4.757
4.755
4.758
4.755
4.758
4.761
4.767
4.773
4.779
4.785
4.786
4.783
4.781
4.781
4.783
4.781
4.778
4.774
4.773
4.773
4.778
4.782
4.785
4.791
4.787
4.785
4.784
4.785
4.785
4.778
4.777
4.775
4.777
4.779
4.780
4.777
4.776
4.774
4.775
4.772
4.770
4.770
4.769
4.767
4.764
4.760
4.761
4.765
4.767
4.768
4.776
4.776
4.775
4.769
4.774
4.779
4.785
4.791
4.796
4.793
4.785
4.785
4.784
4.781
4.779
4.784
4.783
4.780
4.778
4.780
4.778
4.771
4.769
4.770
4.766
4.768
4.766
4.767
4.764
4.764
4.767
4.773
4.777
4.774
4.775
4.767
4.764
4.766
4.762
4.761
4.761
4.767
4.764
4.764
4.760
4.757
4.760
4.761
4.760
4.763
4.760
4.757
4.765
4.761
4.761
4.764
4.770
4.775
4.780
4.786
4.791
4.796
4.802
4.807
4.806
4.805
4.802
4.800
4.798
4.795
4.792
4.793
4.795
4.795
4.797
4.792
4.795
4.796
4.796
4.791
4.785
4.780
4.775
4.770
4.765
4.763
4.765
4.764
4.763
4.765
4.762
4.762
4.761
4.763
4.761
4.758
4.766
4.765
4.762
4.764
4.769
4.776
4.777
4.772
4.771
4.773
4.773
4.772
4.772
4.771
4.770
4.770
4.766
4.761
4.763
4.766
4.771
4.776
4.781
4.786
4.791
4.796
4.801
4.799
4.802
4.800
4.802
4.800
4.797
4.804
4.803
4.806
4.807
4.807
4.804
4.804
4.804
4.801
4.797
4.796
4.792
4.789
4.789
4.796
4.802
4.807
4.808
4.806
4.804
4.801
4.796
4.792
4.793
4.787
4.782
4.777
4.776
4.774
4.770
4.771
4.775
4.776
4.777
