2.995
3.331
3.517
3.619
3.717
3.767
3.817
3.892
3.906
3.959
4.008
3.980
4.016
4.044
4.075
4.102
4.136
4.157
4.145
4.093
4.100
4.110
4.133
4.143
4.151
4.169
4.175
4.192
4.194
4.214
4.211
4.223
4.239
4.237
4.250
4.259
4.264
4.269
4.278
4.289
4.302
4.292
4.298
4.314
4.317
4.329
4.333
4.325
4.331
4.340
4.348
4.349
4.364
4.364
4.374
4.364
4.370
4.368
4.382
4.390
4.387
4.394
4.403
4.410
4.410
4.417
4.430
4.404
4.409
4.411
4.415
4.426
4.427
4.433
4.432
4.436
4.443
4.448
4.452
4.455
4.456
4.457
4.467
4.476
4.478
4.481
4.476
4.459
4.455
4.461
4.465
4.473
4.476
4.477
4.484
4.485
4.482
4.483
4.490
4.491
4.495
4.499
4.501
4.507
4.515
4.521
4.517
4.508
4.516
4.516
4.521
4.525
4.528
4.532
4.534
4.534
4.536
4.546
4.546
4.554
4.544
4.550
4.560
4.553
4.552
4.537
4.522
4.531
4.533
4.525
4.535
4.543
4.542
4.538
4.546
4.547
4.544
4.551
4.558
4.557
4.546
4.546
4.555
4.545
4.551
4.556
4.553
4.564
4.554
4.564
4.564
4.569
4.575
4.578
4.584
4.576
4.574
4.570
4.583
4.577
4.591
4.589
4.596
4.594
4.599
4.589
4.580
4.585
4.596
4.589
4.587
4.586
4.597
4.597
4.597
4.595
4.601
4.603
4.599
4.613
4.611
4.612
4.617
4.613
4.619
4.620
4.620
4.612
4.612
4.625
4.625
4.622
4.632
4.629
4.625
4.644
4.640
4.632
4.647
4.642
4.637
4.651
4.645
4.638
4.632
4.637
4.641
4.648
4.642
4.641
4.641
4.638
4.638
4.643
4.641
4.640
4.650
4.649
4.648
4.649
4.663
4.659
4.655
4.660
4.665
4.661
4.663
4.669
4.667
4.666
4.667
4.677
4.677
4.672
4.664
4.656
4.648
4.640
4.639
4.627
4.624
4.643
4.640
4.638
4.638
4.641
4.651
4.645
4.644
4.642
4.643
4.645
4.648
4.642
4.646
4.654
4.649
4.652
4.647
4.653
4.667
4.666
4.671
4.664
4.659
4.673
4.671
4.668
4.658
4.655
4.654
4.650
4.656
4.650
4.653
4.656
4.656
4.647
4.635
4.650
4.656
4.652
4.647
4.644
4.642
4.657
4.652
4.654
4.650
4.651
4.646
4.661
4.666
4.664
4.662
4.665
4.663
4.662
4.673
4.672
4.670
4.670
4.670
4.658
4.673
4.670
4.661
4.667
4.667
4.669
4.665
4.678
4.677
4.681
4.677
4.672
4.670
4.672
4.682
4.693
4.692
4.690
4.693
4.686
4.683
4.680
4.695
4.703
4.692
4.682
4.676
4.680
4.676
4.688
4.691
4.691
4.689
4.687
4.685
4.679
4.677
4.690
4.694
4.690
4.686
4.692
4.691
4.689
4.682
4.688
4.701
4.708
4.706
4.704
4.698
4.703
4.698
4.697
4.693
4.706
4.702
4.706
4.707
4.706
4.701
4.701
4.698
4.699
4.705
4.718
4.722
4.719
4.718
4.721
4.724
4.719
4.716
4.715
4.711
4.723
4.736
4.732
4.732
4.725
4.717
4.717
4.713
4.717
4.715
4.723
4.735
4.731
4.726
4.719
4.712
4.705
4.698
4.698
4.704
4.715
4.709
4.705
4.707
4.704
4.709
4.709
4.704
4.704
4.699
4.700
4.698
4.704
4.705
4.703
4.704
4.699
4.695
4.695
4.694
4.697
4.694
4.704
4.716
4.706
4.714
4.712
4.714
4.710
4.705
4.709
4.712
4.709
4.706
4.710
4.710
4.721
4.723
4.725
4.720
4.710
4.714
4.710
4.710
4.712
4.708
4.708
4.704
4.708
4.718
4.719
4.719
4.716
4.713
4.712
4.709
4.703
4.708
4.704
4.710
4.707
4.705
4.707
4.717
4.727
4.734
4.730
4.723
4.724
4.727
4.729
4.725
4.725
4.723
4.728
4.726
4.719
4.720
4.726
4.727
4.737
4.744
4.737
4.739
4.736
4.735
4.733
4.736
4.733
4.729
4.723
4.726
4.717
4.715
4.722
4.726
4.736
4.745
4.744
4.744
4.748
4.748
4.745
4.744
4.744
4.743
4.738
4.736
4.736
4.738
4.740
4.742
4.745
4.744
4.744
4.753
4.762
4.764
4.758
4.757
4.754
4.759
4.765
4.759
4.758
4.751
4.747
4.743
4.746
4.746
4.748
4.741
4.747
4.750
4.757
4.766
4.763
4.758
4.751
4.745
4.738
4.733
4.738
4.736
4.735
4.735
4.734
4.735
4.738
4.738
4.735
4.733
4.741
4.750
4.756
4.750
4.748
4.748
4.749
4.748
4.747
4.741
4.732
4.733
4.730
4.732
4.734
4.729
4.731
4.734
4.733
4.734
4.734
4.739
4.747
4.755
4.763
4.767
4.762
4.765
4.767
4.767
4.761
4.754
4.754
4.749
4.746
4.747
4.744
4.745
4.747
4.750
4.742
4.737
4.734
4.737
4.738
4.746
4.755
4.762
4.770
4.778
4.774
4.779
4.779
4.778
4.780
4.781
4.776
4.767
4.761
4.760
4.760
4.757
4.766
4.761
4.764
4.757
4.760
4.759
4.757
4.756
4.755
4.754
4.762
4.770
4.777
4.785
4.792
4.798
4.794
4.792
4.791
4.792
4.788
4.789
4.788
4.784
4.779
4.778
4.778
4.780
4.782
4.783
4.780
4.772
4.765
4.771
4.773
4.768
4.769
4.773
4.773
4.775
4.782
4.789
4.797
4.799
4.792
4.793
4.790
4.784
4.778
4.772
4.766
4.775
4.772
4.774
4.780
4.773
4.767
4.769
4.770
4.765
4.766
4.765
4.763
4.759
4.760
4.761
4.757
4.762
4.769
4.776
4.783
4.790
4.797
4.800
4.802
4.795
4.792
4.794
4.792
4.789
4.792
4.790
4.790
4.786
4.786
4.788
4.785
4.786
4.784
4.784
4.783
4.787
4.787
4.788
4.788
4.788
4.785
4.782
4.781
4.780
4.780
4.781
4.779
4.786
4.792
4.799
4.805
4.812
4.817
4.822
4.819
4.816
4.819
4.813
4.813
4.816
4.815
4.815
4.818
4.817
4.822
4.826
4.826
4.821
4.821
4.814
4.805
4.804
4.801
4.796
4.794
4.797
4.793
4.792
4.793
4.796
4.803
4.807
4.800
4.798
4.798
4.798
4.805
4.811
4.817
4.818
4.814
4.810
4.807
4.803
4.799
4.796
4.792
4.792
4.792
4.793
4.794
4.788
4.784
4.782
4.780
4.782
4.776
4.769
4.768
4.773
4.772
4.773
4.771
4.772
4.770
4.776
4.776
4.774
4.769
4.766
4.769
4.775
4.781
4.787
4.793
4.799
4.796
4.791
4.790
4.787
4.788
4.787
4.787
4.785
4.784
4.781
4.785
4.782
4.778
4.778
4.780
4.778
4.781
4.783
4.785
4.779
4.776
4.776
4.776
4.777
4.773
4.776
4.783
4.779
4.775
4.770
4.771
4.772
4.771
4.767
4.769
4.768
4.766
4.764
4.769
4.775
4.780
4.786
4.791
4.797
4.797
4.798
4.793
4.792
4.787
4.789
4.785
4.785
4.786
4.786
4.791
4.794
4.796
4.803
4.799
4.795
4.797
4.799
4.794
4.791
4.789
4.791
4.791
4.789
4.791
4.792
4.792
4.788
4.783
4.777
4.774
4.775
4.778
4.782
4.775
4.773
4.774
4.775
4.778
4.778
4.782
4.783
4.778
4.773
4.773
4.779
4.784
4.789
4.795
4.800
4.799
4.794
4.791
4.796
4.796
4.796
4.790
4.784
4.785
4.790
4.791
4.791
4.787
4.781
4.783
4.781
4.778
4.779
4.778
4.780
4.775
4.773
4.772
4.779
4.784
4.780
4.781
4.776
4.775
4.775
4.777
4.776
4.775
4.777
4.776
4.774
4.775
4.772
4.771
4.772
4.776
4.774
4.773
4.774
4.770
4.772
4.777
4.774
4.775
4.772
4.776
4.781
4.786
4.791
4.797
4.801
4.807
4.812
4.813
4.807
4.805
4.799
4.806
4.805
4.805
4.802
4.807
4.805
4.806
4.804
4.804
4.799
4.796
4.792
4.784
4.782
4.779
4.777
4.778
4.777
4.777
4.777
4.774
4.774
4.775
4.775
4.775
4.773
4.774
4.775
4.771
4.770
4.776
4.779
4.777
4.775
4.777
4.783
4.786
4.788
4.784
4.783
4.786
4.787
4.786
4.786
4.777
4.777
4.771
4.768
4.770
