2.980
3.308
3.477
3.590
3.642
3.744
3.843
3.758
3.780
3.830
3.855
3.892
3.911
3.952
3.962
4.005
3.998
4.035
4.026
4.056
4.071
4.100
4.087
4.097
4.117
4.123
4.153
4.165
4.147
4.156
4.170
4.178
4.191
4.204
4.206
4.225
4.243
4.243
4.248
4.267
4.240
4.232
4.249
4.250
4.247
4.254
4.259
4.264
4.272
4.291
4.299
4.286
4.288
4.284
4.307
4.317
4.315
4.318
4.330
4.341
4.348
4.375
4.361
4.342
4.345
4.358
4.367
4.378
4.367
4.377
4.397
4.379
4.399
4.401
4.390
4.365
4.358
4.356
4.378
4.367
4.387
4.376
4.369
4.363
4.342
4.363
4.361
4.375
4.366
4.369
4.390
4.371
4.389
4.382
4.378
4.413
4.406
4.399
4.414
4.391
4.410
4.406
4.391
4.416
4.417
4.408
4.414
4.431
4.424
4.426
4.446
4.445
4.441
4.440
4.468
4.452
4.433
4.443
4.471
4.454
4.431
4.447
4.424
4.412
4.407
4.442
4.439
4.435
4.419
4.428
4.448
4.438
4.432
4.413
4.437
4.447
4.442
4.451
4.436
4.436
4.466
4.465
4.450
4.446
4.441
4.450
4.478
4.489
4.477
4.467
4.469
4.464
4.482
4.493
4.487
4.493
4.491
4.472
4.471
4.497
4.476
4.469
4.475
4.453
4.442
4.468
4.486
4.499
4.486
4.480
4.455
4.467
4.452
4.477
4.503
4.504
4.487
4.502
4.487
4.479
4.481
4.492
4.492
4.517
4.535
4.520
4.533
4.527
4.515
4.505
4.490
4.492
4.510
4.532
4.515
4.518
4.500
4.506
4.504
4.495
4.497
4.496
4.504
4.526
4.542
4.547
4.550
4.540
4.534
4.538
4.548
4.539
4.528
4.535
4.539
4.537
4.558
4.570
4.559
4.560
4.559
4.538
4.552
4.551
4.542
4.528
4.526
4.528
4.540
4.557
4.551
4.556
4.552
4.538
4.549
4.538
4.528
4.514
4.499
4.495
4.494
4.513
4.532
4.534
4.531
4.526
4.531
4.524
4.531
4.534
4.538
4.522
4.520
4.515
4.517
4.500
4.497
4.515
4.525
4.542
4.542
4.535
4.525
4.518
4.507
4.510
4.528
4.519
4.525
4.529
4.522
4.517
4.511
4.502
4.510
4.499
4.515
4.531
4.547
4.541
4.530
4.544
4.543
4.529
4.524
4.532
4.518
4.508
4.516
4.506
4.508
4.513
4.516
4.523
4.526
4.517
4.506
4.507
4.523
4.538
4.553
4.558
4.555
4.548
4.545
4.536
4.536
4.537
4.548
4.550
4.550
4.555
4.546
4.538
4.525
4.516
4.529
4.517
4.523
4.522
4.518
4.509
4.516
4.521
4.535
4.549
4.563
4.577
4.582
4.568
4.572
4.576
4.571
4.585
4.577
4.559
4.546
4.546
4.554
4.553
4.557
4.551
4.561
4.559
4.556
4.554
4.560
4.555
4.554
4.547
4.549
4.547
4.532
4.532
4.538
4.551
4.564
4.576
4.589
4.602
4.615
4.613
4.615
4.602
4.620
4.625
4.612
4.605
4.599
4.596
4.600
4.588
4.574
4.571
4.570
4.577
4.563
4.561
4.563
4.577
4.566
4.558
4.558
4.557
4.546
4.535
4.524
4.514
4.519
4.530
4.541
4.553
4.564
4.576
4.588
4.583
4.586
4.591
4.598
4.587
4.583
4.569
4.569
4.572
4.565
4.569
4.565
4.571
4.583
4.571
4.563
4.565
4.558
4.561
4.559
4.557
4.558
4.562
4.562
4.559
4.553
4.552
4.554
4.541
4.543
4.542
4.535
4.531
4.531
4.539
4.534
4.534
4.535
4.550
4.563
4.555
4.565
4.576
4.586
4.597
4.607
4.617
4.628
4.638
4.638
4.641
4.635
4.636
4.646
4.646
4.638
4.630
4.630
4.627
4.622
4.619
4.626
4.632
4.628
4.613
4.612
4.605
4.598
4.590
4.583
4.586
4.575
4.581
4.567
4.564
4.566
4.571
4.557
4.551
4.560
4.558
4.555
4.543
4.541
4.536
4.531
4.533
4.527
4.519
4.510
4.520
4.520
4.529
4.538
4.548
4.557
4.566
4.575
4.585
4.594
4.600
4.594
4.584
4.588
4.589
4.595
4.601
4.590
4.590
4.599
4.606
4.600
4.598
4.609
4.598
4.587
4.587
4.594
4.589
4.583
4.581
4.583
4.578
4.584
4.573
4.576
4.575
4.582
4.587
4.599
4.592
4.591
4.598
4.602
4.602
4.596
4.594
4.590
4.585
4.577
4.571
4.569
4.556
4.559
4.556
4.549
4.558
4.548
4.558
4.563
4.556
4.559
4.555
4.549
4.558
4.555
4.547
4.548
4.546
4.550
4.549
4.546
4.538
4.542
4.545
4.553
4.561
4.569
4.578
4.585
4.594
4.602
4.610
4.618
4.626
4.634
4.642
4.639
4.635
4.633
4.629
4.631
4.632
4.626
4.620
4.610
4.603
4.606
4.598
4.590
4.582
4.584
4.572
4.576
4.583
4.576
4.581
4.572
4.568
4.572
4.583
4.594
4.598
4.590
4.592
4.594
4.590
4.587
4.583
4.585
4.583
4.579
4.589
4.594
4.588
4.585
4.589
4.598
4.593
4.592
4.589
4.590
4.583
4.593
4.583
4.577
4.567
4.565
4.563
4.563
4.566
4.566
4.569
4.560
4.561
4.565
4.558
4.556
4.550
4.549
4.546
4.537
4.532
4.530
4.521
4.526
4.538
4.546
4.540
4.545
4.536
4.546
4.547
4.551
4.556
4.544
4.546
4.553
4.563
4.567
4.561
4.568
4.575
4.582
4.589
4.596
4.603
4.610
4.616
4.623
4.630
4.637
4.644
4.651
4.658
4.655
4.654
4.651
4.654
4.646
4.649
4.648
4.642
4.646
4.639
4.629
4.633
4.636
4.638
4.639
4.646
4.645
4.650
4.660
4.654
4.646
4.636
4.626
4.618
4.615
4.615
4.609
4.602
4.599
4.600
4.600
4.607
4.618
4.625
4.628
4.625
4.623
4.617
4.611
4.599
4.592
4.596
4.592
4.587
4.590
4.594
4.589
4.600
4.602
4.603
4.611
4.614
4.606
4.610
4.614
4.606
4.606
4.613
4.610
4.610
4.614
4.608
4.618
4.626
4.623
4.624
4.619
4.612
4.605
4.598
4.591
4.589
4.597
4.600
4.595
4.584
4.585
4.577
4.580
4.589
4.587
4.581
4.570
4.576
4.575
4.568
4.570
4.568
4.566
4.566
4.569
4.564
4.572
4.567
4.562
4.556
4.551
4.546
4.549
4.559
4.560
4.558
4.547
4.551
4.550
4.554
4.555
4.555
4.542
4.532
4.531
4.533
4.534
4.540
4.546
4.551
4.557
4.563
4.569
4.574
4.580
4.586
4.592
4.598
4.603
4.609
4.615
4.621
4.626
4.631
4.630
4.634
4.633
4.638
4.633
4.635
4.637
4.642
4.628
4.624
4.614
4.616
4.610
4.601
4.608
4.608
4.604
4.600
4.603
4.612
4.607
4.607
4.602
4.609
4.617
4.624
4.626
4.618
4.619
4.630
4.622
4.624
4.634
4.624
4.621
4.620
4.613
4.609
4.618
4.617
4.624
4.622
4.620
4.615
4.624
4.630
4.630
4.626
4.620
4.611
4.607
4.608
4.608
4.612
4.603
4.614
4.608
4.609
4.605
4.607
4.609
4.607
4.599
4.594
4.594
4.591
4.594
4.589
4.601
4.600
4.596
4.589
4.587
4.584
4.584
4.589
4.585
4.588
4.585
4.582
4.585
4.579
4.585
4.577
4.574
4.573
4.575
4.568
4.575
4.571
4.572
4.572
4.570
4.577
4.571
4.567
4.574
4.570
4.575
4.580
4.580
4.575
4.581
4.569
4.561
4.564
4.563
4.565
4.558
4.565
4.563
4.572
4.573
4.579
4.571
4.567
4.567
4.568
4.572
4.569
4.568
4.576
4.567
4.563
4.562
4.567
4.574
4.567
4.574
4.572
4.566
4.563
4.571
4.577
4.573
4.579
4.583
4.580
4.586
4.593
4.595
4.596
4.586
4.585
4.589
4.583
4.580
4.574
4.568
4.567
4.556
4.555
4.551
4.554
4.559
4.549
4.543
4.544
4.544
4.550
4.551
4.558
4.552
4.544
4.551
4.553
4.550
4.548
4.553
4.555
4.552
4.547
4.537
4.533
4.531
4.525
4.534
4.532
4.534
4.539
4.542
4.546
4.551
4.556
4.560
4.565
4.570
4.574
4.579
4.583
4.588
4.593
4.597
4.602
4.606
4.611
4.616
4.620
4.625
4.630
