2.992
3.329
3.516
3.629
3.726
3.793
3.842
3.900
3.924
3.972
3.979
4.020
4.058
4.029
4.058
4.086
4.113
4.134
4.154
4.179
4.200
4.221
4.208
4.166
4.154
4.166
4.179
4.194
4.197
4.213
4.219
4.232
4.236
4.246
4.258
4.259
4.269
4.279
4.280
4.290
4.299
4.298
4.307
4.314
4.323
4.333
4.327
4.336
4.343
4.350
4.359
4.350
4.359
4.364
4.368
4.379
4.383
4.394
4.395
4.382
4.392
4.396
4.403
4.405
4.409
4.418
4.428
4.426
4.430
4.416
4.427
4.431
4.433
4.435
4.442
4.451
4.450
4.453
4.460
4.464
4.468
4.470
4.474
4.479
4.466
4.465
4.471
4.468
4.471
4.476
4.483
4.486
4.494
4.486
4.494
4.494
4.499
4.511
4.507
4.512
4.513
4.514
4.520
4.520
4.526
4.528
4.538
4.534
4.535
4.519
4.515
4.516
4.516
4.519
4.526
4.527
4.527
4.536
4.537
4.539
4.545
4.541
4.535
4.542
4.543
4.547
4.551
4.555
4.557
4.561
4.562
4.564
4.564
4.568
4.573
4.566
4.565
4.571
4.570
4.575
4.576
4.583
4.583
4.585
4.592
4.597
4.598
4.593
4.597
4.607
4.601
4.604
4.603
4.599
4.608
4.607
4.606
4.596
4.586
4.574
4.579
4.580
4.583
4.594
4.584
4.588
4.594
4.596
4.601
4.593
4.597
4.602
4.598
4.604
4.601
4.612
4.606
4.605
4.609
4.605
4.605
4.601
4.603
4.602
4.611
4.605
4.614
4.608
4.620
4.615
4.620
4.618
4.630
4.626
4.630
4.629
4.631
4.629
4.628
4.637
4.623
4.635
4.634
4.640
4.642
4.638
4.652
4.645
4.650
4.648
4.641
4.642
4.634
4.646
4.645
4.645
4.641
4.642
4.645
4.648
4.642
4.656
4.650
4.649
4.655
4.648
4.655
4.659
4.658
4.659
4.671
4.668
4.666
4.675
4.668
4.670
4.675
4.676
4.666
4.673
4.668
4.670
4.679
4.683
4.677
4.676
4.688
4.684
4.680
4.690
4.697
4.687
4.685
4.698
4.697
4.695
4.693
4.694
4.685
4.683
4.691
4.686
4.690
4.690
4.699
4.700
4.688
4.692
4.691
4.692
4.686
4.695
4.693
4.690
4.694
4.697
4.701
4.701
4.697
4.698
4.710
4.714
4.710
4.708
4.708
4.720
4.713
4.716
4.712
4.717
4.723
4.720
4.720
4.712
4.723
4.716
4.710
4.703
4.697
4.692
4.685
4.687
4.691
4.692
4.686
4.676
4.688
4.690
4.688
4.687
4.685
4.689
4.696
4.695
4.694
4.687
4.693
4.698
4.699
4.692
4.690
4.687
4.694
4.706
4.705
4.700
4.701
4.700
4.699
4.709
4.712
4.708
4.707
4.706
4.708
4.716
4.724
4.723
4.718
4.711
4.712
4.708
4.701
4.698
4.699
4.695
4.699
4.711
4.712
4.708
4.699
4.695
4.693
4.703
4.696
4.694
4.696
4.692
4.694
4.697
4.708
4.706
4.702
4.698
4.696
4.694
4.697
4.708
4.708
4.708
4.708
4.706
4.701
4.703
4.707
4.717
4.723
4.717
4.718
4.725
4.718
4.709
4.712
4.722
4.729
4.723
4.723
4.714
4.716
4.716
4.713
4.723
4.718
4.722
4.723
4.722
4.724
4.722
4.720
4.723
4.734
4.730
4.729
4.723
4.727
4.725
4.726
4.722
4.727
4.738
4.746
4.747
4.745
4.744
4.738
4.739
4.735
4.736
4.740
4.741
4.737
4.733
4.727
4.728
4.731
4.727
4.729
4.736
4.745
4.747
4.738
4.736
4.737
4.736
4.727
4.723
4.727
4.736
4.742
4.745
4.743
4.741
4.738
4.739
4.742
4.739
4.738
4.736
4.745
4.755
4.754
4.753
4.756
4.752
4.753
4.749
4.749
4.750
4.746
4.749
4.754
4.755
4.754
4.750
4.754
4.750
4.754
4.753
4.753
4.752
4.751
4.757
4.765
4.769
4.773
4.769
4.771
4.771
4.768
4.769
4.765
4.769
4.767
4.761
4.767
4.775
4.773
4.775
4.778
4.782
4.775
4.768
4.765
4.768
4.764
4.760
4.762
4.772
4.778
4.772
4.768
4.763
4.757
4.752
4.746
4.744
4.742
4.742
4.753
4.760
4.760
4.757
4.760
4.763
4.757
4.753
4.748
4.750
4.754
4.752
4.749
4.750
4.753
4.750
4.748
4.749
4.745
4.744
4.746
4.745
4.745
4.749
4.748
4.745
4.743
4.741
4.748
4.755
4.765
4.764
4.767
4.761
4.760
4.755
4.749
4.749
4.753
4.758
4.759
4.752
4.754
4.750
4.754
4.761
4.768
4.777
4.776
4.768
4.768
4.764
4.764
4.766
4.765
4.763
4.756
4.755
4.754
4.752
4.751
4.760
4.765
4.774
4.771
4.764
4.764
4.766
4.762
4.763
4.764
4.758
4.753
4.752
4.754
4.755
4.749
4.749
4.756
4.763
4.771
4.777
4.778
4.780
4.779
4.775
4.773
4.769
4.775
4.774
4.768
4.768
4.770
4.768
4.760
4.766
4.765
4.768
4.768
4.777
4.783
4.791
4.790
4.791
4.792
4.790
4.787
4.785
4.784
4.782
4.778
4.775
4.771
4.772
4.771
4.771
4.778
4.777
4.771
4.779
4.784
4.793
4.792
4.788
4.786
4.783
4.783
4.786
4.783
4.783
4.790
4.786
4.786
4.780
4.779
4.780
4.779
4.785
4.786
4.779
4.779
4.786
4.792
4.799
4.806
4.812
4.806
4.808
4.809
4.810
4.812
4.808
4.806
4.804
4.805
4.797
4.795
4.794
4.798
4.801
4.798
4.796
4.798
4.797
4.794
4.797
4.803
4.810
4.811
4.812
4.811
4.808
4.808
4.804
4.803
4.805
4.803
4.797
4.797
4.794
4.789
4.785
4.779
4.775
4.773
4.774
4.775
4.782
4.789
4.794
4.801
4.804
4.803
4.797
4.801
4.804
4.803
4.802
4.805
4.804
4.800
4.791
4.795
4.793
4.792
4.786
4.781
4.780
4.778
4.779
4.779
4.777
4.776
4.783
4.787
4.794
4.800
4.801
4.800
4.801
4.803
4.804
4.805
4.799
4.800
4.796
4.797
4.801
4.798
4.797
4.794
4.791
4.797
4.796
4.795
4.797
4.801
4.801
4.801
4.799
4.792
4.786
4.790
4.794
4.801
4.807
4.811
4.810
4.812
4.813
4.808
4.805
4.806
4.801
4.806
4.804
4.806
4.808
4.806
4.807
4.801
4.804
4.803
4.805
4.805
4.805
4.808
4.805
4.803
4.801
4.800
4.801
4.801
4.810
4.805
4.807
4.814
4.818
4.825
4.831
4.827
4.827
4.828
4.827
4.827
4.823
4.819
4.816
4.814
4.816
4.817
4.820
4.816
4.820
4.822
4.827
4.823
4.823
4.823
4.823
4.823
4.824
4.822
4.824
4.823
4.823
4.822
4.816
4.814
4.816
4.820
4.827
4.831
4.837
4.841
4.837
4.833
4.840
4.838
4.838
4.838
4.835
4.836
4.837
4.834
4.831
4.828
4.831
4.830
4.827
4.828
4.827
4.831
4.831
4.827
4.823
4.822
4.826
4.823
4.821
4.817
4.813
4.808
4.805
4.811
4.816
4.822
4.826
4.833
4.834
4.831
4.831
4.825
4.829
4.831
4.829
4.825
4.826
4.828
4.827
4.828
4.829
4.830
4.834
4.828
4.829
4.830
4.834
4.827
4.826
4.822
4.820
4.822
4.818
4.816
4.815
4.812
4.816
4.814
4.815
4.817
4.816
4.816
4.818
4.823
4.823
4.828
4.834
4.838
4.843
4.849
4.853
4.855
4.853
4.850
4.846
4.844
4.851
4.852
4.848
4.845
4.848
4.847
4.845
4.847
4.845
4.842
4.842
4.842
4.842
4.838
4.842
4.844
4.846
4.849
4.853
4.847
4.848
4.847
4.846
4.844
4.842
4.842
4.840
4.844
4.843
4.839
4.840
4.842
4.838
4.838
4.840
4.845
4.849
4.855
4.860
4.864
4.868
4.874
4.871
4.866
4.864
4.863
4.860
4.860
4.864
4.863
4.860
4.863
4.859
4.860
4.859
4.863
4.860
4.858
4.859
4.855
4.857
4.858
4.856
4.855
4.853
4.850
4.848
4.844
4.842
4.839
4.837
4.834
4.832
4.830
4.826
4.823
4.821
4.819
4.824
4.830
4.834
4.839
4.843
4.847
4.845
4.842
4.837
4.836
4.834
4.833
4.838
4.838
4.834
4.834
4.834
