2.819
2.993
3.208
3.350
3.392
3.403
3.511
3.548
3.647
3.545
3.668
3.599
3.774
3.638
3.678
3.750
3.704
3.724
3.750
3.769
3.766
3.833
3.757
3.879
3.772
3.751
3.809
3.716
3.693
3.815
3.784
3.828
3.778
3.752
3.862
3.942
3.862
3.777
3.738
3.753
3.846
3.940
4.008
3.929
3.860
3.860
3.794
3.733
3.800
3.878
3.955
3.931
3.916
3.834
3.809
3.872
3.841
3.772
3.769
3.756
3.771
3.834
3.878
3.940
4.001
4.048
3.967
3.951
3.918
3.897
3.879
3.873
3.875
3.774
3.797
3.795
3.742
3.735
3.781
3.772
3.733
3.757
3.802
3.848
3.894
3.940
3.985
3.987
3.959
4.004
4.053
4.056
3.989
3.938
3.893
3.886
3.867
3.892
3.926
3.945
3.899
3.853
3.807
3.763
3.758
3.741
3.716
3.728
3.780
3.802
3.786
3.800
3.770
3.809
3.847
3.857
3.830
3.773
3.837
3.802
3.766
3.784
3.765
3.758
3.788
3.819
3.849
3.879
3.909
3.940
3.970
4.000
4.031
4.020
4.053
3.997
4.027
3.951
3.971
3.966
3.948
3.949
3.895
3.904
3.907
3.934
3.982
3.953
3.918
3.924
3.954
3.971
3.933
3.959
3.960
3.985
3.949
3.878
3.880
3.920
3.943
3.908
3.894
3.887
3.865
3.864
3.880
3.834
3.847
3.814
3.781
3.753
3.782
3.826
3.830
3.793
3.783
3.808
3.770
3.761
3.751
3.801
3.798
3.781
3.803
3.780
3.753
3.750
3.739
3.727
3.763
3.798
3.816
3.788
3.804
3.823
3.819
3.806
3.788
3.791
3.781
3.814
3.856
3.859
3.858
3.828
3.799
3.770
3.773
3.724
3.715
3.690
3.706
3.720
3.722
3.715
3.728
3.736
3.731
3.757
3.783
3.809
3.834
3.847
3.877
3.846
3.873
3.835
3.836
3.838
3.845
3.867
3.852
3.849
3.882
3.870
3.865
3.903
3.848
3.861
3.871
3.860
3.855
3.836
3.824
3.816
3.776
3.754
3.776
3.770
3.775
3.790
3.805
3.820
3.835
3.850
3.865
3.880
3.895
3.910
3.925
3.940
3.955
3.970
3.985
4.000
4.015
4.030
4.045
4.060
4.075
4.090
4.096
4.072
4.050
4.011
4.009
4.040
4.054
4.071
4.074
4.047
4.027
4.015
4.034
4.032
4.056
4.044
4.024
4.038
3.970
3.969
3.964
3.985
3.945
3.945
3.969
3.992
3.998
4.028
4.003
4.018
4.022
3.998
3.997
3.981
3.993
3.986
3.955
3.985
3.972
3.967
3.994
3.993
4.032
4.009
3.983
3.961
3.938
3.923
3.897
3.928
3.910
3.868
3.855
3.858
3.860
3.858
3.885
3.893
3.867
3.890
3.883
3.840
3.853
3.838
3.847
3.862
3.878
3.864
3.867
3.834
3.851
3.879
3.887
3.875
3.835
3.828
3.819
3.819
3.832
3.829
3.851
3.873
3.894
3.916
3.926
3.941
3.933
3.921
3.920
3.898
3.877
3.855
3.834
3.813
3.802
3.811
3.800
3.805
3.821
3.792
3.820
3.829
3.813
3.814
3.817
3.849
3.855
3.845
3.848
3.815
3.832
3.847
3.841
3.835
3.819
3.796
3.810
3.787
3.802
3.820
3.808
3.789
3.788
3.758
3.764
3.754
3.777
3.799
3.811
3.848
3.808
3.791
3.772
3.787
3.789
3.809
3.830
3.847
3.859
3.841
3.834
3.818
3.819
3.820
3.790
3.788
3.772
3.773
3.793
3.779
3.793
3.814
3.841
3.814
3.806
3.811
3.781
3.783
3.805
3.785
3.755
3.772
3.805
3.773
3.773
3.793
3.776
3.785
3.795
3.794
3.784
3.800
3.806
3.808
3.810
3.823
3.836
3.849
3.861
3.874
3.887
3.900
3.913
3.912
3.908
3.906
3.880
3.855
3.829
3.828
3.856
3.871
3.864
3.882
3.900
3.910
3.880
3.884
3.892
3.915
3.905
3.914
3.912
3.915
3.910
3.919
3.916
3.875
3.884
3.910
3.892
3.883
3.891
3.883
3.880
3.867
3.890
3.869
3.847
3.850
3.864
3.846
3.828
3.811
3.822
3.840
3.812
3.796
3.793
3.831
3.809
3.803
3.824
3.828
3.818
3.811
3.833
3.812
3.811
3.808
3.810
3.838
3.833
3.834
3.852
3.860
3.833
3.854
3.844
3.864
3.843
3.827
3.836
3.837
3.842
3.842
3.850
3.824
3.838
3.829
3.815
3.819
3.824
3.836
3.845
3.836
3.840
3.823
3.806
3.789
3.808
3.807
3.784
3.777
3.802
3.786
3.774
3.775
3.755
3.768
3.790
3.763
3.777
3.784
3.781
3.787
3.795
3.782
3.775
3.766
3.764
3.781
3.798
3.815
3.827
3.832
3.868
3.838
3.819
3.821
3.813
3.808
3.784
3.806
3.810
3.794
3.817
3.835
3.850
3.843
3.816
3.816
3.823
3.835
3.846
3.858
3.856
3.853
3.834
3.864
3.836
3.852
3.866
3.834
3.841
3.847
3.862
3.877
3.870
3.869
3.869
3.863
3.867
3.884
3.890
3.867
3.853
3.843
3.821
3.840
3.840
3.848
3.831
3.828
3.837
3.854
3.843
3.845
3.842
3.871
3.865
3.871
3.888
3.888
3.861
3.859
3.858
3.843
3.841
3.840
3.838
3.855
3.851
3.830
3.809
3.820
3.789
3.761
3.775
3.787
3.793
3.777
3.795
3.820
3.803
3.802
3.796
3.801
3.788
3.806
3.803
3.795
3.797
3.796
3.797
3.792
3.775
3.804
3.819
3.819
3.795
3.806
3.822
3.839
3.856
3.869
3.847
3.864
3.829
3.814
3.799
3.821
3.833
3.828
3.817
3.812
3.803
3.791
3.780
3.793
3.814
3.791
3.786
3.802
3.791
3.814
3.794
3.787
3.788
3.780
3.784
3.770
3.767
3.769
3.763
3.760
3.758
3.758
3.771
3.766
3.787
3.788
3.798
3.809
3.820
3.831
3.841
3.852
3.863
3.859
3.830
3.838
3.854
3.870
3.887
3.903
3.896
3.890
3.877
3.876
3.859
3.851
3.837
3.852
3.841
3.820
3.829
3.840
3.856
3.868
3.850
3.833
3.833
3.839
3.857
3.847
3.828
3.808
3.790
3.810
3.806
3.805
3.807
3.806
3.819
3.829
3.823
3.829
3.835
3.846
3.824
3.808
3.807
3.796
3.826
3.809
3.812
3.843
3.840
3.845
3.841
3.847
3.828
3.820
3.811
3.818
3.825
3.834
3.832
3.823
3.809
3.806
3.803
3.803
3.811
3.805
3.818
3.820
3.812
3.792
3.775
3.794
3.790
3.797
3.773
3.782
3.777
3.779
3.801
3.783
3.793
3.790
3.789
3.782
3.774
3.782
3.759
3.779
3.769
3.784
3.774
3.782
3.802
3.805
3.820
3.824
3.827
3.810
3.807
3.828
3.838
3.852
3.842
3.829
3.807
3.814
3.819
3.808
3.817
3.828
3.838
3.819
3.811
3.839
3.830
3.842
3.854
3.851
3.822
3.826
3.831
3.844
3.851
3.870
3.856
3.851
3.849
3.851
3.834
3.841
3.838
3.820
3.831
3.829
3.809
3.828
3.827
3.833
3.824
3.809
3.820
3.829
3.835
3.837
3.845
3.852
3.844
3.837
3.847
3.860
3.864
3.875
3.863
3.850
3.837
3.824
3.811
3.822
3.808
3.793
3.794
3.783
3.812
3.812
3.797
3.792
3.798
3.803
3.790
3.760
3.763
3.768
3.771
3.791
3.790
3.791
3.808
3.780
3.792
3.798
3.798
3.806
3.820
3.823
3.817
3.806
3.804
3.820
3.793
3.805
3.815
3.820
3.832
3.826
3.810
3.812
3.801
3.786
3.789
3.794
3.802
3.813
3.815
3.807
3.815
3.807
3.794
3.803
3.790
3.784
3.792
3.789
3.791
3.780
3.789
3.799
3.808
3.818
3.828
3.833
3.843
3.831
3.824
3.827
3.840
3.832
3.824
3.828
3.850
3.841
3.855
3.841
3.830
3.844
3.841
3.852
3.857
3.851
3.825
3.833
3.843
3.856
3.854
3.851
3.847
3.860
3.843
3.865
3.869
3.843
3.856
3.843
3.831
3.819
3.807
3.795
3.785
3.794
3.802
3.810
3.801
3.813
3.826
3.811
3.815
3.815
3.815
3.809
3.801
3.798
3.773
3.780
3.767
3.783
3.789
3.802
3.816
3.824
3.821
3.834
3.819
3.805
3.817
3.805
3.825
3.817
3.814
3.822
