2.990
3.335
3.509
3.631
3.724
3.768
3.849
3.868
3.927
3.913
3.954
3.995
4.031
4.062
4.098
4.115
4.053
4.052
4.066
4.082
4.092
4.119
4.124
4.134
4.155
4.157
4.175
4.191
4.192
4.205
4.215
4.221
4.236
4.244
4.237
4.250
4.261
4.272
4.280
4.275
4.281
4.292
4.298
4.310
4.313
4.325
4.315
4.320
4.331
4.335
4.335
4.352
4.358
4.361
4.371
4.380
4.363
4.361
4.367
4.376
4.387
4.381
4.391
4.395
4.403
4.416
4.409
4.412
4.419
4.427
4.431
4.440
4.418
4.408
4.418
4.422
4.433
4.430
4.434
4.435
4.443
4.439
4.447
4.453
4.456
4.459
4.464
4.469
4.462
4.472
4.470
4.479
4.486
4.490
4.492
4.490
4.496
4.495
4.504
4.504
4.509
4.504
4.511
4.509
4.491
4.481
4.476
4.490
4.495
4.495
4.503
4.499
4.498
4.505
4.514
4.513
4.502
4.501
4.501
4.508
4.512
4.512
4.514
4.523
4.519
4.526
4.536
4.537
4.530
4.533
4.531
4.541
4.543
4.543
4.550
4.553
4.551
4.539
4.547
4.549
4.539
4.553
4.553
4.556
4.547
4.556
4.555
4.569
4.568
4.572
4.569
4.572
4.578
4.573
4.569
4.569
4.586
4.579
4.588
4.584
4.589
4.600
4.589
4.603
4.594
4.597
4.608
4.599
4.601
4.596
4.595
4.605
4.594
4.602
4.590
4.590
4.604
4.600
4.595
4.614
4.616
4.613
4.621
4.617
4.611
4.625
4.636
4.619
4.625
4.638
4.636
4.629
4.642
4.635
4.625
4.615
4.606
4.596
4.589
4.586
4.597
4.600
4.599
4.595
4.607
4.595
4.595
4.596
4.610
4.613
4.601
4.605
4.617
4.619
4.622
4.620
4.617
4.628
4.625
4.624
4.617
4.618
4.610
4.606
4.608
4.607
4.606
4.606
4.604
4.608
4.611
4.603
4.597
4.607
4.605
4.611
4.607
4.600
4.610
4.625
4.618
4.618
4.622
4.615
4.625
4.630
4.626
4.627
4.625
4.623
4.627
4.627
4.629
4.623
4.619
4.633
4.638
4.631
4.630
4.628
4.627
4.637
4.652
4.649
4.649
4.643
4.640
4.645
4.654
4.656
4.649
4.639
4.635
4.632
4.649
4.647
4.646
4.645
4.643
4.630
4.639
4.648
4.657
4.654
4.647
4.643
4.645
4.643
4.657
4.667
4.663
4.666
4.660
4.654
4.643
4.652
4.668
4.672
4.665
4.663
4.669
4.660
4.660
4.660
4.673
4.688
4.690
4.685
4.684
4.676
4.676
4.670
4.672
4.687
4.690
4.677
4.683
4.683
4.684
4.676
4.682
4.679
4.693
4.688
4.679
4.671
4.662
4.654
4.651
4.664
4.672
4.671
4.677
4.672
4.662
4.664
4.656
4.652
4.658
4.669
4.669
4.663
4.662
4.662
4.659
4.653
4.655
4.653
4.657
4.670
4.682
4.680
4.683
4.681
4.673
4.675
4.674
4.670
4.661
4.662
4.675
4.679
4.678
4.679
4.683
4.682
4.678
4.676
4.669
4.661
4.658
4.670
4.672
4.679
4.680
4.677
4.673
4.683
4.680
4.678
4.675
4.668
4.669
4.669
4.681
4.693
4.704
4.704
4.697
4.702
4.695
4.688
4.689
4.689
4.680
4.682
4.675
4.682
4.694
4.702
4.696
4.696
4.690
4.693
4.689
4.691
4.688
4.690
4.680
4.688
4.690
4.689
4.696
4.707
4.717
4.715
4.714
4.712
4.714
4.712
4.717
4.715
4.715
4.706
4.700
4.701
4.704
4.701
4.709
4.720
4.731
4.726
4.724
4.721
4.722
4.721
4.718
4.711
4.706
4.704
4.701
4.709
4.707
4.699
4.709
4.712
4.710
4.705
4.711
4.714
4.715
4.714
4.702
4.697
4.699
4.698
4.694
4.687
4.690
4.688
4.697
4.707
4.717
4.709
4.712
4.705
4.713
4.709
4.705
4.705
4.715
4.714
4.707
4.708
4.710
4.715
4.709
4.705
4.697
4.701
4.711
4.721
4.724
4.717
4.717
4.723
4.724
4.717
4.719
4.719
4.718
4.715
4.713
4.714
4.722
4.728
4.725
4.719
4.717
4.712
4.710
4.719
4.729
4.738
4.739
4.735
4.741
4.731
4.738
4.741
4.740
4.739
4.742
4.742
4.738
4.738
4.742
4.738
4.734
4.729
4.725
4.730
4.731
4.725
4.729
4.738
4.747
4.756
4.760
4.756
4.763
4.754
4.753
4.747
4.747
4.742
4.742
4.745
4.741
4.742
4.738
4.736
4.740
4.734
4.726
4.719
4.712
4.721
4.729
4.738
4.746
4.752
4.754
4.752
4.752
4.750
4.747
4.743
4.738
4.742
4.746
4.741
4.739
4.739
4.734
4.733
4.732
4.739
4.738
4.740
4.735
4.735
4.731
4.731
4.735
4.736
4.744
4.751
4.760
4.766
4.770
4.766
4.767
4.769
4.767
4.769
4.769
4.776
4.772
4.765
4.769
4.770
4.767
4.766
4.766
4.764
4.761
4.758
4.758
4.759
4.768
4.767
4.767
4.759
4.763
4.761
4.761
4.760
4.767
4.775
4.783
4.789
4.793
4.792
4.787
4.783
4.782
4.776
4.774
4.774
4.773
4.779
4.780
4.773
4.781
4.777
4.773
4.768
4.764
4.759
4.755
4.751
4.746
4.742
4.738
4.733
4.736
4.743
4.751
4.758
4.765
4.758
4.757
4.766
4.762
4.764
4.768
4.764
4.768
4.762
4.759
4.760
4.758
4.758
4.753
4.748
4.742
4.737
4.732
4.726
4.721
4.730
4.730
4.733
4.732
4.727
4.730
4.733
4.730
4.726
4.730
4.733
4.739
4.746
4.753
4.760
4.768
4.761
4.755
4.754
4.752
4.750
4.741
4.736
4.733
4.742
4.751
4.754
4.749
4.746
4.740
4.744
4.745
4.738
4.735
4.740
4.737
4.742
4.738
4.733
4.732
4.730
4.734
4.734
4.739
4.736
4.733
4.734
4.731
4.735
4.744
4.736
4.741
4.748
4.755
4.761
4.768
4.772
4.766
4.761
4.755
4.759
4.755
4.753
4.752
4.754
4.753
4.751
4.745
4.741
4.739
4.738
4.737
4.732
4.730
4.731
4.732
4.737
4.738
4.735
4.737
4.735
4.731
4.731
4.729
4.734
4.736
4.731
4.728
4.725
4.717
4.717
4.721
4.719
4.724
4.731
4.737
4.743
4.749
4.755
4.762
4.768
4.774
4.772
4.772
4.771
4.771
4.772
4.772
4.780
4.776
4.769
4.771
4.771
4.771
4.771
4.765
4.760
4.755
4.754
4.752
4.753
4.747
4.745
4.747
4.749
4.747
4.743
4.738
4.739
4.739
4.733
4.727
4.724
4.730
4.735
4.732
4.737
4.738
4.733
4.736
4.738
4.737
4.736
4.730
4.730
4.733
4.739
4.745
4.751
4.756
4.762
4.768
4.770
4.771
4.770
4.766
4.764
4.769
4.763
4.767
4.768
4.771
4.767
4.764
4.761
4.757
4.760
4.761
4.758
4.757
4.760
4.769
4.771
4.773
4.771
4.771
4.766
4.759
4.754
4.755
4.758
4.762
4.760
4.757
4.756
4.752
4.753
4.751
4.757
4.754
4.748
4.742
4.737
4.733
4.730
4.735
4.728
4.728
4.728
4.727
4.723
4.723
4.729
4.734
4.740
4.745
4.751
4.756
4.762
4.767
4.772
4.778
4.783
4.789
4.792
4.788
4.792
4.788
4.786
4.784
4.782
4.781
4.779
4.779
4.777
4.782
4.779
4.778
4.775
4.774
4.772
4.765
4.773
4.771
4.774
4.775
4.777
4.778
4.775
4.773
4.767
4.764
4.764
4.764
4.760
4.757
4.753
4.754
4.758
4.755
4.759
4.756
4.754
4.753
4.753
4.751
4.756
4.755
4.761
4.763
4.765
4.764
4.766
4.762
4.753
4.748
4.747
4.745
4.743
4.740
4.741
4.746
4.746
4.751
4.756
4.761
4.766
4.771
4.776
4.781
4.786
4.791
4.796
4.792
4.793
4.792
4.798
4.796
4.796
4.795
4.795
4.795
4.789
4.794
4.794
4.801
4.804
4.805
4.798
4.802
4.801
4.794
4.788
4.787
4.785
4.784
4.781
4.783
4.785
4.786
4.787
4.790
4.786
4.788
4.789
4.785
4.784
4.784
4.784
4.777
4.781
4.785
4.789
4.784
4.783
4.782
4.782
4.778
4.781
4.785
4.784
4.781
4.781
4.781
4.777
4.775
4.769
4.774
4.771
