2.992
3.320
3.495
3.634
3.707
3.777
3.813
3.885
3.870
3.922
3.968
4.006
4.047
4.077
4.026
4.011
4.032
4.050
4.067
4.081
4.090
4.114
4.120
4.136
4.144
4.164
4.176
4.175
4.190
4.208
4.202
4.221
4.230
4.238
4.236
4.244
4.259
4.267
4.281
4.289
4.277
4.277
4.289
4.296
4.305
4.319
4.319
4.332
4.343
4.318
4.324
4.339
4.344
4.347
4.356
4.363
4.369
4.368
4.380
4.384
4.388
4.398
4.402
4.376
4.381
4.386
4.391
4.394
4.405
4.398
4.407
4.404
4.419
4.422
4.425
4.429
4.435
4.435
4.435
4.440
4.447
4.456
4.456
4.466
4.461
4.468
4.470
4.473
4.466
4.474
4.468
4.448
4.449
4.456
4.464
4.459
4.462
4.474
4.476
4.476
4.468
4.469
4.463
4.472
4.474
4.478
4.484
4.484
4.490
4.505
4.499
4.483
4.502
4.506
4.505
4.513
4.514
4.512
4.512
4.515
4.510
4.508
4.513
4.518
4.521
4.513
4.525
4.524
4.539
4.528
4.544
4.531
4.542
4.537
4.543
4.540
4.549
4.543
4.563
4.560
4.565
4.559
4.571
4.565
4.567
4.558
4.561
4.566
4.561
4.561
4.553
4.567
4.564
4.561
4.576
4.576
4.576
4.579
4.577
4.589
4.599
4.589
4.598
4.600
4.595
4.605
4.602
4.601
4.600
4.589
4.578
4.567
4.556
4.570
4.562
4.564
4.572
4.564
4.565
4.572
4.579
4.571
4.564
4.587
4.588
4.588
4.581
4.595
4.596
4.583
4.589
4.589
4.577
4.569
4.576
4.580
4.575
4.569
4.578
4.574
4.566
4.566
4.580
4.580
4.571
4.569
4.581
4.590
4.597
4.585
4.576
4.593
4.601
4.597
4.595
4.580
4.599
4.600
4.593
4.590
4.582
4.603
4.604
4.601
4.600
4.601
4.603
4.621
4.618
4.619
4.617
4.610
4.615
4.618
4.607
4.606
4.604
4.602
4.620
4.621
4.606
4.602
4.604
4.605
4.624
4.622
4.618
4.624
4.619
4.618
4.621
4.639
4.633
4.618
4.622
4.622
4.618
4.630
4.639
4.644
4.643
4.639
4.636
4.642
4.636
4.650
4.651
4.646
4.647
4.655
4.648
4.638
4.645
4.662
4.662
4.660
4.653
4.651
4.650
4.650
4.650
4.640
4.631
4.625
4.623
4.619
4.627
4.634
4.647
4.642
4.631
4.627
4.621
4.618
4.614
4.625
4.634
4.642
4.634
4.636
4.628
4.626
4.632
4.637
4.630
4.640
4.655
4.646
4.647
4.642
4.641
4.630
4.628
4.632
4.635
4.645
4.653
4.644
4.638
4.630
4.633
4.630
4.630
4.630
4.631
4.641
4.655
4.657
4.658
4.651
4.650
4.648
4.650
4.652
4.653
4.652
4.648
4.656
4.665
4.666
4.663
4.670
4.665
4.662
4.662
4.648
4.637
4.647
4.646
4.659
4.672
4.680
4.674
4.671
4.675
4.663
4.676
4.670
4.672
4.675
4.665
4.665
4.667
4.678
4.690
4.699
4.696
4.690
4.688
4.686
4.675
4.676
4.679
4.680
4.674
4.677
4.678
4.683
4.695
4.694
4.689
4.680
4.672
4.669
4.667
4.665
4.667
4.666
4.666
4.664
4.663
4.675
4.679
4.680
4.674
4.660
4.673
4.665
4.664
4.668
4.667
4.664
4.664
4.664
4.663
4.667
4.667
4.678
4.689
4.696
4.684
4.682
4.687
4.687
4.682
4.677
4.674
4.670
4.673
4.676
4.681
4.683
4.676
4.671
4.677
4.688
4.699
4.710
4.702
4.697
4.699
4.696
4.699
4.699
4.703
4.697
4.689
4.691
4.692
4.691
4.693
4.697
4.692
4.702
4.700
4.702
4.713
4.723
4.726
4.731
4.725
4.725
4.719
4.717
4.708
4.707
4.713
4.716
4.718
4.707
4.704
4.703
4.697
4.695
4.688
4.699
4.709
4.718
4.718
4.718
4.713
4.715
4.712
4.708
4.703
4.701
4.702
4.704
4.702
4.700
4.695
4.699
4.705
4.701
4.702
4.694
4.698
4.696
4.705
4.715
4.724
4.734
4.733
4.731
4.728
4.726
4.734
4.728
4.733
4.725
4.723
4.724
4.733
4.728
4.732
4.732
4.731
4.726
4.719
4.716
4.718
4.719
4.720
4.721
4.727
4.734
4.737
4.746
4.755
4.761
4.752
4.753
4.748
4.745
4.738
4.736
4.741
4.738
4.740
4.741
4.744
4.739
4.740
4.739
4.738
4.731
4.730
4.733
4.736
4.740
4.734
4.737
4.728
4.733
4.728
4.723
4.723
4.726
4.731
4.732
4.725
4.723
4.722
4.720
4.721
4.719
4.717
4.718
4.720
4.720
4.715
4.714
4.711
4.716
4.718
4.716
4.711
4.705
4.699
4.698
4.706
4.714
4.722
4.731
4.738
4.738
4.735
4.724
4.714
4.715
4.715
4.711
4.706
4.717
4.725
4.725
4.715
4.705
4.703
4.704
4.702
4.699
4.695
4.697
4.696
4.695
4.689
4.692
4.699
4.701
4.692
4.689
4.696
4.705
4.708
4.716
4.724
4.732
4.739
4.739
4.737
4.738
4.736
4.732
4.737
4.735
4.728
4.734
4.736
4.733
4.726
4.719
4.713
4.707
4.708
4.701
4.704
4.709
4.706
4.704
4.703
4.696
4.693
4.695
4.695
4.690
4.691
4.688
4.688
4.687
4.694
4.701
4.709
4.716
4.723
4.730
4.732
4.735
4.727
4.729
4.728
4.729
4.730
4.740
4.739
4.735
4.738
4.738
4.735
4.742
4.738
4.740
4.740
4.732
4.730
4.728
4.725
4.719
4.715
4.714
4.710
4.705
4.702
4.703
4.707
4.705
4.708
4.710
4.711
4.713
4.708
4.701
4.694
4.695
4.701
4.708
4.715
4.722
4.729
4.736
4.738
4.741
4.734
4.737
4.739
4.740
4.736
4.732
4.732
4.738
4.734
4.727
4.723
4.722
4.720
4.721
4.724
4.730
4.728
4.727
4.730
4.733
4.725
4.723
4.725
4.721
4.724
4.731
4.726
4.718
4.720
4.721
4.716
4.723
4.724
4.722
4.717
4.712
4.713
4.711
4.705
4.700
4.704
4.701
4.707
4.714
4.720
4.726
4.733
4.739
4.745
4.752
4.754
4.749
4.754
4.755
4.753
4.759
4.753
4.758
4.754
4.747
4.746
4.741
4.742
4.748
4.741
4.731
4.730
4.730
4.734
4.735
4.735
4.738
4.741
4.738
4.736
4.729
4.727
4.725
4.723
4.727
4.736
4.735
4.738
4.737
4.736
4.733
4.728
4.723
4.720
4.717
4.716
4.714
4.719
4.719
4.716
4.712
4.711
4.709
4.714
4.712
4.715
4.721
4.727
4.733
4.738
4.744
4.750
4.756
4.762
4.766
4.765
4.766
4.762
4.763
4.769
4.772
4.767
4.762
4.765
4.761
4.762
4.770
4.771
4.770
4.765
4.767
4.765
4.758
4.750
4.750
4.752
4.754
4.751
4.754
4.750
4.750
4.744
4.744
4.741
4.735
4.736
4.735
4.741
4.748
4.751
4.754
4.749
4.756
4.748
4.751
4.747
4.749
4.745
4.743
4.744
4.735
4.735
4.735
4.739
4.747
4.749
4.749
4.748
4.740
4.737
4.741
4.740
4.741
4.741
4.741
4.741
4.741
4.746
4.752
4.757
4.763
4.768
4.774
4.779
4.784
4.790
4.795
4.801
4.803
4.797
4.790
4.796
4.791
4.796
4.798
4.795
4.796
4.797
4.796
4.794
4.793
4.792
4.794
4.790
4.788
4.784
4.778
4.773
4.768
4.766
4.761
4.762
4.770
4.777
4.784
4.784
4.779
4.774
4.774
4.769
4.768
4.774
4.777
4.777
4.770
4.764
4.758
4.759
4.758
4.759
4.757
4.758
4.754
4.752
4.751
4.753
4.755
4.750
4.746
4.742
4.737
4.733
4.734
4.735
4.733
4.730
4.728
4.728
4.722
4.718
4.717
4.722
4.727
4.732
4.737
4.742
4.747
4.752
4.757
4.762
4.767
4.772
4.777
4.780
4.783
4.781
4.783
4.781
4.779
4.777
4.774
4.770
4.775
4.775
4.774
4.772
4.772
4.775
4.772
4.772
4.769
4.769
4.765
4.762
4.761
4.761
4.760
4.761
4.761
4.758
4.759
4.758
4.753
4.754
4.753
4.753
4.746
4.748
4.753
4.749
4.745
4.750
4.747
4.742
4.741
4.741
4.746
4.742
4.741
4.746
4.745
4.750
4.749
