2.988
3.323
3.500
3.614
3.692
3.763
3.822
3.874
3.939
3.918
3.959
4.000
4.037
4.071
4.104
4.050
4.030
4.049
4.068
4.078
4.091
4.117
4.122
4.143
4.146
4.164
4.167
4.181
4.202
4.197
4.210
4.225
4.222
4.230
4.248
4.259
4.267
4.257
4.268
4.281
4.287
4.302
4.308
4.301
4.302
4.313
4.321
4.323
4.334
4.347
4.341
4.356
4.364
4.348
4.346
4.359
4.363
4.366
4.364
4.377
4.384
4.390
4.396
4.397
4.402
4.413
4.417
4.420
4.402
4.392
4.403
4.416
4.412
4.419
4.426
4.420
4.420
4.429
4.434
4.443
4.439
4.453
4.455
4.452
4.457
4.453
4.460
4.471
4.478
4.479
4.483
4.480
4.489
4.492
4.495
4.490
4.496
4.499
4.479
4.470
4.470
4.471
4.481
4.472
4.477
4.490
4.492
4.499
4.502
4.487
4.487
4.486
4.493
4.501
4.500
4.496
4.514
4.506
4.516
4.526
4.516
4.505
4.520
4.521
4.528
4.535
4.531
4.539
4.537
4.524
4.530
4.528
4.526
4.539
4.539
4.540
4.536
4.548
4.544
4.557
4.552
4.560
4.561
4.566
4.560
4.564
4.558
4.568
4.569
4.565
4.579
4.580
4.583
4.579
4.584
4.592
4.580
4.588
4.574
4.590
4.585
4.583
4.584
4.576
4.585
4.583
4.581
4.592
4.592
4.591
4.606
4.599
4.598
4.605
4.610
4.614
4.615
4.611
4.613
4.624
4.619
4.614
4.622
4.611
4.601
4.590
4.580
4.584
4.585
4.579
4.587
4.598
4.587
4.576
4.597
4.591
4.586
4.586
4.605
4.595
4.598
4.596
4.616
4.608
4.604
4.600
4.618
4.617
4.604
4.596
4.599
4.594
4.585
4.593
4.597
4.588
4.588
4.586
4.596
4.593
4.584
4.582
4.596
4.603
4.596
4.597
4.600
4.602
4.617
4.607
4.606
4.608
4.606
4.618
4.615
4.607
4.599
4.603
4.621
4.619
4.615
4.618
4.612
4.615
4.633
4.631
4.635
4.626
4.628
4.627
4.640
4.642
4.645
4.635
4.633
4.624
4.634
4.633
4.627
4.627
4.627
4.624
4.629
4.636
4.633
4.630
4.631
4.632
4.631
4.648
4.649
4.645
4.647
4.647
4.636
4.637
4.649
4.653
4.648
4.646
4.652
4.647
4.643
4.649
4.665
4.668
4.668
4.668
4.664
4.659
4.663
4.656
4.672
4.678
4.676
4.673
4.664
4.659
4.655
4.663
4.673
4.678
4.676
4.679
4.674
4.665
4.656
4.651
4.652
4.656
4.659
4.655
4.655
4.654
4.642
4.646
4.653
4.651
4.646
4.647
4.652
4.643
4.639
4.640
4.633
4.647
4.661
4.662
4.658
4.659
4.660
4.659
4.660
4.660
4.655
4.649
4.662
4.666
4.663
4.661
4.662
4.660
4.655
4.658
4.662
4.663
4.654
4.666
4.662
4.659
4.657
4.653
4.659
4.659
4.664
4.658
4.651
4.656
4.663
4.676
4.682
4.684
4.680
4.682
4.678
4.676
4.677
4.679
4.677
4.668
4.663
4.675
4.688
4.691
4.692
4.683
4.675
4.670
4.674
4.667
4.667
4.665
4.673
4.666
4.677
4.689
4.701
4.695
4.697
4.698
4.693
4.694
4.702
4.700
4.696
4.698
4.693
4.691
4.686
4.690
4.702
4.714
4.712
4.706
4.703
4.703
4.704
4.705
4.699
4.699
4.704
4.694
4.687
4.689
4.691
4.698
4.693
4.691
4.691
4.696
4.702
4.696
4.693
4.690
4.690
4.679
4.679
4.678
4.685
4.680
4.691
4.699
4.701
4.693
4.685
4.693
4.693
4.690
4.691
4.695
4.691
4.690
4.693
4.689
4.689
4.691
4.692
4.689
4.698
4.707
4.707
4.713
4.709
4.708
4.703
4.702
4.702
4.696
4.692
4.692
4.697
4.702
4.710
4.706
4.704
4.703
4.703
4.700
4.710
4.720
4.721
4.722
4.724
4.723
4.719
4.721
4.719
4.722
4.724
4.719
4.719
4.719
4.719
4.720
4.721
4.723
4.713
4.717
4.713
4.715
4.724
4.734
4.743
4.746
4.737
4.742
4.734
4.738
4.735
4.737
4.735
4.732
4.728
4.732
4.728
4.724
4.723
4.723
4.714
4.715
4.711
4.712
4.720
4.729
4.732
4.740
4.740
4.736
4.737
4.731
4.728
4.728
4.727
4.723
4.725
4.724
4.723
4.722
4.713
4.722
4.724
4.724
4.721
4.715
4.715
4.717
4.716
4.724
4.733
4.742
4.751
4.755
4.757
4.750
4.748
4.747
4.748
4.750
4.756
4.753
4.751
4.754
4.756
4.753
4.752
4.745
4.748
4.743
4.742
4.735
4.740
4.745
4.744
4.742
4.754
4.754
4.757
4.749
4.758
4.766
4.774
4.768
4.773
4.773
4.771
4.766
4.760
4.760
4.766
4.761
4.756
4.759
4.759
4.768
4.767
4.761
4.762
4.762
4.755
4.758
4.755
4.749
4.746
4.741
4.736
4.733
4.741
4.743
4.744
4.747
4.747
4.748
4.751
4.749
4.745
4.746
4.745
4.743
4.744
4.745
4.743
4.738
4.735
4.743
4.742
4.739
4.733
4.727
4.722
4.716
4.712
4.711
4.716
4.715
4.711
4.709
4.716
4.724
4.731
4.739
4.746
4.748
4.749
4.743
4.743
4.740
4.735
4.736
4.732
4.729
4.730
4.735
4.736
4.738
4.736
4.732
4.724
4.722
4.721
4.724
4.722
4.722
4.723
4.720
4.717
4.718
4.715
4.718
4.724
4.721
4.717
4.713
4.718
4.728
4.728
4.730
4.737
4.744
4.752
4.759
4.764
4.761
4.761
4.758
4.755
4.750
4.745
4.738
4.743
4.742
4.744
4.735
4.730
4.722
4.720
4.721
4.719
4.721
4.723
4.721
4.718
4.718
4.717
4.712
4.715
4.714
4.719
4.715
4.710
4.710
4.711
4.711
4.711
4.711
4.712
4.719
4.725
4.732
4.738
4.745
4.752
4.758
4.755
4.751
4.753
4.755
4.753
4.754
4.763
4.761
4.763
4.760
4.760
4.758
4.756
4.753
4.754
4.759
4.749
4.744
4.739
4.734
4.730
4.732
4.723
4.726
4.731
4.730
4.726
4.725
4.721
4.727
4.724
4.719
4.715
4.719
4.717
4.716
4.719
4.717
4.714
4.713
4.717
4.724
4.730
4.736
4.742
4.748
4.754
4.761
4.759
4.755
4.754
4.754
4.753
4.752
4.750
4.752
4.757
4.753
4.753
4.747
4.746
4.744
4.744
4.741
4.744
4.752
4.750
4.754
4.758
4.757
4.754
4.753
4.747
4.743
4.745
4.743
4.740
4.735
4.736
4.736
4.744
4.742
4.742
4.742
4.737
4.735
4.734
4.734
4.728
4.721
4.715
4.709
4.709
4.712
4.717
4.723
4.729
4.735
4.741
4.747
4.752
4.758
4.764
4.770
4.776
4.779
4.781
4.777
4.777
4.771
4.769
4.774
4.771
4.769
4.762
4.759
4.763
4.767
4.761
4.760
4.755
4.757
4.755
4.761
4.758
4.758
4.757
4.758
4.756
4.752
4.757
4.751
4.749
4.748
4.746
4.744
4.752
4.750
4.749
4.742
4.741
4.740
4.735
4.731
4.734
4.738
4.738
4.742
4.741
4.744
4.747
4.747
4.745
4.742
4.739
4.738
4.737
4.728
4.727
4.732
4.738
4.743
4.749
4.754
4.759
4.765
4.770
4.776
4.781
4.786
4.786
4.784
4.782
4.785
4.787
4.780
4.776
4.778
4.783
4.783
4.783
4.785
4.783
4.782
4.780
4.784
4.783
4.784
4.782
4.777
4.775
4.774
4.765
4.768
4.767
4.769
4.772
4.770
4.768
4.770
4.768
4.763
4.763
4.766
4.761
4.770
4.774
4.775
4.770
4.773
4.768
4.769
4.764
4.766
4.768
4.763
4.759
4.760
4.760
4.760
4.758
4.761
4.758
4.765
4.769
4.766
4.763
4.761
4.759
4.755
4.757
4.759
4.762
4.762
4.763
4.763
4.762
4.759
4.763
4.768
4.773
4.778
4.783
4.788
4.793
4.798
4.803
4.808
4.813
4.818
4.818
4.819
4.818
4.816
4.820
4.819
4.816
4.818
4.817
4.813
4.808
4.804
4.806
4.799
4.794
4.791
4.790
4.784
4.786
4.787
4.788
4.791
4.794
4.793
4.794
4.788
4.790
4.793
4.790
4.784
4.784
4.790
4.788
4.790
4.792
4.791
4.790
4.787
