2.944
2.995
3.218
3.337
3.336
3.558
3.515
3.588
3.590
3.763
3.589
3.664
3.706
3.741
3.727
3.662
3.738
3.742
3.754
3.752
3.805
3.781
3.859
3.846
3.908
3.950
3.838
3.875
3.796
3.781
3.822
3.808
3.763
3.782
3.893
3.880
3.922
3.877
3.884
3.865
3.945
3.910
3.829
3.811
3.842
3.783
3.865
3.947
3.977
3.994
3.924
3.857
3.791
3.834
3.862
3.811
3.879
3.947
4.013
3.934
3.886
3.912
3.955
3.903
3.907
3.832
3.821
3.775
3.783
3.811
3.853
3.893
3.947
4.001
4.055
4.086
4.056
3.973
3.995
3.924
3.896
3.899
3.870
3.912
3.870
3.842
3.864
3.840
3.789
3.810
3.848
3.831
3.848
3.842
3.826
3.866
3.907
3.947
3.987
4.027
4.033
4.032
4.069
4.071
4.078
4.078
3.981
3.969
3.939
3.963
4.004
3.991
3.950
3.936
3.965
3.927
3.889
3.847
3.807
3.817
3.802
3.758
3.778
3.779
3.824
3.842
3.827
3.830
3.885
3.857
3.873
3.907
3.927
3.924
3.869
3.861
3.903
3.847
3.846
3.826
3.802
3.787
3.821
3.840
3.867
3.894
3.920
3.947
3.973
4.000
4.027
4.053
4.080
4.033
4.065
4.054
4.035
4.014
3.969
3.996
3.996
3.993
4.023
3.991
3.962
4.001
3.972
3.999
3.997
3.990
3.940
3.974
4.009
4.043
4.040
4.024
3.986
4.002
4.025
3.967
3.949
3.957
3.961
3.968
3.934
3.952
3.966
3.920
3.903
3.887
3.866
3.831
3.821
3.831
3.803
3.820
3.821
3.830
3.869
3.907
3.900
3.862
3.858
3.864
3.856
3.833
3.824
3.842
3.823
3.788
3.825
3.838
3.818
3.816
3.810
3.800
3.798
3.790
3.821
3.852
3.883
3.863
3.863
3.863
3.833
3.847
3.850
3.854
3.826
3.862
3.887
3.863
3.835
3.841
3.838
3.800
3.804
3.780
3.796
3.773
3.768
3.805
3.771
3.775
3.795
3.762
3.766
3.755
3.772
3.804
3.788
3.804
3.827
3.849
3.872
3.895
3.914
3.897
3.894
3.882
3.858
3.871
3.900
3.892
3.916
3.880
3.880
3.911
3.938
3.935
3.943
3.932
3.907
3.884
3.860
3.849
3.873
3.867
3.881
3.866
3.862
3.827
3.817
3.823
3.780
3.788
3.816
3.820
3.832
3.848
3.855
3.868
3.881
3.894
3.907
3.921
3.934
3.947
3.960
3.974
3.987
4.000
4.013
4.026
4.040
4.053
4.066
4.079
4.093
4.106
4.119
4.120
4.131
4.100
4.100
4.100
4.092
4.097
4.124
4.113
4.105
4.099
4.136
4.100
4.083
4.059
4.067
4.104
4.069
4.057
4.069
4.033
4.026
4.017
4.025
4.057
4.002
3.982
4.003
4.024
4.044
4.065
4.076
4.048
4.076
4.055
4.011
4.047
4.045
4.027
4.034
4.052
4.024
4.022
3.998
4.032
4.029
4.024
4.010
3.994
3.969
3.965
3.962
3.950
3.950
3.946
3.967
3.971
3.935
3.956
3.938
3.923
3.937
3.898
3.929
3.920
3.926
3.920
3.950
3.945
3.967
3.934
3.918
3.891
3.892
3.873
3.889
3.888
3.916
3.920
3.896
3.907
3.906
3.890
3.933
3.926
3.916
3.904
3.884
3.888
3.897
3.900
3.919
3.910
3.929
3.942
3.958
3.955
3.932
3.906
3.884
3.914
3.902
3.880
3.864
3.885
3.899
3.895
3.867
3.871
3.873
3.873
3.861
3.850
3.838
3.861
3.851
3.845
3.869
3.891
3.897
3.930
3.935
3.904
3.901
3.888
3.863
3.877
3.871
3.871
3.883
3.845
3.862
3.847
3.839
3.851
3.846
3.865
3.843
3.848
3.829
3.825
3.835
3.844
3.842
3.847
3.867
3.888
3.865
3.862
3.845
3.827
3.824
3.821
3.839
3.856
3.875
3.877
3.880
3.889
3.883
3.889
3.885
3.878
3.894
3.872
3.850
3.857
3.841
3.869
3.862
3.846
3.830
3.860
3.851
3.859
3.856
3.864
3.890
3.882
3.857
3.860
3.864
3.841
3.832
3.832
3.820
3.833
3.802
3.795
3.822
3.833
3.840
3.847
3.860
3.848
3.876
3.878
3.861
3.845
3.850
3.862
3.873
3.884
3.896
3.907
3.918
3.929
3.903
3.920
3.920
3.950
3.942
3.920
3.923
3.907
3.900
3.899
3.920
3.914
3.938
3.930
3.947
3.964
3.962
3.956
3.946
3.958
3.965
3.951
3.956
3.972
3.952
3.956
3.962
3.945
3.959
3.922
3.949
3.965
3.946
3.954
3.954
3.938
3.922
3.906
3.890
3.895
3.866
3.869
3.880
3.889
3.864
3.849
3.879
3.908
3.892
3.897
3.905
3.902
3.866
3.847
3.856
3.868
3.853
3.871
3.882
3.871
3.861
3.848
3.857
3.863
3.850
3.847
3.862
3.879
3.861
3.875
3.893
3.900
3.916
3.897
3.919
3.904
3.914
3.930
3.902
3.904
3.903
3.896
3.891
3.877
3.885
3.868
3.870
3.873
3.871
3.861
3.858
3.852
3.866
3.861
3.887
3.870
3.870
3.856
3.853
3.846
3.854
3.856
3.825
3.818
3.824
3.828
3.834
3.811
3.824
3.833
3.829
3.849
3.871
3.855
3.841
3.839
3.821
3.816
3.812
3.805
3.801
3.813
3.809
3.807
3.821
3.837
3.852
3.868
3.884
3.890
3.891
3.898
3.879
3.872
3.905
3.885
3.888
3.880
3.877
3.870
3.852
3.868
3.856
3.850
3.840
3.824
3.833
3.843
3.853
3.864
3.874
3.884
3.894
3.904
3.915
3.925
3.923
3.917
3.905
3.889
3.901
3.897
3.897
3.894
3.913
3.933
3.949
3.931
3.921
3.905
3.900
3.917
3.937
3.926
3.913
3.908
3.885
3.887
3.894
3.874
3.884
3.869
3.887
3.886
3.886
3.891
3.904
3.919
3.934
3.913
3.911
3.897
3.910
3.907
3.899
3.886
3.880
3.890
3.897
3.877
3.876
3.888
3.864
3.863
3.882
3.883
3.869
3.848
3.872
3.861
3.860
3.864
3.845
3.838
3.857
3.852
3.864
3.870
3.869
3.878
3.879
3.861
3.864
3.850
3.843
3.852
3.835
3.838
3.850
3.854
3.849
3.833
3.829
3.842
3.863
3.866
3.863
3.847
3.854
3.873
3.880
3.895
3.904
3.900
3.890
3.876
3.863
3.850
3.858
3.860
3.856
3.849
3.849
3.860
3.843
3.827
3.832
3.845
3.859
3.841
3.823
3.826
3.837
3.855
3.846
3.846
3.848
3.846
3.852
3.862
3.838
3.815
3.819
3.813
3.823
3.840
3.840
3.839
3.829
3.846
3.846
3.839
3.832
3.819
3.825
3.834
3.844
3.853
3.863
3.872
3.882
3.891
3.901
3.910
3.911
3.910
3.903
3.914
3.927
3.905
3.918
3.923
3.913
3.920
3.896
3.893
3.886
3.891
3.913
3.907
3.893
3.889
3.902
3.911
3.912
3.908
3.890
3.877
3.867
3.873
3.885
3.872
3.858
3.842
3.851
3.858
3.863
3.871
3.874
3.860
3.859
3.877
3.879
3.879
3.863
3.872
3.893
3.900
3.908
3.917
3.901
3.882
3.884
3.864
3.872
3.875
3.858
3.859
3.873
3.887
3.879
3.885
3.873
3.860
3.848
3.852
3.853
3.850
3.855
3.876
3.868
3.878
3.869
3.858
3.854
3.856
3.847
3.848
3.863
3.852
3.866
3.873
3.855
3.859
3.854
3.867
3.850
3.834
3.840
3.837
3.837
3.828
3.838
3.834
3.840
3.848
3.839
3.824
3.819
3.836
3.832
3.842
3.819
3.828
3.826
3.843
3.848
3.849
3.840
3.844
3.857
3.871
3.884
3.878
3.878
3.867
3.873
3.862
3.850
3.838
3.826
3.831
3.823
3.824
3.828
3.837
3.846
3.855
3.864
3.873
3.881
3.883
3.899
3.891
3.894
3.904
3.905
3.892
3.876
3.881
3.881
3.898
3.906
3.898
3.896
3.909
3.909
3.886
3.891
3.881
3.884
3.887
3.876
3.889
3.885
3.877
3.873
3.872
3.864
3.874
3.871
3.858
3.869
3.868
3.883
3.890
3.903
3.912
3.903
3.891
3.880
3.877
3.873
3.887
3.896
3.880
3.860
3.845
3.847
3.853
3.857
3.858
3.851
3.848
3.838
3.852
3.857
3.856
3.852
3.868
3.848
3.858
