2.994
3.331
3.515
3.625
3.710
3.776
3.830
3.870
3.929
3.938
3.981
4.028
4.049
4.033
4.065
4.088
4.112
4.141
4.159
4.184
4.208
4.199
4.156
4.146
4.156
4.163
4.181
4.187
4.205
4.209
4.225
4.225
4.241
4.242
4.252
4.264
4.265
4.272
4.287
4.286
4.292
4.302
4.312
4.316
4.314
4.322
4.333
4.340
4.347
4.340
4.351
4.352
4.362
4.366
4.377
4.381
4.370
4.381
4.381
4.388
4.396
4.398
4.408
4.410
4.416
4.420
4.411
4.414
4.414
4.422
4.430
4.434
4.432
4.436
4.444
4.451
4.457
4.456
4.463
4.469
4.457
4.455
4.457
4.458
4.460
4.464
4.474
4.473
4.481
4.475
4.479
4.485
4.496
4.496
4.498
4.505
4.504
4.507
4.506
4.513
4.518
4.524
4.526
4.522
4.506
4.499
4.506
4.502
4.507
4.516
4.517
4.522
4.522
4.527
4.533
4.532
4.525
4.532
4.533
4.538
4.539
4.541
4.550
4.552
4.547
4.551
4.559
4.563
4.561
4.554
4.562
4.563
4.562
4.565
4.569
4.568
4.575
4.581
4.585
4.582
4.585
4.584
4.594
4.593
4.599
4.590
4.591
4.595
4.602
4.593
4.581
4.570
4.567
4.565
4.573
4.574
4.570
4.582
4.578
4.588
4.588
4.579
4.588
4.588
4.591
4.599
4.591
4.601
4.599
4.588
4.597
4.588
4.596
4.593
4.594
4.599
4.599
4.604
4.600
4.606
4.605
4.612
4.611
4.614
4.618
4.617
4.624
4.622
4.622
4.615
4.619
4.618
4.629
4.626
4.632
4.634
4.632
4.640
4.638
4.636
4.624
4.629
4.629
4.633
4.640
4.633
4.635
4.628
4.635
4.639
4.636
4.642
4.640
4.637
4.646
4.640
4.641
4.655
4.651
4.651
4.662
4.661
4.654
4.666
4.660
4.659
4.662
4.658
4.655
4.666
4.666
4.664
4.674
4.672
4.670
4.672
4.676
4.678
4.677
4.685
4.682
4.680
4.685
4.685
4.685
4.678
4.676
4.673
4.670
4.686
4.684
4.685
4.682
4.681
4.681
4.675
4.684
4.678
4.677
4.678
4.687
4.691
4.687
4.685
4.690
4.694
4.698
4.697
4.695
4.703
4.701
4.699
4.699
4.705
4.710
4.711
4.704
4.705
4.715
4.711
4.714
4.707
4.701
4.694
4.687
4.683
4.677
4.677
4.673
4.677
4.671
4.672
4.676
4.672
4.679
4.686
4.684
4.681
4.679
4.681
4.695
4.689
4.690
4.680
4.679
4.692
4.690
4.689
4.690
4.686
4.690
4.696
4.696
4.694
4.695
4.694
4.698
4.710
4.710
4.711
4.709
4.700
4.701
4.707
4.699
4.692
4.685
4.688
4.695
4.696
4.698
4.696
4.690
4.686
4.698
4.697
4.687
4.680
4.681
4.681
4.693
4.700
4.695
4.691
4.685
4.685
4.685
4.699
4.692
4.692
4.695
4.691
4.688
4.689
4.701
4.703
4.707
4.700
4.707
4.703
4.704
4.702
4.712
4.710
4.710
4.713
4.707
4.708
4.701
4.708
4.714
4.708
4.710
4.707
4.707
4.703
4.706
4.711
4.722
4.716
4.717
4.714
4.714
4.711
4.710
4.710
4.720
4.725
4.729
4.732
4.728
4.730
4.726
4.727
4.725
4.727
4.739
4.740
4.733
4.724
4.720
4.711
4.710
4.719
4.729
4.733
4.728
4.729
4.725
4.725
4.725
4.722
4.718
4.725
4.728
4.727
4.728
4.730
4.725
4.725
4.723
4.730
4.725
4.730
4.740
4.743
4.739
4.738
4.742
4.743
4.740
4.732
4.731
4.735
4.740
4.743
4.742
4.738
4.737
4.741
4.739
4.740
4.739
4.738
4.734
4.744
4.753
4.757
4.758
4.757
4.758
4.757
4.755
4.754
4.750
4.757
4.764
4.755
4.761
4.765
4.767
4.763
4.764
4.763
4.764
4.763
4.759
4.752
4.750
4.754
4.762
4.773
4.770
4.773
4.767
4.760
4.756
4.749
4.745
4.740
4.740
4.747
4.750
4.749
4.753
4.749
4.744
4.744
4.740
4.738
4.739
4.740
4.742
4.740
4.748
4.749
4.742
4.735
4.733
4.733
4.734
4.732
4.731
4.730
4.731
4.730
4.733
4.740
4.748
4.751
4.753
4.749
4.751
4.749
4.745
4.741
4.739
4.741
4.742
4.741
4.742
4.736
4.745
4.752
4.761
4.766
4.767
4.766
4.766
4.757
4.751
4.752
4.750
4.749
4.747
4.746
4.747
4.741
4.750
4.757
4.766
4.766
4.766
4.762
4.756
4.751
4.751
4.755
4.753
4.749
4.742
4.738
4.739
4.738
4.745
4.754
4.759
4.765
4.769
4.765
4.762
4.762
4.762
4.760
4.761
4.757
4.756
4.759
4.759
4.755
4.753
4.752
4.755
4.760
4.767
4.774
4.780
4.782
4.775
4.774
4.780
4.784
4.777
4.773
4.766
4.770
4.769
4.763
4.756
4.755
4.764
4.768
4.764
4.771
4.777
4.779
4.777
4.776
4.778
4.771
4.772
4.771
4.770
4.774
4.772
4.776
4.775
4.768
4.764
4.766
4.769
4.768
4.772
4.771
4.780
4.785
4.791
4.795
4.797
4.795
4.794
4.793
4.797
4.796
4.799
4.795
4.792
4.787
4.791
4.788
4.789
4.787
4.785
4.782
4.781
4.784
4.785
4.792
4.799
4.799
4.800
4.799
4.794
4.798
4.802
4.803
4.799
4.793
4.788
4.784
4.785
4.784
4.783
4.784
4.778
4.773
4.769
4.771
4.777
4.784
4.791
4.792
4.789
4.787
4.791
4.785
4.788
4.785
4.788
4.790
4.786
4.784
4.789
4.784
4.781
4.782
4.783
4.776
4.769
4.763
4.764
4.768
4.775
4.781
4.783
4.787
4.785
4.788
4.791
4.793
4.791
4.787
4.785
4.784
4.783
4.787
4.785
4.785
4.785
4.779
4.783
4.781
4.780
4.787
4.786
4.787
4.789
4.788
4.783
4.785
4.786
4.792
4.799
4.803
4.799
4.798
4.799
4.796
4.797
4.801
4.794
4.796
4.791
4.793
4.794
4.795
4.794
4.790
4.792
4.790
4.792
4.790
4.792
4.792
4.794
4.790
4.786
4.785
4.792
4.795
4.796
4.803
4.807
4.814
4.818
4.814
4.818
4.815
4.816
4.810
4.808
4.809
4.808
4.806
4.805
4.804
4.807
4.806
4.807
4.809
4.808
4.809
4.814
4.810
4.810
4.806
4.807
4.810
4.813
4.809
4.807
4.804
4.810
4.809
4.814
4.818
4.825
4.831
4.829
4.831
4.832
4.831
4.827
4.826
4.827
4.825
4.821
4.818
4.816
4.817
4.821
4.823
4.822
4.820
4.814
4.815
4.814
4.814
4.814
4.814
4.816
4.809
4.813
4.810
4.808
4.807
4.805
4.809
4.814
4.820
4.825
4.828
4.825
4.822
4.816
4.817
4.813
4.812
4.813
4.812
4.811
4.815
4.818
4.820
4.822
4.817
4.818
4.818
4.819
4.818
4.814
4.814
4.811
4.806
4.803
4.804
4.803
4.807
4.805
4.799
4.805
4.806
4.803
4.807
4.811
4.817
4.822
4.828
4.832
4.837
4.841
4.842
4.841
4.839
4.838
4.839
4.838
4.840
4.835
4.831
4.832
4.831
4.833
4.834
4.835
4.834
4.832
4.831
4.827
4.826
4.830
4.833
4.835
4.839
4.832
4.833
4.832
4.833
4.833
4.837
4.832
4.829
4.829
4.828
4.829
4.831
4.830
4.825
4.830
4.836
4.841
4.845
4.851
4.856
4.862
4.867
4.868
4.862
4.862
4.861
4.859
4.855
4.849
4.848
4.849
4.853
4.852
4.850
4.849
4.848
4.844
4.840
4.841
4.842
4.843
4.839
4.844
4.847
4.844
4.844
4.840
4.840
4.836
4.836
4.836
4.833
4.830
4.828
4.824
4.822
4.819
4.823
4.827
4.831
4.836
4.839
4.835
4.829
4.827
4.826
4.824
4.823
4.825
4.825
4.821
4.825
4.825
4.825
4.825
4.823
4.821
4.823
4.829
4.828
4.827
4.826
4.825
4.826
4.819
4.820
4.821
4.820
4.822
4.825
4.821
4.818
4.818
4.814
4.814
4.820
4.816
4.812
4.808
4.806
4.803
4.799
4.802
4.806
4.810
4.815
4.819
4.825
4.825
4.831
4.836
4.839
4.836
4.836
4.836
4.833
4.830
4.831
4.833
4.831
4.830
4.831
4.832
4.834
4.832
4.828
