2.850
3.236
3.174
3.337
3.507
3.567
3.634
3.641
3.612
3.746
3.756
3.783
3.848
3.836
3.809
3.809
3.765
3.802
3.813
3.896
3.908
3.862
3.893
3.866
3.882
3.936
3.923
3.933
3.887
3.970
3.949
3.935
3.963
3.934
3.978
4.063
4.023
3.980
4.073
4.039
3.970
4.003
3.984
3.988
3.944
3.968
4.047
4.002
3.952
3.951
3.957
4.019
4.045
4.036
4.041
3.979
4.008
4.012
4.036
4.104
4.055
4.050
4.015
3.979
3.991
3.933
3.993
4.052
4.112
4.124
4.163
4.135
4.104
4.070
4.067
4.034
4.047
3.991
4.018
4.069
4.114
4.152
4.140
4.101
4.060
4.053
4.078
4.046
4.025
3.996
4.025
4.010
3.941
3.967
4.009
4.051
4.093
4.136
4.171
4.154
4.084
4.073
4.064
4.106
4.090
4.083
4.115
4.072
4.060
4.030
4.026
4.008
4.032
3.998
4.039
4.034
4.005
4.032
4.059
4.060
4.068
4.101
4.135
4.160
4.172
4.149
4.120
4.091
4.094
4.104
4.072
4.043
4.067
4.067
4.061
4.083
4.067
4.048
4.083
4.092
4.125
4.102
4.058
4.047
4.042
4.052
4.022
4.003
3.994
3.956
3.971
3.990
3.978
3.965
3.957
3.956
3.968
3.970
4.002
4.017
4.042
4.067
4.092
4.117
4.142
4.168
4.193
4.191
4.206
4.186
4.220
4.231
4.218
4.223
4.171
4.147
4.123
4.111
4.076
4.073
4.071
4.069
4.084
4.087
4.070
4.082
4.078
4.097
4.111
4.077
4.065
4.078
4.066
4.022
4.000
3.988
4.004
3.982
4.008
4.002
3.992
3.980
3.968
3.964
3.967
3.984
4.004
4.033
4.062
4.077
4.068
4.065
4.061
4.033
4.061
4.049
4.073
4.093
4.065
4.070
4.031
4.053
4.017
4.044
4.043
4.020
4.007
4.008
4.028
4.015
4.021
3.999
3.996
3.994
3.972
3.981
3.950
3.967
3.983
4.000
4.017
4.033
4.050
4.067
4.084
4.100
4.117
4.133
4.150
4.167
4.183
4.200
4.217
4.233
4.246
4.228
4.200
4.191
4.187
4.176
4.180
4.192
4.159
4.159
4.189
4.181
4.161
4.164
4.186
4.172
4.173
4.160
4.171
4.160
4.157
4.183
4.191
4.171
4.188
4.161
4.134
4.115
4.134
4.155
4.176
4.174
4.156
4.134
4.114
4.127
4.108
4.120
4.093
4.101
4.096
4.066
4.076
4.072
4.071
4.083
4.088
4.064
4.080
4.078
4.064
4.043
4.048
4.063
4.057
4.083
4.072
4.076
4.057
4.030
4.050
4.064
4.060
4.049
4.049
4.022
4.017
4.026
4.001
4.016
4.012
4.042
4.060
4.057
4.033
4.030
4.028
4.014
4.007
3.999
4.006
3.982
3.998
4.008
3.992
4.008
4.036
4.029
4.026
4.059
4.027
4.037
4.040
4.032
4.044
4.018
4.018
4.020
4.015
4.017
4.003
3.998
4.011
4.005
4.005
4.002
4.021
3.996
4.020
4.004
4.015
3.993
4.002
3.981
3.965
3.979
3.979
3.973
3.976
3.986
4.001
3.992
4.014
4.029
4.032
4.033
4.033
4.016
4.020
4.004
3.989
3.999
4.001
4.011
4.001
4.024
4.009
4.001
3.995
3.993
3.996
3.987
3.999
4.007
3.994
3.990
3.969
3.975
3.962
3.974
3.949
3.945
3.962
3.970
3.956
3.958
3.953
3.967
3.955
3.978
3.976
3.990
4.004
4.019
4.033
4.047
4.061
4.072
4.077
4.082
4.062
4.038
4.027
4.048
4.051
4.068
4.069
4.064
4.048
4.032
4.043
4.048
4.053
4.048
4.050
4.056
4.060
4.039
4.039
4.045
4.053
4.035
4.032
4.011
4.032
4.031
4.025
4.032
4.050
4.056
4.068
4.060
4.030
4.021
4.009
3.997
3.982
3.999
3.998
3.995
4.002
3.989
4.004
4.025
4.013
4.044
4.043
4.030
4.031
4.011
4.032
4.036
4.024
4.015
3.996
3.986
3.992
4.000
4.008
4.017
4.025
4.033
4.042
4.050
4.058
4.066
4.075
4.083
4.091
4.100
4.108
4.116
4.125
4.133
4.141
4.149
4.158
4.166
4.174
4.182
4.191
4.199
4.207
4.216
4.224
4.232
4.241
4.249
4.254
4.227
4.243
4.234
4.237
4.254
4.257
4.263
4.256
4.272
4.267
4.254
4.248
4.241
4.226
4.249
4.262
4.277
4.263
4.246
4.267
4.265
4.260
4.240
4.263
4.250
4.232
4.232
4.207
4.206
4.204
4.209
4.215
4.228
4.207
4.207
4.207
4.188
4.171
4.175
4.180
4.181
4.178
4.187
4.200
4.202
4.204
4.194
4.184
4.189
4.177
4.167
4.170
4.176
4.176
4.154
4.148
4.168
4.149
4.135
4.154
4.173
4.155
4.146
4.163
4.158
4.159
4.175
4.191
4.201
4.189
4.170
4.173
4.153
4.142
4.152
4.160
4.148
4.160
4.148
4.155
4.151
4.153
4.142
4.147
4.139
4.118
4.106
4.101
4.084
4.076
4.087
4.091
4.101
4.116
4.109
4.108
4.114
4.096
4.103
4.089
4.090
4.104
4.103
4.123
4.118
4.111
4.112
4.094
4.084
4.081
4.081
4.087
4.078
4.088
4.102
4.108
4.104
4.094
4.111
4.092
4.099
4.083
4.076
4.064
4.079
4.082
4.065
4.048
4.032
4.032
4.025
4.035
4.035
4.051
4.035
4.026
4.014
4.032
4.056
4.066
4.033
4.034
4.049
4.068
4.070
4.073
4.084
4.096
4.105
4.108
4.113
4.092
4.084
4.086
4.090
4.108
4.101
4.087
4.075
4.080
4.082
4.082
4.101
4.101
4.087
4.073
4.059
4.057
4.069
4.053
4.037
4.045
4.050
4.034
4.031
4.044
4.040
4.043
4.054
4.056
4.029
4.036
4.047
4.038
4.048
4.062
4.068
4.086
4.100
4.082
4.065
4.076
4.073
4.067
4.060
4.077
4.075
4.077
4.066
4.054
4.043
4.031
4.020
4.021
4.023
4.013
4.006
4.012
4.028
4.028
4.034
4.042
4.032
4.027
4.012
4.002
3.987
3.982
3.973
3.971
3.976
3.982
3.992
3.980
3.993
3.999
4.019
4.011
4.014
4.020
4.017
4.014
4.003
3.995
3.992
3.986
3.991
3.992
3.982
3.995
3.998
3.996
4.010
4.025
4.011
4.022
4.034
4.045
4.056
4.067
4.079
4.090
4.095
4.080
4.065
4.051
4.048
4.044
4.060
4.058
4.049
4.048
4.036
4.030
4.025
4.031
4.015
4.028
4.024
4.040
4.036
4.032
4.033
4.035
4.045
4.049
4.045
4.041
4.030
4.020
4.009
3.998
4.005
4.016
4.013
3.993
3.985
3.988
3.988
3.977
3.986
3.997
3.987
3.976
3.978
3.979
3.977
3.996
4.017
4.003
3.992
4.006
3.999
3.984
3.992
3.986
4.002
4.005
3.998
4.014
4.024
4.005
4.021
4.010
3.998
4.000
4.001
3.998
3.985
3.997
3.995
3.990
4.003
4.004
4.012
4.019
4.026
4.033
4.040
4.047
4.054
4.061
4.068
4.075
4.083
4.090
4.097
4.104
4.109
4.095
4.081
4.093
4.104
4.103
4.111
4.102
4.103
4.096
4.092
4.095
4.095
4.095
4.091
4.099
4.102
4.092
4.108
4.108
4.099
4.101
4.095
4.101
4.093
4.082
4.085
4.095
4.098
4.100
4.098
4.091
4.103
4.097
4.097
4.100
4.109
4.111
4.104
4.107
4.101
4.098
4.098
4.099
4.097
4.095
4.081
4.068
4.060
4.070
4.060
4.055
4.051
4.065
4.048
4.045
4.061
4.058
4.072
4.058
4.057
4.038
4.058
4.055
4.056
4.069
4.064
4.054
4.052
4.063
4.075
4.065
4.051
4.047
4.054
4.057
4.049
4.053
4.039
4.041
4.035
4.036
4.049
4.062
4.076
4.063
4.072
4.075
4.064
4.059
4.062
4.066
4.054
4.042
4.034
4.045
4.049
4.039
4.032
4.027
4.037
4.028
4.022
4.032
4.042
4.053
4.054
4.061
4.066
4.065
4.074
4.062
4.050
4.050
4.038
4.049
4.036
4.038
4.032
4.040
4.044
4.030
4.014
4.008
4.016
4.032
4.036
4.032
4.030
4.022
4.030
4.020
4.034
4.044
4.031
4.041
4.049
4.050
4.041
4.049
4.045
4.038
4.030
4.040
4.029
4.026
4.039
4.037
4.039
