2.993
3.329
3.508
3.589
3.636
3.740
3.838
3.794
3.796
3.828
3.868
3.900
3.925
3.954
3.963
3.992
3.995
4.027
4.063
4.053
4.070
4.094
4.111
4.099
4.108
4.134
4.150
4.161
4.171
4.150
4.169
4.178
4.187
4.200
4.211
4.208
4.230
4.246
4.264
4.252
4.273
4.262
4.226
4.256
4.254
4.241
4.254
4.262
4.281
4.281
4.294
4.287
4.305
4.294
4.300
4.307
4.321
4.328
4.339
4.332
4.354
4.352
4.357
4.362
4.361
4.348
4.354
4.376
4.361
4.377
4.388
4.380
4.388
4.404
4.390
4.411
4.409
4.384
4.359
4.379
4.370
4.391
4.381
4.400
4.385
4.375
4.371
4.352
4.367
4.381
4.366
4.390
4.388
4.393
4.386
4.388
4.404
4.403
4.398
4.423
4.417
4.410
4.405
4.402
4.418
4.417
4.404
4.419
4.423
4.416
4.413
4.438
4.450
4.438
4.439
4.466
4.457
4.453
4.455
4.462
4.447
4.450
4.463
4.462
4.440
4.429
4.437
4.422
4.416
4.417
4.451
4.451
4.443
4.431
4.432
4.461
4.453
4.436
4.437
4.435
4.461
4.450
4.459
4.456
4.450
4.457
4.482
4.474
4.454
4.458
4.451
4.466
4.490
4.503
4.491
4.482
4.482
4.468
4.489
4.505
4.498
4.506
4.492
4.484
4.481
4.497
4.481
4.477
4.477
4.452
4.452
4.463
4.489
4.507
4.498
4.485
4.473
4.473
4.469
4.472
4.490
4.514
4.509
4.492
4.511
4.500
4.492
4.497
4.500
4.499
4.520
4.539
4.542
4.543
4.525
4.525
4.514
4.507
4.504
4.505
4.527
4.523
4.530
4.524
4.518
4.512
4.496
4.510
4.514
4.506
4.512
4.534
4.554
4.563
4.553
4.547
4.552
4.561
4.553
4.549
4.540
4.539
4.537
4.536
4.556
4.574
4.578
4.575
4.572
4.557
4.553
4.557
4.556
4.546
4.539
4.541
4.537
4.549
4.560
4.560
4.569
4.562
4.561
4.553
4.538
4.524
4.510
4.502
4.499
4.498
4.512
4.530
4.548
4.543
4.538
4.540
4.539
4.542
4.539
4.544
4.529
4.529
4.534
4.532
4.519
4.501
4.506
4.514
4.531
4.548
4.550
4.548
4.531
4.529
4.524
4.522
4.536
4.536
4.527
4.539
4.528
4.523
4.523
4.510
4.514
4.510
4.510
4.525
4.541
4.549
4.553
4.540
4.553
4.544
4.535
4.538
4.534
4.535
4.518
4.522
4.518
4.524
4.528
4.526
4.531
4.530
4.522
4.513
4.513
4.521
4.535
4.550
4.564
4.572
4.574
4.555
4.549
4.548
4.548
4.550
4.558
4.564
4.568
4.566
4.554
4.543
4.535
4.528
4.534
4.520
4.533
4.531
4.522
4.522
4.516
4.524
4.534
4.547
4.561
4.574
4.587
4.588
4.580
4.582
4.591
4.590
4.582
4.566
4.560
4.561
4.562
4.569
4.569
4.557
4.555
4.570
4.574
4.562
4.558
4.562
4.565
4.568
4.572
4.562
4.549
4.542
4.541
4.550
4.548
4.560
4.573
4.585
4.597
4.609
4.622
4.623
4.614
4.615
4.628
4.618
4.620
4.615
4.607
4.600
4.597
4.592
4.589
4.581
4.586
4.580
4.580
4.576
4.570
4.580
4.573
4.561
4.558
4.558
4.548
4.543
4.544
4.528
4.531
4.534
4.542
4.547
4.558
4.569
4.580
4.591
4.595
4.602
4.606
4.600
4.598
4.584
4.587
4.580
4.578
4.580
4.581
4.584
4.570
4.584
4.580
4.573
4.572
4.570
4.568
4.570
4.569
4.566
4.567
4.575
4.574
4.566
4.565
4.561
4.560
4.554
4.559
4.552
4.553
4.548
4.547
4.549
4.535
4.536
4.541
4.551
4.562
4.565
4.563
4.573
4.583
4.593
4.603
4.613
4.623
4.633
4.644
4.647
4.649
4.648
4.658
4.651
4.650
4.647
4.644
4.639
4.640
4.637
4.634
4.634
4.634
4.627
4.620
4.612
4.605
4.598
4.593
4.596
4.589
4.589
4.583
4.584
4.579
4.580
4.576
4.572
4.564
4.566
4.565
4.561
4.551
4.552
4.552
4.544
4.551
4.541
4.531
4.531
4.527
4.522
4.526
4.530
4.537
4.546
4.555
4.564
4.573
4.581
4.591
4.599
4.606
4.604
4.595
4.600
4.597
4.601
4.610
4.603
4.602
4.603
4.614
4.608
4.614
4.615
4.608
4.604
4.597
4.601
4.600
4.598
4.598
4.594
4.591
4.590
4.596
4.588
4.584
4.586
4.592
4.595
4.605
4.609
4.602
4.607
4.611
4.617
4.609
4.600
4.600
4.587
4.582
4.585
4.574
4.575
4.567
4.563
4.558
4.564
4.565
4.558
4.567
4.573
4.560
4.559
4.565
4.565
4.567
4.569
4.566
4.559
4.556
4.558
4.550
4.542
4.545
4.549
4.547
4.555
4.562
4.570
4.578
4.586
4.594
4.601
4.609
4.617
4.625
4.633
4.640
4.648
4.653
4.647
4.648
4.641
4.640
4.634
4.628
4.622
4.612
4.612
4.611
4.609
4.603
4.596
4.586
4.579
4.579
4.586
4.591
4.583
4.579
4.577
4.581
4.581
4.592
4.602
4.593
4.597
4.600
4.609
4.602
4.603
4.595
4.603
4.598
4.598
4.600
4.599
4.595
4.598
4.598
4.607
4.610
4.608
4.605
4.603
4.601
4.596
4.592
4.582
4.580
4.573
4.570
4.568
4.573
4.577
4.568
4.567
4.564
4.571
4.568
4.569
4.567
4.558
4.550
4.541
4.533
4.537
4.536
4.537
4.533
4.540
4.551
4.558
4.553
4.550
4.553
4.560
4.564
4.558
4.552
4.554
4.555
4.561
4.569
4.563
4.566
4.572
4.579
4.586
4.592
4.599
4.606
4.612
4.619
4.626
4.632
4.639
4.646
4.652
4.659
4.666
4.662
4.662
4.654
4.664
4.656
4.662
4.659
4.651
4.645
4.646
4.643
4.646
4.644
4.654
4.650
4.660
4.657
4.661
4.659
4.650
4.644
4.642
4.633
4.627
4.627
4.623
4.621
4.621
4.618
4.613
4.611
4.616
4.617
4.627
4.638
4.642
4.630
4.622
4.615
4.611
4.611
4.604
4.599
4.600
4.601
4.601
4.599
4.599
4.604
4.616
4.619
4.617
4.619
4.617
4.614
4.623
4.619
4.616
4.619
4.629
4.624
4.616
4.620
4.616
4.624
4.632
4.628
4.621
4.614
4.607
4.603
4.601
4.602
4.604
4.610
4.607
4.599
4.596
4.598
4.595
4.597
4.597
4.587
4.588
4.592
4.588
4.584
4.577
4.573
4.581
4.583
4.582
4.575
4.574
4.573
4.568
4.563
4.558
4.552
4.548
4.558
4.559
4.565
4.564
4.563
4.561
4.561
4.563
4.568
4.563
4.558
4.549
4.547
4.545
4.538
4.534
4.540
4.545
4.551
4.556
4.562
4.567
4.573
4.579
4.584
4.590
4.595
4.601
4.606
4.612
4.617
4.623
4.629
4.634
4.640
4.645
4.644
4.639
4.647
4.645
4.653
4.641
4.634
4.631
4.627
4.618
4.609
4.606
4.610
4.617
4.616
4.617
4.615
4.616
4.617
4.619
4.620
4.609
4.612
4.620
4.628
4.636
4.639
4.633
4.632
4.640
4.638
4.636
4.640
4.630
4.617
4.619
4.625
4.621
4.623
4.625
4.635
4.631
4.624
4.622
4.629
4.638
4.632
4.624
4.615
4.622
4.621
4.623
4.615
4.624
4.615
4.619
4.623
4.619
4.621
4.621
4.617
4.613
4.617
4.606
4.609
4.607
4.610
4.603
4.605
4.608
4.603
4.605
4.599
4.596
4.593
4.592
4.594
4.602
4.599
4.597
4.604
4.596
4.591
4.591
4.589
4.587
4.581
4.580
4.572
4.575
4.585
4.584
4.585
4.583
4.582
4.586
4.584
4.577
4.585
4.584
4.587
4.582
4.593
4.583
4.577
4.574
4.572
4.574
4.577
4.573
4.571
4.574
4.580
4.573
4.582
4.585
4.592
4.581
4.571
4.574
4.583
4.580
4.576
4.579
4.585
4.584
4.582
4.578
4.574
4.579
4.580
4.575
4.568
4.564
4.566
4.574
4.582
4.582
4.588
4.593
4.585
4.588
4.595
4.601
4.598
4.601
4.597
4.591
4.585
4.579
4.574
4.576
4.574
4.570
4.561
4.566
4.566
4.564
4.565
4.558
4.552
4.554
4.555
4.552
4.554
4.564
4.569
4.564
