2.978
3.305
3.475
3.592
3.640
3.743
3.840
3.756
3.778
3.826
3.858
3.886
3.911
3.962
3.964
4.001
3.996
4.037
4.027
4.052
4.065
4.103
4.088
4.094
4.119
4.134
4.147
4.155
4.142
4.165
4.162
4.186
4.189
4.197
4.214
4.223
4.239
4.237
4.243
4.265
4.238
4.242
4.244
4.243
4.252
4.253
4.268
4.267
4.280
4.287
4.309
4.288
4.282
4.291
4.302
4.311
4.321
4.319
4.329
4.331
4.350
4.371
4.357
4.333
4.352
4.351
4.358
4.381
4.368
4.377
4.407
4.381
4.397
4.409
4.386
4.360
4.355
4.363
4.374
4.377
4.390
4.386
4.361
4.356
4.339
4.355
4.358
4.379
4.369
4.376
4.375
4.367
4.384
4.385
4.388
4.404
4.413
4.408
4.406
4.391
4.410
4.396
4.393
4.426
4.411
4.406
4.425
4.424
4.416
4.428
4.447
4.447
4.435
4.441
4.463
4.445
4.429
4.453
4.465
4.448
4.425
4.444
4.416
4.412
4.417
4.450
4.434
4.433
4.412
4.438
4.449
4.439
4.426
4.416
4.447
4.435
4.445
4.445
4.435
4.445
4.468
4.462
4.446
4.447
4.432
4.461
4.472
4.479
4.476
4.475
4.465
4.463
4.489
4.484
4.495
4.484
4.488
4.463
4.479
4.490
4.470
4.460
4.466
4.442
4.452
4.479
4.488
4.492
4.472
4.474
4.453
4.456
4.462
4.488
4.510
4.500
4.491
4.496
4.486
4.474
4.485
4.490
4.503
4.527
4.533
4.523
4.533
4.516
4.514
4.500
4.490
4.497
4.520
4.526
4.513
4.512
4.499
4.510
4.489
4.503
4.500
4.494
4.514
4.535
4.539
4.549
4.538
4.537
4.539
4.535
4.542
4.534
4.531
4.529
4.528
4.547
4.565
4.567
4.560
4.565
4.551
4.539
4.555
4.549
4.537
4.526
4.536
4.531
4.551
4.549
4.553
4.561
4.546
4.540
4.543
4.535
4.521
4.506
4.492
4.486
4.505
4.523
4.542
4.521
4.527
4.528
4.524
4.538
4.532
4.538
4.527
4.520
4.525
4.510
4.506
4.497
4.511
4.519
4.531
4.535
4.534
4.534
4.520
4.504
4.509
4.524
4.521
4.516
4.524
4.525
4.515
4.512
4.504
4.500
4.496
4.509
4.525
4.541
4.547
4.531
4.543
4.543
4.537
4.528
4.527
4.520
4.511
4.510
4.507
4.511
4.510
4.513
4.523
4.516
4.525
4.509
4.503
4.518
4.533
4.548
4.555
4.559
4.546
4.548
4.539
4.537
4.537
4.543
4.547
4.548
4.549
4.547
4.542
4.525
4.518
4.522
4.518
4.518
4.520
4.522
4.507
4.511
4.518
4.532
4.545
4.560
4.573
4.581
4.571
4.575
4.574
4.575
4.580
4.581
4.563
4.548
4.543
4.555
4.553
4.561
4.547
4.559
4.562
4.560
4.551
4.557
4.559
4.557
4.551
4.548
4.547
4.536
4.528
4.536
4.549
4.562
4.574
4.587
4.600
4.613
4.612
4.618
4.601
4.618
4.627
4.614
4.601
4.601
4.597
4.597
4.590
4.576
4.571
4.570
4.573
4.564
4.559
4.561
4.575
4.566
4.560
4.556
4.558
4.547
4.536
4.526
4.516
4.518
4.530
4.540
4.552
4.563
4.575
4.585
4.581
4.589
4.591
4.596
4.589
4.583
4.568
4.565
4.571
4.564
4.570
4.565
4.570
4.581
4.570
4.563
4.562
4.558
4.562
4.558
4.558
4.558
4.561
4.563
4.558
4.553
4.551
4.553
4.541
4.543
4.539
4.535
4.528
4.531
4.535
4.534
4.534
4.535
4.550
4.562
4.555
4.566
4.576
4.587
4.597
4.607
4.618
4.628
4.639
4.638
4.637
4.635
4.635
4.646
4.647
4.638
4.628
4.628
4.628
4.621
4.618
4.625
4.631
4.626
4.612
4.612
4.604
4.597
4.590
4.582
4.584
4.576
4.581
4.566
4.560
4.568
4.568
4.554
4.548
4.559
4.558
4.554
4.542
4.541
4.535
4.531
4.532
4.530
4.517
4.510
4.518
4.521
4.530
4.540
4.549
4.558
4.567
4.577
4.586
4.595
4.600
4.593
4.580
4.585
4.591
4.596
4.596
4.592
4.589
4.601
4.601
4.599
4.599
4.605
4.593
4.583
4.588
4.595
4.585
4.581
4.583
4.580
4.578
4.583
4.575
4.571
4.572
4.582
4.590
4.599
4.588
4.592
4.597
4.602
4.600
4.594
4.596
4.588
4.587
4.576
4.570
4.567
4.552
4.564
4.554
4.547
4.559
4.549
4.561
4.560
4.562
4.556
4.551
4.551
4.557
4.551
4.546
4.546
4.551
4.551
4.552
4.544
4.535
4.539
4.548
4.556
4.564
4.572
4.580
4.588
4.596
4.604
4.612
4.621
4.629
4.637
4.642
4.634
4.634
4.632
4.622
4.627
4.629
4.627
4.616
4.610
4.600
4.607
4.592
4.587
4.577
4.582
4.572
4.575
4.579
4.577
4.573
4.567
4.571
4.576
4.587
4.597
4.592
4.586
4.597
4.595
4.591
4.580
4.584
4.583
4.587
4.586
4.594
4.592
4.583
4.583
4.591
4.596
4.592
4.588
4.584
4.584
4.587
4.590
4.577
4.571
4.564
4.560
4.561
4.567
4.569
4.563
4.563
4.556
4.560
4.564
4.553
4.550
4.550
4.546
4.542
4.532
4.528
4.523
4.520
4.532
4.543
4.540
4.544
4.541
4.539
4.548
4.548
4.553
4.547
4.548
4.548
4.558
4.568
4.559
4.565
4.571
4.579
4.586
4.592
4.599
4.606
4.613
4.620
4.627
4.634
4.641
4.648
4.655
4.660
4.652
4.650
4.649
4.651
4.646
4.649
4.639
4.640
4.642
4.635
4.631
4.632
4.642
4.638
4.641
4.642
4.646
4.655
4.657
4.650
4.640
4.630
4.620
4.614
4.615
4.613
4.602
4.597
4.603
4.603
4.603
4.614
4.623
4.628
4.626
4.625
4.621
4.614
4.604
4.592
4.596
4.593
4.587
4.590
4.589
4.587
4.596
4.599
4.604
4.611
4.614
4.606
4.606
4.616
4.606
4.604
4.609
4.609
4.611
4.612
4.606
4.615
4.624
4.623
4.623
4.622
4.614
4.607
4.600
4.593
4.589
4.594
4.598
4.594
4.589
4.584
4.578
4.583
4.585
4.588
4.583
4.573
4.571
4.574
4.569
4.570
4.570
4.564
4.564
4.565
4.565
4.572
4.568
4.563
4.558
4.552
4.547
4.547
4.557
4.561
4.558
4.549
4.552
4.549
4.553
4.552
4.558
4.545
4.532
4.530
4.531
4.533
4.539
4.545
4.550
4.556
4.562
4.568
4.574
4.579
4.585
4.591
4.596
4.602
4.608
4.614
4.620
4.626
4.631
4.628
4.632
4.634
4.636
4.634
4.635
4.637
4.640
4.628
4.626
4.613
4.615
4.611
4.602
4.607
4.606
4.606
4.597
4.601
4.608
4.608
4.605
4.603
4.608
4.616
4.624
4.625
4.620
4.619
4.630
4.622
4.622
4.635
4.624
4.620
4.621
4.612
4.607
4.617
4.617
4.621
4.623
4.618
4.614
4.623
4.630
4.631
4.625
4.621
4.612
4.607
4.609
4.608
4.611
4.603
4.613
4.606
4.605
4.605
4.606
4.609
4.603
4.599
4.594
4.595
4.589
4.595
4.589
4.600
4.600
4.595
4.586
4.587
4.583
4.584
4.589
4.585
4.589
4.584
4.583
4.581
4.578
4.582
4.575
4.576
4.571
4.572
4.566
4.575
4.570
4.571
4.573
4.571
4.576
4.571
4.568
4.575
4.570
4.574
4.577
4.579
4.577
4.579
4.568
4.559
4.565
4.565
4.565
4.558
4.564
4.564
4.573
4.575
4.578
4.568
4.565
4.566
4.567
4.570
4.567
4.568
4.571
4.565
4.561
4.561
4.569
4.572
4.566
4.575
4.571
4.565
4.564
4.572
4.578
4.573
4.578
4.580
4.581
4.588
4.595
4.592
4.594
4.584
4.583
4.587
4.584
4.579
4.573
4.568
4.563
4.554
4.554
4.551
4.559
4.555
4.546
4.541
4.542
4.546
4.550
4.553
4.555
4.548
4.544
4.551
4.551
4.549
4.548
4.556
4.552
4.550
4.543
4.535
4.532
4.530
4.530
4.533
4.534
4.538
4.538
4.543
4.548
4.552
4.557
4.562
4.566
4.571
4.576
4.580
4.585
4.589
4.594
4.599
4.603
4.608
4.613
4.617
4.622
4.626
4.631
4.636
4.640
