2.986
3.316
3.502
3.607
3.664
3.781
3.691
3.726
3.787
3.809
3.848
3.885
3.913
3.940
3.966
3.966
3.994
4.030
4.015
4.033
4.067
4.081
4.100
4.096
4.108
4.110
4.127
4.141
4.149
4.173
4.194
4.187
4.210
4.182
4.179
4.196
4.178
4.198
4.215
4.214
4.234
4.251
4.235
4.239
4.250
4.255
4.257
4.271
4.283
4.292
4.298
4.300
4.294
4.296
4.292
4.320
4.333
4.343
4.327
4.339
4.351
4.333
4.302
4.297
4.314
4.329
4.316
4.314
4.307
4.285
4.319
4.302
4.333
4.321
4.337
4.319
4.342
4.339
4.336
4.355
4.349
4.360
4.339
4.353
4.360
4.345
4.373
4.362
4.369
4.391
4.389
4.383
4.397
4.398
4.377
4.394
4.405
4.406
4.381
4.380
4.360
4.360
4.380
4.384
4.360
4.372
4.396
4.384
4.360
4.371
4.404
4.405
4.383
4.400
4.398
4.406
4.393
4.381
4.390
4.409
4.439
4.432
4.418
4.415
4.406
4.441
4.463
4.435
4.436
4.428
4.422
4.435
4.406
4.406
4.393
4.404
4.420
4.433
4.427
4.425
4.432
4.415
4.410
4.431
4.462
4.466
4.454
4.451
4.453
4.437
4.439
4.451
4.480
4.469
4.472
4.464
4.466
4.443
4.447
4.448
4.474
4.472
4.483
4.470
4.466
4.458
4.462
4.455
4.456
4.474
4.500
4.517
4.513
4.509
4.481
4.486
4.488
4.479
4.468
4.471
4.496
4.514
4.513
4.527
4.522
4.517
4.512
4.501
4.486
4.472
4.469
4.485
4.483
4.465
4.468
4.464
4.453
4.456
4.448
4.451
4.441
4.443
4.442
4.464
4.486
4.508
4.501
4.499
4.482
4.471
4.453
4.446
4.453
4.447
4.446
4.430
4.435
4.449
4.470
4.490
4.503
4.494
4.490
4.485
4.482
4.492
4.488
4.468
4.465
4.449
4.439
4.448
4.440
4.447
4.450
4.469
4.488
4.507
4.507
4.503
4.488
4.485
4.490
4.480
4.490
4.486
4.481
4.471
4.458
4.453
4.460
4.461
4.469
4.469
4.454
4.472
4.489
4.507
4.524
4.524
4.506
4.502
4.522
4.513
4.526
4.507
4.491
4.493
4.490
4.494
4.502
4.497
4.476
4.480
4.497
4.495
4.485
4.476
4.483
4.480
4.496
4.512
4.528
4.544
4.553
4.554
4.551
4.543
4.558
4.560
4.554
4.550
4.547
4.547
4.547
4.548
4.542
4.536
4.532
4.517
4.517
4.519
4.503
4.518
4.520
4.516
4.515
4.495
4.498
4.506
4.520
4.535
4.546
4.537
4.533
4.526
4.532
4.521
4.510
4.514
4.516
4.524
4.514
4.513
4.505
4.503
4.490
4.500
4.501
4.499
4.506
4.504
4.494
4.479
4.487
4.490
4.487
4.475
4.469
4.469
4.471
4.471
4.484
4.497
4.510
4.523
4.536
4.549
4.562
4.575
4.575
4.574
4.573
4.575
4.569
4.574
4.581
4.573
4.565
4.553
4.552
4.556
4.558
4.557
4.545
4.546
4.556
4.553
4.553
4.566
4.557
4.556
4.574
4.568
4.559
4.549
4.540
4.531
4.522
4.513
4.507
4.495
4.486
4.483
4.477
4.482
4.494
4.505
4.517
4.528
4.540
4.551
4.556
4.566
4.549
4.545
4.553
4.551
4.554
4.545
4.544
4.534
4.538
4.540
4.525
4.518
4.524
4.519
4.514
4.514
4.513
4.513
4.501
4.501
4.518
4.530
4.521
4.526
4.520
4.530
4.520
4.526
4.516
4.513
4.521
4.514
4.506
4.505
4.513
4.514
4.516
4.518
4.515
4.502
4.511
4.500
4.504
4.497
4.491
4.497
4.497
4.500
4.498
4.508
4.518
4.528
4.538
4.548
4.558
4.569
4.564
4.563
4.562
4.562
4.559
4.553
4.547
4.551
4.552
4.556
4.550
4.554
4.555
4.567
4.561
4.552
4.545
4.546
4.547
4.544
4.535
4.523
4.537
4.538
4.534
4.537
4.542
4.524
4.518
4.524
4.515
4.525
4.523
4.521
4.512
4.519
4.520
4.517
4.509
4.508
4.511
4.513
4.510
4.504
4.498
4.506
4.518
4.519
4.519
4.518
4.513
4.512
4.505
4.499
4.489
4.487
4.487
4.488
4.484
4.492
4.485
4.481
4.486
4.490
4.483
4.487
4.496
4.504
4.513
4.522
4.531
4.539
4.548
4.557
4.565
4.574
4.583
4.591
4.600
4.602
4.597
4.599
4.594
4.586
4.598
4.595
4.594
4.598
4.588
4.589
4.580
4.575
4.585
4.576
4.572
4.580
4.588
4.585
4.577
4.576
4.577
4.566
4.567
4.571
4.571
4.569
4.556
4.565
4.570
4.565
4.555
4.548
4.536
4.540
4.536
4.536
4.541
4.545
4.546
4.546
4.549
4.543
4.542
4.543
4.550
4.543
4.539
4.540
4.548
4.551
4.562
4.568
4.560
4.558
4.561
4.556
4.556
4.558
4.553
4.550
4.557
4.548
4.540
4.542
4.534
4.532
4.543
4.539
4.542
4.533
4.524
4.515
4.513
4.511
4.514
4.526
4.524
4.530
4.526
4.514
4.522
4.528
4.528
4.535
4.533
4.520
4.517
4.521
4.519
4.512
4.505
4.504
4.511
4.519
4.526
4.533
4.540
4.547
4.555
4.562
4.569
4.576
4.584
4.591
4.590
4.588
4.584
4.579
4.582
4.576
4.577
4.580
4.571
4.567
4.558
4.546
4.548
4.559
4.566
4.555
4.550
4.560
4.556
4.562
4.569
4.565
4.555
4.557
4.570
4.557
4.560
4.570
4.563
4.551
4.551
4.556
4.561
4.574
4.566
4.563
4.573
4.572
4.570
4.558
4.554
4.564
4.550
4.559
4.558
4.554
4.557
4.552
4.563
4.549
4.547
4.541
4.539
4.527
4.522
4.528
4.528
4.527
4.538
4.528
4.524
4.527
4.530
4.531
4.531
4.527
4.530
4.522
4.525
4.511
4.510
4.515
4.512
4.514
4.508
4.513
4.516
4.507
4.514
4.513
4.514
4.509
4.505
4.503
4.502
4.501
4.502
4.505
4.502
4.513
4.525
4.511
4.513
4.510
4.502
4.498
4.502
4.503
4.498
4.499
4.499
4.505
4.500
4.512
4.519
4.511
4.521
4.521
4.529
4.537
4.539
4.545
4.553
4.545
4.545
4.536
4.531
4.530
4.527
4.535
4.530
4.533
4.532
4.521
4.528
4.521
4.511
4.502
4.514
4.513
4.523
4.522
4.514
4.507
4.499
4.492
4.494
4.488
4.489
4.483
4.486
4.492
4.498
4.504
4.510
4.515
4.521
4.527
4.533
4.538
4.544
4.550
4.556
4.562
4.567
4.573
4.579
4.585
4.590
4.596
4.602
4.608
4.612
4.611
4.620
4.611
4.606
4.601
4.612
4.613
4.606
4.613
4.622
4.620
4.626
4.627
4.614
4.617
4.610
4.601
4.600
4.596
4.597
4.599
4.599
4.600
4.603
4.606
4.605
4.597
4.607
4.604
4.593
4.596
4.584
4.583
4.580
4.582
4.581
4.581
4.589
4.597
4.603
4.592
4.589
4.579
4.587
4.594
4.603
4.612
4.621
4.616
4.615
4.611
4.606
4.600
4.600
4.594
4.594
4.593
4.591
4.586
4.582
4.579
4.574
4.565
4.566
4.567
4.565
4.569
4.562
4.562
4.560
4.559
4.562
4.561
4.564
4.568
4.563
4.568
4.575
4.583
4.586
4.583
4.582
4.581
4.575
4.565
4.561
4.567
4.565
4.567
4.562
4.557
4.551
4.546
4.541
4.536
4.538
4.533
4.534
4.535
4.537
4.546
4.552
4.555
4.551
4.546
4.543
4.541
4.537
4.533
4.526
4.532
4.535
4.528
4.522
4.518
4.515
4.517
4.522
4.518
4.514
4.514
4.515
4.524
4.529
4.535
4.532
4.528
4.526
4.538
4.535
4.533
4.533
4.540
4.536
4.544
4.545
4.543
4.536
4.535
4.529
4.528
4.521
4.513
4.518
4.514
4.507
4.500
4.494
4.487
4.480
4.476
4.482
4.490
4.491
4.486
4.490
4.492
4.497
4.490
4.491
4.492
4.483
4.488
4.485
4.482
4.493
4.493
4.488
4.493
4.487
4.484
4.480
4.486
4.479
4.482
4.485
4.492
4.489
4.492
4.500
4.502
4.509
4.511
4.506
4.503
4.500
4.500
4.498
4.495
4.499
4.493
4.491
4.491
4.494
4.493
4.494
4.490
4.495
4.502
4.499
4.493
4.479
4.481
