2.994
3.329
3.508
3.629
3.718
3.775
3.834
3.871
3.935
3.939
3.990
4.029
4.014
4.035
4.064
4.090
4.116
4.142
4.160
4.185
4.208
4.164
4.131
4.141
4.157
4.169
4.176
4.194
4.197
4.215
4.216
4.234
4.234
4.245
4.257
4.257
4.268
4.281
4.279
4.289
4.299
4.306
4.302
4.312
4.318
4.328
4.335
4.333
4.337
4.342
4.351
4.355
4.364
4.375
4.362
4.368
4.371
4.382
4.387
4.390
4.400
4.404
4.409
4.415
4.401
4.407
4.411
4.415
4.423
4.429
4.431
4.432
4.442
4.449
4.447
4.449
4.457
4.457
4.441
4.449
4.450
4.453
4.455
4.465
4.463
4.473
4.469
4.471
4.477
4.487
4.488
4.492
4.494
4.494
4.496
4.500
4.505
4.511
4.513
4.519
4.508
4.497
4.496
4.497
4.501
4.505
4.505
4.517
4.515
4.514
4.520
4.528
4.516
4.522
4.521
4.528
4.531
4.536
4.543
4.546
4.542
4.546
4.551
4.557
4.548
4.549
4.553
4.555
4.553
4.560
4.567
4.568
4.568
4.572
4.576
4.575
4.583
4.583
4.579
4.588
4.583
4.585
4.590
4.591
4.586
4.574
4.562
4.558
4.560
4.566
4.570
4.568
4.573
4.572
4.581
4.577
4.576
4.582
4.578
4.582
4.589
4.588
4.594
4.585
4.587
4.585
4.583
4.586
4.586
4.588
4.594
4.593
4.600
4.594
4.603
4.601
4.608
4.607
4.611
4.613
4.614
4.610
4.612
4.608
4.612
4.620
4.614
4.626
4.622
4.634
4.625
4.631
4.631
4.624
4.619
4.620
4.630
4.624
4.628
4.621
4.627
4.627
4.627
4.637
4.630
4.631
4.631
4.635
4.639
4.643
4.642
4.648
4.652
4.651
4.655
4.654
4.647
4.659
4.657
4.646
4.653
4.656
4.655
4.665
4.663
4.660
4.666
4.667
4.666
4.667
4.674
4.670
4.669
4.683
4.677
4.671
4.679
4.668
4.663
4.671
4.675
4.675
4.674
4.683
4.675
4.668
4.674
4.678
4.668
4.668
4.680
4.681
4.680
4.675
4.685
4.684
4.686
4.687
4.690
4.697
4.690
4.694
4.690
4.701
4.701
4.700
4.699
4.705
4.701
4.705
4.701
4.701
4.697
4.690
4.683
4.678
4.671
4.664
4.669
4.670
4.660
4.660
4.661
4.676
4.675
4.673
4.671
4.668
4.680
4.684
4.680
4.681
4.675
4.679
4.680
4.679
4.679
4.678
4.680
4.690
4.686
4.681
4.682
4.687
4.691
4.700
4.699
4.698
4.701
4.697
4.699
4.703
4.701
4.692
4.685
4.686
4.685
4.684
4.685
4.686
4.685
4.689
4.685
4.681
4.685
4.676
4.674
4.684
4.688
4.684
4.685
4.681
4.677
4.683
4.688
4.686
4.682
4.681
4.680
4.679
4.688
4.698
4.696
4.692
4.694
4.694
4.691
4.694
4.702
4.703
4.699
4.701
4.701
4.701
4.699
4.700
4.705
4.701
4.701
4.697
4.694
4.695
4.696
4.709
4.713
4.708
4.708
4.706
4.707
4.703
4.702
4.709
4.715
4.720
4.721
4.717
4.720
4.717
4.721
4.719
4.723
4.728
4.729
4.731
4.727
4.717
4.710
4.705
4.715
4.727
4.724
4.719
4.718
4.717
4.718
4.714
4.712
4.717
4.721
4.722
4.716
4.717
4.715
4.717
4.715
4.716
4.713
4.723
4.735
4.736
4.726
4.731
4.729
4.731
4.729
4.728
4.723
4.728
4.738
4.739
4.731
4.728
4.729
4.730
4.727
4.730
4.729
4.731
4.737
4.746
4.748
4.749
4.746
4.746
4.746
4.744
4.743
4.744
4.746
4.747
4.749
4.758
4.762
4.757
4.757
4.755
4.753
4.752
4.753
4.753
4.751
4.747
4.754
4.764
4.762
4.763
4.760
4.760
4.759
4.753
4.746
4.741
4.735
4.741
4.738
4.739
4.745
4.744
4.738
4.733
4.729
4.733
4.729
4.728
4.729
4.739
4.748
4.747
4.740
4.733
4.727
4.725
4.721
4.723
4.718
4.719
4.720
4.727
4.735
4.744
4.745
4.739
4.738
4.738
4.738
4.738
4.729
4.734
4.732
4.731
4.729
4.733
4.737
4.744
4.751
4.757
4.759
4.757
4.760
4.757
4.751
4.746
4.742
4.738
4.735
4.739
4.742
4.738
4.745
4.755
4.757
4.758
4.753
4.755
4.754
4.749
4.743
4.747
4.742
4.742
4.740
4.731
4.731
4.739
4.748
4.749
4.757
4.758
4.756
4.752
4.753
4.752
4.749
4.757
4.749
4.746
4.753
4.750
4.745
4.746
4.745
4.750
4.759
4.766
4.770
4.768
4.768
4.771
4.771
4.771
4.770
4.774
4.765
4.758
4.760
4.757
4.757
4.749
4.757
4.758
4.760
4.768
4.771
4.775
4.768
4.764
4.765
4.764
4.762
4.760
4.765
4.764
4.764
4.761
4.760
4.760
4.757
4.757
4.759
4.758
4.767
4.775
4.781
4.782
4.789
4.788
4.783
4.786
4.789
4.783
4.786
4.783
4.783
4.782
4.779
4.779
4.784
4.783
4.779
4.775
4.770
4.774
4.779
4.786
4.794
4.793
4.790
4.788
4.789
4.788
4.795
4.794
4.792
4.791
4.787
4.782
4.778
4.774
4.775
4.772
4.773
4.772
4.768
4.771
4.778
4.783
4.783
4.782
4.778
4.780
4.783
4.780
4.776
4.779
4.778
4.774
4.778
4.782
4.776
4.777
4.775
4.775
4.771
4.768
4.764
4.760
4.767
4.774
4.779
4.777
4.776
4.779
4.781
4.782
4.784
4.782
4.778
4.772
4.773
4.779
4.773
4.775
4.775
4.771
4.775
4.772
4.775
4.779
4.778
4.777
4.781
4.777
4.773
4.779
4.786
4.791
4.790
4.791
4.794
4.790
4.786
4.786
4.789
4.786
4.792
4.783
4.784
4.780
4.783
4.783
4.784
4.782
4.786
4.779
4.779
4.779
4.781
4.780
4.776
4.779
4.783
4.783
4.789
4.796
4.801
4.808
4.812
4.813
4.806
4.805
4.808
4.804
4.800
4.796
4.800
4.797
4.798
4.797
4.795
4.799
4.803
4.801
4.797
4.799
4.801
4.801
4.800
4.794
4.798
4.801
4.800
4.799
4.795
4.797
4.803
4.810
4.814
4.821
4.820
4.823
4.820
4.824
4.828
4.826
4.822
4.816
4.819
4.815
4.809
4.807
4.809
4.815
4.812
4.810
4.812
4.813
4.809
4.802
4.803
4.807
4.809
4.805
4.806
4.804
4.801
4.802
4.800
4.805
4.811
4.818
4.816
4.815
4.817
4.815
4.816
4.810
4.809
4.801
4.801
4.807
4.806
4.807
4.809
4.815
4.814
4.808
4.808
4.815
4.808
4.802
4.803
4.802
4.801
4.799
4.795
4.793
4.798
4.794
4.797
4.796
4.794
4.797
4.803
4.810
4.816
4.821
4.825
4.832
4.836
4.834
4.831
4.829
4.828
4.826
4.831
4.832
4.828
4.826
4.823
4.821
4.822
4.823
4.825
4.823
4.825
4.826
4.820
4.821
4.825
4.827
4.825
4.826
4.823
4.821
4.822
4.823
4.825
4.824
4.825
4.826
4.822
4.820
4.819
4.821
4.822
4.827
4.833
4.837
4.842
4.848
4.853
4.859
4.861
4.857
4.858
4.856
4.855
4.857
4.853
4.848
4.841
4.843
4.842
4.842
4.844
4.846
4.841
4.835
4.833
4.829
4.831
4.831
4.834
4.834
4.838
4.837
4.831
4.831
4.830
4.829
4.834
4.834
4.831
4.827
4.825
4.823
4.819
4.821
4.827
4.832
4.836
4.837
4.833
4.827
4.823
4.820
4.819
4.820
4.816
4.813
4.816
4.820
4.817
4.818
4.814
4.815
4.820
4.821
4.819
4.815
4.814
4.815
4.814
4.813
4.811
4.815
4.816
4.816
4.812
4.815
4.811
4.807
4.808
4.810
4.812
4.812
4.809
4.807
4.805
4.801
4.800
4.804
4.809
4.813
4.819
4.816
4.822
4.829
4.831
4.831
4.828
4.826
4.827
4.824
4.823
4.820
4.819
4.821
4.825
4.823
4.822
4.821
4.822
4.820
4.820
4.823
4.820
4.816
4.811
4.808
4.806
4.805
4.805
4.802
4.803
4.804
4.811
4.812
4.811
4.810
4.803
4.805
4.803
4.799
4.794
4.794
4.798
4.796
4.794
4.793
4.797
4.797
4.798
4.802
4.808
4.812
4.816
4.821
4.825
4.831
