2.992
3.318
3.505
3.608
3.710
3.757
3.842
3.837
3.898
3.948
4.003
3.964
3.930
3.960
3.986
4.007
4.022
4.036
4.066
4.072
4.099
4.096
4.120
4.124
4.137
4.158
4.173
4.168
4.181
4.197
4.214
4.204
4.217
4.224
4.237
4.249
4.265
4.278
4.244
4.258
4.276
4.271
4.286
4.296
4.296
4.306
4.321
4.332
4.330
4.309
4.318
4.317
4.329
4.330
4.337
4.346
4.348
4.357
4.372
4.360
4.371
4.374
4.387
4.390
4.402
4.406
4.406
4.397
4.405
4.413
4.385
4.391
4.382
4.384
4.395
4.404
4.412
4.404
4.401
4.405
4.408
4.419
4.428
4.433
4.423
4.428
4.434
4.440
4.453
4.459
4.451
4.441
4.433
4.449
4.449
4.449
4.457
4.472
4.467
4.476
4.475
4.472
4.480
4.487
4.480
4.501
4.483
4.500
4.494
4.508
4.508
4.494
4.514
4.490
4.497
4.493
4.499
4.501
4.522
4.512
4.525
4.525
4.524
4.533
4.526
4.540
4.535
4.544
4.535
4.534
4.528
4.513
4.499
4.503
4.498
4.491
4.513
4.505
4.500
4.523
4.524
4.520
4.534
4.529
4.525
4.537
4.521
4.506
4.520
4.518
4.502
4.508
4.509
4.495
4.515
4.510
4.508
4.512
4.531
4.524
4.521
4.524
4.536
4.527
4.517
4.531
4.538
4.535
4.524
4.534
4.555
4.552
4.544
4.537
4.557
4.563
4.563
4.554
4.549
4.548
4.549
4.549
4.539
4.559
4.551
4.550
4.544
4.548
4.566
4.566
4.564
4.557
4.545
4.565
4.573
4.566
4.573
4.571
4.572
4.581
4.596
4.583
4.582
4.583
4.578
4.589
4.601
4.595
4.596
4.584
4.580
4.591
4.606
4.594
4.582
4.569
4.563
4.582
4.585
4.583
4.571
4.558
4.556
4.570
4.576
4.569
4.571
4.573
4.569
4.567
4.572
4.588
4.586
4.580
4.577
4.570
4.569
4.571
4.578
4.595
4.579
4.572
4.571
4.563
4.571
4.575
4.577
4.595
4.592
4.593
4.595
4.596
4.596
4.593
4.589
4.585
4.602
4.615
4.615
4.602
4.600
4.593
4.587
4.588
4.588
4.598
4.614
4.616
4.620
4.619
4.616
4.615
4.614
4.611
4.620
4.603
4.615
4.632
4.634
4.627
4.621
4.627
4.624
4.626
4.619
4.619
4.607
4.620
4.632
4.625
4.616
4.608
4.616
4.609
4.608
4.600
4.599
4.600
4.610
4.618
4.616
4.625
4.615
4.619
4.621
4.613
4.616
4.610
4.612
4.616
4.611
4.617
4.631
4.630
4.629
4.618
4.624
4.633
4.625
4.631
4.629
4.627
4.625
4.620
4.613
4.621
4.636
4.650
4.653
4.651
4.653
4.659
4.651
4.653
4.646
4.645
4.640
4.643
4.638
4.639
4.641
4.636
4.650
4.663
4.672
4.664
4.669
4.660
4.657
4.646
4.648
4.652
4.653
4.645
4.642
4.632
4.633
4.631
4.644
4.657
4.660
4.665
4.662
4.655
4.657
4.653
4.656
4.654
4.645
4.654
4.655
4.651
4.652
4.648
4.640
4.636
4.643
4.655
4.668
4.680
4.692
4.697
4.685
4.687
4.689
4.685
4.681
4.681
4.687
4.688
4.680
4.682
4.682
4.677
4.667
4.663
4.657
4.661
4.667
4.678
4.690
4.702
4.702
4.699
4.703
4.701
4.703
4.695
4.684
4.685
4.678
4.680
4.682
4.676
4.670
4.664
4.657
4.651
4.644
4.652
4.664
4.674
4.685
4.690
4.687
4.686
4.677
4.669
4.661
4.653
4.660
4.660
4.665
4.656
4.654
4.644
4.642
4.637
4.632
4.625
4.631
4.631
4.633
4.644
4.654
4.664
4.674
4.679
4.680
4.671
4.666
4.663
4.665
4.667
4.660
4.664
4.672
4.669
4.665
4.661
4.660
4.650
4.657
4.657
4.659
4.659
4.657
4.653
4.658
4.658
4.649
4.645
4.654
4.664
4.664
4.662
4.662
4.664
4.657
4.655
4.665
4.667
4.662
4.658
4.656
4.651
4.656
4.656
4.659
4.654
4.648
4.649
4.648
4.646
4.645
4.648
4.650
4.645
4.652
4.658
4.655
4.647
4.655
4.648
4.657
4.667
4.676
4.685
4.683
4.684
4.680
4.671
4.662
4.660
4.661
4.672
4.665
4.664
4.663
4.659
4.660
4.664
4.668
4.661
4.662
4.656
4.652
4.646
4.646
4.646
4.639
4.649
4.646
4.645
4.653
4.643
4.641
4.643
4.639
4.647
4.655
4.664
4.672
4.681
4.688
4.687
4.700
4.697
4.695
4.686
4.678
4.678
4.682
4.676
4.667
4.663
4.665
4.669
4.669
4.665
4.665
4.664
4.668
4.672
4.665
4.660
4.657
4.652
4.664
4.663
4.663
4.662
4.666
4.666
4.664
4.662
4.660
4.669
4.658
4.659
4.666
4.658
4.657
4.665
4.673
4.681
4.689
4.696
4.692
4.695
4.698
4.704
4.696
4.692
4.699
4.692
4.689
4.690
4.695
4.704
4.702
4.705
4.702
4.705
4.701
4.703
4.700
4.692
4.688
4.679
4.682
4.688
4.677
4.677
4.670
4.673
4.683
4.685
4.683
4.675
4.676
4.674
4.670
4.665
4.658
4.662
4.672
4.677
4.682
4.677
4.679
4.677
4.669
4.673
4.681
4.688
4.695
4.703
4.710
4.717
4.725
4.732
4.737
4.730
4.725
4.731
4.732
4.735
4.725
4.723
4.720
4.719
4.721
4.727
4.728
4.728
4.724
4.722
4.719
4.715
4.708
4.708
4.709
4.711
4.718
4.716
4.717
4.721
4.717
4.723
4.719
4.723
4.727
4.722
4.719
4.712
4.705
4.710
4.702
4.696
4.693
4.694
4.699
4.695
4.700
4.693
4.685
4.677
4.681
4.682
4.682
4.677
4.681
4.688
4.695
4.701
4.708
4.715
4.717
4.708
4.711
4.720
4.720
4.720
4.723
4.719
4.714
4.707
4.706
4.704
4.708
4.714
4.718
4.718
4.712
4.713
4.710
4.707
4.705
4.697
4.692
4.696
4.685
4.685
4.675
4.677
4.673
4.677
4.687
4.684
4.680
4.682
4.678
4.680
4.681
4.678
4.683
4.689
4.690
4.690
4.696
4.691
4.687
4.686
4.674
4.673
4.672
4.669
4.673
4.676
4.677
4.677
4.665
4.670
4.668
4.667
4.665
4.663
4.666
4.666
4.672
4.678
4.684
4.690
4.696
4.702
4.708
4.714
4.721
4.727
4.733
4.739
4.735
4.734
4.731
4.731
4.731
4.732
4.731
4.732
4.735
4.730
4.724
4.721
4.718
4.717
4.715
4.717
4.714
4.719
4.727
4.731
4.731
4.729
4.730
4.727
4.726
4.719
4.717
4.713
4.714
4.724
4.728
4.719
4.721
4.722
4.722
4.721
4.719
4.724
4.723
4.719
4.716
4.718
4.720
4.721
4.723
4.715
4.714
4.717
4.716
4.712
4.715
4.710
4.709
4.705
4.702
4.705
4.703
4.700
4.700
4.696
4.703
4.703
4.712
4.714
4.717
4.714
4.715
4.709
4.704
4.712
4.716
4.711
4.707
4.703
4.699
4.695
4.692
4.695
4.700
4.706
4.711
4.717
4.722
4.728
4.733
4.739
4.744
4.750
4.755
4.753
4.754
4.751
4.749
4.743
4.747
4.741
4.732
4.727
4.730
4.723
4.717
4.712
4.718
4.721
4.715
4.713
4.710
4.708
4.701
4.700
4.694
4.704
4.706
4.701
4.707
4.709
4.709
4.705
4.697
4.694
4.694
4.695
4.701
4.703
4.700
4.702
4.701
4.696
4.701
4.706
4.706
4.700
4.707
4.707
4.706
4.701
4.700
4.697
4.693
4.693
4.694
4.691
4.686
4.681
4.684
4.677
4.683
4.683
4.684
4.679
4.674
4.678
4.678
4.679
4.673
4.668
4.666
4.672
4.667
4.663
4.661
4.661
4.672
4.663
4.657
4.657
4.656
4.658
4.653
4.656
4.663
4.663
4.666
4.673
4.669
4.661
4.662
4.663
4.668
4.672
4.677
4.682
4.687
4.692
4.697
4.702
4.707
4.712
4.717
4.721
4.726
4.731
4.736
4.741
4.746
4.751
4.756
4.761
4.766
4.767
4.760
4.761
4.764
4.765
4.765
4.772
4.766
4.767
4.774
4.771
4.765
4.764
4.760
4.760
4.756
4.753
4.758
4.753
4.747
4.739
4.743
4.740
4.739
4.735
4.732
4.734
4.731
4.730
