2.994
3.335
3.514
3.630
3.708
3.781
3.831
3.875
3.928
3.937
3.985
4.027
4.054
4.030
4.064
4.086
4.114
4.142
4.158
4.184
4.205
4.205
4.161
4.143
4.155
4.165
4.182
4.189
4.204
4.209
4.224
4.225
4.240
4.242
4.253
4.268
4.264
4.277
4.287
4.290
4.292
4.301
4.312
4.321
4.312
4.326
4.331
4.338
4.350
4.340
4.347
4.353
4.363
4.367
4.374
4.383
4.374
4.378
4.383
4.387
4.397
4.400
4.402
4.416
4.418
4.420
4.408
4.416
4.418
4.422
4.427
4.433
4.437
4.441
4.443
4.453
4.456
4.457
4.460
4.469
4.465
4.453
4.462
4.455
4.456
4.461
4.470
4.471
4.479
4.475
4.484
4.483
4.492
4.496
4.497
4.504
4.500
4.504
4.506
4.513
4.516
4.521
4.522
4.526
4.516
4.508
4.506
4.504
4.511
4.513
4.517
4.516
4.525
4.523
4.527
4.534
4.530
4.534
4.533
4.534
4.538
4.537
4.546
4.551
4.550
4.548
4.552
4.557
4.561
4.556
4.557
4.564
4.561
4.565
4.568
4.573
4.575
4.575
4.577
4.583
4.580
4.589
4.586
4.594
4.596
4.598
4.593
4.590
4.596
4.598
4.590
4.579
4.566
4.571
4.566
4.576
4.579
4.570
4.583
4.583
4.588
4.586
4.582
4.589
4.593
4.590
4.597
4.594
4.599
4.600
4.591
4.598
4.590
4.597
4.594
4.594
4.601
4.600
4.605
4.603
4.608
4.606
4.612
4.611
4.615
4.619
4.616
4.625
4.623
4.623
4.616
4.620
4.621
4.630
4.627
4.631
4.637
4.633
4.643
4.641
4.637
4.625
4.632
4.628
4.631
4.642
4.632
4.636
4.631
4.631
4.638
4.642
4.640
4.644
4.640
4.647
4.646
4.642
4.657
4.653
4.654
4.663
4.662
4.658
4.667
4.663
4.659
4.664
4.657
4.652
4.670
4.668
4.662
4.669
4.675
4.672
4.668
4.679
4.679
4.682
4.683
4.686
4.679
4.683
4.686
4.686
4.681
4.682
4.671
4.672
4.681
4.688
4.686
4.682
4.686
4.680
4.678
4.677
4.684
4.680
4.679
4.682
4.692
4.688
4.686
4.686
4.698
4.697
4.697
4.701
4.698
4.705
4.703
4.701
4.700
4.712
4.714
4.710
4.705
4.710
4.716
4.715
4.709
4.702
4.698
4.691
4.684
4.679
4.679
4.679
4.671
4.677
4.673
4.674
4.675
4.671
4.686
4.688
4.681
4.682
4.681
4.686
4.697
4.688
4.686
4.675
4.683
4.691
4.692
4.691
4.689
4.686
4.694
4.694
4.697
4.696
4.692
4.696
4.701
4.708
4.712
4.715
4.708
4.701
4.705
4.705
4.698
4.690
4.687
4.690
4.695
4.699
4.698
4.699
4.690
4.690
4.698
4.696
4.687
4.679
4.683
4.683
4.695
4.704
4.697
4.688
4.686
4.688
4.687
4.697
4.694
4.693
4.697
4.693
4.692
4.691
4.701
4.705
4.708
4.702
4.709
4.707
4.706
4.704
4.712
4.712
4.712
4.715
4.708
4.710
4.703
4.708
4.712
4.708
4.711
4.708
4.708
4.704
4.705
4.712
4.722
4.718
4.719
4.718
4.716
4.715
4.712
4.710
4.719
4.727
4.730
4.734
4.730
4.732
4.727
4.731
4.727
4.727
4.738
4.742
4.734
4.726
4.719
4.715
4.712
4.716
4.728
4.734
4.733
4.729
4.728
4.726
4.730
4.724
4.720
4.723
4.731
4.731
4.728
4.731
4.728
4.727
4.725
4.731
4.730
4.727
4.738
4.742
4.742
4.738
4.742
4.745
4.744
4.734
4.734
4.735
4.742
4.745
4.746
4.738
4.739
4.742
4.738
4.742
4.744
4.742
4.739
4.738
4.749
4.757
4.758
4.757
4.758
4.756
4.757
4.756
4.750
4.757
4.763
4.759
4.757
4.765
4.768
4.765
4.761
4.767
4.764
4.764
4.764
4.757
4.757
4.753
4.758
4.767
4.777
4.775
4.769
4.764
4.760
4.754
4.747
4.743
4.736
4.742
4.752
4.751
4.749
4.753
4.749
4.748
4.746
4.737
4.739
4.738
4.742
4.743
4.742
4.751
4.747
4.740
4.734
4.734
4.734
4.735
4.731
4.734
4.733
4.732
4.733
4.734
4.742
4.749
4.752
4.753
4.749
4.753
4.747
4.748
4.742
4.740
4.742
4.745
4.746
4.745
4.738
4.746
4.753
4.762
4.769
4.768
4.768
4.765
4.757
4.753
4.753
4.751
4.752
4.749
4.746
4.748
4.742
4.751
4.758
4.767
4.768
4.767
4.763
4.757
4.750
4.753
4.757
4.756
4.750
4.742
4.739
4.740
4.739
4.745
4.753
4.760
4.764
4.771
4.766
4.764
4.761
4.765
4.763
4.764
4.761
4.757
4.757
4.760
4.758
4.753
4.753
4.757
4.758
4.767
4.774
4.781
4.783
4.776
4.775
4.779
4.785
4.778
4.774
4.770
4.771
4.771
4.764
4.759
4.757
4.760
4.769
4.767
4.769
4.775
4.782
4.781
4.775
4.778
4.774
4.771
4.772
4.771
4.774
4.775
4.775
4.779
4.771
4.767
4.764
4.770
4.771
4.771
4.771
4.776
4.783
4.790
4.794
4.798
4.799
4.795
4.793
4.800
4.797
4.798
4.797
4.792
4.790
4.792
4.791
4.790
4.790
4.787
4.783
4.784
4.783
4.786
4.788
4.797
4.802
4.801
4.802
4.795
4.799
4.801
4.804
4.801
4.796
4.790
4.786
4.787
4.786
4.784
4.786
4.781
4.775
4.771
4.768
4.775
4.780
4.787
4.794
4.790
4.790
4.787
4.791
4.789
4.788
4.789
4.793
4.790
4.786
4.786
4.788
4.783
4.780
4.784
4.780
4.773
4.768
4.765
4.766
4.770
4.777
4.783
4.783
4.787
4.786
4.790
4.793
4.794
4.791
4.789
4.786
4.784
4.783
4.789
4.786
4.784
4.786
4.779
4.783
4.783
4.783
4.789
4.788
4.787
4.791
4.790
4.786
4.787
4.786
4.792
4.799
4.803
4.799
4.800
4.799
4.798
4.799
4.801
4.793
4.797
4.791
4.794
4.796
4.797
4.794
4.790
4.793
4.792
4.794
4.790
4.794
4.792
4.796
4.790
4.788
4.786
4.793
4.795
4.796
4.801
4.807
4.814
4.820
4.816
4.818
4.817
4.816
4.812
4.810
4.811
4.810
4.808
4.805
4.805
4.808
4.806
4.808
4.811
4.810
4.811
4.813
4.812
4.810
4.808
4.807
4.811
4.815
4.809
4.808
4.806
4.810
4.809
4.813
4.819
4.824
4.830
4.831
4.831
4.834
4.831
4.827
4.830
4.829
4.825
4.824
4.822
4.818
4.820
4.820
4.825
4.826
4.822
4.818
4.817
4.813
4.814
4.818
4.814
4.818
4.814
4.812
4.814
4.812
4.809
4.807
4.808
4.812
4.817
4.824
4.828
4.827
4.825
4.821
4.817
4.816
4.814
4.815
4.814
4.815
4.812
4.820
4.822
4.823
4.822
4.818
4.823
4.818
4.820
4.818
4.814
4.813
4.811
4.807
4.803
4.807
4.803
4.810
4.801
4.802
4.808
4.807
4.806
4.810
4.812
4.818
4.825
4.829
4.834
4.840
4.844
4.843
4.844
4.842
4.839
4.837
4.841
4.838
4.834
4.832
4.833
4.834
4.836
4.835
4.838
4.837
4.831
4.831
4.828
4.827
4.831
4.834
4.836
4.837
4.834
4.834
4.833
4.834
4.836
4.838
4.834
4.831
4.833
4.829
4.830
4.832
4.830
4.826
4.831
4.837
4.842
4.846
4.852
4.857
4.863
4.868
4.868
4.865
4.863
4.860
4.860
4.853
4.852
4.849
4.850
4.853
4.855
4.851
4.850
4.849
4.844
4.842
4.842
4.843
4.844
4.840
4.844
4.849
4.844
4.845
4.842
4.842
4.838
4.837
4.836
4.834
4.830
4.827
4.825
4.823
4.820
4.823
4.827
4.832
4.836
4.840
4.836
4.831
4.830
4.827
4.825
4.824
4.825
4.826
4.823
4.826
4.827
4.826
4.827
4.824
4.822
4.823
4.828
4.831
4.828
4.827
4.827
4.827
4.822
4.823
4.822
4.821
4.823
4.826
4.822
4.821
4.819
4.816
4.816
4.821
4.817
4.813
4.809
4.807
4.805
4.801
4.800
4.805
4.808
4.813
4.819
4.823
4.828
4.829
4.836
4.838
4.838
4.837
4.838
4.837
4.834
4.832
4.834
4.831
4.831
