2.982
3.225
3.441
3.451
3.514
3.580
3.679
3.722
3.750
3.779
3.828
3.877
3.858
3.865
3.922
3.967
3.939
3.926
3.959
4.002
3.976
4.009
4.037
4.054
4.038
4.073
4.094
4.101
4.109
4.127
4.097
4.111
4.028
4.074
4.091
4.119
4.097
4.116
4.137
4.125
4.123
4.174
4.166
4.184
4.166
4.193
4.147
4.146
4.143
4.160
4.125
4.182
4.171
4.171
4.187
4.193
4.195
4.253
4.202
4.198
4.184
4.169
4.180
4.219
4.218
4.198
4.204
4.259
4.277
4.227
4.232
4.258
4.238
4.243
4.229
4.223
4.279
4.302
4.284
4.256
4.267
4.265
4.316
4.340
4.321
4.310
4.288
4.271
4.253
4.259
4.264
4.266
4.220
4.222
4.267
4.256
4.268
4.248
4.250
4.245
4.221
4.221
4.263
4.269
4.277
4.272
4.270
4.237
4.235
4.244
4.225
4.242
4.279
4.308
4.291
4.290
4.291
4.266
4.281
4.257
4.242
4.252
4.247
4.274
4.296
4.330
4.350
4.338
4.332
4.333
4.332
4.318
4.333
4.321
4.319
4.300
4.276
4.277
4.292
4.323
4.318
4.345
4.327
4.322
4.292
4.289
4.275
4.273
4.258
4.264
4.305
4.283
4.263
4.263
4.263
4.274
4.302
4.329
4.356
4.377
4.385
4.380
4.374
4.381
4.389
4.410
4.372
4.362
4.335
4.335
4.333
4.327
4.306
4.292
4.272
4.265
4.247
4.260
4.284
4.308
4.332
4.356
4.367
4.381
4.365
4.367
4.373
4.345
4.352
4.355
4.337
4.304
4.313
4.327
4.326
4.323
4.305
4.296
4.297
4.307
4.309
4.287
4.275
4.257
4.243
4.252
4.264
4.260
4.280
4.301
4.321
4.341
4.362
4.371
4.374
4.401
4.402
4.413
4.401
4.369
4.370
4.349
4.345
4.340
4.338
4.344
4.343
4.318
4.328
4.320
4.314
4.302
4.286
4.295
4.289
4.288
4.314
4.341
4.334
4.310
4.299
4.285
4.286
4.297
4.288
4.293
4.269
4.271
4.296
4.279
4.293
4.293
4.310
4.327
4.344
4.361
4.378
4.395
4.412
4.429
4.439
4.438
4.426
4.406
4.403
4.388
4.370
4.350
4.372
4.385
4.395
4.406
4.384
4.376
4.375
4.360
4.357
4.340
4.330
4.315
4.323
4.321
4.304
4.305
4.293
4.284
4.292
4.273
4.285
4.258
4.271
4.278
4.273
4.259
4.253
4.253
4.247
4.261
4.266
4.244
4.231
4.240
4.260
4.281
4.288
4.311
4.300
4.296
4.306
4.281
4.271
4.266
4.274
4.272
4.286
4.300
4.313
4.327
4.340
4.354
4.367
4.381
4.394
4.408
4.422
4.435
4.430
4.422
4.424
4.426
4.416
4.387
4.399
4.405
4.413
4.396
4.379
4.362
4.346
4.356
4.352
4.337
4.322
4.314
4.325
4.340
4.357
4.357
4.349
4.340
4.327
4.331
4.323
4.342
4.331
4.323
4.313
4.330
4.348
4.355
4.355
4.354
4.366
4.362
4.347
4.341
4.337
4.353
4.356
4.343
4.349
4.348
4.348
4.359
4.368
4.363
4.345
4.336
4.314
4.305
4.303
4.303
4.304
4.309
4.303
4.300
4.300
4.313
4.301
4.291
4.288
4.287
4.290
4.309
4.310
4.294
4.307
4.296
4.294
4.295
4.298
4.299
4.287
4.276
4.270
4.270
4.284
4.298
4.292
4.290
4.284
4.283
4.268
4.265
4.258
4.248
4.252
4.258
4.268
4.279
4.289
4.299
4.309
4.319
4.329
4.339
4.350
4.360
4.370
4.380
4.390
4.401
4.411
4.421
4.421
4.431
4.430
4.445
4.444
4.458
4.459
4.473
4.476
4.467
4.463
4.463
4.450
4.439
4.432
4.435
4.415
4.410
4.395
4.392
4.384
4.380
4.367
4.368
4.371
4.365
4.359
4.365
4.363
4.372
4.385
4.396
4.397
4.381
4.380
4.377
4.365
4.372
4.365
4.365
4.365
4.363
4.380
4.390
4.393
4.405
4.397
4.401
4.405
4.414
4.410
4.404
4.398
4.394
4.395
4.388
4.397
4.383
4.369
4.356
4.342
4.334
4.326
4.336
4.330
4.331
4.325
4.339
4.330
4.315
4.310
4.302
4.297
4.303
4.305
4.306
4.304
4.304
4.291
4.291
4.288
4.288
4.286
4.292
4.289
4.287
4.270
4.278
4.280
4.286
4.283
4.288
4.280
4.283
4.275
4.286
4.293
4.282
4.270
4.276
4.288
4.300
4.303
4.301
4.307
4.317
4.324
4.310
4.303
4.302
4.306
4.305
4.315
4.314
4.315
4.324
4.308
4.314
4.317
4.328
4.335
4.346
4.346
4.354
4.371
4.375
4.356
4.348
4.340
4.338
4.322
4.325
4.306
4.310
4.319
4.313
4.305
4.308
4.290
4.296
4.307
4.294
4.294
4.285
4.281
4.293
4.286
4.291
4.279
4.266
4.263
4.268
4.268
4.257
4.256
4.255
4.242
4.240
4.246
4.239
4.253
4.263
4.255
4.264
4.257
4.266
4.259
4.265
4.257
4.252
4.253
4.247
4.245
4.234
4.246
4.266
4.259
4.253
4.260
4.265
4.281
4.279
4.267
4.253
4.252
4.248
4.246
4.233
4.230
4.234
4.242
4.244
4.251
4.258
4.264
4.271
4.278
4.285
4.292
4.298
4.305
4.312
4.319
4.326
4.332
4.339
4.346
4.353
4.359
4.366
4.373
4.379
4.387
4.393
4.400
4.407
4.413
4.420
4.427
4.434
4.441
4.447
4.454
4.461
4.462
4.461
4.459
4.458
4.449
4.441
4.432
4.430
4.435
4.436
4.444
4.437
4.427
4.427
4.424
4.433
4.427
4.435
4.430
4.431
4.415
4.410
4.408
4.402
4.389
4.399
4.398
4.398
4.391
4.388
4.396
4.393
4.398
4.396
4.402
4.406
4.420
4.407
4.403
4.386
4.385
4.392
4.402
4.404
4.403
4.411
4.421
4.410
4.408
4.397
4.400
4.393
4.384
4.383
4.383
4.391
4.390
4.386
4.392
4.385
4.383
4.385
4.388
4.388
4.387
4.377
4.382
4.390
4.399
4.408
4.417
4.425
4.434
4.432
4.420
4.423
4.420
4.424
4.427
4.429
4.427
4.440
4.440
4.431
4.432
4.421
4.409
4.400
4.389
4.379
4.368
4.364
4.353
4.354
4.351
4.362
4.370
4.371
4.369
4.377
4.382
4.370
4.365
4.352
4.348
4.340
4.340
4.337
4.341
4.333
4.344
4.358
4.355
4.367
4.358
4.357
4.356
4.343
4.341
4.341
4.355
4.352
4.344
4.343
4.345
4.346
4.357
4.359
4.364
4.369
4.362
4.350
4.350
4.339
4.343
4.343
4.348
4.343
4.336
4.330
4.334
4.328
4.330
4.343
4.352
4.337
4.336
4.339
4.335
4.345
4.337
4.338
4.339
4.332
4.339
4.339
4.334
4.328
4.327
4.318
4.328
4.324
4.315
4.325
4.331
4.338
4.352
4.345
4.332
4.330
4.330
4.323
4.315
4.321
4.326
4.324
4.327
4.325
4.313
4.312
4.311
4.308
4.312
4.303
4.293
4.297
4.307
4.298
4.288
4.278
4.279
4.275
4.267
4.273
4.264
4.266
4.273
4.280
4.271
4.279
4.268
4.270
4.272
4.278
4.281
4.292
4.287
4.294
4.290
4.292
4.290
4.277
4.276
4.276
4.285
4.289
4.296
4.304
4.306
4.310
4.301
4.301
4.293
4.293
4.301
4.300
4.289
4.279
4.277
4.270
4.273
4.268
4.273
4.280
4.283
4.273
4.265
4.267
4.267
4.286
4.278
4.273
4.273
4.277
4.286
4.271
4.272
4.254
4.260
4.264
4.260
4.256
4.251
4.248
4.256
4.252
4.255
4.255
4.251
4.259
4.267
4.275
4.283
4.291
4.299
4.301
4.303
4.308
4.314
4.313
4.314
4.328
4.319
4.312
4.312
4.313
4.300
4.305
4.310
4.301
4.292
4.285
4.287
4.285
4.278
4.284
4.293
4.287
4.289
4.300
4.295
4.298
4.295
4.284
4.282
4.283
4.289
4.282
4.281
4.290
4.299
4.309
4.317
4.326
4.322
4.325
4.320
4.329
4.326
4.327
4.327
4.323
4.311
4.305
4.319
4.309
4.314
4.304
4.298
4.301
4.301
4.312
4.306
4.300
4.306
4.301
4.301
4.299
4.304
4.309
4.301
4.296
4.300
4.304
4.299
4.292
4.286
4.279
4.272
4.272
4.267
4.262
