2.992
3.331
3.510
3.630
3.717
3.777
3.835
3.872
3.937
3.941
3.989
4.029
4.011
4.036
4.063
4.089
4.115
4.143
4.162
4.187
4.207
4.162
4.129
4.140
4.155
4.170
4.178
4.193
4.199
4.212
4.218
4.231
4.232
4.245
4.257
4.255
4.266
4.280
4.276
4.289
4.299
4.307
4.299
4.313
4.320
4.325
4.337
4.327
4.336
4.343
4.353
4.357
4.366
4.371
4.361
4.371
4.370
4.381
4.389
4.393
4.397
4.403
4.410
4.409
4.403
4.410
4.408
4.412
4.421
4.429
4.429
4.434
4.443
4.442
4.449
4.453
4.457
4.455
4.444
4.448
4.447
4.455
4.462
4.466
4.466
4.469
4.474
4.475
4.481
4.484
4.485
4.494
4.488
4.495
4.495
4.503
4.506
4.514
4.514
4.522
4.506
4.492
4.493
4.495
4.496
4.507
4.507
4.516
4.514
4.519
4.526
4.521
4.518
4.524
4.526
4.532
4.529
4.535
4.537
4.540
4.540
4.541
4.550
4.551
4.544
4.547
4.553
4.551
4.547
4.558
4.562
4.571
4.573
4.574
4.572
4.573
4.581
4.585
4.589
4.588
4.578
4.582
4.591
4.585
4.581
4.571
4.558
4.558
4.561
4.574
4.567
4.563
4.573
4.574
4.578
4.577
4.577
4.576
4.584
4.584
4.592
4.588
4.592
4.588
4.584
4.584
4.589
4.581
4.591
4.585
4.597
4.590
4.599
4.592
4.600
4.598
4.608
4.604
4.610
4.609
4.618
4.609
4.616
4.606
4.614
4.615
4.624
4.621
4.624
4.629
4.625
4.629
4.625
4.621
4.618
4.626
4.627
4.626
4.622
4.617
4.629
4.626
4.630
4.634
4.627
4.634
4.633
4.631
4.643
4.639
4.640
4.650
4.652
4.647
4.651
4.653
4.652
4.659
4.649
4.651
4.655
4.653
4.657
4.664
4.660
4.659
4.668
4.662
4.668
4.675
4.670
4.669
4.676
4.681
4.671
4.672
4.673
4.664
4.666
4.672
4.674
4.672
4.677
4.678
4.670
4.667
4.677
4.670
4.668
4.673
4.681
4.680
4.673
4.680
4.685
4.684
4.685
4.683
4.699
4.691
4.690
4.688
4.701
4.702
4.698
4.700
4.699
4.705
4.703
4.703
4.699
4.699
4.692
4.684
4.681
4.673
4.666
4.667
4.673
4.662
4.662
4.661
4.673
4.673
4.674
4.670
4.671
4.677
4.684
4.678
4.681
4.675
4.677
4.677
4.677
4.677
4.679
4.677
4.690
4.686
4.684
4.680
4.685
4.689
4.698
4.699
4.698
4.700
4.698
4.697
4.703
4.702
4.693
4.686
4.685
4.683
4.684
4.684
4.685
4.684
4.687
4.686
4.681
4.686
4.676
4.672
4.681
4.688
4.684
4.684
4.679
4.675
4.682
4.688
4.685
4.681
4.682
4.680
4.677
4.688
4.699
4.694
4.692
4.692
4.695
4.691
4.693
4.702
4.703
4.700
4.701
4.702
4.701
4.697
4.699
4.707
4.701
4.700
4.696
4.694
4.695
4.695
4.709
4.713
4.707
4.708
4.706
4.707
4.701
4.702
4.710
4.713
4.720
4.721
4.715
4.718
4.717
4.721
4.718
4.722
4.728
4.729
4.731
4.727
4.718
4.710
4.704
4.714
4.726
4.724
4.718
4.718
4.717
4.718
4.714
4.711
4.718
4.721
4.720
4.716
4.715
4.716
4.715
4.714
4.715
4.714
4.725
4.733
4.736
4.725
4.729
4.730
4.731
4.727
4.726
4.721
4.729
4.741
4.737
4.730
4.728
4.729
4.731
4.725
4.728
4.727
4.729
4.738
4.747
4.747
4.747
4.744
4.745
4.746
4.745
4.741
4.742
4.749
4.748
4.751
4.761
4.760
4.755
4.755
4.753
4.752
4.753
4.752
4.750
4.749
4.748
4.757
4.761
4.760
4.764
4.758
4.761
4.757
4.751
4.746
4.740
4.736
4.739
4.738
4.742
4.743
4.740
4.736
4.729
4.729
4.729
4.732
4.728
4.733
4.742
4.751
4.745
4.738
4.733
4.725
4.725
4.719
4.723
4.719
4.720
4.721
4.731
4.738
4.745
4.741
4.739
4.740
4.737
4.738
4.733
4.730
4.737
4.730
4.729
4.729
4.731
4.738
4.748
4.751
4.756
4.757
4.756
4.760
4.753
4.751
4.744
4.741
4.736
4.735
4.740
4.738
4.742
4.749
4.756
4.755
4.755
4.751
4.755
4.749
4.747
4.744
4.745
4.740
4.740
4.735
4.728
4.735
4.742
4.749
4.751
4.757
4.758
4.755
4.751
4.751
4.747
4.754
4.755
4.746
4.748
4.751
4.747
4.743
4.742
4.746
4.755
4.762
4.770
4.770
4.769
4.770
4.767
4.771
4.769
4.773
4.769
4.762
4.758
4.757
4.755
4.752
4.751
4.755
4.756
4.765
4.770
4.774
4.773
4.765
4.766
4.765
4.766
4.762
4.762
4.765
4.762
4.765
4.761
4.760
4.758
4.758
4.758
4.757
4.764
4.771
4.778
4.782
4.786
4.788
4.783
4.784
4.784
4.785
4.784
4.785
4.783
4.785
4.780
4.777
4.781
4.785
4.781
4.776
4.772
4.773
4.777
4.784
4.791
4.796
4.792
4.790
4.788
4.787
4.792
4.793
4.792
4.793
4.788
4.784
4.780
4.774
4.775
4.773
4.770
4.771
4.770
4.768
4.775
4.782
4.781
4.784
4.780
4.779
4.780
4.781
4.775
4.776
4.778
4.774
4.775
4.781
4.778
4.776
4.775
4.776
4.770
4.768
4.762
4.758
4.766
4.771
4.778
4.776
4.777
4.777
4.780
4.779
4.783
4.782
4.777
4.771
4.770
4.777
4.773
4.776
4.775
4.770
4.773
4.770
4.772
4.777
4.777
4.777
4.781
4.776
4.773
4.777
4.784
4.790
4.789
4.792
4.792
4.790
4.786
4.787
4.788
4.785
4.791
4.785
4.784
4.782
4.780
4.782
4.783
4.782
4.784
4.779
4.778
4.779
4.780
4.779
4.775
4.779
4.781
4.782
4.789
4.795
4.802
4.807
4.811
4.812
4.807
4.804
4.808
4.803
4.800
4.796
4.799
4.796
4.797
4.798
4.795
4.798
4.802
4.801
4.795
4.798
4.802
4.801
4.799
4.795
4.799
4.799
4.797
4.799
4.794
4.796
4.803
4.810
4.814
4.821
4.821
4.821
4.819
4.825
4.829
4.826
4.821
4.815
4.816
4.814
4.808
4.806
4.810
4.814
4.811
4.810
4.813
4.814
4.807
4.801
4.802
4.807
4.810
4.804
4.805
4.804
4.802
4.803
4.800
4.806
4.811
4.818
4.814
4.814
4.818
4.815
4.813
4.810
4.808
4.801
4.800
4.804
4.807
4.807
4.810
4.815
4.813
4.809
4.808
4.814
4.807
4.803
4.803
4.801
4.800
4.798
4.795
4.793
4.797
4.793
4.797
4.795
4.792
4.799
4.805
4.810
4.816
4.823
4.827
4.833
4.835
4.833
4.830
4.829
4.827
4.828
4.833
4.833
4.829
4.825
4.824
4.823
4.822
4.823
4.825
4.821
4.822
4.825
4.818
4.821
4.822
4.826
4.825
4.823
4.824
4.820
4.821
4.823
4.825
4.823
4.824
4.825
4.819
4.820
4.819
4.820
4.824
4.829
4.835
4.839
4.844
4.850
4.855
4.861
4.858
4.858
4.855
4.855
4.855
4.856
4.851
4.845
4.843
4.842
4.841
4.840
4.846
4.844
4.838
4.833
4.830
4.829
4.827
4.833
4.835
4.833
4.836
4.833
4.830
4.828
4.827
4.831
4.836
4.833
4.830
4.826
4.824
4.820
4.819
4.823
4.829
4.834
4.836
4.836
4.832
4.826
4.822
4.817
4.816
4.817
4.813
4.812
4.818
4.818
4.816
4.817
4.811
4.817
4.819
4.818
4.816
4.814
4.814
4.814
4.811
4.810
4.810
4.814
4.816
4.812
4.813
4.814
4.810
4.806
4.811
4.810
4.811
4.809
4.808
4.806
4.802
4.798
4.800
4.806
4.811
4.817
4.818
4.820
4.825
4.831
4.830
4.826
4.825
4.825
4.825
4.823
4.821
4.818
4.819
4.821
4.824
4.821
4.821
4.821
4.821
4.817
4.821
4.823
4.819
4.812
4.808
4.806
4.807
4.804
4.803
4.803
4.800
4.807
4.813
4.812
4.808
4.806
4.803
4.804
4.800
4.795
4.792
4.796
4.797
4.793
4.792
4.796
4.795
4.796
4.802
4.806
4.810
4.814
4.819
4.823
4.829
4.833
4.832
4.825
