2.984
3.325
3.490
3.630
3.709
3.771
3.779
3.846
3.908
3.959
3.957
3.898
3.934
3.959
3.988
4.003
4.020
4.033
4.058
4.072
4.088
4.103
4.115
4.136
4.143
4.150
4.161
4.173
4.197
4.183
4.205
4.209
4.221
4.236
4.250
4.222
4.237
4.247
4.257
4.268
4.273
4.283
4.299
4.309
4.304
4.284
4.296
4.300
4.306
4.304
4.315
4.320
4.333
4.346
4.333
4.344
4.354
4.363
4.373
4.376
4.379
4.376
4.390
4.386
4.370
4.366
4.364
4.370
4.373
4.386
4.376
4.370
4.374
4.377
4.392
4.393
4.413
4.392
4.408
4.421
4.432
4.428
4.429
4.422
4.414
4.421
4.425
4.434
4.433
4.441
4.452
4.451
4.457
4.458
4.462
4.462
4.479
4.469
4.475
4.485
4.484
4.478
4.474
4.473
4.476
4.471
4.485
4.486
4.494
4.489
4.507
4.503
4.511
4.507
4.511
4.515
4.518
4.518
4.517
4.510
4.494
4.478
4.479
4.479
4.473
4.494
4.484
4.487
4.501
4.505
4.496
4.513
4.514
4.506
4.489
4.483
4.501
4.477
4.480
4.481
4.482
4.478
4.498
4.504
4.496
4.502
4.508
4.502
4.506
4.513
4.505
4.504
4.505
4.516
4.516
4.514
4.514
4.536
4.534
4.530
4.526
4.545
4.524
4.517
4.515
4.540
4.519
4.520
4.523
4.534
4.541
4.546
4.538
4.531
4.546
4.548
4.541
4.539
4.534
4.551
4.567
4.565
4.562
4.558
4.549
4.574
4.573
4.575
4.565
4.560
4.565
4.587
4.580
4.572
4.571
4.563
4.558
4.562
4.550
4.548
4.551
4.549
4.551
4.541
4.541
4.544
4.529
4.541
4.562
4.571
4.561
4.566
4.553
4.546
4.545
4.566
4.577
4.568
4.564
4.555
4.544
4.540
4.561
4.578
4.566
4.557
4.566
4.555
4.566
4.561
4.565
4.585
4.583
4.578
4.575
4.571
4.577
4.570
4.559
4.578
4.582
4.592
4.588
4.586
4.581
4.585
4.580
4.587
4.582
4.597
4.615
4.612
4.602
4.603
4.603
4.595
4.585
4.588
4.587
4.602
4.619
4.616
4.618
4.609
4.596
4.591
4.587
4.580
4.577
4.593
4.598
4.589
4.585
4.583
4.589
4.580
4.584
4.576
4.585
4.592
4.594
4.604
4.605
4.604
4.599
4.602
4.604
4.593
4.602
4.597
4.592
4.596
4.597
4.600
4.614
4.630
4.625
4.623
4.619
4.622
4.617
4.617
4.619
4.624
4.621
4.621
4.617
4.608
4.622
4.636
4.647
4.648
4.646
4.656
4.646
4.634
4.624
4.628
4.618
4.617
4.624
4.625
4.629
4.624
4.638
4.634
4.641
4.640
4.624
4.629
4.633
4.633
4.624
4.624
4.620
4.622
4.618
4.618
4.612
4.620
4.633
4.647
4.660
4.670
4.675
4.670
4.663
4.656
4.656
4.649
4.646
4.659
4.658
4.667
4.663
4.657
4.650
4.645
4.646
4.645
4.658
4.671
4.679
4.674
4.673
4.679
4.676
4.677
4.677
4.673
4.669
4.665
4.660
4.651
4.652
4.653
4.652
4.652
4.649
4.645
4.656
4.663
4.660
4.659
4.663
4.654
4.650
4.647
4.652
4.654
4.646
4.637
4.628
4.624
4.622
4.621
4.621
4.613
4.611
4.615
4.626
4.638
4.643
4.655
4.651
4.652
4.645
4.641
4.640
4.638
4.633
4.640
4.646
4.641
4.640
4.630
4.627
4.637
4.643
4.639
4.632
4.627
4.624
4.633
4.634
4.625
4.635
4.646
4.649
4.646
4.648
4.638
4.631
4.635
4.638
4.636
4.636
4.638
4.632
4.636
4.633
4.629
4.623
4.616
4.620
4.614
4.614
4.616
4.618
4.622
4.628
4.635
4.638
4.631
4.631
4.639
4.649
4.659
4.669
4.663
4.658
4.657
4.648
4.647
4.650
4.650
4.646
4.636
4.632
4.629
4.643
4.643
4.643
4.638
4.635
4.639
4.627
4.626
4.624
4.618
4.619
4.615
4.620
4.623
4.618
4.615
4.623
4.632
4.642
4.651
4.660
4.670
4.668
4.675
4.680
4.677
4.670
4.670
4.668
4.670
4.666
4.655
4.644
4.645
4.643
4.630
4.640
4.636
4.641
4.642
4.638
4.637
4.634
4.641
4.638
4.640
4.642
4.643
4.642
4.631
4.630
4.634
4.637
4.641
4.639
4.644
4.643
4.652
4.661
4.670
4.678
4.681
4.673
4.664
4.667
4.663
4.665
4.671
4.677
4.672
4.673
4.679
4.676
4.679
4.672
4.672
4.671
4.665
4.663
4.665
4.669
4.665
4.671
4.661
4.652
4.647
4.654
4.653
4.657
4.650
4.653
4.653
4.660
4.657
4.645
4.645
4.643
4.648
4.643
4.643
4.647
4.651
4.659
4.667
4.675
4.683
4.691
4.699
4.707
4.715
4.719
4.708
4.703
4.708
4.705
4.706
4.701
4.700
4.701
4.698
4.699
4.697
4.688
4.691
4.693
4.691
4.690
4.685
4.693
4.693
4.696
4.689
4.690
4.702
4.690
4.693
4.697
4.703
4.710
4.701
4.695
4.691
4.689
4.688
4.684
4.683
4.684
4.676
4.673
4.671
4.669
4.671
4.674
4.678
4.667
4.664
4.671
4.679
4.686
4.693
4.701
4.708
4.703
4.702
4.706
4.701
4.699
4.697
4.690
4.690
4.685
4.684
4.688
4.686
4.688
4.684
4.685
4.680
4.681
4.679
4.677
4.678
4.677
4.675
4.673
4.671
4.661
4.656
4.656
4.665
4.657
4.657
4.654
4.652
4.651
4.656
4.658
4.660
4.670
4.677
4.679
4.675
4.672
4.664
4.655
4.647
4.652
4.649
4.652
4.647
4.638
4.647
4.639
4.633
4.638
4.645
4.651
4.658
4.665
4.672
4.678
4.685
4.692
4.699
4.705
4.712
4.719
4.723
4.721
4.716
4.711
4.711
4.709
4.704
4.704
4.710
4.706
4.702
4.699
4.693
4.695
4.693
4.689
4.698
4.705
4.706
4.708
4.702
4.705
4.701
4.704
4.703
4.701
4.696
4.695
4.698
4.689
4.689
4.695
4.702
4.695
4.699
4.703
4.695
4.697
4.693
4.698
4.695
4.693
4.683
4.690
4.686
4.691
4.685
4.678
4.679
4.679
4.674
4.682
4.684
4.678
4.674
4.678
4.675
4.682
4.686
4.684
4.681
4.683
4.686
4.691
4.699
4.695
4.694
4.690
4.687
4.689
4.695
4.696
4.691
4.696
4.703
4.709
4.715
4.721
4.727
4.733
4.736
4.733
4.734
4.739
4.733
4.725
4.723
4.718
4.718
4.712
4.711
4.710
4.704
4.702
4.700
4.706
4.702
4.695
4.688
4.685
4.681
4.678
4.688
4.681
4.678
4.680
4.675
4.681
4.679
4.680
4.676
4.680
4.679
4.675
4.674
4.671
4.678
4.686
4.687
4.685
4.682
4.683
4.681
4.675
4.673
4.672
4.672
4.671
4.673
4.677
4.674
4.677
4.679
4.673
4.672
4.667
4.661
4.654
4.652
4.653
4.653
4.644
4.641
4.644
4.646
4.640
4.636
4.633
4.640
4.639
4.635
4.631
4.633
4.633
4.636
4.637
4.639
4.643
4.647
4.644
4.644
4.650
4.655
4.660
4.666
4.671
4.677
4.682
4.687
4.693
4.698
4.704
4.709
4.714
4.720
4.725
4.731
4.736
4.742
4.746
4.744
4.739
4.734
4.732
4.736
4.739
4.740
4.740
4.747
4.755
4.754
4.749
4.747
4.748
4.751
4.744
4.742
4.737
4.728
4.733
4.725
4.727
4.727
4.721
4.719
4.712
4.708
4.706
4.705
4.704
4.705
4.708
4.708
4.703
4.702
4.701
4.710
4.706
4.701
4.701
4.709
4.710
4.705
4.700
4.696
4.691
4.686
4.680
4.675
4.670
4.675
4.666
4.664
4.663
4.658
4.656
4.657
4.658
4.657
4.658
4.659
4.664
4.667
4.661
4.658
4.656
4.650
4.644
4.648
4.654
4.660
4.659
4.659
4.664
4.667
4.671
4.672
4.665
4.666
4.668
4.666
4.662
4.661
4.660
4.658
4.658
4.663
4.666
4.664
4.666
4.670
4.670
4.672
4.676
4.684
4.685
4.684
4.684
4.681
4.677
4.680
4.683
4.681
4.680
4.673
4.667
4.665
4.667
4.668
4.673
4.678
4.683
4.687
4.692
4.697
4.701
4.706
4.711
4.716
4.720
4.725
4.730
4.726
