2.994
3.331
3.518
3.633
3.717
3.787
3.854
3.894
3.938
3.957
4.002
4.001
4.038
4.074
4.106
4.085
4.095
4.120
4.141
4.164
4.182
4.201
4.221
4.238
4.254
4.272
4.240
4.205
4.202
4.216
4.223
4.228
4.240
4.246
4.256
4.260
4.268
4.282
4.281
4.291
4.303
4.301
4.309
4.318
4.323
4.326
4.338
4.342
4.352
4.348
4.353
4.359
4.371
4.375
4.371
4.376
4.383
4.387
4.397
4.401
4.410
4.397
4.404
4.408
4.413
4.419
4.424
4.428
4.438
4.438
4.429
4.433
4.438
4.441
4.443
4.452
4.457
4.458
4.462
4.471
4.471
4.475
4.460
4.468
4.471
4.472
4.476
4.480
4.486
4.488
4.492
4.491
4.497
4.502
4.509
4.510
4.509
4.516
4.519
4.523
4.508
4.507
4.508
4.512
4.512
4.518
4.520
4.521
4.528
4.527
4.531
4.531
4.531
4.537
4.541
4.542
4.547
4.549
4.552
4.559
4.552
4.556
4.560
4.559
4.561
4.568
4.572
4.576
4.577
4.570
4.557
4.560
4.553
4.559
4.558
4.559
4.563
4.568
4.571
4.576
4.577
4.579
4.579
4.583
4.586
4.581
4.583
4.584
4.590
4.584
4.591
4.592
4.590
4.594
4.601
4.603
4.605
4.605
4.605
4.606
4.615
4.614
4.607
4.609
4.610
4.616
4.615
4.620
4.615
4.619
4.627
4.625
4.627
4.634
4.634
4.636
4.634
4.639
4.637
4.646
4.645
4.641
4.643
4.644
4.643
4.647
4.645
4.636
4.627
4.617
4.616
4.617
4.620
4.617
4.623
4.625
4.627
4.630
4.624
4.634
4.635
4.641
4.637
4.638
4.634
4.644
4.638
4.647
4.643
4.649
4.646
4.652
4.648
4.644
4.642
4.650
4.643
4.647
4.648
4.644
4.645
4.646
4.653
4.647
4.656
4.655
4.656
4.655
4.657
4.664
4.660
4.664
4.667
4.664
4.671
4.671
4.671
4.672
4.670
4.675
4.671
4.666
4.676
4.674
4.676
4.682
4.681
4.680
4.689
4.686
4.686
4.685
4.675
4.679
4.681
4.674
4.683
4.682
4.684
4.688
4.678
4.677
4.684
4.683
4.683
4.693
4.692
4.686
4.690
4.697
4.692
4.688
4.700
4.696
4.695
4.701
4.706
4.704
4.703
4.710
4.714
4.710
4.705
4.710
4.712
4.708
4.711
4.710
4.706
4.704
4.714
4.718
4.716
4.715
4.722
4.723
4.720
4.720
4.723
4.726
4.725
4.727
4.727
4.732
4.731
4.729
4.727
4.740
4.733
4.724
4.723
4.724
4.725
4.724
4.722
4.731
4.731
4.734
4.730
4.732
4.728
4.729
4.728
4.724
4.731
4.727
4.725
4.726
4.728
4.735
4.738
4.737
4.734
4.734
4.744
4.743
4.741
4.740
4.739
4.748
4.757
4.746
4.747
4.746
4.749
4.756
4.758
4.756
4.752
4.756
4.758
4.759
4.753
4.748
4.742
4.738
4.733
4.727
4.722
4.732
4.730
4.731
4.723
4.718
4.727
4.731
4.722
4.715
4.714
4.716
4.727
4.727
4.730
4.727
4.727
4.724
4.728
4.735
4.734
4.734
4.733
4.732
4.731
4.737
4.736
4.731
4.727
4.729
4.730
4.732
4.744
4.745
4.744
4.737
4.738
4.735
4.738
4.748
4.750
4.749
4.749
4.746
4.744
4.743
4.750
4.760
4.764
4.757
4.750
4.743
4.738
4.740
4.739
4.737
4.738
4.732
4.733
4.732
4.742
4.749
4.749
4.740
4.741
4.740
4.734
4.737
4.733
4.735
4.731
4.732
4.731
4.731
4.731
4.737
4.747
4.746
4.739
4.740
4.736
4.732
4.727
4.735
4.744
4.745
4.744
4.742
4.744
4.745
4.744
4.742
4.739
4.748
4.753
4.757
4.757
4.756
4.753
4.754
4.753
4.753
4.750
4.760
4.760
4.757
4.761
4.762
4.753
4.748
4.747
4.749
4.758
4.757
4.758
4.759
4.752
4.756
4.757
4.757
4.757
4.756
4.761
4.770
4.766
4.768
4.768
4.762
4.758
4.759
4.761
4.762
4.761
4.770
4.777
4.779
4.775
4.775
4.779
4.778
4.779
4.776
4.772
4.773
4.775
4.783
4.779
4.771
4.768
4.770
4.771
4.762
4.763
4.759
4.766
4.775
4.777
4.776
4.782
4.776
4.772
4.776
4.771
4.767
4.769
4.764
4.771
4.779
4.777
4.773
4.768
4.770
4.777
4.778
4.777
4.771
4.769
4.771
4.771
4.779
4.788
4.792
4.788
4.786
4.785
4.787
4.782
4.784
4.788
4.784
4.782
4.779
4.783
4.790
4.794
4.789
4.786
4.789
4.786
4.781
4.783
4.784
4.782
4.784
4.785
4.786
4.791
4.798
4.802
4.803
4.801
4.800
4.797
4.801
4.802
4.798
4.799
4.797
4.797
4.797
4.797
4.800
4.808
4.816
4.816
4.812
4.812
4.809
4.810
4.806
4.801
4.806
4.810
4.806
4.802
4.797
4.804
4.811
4.813
4.816
4.813
4.809
4.804
4.800
4.796
4.792
4.788
4.783
4.782
4.786
4.793
4.797
4.794
4.797
4.791
4.792
4.791
4.790
4.794
4.789
4.788
4.786
4.785
4.787
4.783
4.786
4.791
4.800
4.797
4.794
4.788
4.784
4.777
4.778
4.777
4.776
4.775
4.778
4.775
4.773
4.774
4.778
4.785
4.792
4.797
4.801
4.797
4.798
4.791
4.794
4.790
4.789
4.786
4.789
4.788
4.786
4.788
4.786
4.783
4.784
4.786
4.792
4.799
4.808
4.808
4.808
4.804
4.805
4.801
4.798
4.802
4.801
4.802
4.808
4.804
4.798
4.796
4.790
4.786
4.790
4.794
4.801
4.807
4.805
4.802
4.805
4.801
4.803
4.804
4.803
4.804
4.803
4.801
4.797
4.793
4.789
4.790
4.787
4.788
4.790
4.794
4.800
4.807
4.803
4.802
4.806
4.802
4.798
4.796
4.801
4.802
4.801
4.799
4.801
4.804
4.800
4.799
4.800
4.793
4.794
4.797
4.797
4.801
4.806
4.812
4.817
4.824
4.820
4.815
4.812
4.812
4.812
4.816
4.819
4.815
4.812
4.815
4.814
4.818
4.814
4.815
4.814
4.815
4.816
4.810
4.809
4.808
4.814
4.820
4.823
4.823
4.823
4.821
4.828
4.827
4.823
4.816
4.816
4.818
4.814
4.813
4.811
4.807
4.806
4.805
4.809
4.813
4.811
4.807
4.808
4.810
4.814
4.820
4.825
4.831
4.833
4.827
4.828
4.826
4.830
4.831
4.828
4.832
4.828
4.834
4.833
4.831
4.830
4.826
4.827
4.823
4.825
4.831
4.830
4.827
4.825
4.823
4.822
4.824
4.828
4.834
4.839
4.845
4.850
4.845
4.844
4.846
4.846
4.848
4.847
4.843
4.842
4.842
4.841
4.837
4.831
4.834
4.838
4.835
4.833
4.837
4.831
4.831
4.833
4.832
4.828
4.824
4.830
4.834
4.831
4.827
4.823
4.826
4.827
4.826
4.828
4.827
4.823
4.821
4.817
4.818
4.817
4.821
4.820
4.818
4.822
4.820
4.819
4.820
4.820
4.818
4.822
4.820
4.819
4.818
4.820
4.826
4.831
4.837
4.841
4.835
4.831
4.834
4.828
4.831
4.828
4.824
4.823
4.823
4.823
4.826
4.823
4.820
4.822
4.820
4.825
4.821
4.817
4.816
4.814
4.818
4.816
4.816
4.814
4.812
4.811
4.816
4.822
4.827
4.831
4.837
4.841
4.843
4.850
4.853
4.850
4.848
4.849
4.845
4.844
4.846
4.844
4.846
4.842
4.838
4.836
4.835
4.831
4.834
4.831
4.827
4.828
4.832
4.833
4.834
4.830
4.827
4.828
4.826
4.825
4.824
4.825
4.827
4.831
4.835
4.841
4.846
4.852
4.853
4.852
4.853
4.855
4.853
4.850
4.848
4.847
4.853
4.853
4.859
4.857
4.856
4.853
4.851
4.850
4.853
4.853
4.849
4.852
4.848
4.847
4.845
4.841
4.840
4.839
4.835
4.833
4.834
4.839
4.838
4.838
4.840
4.842
4.842
4.847
4.853
4.855
4.860
4.866
4.871
4.871
4.868
4.866
4.867
4.866
4.868
4.866
4.864
4.861
4.865
4.869
4.871
4.869
4.868
4.868
4.868
4.868
4.868
4.866
4.864
4.864
4.862
4.861
4.859
4.857
4.859
4.858
4.854
4.855
4.853
4.853
4.849
4.850
