2.994
3.332
3.516
3.637
3.713
3.783
3.845
3.890
3.920
3.974
3.971
4.013
4.052
4.084
4.055
4.079
4.105
4.127
4.156
4.172
4.192
4.213
4.231
4.221
4.182
4.168
4.178
4.194
4.200
4.212
4.219
4.227
4.236
4.251
4.253
4.264
4.264
4.275
4.286
4.290
4.294
4.303
4.315
4.311
4.316
4.327
4.337
4.344
4.338
4.345
4.351
4.363
4.367
4.375
4.365
4.375
4.375
4.385
4.394
4.394
4.406
4.407
4.397
4.402
4.406
4.410
4.420
4.426
4.427
4.435
4.442
4.443
4.444
4.434
4.439
4.442
4.445
4.448
4.457
4.462
4.458
4.464
4.472
4.478
4.482
4.481
4.485
4.490
4.486
4.479
4.477
4.481
4.485
4.487
4.490
4.495
4.496
4.505
4.501
4.508
4.505
4.512
4.518
4.517
4.526
4.525
4.521
4.530
4.527
4.534
4.542
4.541
4.549
4.550
4.542
4.530
4.526
4.527
4.534
4.531
4.532
4.538
4.540
4.545
4.548
4.549
4.553
4.558
4.546
4.550
4.554
4.555
4.559
4.561
4.564
4.566
4.571
4.574
4.570
4.574
4.582
4.586
4.582
4.579
4.584
4.586
4.584
4.585
4.589
4.596
4.598
4.597
4.606
4.604
4.611
4.604
4.609
4.616
4.617
4.612
4.619
4.615
4.617
4.615
4.623
4.612
4.601
4.590
4.587
4.588
4.597
4.593
4.603
4.599
4.598
4.608
4.606
4.613
4.603
4.608
4.612
4.608
4.617
4.615
4.623
4.620
4.625
4.613
4.614
4.616
4.616
4.618
4.616
4.621
4.617
4.623
4.627
4.624
4.625
4.623
4.628
4.627
4.639
4.635
4.641
4.642
4.639
4.648
4.641
4.643
4.638
4.643
4.644
4.645
4.652
4.651
4.657
4.659
4.658
4.662
4.663
4.656
4.645
4.649
4.655
4.649
4.658
4.662
4.650
4.659
4.650
4.651
4.658
4.662
4.660
4.667
4.663
4.660
4.669
4.665
4.666
4.676
4.674
4.671
4.680
4.684
4.683
4.679
4.686
4.681
4.682
4.682
4.680
4.678
4.688
4.689
4.686
4.687
4.696
4.692
4.693
4.697
4.699
4.697
4.699
4.705
4.704
4.705
4.697
4.714
4.705
4.705
4.697
4.697
4.696
4.690
4.705
4.706
4.707
4.703
4.708
4.701
4.702
4.701
4.708
4.701
4.701
4.698
4.707
4.711
4.708
4.705
4.704
4.716
4.715
4.712
4.715
4.714
4.727
4.723
4.721
4.719
4.723
4.734
4.727
4.731
4.729
4.727
4.738
4.731
4.729
4.725
4.720
4.714
4.708
4.703
4.705
4.698
4.693
4.697
4.701
4.698
4.690
4.690
4.686
4.700
4.705
4.703
4.701
4.703
4.697
4.706
4.712
4.709
4.710
4.708
4.707
4.708
4.704
4.706
4.704
4.703
4.705
4.716
4.716
4.716
4.713
4.711
4.708
4.717
4.723
4.725
4.724
4.723
4.724
4.723
4.729
4.733
4.727
4.723
4.715
4.709
4.716
4.716
4.710
4.709
4.710
4.709
4.715
4.720
4.718
4.711
4.708
4.708
4.704
4.714
4.712
4.708
4.710
4.709
4.712
4.708
4.713
4.717
4.713
4.709
4.712
4.709
4.705
4.709
4.720
4.725
4.723
4.720
4.720
4.714
4.715
4.722
4.724
4.734
4.737
4.731
4.732
4.722
4.721
4.722
4.724
4.734
4.734
4.730
4.732
4.728
4.729
4.720
4.721
4.730
4.737
4.738
4.742
4.742
4.737
4.731
4.729
4.731
4.735
4.744
4.743
4.745
4.740
4.742
4.738
4.744
4.737
4.736
4.745
4.755
4.760
4.758
4.756
4.749
4.748
4.755
4.749
4.745
4.749
4.745
4.746
4.747
4.746
4.744
4.745
4.739
4.740
4.741
4.749
4.757
4.754
4.750
4.742
4.744
4.743
4.741
4.737
4.736
4.746
4.755
4.757
4.758
4.756
4.758
4.754
4.750
4.753
4.753
4.745
4.750
4.759
4.766
4.768
4.763
4.765
4.766
4.768
4.766
4.757
4.749
4.754
4.753
4.762
4.771
4.767
4.769
4.768
4.768
4.765
4.768
4.768
4.766
4.765
4.763
4.764
4.772
4.781
4.785
4.787
4.785
4.784
4.788
4.789
4.782
4.776
4.782
4.775
4.774
4.778
4.785
4.792
4.791
4.784
4.786
4.784
4.783
4.779
4.775
4.776
4.774
4.776
4.780
4.778
4.772
4.771
4.768
4.760
4.758
4.760
4.758
4.757
4.757
4.756
4.758
4.765
4.772
4.770
4.774
4.771
4.771
4.770
4.764
4.765
4.768
4.765
4.761
4.757
4.752
4.759
4.766
4.759
4.761
4.760
4.758
4.760
4.764
4.764
4.763
4.764
4.760
4.759
4.755
4.748
4.757
4.765
4.771
4.778
4.775
4.770
4.769
4.768
4.768
4.767
4.768
4.767
4.771
4.770
4.768
4.770
4.766
4.768
4.769
4.778
4.782
4.782
4.779
4.782
4.779
4.779
4.777
4.773
4.771
4.764
4.763
4.767
4.768
4.770
4.768
4.767
4.775
4.779
4.783
4.782
4.780
4.781
4.775
4.768
4.771
4.773
4.771
4.770
4.768
4.762
4.761
4.764
4.758
4.764
4.771
4.778
4.785
4.792
4.793
4.792
4.788
4.787
4.785
4.779
4.786
4.784
4.782
4.778
4.785
4.782
4.780
4.778
4.780
4.782
4.783
4.784
4.790
4.795
4.802
4.800
4.799
4.795
4.802
4.798
4.796
4.792
4.790
4.792
4.791
4.790
4.788
4.787
4.785
4.784
4.786
4.781
4.783
4.790
4.796
4.803
4.801
4.801
4.801
4.797
4.796
4.798
4.801
4.797
4.797
4.797
4.804
4.798
4.794
4.795
4.794
4.794
4.796
4.795
4.796
4.792
4.794
4.801
4.807
4.814
4.821
4.825
4.823
4.823
4.823
4.823
4.823
4.817
4.813
4.812
4.807
4.805
4.805
4.809
4.813
4.816
4.815
4.809
4.807
4.801
4.799
4.803
4.808
4.814
4.821
4.822
4.816
4.812
4.813
4.816
4.816
4.812
4.807
4.801
4.799
4.794
4.790
4.789
4.785
4.784
4.783
4.782
4.790
4.790
4.791
4.792
4.797
4.803
4.810
4.816
4.815
4.816
4.815
4.817
4.820
4.817
4.812
4.808
4.805
4.803
4.801
4.797
4.793
4.794
4.797
4.800
4.799
4.794
4.791
4.787
4.780
4.782
4.790
4.794
4.799
4.806
4.812
4.809
4.812
4.816
4.818
4.819
4.816
4.816
4.812
4.811
4.810
4.814
4.812
4.812
4.812
4.808
4.810
4.811
4.812
4.808
4.812
4.808
4.807
4.808
4.805
4.800
4.794
4.798
4.804
4.808
4.815
4.820
4.823
4.823
4.820
4.819
4.816
4.819
4.816
4.817
4.820
4.819
4.821
4.822
4.821
4.819
4.815
4.816
4.820
4.820
4.824
4.820
4.820
4.817
4.823
4.817
4.816
4.819
4.815
4.814
4.812
4.809
4.815
4.820
4.827
4.831
4.837
4.842
4.843
4.842
4.837
4.834
4.832
4.831
4.832
4.833
4.829
4.830
4.832
4.834
4.835
4.833
4.834
4.838
4.837
4.838
4.843
4.841
4.840
4.838
4.837
4.838
4.835
4.828
4.826
4.823
4.826
4.827
4.827
4.828
4.834
4.839
4.843
4.847
4.848
4.845
4.848
4.850
4.853
4.850
4.854
4.853
4.851
4.845
4.842
4.838
4.837
4.842
4.843
4.844
4.846
4.845
4.840
4.839
4.835
4.838
4.832
4.828
4.824
4.820
4.816
4.816
4.815
4.819
4.818
4.817
4.823
4.828
4.832
4.838
4.843
4.842
4.848
4.847
4.840
4.845
4.846
4.844
4.843
4.842
4.842
4.834
4.837
4.842
4.840
4.844
4.845
4.841
4.840
4.842
4.840
4.838
4.838
4.836
4.831
4.828
4.826
4.828
4.829
4.830
4.832
4.828
4.827
4.831
4.832
4.831
4.829
4.831
4.837
4.834
4.837
4.842
4.846
4.850
4.856
4.860
4.862
4.860
4.857
4.858
4.857
4.864
4.867
4.866
4.864
4.863
4.860
4.858
4.857
4.857
4.859
4.855
4.854
4.857
4.857
4.855
4.853
4.853
4.859
4.863
4.868
4.864
4.859
4.855
4.856
4.855
4.859
4.858
4.856
4.853
4.856
4.852
4.854
4.852
4.854
4.853
4.849
4.852
4.853
4.855
4.859
