2.992
3.331
3.511
3.636
3.723
3.797
3.837
3.880
3.925
3.962
3.999
4.006
4.046
4.079
4.082
4.079
4.101
4.124
4.147
4.168
4.188
4.205
4.224
4.242
4.248
4.209
4.180
4.192
4.201
4.211
4.221
4.227
4.238
4.244
4.254
4.269
4.270
4.279
4.287
4.286
4.298
4.308
4.308
4.316
4.323
4.332
4.330
4.338
4.345
4.354
4.360
4.357
4.363
4.364
4.377
4.379
4.390
4.381
4.382
4.394
4.397
4.403
4.405
4.412
4.423
4.420
4.413
4.420
4.424
4.430
4.435
4.441
4.443
4.447
4.454
4.458
4.459
4.447
4.451
4.455
4.457
4.463
4.465
4.472
4.476
4.474
4.481
4.483
4.490
4.494
4.490
4.499
4.501
4.508
4.494
4.494
4.495
4.494
4.497
4.497
4.503
4.515
4.514
4.516
4.516
4.518
4.520
4.521
4.531
4.535
4.539
4.538
4.545
4.537
4.547
4.543
4.550
4.556
4.557
4.560
4.561
4.559
4.545
4.545
4.541
4.545
4.545
4.548
4.552
4.554
4.558
4.560
4.566
4.560
4.564
4.568
4.564
4.567
4.569
4.570
4.571
4.573
4.575
4.578
4.583
4.589
4.591
4.586
4.596
4.595
4.594
4.600
4.588
4.595
4.599
4.603
4.602
4.598
4.602
4.611
4.610
4.612
4.619
4.622
4.618
4.617
4.624
4.627
4.631
4.630
4.632
4.625
4.627
4.634
4.629
4.630
4.619
4.609
4.602
4.598
4.602
4.608
4.607
4.616
4.616
4.612
4.612
4.622
4.619
4.628
4.624
4.622
4.627
4.622
4.631
4.627
4.634
4.633
4.638
4.630
4.627
4.628
4.632
4.627
4.635
4.627
4.634
4.630
4.638
4.638
4.643
4.639
4.642
4.644
4.638
4.649
4.646
4.653
4.654
4.652
4.656
4.660
4.659
4.657
4.656
4.657
4.654
4.663
4.668
4.661
4.673
4.669
4.667
4.675
4.671
4.674
4.664
4.661
4.667
4.663
4.667
4.675
4.670
4.669
4.667
4.668
4.673
4.675
4.673
4.677
4.678
4.674
4.676
4.675
4.676
4.677
4.689
4.685
4.684
4.693
4.697
4.691
4.695
4.697
4.697
4.693
4.701
4.702
4.692
4.696
4.698
4.694
4.698
4.704
4.705
4.705
4.703
4.712
4.709
4.708
4.705
4.718
4.720
4.713
4.711
4.723
4.720
4.724
4.717
4.716
4.709
4.704
4.711
4.710
4.714
4.710
4.714
4.724
4.722
4.719
4.709
4.721
4.722
4.716
4.714
4.718
4.717
4.718
4.714
4.716
4.727
4.724
4.723
4.726
4.720
4.732
4.739
4.734
4.736
4.731
4.738
4.742
4.739
4.734
4.734
4.743
4.749
4.743
4.742
4.742
4.742
4.737
4.731
4.726
4.722
4.716
4.711
4.710
4.709
4.716
4.717
4.713
4.714
4.705
4.709
4.708
4.709
4.710
4.706
4.710
4.720
4.721
4.720
4.716
4.714
4.712
4.723
4.731
4.728
4.718
4.714
4.712
4.723
4.723
4.727
4.727
4.723
4.723
4.723
4.734
4.733
4.727
4.731
4.731
4.728
4.731
4.741
4.745
4.744
4.743
4.745
4.743
4.734
4.734
4.727
4.721
4.719
4.716
4.723
4.731
4.731
4.727
4.727
4.731
4.725
4.723
4.733
4.731
4.722
4.715
4.711
4.712
4.719
4.729
4.731
4.729
4.731
4.727
4.722
4.716
4.722
4.732
4.731
4.727
4.725
4.723
4.725
4.724
4.725
4.732
4.739
4.737
4.738
4.737
4.738
4.735
4.736
4.737
4.742
4.751
4.739
4.740
4.742
4.743
4.742
4.742
4.738
4.745
4.752
4.749
4.744
4.735
4.739
4.737
4.739
4.735
4.745
4.756
4.758
4.753
4.750
4.748
4.747
4.745
4.744
4.745
4.752
4.759
4.760
4.759
4.755
4.762
4.757
4.757
4.757
4.757
4.757
4.765
4.774
4.770
4.766
4.770
4.763
4.757
4.755
4.754
4.752
4.760
4.763
4.764
4.768
4.757
4.758
4.759
4.757
4.754
4.755
4.757
4.764
4.759
4.761
4.759
4.757
4.756
4.757
4.753
4.753
4.754
4.755
4.765
4.772
4.778
4.774
4.771
4.771
4.770
4.763
4.768
4.769
4.762
4.769
4.768
4.775
4.784
4.782
4.781
4.779
4.776
4.764
4.767
4.763
4.762
4.768
4.768
4.774
4.782
4.786
4.786
4.783
4.787
4.783
4.786
4.785
4.781
4.780
4.779
4.780
4.779
4.785
4.792
4.801
4.806
4.805
4.803
4.801
4.795
4.791
4.786
4.793
4.794
4.783
4.786
4.788
4.795
4.799
4.800
4.801
4.800
4.799
4.797
4.794
4.792
4.793
4.787
4.783
4.779
4.785
4.782
4.779
4.776
4.774
4.776
4.774
4.775
4.774
4.778
4.777
4.773
4.771
4.770
4.777
4.786
4.783
4.787
4.788
4.787
4.785
4.779
4.774
4.770
4.763
4.764
4.757
4.757
4.764
4.771
4.779
4.778
4.780
4.776
4.779
4.779
4.782
4.781
4.775
4.775
4.772
4.771
4.769
4.768
4.768
4.770
4.775
4.781
4.786
4.787
4.788
4.790
4.788
4.790
4.785
4.781
4.782
4.784
4.790
4.789
4.788
4.790
4.785
4.784
4.780
4.786
4.793
4.797
4.796
4.797
4.796
4.789
4.785
4.784
4.788
4.782
4.783
4.779
4.785
4.781
4.788
4.782
4.777
4.781
4.786
4.795
4.797
4.790
4.788
4.784
4.782
4.782
4.790
4.787
4.782
4.782
4.782
4.779
4.782
4.781
4.780
4.776
4.779
4.782
4.790
4.797
4.802
4.809
4.805
4.803
4.802
4.801
4.797
4.798
4.797
4.797
4.794
4.797
4.801
4.798
4.796
4.798
4.801
4.798
4.799
4.795
4.796
4.803
4.808
4.811
4.812
4.809
4.808
4.811
4.807
4.808
4.808
4.809
4.810
4.805
4.799
4.797
4.793
4.792
4.793
4.798
4.794
4.795
4.796
4.800
4.805
4.812
4.818
4.817
4.816
4.816
4.815
4.814
4.810
4.811
4.812
4.817
4.818
4.819
4.816
4.811
4.808
4.811
4.810
4.814
4.810
4.808
4.808
4.805
4.807
4.814
4.819
4.827
4.832
4.838
4.837
4.836
4.837
4.834
4.829
4.827
4.824
4.828
4.823
4.825
4.824
4.825
4.824
4.823
4.823
4.820
4.816
4.814
4.819
4.816
4.815
4.816
4.823
4.827
4.829
4.828
4.826
4.822
4.819
4.814
4.810
4.808
4.807
4.803
4.805
4.803
4.802
4.800
4.802
4.803
4.801
4.805
4.804
4.805
4.807
4.805
4.805
4.806
4.813
4.817
4.823
4.830
4.835
4.833
4.827
4.825
4.824
4.820
4.815
4.809
4.810
4.806
4.810
4.808
4.808
4.812
4.812
4.809
4.805
4.800
4.799
4.798
4.799
4.798
4.797
4.798
4.804
4.809
4.813
4.820
4.826
4.823
4.829
4.833
4.835
4.836
4.834
4.831
4.827
4.827
4.829
4.830
4.829
4.831
4.829
4.827
4.827
4.825
4.819
4.817
4.818
4.820
4.818
4.817
4.816
4.812
4.815
4.809
4.807
4.811
4.816
4.822
4.826
4.831
4.835
4.836
4.835
4.833
4.837
4.836
4.835
4.836
4.832
4.836
4.835
4.838
4.837
4.838
4.838
4.836
4.834
4.836
4.837
4.838
4.837
4.836
4.838
4.834
4.829
4.828
4.826
4.820
4.823
4.827
4.819
4.823
4.826
4.831
4.835
4.841
4.845
4.850
4.854
4.857
4.856
4.853
4.853
4.850
4.848
4.849
4.846
4.845
4.848
4.852
4.853
4.849
4.848
4.850
4.851
4.857
4.857
4.858
4.856
4.853
4.849
4.847
4.846
4.845
4.845
4.842
4.840
4.838
4.840
4.838
4.842
4.841
4.842
4.844
4.848
4.853
4.859
4.861
4.864
4.860
4.867
4.866
4.862
4.861
4.862
4.861
4.860
4.858
4.854
4.853
4.856
4.860
4.859
4.855
4.851
4.847
4.845
4.839
4.835
4.831
4.832
4.834
4.831
4.831
4.832
4.834
4.834
4.831
4.834
4.834
4.832
4.833
4.835
4.841
4.845
4.849
4.854
4.860
4.864
4.863
4.860
4.864
4.859
4.857
4.854
4.857
4.854
4.850
4.848
4.853
4.853
4.855
4.856
4.852
4.854
4.855
4.853
4.849
4.849
4.849
