2.994
3.332
3.511
3.634
3.711
3.781
3.847
3.888
3.918
3.969
3.970
4.013
4.053
4.087
4.053
4.081
4.107
4.131
4.151
4.175
4.190
4.210
4.229
4.236
4.196
4.166
4.182
4.189
4.198
4.213
4.220
4.233
4.237
4.247
4.250
4.263
4.275
4.274
4.286
4.296
4.294
4.303
4.313
4.321
4.318
4.328
4.333
4.339
4.347
4.344
4.355
4.358
4.368
4.372
4.377
4.370
4.377
4.383
4.388
4.395
4.399
4.411
4.409
4.400
4.409
4.408
4.415
4.424
4.426
4.432
4.439
4.444
4.448
4.446
4.439
4.443
4.445
4.451
4.453
4.458
4.466
4.463
4.467
4.473
4.483
4.485
4.484
4.490
4.492
4.493
4.480
4.481
4.484
4.487
4.489
4.490
4.497
4.501
4.507
4.507
4.508
4.507
4.511
4.518
4.524
4.525
4.529
4.528
4.530
4.539
4.535
4.542
4.543
4.548
4.549
4.551
4.540
4.534
4.527
4.533
4.533
4.534
4.538
4.537
4.544
4.551
4.552
4.555
4.557
4.561
4.552
4.555
4.558
4.558
4.560
4.562
4.568
4.572
4.576
4.577
4.577
4.581
4.588
4.591
4.585
4.581
4.584
4.589
4.588
4.591
4.592
4.597
4.596
4.602
4.610
4.607
4.606
4.605
4.614
4.614
4.618
4.618
4.623
4.614
4.617
4.622
4.621
4.616
4.606
4.595
4.590
4.594
4.593
4.599
4.598
4.607
4.603
4.602
4.610
4.611
4.615
4.610
4.612
4.618
4.612
4.624
4.620
4.625
4.623
4.624
4.617
4.622
4.620
4.618
4.621
4.616
4.621
4.625
4.625
4.630
4.626
4.632
4.626
4.635
4.634
4.641
4.639
4.640
4.642
4.641
4.656
4.643
4.648
4.641
4.644
4.644
4.645
4.657
4.655
4.654
4.662
4.663
4.662
4.666
4.658
4.651
4.650
4.660
4.656
4.655
4.669
4.657
4.656
4.658
4.655
4.662
4.666
4.666
4.666
4.670
4.669
4.666
4.675
4.671
4.670
4.681
4.680
4.677
4.686
4.688
4.683
4.684
4.684
4.685
4.686
4.684
4.683
4.681
4.692
4.693
4.691
4.688
4.702
4.696
4.697
4.698
4.702
4.703
4.703
4.706
4.707
4.707
4.702
4.712
4.708
4.706
4.700
4.701
4.700
4.693
4.702
4.710
4.710
4.707
4.705
4.707
4.707
4.704
4.705
4.706
4.707
4.701
4.702
4.717
4.714
4.710
4.708
4.714
4.719
4.720
4.718
4.721
4.722
4.728
4.725
4.726
4.721
4.729
4.735
4.733
4.735
4.731
4.733
4.740
4.735
4.729
4.724
4.718
4.713
4.707
4.705
4.706
4.702
4.699
4.697
4.704
4.697
4.693
4.692
4.692
4.700
4.710
4.707
4.706
4.707
4.701
4.707
4.714
4.714
4.712
4.710
4.707
4.711
4.710
4.711
4.712
4.708
4.710
4.714
4.723
4.721
4.715
4.714
4.712
4.714
4.725
4.729
4.729
4.727
4.726
4.730
4.729
4.735
4.733
4.725
4.720
4.713
4.715
4.718
4.717
4.714
4.715
4.714
4.714
4.719
4.721
4.722
4.712
4.714
4.709
4.707
4.717
4.716
4.714
4.714
4.715
4.716
4.712
4.716
4.721
4.714
4.714
4.714
4.712
4.707
4.710
4.721
4.728
4.725
4.725
4.721
4.718
4.721
4.723
4.725
4.734
4.741
4.737
4.732
4.728
4.725
4.726
4.725
4.734
4.735
4.733
4.736
4.734
4.729
4.725
4.724
4.729
4.738
4.740
4.741
4.747
4.740
4.736
4.735
4.733
4.733
4.740
4.747
4.748
4.749
4.740
4.746
4.744
4.744
4.742
4.740
4.750
4.758
4.762
4.762
4.756
4.752
4.753
4.757
4.750
4.744
4.751
4.747
4.747
4.751
4.750
4.747
4.745
4.743
4.742
4.743
4.751
4.762
4.758
4.749
4.742
4.747
4.745
4.743
4.737
4.736
4.747
4.755
4.759
4.762
4.761
4.762
4.759
4.758
4.755
4.757
4.750
4.754
4.756
4.766
4.772
4.768
4.766
4.771
4.773
4.770
4.761
4.752
4.753
4.754
4.761
4.768
4.773
4.773
4.772
4.771
4.769
4.771
4.773
4.771
4.767
4.768
4.767
4.768
4.778
4.785
4.791
4.788
4.789
4.790
4.794
4.788
4.781
4.781
4.780
4.781
4.777
4.779
4.786
4.796
4.791
4.785
4.791
4.788
4.784
4.782
4.778
4.779
4.781
4.777
4.781
4.777
4.773
4.776
4.767
4.762
4.761
4.763
4.761
4.762
4.761
4.760
4.762
4.765
4.772
4.776
4.773
4.776
4.778
4.773
4.770
4.771
4.770
4.770
4.764
4.758
4.753
4.757
4.764
4.765
4.766
4.768
4.762
4.763
4.766
4.771
4.769
4.765
4.764
4.766
4.759
4.754
4.753
4.760
4.769
4.774
4.781
4.774
4.773
4.773
4.773
4.773
4.770
4.773
4.770
4.776
4.773
4.773
4.773
4.773
4.770
4.771
4.778
4.785
4.784
4.781
4.786
4.785
4.783
4.781
4.778
4.771
4.769
4.768
4.769
4.768
4.773
4.771
4.769
4.774
4.780
4.785
4.786
4.782
4.786
4.779
4.772
4.774
4.777
4.777
4.775
4.770
4.769
4.766
4.767
4.765
4.764
4.768
4.777
4.782
4.789
4.796
4.797
4.793
4.792
4.790
4.784
4.785
4.791
4.787
4.781
4.781
4.788
4.785
4.783
4.784
4.786
4.788
4.789
4.787
4.791
4.796
4.805
4.804
4.800
4.799
4.805
4.798
4.799
4.796
4.791
4.796
4.794
4.795
4.792
4.790
4.786
4.785
4.791
4.784
4.783
4.790
4.797
4.803
4.805
4.803
4.805
4.801
4.800
4.801
4.803
4.799
4.799
4.801
4.805
4.803
4.802
4.801
4.799
4.796
4.800
4.801
4.800
4.796
4.794
4.799
4.807
4.810
4.818
4.825
4.829
4.828
4.829
4.826
4.827
4.823
4.819
4.815
4.811
4.810
4.811
4.810
4.811
4.818
4.821
4.815
4.813
4.806
4.805
4.801
4.807
4.810
4.816
4.821
4.822
4.817
4.813
4.817
4.818
4.815
4.811
4.806
4.803
4.798
4.794
4.793
4.789
4.790
4.786
4.787
4.788
4.790
4.797
4.795
4.794
4.798
4.803
4.809
4.814
4.820
4.821
4.820
4.821
4.823
4.821
4.814
4.813
4.812
4.808
4.801
4.800
4.796
4.795
4.796
4.805
4.804
4.797
4.796
4.791
4.785
4.786
4.785
4.792
4.796
4.802
4.809
4.814
4.814
4.814
4.820
4.821
4.823
4.822
4.817
4.814
4.814
4.814
4.817
4.814
4.818
4.816
4.812
4.813
4.814
4.814
4.812
4.813
4.810
4.808
4.812
4.807
4.801
4.800
4.798
4.803
4.809
4.814
4.820
4.824
4.826
4.825
4.823
4.819
4.823
4.822
4.820
4.821
4.826
4.825
4.825
4.822
4.823
4.824
4.821
4.821
4.823
4.827
4.823
4.822
4.823
4.822
4.823
4.822
4.821
4.818
4.814
4.816
4.812
4.813
4.818
4.824
4.829
4.833
4.839
4.844
4.848
4.841
4.840
4.838
4.837
4.836
4.836
4.836
4.831
4.833
4.836
4.840
4.840
4.836
4.836
4.840
4.842
4.843
4.847
4.843
4.844
4.841
4.840
4.840
4.837
4.830
4.829
4.829
4.828
4.829
4.829
4.827
4.833
4.838
4.842
4.847
4.851
4.849
4.850
4.852
4.853
4.855
4.858
4.858
4.853
4.849
4.844
4.843
4.842
4.841
4.847
4.849
4.848
4.847
4.844
4.844
4.840
4.838
4.834
4.830
4.826
4.822
4.823
4.819
4.818
4.819
4.821
4.819
4.820
4.825
4.829
4.833
4.839
4.844
4.847
4.852
4.850
4.844
4.848
4.852
4.850
4.849
4.845
4.843
4.839
4.838
4.844
4.843
4.847
4.846
4.842
4.846
4.844
4.844
4.842
4.841
4.836
4.833
4.833
4.830
4.831
4.833
4.833
4.833
4.831
4.832
4.834
4.833
4.837
4.832
4.833
4.836
4.839
4.840
4.840
4.846
4.850
4.854
4.859
4.863
4.864
4.863
4.862
4.862
4.862
4.868
4.870
4.870
4.867
4.863
4.862
4.860
4.859
4.860
4.862
4.857
4.859
4.858
4.861
4.858
4.856
4.858
4.861
4.866
4.870
4.865
4.859
4.858
4.861
4.860
