2.990
3.334
3.508
3.618
3.697
3.769
3.804
3.877
3.935
3.918
3.965
4.005
4.041
4.077
4.093
4.027
4.036
4.051
4.071
4.081
4.097
4.117
4.124
4.131
4.150
4.169
4.171
4.185
4.184
4.195
4.209
4.226
4.224
4.237
4.244
4.257
4.254
4.261
4.273
4.277
4.290
4.296
4.301
4.293
4.302
4.313
4.315
4.327
4.341
4.337
4.353
4.357
4.337
4.339
4.352
4.361
4.363
4.361
4.376
4.379
4.391
4.390
4.392
4.402
4.411
4.419
4.415
4.394
4.395
4.400
4.410
4.409
4.421
4.417
4.413
4.419
4.422
4.438
4.432
4.445
4.449
4.445
4.453
4.446
4.460
4.466
4.468
4.472
4.472
4.480
4.490
4.491
4.488
4.484
4.482
4.490
4.474
4.462
4.464
4.474
4.481
4.478
4.482
4.482
4.480
4.495
4.493
4.479
4.490
4.487
4.488
4.489
4.492
4.501
4.498
4.505
4.516
4.513
4.503
4.514
4.517
4.521
4.528
4.524
4.534
4.537
4.518
4.529
4.531
4.520
4.533
4.528
4.533
4.529
4.541
4.537
4.553
4.543
4.552
4.549
4.557
4.549
4.557
4.550
4.564
4.557
4.567
4.572
4.577
4.570
4.574
4.582
4.579
4.591
4.578
4.579
4.577
4.577
4.578
4.567
4.579
4.576
4.578
4.586
4.579
4.590
4.597
4.586
4.599
4.602
4.597
4.605
4.604
4.601
4.609
4.613
4.614
4.610
4.620
4.609
4.598
4.588
4.579
4.573
4.576
4.573
4.588
4.586
4.578
4.588
4.585
4.584
4.580
4.593
4.587
4.591
4.587
4.609
4.604
4.598
4.595
4.614
4.611
4.608
4.594
4.596
4.590
4.580
4.592
4.599
4.582
4.583
4.587
4.588
4.593
4.577
4.578
4.598
4.597
4.587
4.592
4.591
4.608
4.610
4.597
4.600
4.596
4.612
4.612
4.606
4.600
4.594
4.612
4.618
4.612
4.608
4.612
4.608
4.627
4.622
4.625
4.619
4.624
4.619
4.637
4.638
4.639
4.634
4.627
4.623
4.630
4.624
4.624
4.619
4.620
4.623
4.621
4.628
4.624
4.621
4.624
4.618
4.635
4.642
4.639
4.643
4.640
4.636
4.629
4.641
4.643
4.641
4.640
4.643
4.638
4.638
4.642
4.658
4.659
4.659
4.663
4.661
4.656
4.658
4.653
4.668
4.672
4.669
4.670
4.667
4.653
4.650
4.661
4.672
4.674
4.670
4.673
4.668
4.665
4.656
4.651
4.646
4.650
4.652
4.644
4.645
4.643
4.638
4.643
4.645
4.643
4.643
4.642
4.642
4.635
4.634
4.629
4.641
4.652
4.659
4.649
4.652
4.652
4.651
4.654
4.654
4.652
4.646
4.659
4.664
4.658
4.658
4.655
4.649
4.651
4.652
4.651
4.656
4.654
4.654
4.658
4.652
4.648
4.653
4.653
4.653
4.655
4.651
4.649
4.654
4.667
4.675
4.676
4.674
4.673
4.670
4.671
4.672
4.673
4.669
4.670
4.657
4.670
4.683
4.687
4.685
4.687
4.676
4.667
4.665
4.667
4.659
4.657
4.667
4.666
4.675
4.687
4.692
4.693
4.688
4.690
4.683
4.691
4.694
4.691
4.690
4.685
4.683
4.684
4.682
4.693
4.705
4.712
4.710
4.699
4.695
4.698
4.694
4.696
4.694
4.695
4.696
4.690
4.684
4.686
4.698
4.694
4.686
4.686
4.688
4.691
4.691
4.690
4.683
4.685
4.678
4.673
4.676
4.677
4.679
4.690
4.693
4.693
4.690
4.680
4.687
4.685
4.685
4.691
4.688
4.682
4.688
4.684
4.686
4.682
4.680
4.682
4.691
4.701
4.698
4.704
4.704
4.704
4.700
4.693
4.696
4.696
4.684
4.683
4.687
4.697
4.702
4.700
4.694
4.696
4.695
4.697
4.708
4.718
4.717
4.711
4.717
4.716
4.717
4.714
4.712
4.713
4.717
4.713
4.708
4.714
4.714
4.714
4.716
4.715
4.712
4.711
4.707
4.717
4.727
4.737
4.747
4.743
4.734
4.731
4.728
4.729
4.730
4.729
4.728
4.725
4.725
4.723
4.717
4.720
4.717
4.710
4.705
4.705
4.709
4.718
4.727
4.727
4.731
4.733
4.731
4.731
4.723
4.720
4.720
4.721
4.721
4.715
4.719
4.719
4.719
4.711
4.721
4.717
4.721
4.713
4.711
4.709
4.710
4.719
4.728
4.736
4.746
4.748
4.750
4.753
4.744
4.744
4.739
4.746
4.747
4.746
4.743
4.747
4.751
4.751
4.747
4.745
4.742
4.738
4.736
4.731
4.739
4.736
4.734
4.742
4.746
4.752
4.751
4.750
4.758
4.767
4.767
4.765
4.768
4.762
4.765
4.757
4.754
4.758
4.758
4.758
4.752
4.754
4.762
4.760
4.758
4.755
4.752
4.748
4.751
4.756
4.752
4.745
4.743
4.735
4.731
4.738
4.739
4.736
4.737
4.744
4.743
4.743
4.746
4.743
4.737
4.736
4.736
4.738
4.737
4.734
4.735
4.732
4.735
4.741
4.738
4.730
4.727
4.721
4.715
4.709
4.708
4.712
4.710
4.704
4.712
4.720
4.727
4.735
4.742
4.741
4.743
4.742
4.733
4.735
4.731
4.728
4.726
4.725
4.726
4.730
4.730
4.729
4.725
4.725
4.724
4.713
4.712
4.716
4.717
4.717
4.715
4.715
4.710
4.710
4.708
4.714
4.716
4.714
4.710
4.711
4.720
4.726
4.725
4.733
4.740
4.747
4.754
4.758
4.756
4.753
4.756
4.746
4.754
4.748
4.742
4.737
4.736
4.734
4.732
4.727
4.721
4.715
4.713
4.716
4.719
4.717
4.719
4.715
4.712
4.714
4.708
4.711
4.708
4.714
4.709
4.706
4.704
4.703
4.703
4.702
4.706
4.713
4.720
4.727
4.734
4.740
4.747
4.753
4.746
4.747
4.746
4.747
4.746
4.749
4.754
4.756
4.755
4.756
4.755
4.754
4.753
4.746
4.752
4.754
4.747
4.743
4.737
4.734
4.726
4.724
4.723
4.718
4.721
4.725
4.722
4.718
4.719
4.718
4.719
4.719
4.713
4.710
4.712
4.711
4.712
4.709
4.709
4.713
4.719
4.725
4.732
4.738
4.745
4.751
4.757
4.758
4.752
4.748
4.750
4.747
4.748
4.747
4.748
4.751
4.746
4.744
4.741
4.737
4.740
4.736
4.737
4.743
4.750
4.746
4.749
4.752
4.752
4.747
4.741
4.742
4.739
4.739
4.742
4.734
4.729
4.729
4.737
4.739
4.739
4.736
4.733
4.729
4.730
4.725
4.726
4.725
4.718
4.712
4.705
4.709
4.715
4.721
4.727
4.733
4.739
4.744
4.750
4.756
4.762
4.768
4.772
4.776
4.775
4.773
4.772
4.765
4.768
4.767
4.765
4.760
4.760
4.755
4.758
4.755
4.754
4.748
4.752
4.746
4.752
4.752
4.757
4.751
4.754
4.752
4.745
4.748
4.745
4.742
4.745
4.743
4.740
4.748
4.748
4.750
4.746
4.739
4.732
4.728
4.727
4.726
4.729
4.734
4.737
4.734
4.738
4.738
4.739
4.736
4.737
4.734
4.730
4.732
4.728
4.727
4.732
4.738
4.744
4.749
4.755
4.760
4.765
4.771
4.777
4.780
4.781
4.777
4.779
4.780
4.779
4.777
4.775
4.773
4.777
4.775
4.781
4.782
4.782
4.776
4.771
4.777
4.775
4.775
4.775
4.774
4.771
4.771
4.763
4.760
4.763
4.761
4.763
4.762
4.762
4.761
4.758
4.758
4.757
4.756
4.761
4.766
4.772
4.769
4.766
4.765
4.764
4.763
4.764
4.762
4.757
4.758
4.752
4.751
4.752
4.752
4.756
4.756
4.761
4.762
4.761
4.757
4.754
4.754
4.757
4.751
4.751
4.753
4.753
4.758
4.761
4.756
4.757
4.762
4.767
4.772
4.778
4.783
4.788
4.793
4.798
4.803
4.808
4.813
4.812
4.809
4.813
4.812
4.811
4.818
4.814
4.810
4.813
4.811
4.812
4.807
4.802
4.799
4.797
4.789
4.784
4.782
4.780
4.780
4.780
4.785
4.785
4.784
4.787
4.784
4.788
4.787
4.783
4.780
4.781
4.783
4.781
4.787
4.787
4.790
4.786
4.781
4.778
4.775
4.775
4.781
4.783
4.779
4.774
4.771
4.767
4.762
4.758
4.754
4.750
4.748
4.752
4.747
4.745
4.745
4.746
4.747
4.745
4.739
4.734
