2.987
3.332
3.517
3.635
3.692
3.748
3.838
3.829
3.888
3.936
3.987
4.024
3.979
3.957
3.986
4.005
4.026
4.038
4.069
4.078
4.092
4.104
4.122
4.127
4.151
4.148
4.167
4.177
4.196
4.193
4.200
4.212
4.225
4.241
4.224
4.241
4.251
4.260
4.274
4.279
4.290
4.273
4.282
4.287
4.297
4.300
4.315
4.321
4.320
4.337
4.342
4.356
4.347
4.331
4.330
4.349
4.353
4.360
4.355
4.355
4.370
4.376
4.379
4.388
4.387
4.386
4.393
4.399
4.409
4.413
4.422
4.429
4.421
4.423
4.425
4.437
4.417
4.403
4.413
4.417
4.422
4.423
4.436
4.436
4.423
4.421
4.427
4.435
4.437
4.444
4.445
4.451
4.446
4.452
4.460
4.466
4.461
4.471
4.482
4.472
4.464
4.459
4.475
4.476
4.467
4.481
4.482
4.493
4.501
4.491
4.502
4.497
4.504
4.509
4.504
4.519
4.511
4.521
4.515
4.529
4.532
4.521
4.514
4.530
4.515
4.509
4.514
4.523
4.523
4.542
4.536
4.541
4.539
4.543
4.547
4.544
4.555
4.558
4.549
4.569
4.557
4.559
4.548
4.535
4.522
4.521
4.530
4.521
4.528
4.529
4.524
4.533
4.537
4.543
4.535
4.559
4.547
4.538
4.560
4.557
4.540
4.536
4.533
4.527
4.535
4.526
4.519
4.531
4.528
4.528
4.522
4.541
4.548
4.544
4.541
4.546
4.559
4.551
4.554
4.547
4.555
4.552
4.547
4.546
4.565
4.558
4.566
4.559
4.560
4.581
4.576
4.573
4.570
4.570
4.578
4.568
4.559
4.557
4.575
4.577
4.563
4.564
4.569
4.574
4.584
4.586
4.579
4.584
4.575
4.590
4.579
4.586
4.582
4.580
4.582
4.598
4.605
4.604
4.607
4.606
4.595
4.600
4.619
4.616
4.608
4.607
4.600
4.598
4.616
4.617
4.620
4.618
4.613
4.602
4.604
4.596
4.586
4.594
4.588
4.579
4.586
4.597
4.593
4.587
4.582
4.574
4.571
4.579
4.597
4.600
4.600
4.605
4.603
4.595
4.589
4.591
4.599
4.612
4.601
4.604
4.598
4.605
4.601
4.596
4.593
4.604
4.606
4.605
4.607
4.604
4.601
4.599
4.594
4.595
4.612
4.628
4.626
4.629
4.624
4.620
4.615
4.612
4.599
4.606
4.619
4.632
4.624
4.619
4.618
4.611
4.620
4.615
4.617
4.608
4.615
4.630
4.646
4.645
4.649
4.650
4.642
4.644
4.634
4.632
4.635
4.626
4.632
4.645
4.660
4.653
4.651
4.651
4.653
4.640
4.636
4.633
4.634
4.632
4.631
4.645
4.648
4.649
4.635
4.633
4.633
4.631
4.625
4.615
4.610
4.608
4.619
4.633
4.644
4.645
4.650
4.649
4.646
4.651
4.650
4.642
4.633
4.627
4.628
4.631
4.621
4.634
4.647
4.656
4.657
4.661
4.652
4.657
4.662
4.661
4.658
4.654
4.643
4.642
4.635
4.634
4.640
4.645
4.658
4.671
4.683
4.681
4.685
4.682
4.678
4.670
4.663
4.664
4.666
4.670
4.674
4.669
4.668
4.664
4.652
4.663
4.675
4.682
4.682
4.685
4.683
4.684
4.682
4.681
4.671
4.661
4.659
4.652
4.651
4.650
4.651
4.653
4.649
4.660
4.672
4.683
4.686
4.689
4.679
4.673
4.680
4.675
4.687
4.686
4.677
4.678
4.681
4.682
4.676
4.671
4.664
4.663
4.666
4.669
4.681
4.682
4.694
4.705
4.716
4.724
4.715
4.714
4.729
4.717
4.710
4.703
4.701
4.705
4.701
4.706
4.695
4.692
4.690
4.684
4.687
4.687
4.687
4.682
4.691
4.701
4.712
4.722
4.728
4.719
4.711
4.714
4.713
4.707
4.701
4.695
4.689
4.683
4.677
4.671
4.665
4.664
4.671
4.665
4.665
4.667
4.666
4.673
4.683
4.693
4.694
4.687
4.688
4.679
4.675
4.676
4.675
4.673
4.678
4.687
4.684
4.676
4.673
4.666
4.660
4.659
4.662
4.659
4.650
4.647
4.651
4.646
4.649
4.658
4.668
4.677
4.687
4.696
4.705
4.701
4.699
4.695
4.694
4.693
4.695
4.692
4.689
4.689
4.685
4.684
4.680
4.675
4.676
4.673
4.683
4.683
4.687
4.687
4.679
4.671
4.663
4.655
4.647
4.650
4.659
4.668
4.677
4.686
4.685
4.695
4.686
4.691
4.683
4.682
4.685
4.685
4.683
4.683
4.687
4.680
4.680
4.683
4.685
4.691
4.685
4.679
4.681
4.679
4.678
4.673
4.675
4.673
4.671
4.669
4.669
4.675
4.675
4.670
4.663
4.662
4.668
4.676
4.684
4.692
4.692
4.689
4.692
4.688
4.686
4.684
4.690
4.690
4.693
4.698
4.691
4.689
4.686
4.684
4.678
4.685
4.683
4.681
4.682
4.680
4.677
4.673
4.668
4.676
4.673
4.662
4.670
4.668
4.670
4.678
4.676
4.676
4.674
4.674
4.669
4.668
4.667
4.675
4.682
4.690
4.698
4.706
4.708
4.712
4.710
4.705
4.703
4.697
4.696
4.703
4.706
4.701
4.700
4.694
4.692
4.697
4.700
4.696
4.692
4.692
4.689
4.691
4.688
4.688
4.686
4.681
4.675
4.680
4.686
4.686
4.690
4.697
4.698
4.694
4.685
4.683
4.684
4.685
4.686
4.683
4.686
4.683
4.679
4.672
4.679
4.686
4.694
4.701
4.708
4.715
4.723
4.729
4.722
4.718
4.710
4.710
4.716
4.719
4.716
4.712
4.720
4.720
4.729
4.737
4.733
4.732
4.728
4.719
4.716
4.707
4.709
4.706
4.703
4.706
4.709
4.709
4.704
4.709
4.702
4.695
4.702
4.701
4.700
4.691
4.693
4.693
4.693
4.698
4.697
4.695
4.697
4.690
4.696
4.703
4.702
4.697
4.699
4.699
4.694
4.693
4.696
4.699
4.705
4.712
4.719
4.725
4.732
4.739
4.745
4.752
4.759
4.755
4.752
4.752
4.752
4.747
4.747
4.749
4.753
4.755
4.753
4.752
4.756
4.746
4.741
4.740
4.735
4.734
4.739
4.734
4.732
4.734
4.735
4.735
4.744
4.747
4.748
4.738
4.735
4.739
4.732
4.740
4.742
4.742
4.735
4.729
4.729
4.731
4.729
4.729
4.722
4.715
4.709
4.706
4.705
4.705
4.703
4.705
4.702
4.706
4.708
4.708
4.712
4.708
4.702
4.702
4.704
4.710
4.715
4.722
4.728
4.730
4.728
4.736
4.734
4.741
4.740
4.740
4.742
4.736
4.735
4.735
4.733
4.737
4.735
4.737
4.741
4.734
4.729
4.728
4.728
4.724
4.721
4.718
4.713
4.709
4.715
4.710
4.707
4.708
4.706
4.698
4.695
4.700
4.706
4.703
4.711
4.712
4.705
4.707
4.710
4.708
4.704
4.708
4.702
4.705
4.702
4.708
4.710
4.711
4.705
4.703
4.705
4.698
4.697
4.697
4.696
4.701
4.705
4.706
4.705
4.698
4.698
4.693
4.692
4.685
4.682
4.681
4.683
4.686
4.686
4.692
4.697
4.703
4.708
4.714
4.719
4.725
4.730
4.736
4.741
4.747
4.753
4.758
4.758
4.758
4.758
4.755
4.753
4.756
4.758
4.756
4.753
4.753
4.751
4.749
4.743
4.742
4.743
4.738
4.737
4.734
4.741
4.746
4.753
4.749
4.748
4.749
4.749
4.752
4.751
4.752
4.749
4.745
4.744
4.746
4.746
4.744
4.742
4.744
4.739
4.744
4.742
4.745
4.747
4.742
4.746
4.746
4.745
4.747
4.748
4.744
4.744
4.743
4.739
4.741
4.745
4.742
4.738
4.732
4.730
4.726
4.726
4.722
4.729
4.732
4.728
4.729
4.729
4.730
4.736
4.733
4.733
4.733
4.729
4.725
4.721
4.717
4.714
4.710
4.708
4.706
4.702
4.703
4.709
4.712
4.713
4.717
4.718
4.716
4.716
4.721
4.726
4.731
4.736
4.741
4.746
4.751
4.756
4.761
4.766
4.771
4.769
4.763
4.757
4.751
4.745
4.745
4.744
4.746
4.743
4.744
4.744
4.738
4.735
4.735
4.735
4.727
4.730
4.727
4.728
4.726
4.724
4.727
4.730
4.727
4.729
4.726
4.720
4.723
4.725
4.723
4.722
4.727
4.721
4.722
4.719
4.715
4.722
4.726
4.723
4.721
4.722
4.714
4.714
4.721
4.728
4.730
