2.992
3.326
3.516
3.632
3.711
3.776
3.825
3.891
3.911
3.969
3.959
3.984
4.020
4.056
4.085
4.111
4.142
4.140
4.085
4.085
4.097
4.109
4.130
4.141
4.147
4.162
4.170
4.183
4.201
4.206
4.218
4.217
4.227
4.243
4.256
4.254
4.262
4.275
4.285
4.277
4.287
4.300
4.306
4.319
4.314
4.316
4.319
4.328
4.333
4.343
4.354
4.361
4.349
4.353
4.354
4.366
4.374
4.373
4.383
4.393
4.394
4.399
4.408
4.404
4.394
4.393
4.401
4.411
4.413
4.421
4.420
4.424
4.433
4.439
4.443
4.440
4.443
4.453
4.459
4.462
4.465
4.474
4.450
4.443
4.446
4.454
4.454
4.467
4.463
4.473
4.478
4.474
4.472
4.477
4.480
4.490
4.491
4.490
4.498
4.505
4.501
4.494
4.501
4.506
4.513
4.511
4.520
4.523
4.526
4.530
4.537
4.531
4.541
4.540
4.539
4.540
4.538
4.536
4.530
4.514
4.519
4.519
4.513
4.524
4.529
4.527
4.527
4.527
4.534
4.543
4.532
4.545
4.536
4.537
4.531
4.534
4.541
4.541
4.540
4.551
4.545
4.554
4.553
4.558
4.563
4.565
4.565
4.558
4.562
4.564
4.569
4.572
4.580
4.579
4.584
4.584
4.576
4.576
4.574
4.582
4.574
4.580
4.575
4.591
4.578
4.590
4.582
4.587
4.593
4.592
4.603
4.603
4.604
4.608
4.598
4.611
4.607
4.607
4.608
4.604
4.614
4.613
4.617
4.618
4.624
4.628
4.625
4.627
4.633
4.630
4.627
4.632
4.618
4.627
4.630
4.629
4.631
4.625
4.623
4.631
4.620
4.622
4.632
4.633
4.629
4.630
4.644
4.647
4.642
4.647
4.651
4.647
4.646
4.661
4.660
4.651
4.653
4.665
4.667
4.660
4.662
4.657
4.648
4.640
4.631
4.622
4.623
4.622
4.624
4.618
4.634
4.633
4.631
4.630
4.635
4.631
4.627
4.625
4.632
4.643
4.638
4.633
4.631
4.644
4.648
4.647
4.643
4.652
4.654
4.657
4.655
4.648
4.651
4.649
4.638
4.636
4.630
4.646
4.640
4.634
4.632
4.637
4.634
4.635
4.640
4.634
4.628
4.642
4.639
4.637
4.630
4.635
4.635
4.647
4.646
4.646
4.644
4.643
4.647
4.658
4.653
4.648
4.657
4.652
4.645
4.660
4.658
4.657
4.651
4.646
4.646
4.658
4.666
4.666
4.659
4.658
4.655
4.655
4.667
4.672
4.673
4.670
4.677
4.673
4.671
4.672
4.687
4.688
4.685
4.682
4.676
4.666
4.672
4.679
4.675
4.674
4.672
4.669
4.666
4.667
4.679
4.671
4.674
4.673
4.670
4.674
4.674
4.672
4.686
4.691
4.688
4.688
4.685
4.688
4.681
4.686
4.685
4.691
4.687
4.692
4.684
4.687
4.690
4.681
4.682
4.692
4.705
4.703
4.704
4.702
4.706
4.707
4.707
4.704
4.699
4.706
4.716
4.715
4.713
4.716
4.711
4.713
4.707
4.698
4.700
4.713
4.726
4.724
4.721
4.716
4.713
4.709
4.702
4.695
4.701
4.700
4.695
4.694
4.685
4.689
4.694
4.688
4.690
4.688
4.695
4.697
4.688
4.684
4.683
4.683
4.685
4.677
4.683
4.683
4.683
4.694
4.704
4.696
4.699
4.695
4.695
4.695
4.691
4.693
4.691
4.689
4.692
4.698
4.709
4.714
4.707
4.705
4.703
4.701
4.700
4.700
4.696
4.692
4.690
4.693
4.704
4.715
4.708
4.712
4.708
4.698
4.693
4.693
4.694
4.688
4.692
4.692
4.691
4.701
4.712
4.719
4.717
4.715
4.712
4.713
4.712
4.710
4.711
4.705
4.708
4.709
4.707
4.703
4.711
4.722
4.732
4.728
4.731
4.724
4.716
4.714
4.720
4.718
4.724
4.721
4.718
4.708
4.704
4.711
4.721
4.731
4.730
4.731
4.731
4.729
4.728
4.730
4.732
4.728
4.722
4.719
4.719
4.728
4.724
4.729
4.724
4.730
4.740
4.749
4.757
4.758
4.748
4.744
4.741
4.745
4.746
4.747
4.742
4.738
4.735
4.730
4.729
4.725
4.730
4.736
4.746
4.751
4.749
4.747
4.745
4.746
4.744
4.739
4.732
4.726
4.720
4.718
4.719
4.723
4.724
4.714
4.722
4.731
4.740
4.749
4.738
4.742
4.744
4.741
4.732
4.732
4.727
4.725
4.725
4.718
4.714
4.713
4.716
4.721
4.716
4.714
4.722
4.731
4.739
4.748
4.750
4.748
4.746
4.752
4.751
4.747
4.749
4.750
4.748
4.738
4.736
4.731
4.732
4.729
4.729
4.730
4.730
4.727
4.725
4.734
4.742
4.751
4.759
4.759
4.757
4.765
4.766
4.760
4.761
4.763
4.760
4.756
4.757
4.752
4.748
4.749
4.751
4.746
4.745
4.744
4.743
4.738
4.742
4.744
4.747
4.754
4.763
4.771
4.774
4.778
4.781
4.778
4.774
4.783
4.784
4.782
4.778
4.770
4.768
4.767
4.764
4.763
4.768
4.765
4.767
4.764
4.765
4.764
4.756
4.751
4.754
4.758
4.766
4.773
4.781
4.788
4.787
4.782
4.781
4.781
4.774
4.773
4.769
4.770
4.764
4.758
4.764
4.763
4.758
4.762
4.759
4.750
4.745
4.744
4.742
4.745
4.750
4.746
4.751
4.758
4.766
4.773
4.777
4.787
4.787
4.783
4.779
4.777
4.778
4.777
4.774
4.780
4.781
4.776
4.769
4.773
4.770
4.770
4.766
4.767
4.772
4.778
4.774
4.775
4.771
4.767
4.769
4.767
4.770
4.769
4.765
4.769
4.775
4.783
4.790
4.797
4.804
4.806
4.806
4.804
4.803
4.804
4.797
4.803
4.802
4.796
4.803
4.800
4.807
4.805
4.807
4.807
4.812
4.809
4.807
4.800
4.793
4.788
4.787
4.787
4.779
4.779
4.783
4.787
4.787
4.783
4.781
4.785
4.791
4.797
4.804
4.811
4.818
4.817
4.814
4.810
4.806
4.802
4.799
4.795
4.791
4.787
4.783
4.780
4.782
4.784
4.778
4.771
4.765
4.758
4.759
4.757
4.758
4.759
4.756
4.755
4.754
4.756
4.756
4.758
4.759
4.762
4.769
4.775
4.781
4.788
4.794
4.794
4.794
4.791
4.786
4.781
4.777
4.772
4.768
4.765
4.772
4.770
4.766
4.765
4.764
4.765
4.764
4.768
4.770
4.763
4.763
4.758
4.761
4.758
4.765
4.766
4.769
4.769
4.765
4.764
4.762
4.755
4.755
4.755
4.755
4.756
4.760
4.766
4.772
4.778
4.784
4.785
4.778
4.779
4.777
4.779
4.778
4.777
4.772
4.768
4.769
4.774
4.779
4.785
4.790
4.783
4.780
4.781
4.784
4.780
4.776
4.773
4.775
4.775
4.778
4.779
4.774
4.770
4.771
4.769
4.770
4.769
4.769
4.764
4.764
4.760
4.760
4.758
4.759
4.766
4.771
4.773
4.769
4.770
4.770
4.776
4.782
4.787
4.793
4.793
4.790
4.781
4.787
4.780
4.776
4.778
4.779
4.782
4.777
4.775
4.774
4.770
4.767
4.765
4.765
4.765
4.763
4.765
4.760
4.760
4.765
4.771
4.773
4.769
4.773
4.769
4.762
4.763
4.760
4.758
4.758
4.765
4.761
4.759
4.759
4.754
4.759
4.759
4.758
4.760
4.758
4.756
4.759
4.757
4.760
4.764
4.770
4.775
4.781
4.786
4.791
4.797
4.802
4.801
4.802
4.803
4.799
4.797
4.797
4.791
4.790
4.789
4.790
4.793
4.794
4.789
4.792
4.793
4.794
4.789
4.784
4.779
4.774
4.768
4.763
4.759
4.760
4.757
4.761
4.761
4.758
4.756
4.758
4.756
4.758
4.762
4.762
4.759
4.760
4.766
4.774
4.774
4.775
4.768
4.769
4.771
4.770
4.768
4.766
4.766
4.764
4.764
4.760
4.760
4.765
4.770
4.775
4.780
4.785
4.790
4.795
4.800
4.800
4.801
4.797
4.800
4.798
4.797
4.801
4.800
4.806
4.803
4.802
4.801
4.799
4.800
4.801
4.793
4.793
4.792
4.787
4.789
4.796
4.802
4.804
4.804
4.801
4.799
4.797
4.793
4.790
4.791
4.786
4.781
4.776
4.772
4.769
4.767
4.773
4.774
4.775
4.776
4.775
4.778
4.771
4.767
4.762
4.765
4.764
4.763
4.759
4.755
4.761
4.758
