2.987
3.330
3.462
3.541
3.696
3.625
3.682
3.734
3.781
3.827
3.853
3.870
3.920
3.935
3.968
3.956
3.986
4.016
4.051
4.037
4.047
4.065
4.079
4.092
4.103
4.115
4.146
4.140
4.120
4.123
4.119
4.157
4.161
4.166
4.180
4.175
4.191
4.195
4.210
4.223
4.225
4.250
4.230
4.241
4.248
4.253
4.257
4.283
4.275
4.296
4.289
4.266
4.269
4.251
4.272
4.262
4.234
4.237
4.262
4.256
4.260
4.277
4.282
4.292
4.292
4.299
4.282
4.299
4.299
4.291
4.315
4.308
4.335
4.315
4.316
4.344
4.339
4.334
4.349
4.353
4.338
4.312
4.297
4.339
4.321
4.299
4.339
4.326
4.313
4.318
4.345
4.338
4.332
4.333
4.354
4.342
4.339
4.342
4.376
4.372
4.372
4.360
4.359
4.395
4.397
4.382
4.366
4.368
4.369
4.350
4.367
4.341
4.359
4.393
4.397
4.382
4.369
4.370
4.367
4.404
4.406
4.418
4.425
4.410
4.393
4.389
4.424
4.419
4.407
4.399
4.388
4.371
4.385
4.418
4.446
4.445
4.436
4.431
4.427
4.435
4.428
4.418
4.449
4.462
4.461
4.458
4.456
4.434
4.420
4.436
4.430
4.447
4.463
4.449
4.451
4.440
4.427
4.405
4.383
4.384
4.411
4.436
4.448
4.457
4.438
4.420
4.416
4.408
4.415
4.403
4.390
4.395
4.420
4.435
4.442
4.434
4.442
4.426
4.425
4.415
4.404
4.390
4.389
4.417
4.405
4.409
4.432
4.446
4.440
4.445
4.432
4.427
4.436
4.431
4.427
4.425
4.413
4.401
4.397
4.398
4.394
4.416
4.437
4.459
4.480
4.463
4.447
4.450
4.454
4.449
4.432
4.419
4.421
4.431
4.443
4.426
4.422
4.428
4.432
4.423
4.424
4.444
4.464
4.484
4.490
4.493
4.478
4.486
4.501
4.484
4.477
4.478
4.485
4.472
4.462
4.457
4.453
4.453
4.464
4.459
4.470
4.475
4.473
4.454
4.455
4.473
4.491
4.509
4.497
4.500
4.487
4.473
4.462
4.469
4.461
4.459
4.452
4.443
4.444
4.443
4.447
4.446
4.439
4.424
4.413
4.429
4.430
4.416
4.398
4.414
4.431
4.447
4.463
4.480
4.496
4.512
4.513
4.514
4.512
4.500
4.499
4.506
4.511
4.500
4.485
4.474
4.486
4.482
4.478
4.476
4.473
4.476
4.484
4.487
4.505
4.497
4.491
4.499
4.496
4.483
4.492
4.503
4.498
4.496
4.489
4.470
4.458
4.472
4.486
4.493
4.497
4.502
4.484
4.482
4.478
4.488
4.491
4.507
4.495
4.498
4.492
4.482
4.480
4.477
4.466
4.460
4.444
4.435
4.451
4.456
4.452
4.447
4.453
4.436
4.444
4.441
4.439
4.431
4.428
4.434
4.436
4.455
4.462
4.457
4.445
4.464
4.458
4.464
4.453
4.445
4.455
4.468
4.481
4.493
4.506
4.518
4.531
4.538
4.530
4.517
4.504
4.500
4.489
4.490
4.476
4.470
4.467
4.483
4.470
4.460
4.465
4.470
4.476
4.468
4.483
4.500
4.512
4.508
4.507
4.496
4.482
4.465
4.466
4.456
4.456
4.457
4.447
4.438
4.441
4.438
4.427
4.426
4.433
4.438
4.430
4.436
4.437
4.448
4.451
4.441
4.434
4.429
4.439
4.440
4.441
4.432
4.427
4.435
4.446
4.457
4.468
4.478
4.489
4.500
4.511
4.522
4.532
4.544
4.554
4.565
4.558
4.545
4.533
4.525
4.521
4.515
4.516
4.512
4.509
4.510
4.525
4.506
4.516
4.527
4.539
4.521
4.515
4.506
4.501
4.497
4.486
4.494
4.508
4.509
4.499
4.497
4.495
4.502
4.496
4.483
4.482
4.481
4.495
4.485
4.479
4.481
4.496
4.497
4.497
4.496
4.510
4.501
4.492
4.480
4.495
4.485
4.488
4.486
4.487
4.482
4.471
4.473
4.463
4.470
4.481
4.477
4.478
4.462
4.462
4.463
4.470
4.478
4.479
4.493
4.487
4.478
4.474
4.478
4.479
4.475
4.468
4.457
4.462
4.471
4.480
4.489
4.498
4.507
4.516
4.525
4.534
4.543
4.531
4.522
4.525
4.515
4.510
4.513
4.518
4.522
4.512
4.508
4.510
4.502
4.501
4.502
4.507
4.497
4.509
4.522
4.527
4.510
4.509
4.519
4.510
4.509
4.509
4.503
4.497
4.507
4.506
4.506
4.521
4.509
4.501
4.507
4.500
4.501
4.500
4.496
4.506
4.506
4.502
4.486
4.477
4.471
4.463
4.471
4.469
4.471
4.474
4.474
4.461
4.472
4.470
4.465
4.451
4.442
4.444
4.449
4.454
4.463
4.447
4.451
4.448
4.448
4.453
4.451
4.454
4.443
4.435
4.435
4.436
4.445
4.453
4.448
4.453
4.449
4.436
4.443
4.437
4.434
4.440
4.439
4.439
4.445
4.451
4.460
4.459
4.470
4.481
4.492
4.495
4.499
4.503
4.483
4.480
4.477
4.498
4.483
4.479
4.478
4.481
4.477
4.466
4.466
4.462
4.463
4.471
4.476
4.469
4.467
4.458
4.455
4.449
4.456
4.463
4.470
4.478
4.485
4.492
4.499
4.506
4.513
4.521
4.528
4.535
4.542
4.550
4.557
4.556
4.550
4.546
4.550
4.556
4.568
4.557
4.549
4.548
4.550
4.560
4.557
4.555
4.560
4.560
4.552
4.554
4.545
4.535
4.536
4.535
4.534
4.535
4.542
4.537
4.538
4.524
4.526
4.526
4.519
4.513
4.517
4.514
4.519
4.528
4.533
4.524
4.529
4.532
4.545
4.548
4.550
4.547
4.544
4.541
4.539
4.538
4.531
4.535
4.546
4.552
4.547
4.543
4.539
4.529
4.526
4.521
4.520
4.511
4.512
4.508
4.502
4.509
4.518
4.528
4.537
4.545
4.541
4.541
4.532
4.537
4.534
4.522
4.517
4.508
4.498
4.495
4.506
4.509
4.509
4.507
4.507
4.509
4.507
4.508
4.512
4.521
4.515
4.508
4.501
4.495
4.488
4.482
4.475
4.469
4.463
4.456
4.449
4.445
4.450
4.454
4.455
4.467
4.454
4.452
4.463
4.460
4.454
4.457
4.464
4.465
4.470
4.476
4.485
4.480
4.478
4.473
4.469
4.470
4.479
4.476
4.477
4.466
4.462
4.451
4.449
4.459
4.463
4.463
4.461
4.464
4.456
4.447
4.439
4.431
4.430
4.421
4.417
4.416
4.418
4.424
4.424
4.420
4.422
4.429
4.433
4.437
4.440
4.450
4.441
4.430
4.424
4.425
4.415
4.417
4.414
4.414
4.412
4.420
4.431
4.432
4.431
4.425
4.430
4.432
4.427
4.427
4.424
4.429
4.428
4.420
4.424
4.422
4.410
4.406
4.407
4.402
4.408
4.417
4.417
4.407
4.403
4.408
4.412
4.418
4.423
4.428
4.434
4.439
4.445
4.450
4.455
4.461
4.466
4.472
4.477
4.482
4.488
4.493
4.499
4.504
4.509
4.515
4.520
4.526
4.531
4.537
4.542
4.548
4.553
4.558
4.564
4.569
4.574
4.580
4.585
4.591
4.596
4.601
4.607
4.612
4.618
4.622
4.626
4.625
4.623
4.627
4.616
4.610
4.605
4.600
4.594
4.594
4.590
4.583
4.582
4.583
4.578
4.572
4.568
4.562
4.566
4.567
4.559
4.560
4.560
4.558
4.562
4.568
4.562
4.566
4.562
4.557
4.562
4.568
4.559
4.560
4.550
4.548
4.545
4.551
4.553
4.549
4.547
4.556
4.559
4.552
4.546
4.544
4.539
4.538
4.544
4.544
4.553
4.556
4.553
4.549
4.539
4.540
4.543
4.534
4.530
4.530
4.530
4.540
4.536
4.544
4.544
4.536
4.541
4.552
4.549
4.551
4.557
4.564
4.564
4.563
4.556
4.549
4.547
4.549
4.551
4.551
4.548
4.545
4.543
4.546
4.544
4.542
4.542
4.537
4.533
4.530
4.529
4.521
4.511
4.502
4.508
4.508
4.503
4.506
4.513
4.518
4.513
4.510
4.504
4.502
4.498
4.506
4.501
4.500
4.492
4.503
4.505
4.502
4.497
4.491
4.486
4.480
4.475
4.470
4.464
4.459
4.455
4.460
4.464
4.466
4.458
4.453
4.444
4.436
4.432
4.435
4.442
4.450
4.454
4.452
4.443
4.441
4.437
4.442
4.448
4.448
4.445
4.449
4.444
4.439
4.439
4.448
4.444
