1.946
2.506
2.542
2.238
2.798
2.141
2.749
2.692
3.028
2.894
3.075
2.557
2.301
2.480
2.312
2.559
2.621
2.826
2.929
3.083
3.237
3.240
3.020
2.758
2.919
2.670
2.534
2.841
2.634
2.504
2.704
2.393
2.581
2.593
2.646
2.772
2.782
2.703
2.744
2.768
2.713
2.517
2.670
2.502
2.554
2.448
2.558
2.656
2.781
2.894
2.619
2.811
2.655
2.629
2.601
2.438
2.564
2.664
2.611
2.713
2.733
2.632
2.681
2.544
2.568
2.549
2.666
2.613
2.572
2.625
2.660
2.813
2.615
2.605
2.562
2.594
2.615
2.410
2.604
2.588
2.677
2.655
2.639
2.678
2.648
2.450
2.568
2.546
2.668
2.606
2.666
2.504
2.687
2.762
2.651
2.544
2.513
2.488
2.669
2.593
2.657
2.662
2.536
2.712
2.656
2.592
2.541
2.478
2.542
2.621
2.693
2.593
2.496
2.597
2.499
2.623
2.646
2.550
2.582
2.658
2.734
2.671
2.646
2.512
2.492
2.530
2.549
2.659
2.629
2.606
2.627
2.651
2.562
2.624
2.580
2.518
2.539
2.610
2.681
2.593
2.662
2.529
2.583
2.667
2.535
2.565
2.599
2.668
2.707
2.677
2.605
2.548
2.515
2.556
2.546
2.594
2.661
2.606
2.629
2.625
2.542
2.644
2.577
2.529
2.595
2.660
2.655
2.636
2.571
2.481
2.518
2.618
2.575
2.600
2.614
2.612
2.615
2.624
2.522
2.601
2.526
2.546
2.608
2.643
2.661
2.586
2.556
2.556
2.480
2.576
2.559
2.597
2.674
2.617
2.591
2.637
2.572
2.561
2.514
2.574
2.635
2.693
2.621
2.593
2.567
2.607
2.501
2.592
2.611
2.541
2.628
2.593
2.649
2.671
2.601
2.537
2.554
2.611
2.670
2.595
2.630
2.563
2.507
2.596
2.575
2.615
2.587
2.598
2.670
2.668
2.601
2.601
2.548
2.544
2.569
2.603
2.691
2.641
2.576
2.606
2.577
2.515
2.570
2.624
2.672
2.566
2.569
2.557
2.619
2.583
2.555
2.596
2.597
2.618
2.692
2.622
2.566
2.504
2.543
2.571
2.624
2.638
2.564
2.589
2.590
2.529
2.554
2.624
2.581
2.503
2.560
2.633
2.672
2.573
2.565
2.526
2.577
2.616
2.572
2.622
2.563
2.539
2.502
2.559
2.557
2.608
2.585
2.569
2.563
2.661
2.584
2.603
2.564
2.589
2.625
2.678
2.613
2.528
2.566
2.544
2.522
2.571
2.621
2.625
2.568
2.543
2.587
2.626
2.532
2.585
2.604
2.654
2.601
2.559
2.633
2.616
2.573
2.541
2.589
2.628
2.629
2.575
2.576
2.522
2.509
2.577
2.576
2.624
2.579
2.592
2.667
2.608
2.527
2.600
2.583
2.610
2.565
2.639
2.561
2.615
2.581
2.563
2.552
2.598
2.612
2.627
2.592
2.539
2.521
2.549
2.541
2.587
2.597
2.589
2.553
2.511
2.582
2.629
2.532
2.578
2.591
2.663
2.655
2.600
2.601
2.555
2.555
2.569
2.614
2.632
2.613
2.555
2.620
2.551
2.516
2.561
2.605
2.591
2.517
2.600
2.523
2.554
2.616
2.574
2.598
2.632
2.555
2.649
2.631
2.580
2.532
2.554
2.591
2.635
2.637
2.603
2.555
2.558
2.553
2.578
2.585
2.597
2.563
2.617
2.602
2.575
2.556
2.602
2.579
2.603
2.585
2.607
2.593
2.529
2.596
2.532
2.574
2.617
2.606
2.616
2.568
2.560
2.508
2.528
2.597
2.612
2.576
2.613
2.528
2.573
2.629
2.563
2.567
2.584
2.609
2.500
2.605
2.595
2.592
2.546
2.564
2.605
2.647
2.620
2.601
2.584
2.569
2.565
2.561
2.615
2.609
2.571
2.575
2.597
2.563
2.523
2.583
2.600
2.602
2.619
2.598
2.576
2.627
2.546
2.557
2.598
2.591
2.582
2.621
2.601
2.538
2.569
2.556
2.596
2.627
2.599
2.570
2.510
2.544
2.586
2.556
2.595
2.602
2.547
2.632
2.545
2.554
2.616
2.573
2.583
2.566
2.602
2.583
2.554
2.583
2.539
2.555
2.594
2.589
2.637
2.593
2.549
2.564
2.517
2.556
2.594
2.605
2.559
2.565
2.564
2.526
2.608
2.556
2.576
2.628
2.562
2.534
2.588
2.578
2.579
2.557
2.596
2.634
2.673
2.610
2.590
2.547
2.521
2.564
2.597
2.635
2.600
2.558
2.585
2.504
2.530
2.589
2.609
2.568
2.542
2.601
2.560
2.578
2.594
2.579
2.556
2.615
2.567
2.625
2.631
2.589
2.548
2.564
2.602
2.561
2.600
2.600
2.559
2.532
2.530
2.570
2.604
2.611
2.609
2.546
2.513
2.570
2.561
2.616
2.581
2.579
2.555
2.543
2.594
2.595
2.592
2.572
2.550
2.607
2.626
2.589
2.603
2.562
2.540
2.576
2.594
2.632
2.614
2.574
2.534
2.549
2.543
2.579
2.615
2.585
2.585
2.556
2.568
2.519
2.597
2.583
2.619
2.574
2.552
2.573
2.629
2.591
2.568
2.587
2.584
2.620
2.551
2.606
2.579
2.540
2.563
2.590
2.597
2.630
2.576
2.552
2.520
2.551
2.559
2.594
2.603
2.564
2.601
2.604
2.559
2.559
2.564
2.599
2.558
2.572
2.591
2.538
2.594
2.584
2.568
2.603
2.623
2.597
2.637
2.584
2.560
2.550
2.573
2.601
2.590
2.618
2.572
2.552
2.555
2.596
2.578
2.613
2.593
2.584
2.602
2.552
2.600
2.549
2.583
2.565
2.619
2.581
2.632
2.578
2.608
2.570
2.588
2.591
2.644
2.620
2.572
2.583
2.545
2.560
2.594
2.616
2.624
2.595
2.560
2.563
2.532
2.566
2.600
2.607
2.570
2.549
2.569
2.513
2.555
2.572
2.582
2.611
2.589
2.574
2.607
2.546
2.560
2.577
2.611
2.575
2.553
2.600
2.591
2.570
2.550
2.583
2.617
2.633
2.598
2.582
2.566
2.535
2.582
2.590
2.623
2.594
2.599
2.548
2.611
2.561
2.579
2.596
2.571
2.574
2.625
2.589
2.541
2.586
2.583
2.549
2.575
2.599
2.592
2.631
2.595
2.560
2.576
2.568
2.596
2.625
2.608
2.573
2.557
2.550
2.583
2.613
2.600
2.585
2.561
2.551
2.578
2.557
2.589
2.598
2.611
2.564
2.538
2.588
2.580
2.564
2.596
2.595
2.602
2.605
2.571
2.613
2.548
2.571
2.576
2.626
2.642
2.588
2.598
2.565
2.547
2.553
2.602
2.623
2.613
2.578
2.544
2.562
2.554
2.585
2.617
2.591
2.557
2.591
2.559
2.530
2.561
2.593
2.602
2.546
2.589
2.547
2.583
2.563
2.581
2.600
2.620
2.590
2.593
2.613
2.583
2.558
2.576
2.607
2.574
2.634
2.608
2.574
2.540
2.575
2.584
2.615
2.620
2.587
2.553
2.520
2.561
2.561
2.592
2.599
2.570
2.560
2.564
2.539
2.580
2.569
2.597
2.552
2.599
2.604
2.564
2.564
2.592
2.576
2.607
2.591
2.594
2.608
2.554
2.590
2.554
2.584
2.615
2.603
2.617
2.584
2.568
2.538
2.568
2.592
2.623
2.597
2.564
2.569
2.518
2.547
2.584
2.600
2.583
2.599
2.555
2.573
2.578
2.563
2.578
2.585
2.610
2.541
2.598
2.594
2.570
2.570
2.586
2.606
2.646
2.606
2.577
2.583
2.551
2.565
2.590
2.625
2.603
2.596
2.564
2.533
2.544
2.569
2.615
2.609
2.577
2.581
2.572
2.549
2.552
2.595
2.590
2.580
2.561
2.579
2.577
2.532
2.587
2.590
2.609
2.609
2.587
2.595
2.616
2.574
2.569
2.598
2.590
2.567
2.613
2.598
2.556
2.549
2.578
2.583
2.586
2.593
2.585
2.547
2.560
2.558
2.586
2.616
2.592
2.582
2.529
2.571
2.582
2.566
2.595
2.574
2.579
2.641
2.579
2.566
2.595
2.587
2.578
2.560
2.624
2.592
2.547
2.591
2.569
2.584
2.559
2.604
2.574
2.575
2.572
2.551
2.564
2.593
2.589
2.626
2.595
2.564
2.570
2.555
2.573
2.585
2.608
2.577
2.547
2.578
2.572
2.615
2.582
2.591
2.568
2.580
2.560
2.554
2.597
2.563
2.588
2.611
2.564
2.565
2.585
2.581
2.544
2.572
2.598
2.612
2.604
