2.996
3.331
3.491
3.608
3.686
3.718
3.789
3.863
3.930
3.863
3.870
3.906
3.936
3.959
3.983
4.002
4.014
4.039
4.047
4.067
4.092
4.091
4.116
4.133
4.120
4.146
4.155
4.172
4.187
4.185
4.183
4.196
4.206
4.224
4.226
4.246
4.258
4.252
4.236
4.249
4.259
4.255
4.261
4.277
4.292
4.292
4.294
4.312
4.322
4.321
4.344
4.324
4.344
4.345
4.322
4.317
4.318
4.337
4.331
4.333
4.328
4.332
4.337
4.348
4.352
4.361
4.368
4.374
4.378
4.382
4.377
4.380
4.377
4.378
4.390
4.404
4.406
4.406
4.408
4.415
4.435
4.419
4.425
4.446
4.443
4.424
4.430
4.433
4.421
4.441
4.437
4.450
4.454
4.454
4.464
4.463
4.474
4.472
4.482
4.480
4.470
4.451
4.432
4.441
4.439
4.436
4.462
4.457
4.468
4.466
4.459
4.469
4.448
4.458
4.442
4.443
4.432
4.435
4.447
4.457
4.445
4.462
4.454
4.456
4.464
4.458
4.449
4.470
4.469
4.465
4.478
4.492
4.480
4.486
4.499
4.485
4.462
4.484
4.483
4.485
4.469
4.493
4.500
4.491
4.490
4.496
4.500
4.496
4.497
4.499
4.523
4.528
4.522
4.506
4.512
4.541
4.526
4.523
4.521
4.522
4.532
4.535
4.533
4.528
4.515
4.511
4.514
4.514
4.496
4.511
4.513
4.499
4.497
4.502
4.504
4.530
4.519
4.517
4.502
4.499
4.507
4.528
4.520
4.504
4.505
4.502
4.505
4.523
4.534
4.537
4.533
4.528
4.528
4.525
4.528
4.550
4.538
4.539
4.526
4.524
4.517
4.521
4.543
4.558
4.567
4.553
4.559
4.564
4.547
4.539
4.545
4.567
4.572
4.568
4.568
4.567
4.561
4.553
4.549
4.555
4.567
4.556
4.548
4.551
4.544
4.538
4.522
4.530
4.550
4.570
4.566
4.561
4.563
4.560
4.549
4.542
4.532
4.539
4.549
4.568
4.581
4.587
4.578
4.579
4.571
4.553
4.564
4.562
4.559
4.557
4.568
4.586
4.603
4.598
4.592
4.603
4.598
4.586
4.585
4.593
4.580
4.582
4.577
4.584
4.601
4.616
4.603
4.600
4.589
4.580
4.577
4.570
4.575
4.571
4.572
4.572
4.579
4.595
4.611
4.617
4.617
4.614
4.602
4.595
4.596
4.589
4.603
4.608
4.603
4.597
4.591
4.588
4.599
4.615
4.630
4.644
4.640
4.628
4.627
4.625
4.626
4.621
4.616
4.614
4.604
4.619
4.609
4.615
4.604
4.609
4.623
4.637
4.646
4.637
4.628
4.619
4.611
4.602
4.604
4.610
4.597
4.599
4.598
4.591
4.599
4.591
4.593
4.603
4.612
4.605
4.609
4.610
4.591
4.593
4.588
4.582
4.584
4.583
4.576
4.574
4.579
4.582
4.588
4.583
4.578
4.583
4.583
4.594
4.607
4.620
4.627
4.628
4.628
4.620
4.610
4.612
4.600
4.589
4.581
4.578
4.582
4.577
4.566
4.563
4.565
4.561
4.568
4.574
4.571
4.577
4.590
4.602
4.614
4.627
4.639
4.632
4.616
4.617
4.607
4.608
4.608
4.607
4.600
4.600
4.599
4.601
4.602
4.602
4.595
4.583
4.575
4.580
4.580
4.583
4.580
4.578
4.582
4.594
4.605
4.617
4.617
4.618
4.624
4.629
4.636
4.633
4.627
4.629
4.629
4.626
4.614
4.604
4.607
4.599
4.602
4.601
4.605
4.597
4.587
4.582
4.583
4.592
4.593
4.592
4.593
4.583
4.590
4.585
4.596
4.607
4.617
4.628
4.639
4.645
4.637
4.636
4.636
4.632
4.623
4.630
4.624
4.629
4.625
4.624
4.626
4.624
4.630
4.622
4.609
4.609
4.600
4.609
4.609
4.602
4.605
4.615
4.616
4.621
4.611
4.604
4.597
4.597
4.607
4.600
4.609
4.606
4.616
4.626
4.636
4.646
4.656
4.665
4.674
4.665
4.663
4.663
4.665
4.661
4.655
4.652
4.658
4.652
4.648
4.652
4.646
4.643
4.643
4.641
4.636
4.644
4.645
4.639
4.638
4.653
4.646
4.649
4.658
4.653
4.641
4.643
4.639
4.634
4.630
4.627
4.631
4.632
4.634
4.634
4.630
4.636
4.638
4.637
4.647
4.656
4.664
4.669
4.670
4.670
4.670
4.678
4.691
4.688
4.690
4.682
4.674
4.667
4.659
4.656
4.645
4.635
4.631
4.623
4.625
4.624
4.617
4.610
4.607
4.607
4.614
4.625
4.626
4.622
4.618
4.626
4.619
4.619
4.622
4.622
4.619
4.617
4.606
4.607
4.600
4.603
4.607
4.614
4.614
4.604
4.604
4.609
4.617
4.626
4.634
4.642
4.650
4.658
4.667
4.675
4.671
4.670
4.667
4.669
4.658
4.660
4.656
4.658
4.662
4.662
4.660
4.652
4.644
4.650
4.650
4.652
4.660
4.654
4.653
4.652
4.653
4.650
4.645
4.645
4.651
4.652
4.647
4.649
4.651
4.649
4.649
4.648
4.639
4.639
4.643
4.638
4.641
4.643
4.641
4.638
4.634
4.627
4.629
4.624
4.627
4.620
4.621
4.626
4.628
4.638
4.638
4.634
4.638
4.649
4.648
4.638
4.638
4.635
4.643
4.650
4.657
4.665
4.672
4.680
4.687
4.694
4.695
4.696
4.695
4.699
4.702
4.703
4.696
4.688
4.688
4.686
4.686
4.680
4.681
4.671
4.669
4.668
4.657
4.654
4.649
4.650
4.648
4.656
4.647
4.654
4.653
4.650
4.641
4.640
4.634
4.629
4.632
4.642
4.644
4.643
4.636
4.636
4.635
4.626
4.624
4.622
4.619
4.626
4.629
4.628
4.629
4.624
4.628
4.629
4.628
4.625
4.624
4.625
4.613
4.615
4.617
4.613
4.604
4.606
4.611
4.606
4.599
4.591
4.595
4.592
4.599
4.605
4.612
4.618
4.625
4.632
4.638
4.645
4.651
4.658
4.664
4.671
4.678
4.682
4.688
4.687
4.687
4.692
4.687
4.686
4.688
4.685
4.676
4.684
4.694
4.703
4.709
4.703
4.695
4.690
4.690
4.691
4.695
4.691
4.689
4.688
4.690
4.690
4.688
4.685
4.685
4.687
4.682
4.677
4.673
4.669
4.667
4.667
4.671
4.670
4.663
4.660
4.665
4.671
4.671
4.665
4.656
4.661
4.661
4.662
4.654
4.646
4.646
4.639
4.643
4.640
4.630
4.628
4.634
4.634
4.633
4.630
4.624
4.618
4.612
4.612
4.617
4.615
4.617
4.616
4.622
4.623
4.622
4.614
4.613
4.609
4.608
4.606
4.599
4.610
4.613
4.609
4.607
4.610
4.620
4.625
4.629
4.629
4.624
4.624
4.620
4.624
4.624
4.621
4.621
4.626
4.632
4.638
4.644
4.650
4.655
4.661
4.667
4.672
4.678
4.684
4.690
4.695
4.690
4.688
4.683
4.689
4.679
4.680
4.683
4.677
4.676
4.675
4.673
4.680
4.681
4.678
4.676
4.671
4.672
4.664
4.662
4.655
4.649
4.648
4.656
4.665
4.667
4.666
4.663
4.667
4.661
4.668
4.668
4.675
4.671
4.662
4.662
4.669
4.677
4.685
4.685
4.683
4.686
4.694
4.693
4.696
4.696
4.693
4.693
4.685
4.680
4.678
4.682
4.681
4.682
4.675
4.679
4.673
4.671
4.666
4.659
4.656
4.651
4.652
4.650
4.643
4.637
4.632
4.624
4.620
4.621
4.624
4.624
4.625
4.629
4.629
4.629
4.633
4.636
4.634
4.637
4.644
4.647
4.643
4.642
4.641
4.639
4.640
4.640
4.640
4.639
4.641
4.641
4.635
4.629
4.632
4.629
4.626
4.624
4.616
4.615
4.615
4.612
4.614
4.612
4.617
4.616
4.616
4.613
4.613
4.615
4.620
4.620
4.623
4.627
4.632
4.629
4.630
4.637
4.644
4.651
4.653
4.651
4.652
4.649
4.651
4.643
4.644
4.649
4.654
4.659
4.664
4.669
4.674
4.679
4.684
4.689
4.693
4.698
4.703
4.708
4.713
4.718
4.723
4.728
4.733
4.737
4.742
4.737
4.730
4.725
4.725
4.723
4.716
4.712
4.711
4.709
4.711
4.714
4.719
4.717
4.712
4.716
4.716
4.724
4.728
4.729
4.732
4.728
4.720
4.716
4.715
4.715
4.713
4.708
4.702
4.700
4.695
4.689
4.690
4.687
4.685
4.688
4.686
4.682
4.683
