2.994
3.334
3.511
3.637
3.724
3.783
3.841
3.878
3.943
3.944
3.992
4.037
4.008
4.038
4.066
4.093
4.123
4.147
4.170
4.188
4.170
4.123
4.127
4.145
4.156
4.164
4.182
4.186
4.203
4.205
4.223
4.223
4.234
4.248
4.247
4.262
4.274
4.268
4.280
4.292
4.302
4.295
4.305
4.316
4.324
4.336
4.321
4.334
4.338
4.349
4.354
4.366
4.357
4.358
4.362
4.369
4.376
4.382
4.387
4.397
4.400
4.399
4.398
4.401
4.401
4.412
4.416
4.415
4.419
4.429
4.430
4.438
4.444
4.445
4.455
4.432
4.439
4.437
4.439
4.446
4.455
4.460
4.463
4.465
4.466
4.473
4.477
4.478
4.485
4.481
4.493
4.489
4.496
4.503
4.507
4.511
4.510
4.492
4.486
4.487
4.490
4.495
4.497
4.503
4.507
4.505
4.510
4.517
4.508
4.512
4.515
4.522
4.524
4.530
4.532
4.533
4.535
4.538
4.543
4.545
4.537
4.539
4.545
4.541
4.546
4.549
4.557
4.563
4.570
4.571
4.568
4.568
4.571
4.575
4.584
4.575
4.579
4.575
4.578
4.579
4.564
4.552
4.549
4.558
4.557
4.553
4.562
4.566
4.567
4.569
4.571
4.569
4.575
4.574
4.576
4.585
4.579
4.577
4.581
4.571
4.578
4.579
4.575
4.582
4.584
4.586
4.586
4.591
4.586
4.596
4.593
4.602
4.593
4.608
4.606
4.604
4.601
4.604
4.601
4.615
4.612
4.619
4.617
4.621
4.625
4.619
4.612
4.613
4.614
4.612
4.620
4.613
4.617
4.616
4.619
4.627
4.619
4.629
4.622
4.624
4.633
4.631
4.634
4.642
4.636
4.645
4.644
4.643
4.650
4.648
4.644
4.643
4.641
4.645
4.652
4.656
4.647
4.660
4.655
4.653
4.668
4.665
4.656
4.667
4.671
4.668
4.666
4.675
4.664
4.662
4.661
4.662
4.663
4.676
4.671
4.665
4.669
4.668
4.664
4.660
4.666
4.670
4.664
4.670
4.679
4.675
4.672
4.676
4.691
4.689
4.682
4.679
4.690
4.690
4.690
4.689
4.697
4.698
4.693
4.687
4.697
4.700
4.693
4.686
4.679
4.671
4.664
4.668
4.664
4.657
4.649
4.664
4.663
4.664
4.661
4.660
4.671
4.671
4.671
4.673
4.666
4.673
4.669
4.664
4.668
4.668
4.677
4.676
4.680
4.675
4.671
4.676
4.688
4.686
4.688
4.689
4.686
4.689
4.699
4.693
4.691
4.689
4.682
4.676
4.674
4.671
4.674
4.673
4.685
4.676
4.672
4.675
4.672
4.671
4.675
4.678
4.671
4.673
4.675
4.673
4.683
4.673
4.675
4.671
4.668
4.670
4.680
4.686
4.690
4.678
4.683
4.681
4.679
4.687
4.701
4.695
4.688
4.686
4.685
4.690
4.690
4.700
4.697
4.695
4.693
4.686
4.683
4.687
4.699
4.709
4.699
4.700
4.697
4.695
4.694
4.695
4.707
4.706
4.710
4.708
4.704
4.703
4.710
4.708
4.710
4.722
4.719
4.717
4.721
4.722
4.716
4.708
4.707
4.714
4.716
4.712
4.710
4.708
4.710
4.706
4.702
4.712
4.713
4.711
4.708
4.703
4.704
4.703
4.707
4.705
4.715
4.725
4.726
4.723
4.721
4.720
4.719
4.719
4.716
4.717
4.723
4.733
4.740
4.731
4.723
4.720
4.718
4.720
4.715
4.717
4.724
4.734
4.738
4.742
4.737
4.738
4.734
4.733
4.732
4.734
4.735
4.734
4.743
4.753
4.751
4.750
4.748
4.750
4.745
4.741
4.738
4.741
4.742
4.744
4.753
4.753
4.751
4.752
4.748
4.750
4.749
4.753
4.746
4.741
4.735
4.730
4.729
4.733
4.734
4.731
4.729
4.722
4.724
4.725
4.719
4.728
4.737
4.741
4.740
4.742
4.732
4.727
4.721
4.712
4.712
4.709
4.710
4.720
4.729
4.738
4.737
4.738
4.729
4.730
4.727
4.723
4.723
4.730
4.727
4.723
4.718
4.725
4.734
4.739
4.742
4.745
4.743
4.749
4.748
4.744
4.745
4.742
4.735
4.727
4.729
4.733
4.732
4.741
4.745
4.745
4.745
4.742
4.743
4.739
4.742
4.744
4.738
4.731
4.729
4.728
4.726
4.731
4.740
4.742
4.746
4.747
4.745
4.742
4.742
4.739
4.740
4.744
4.742
4.741
4.740
4.738
4.735
4.736
4.740
4.749
4.756
4.763
4.756
4.756
4.756
4.763
4.762
4.758
4.759
4.760
4.760
4.753
4.746
4.745
4.743
4.749
4.748
4.756
4.764
4.772
4.765
4.758
4.760
4.752
4.757
4.753
4.754
4.752
4.756
4.755
4.749
4.747
4.749
4.752
4.748
4.753
4.762
4.769
4.776
4.774
4.778
4.779
4.775
4.772
4.778
4.775
4.773
4.772
4.771
4.769
4.771
4.772
4.776
4.779
4.773
4.766
4.765
4.772
4.779
4.788
4.790
4.790
4.782
4.779
4.781
4.782
4.781
4.783
4.784
4.780
4.776
4.779
4.771
4.766
4.760
4.761
4.768
4.768
4.770
4.774
4.770
4.769
4.771
4.771
4.771
4.769
4.770
4.769
4.764
4.763
4.768
4.771
4.768
4.768
4.771
4.768
4.760
4.756
4.756
4.760
4.765
4.774
4.771
4.771
4.770
4.771
4.771
4.771
4.773
4.769
4.765
4.761
4.765
4.764
4.764
4.761
4.764
4.766
4.764
4.768
4.764
4.766
4.770
4.771
4.765
4.772
4.779
4.785
4.784
4.788
4.784
4.780
4.781
4.779
4.776
4.779
4.782
4.780
4.781
4.772
4.770
4.769
4.770
4.775
4.773
4.774
4.770
4.769
4.768
4.766
4.768
4.774
4.776
4.783
4.790
4.796
4.803
4.805
4.801
4.801
4.803
4.796
4.792
4.788
4.787
4.788
4.786
4.790
4.789
4.788
4.792
4.791
4.790
4.788
4.787
4.786
4.787
4.786
4.790
4.788
4.784
4.785
4.787
4.793
4.800
4.807
4.811
4.818
4.814
4.813
4.814
4.816
4.814
4.819
4.819
4.816
4.811
4.804
4.800
4.799
4.801
4.802
4.801
4.802
4.801
4.802
4.803
4.799
4.798
4.797
4.795
4.799
4.795
4.796
4.797
4.799
4.805
4.807
4.808
4.808
4.803
4.805
4.803
4.805
4.808
4.802
4.797
4.793
4.798
4.797
4.800
4.805
4.803
4.802
4.803
4.804
4.798
4.797
4.793
4.793
4.789
4.790
4.793
4.790
4.786
4.785
4.790
4.791
4.792
4.797
4.805
4.810
4.816
4.821
4.827
4.826
4.823
4.824
4.820
4.818
4.819
4.824
4.825
4.824
4.819
4.813
4.817
4.812
4.812
4.810
4.814
4.815
4.816
4.815
4.817
4.818
4.816
4.816
4.811
4.810
4.812
4.810
4.814
4.812
4.816
4.816
4.816
4.815
4.812
4.815
4.820
4.826
4.830
4.837
4.842
4.848
4.850
4.851
4.844
4.845
4.844
4.849
4.850
4.848
4.849
4.845
4.839
4.834
4.833
4.835
4.833
4.831
4.828
4.829
4.823
4.818
4.822
4.824
4.825
4.824
4.823
4.823
4.820
4.821
4.828
4.834
4.830
4.823
4.820
4.819
4.819
4.819
4.823
4.829
4.833
4.829
4.822
4.823
4.817
4.818
4.816
4.810
4.808
4.808
4.808
4.808
4.811
4.807
4.808
4.812
4.812
4.808
4.806
4.805
4.803
4.799
4.800
4.801
4.806
4.807
4.806
4.804
4.803
4.801
4.800
4.802
4.800
4.799
4.798
4.799
4.800
4.801
4.800
4.799
4.805
4.810
4.808
4.812
4.816
4.823
4.820
4.823
4.819
4.818
4.816
4.812
4.812
4.812
4.811
4.815
4.816
4.813
4.812
4.812
4.811
4.812
4.812
4.810
4.812
4.812
4.808
4.802
4.798
4.796
4.793
4.794
4.800
4.797
4.801
4.799
4.801
4.797
4.798
4.797
4.798
4.793
4.787
4.786
4.789
4.786
4.786
4.788
4.793
4.799
4.805
4.807
4.812
4.818
4.822
4.823
4.822
4.821
4.822
4.819
4.816
4.815
4.814
4.818
4.819
4.819
4.822
4.823
4.825
4.827
4.827
4.829
4.828
4.826
4.822
4.816
4.812
4.812
4.812
4.813
4.814
4.812
4.809
4.805
4.806
4.805
4.803
4.802
4.806
4.808
4.808
4.802
4.798
4.796
4.792
4.788
