2.994
3.332
3.514
3.638
3.723
3.782
3.842
3.875
3.941
3.945
3.990
4.036
4.007
4.039
4.065
4.093
4.125
4.145
4.172
4.186
4.172
4.126
4.130
4.146
4.156
4.164
4.180
4.186
4.204
4.206
4.223
4.225
4.235
4.250
4.248
4.260
4.270
4.269
4.281
4.293
4.301
4.293
4.306
4.315
4.320
4.334
4.322
4.332
4.341
4.346
4.350
4.362
4.361
4.359
4.363
4.368
4.379
4.382
4.391
4.395
4.399
4.405
4.394
4.401
4.402
4.409
4.413
4.416
4.419
4.427
4.435
4.439
4.440
4.447
4.454
4.438
4.442
4.439
4.442
4.447
4.454
4.455
4.464
4.461
4.464
4.469
4.476
4.477
4.487
4.485
4.486
4.486
4.497
4.497
4.509
4.508
4.512
4.496
4.484
4.491
4.487
4.493
4.498
4.501
4.505
4.507
4.512
4.515
4.512
4.515
4.512
4.515
4.519
4.526
4.531
4.537
4.538
4.535
4.545
4.548
4.534
4.540
4.547
4.545
4.545
4.554
4.555
4.564
4.561
4.562
4.561
4.570
4.579
4.573
4.580
4.576
4.574
4.578
4.586
4.582
4.569
4.557
4.555
4.554
4.558
4.562
4.563
4.560
4.572
4.571
4.564
4.573
4.575
4.571
4.580
4.578
4.585
4.584
4.575
4.579
4.580
4.578
4.577
4.578
4.586
4.586
4.590
4.592
4.588
4.598
4.596
4.603
4.599
4.606
4.605
4.609
4.601
4.605
4.602
4.611
4.610
4.612
4.623
4.617
4.626
4.617
4.618
4.606
4.613
4.617
4.623
4.620
4.615
4.617
4.613
4.627
4.627
4.623
4.627
4.620
4.632
4.630
4.629
4.642
4.640
4.639
4.648
4.642
4.642
4.649
4.648
4.647
4.642
4.639
4.651
4.652
4.651
4.655
4.657
4.653
4.657
4.671
4.662
4.660
4.670
4.672
4.664
4.674
4.670
4.660
4.664
4.663
4.662
4.666
4.673
4.672
4.660
4.672
4.665
4.661
4.667
4.668
4.671
4.666
4.675
4.675
4.673
4.674
4.681
4.690
4.686
4.680
4.686
4.693
4.690
4.688
4.689
4.699
4.697
4.690
4.690
4.702
4.697
4.690
4.682
4.677
4.670
4.663
4.670
4.661
4.656
4.653
4.665
4.666
4.662
4.663
4.660
4.675
4.668
4.674
4.670
4.668
4.671
4.668
4.665
4.668
4.670
4.680
4.678
4.679
4.671
4.674
4.681
4.690
4.689
4.690
4.687
4.690
4.692
4.694
4.694
4.691
4.687
4.682
4.678
4.675
4.673
4.674
4.675
4.682
4.678
4.674
4.676
4.672
4.675
4.677
4.678
4.672
4.675
4.672
4.673
4.683
4.673
4.675
4.671
4.666
4.671
4.683
4.689
4.686
4.678
4.686
4.681
4.679
4.690
4.702
4.695
4.690
4.687
4.688
4.689
4.691
4.700
4.697
4.697
4.693
4.686
4.686
4.689
4.701
4.709
4.701
4.700
4.697
4.695
4.696
4.697
4.708
4.708
4.712
4.708
4.705
4.705
4.710
4.709
4.712
4.723
4.719
4.717
4.723
4.723
4.716
4.706
4.707
4.716
4.718
4.714
4.710
4.709
4.710
4.705
4.702
4.712
4.713
4.711
4.710
4.705
4.705
4.705
4.707
4.706
4.715
4.725
4.727
4.723
4.721
4.720
4.721
4.720
4.716
4.717
4.723
4.733
4.740
4.733
4.723
4.720
4.719
4.720
4.716
4.717
4.724
4.734
4.738
4.741
4.737
4.739
4.734
4.734
4.734
4.734
4.735
4.734
4.742
4.752
4.753
4.750
4.748
4.750
4.745
4.741
4.740
4.741
4.743
4.744
4.753
4.753
4.751
4.753
4.749
4.752
4.751
4.753
4.748
4.741
4.737
4.730
4.729
4.734
4.735
4.731
4.729
4.722
4.724
4.723
4.721
4.727
4.735
4.744
4.743
4.742
4.734
4.728
4.721
4.714
4.713
4.712
4.708
4.719
4.727
4.736
4.738
4.738
4.731
4.731
4.729
4.725
4.724
4.727
4.729
4.725
4.718
4.723
4.734
4.741
4.738
4.745
4.745
4.747
4.751
4.744
4.745
4.744
4.737
4.730
4.727
4.734
4.732
4.738
4.746
4.745
4.746
4.744
4.743
4.742
4.742
4.744
4.740
4.733
4.731
4.731
4.729
4.728
4.737
4.745
4.743
4.749
4.748
4.745
4.743
4.739
4.738
4.742
4.745
4.742
4.742
4.741
4.738
4.738
4.738
4.745
4.753
4.763
4.759
4.758
4.757
4.760
4.765
4.760
4.762
4.761
4.762
4.758
4.749
4.745
4.746
4.747
4.745
4.753
4.760
4.769
4.768
4.760
4.759
4.756
4.754
4.755
4.754
4.755
4.756
4.756
4.749
4.749
4.746
4.753
4.751
4.750
4.757
4.764
4.773
4.771
4.779
4.780
4.775
4.777
4.778
4.779
4.775
4.774
4.770
4.771
4.773
4.769
4.775
4.777
4.778
4.771
4.764
4.769
4.776
4.783
4.792
4.791
4.786
4.777
4.778
4.785
4.782
4.785
4.786
4.780
4.776
4.777
4.775
4.769
4.762
4.764
4.764
4.769
4.768
4.772
4.773
4.772
4.770
4.771
4.770
4.772
4.770
4.769
4.768
4.763
4.767
4.771
4.768
4.769
4.768
4.771
4.762
4.760
4.756
4.756
4.760
4.769
4.776
4.774
4.767
4.771
4.773
4.772
4.771
4.771
4.771
4.763
4.764
4.766
4.767
4.763
4.762
4.766
4.764
4.766
4.768
4.766
4.767
4.771
4.768
4.768
4.775
4.782
4.787
4.786
4.784
4.785
4.784
4.779
4.778
4.779
4.779
4.785
4.781
4.779
4.773
4.771
4.773
4.771
4.775
4.774
4.773
4.769
4.770
4.768
4.767
4.769
4.776
4.779
4.786
4.791
4.798
4.805
4.808
4.801
4.803
4.799
4.794
4.793
4.790
4.790
4.787
4.786
4.790
4.791
4.789
4.794
4.794
4.793
4.789
4.788
4.789
4.790
4.789
4.791
4.789
4.786
4.786
4.788
4.794
4.801
4.808
4.813
4.819
4.813
4.812
4.813
4.819
4.816
4.820
4.818
4.814
4.810
4.803
4.802
4.800
4.804
4.801
4.802
4.801
4.802
4.803
4.802
4.798
4.801
4.798
4.797
4.800
4.796
4.797
4.797
4.800
4.805
4.808
4.808
4.809
4.805
4.806
4.805
4.806
4.807
4.801
4.796
4.794
4.801
4.798
4.799
4.806
4.804
4.803
4.802
4.803
4.799
4.798
4.793
4.792
4.788
4.790
4.793
4.790
4.786
4.784
4.791
4.790
4.793
4.798
4.804
4.811
4.815
4.822
4.827
4.827
4.823
4.825
4.821
4.817
4.819
4.823
4.827
4.825
4.819
4.814
4.818
4.812
4.813
4.811
4.815
4.814
4.816
4.814
4.818
4.817
4.816
4.816
4.812
4.811
4.813
4.811
4.815
4.812
4.815
4.817
4.816
4.814
4.813
4.814
4.819
4.825
4.831
4.836
4.842
4.847
4.849
4.852
4.846
4.847
4.846
4.849
4.853
4.849
4.849
4.845
4.840
4.834
4.832
4.834
4.834
4.831
4.831
4.830
4.824
4.819
4.823
4.827
4.824
4.825
4.824
4.822
4.821
4.820
4.827
4.833
4.831
4.823
4.819
4.820
4.819
4.819
4.823
4.828
4.832
4.830
4.823
4.822
4.819
4.819
4.815
4.812
4.807
4.809
4.810
4.806
4.812
4.809
4.807
4.811
4.813
4.809
4.807
4.806
4.804
4.800
4.801
4.800
4.805
4.806
4.808
4.806
4.804
4.801
4.799
4.803
4.799
4.800
4.797
4.798
4.801
4.801
4.801
4.800
4.802
4.808
4.810
4.809
4.815
4.822
4.821
4.820
4.819
4.819
4.816
4.812
4.812
4.812
4.810
4.812
4.816
4.814
4.815
4.812
4.810
4.812
4.813
4.812
4.813
4.812
4.808
4.805
4.799
4.798
4.794
4.794
4.797
4.797
4.801
4.800
4.801
4.797
4.801
4.798
4.799
4.795
4.790
4.786
4.788
4.789
4.786
4.787
4.791
4.797
4.802
4.806
4.810
4.816
4.821
4.825
4.823
4.823
4.819
4.822
4.818
4.816
4.818
4.816
4.819
4.820
4.821
4.820
4.824
4.830
4.826
4.828
4.831
4.828
4.824
4.819
4.815
4.811
4.813
4.812
4.812
4.814
4.812
4.806
4.808
4.808
4.804
4.801
4.804
4.811
4.808
4.805
4.801
4.798
