2.990
3.328
3.498
3.613
3.715
3.794
3.824
3.895
3.879
3.928
3.981
4.017
4.055
4.000
3.983
4.003
4.022
4.042
4.065
4.079
4.088
4.111
4.117
4.138
4.152
4.153
4.175
4.186
4.180
4.199
4.217
4.217
4.215
4.236
4.241
4.249
4.270
4.256
4.264
4.278
4.276
4.288
4.298
4.310
4.319
4.292
4.303
4.313
4.324
4.326
4.333
4.344
4.348
4.352
4.361
4.367
4.377
4.378
4.346
4.354
4.370
4.368
4.382
4.373
4.382
4.390
4.393
4.396
4.405
4.412
4.409
4.406
4.421
4.425
4.427
4.432
4.435
4.445
4.452
4.445
4.443
4.450
4.458
4.436
4.430
4.436
4.441
4.441
4.448
4.452
4.454
4.454
4.449
4.447
4.449
4.447
4.452
4.464
4.470
4.472
4.478
4.464
4.476
4.486
4.484
4.489
4.502
4.490
4.488
4.491
4.491
4.481
4.492
4.498
4.489
4.501
4.500
4.514
4.512
4.521
4.524
4.523
4.527
4.522
4.528
4.521
4.542
4.536
4.548
4.537
4.550
4.544
4.548
4.543
4.551
4.548
4.545
4.532
4.546
4.542
4.538
4.564
4.557
4.560
4.564
4.557
4.579
4.565
4.564
4.583
4.575
4.577
4.584
4.577
4.580
4.567
4.555
4.543
4.541
4.547
4.542
4.543
4.552
4.546
4.542
4.555
4.554
4.552
4.564
4.570
4.572
4.557
4.576
4.578
4.577
4.562
4.558
4.545
4.557
4.563
4.546
4.541
4.561
4.555
4.542
4.544
4.563
4.557
4.555
4.558
4.567
4.567
4.568
4.567
4.563
4.580
4.572
4.564
4.570
4.577
4.574
4.575
4.571
4.569
4.586
4.593
4.589
4.589
4.586
4.590
4.604
4.606
4.598
4.591
4.589
4.590
4.594
4.589
4.582
4.582
4.596
4.596
4.593
4.589
4.591
4.591
4.612
4.611
4.609
4.600
4.600
4.594
4.614
4.609
4.616
4.610
4.606
4.610
4.610
4.629
4.633
4.625
4.627
4.621
4.615
4.622
4.638
4.635
4.628
4.634
4.635
4.630
4.624
4.639
4.645
4.639
4.628
4.618
4.607
4.616
4.626
4.622
4.614
4.618
4.615
4.605
4.604
4.612
4.616
4.611
4.606
4.601
4.605
4.603
4.601
4.618
4.632
4.632
4.629
4.632
4.621
4.608
4.606
4.614
4.622
4.638
4.632
4.637
4.628
4.620
4.608
4.600
4.603
4.618
4.633
4.637
4.635
4.631
4.624
4.621
4.621
4.622
4.625
4.623
4.635
4.650
4.651
4.644
4.645
4.634
4.635
4.639
4.632
4.631
4.631
4.641
4.655
4.654
4.648
4.646
4.641
4.647
4.644
4.640
4.647
4.635
4.638
4.650
4.664
4.669
4.677
4.667
4.661
4.665
4.664
4.658
4.659
4.651
4.648
4.651
4.661
4.674
4.676
4.664
4.665
4.671
4.670
4.666
4.656
4.646
4.636
4.641
4.645
4.658
4.667
4.673
4.664
4.656
4.649
4.642
4.644
4.643
4.633
4.635
4.639
4.641
4.642
4.655
4.667
4.675
4.674
4.678
4.674
4.666
4.655
4.653
4.651
4.647
4.649
4.656
4.656
4.644
4.650
4.662
4.674
4.686
4.694
4.685
4.684
4.686
4.677
4.672
4.670
4.670
4.667
4.666
4.666
4.658
4.664
4.664
4.670
4.676
4.687
4.699
4.704
4.699
4.700
4.700
4.693
4.695
4.697
4.691
4.696
4.693
4.691
4.687
4.688
4.691
4.681
4.674
4.683
4.694
4.705
4.704
4.707
4.697
4.698
4.686
4.683
4.683
4.682
4.682
4.677
4.673
4.671
4.676
4.677
4.679
4.674
4.675
4.681
4.691
4.702
4.709
4.710
4.705
4.704
4.710
4.706
4.704
4.709
4.705
4.700
4.701
4.700
4.700
4.701
4.699
4.698
4.697
4.693
4.696
4.695
4.696
4.700
4.710
4.720
4.730
4.740
4.749
4.743
4.738
4.731
4.730
4.726
4.717
4.719
4.714
4.718
4.726
4.721
4.722
4.717
4.709
4.707
4.712
4.711
4.707
4.709
4.710
4.713
4.723
4.732
4.730
4.725
4.719
4.714
4.708
4.703
4.697
4.702
4.692
4.689
4.692
4.689
4.694
4.693
4.685
4.683
4.696
4.691
4.694
4.695
4.695
4.692
4.691
4.700
4.709
4.711
4.710
4.713
4.711
4.705
4.702
4.701
4.699
4.688
4.698
4.702
4.701
4.696
4.691
4.694
4.685
4.684
4.678
4.678
4.677
4.671
4.668
4.672
4.671
4.667
4.670
4.678
4.687
4.695
4.704
4.712
4.721
4.729
4.729
4.723
4.720
4.714
4.711
4.706
4.704
4.708
4.713
4.712
4.713
4.706
4.707
4.703
4.701
4.700
4.692
4.687
4.682
4.676
4.675
4.672
4.679
4.674
4.666
4.664
4.669
4.676
4.685
4.693
4.701
4.709
4.708
4.705
4.708
4.702
4.703
4.699
4.708
4.716
4.710
4.705
4.713
4.708
4.709
4.714
4.707
4.715
4.719
4.712
4.707
4.707
4.704
4.697
4.696
4.689
4.692
4.690
4.689
4.689
4.689
4.688
4.690
4.691
4.692
4.684
4.684
4.686
4.694
4.701
4.708
4.716
4.719
4.720
4.719
4.712
4.718
4.712
4.712
4.712
4.718
4.720
4.713
4.710
4.704
4.698
4.700
4.703
4.706
4.704
4.705
4.707
4.709
4.701
4.693
4.692
4.698
4.700
4.697
4.693
4.696
4.702
4.701
4.704
4.702
4.700
4.693
4.690
4.691
4.692
4.683
4.683
4.690
4.697
4.704
4.711
4.718
4.724
4.731
4.724
4.725
4.727
4.729
4.728
4.729
4.724
4.733
4.728
4.729
4.723
4.723
4.725
4.722
4.716
4.712
4.712
4.715
4.712
4.710
4.710
4.711
4.710
4.704
4.702
4.704
4.703
4.709
4.708
4.709
4.718
4.720
4.718
4.714
4.710
4.703
4.704
4.706
4.707
4.700
4.700
4.692
4.684
4.682
4.689
4.695
4.702
4.708
4.715
4.721
4.728
4.734
4.741
4.748
4.743
4.736
4.734
4.731
4.741
4.747
4.747
4.743
4.743
4.746
4.746
4.752
4.750
4.746
4.744
4.739
4.736
4.739
4.733
4.731
4.733
4.732
4.731
4.726
4.734
4.729
4.730
4.725
4.713
4.714
4.718
4.717
4.725
4.720
4.720
4.725
4.723
4.726
4.730
4.732
4.723
4.718
4.713
4.714
4.717
4.725
4.720
4.721
4.720
4.717
4.717
4.720
4.720
4.716
4.718
4.720
4.726
4.732
4.738
4.744
4.750
4.756
4.762
4.768
4.774
4.773
4.775
4.784
4.782
4.784
4.780
4.778
4.780
4.770
4.767
4.768
4.771
4.771
4.771
4.769
4.769
4.761
4.759
4.759
4.756
4.759
4.759
4.763
4.760
4.753
4.755
4.755
4.754
4.752
4.753
4.758
4.755
4.758
4.764
4.760
4.754
4.747
4.742
4.741
4.748
4.742
4.732
4.724
4.727
4.725
4.728
4.732
4.728
4.729
4.730
4.730
4.729
4.731
4.731
4.726
4.721
4.717
4.712
4.707
4.709
4.714
4.719
4.725
4.730
4.736
4.742
4.747
4.748
4.755
4.754
4.758
4.766
4.767
4.769
4.771
4.765
4.761
4.759
4.754
4.752
4.751
4.754
4.753
4.758
4.754
4.752
4.745
4.740
4.743
4.739
4.739
4.739
4.739
4.735
4.729
4.728
4.729
4.727
4.725
4.725
4.729
4.726
4.732
4.729
4.729
4.730
4.728
4.729
4.724
4.724
4.720
4.721
4.721
4.722
4.727
4.721
4.722
4.729
4.735
4.736
4.731
4.727
4.726
4.728
4.727
4.727
4.725
4.729
4.730
4.722
4.719
4.716
4.713
4.710
4.707
4.707
4.706
4.701
4.705
4.705
4.707
4.705
4.709
4.713
4.710
4.713
4.718
4.723
4.728
4.733
4.738
4.743
4.748
4.753
4.758
4.763
4.768
4.773
4.778
4.780
4.779
4.773
4.776
4.782
4.783
4.783
4.777
4.769
4.774
4.772
4.767
4.768
4.768
4.770
4.762
4.761
4.753
4.757
4.760
4.765
4.772
4.776
4.777
4.780
4.778
4.782
4.779
4.771
4.771
4.768
4.762
4.762
4.768
4.770
4.762
4.764
4.765
4.763
4.762
4.769
4.773
4.773
4.770
4.768
4.770
4.770
4.772
4.774
4.772
4.771
4.771
