2.992
3.334
3.505
3.616
3.701
3.761
3.841
3.873
3.938
3.914
3.961
3.999
4.033
4.070
4.104
4.068
4.027
4.046
4.061
4.078
4.099
4.109
4.121
4.141
4.145
4.163
4.175
4.182
4.195
4.191
4.209
4.224
4.236
4.231
4.241
4.254
4.271
4.275
4.271
4.275
4.286
4.297
4.307
4.314
4.299
4.311
4.320
4.327
4.329
4.339
4.348
4.347
4.361
4.363
4.348
4.350
4.361
4.364
4.372
4.371
4.387
4.386
4.395
4.398
4.395
4.409
4.414
4.420
4.430
4.410
4.398
4.405
4.412
4.420
4.417
4.431
4.425
4.426
4.428
4.435
4.449
4.443
4.455
4.457
4.458
4.461
4.453
4.462
4.472
4.483
4.479
4.479
4.491
4.486
4.494
4.492
4.501
4.498
4.504
4.495
4.477
4.472
4.472
4.479
4.485
4.484
4.485
4.495
4.499
4.497
4.505
4.483
4.494
4.495
4.502
4.494
4.505
4.508
4.509
4.512
4.523
4.519
4.520
4.517
4.524
4.527
4.535
4.535
4.542
4.539
4.542
4.535
4.532
4.539
4.542
4.533
4.549
4.538
4.540
4.539
4.549
4.550
4.564
4.558
4.568
4.560
4.573
4.564
4.570
4.564
4.570
4.575
4.568
4.585
4.583
4.586
4.589
4.585
4.597
4.591
4.589
4.580
4.590
4.588
4.587
4.586
4.586
4.591
4.586
4.582
4.597
4.598
4.597
4.609
4.608
4.602
4.614
4.615
4.616
4.616
4.622
4.618
4.619
4.626
4.623
4.621
4.616
4.605
4.597
4.586
4.581
4.594
4.587
4.583
4.594
4.601
4.584
4.583
4.600
4.598
4.594
4.591
4.606
4.601
4.601
4.604
4.617
4.616
4.605
4.612
4.617
4.616
4.605
4.596
4.608
4.596
4.592
4.591
4.600
4.596
4.595
4.588
4.601
4.596
4.590
4.591
4.592
4.609
4.605
4.602
4.611
4.605
4.612
4.612
4.617
4.613
4.614
4.615
4.622
4.618
4.609
4.605
4.611
4.627
4.620
4.623
4.620
4.612
4.620
4.637
4.636
4.640
4.633
4.632
4.630
4.642
4.647
4.648
4.639
4.631
4.627
4.642
4.636
4.634
4.631
4.632
4.628
4.637
4.638
4.640
4.638
4.632
4.638
4.631
4.644
4.654
4.652
4.653
4.649
4.643
4.641
4.645
4.655
4.659
4.657
4.649
4.653
4.649
4.647
4.657
4.671
4.678
4.679
4.670
4.668
4.665
4.660
4.664
4.677
4.687
4.679
4.673
4.666
4.665
4.663
4.668
4.677
4.683
4.683
4.681
4.672
4.662
4.655
4.651
4.658
4.659
4.661
4.662
4.660
4.654
4.647
4.651
4.650
4.657
4.655
4.651
4.653
4.648
4.644
4.643
4.641
4.645
4.657
4.668
4.666
4.667
4.664
4.664
4.663
4.665
4.663
4.656
4.657
4.668
4.671
4.665
4.668
4.667
4.663
4.664
4.663
4.668
4.660
4.659
4.669
4.664
4.668
4.662
4.658
4.665
4.668
4.668
4.663
4.657
4.657
4.665
4.677
4.684
4.688
4.686
4.686
4.678
4.683
4.679
4.683
4.678
4.672
4.668
4.674
4.684
4.698
4.697
4.686
4.681
4.674
4.681
4.675
4.675
4.674
4.672
4.675
4.675
4.685
4.695
4.702
4.701
4.702
4.701
4.699
4.701
4.704
4.703
4.704
4.701
4.694
4.694
4.690
4.694
4.705
4.716
4.715
4.711
4.709
4.709
4.709
4.706
4.705
4.708
4.702
4.694
4.693
4.697
4.694
4.701
4.699
4.700
4.693
4.701
4.704
4.701
4.702
4.698
4.693
4.686
4.683
4.687
4.688
4.679
4.688
4.697
4.707
4.701
4.696
4.694
4.702
4.697
4.696
4.697
4.701
4.698
4.698
4.697
4.696
4.695
4.699
4.695
4.694
4.700
4.710
4.712
4.716
4.711
4.707
4.711
4.710
4.708
4.702
4.697
4.699
4.701
4.704
4.714
4.715
4.711
4.707
4.708
4.704
4.711
4.718
4.728
4.727
4.723
4.729
4.723
4.726
4.727
4.727
4.728
4.724
4.725
4.727
4.723
4.724
4.728
4.726
4.723
4.718
4.719
4.715
4.720
4.731
4.738
4.748
4.749
4.743
4.744
4.742
4.744
4.742
4.741
4.731
4.733
4.732
4.736
4.735
4.725
4.727
4.722
4.721
4.723
4.715
4.712
4.723
4.730
4.735
4.744
4.745
4.741
4.742
4.735
4.734
4.733
4.732
4.730
4.732
4.730
4.731
4.725
4.724
4.723
4.731
4.730
4.729
4.722
4.721
4.720
4.716
4.722
4.731
4.739
4.746
4.755
4.764
4.755
4.756
4.752
4.754
4.755
4.756
4.760
4.759
4.758
4.759
4.760
4.759
4.755
4.754
4.753
4.751
4.744
4.745
4.744
4.751
4.750
4.748
4.755
4.756
4.758
4.751
4.758
4.765
4.774
4.773
4.777
4.783
4.774
4.773
4.769
4.764
4.768
4.764
4.764
4.762
4.769
4.767
4.769
4.770
4.766
4.768
4.764
4.761
4.755
4.751
4.747
4.742
4.738
4.732
4.736
4.745
4.752
4.753
4.755
4.751
4.752
4.756
4.753
4.751
4.752
4.751
4.746
4.748
4.750
4.746
4.746
4.745
4.747
4.742
4.736
4.731
4.725
4.721
4.716
4.716
4.719
4.720
4.719
4.716
4.716
4.716
4.723
4.732
4.739
4.745
4.752
4.753
4.753
4.748
4.746
4.738
4.738
4.742
4.736
4.731
4.735
4.742
4.744
4.743
4.738
4.732
4.730
4.727
4.728
4.727
4.725
4.729
4.727
4.724
4.723
4.716
4.720
4.723
4.730
4.727
4.720
4.718
4.723
4.729
4.736
4.734
4.739
4.745
4.752
4.759
4.766
4.767
4.761
4.762
4.755
4.751
4.744
4.740
4.742
4.746
4.746
4.740
4.733
4.729
4.723
4.727
4.723
4.723
4.727
4.726
4.725
4.726
4.722
4.721
4.717
4.724
4.719
4.723
4.719
4.718
4.717
4.713
4.717
4.715
4.709
4.715
4.722
4.729
4.735
4.740
4.747
4.753
4.760
4.759
4.760
4.759
4.760
4.757
4.758
4.764
4.768
4.768
4.764
4.765
4.758
4.759
4.758
4.761
4.760
4.754
4.746
4.740
4.738
4.737
4.735
4.734
4.735
4.732
4.733
4.732
4.728
4.723
4.728
4.726
4.722
4.721
4.722
4.721
4.725
4.721
4.723
4.721
4.719
4.721
4.722
4.727
4.733
4.738
4.744
4.751
4.757
4.762
4.760
4.761
4.758
4.759
4.757
4.749
4.755
4.754
4.761
4.757
4.755
4.753
4.747
4.748
4.746
4.745
4.747
4.753
4.758
4.757
4.763
4.762
4.763
4.756
4.752
4.749
4.749
4.746
4.747
4.742
4.742
4.743
4.742
4.748
4.744
4.745
4.746
4.742
4.738
4.735
4.728
4.724
4.717
4.715
4.717
4.713
4.716
4.721
4.727
4.732
4.738
4.743
4.750
4.754
4.760
4.765
4.771
4.776
4.782
4.783
4.779
4.781
4.777
4.775
4.779
4.776
4.769
4.765
4.764
4.767
4.771
4.767
4.764
4.757
4.760
4.761
4.763
4.761
4.763
4.764
4.764
4.761
4.758
4.759
4.760
4.761
4.753
4.751
4.749
4.751
4.755
4.751
4.749
4.746
4.746
4.742
4.738
4.740
4.738
4.742
4.744
4.748
4.747
4.749
4.753
4.753
4.749
4.748
4.746
4.740
4.735
4.734
4.730
4.734
4.739
4.745
4.750
4.756
4.761
4.765
4.771
4.775
4.780
4.786
4.791
4.789
4.783
4.786
4.790
4.783
4.780
4.783
4.786
4.787
4.786
4.786
4.791
4.787
4.786
4.784
4.793
4.789
4.788
4.779
4.780
4.778
4.774
4.770
4.771
4.772
4.774
4.778
4.774
4.776
4.775
4.772
4.769
4.772
4.771
4.768
4.772
4.776
4.779
4.775
4.775
4.775
4.771
4.770
4.771
4.770
4.764
4.765
4.768
4.764
4.766
4.768
4.764
4.761
4.764
4.770
4.769
4.772
4.766
4.761
4.760
4.764
4.763
4.764
4.771
4.767
4.766
4.770
4.764
4.762
4.768
4.772
4.777
4.783
4.786
4.792
4.796
4.800
4.805
4.809
4.815
4.820
4.824
4.822
4.824
4.822
4.821
4.823
4.823
4.820
4.815
4.812
4.812
4.809
4.805
4.801
4.799
4.795
4.794
4.790
4.791
