2.976
3.326
3.495
3.590
3.635
3.751
3.834
3.776
3.773
3.836
3.859
3.886
3.925
3.954
3.968
3.998
4.002
4.032
4.049
4.059
4.086
4.101
4.092
4.110
4.120
4.143
4.161
4.169
4.174
4.152
4.170
4.180
4.183
4.212
4.209
4.222
4.229
4.250
4.247
4.255
4.273
4.233
4.250
4.249
4.241
4.259
4.259
4.272
4.271
4.284
4.286
4.300
4.296
4.286
4.300
4.309
4.321
4.325
4.323
4.342
4.347
4.354
4.362
4.356
4.343
4.337
4.365
4.370
4.374
4.382
4.395
4.381
4.391
4.408
4.408
4.400
4.374
4.365
4.369
4.381
4.374
4.392
4.394
4.384
4.356
4.360
4.351
4.364
4.369
4.391
4.374
4.379
4.384
4.373
4.397
4.393
4.387
4.414
4.418
4.406
4.408
4.397
4.414
4.411
4.398
4.417
4.420
4.414
4.414
4.436
4.436
4.437
4.442
4.445
4.443
4.445
4.461
4.457
4.442
4.435
4.471
4.458
4.436
4.437
4.430
4.421
4.402
4.430
4.444
4.438
4.431
4.421
4.447
4.451
4.449
4.423
4.429
4.452
4.448
4.461
4.454
4.448
4.447
4.477
4.464
4.454
4.450
4.444
4.458
4.482
4.492
4.484
4.479
4.476
4.462
4.486
4.496
4.493
4.496
4.495
4.473
4.476
4.496
4.478
4.474
4.474
4.452
4.443
4.466
4.492
4.494
4.490
4.482
4.468
4.467
4.459
4.471
4.496
4.514
4.497
4.503
4.503
4.495
4.491
4.491
4.495
4.506
4.530
4.534
4.529
4.537
4.516
4.522
4.499
4.498
4.499
4.519
4.526
4.523
4.521
4.506
4.516
4.492
4.503
4.506
4.505
4.508
4.530
4.548
4.557
4.549
4.543
4.539
4.547
4.554
4.542
4.529
4.540
4.538
4.536
4.557
4.572
4.572
4.564
4.566
4.551
4.548
4.553
4.549
4.542
4.537
4.540
4.535
4.554
4.551
4.556
4.570
4.550
4.553
4.548
4.534
4.519
4.505
4.501
4.495
4.504
4.522
4.540
4.537
4.533
4.533
4.530
4.533
4.539
4.536
4.534
4.527
4.530
4.519
4.517
4.504
4.502
4.515
4.528
4.545
4.546
4.544
4.530
4.524
4.512
4.518
4.530
4.529
4.524
4.536
4.528
4.522
4.518
4.502
4.510
4.508
4.512
4.528
4.544
4.546
4.544
4.546
4.546
4.541
4.535
4.538
4.527
4.524
4.514
4.514
4.515
4.520
4.519
4.520
4.530
4.525
4.511
4.510
4.514
4.529
4.544
4.559
4.565
4.566
4.557
4.544
4.541
4.542
4.544
4.553
4.557
4.560
4.559
4.551
4.538
4.528
4.528
4.533
4.516
4.526
4.526
4.516
4.515
4.515
4.521
4.534
4.548
4.562
4.575
4.584
4.581
4.576
4.581
4.590
4.582
4.580
4.562
4.554
4.551
4.562
4.560
4.561
4.549
4.561
4.571
4.563
4.555
4.553
4.563
4.559
4.562
4.562
4.555
4.541
4.534
4.541
4.545
4.556
4.568
4.581
4.593
4.606
4.618
4.627
4.610
4.607
4.624
4.621
4.610
4.608
4.608
4.598
4.600
4.586
4.585
4.579
4.579
4.580
4.571
4.568
4.564
4.580
4.573
4.559
4.555
4.557
4.547
4.536
4.534
4.527
4.524
4.532
4.538
4.550
4.561
4.572
4.584
4.586
4.592
4.593
4.600
4.588
4.591
4.579
4.578
4.576
4.569
4.576
4.576
4.574
4.577
4.577
4.576
4.568
4.561
4.566
4.570
4.564
4.561
4.563
4.572
4.565
4.563
4.560
4.557
4.558
4.548
4.552
4.543
4.545
4.537
4.543
4.541
4.533
4.535
4.534
4.549
4.563
4.560
4.564
4.574
4.585
4.595
4.605
4.615
4.626
4.636
4.644
4.646
4.641
4.646
4.644
4.649
4.649
4.640
4.634
4.630
4.632
4.627
4.625
4.638
4.631
4.623
4.616
4.609
4.601
4.594
4.589
4.585
4.590
4.581
4.582
4.571
4.574
4.571
4.567
4.559
4.560
4.561
4.564
4.552
4.549
4.545
4.542
4.541
4.537
4.533
4.524
4.518
4.523
4.520
4.529
4.538
4.547
4.556
4.565
4.574
4.583
4.592
4.601
4.602
4.592
4.591
4.593
4.598
4.603
4.601
4.593
4.597
4.606
4.606
4.605
4.608
4.607
4.597
4.592
4.590
4.601
4.589
4.590
4.587
4.586
4.586
4.583
4.584
4.577
4.580
4.587
4.591
4.602
4.602
4.595
4.601
4.609
4.608
4.599
4.599
4.594
4.589
4.581
4.580
4.570
4.567
4.564
4.556
4.550
4.557
4.553
4.557
4.568
4.569
4.560
4.559
4.555
4.562
4.558
4.558
4.554
4.553
4.557
4.556
4.548
4.540
4.541
4.543
4.550
4.558
4.566
4.574
4.582
4.590
4.597
4.606
4.613
4.621
4.630
4.637
4.644
4.649
4.640
4.639
4.640
4.636
4.635
4.627
4.620
4.614
4.605
4.608
4.604
4.595
4.587
4.585
4.574
4.579
4.585
4.583
4.585
4.574
4.572
4.571
4.582
4.593
4.603
4.590
4.594
4.601
4.604
4.598
4.591
4.590
4.595
4.590
4.590
4.599
4.590
4.590
4.593
4.599
4.604
4.599
4.595
4.596
4.595
4.593
4.590
4.583
4.577
4.573
4.565
4.569
4.568
4.574
4.569
4.566
4.559
4.565
4.568
4.560
4.559
4.557
4.552
4.543
4.534
4.536
4.531
4.529
4.527
4.539
4.551
4.551
4.547
4.545
4.546
4.558
4.558
4.557
4.546
4.553
4.552
4.562
4.567
4.560
4.567
4.573
4.580
4.587
4.594
4.601
4.608
4.614
4.621
4.628
4.635
4.642
4.648
4.655
4.662
4.658
4.658
4.652
4.657
4.650
4.654
4.653
4.647
4.645
4.640
4.637
4.638
4.642
4.648
4.643
4.651
4.654
4.655
4.661
4.653
4.643
4.637
4.631
4.619
4.620
4.620
4.614
4.612
4.607
4.610
4.608
4.614
4.617
4.628
4.635
4.635
4.627
4.622
4.611
4.607
4.599
4.604
4.593
4.594
4.596
4.599
4.598
4.596
4.608
4.610
4.613
4.615
4.614
4.608
4.616
4.613
4.606
4.613
4.619
4.621
4.619
4.607
4.612
4.621
4.629
4.629
4.624
4.616
4.610
4.603
4.595
4.595
4.598
4.605
4.607
4.596
4.590
4.590
4.587
4.589
4.593
4.589
4.583
4.580
4.582
4.578
4.575
4.574
4.573
4.574
4.574
4.574
4.566
4.573
4.568
4.562
4.557
4.552
4.550
4.551
4.557
4.568
4.562
4.555
4.554
4.558
4.558
4.562
4.559
4.552
4.539
4.537
4.537
4.535
4.537
4.543
4.548
4.554
4.560
4.565
4.571
4.577
4.582
4.588
4.594
4.599
4.605
4.611
4.616
4.622
4.627
4.633
4.635
4.644
4.647
4.638
4.638
4.637
4.646
4.642
4.630
4.627
4.626
4.618
4.610
4.603
4.607
4.614
4.611
4.606
4.607
4.616
4.615
4.613
4.614
4.607
4.615
4.622
4.628
4.629
4.629
4.629
4.630
4.631
4.636
4.632
4.630
4.625
4.614
4.619
4.622
4.616
4.621
4.631
4.626
4.623
4.617
4.626
4.634
4.635
4.626
4.617
4.617
4.616
4.613
4.619
4.611
4.614
4.615
4.616
4.612
4.613
4.616
4.610
4.609
4.602
4.604
4.596
4.602
4.597
4.598
4.599
4.604
4.597
4.600
4.596
4.587
4.592
4.586
4.595
4.590
4.594
4.593
4.591
4.591
4.585
4.588
4.579
4.577
4.578
4.570
4.570
4.581
4.577
4.584
4.577
4.580
4.583
4.575
4.573
4.578
4.578
4.582
4.581
4.589
4.583
4.576
4.570
4.564
4.565
4.572
4.569
4.564
4.568
4.570
4.573
4.579
4.581
4.582
4.576
4.573
4.572
4.578
4.572
4.569
4.576
4.576
4.574
4.574
4.572
4.576
4.576
4.572
4.574
4.567
4.562
4.568
4.577
4.575
4.581
4.586
4.586
4.584
4.590
4.597
4.599
4.597
4.594
4.590
4.589
4.583
4.577
4.571
4.574
4.566
4.561
4.556
4.558
4.562
4.562
4.553
4.551
4.550
4.550
4.549
4.553
4.562
4.559
4.556
4.552
4.559
4.553
4.556
4.559
4.565
4.557
4.549
4.543
4.543
4.533
4.535
4.536
4.538
4.542
4.545
4.541
4.546
