2.994
3.334
3.512
3.636
3.720
3.795
3.835
3.880
3.939
3.960
4.011
4.004
4.046
4.080
4.096
4.077
4.103
4.125
4.147
4.166
4.186
4.207
4.222
4.237
4.257
4.225
4.188
4.192
4.200
4.215
4.219
4.232
4.240
4.250
4.255
4.266
4.265
4.277
4.288
4.288
4.295
4.306
4.312
4.313
4.325
4.333
4.337
4.333
4.344
4.351
4.356
4.365
4.356
4.366
4.373
4.382
4.383
4.393
4.384
4.390
4.397
4.401
4.408
4.410
4.419
4.428
4.422
4.417
4.425
4.428
4.432
4.439
4.444
4.445
4.451
4.458
4.462
4.464
4.454
4.453
4.458
4.459
4.465
4.467
4.477
4.477
4.476
4.483
4.487
4.494
4.495
4.500
4.503
4.502
4.509
4.502
4.495
4.495
4.503
4.503
4.503
4.510
4.510
4.516
4.517
4.522
4.520
4.524
4.528
4.525
4.537
4.538
4.539
4.543
4.545
4.543
4.550
4.544
4.551
4.560
4.559
4.562
4.567
4.558
4.545
4.546
4.547
4.549
4.548
4.549
4.551
4.557
4.561
4.565
4.570
4.566
4.569
4.576
4.570
4.569
4.572
4.576
4.573
4.581
4.583
4.584
4.589
4.590
4.591
4.587
4.594
4.596
4.603
4.606
4.597
4.598
4.597
4.606
4.603
4.607
4.605
4.609
4.613
4.617
4.618
4.620
4.625
4.623
4.621
4.631
4.632
4.632
4.632
4.636
4.627
4.632
4.638
4.637
4.629
4.618
4.608
4.606
4.603
4.609
4.608
4.614
4.618
4.623
4.618
4.615
4.629
4.623
4.632
4.621
4.627
4.626
4.625
4.631
4.633
4.634
4.636
4.637
4.633
4.634
4.635
4.637
4.633
4.637
4.632
4.637
4.635
4.636
4.641
4.639
4.646
4.644
4.651
4.645
4.647
4.655
4.652
4.661
4.660
4.656
4.665
4.659
4.665
4.659
4.662
4.661
4.658
4.670
4.669
4.666
4.677
4.673
4.671
4.680
4.677
4.673
4.662
4.664
4.671
4.669
4.668
4.678
4.677
4.670
4.673
4.669
4.673
4.680
4.676
4.675
4.682
4.678
4.677
4.681
4.681
4.681
4.690
4.691
4.690
4.689
4.701
4.699
4.696
4.702
4.699
4.699
4.696
4.708
4.698
4.694
4.703
4.699
4.699
4.702
4.712
4.708
4.706
4.705
4.718
4.711
4.712
4.710
4.725
4.719
4.715
4.714
4.728
4.724
4.728
4.718
4.717
4.706
4.710
4.714
4.715
4.718
4.717
4.718
4.726
4.729
4.720
4.713
4.723
4.724
4.718
4.716
4.718
4.722
4.721
4.719
4.721
4.727
4.731
4.729
4.729
4.725
4.731
4.743
4.742
4.740
4.734
4.735
4.747
4.744
4.740
4.740
4.739
4.749
4.750
4.746
4.747
4.746
4.740
4.733
4.728
4.724
4.718
4.714
4.717
4.714
4.714
4.721
4.720
4.718
4.710
4.706
4.715
4.713
4.715
4.714
4.710
4.716
4.723
4.724
4.725
4.721
4.720
4.714
4.725
4.736
4.728
4.721
4.717
4.714
4.725
4.729
4.729
4.735
4.728
4.725
4.723
4.733
4.736
4.733
4.732
4.736
4.731
4.730
4.739
4.749
4.750
4.747
4.745
4.747
4.739
4.736
4.729
4.727
4.725
4.721
4.721
4.730
4.736
4.735
4.732
4.733
4.731
4.724
4.728
4.733
4.729
4.721
4.720
4.714
4.717
4.722
4.732
4.735
4.734
4.735
4.729
4.727
4.720
4.724
4.734
4.736
4.731
4.729
4.728
4.730
4.728
4.732
4.736
4.744
4.739
4.741
4.742
4.741
4.737
4.738
4.742
4.741
4.751
4.746
4.745
4.749
4.747
4.747
4.744
4.741
4.744
4.754
4.753
4.746
4.742
4.741
4.742
4.746
4.744
4.743
4.751
4.762
4.756
4.757
4.753
4.751
4.748
4.746
4.750
4.747
4.756
4.763
4.762
4.762
4.761
4.765
4.761
4.763
4.761
4.763
4.761
4.768
4.777
4.773
4.770
4.768
4.762
4.758
4.758
4.755
4.755
4.763
4.766
4.769
4.767
4.765
4.761
4.762
4.762
4.760
4.758
4.757
4.764
4.766
4.766
4.763
4.761
4.762
4.759
4.757
4.756
4.762
4.756
4.763
4.770
4.779
4.778
4.777
4.777
4.776
4.767
4.769
4.775
4.769
4.770
4.771
4.773
4.781
4.788
4.787
4.783
4.781
4.775
4.771
4.769
4.766
4.767
4.774
4.770
4.777
4.784
4.790
4.791
4.788
4.792
4.787
4.788
4.790
4.786
4.785
4.784
4.787
4.783
4.785
4.794
4.801
4.810
4.812
4.806
4.803
4.799
4.795
4.789
4.795
4.795
4.790
4.791
4.790
4.795
4.803
4.805
4.806
4.802
4.801
4.800
4.798
4.799
4.793
4.789
4.784
4.781
4.782
4.788
4.782
4.783
4.781
4.780
4.779
4.777
4.781
4.778
4.782
4.777
4.776
4.769
4.774
4.781
4.788
4.789
4.793
4.794
4.788
4.783
4.777
4.773
4.771
4.767
4.763
4.762
4.762
4.766
4.773
4.780
4.781
4.786
4.784
4.783
4.784
4.783
4.784
4.781
4.777
4.775
4.774
4.773
4.773
4.770
4.773
4.775
4.781
4.789
4.793
4.791
4.793
4.792
4.793
4.788
4.785
4.786
4.788
4.791
4.793
4.792
4.793
4.791
4.790
4.781
4.784
4.791
4.796
4.802
4.799
4.799
4.792
4.789
4.788
4.791
4.790
4.789
4.787
4.784
4.788
4.784
4.785
4.781
4.777
4.783
4.790
4.797
4.798
4.792
4.792
4.788
4.787
4.788
4.792
4.791
4.787
4.784
4.785
4.786
4.785
4.786
4.785
4.780
4.784
4.783
4.790
4.797
4.803
4.810
4.809
4.806
4.807
4.808
4.803
4.799
4.803
4.802
4.803
4.803
4.799
4.803
4.801
4.799
4.804
4.802
4.804
4.802
4.799
4.800
4.807
4.813
4.817
4.813
4.812
4.813
4.812
4.810
4.814
4.813
4.814
4.808
4.803
4.800
4.798
4.797
4.796
4.797
4.803
4.800
4.799
4.797
4.803
4.808
4.814
4.821
4.820
4.824
4.817
4.819
4.815
4.814
4.817
4.818
4.818
4.821
4.821
4.821
4.815
4.811
4.814
4.811
4.815
4.816
4.814
4.813
4.812
4.810
4.812
4.819
4.825
4.832
4.837
4.841
4.837
4.841
4.837
4.832
4.832
4.830
4.831
4.830
4.826
4.827
4.829
4.829
4.828
4.825
4.825
4.822
4.820
4.821
4.823
4.816
4.820
4.818
4.825
4.829
4.834
4.829
4.825
4.822
4.817
4.814
4.814
4.811
4.810
4.811
4.807
4.805
4.806
4.805
4.807
4.808
4.804
4.808
4.806
4.806
4.810
4.810
4.810
4.808
4.812
4.819
4.823
4.829
4.834
4.835
4.829
4.830
4.826
4.821
4.818
4.816
4.814
4.806
4.812
4.813
4.814
4.816
4.815
4.813
4.810
4.805
4.806
4.802
4.804
4.803
4.803
4.799
4.801
4.806
4.812
4.818
4.821
4.829
4.829
4.832
4.837
4.840
4.842
4.835
4.836
4.832
4.831
4.833
4.832
4.835
4.834
4.833
4.831
4.829
4.825
4.824
4.821
4.819
4.823
4.819
4.820
4.821
4.820
4.818
4.815
4.808
4.810
4.816
4.821
4.827
4.831
4.836
4.840
4.840
4.839
4.838
4.840
4.841
4.839
4.836
4.837
4.841
4.840
4.843
4.842
4.843
4.842
4.840
4.837
4.840
4.842
4.840
4.840
4.841
4.836
4.836
4.834
4.830
4.825
4.825
4.828
4.825
4.825
4.827
4.828
4.832
4.837
4.843
4.847
4.852
4.858
4.860
4.859
4.857
4.855
4.852
4.851
4.852
4.851
4.851
4.851
4.854
4.855
4.854
4.853
4.854
4.858
4.857
4.861
4.862
4.859
4.854
4.853
4.849
4.848
4.849
4.850
4.847
4.842
4.843
4.842
4.843
4.844
4.847
4.844
4.843
4.848
4.851
4.856
4.862
4.866
4.865
4.864
4.868
4.864
4.866
4.866
4.866
4.866
4.865
4.859
4.858
4.861
4.862
4.861
4.858
4.855
4.851
4.847
4.843
4.839
4.835
4.834
4.835
4.837
4.832
4.834
4.840
4.837
4.835
4.836
4.835
4.839
4.836
4.832
4.836
4.840
4.846
4.850
4.854
4.859
4.863
4.867
4.865
4.864
4.863
4.861
