2.821
3.057
3.190
3.389
3.409
3.531
3.493
3.535
3.649
3.704
3.754
3.644
3.740
3.728
3.770
3.805
3.774
3.803
3.738
3.857
3.829
3.808
3.867
3.846
3.854
3.917
3.876
3.930
3.943
3.863
3.911
3.872
3.791
3.853
3.913
3.889
3.815
3.832
3.903
3.967
3.955
3.963
3.906
3.850
3.916
4.002
3.952
3.891
3.889
3.920
3.889
3.859
3.928
4.002
3.999
3.936
3.912
3.866
3.875
3.873
3.912
3.827
3.866
3.927
3.989
3.999
4.021
3.939
3.953
3.939
3.944
3.990
3.896
3.860
3.840
3.855
3.810
3.892
3.874
3.953
3.952
4.001
4.050
4.098
4.096
4.048
4.000
3.954
3.907
3.919
3.962
3.867
3.930
3.953
3.912
3.890
3.890
3.916
3.857
3.877
3.873
3.920
3.894
3.843
3.824
3.855
3.891
3.928
3.964
4.000
4.037
4.073
4.110
4.059
4.077
4.099
4.111
4.094
4.078
4.027
4.026
4.027
4.017
3.975
3.939
3.953
3.964
3.958
3.932
3.906
3.892
3.901
3.848
3.835
3.816
3.818
3.825
3.837
3.847
3.887
3.891
3.927
3.907
3.876
3.881
3.954
3.960
3.967
3.965
3.956
3.918
3.922
3.904
3.875
3.826
3.856
3.838
3.825
3.832
3.856
3.880
3.904
3.928
3.952
3.976
4.000
4.024
4.048
4.072
4.097
4.100
4.095
4.066
4.089
4.036
4.044
4.022
4.030
4.060
4.068
4.052
4.060
4.014
3.999
4.021
4.028
4.019
4.022
4.036
4.025
3.992
4.024
4.055
4.086
4.050
4.067
4.044
4.042
4.027
4.017
4.010
3.976
3.983
3.983
4.011
3.979
3.960
3.933
3.914
3.889
3.906
3.917
3.887
3.889
3.920
3.879
3.849
3.860
3.862
3.879
3.892
3.927
3.962
3.970
3.938
3.916
3.878
3.904
3.861
3.843
3.851
3.844
3.847
3.836
3.879
3.890
3.876
3.892
3.847
3.880
3.857
3.840
3.888
3.866
3.894
3.898
3.896
3.876
3.898
3.890
3.887
3.894
3.894
3.899
3.888
3.869
3.902
3.896
3.890
3.857
3.856
3.849
3.836
3.866
3.855
3.848
3.847
3.813
3.843
3.824
3.829
3.802
3.804
3.804
3.821
3.822
3.842
3.853
3.817
3.828
3.849
3.869
3.889
3.910
3.930
3.924
3.917
3.951
3.949
3.925
3.904
3.932
3.937
3.957
3.973
3.927
3.920
3.951
3.962
3.950
3.955
3.959
3.924
3.929
3.894
3.886
3.890
3.891
3.911
3.891
3.878
3.878
3.839
3.821
3.851
3.858
3.838
3.868
3.873
3.878
3.894
3.862
3.874
3.882
3.892
3.904
3.916
3.928
3.940
3.952
3.964
3.976
3.988
4.000
4.012
4.024
4.036
4.048
4.060
4.072
4.084
4.096
4.108
4.120
4.132
4.144
4.156
4.168
4.163
4.146
4.120
4.125
4.123
4.148
4.173
4.159
4.136
4.109
4.081
4.086
4.123
4.101
4.109
4.119
4.122
4.098
4.100
4.105
4.091
4.073
4.059
4.066
4.102
4.064
4.082
4.043
4.052
4.065
4.077
4.095
4.098
4.101
4.105
4.107
4.095
4.070
4.092
4.075
4.063
4.068
4.089
4.070
4.051
4.032
4.029
4.029
4.044
4.073
4.038
4.035
4.005
3.995
3.978
3.983
3.984
3.994
4.022
4.021
4.025
3.982
3.965
3.966
3.955
3.969
3.978
3.961
3.982
4.006
3.994
3.986
3.961
3.984
3.940
3.931
3.905
3.920
3.914
3.927
3.952
3.940
3.933
3.956
3.934
3.940
3.937
3.958
3.978
3.954
3.968
3.952
3.959
3.962
3.978
3.951
3.933
3.924
3.935
3.928
3.947
3.958
3.944
3.953
3.979
3.985
3.957
3.933
3.950
3.966
3.946
3.934
3.934
3.939
3.948
3.929
3.906
3.900
3.898
3.887
3.903
3.881
3.887
3.891
3.902
3.923
3.924
3.912
3.919
3.940
3.939
3.957
3.934
3.919
3.918
3.907
3.909
3.923
3.927
3.918
3.928
3.916
3.879
3.886
3.884
3.870
3.896
3.910
3.922
3.904
3.929
3.903
3.901
3.886
3.881
3.878
3.891
3.880
3.892
3.907
3.901
3.867
3.859
3.844
3.846
3.858
3.849
3.865
3.881
3.898
3.914
3.916
3.919
3.946
3.942
3.925
3.943
3.930
3.919
3.937
3.922
3.899
3.885
3.864
3.874
3.893
3.881
3.888
3.903
3.919
3.924
3.911
3.919
3.913
3.916
3.908
3.885
3.886
3.891
3.882
3.855
3.858
3.873
3.877
3.857
3.838
3.839
3.866
3.870
3.885
3.904
3.894
3.878
3.869
3.866
3.861
3.868
3.862
3.873
3.880
3.890
3.908
3.911
3.921
3.931
3.941
3.952
3.962
3.972
3.982
3.982
3.975
3.964
3.949
3.952
3.966
3.953
3.956
3.970
3.975
3.977
3.983
3.969
3.984
4.000
3.991
3.984
3.982
3.996
4.004
3.987
3.995
4.000
3.988
3.978
3.998
4.017
4.012
4.004
3.994
3.979
3.965
3.950
3.948
3.962
3.943
3.928
3.926
3.910
3.909
3.928
3.901
3.899
3.921
3.944
3.930
3.918
3.920
3.932
3.930
3.929
3.930
3.936
3.928
3.928
3.910
3.891
3.900
3.893
3.887
3.906
3.904
3.905
3.912
3.893
3.891
3.892
3.900
3.903
3.882
3.903
3.928
3.931
3.918
3.946
3.921
3.936
3.950
3.953
3.964
3.963
3.964
3.949
3.932
3.929
3.929
3.915
3.902
3.931
3.926
3.916
3.896
3.889
3.875
3.865
3.864
3.880
3.887
3.904
3.903
3.920
3.910
3.903
3.889
3.892
3.877
3.871
3.891
3.903
3.888
3.885
3.871
3.883
3.883
3.887
3.906
3.882
3.883
3.888
3.868
3.877
3.870
3.851
3.849
3.870
3.879
3.857
3.855
3.849
3.848
3.847
3.861
3.857
3.857
3.874
3.871
3.875
3.890
3.903
3.917
3.932
3.946
3.949
3.962
3.928
3.923
3.923
3.910
3.896
3.884
3.886
3.868
3.871
3.873
3.872
3.883
3.875
3.860
3.864
3.857
3.867
3.876
3.885
3.894
3.904
3.913
3.922
3.931
3.941
3.950
3.959
3.948
3.945
3.944
3.932
3.948
3.945
3.953
3.944
3.956
3.955
3.977
3.962
3.972
3.952
3.963
3.949
3.966
3.948
3.941
3.941
3.921
3.930
3.917
3.927
3.947
3.933
3.952
3.943
3.939
3.958
3.945
3.921
3.925
3.924
3.914
3.937
3.930
3.924
3.950
3.952
3.931
3.914
3.924
3.911
3.914
3.916
3.915
3.913
3.916
3.910
3.934
3.914
3.927
3.948
3.932
3.912
3.899
3.916
3.908
3.891
3.899
3.896
3.915
3.915
3.916
3.905
3.905
3.890
3.903
3.911
3.913
3.918
3.910
3.908
3.891
3.875
3.864
3.863
3.878
3.889
3.892
3.909
3.897
3.902
3.893
3.910
3.902
3.888
3.878
3.891
3.899
3.905
3.906
3.917
3.932
3.919
3.907
3.891
3.897
3.907
3.911
3.899
3.908
3.892
3.886
3.894
3.889
3.876
3.861
3.866
3.870
3.875
3.869
3.850
3.856
3.865
3.877
3.878
3.889
3.884
3.876
3.885
3.895
3.895
3.901
3.904
3.898
3.883
3.891
3.883
3.872
3.875
3.880
3.860
3.869
3.892
3.893
3.877
3.879
3.879
3.864
3.851
3.860
3.868
3.877
3.886
3.894
3.903
3.911
3.920
3.921
3.916
3.922
3.920
3.933
3.946
3.948
3.944
3.951
3.967
3.965
3.973
3.966
3.942
3.960
3.943
3.955
3.951
3.952
3.930
3.924
3.920
3.935
3.937
3.939
3.932
3.919
3.914
3.905
3.910
3.916
3.928
3.935
3.913
3.911
3.913
3.913
3.915
3.908
3.911
3.887
3.905
3.905
3.915
3.936
3.936
3.950
3.931
3.931
3.941
3.940
3.924
3.909
3.907
3.909
3.905
3.891
3.897
3.904
3.907
3.896
3.899
3.888
3.907
3.900
3.892
3.884
3.897
3.895
3.898
3.918
3.903
3.894
3.906
3.878
3.875
3.892
3.896
3.895
3.910
3.896
3.908
3.898
3.903
3.916
3.902
3.903
3.924
3.907
3.892
3.896
3.892
3.893
3.872
3.868
3.883
3.874
3.865
3.868
3.879
3.860
