2.988
3.334
3.509
3.630
3.723
3.774
3.845
3.867
3.929
3.919
3.954
3.991
4.035
4.067
4.100
4.121
4.059
4.051
4.066
4.079
4.094
4.115
4.125
4.135
4.154
4.158
4.173
4.190
4.189
4.208
4.220
4.220
4.229
4.245
4.243
4.250
4.261
4.267
4.283
4.275
4.282
4.292
4.297
4.310
4.321
4.324
4.310
4.319
4.326
4.335
4.342
4.349
4.354
4.357
4.369
4.377
4.360
4.363
4.365
4.377
4.386
4.381
4.383
4.398
4.404
4.409
4.406
4.410
4.418
4.429
4.431
4.435
4.429
4.409
4.412
4.424
4.428
4.426
4.440
4.446
4.438
4.440
4.444
4.446
4.461
4.456
4.463
4.475
4.473
4.470
4.468
4.471
4.477
4.484
4.488
4.494
4.498
4.503
4.510
4.514
4.502
4.509
4.506
4.511
4.502
4.484
4.487
4.487
4.487
4.496
4.492
4.498
4.505
4.507
4.503
4.518
4.505
4.504
4.512
4.502
4.511
4.513
4.516
4.515
4.530
4.525
4.527
4.542
4.533
4.526
4.538
4.533
4.548
4.543
4.548
4.555
4.550
4.547
4.545
4.547
4.551
4.542
4.554
4.554
4.559
4.548
4.560
4.554
4.571
4.567
4.575
4.571
4.575
4.577
4.573
4.570
4.569
4.587
4.582
4.589
4.587
4.592
4.598
4.591
4.604
4.593
4.600
4.610
4.598
4.601
4.600
4.594
4.606
4.595
4.604
4.592
4.591
4.608
4.600
4.597
4.615
4.615
4.614
4.622
4.619
4.614
4.623
4.636
4.620
4.622
4.640
4.636
4.632
4.642
4.636
4.627
4.617
4.607
4.597
4.594
4.590
4.593
4.604
4.601
4.597
4.602
4.596
4.598
4.599
4.608
4.610
4.604
4.601
4.612
4.624
4.620
4.624
4.615
4.632
4.628
4.623
4.621
4.621
4.609
4.610
4.607
4.612
4.610
4.611
4.609
4.610
4.616
4.604
4.602
4.606
4.613
4.609
4.605
4.605
4.606
4.621
4.622
4.619
4.629
4.619
4.620
4.630
4.633
4.624
4.628
4.621
4.632
4.625
4.627
4.630
4.623
4.624
4.641
4.640
4.634
4.633
4.628
4.628
4.645
4.656
4.652
4.647
4.641
4.644
4.645
4.661
4.653
4.643
4.640
4.633
4.639
4.653
4.649
4.649
4.648
4.638
4.629
4.645
4.650
4.659
4.652
4.649
4.645
4.646
4.646
4.661
4.664
4.664
4.664
4.659
4.652
4.645
4.656
4.672
4.672
4.667
4.665
4.670
4.664
4.660
4.665
4.676
4.691
4.688
4.685
4.686
4.674
4.674
4.669
4.674
4.689
4.688
4.679
4.685
4.683
4.687
4.677
4.684
4.680
4.695
4.687
4.678
4.670
4.661
4.653
4.651
4.665
4.676
4.672
4.680
4.671
4.666
4.664
4.660
4.651
4.658
4.671
4.670
4.663
4.662
4.666
4.661
4.653
4.659
4.655
4.656
4.670
4.683
4.680
4.684
4.681
4.677
4.677
4.675
4.671
4.662
4.660
4.673
4.682
4.675
4.683
4.684
4.684
4.680
4.678
4.671
4.663
4.658
4.668
4.677
4.680
4.685
4.679
4.673
4.682
4.682
4.679
4.676
4.671
4.671
4.666
4.678
4.690
4.702
4.708
4.698
4.703
4.696
4.691
4.693
4.691
4.685
4.680
4.679
4.679
4.690
4.702
4.701
4.695
4.689
4.693
4.691
4.694
4.694
4.693
4.686
4.683
4.692
4.689
4.691
4.703
4.714
4.716
4.717
4.719
4.715
4.713
4.718
4.720
4.717
4.712
4.706
4.699
4.702
4.704
4.703
4.714
4.725
4.729
4.729
4.721
4.722
4.722
4.723
4.716
4.707
4.708
4.706
4.706
4.711
4.704
4.703
4.713
4.707
4.710
4.712
4.716
4.716
4.715
4.710
4.702
4.702
4.703
4.701
4.694
4.693
4.686
4.690
4.700
4.710
4.716
4.713
4.710
4.708
4.717
4.709
4.707
4.708
4.718
4.715
4.708
4.712
4.711
4.715
4.710
4.706
4.695
4.703
4.713
4.722
4.726
4.719
4.719
4.726
4.727
4.720
4.718
4.723
4.717
4.715
4.715
4.716
4.723
4.730
4.725
4.723
4.719
4.711
4.710
4.720
4.729
4.738
4.741
4.736
4.741
4.733
4.738
4.742
4.742
4.741
4.744
4.744
4.742
4.738
4.742
4.738
4.735
4.732
4.726
4.731
4.733
4.730
4.728
4.737
4.746
4.755
4.759
4.759
4.763
4.756
4.754
4.751
4.748
4.744
4.740
4.747
4.742
4.745
4.741
4.737
4.743
4.735
4.727
4.720
4.714
4.720
4.727
4.736
4.744
4.753
4.751
4.755
4.754
4.757
4.751
4.745
4.740
4.740
4.745
4.744
4.737
4.740
4.738
4.737
4.735
4.739
4.740
4.739
4.740
4.736
4.737
4.738
4.735
4.735
4.740
4.748
4.757
4.765
4.770
4.767
4.767
4.768
4.768
4.771
4.770
4.775
4.772
4.771
4.765
4.768
4.766
4.768
4.769
4.767
4.763
4.763
4.762
4.759
4.762
4.768
4.770
4.762
4.764
4.761
4.763
4.760
4.763
4.771
4.778
4.786
4.790
4.792
4.790
4.787
4.785
4.781
4.774
4.775
4.774
4.778
4.778
4.782
4.775
4.780
4.775
4.771
4.767
4.762
4.758
4.754
4.749
4.745
4.741
4.737
4.732
4.738
4.745
4.753
4.760
4.764
4.761
4.759
4.766
4.765
4.767
4.769
4.768
4.769
4.764
4.761
4.762
4.761
4.757
4.752
4.747
4.741
4.736
4.731
4.726
4.722
4.732
4.731
4.734
4.731
4.729
4.733
4.734
4.733
4.728
4.732
4.733
4.740
4.747
4.754
4.761
4.768
4.760
4.756
4.756
4.754
4.750
4.744
4.738
4.733
4.743
4.751
4.754
4.750
4.747
4.742
4.747
4.747
4.740
4.738
4.742
4.737
4.742
4.741
4.735
4.733
4.731
4.734
4.736
4.740
4.739
4.738
4.737
4.732
4.734
4.743
4.737
4.740
4.747
4.753
4.760
4.766
4.773
4.767
4.762
4.756
4.759
4.759
4.753
4.753
4.755
4.755
4.753
4.748
4.742
4.743
4.740
4.738
4.734
4.732
4.728
4.734
4.738
4.738
4.734
4.737
4.737
4.732
4.733
4.730
4.730
4.739
4.732
4.731
4.729
4.720
4.720
4.720
4.722
4.722
4.728
4.734
4.740
4.747
4.753
4.759
4.765
4.771
4.775
4.772
4.772
4.775
4.775
4.772
4.776
4.778
4.775
4.773
4.772
4.771
4.770
4.767
4.762
4.759
4.756
4.754
4.755
4.749
4.749
4.745
4.751
4.746
4.748
4.742
4.740
4.740
4.737
4.731
4.725
4.724
4.733
4.736
4.735
4.738
4.739
4.736
4.737
4.739
4.737
4.737
4.730
4.732
4.735
4.741
4.746
4.752
4.758
4.764
4.770
4.772
4.773
4.767
4.766
4.766
4.767
4.764
4.769
4.769
4.769
4.767
4.765
4.762
4.758
4.761
4.764
4.760
4.760
4.763
4.769
4.771
4.774
4.773
4.773
4.765
4.758
4.756
4.758
4.758
4.762
4.762
4.759
4.757
4.754
4.753
4.753
4.758
4.754
4.747
4.742
4.739
4.734
4.733
4.736
4.732
4.729
4.729
4.729
4.723
4.723
4.729
4.734
4.740
4.745
4.750
4.756
4.761
4.766
4.772
4.777
4.783
4.788
4.794
4.790
4.792
4.789
4.787
4.784
4.784
4.783
4.779
4.782
4.780
4.781
4.783
4.779
4.777
4.774
4.774
4.766
4.771
4.774
4.773
4.778
4.780
4.778
4.778
4.775
4.771
4.767
4.766
4.763
4.762
4.756
4.756
4.755
4.760
4.758
4.757
4.758
4.760
4.757
4.752
4.756
4.753
4.755
4.760
4.763
4.765
4.765
4.767
4.766
4.757
4.753
4.746
4.746
4.747
4.746
4.743
4.745
4.746
4.749
4.754
4.759
4.764
4.769
4.774
4.779
4.784
4.789
4.794
4.797
4.795
4.793
4.793
4.799
4.796
4.794
4.797
4.795
4.792
4.794
4.793
4.797
4.804
4.805
4.803
4.801
4.801
4.798
4.793
4.790
4.786
4.787
4.785
4.782
4.787
4.787
4.788
4.789
4.791
4.788
4.790
4.791
4.788
4.787
4.786
4.784
4.777
4.784
4.787
4.790
4.783
4.783
4.780
4.781
4.780
4.783
4.787
4.785
4.785
4.782
