2.995
3.332
3.517
3.620
3.717
3.766
3.816
3.893
3.906
3.959
4.006
3.981
4.016
4.044
4.076
4.102
4.136
4.155
4.146
4.093
4.099
4.110
4.134
4.143
4.150
4.170
4.175
4.191
4.195
4.214
4.210
4.222
4.238
4.237
4.249
4.262
4.265
4.270
4.277
4.288
4.301
4.292
4.299
4.312
4.318
4.330
4.334
4.323
4.332
4.339
4.347
4.350
4.364
4.364
4.374
4.365
4.369
4.368
4.381
4.388
4.387
4.393
4.403
4.408
4.409
4.419
4.429
4.404
4.410
4.412
4.415
4.425
4.430
4.434
4.432
4.435
4.442
4.449
4.451
4.455
4.457
4.455
4.469
4.477
4.476
4.480
4.477
4.458
4.455
4.462
4.466
4.472
4.477
4.478
4.485
4.484
4.481
4.482
4.489
4.493
4.497
4.500
4.500
4.507
4.516
4.522
4.518
4.509
4.517
4.515
4.519
4.523
4.527
4.531
4.535
4.534
4.538
4.545
4.547
4.556
4.546
4.551
4.561
4.554
4.553
4.537
4.522
4.532
4.531
4.525
4.535
4.544
4.541
4.537
4.548
4.548
4.545
4.553
4.558
4.556
4.547
4.544
4.554
4.546
4.553
4.555
4.555
4.565
4.557
4.564
4.563
4.569
4.573
4.579
4.583
4.576
4.575
4.570
4.582
4.579
4.592
4.590
4.594
4.594
4.599
4.590
4.581
4.584
4.597
4.590
4.588
4.586
4.600
4.598
4.598
4.597
4.599
4.604
4.598
4.614
4.611
4.611
4.619
4.613
4.620
4.620
4.620
4.613
4.615
4.626
4.625
4.622
4.634
4.629
4.626
4.644
4.639
4.631
4.647
4.643
4.636
4.651
4.646
4.639
4.634
4.637
4.640
4.647
4.643
4.639
4.642
4.639
4.636
4.642
4.641
4.639
4.652
4.651
4.648
4.649
4.664
4.660
4.656
4.659
4.665
4.661
4.663
4.668
4.669
4.665
4.668
4.675
4.678
4.673
4.665
4.657
4.649
4.641
4.636
4.627
4.624
4.642
4.640
4.638
4.638
4.640
4.650
4.647
4.645
4.640
4.643
4.643
4.649
4.642
4.645
4.655
4.649
4.654
4.649
4.652
4.667
4.664
4.670
4.663
4.660
4.673
4.670
4.669
4.658
4.655
4.652
4.652
4.658
4.650
4.654
4.655
4.655
4.648
4.636
4.649
4.654
4.654
4.648
4.641
4.640
4.656
4.650
4.654
4.648
4.651
4.644
4.660
4.668
4.665
4.662
4.664
4.662
4.660
4.671
4.672
4.668
4.669
4.671
4.659
4.671
4.670
4.663
4.667
4.668
4.669
4.665
4.678
4.676
4.682
4.676
4.669
4.668
4.673
4.681
4.692
4.692
4.689
4.693
4.688
4.685
4.680
4.693
4.702
4.693
4.683
4.676
4.679
4.677
4.686
4.692
4.692
4.690
4.685
4.686
4.680
4.675
4.689
4.692
4.691
4.688
4.691
4.692
4.689
4.681
4.686
4.699
4.709
4.706
4.705
4.698
4.703
4.701
4.699
4.691
4.704
4.705
4.704
4.707
4.706
4.703
4.701
4.698
4.699
4.704
4.716
4.722
4.720
4.717
4.723
4.726
4.721
4.716
4.715
4.710
4.722
4.734
4.734
4.731
4.727
4.716
4.715
4.714
4.717
4.715
4.721
4.733
4.729
4.726
4.719
4.713
4.706
4.699
4.699
4.703
4.714
4.709
4.707
4.706
4.703
4.710
4.708
4.704
4.706
4.700
4.700
4.698
4.702
4.704
4.702
4.705
4.699
4.695
4.693
4.696
4.696
4.692
4.703
4.714
4.708
4.713
4.711
4.717
4.711
4.705
4.710
4.712
4.710
4.706
4.708
4.711
4.719
4.724
4.726
4.722
4.710
4.716
4.708
4.709
4.712
4.710
4.707
4.707
4.708
4.716
4.719
4.720
4.717
4.714
4.711
4.708
4.705
4.706
4.707
4.708
4.709
4.706
4.705
4.716
4.726
4.734
4.732
4.725
4.723
4.726
4.729
4.725
4.727
4.723
4.726
4.726
4.719
4.720
4.724
4.729
4.735
4.745
4.737
4.739
4.735
4.737
4.731
4.738
4.734
4.729
4.725
4.727
4.719
4.713
4.720
4.725
4.734
4.744
4.744
4.742
4.747
4.747
4.744
4.745
4.743
4.742
4.739
4.736
4.737
4.736
4.741
4.742
4.745
4.746
4.742
4.751
4.760
4.763
4.759
4.757
4.755
4.757
4.763
4.759
4.758
4.753
4.750
4.746
4.746
4.747
4.750
4.742
4.745
4.751
4.756
4.765
4.763
4.759
4.752
4.746
4.740
4.736
4.738
4.734
4.737
4.736
4.733
4.735
4.738
4.739
4.737
4.732
4.740
4.748
4.757
4.752
4.750
4.749
4.751
4.747
4.747
4.741
4.732
4.732
4.734
4.734
4.735
4.731
4.729
4.735
4.735
4.732
4.735
4.737
4.745
4.754
4.762
4.767
4.762
4.763
4.768
4.765
4.762
4.756
4.756
4.750
4.745
4.747
4.744
4.743
4.747
4.749
4.742
4.739
4.735
4.736
4.737
4.745
4.753
4.761
4.769
4.777
4.776
4.777
4.780
4.778
4.778
4.780
4.778
4.769
4.760
4.759
4.760
4.756
4.764
4.764
4.763
4.758
4.762
4.758
4.758
4.754
4.757
4.753
4.761
4.768
4.776
4.783
4.791
4.798
4.794
4.792
4.791
4.794
4.788
4.788
4.788
4.784
4.782
4.777
4.777
4.780
4.782
4.781
4.781
4.774
4.767
4.769
4.773
4.769
4.767
4.774
4.773
4.773
4.781
4.788
4.795
4.798
4.795
4.794
4.792
4.786
4.780
4.773
4.767
4.773
4.774
4.774
4.781
4.775
4.766
4.770
4.771
4.766
4.765
4.767
4.764
4.758
4.760
4.761
4.758
4.762
4.768
4.775
4.782
4.789
4.796
4.800
4.802
4.794
4.792
4.794
4.792
4.790
4.790
4.792
4.791
4.787
4.787
4.788
4.786
4.787
4.784
4.786
4.781
4.789
4.784
4.788
4.788
4.789
4.787
4.784
4.778
4.780
4.781
4.780
4.778
4.784
4.791
4.797
4.804
4.810
4.816
4.819
4.818
4.819
4.818
4.815
4.811
4.817
4.817
4.816
4.819
4.819
4.821
4.824
4.829
4.823
4.822
4.814
4.806
4.804
4.802
4.795
4.796
4.798
4.795
4.791
4.791
4.794
4.800
4.807
4.803
4.798
4.798
4.797
4.803
4.810
4.816
4.818
4.814
4.811
4.807
4.804
4.800
4.797
4.793
4.789
4.792
4.792
4.794
4.789
4.786
4.782
4.780
4.780
4.776
4.772
4.769
4.772
4.771
4.774
4.771
4.772
4.770
4.776
4.779
4.771
4.768
4.765
4.768
4.774
4.780
4.786
4.791
4.797
4.797
4.793
4.791
4.788
4.787
4.786
4.788
4.784
4.783
4.784
4.784
4.783
4.779
4.778
4.780
4.778
4.782
4.780
4.783
4.781
4.777
4.775
4.775
4.776
4.773
4.774
4.782
4.780
4.778
4.770
4.771
4.772
4.770
4.767
4.769
4.770
4.769
4.765
4.767
4.773
4.779
4.784
4.790
4.796
4.797
4.799
4.795
4.792
4.789
4.791
4.787
4.784
4.786
4.786
4.791
4.793
4.794
4.801
4.800
4.797
4.797
4.797
4.795
4.791
4.788
4.789
4.793
4.789
4.792
4.793
4.791
4.791
4.785
4.779
4.773
4.774
4.776
4.779
4.776
4.775
4.775
4.778
4.775
4.777
4.780
4.782
4.779
4.775
4.772
4.777
4.782
4.788
4.793
4.798
4.799
4.797
4.790
4.795
4.796
4.797
4.792
4.784
4.786
4.788
4.793
4.789
4.788
4.783
4.783
4.780
4.779
4.780
4.780
4.780
4.777
4.773
4.771
4.777
4.784
4.782
4.779
4.777
4.779
4.775
4.777
4.775
4.774
4.776
4.774
4.775
4.773
4.772
4.773
4.770
4.775
4.775
4.773
4.774
4.772
4.769
4.775
4.775
4.776
4.775
4.775
4.780
4.785
4.790
4.795
4.800
4.805
4.810
4.815
4.809
4.805
4.801
4.804
4.805
4.805
4.802
4.806
4.808
4.806
4.805
4.805
4.800
4.795
4.794
4.787
4.782
4.779
4.778
4.779
4.776
4.776
4.779
4.776
4.776
4.773
4.776
4.775
4.775
4.774
4.774
4.773
4.772
4.774
4.778
4.777
4.774
4.777
4.781
4.784
4.789
4.785
4.784
4.786
4.785
4.787
4.788
4.780
4.777
4.774
4.769
4.769
