2.989
3.331
3.489
3.607
3.687
3.728
3.789
3.865
3.923
3.873
3.865
3.902
3.938
3.962
3.981
3.991
4.014
4.035
4.044
4.062
4.090
4.090
4.106
4.130
4.138
4.132
4.151
4.178
4.193
4.201
4.184
4.199
4.200
4.218
4.222
4.244
4.260
4.257
4.237
4.243
4.261
4.255
4.261
4.272
4.289
4.301
4.293
4.310
4.321
4.321
4.329
4.330
4.332
4.340
4.341
4.318
4.321
4.325
4.338
4.341
4.321
4.333
4.339
4.352
4.364
4.359
4.374
4.378
4.383
4.396
4.376
4.379
4.381
4.392
4.387
4.394
4.408
4.413
4.413
4.406
4.420
4.432
4.428
4.430
4.452
4.445
4.432
4.425
4.436
4.424
4.448
4.439
4.449
4.457
4.459
4.466
4.468
4.476
4.470
4.482
4.480
4.470
4.451
4.433
4.439
4.442
4.433
4.470
4.461
4.464
4.468
4.461
4.472
4.451
4.465
4.445
4.452
4.436
4.434
4.455
4.457
4.452
4.470
4.463
4.463
4.466
4.465
4.453
4.474
4.471
4.479
4.468
4.497
4.485
4.495
4.489
4.493
4.470
4.475
4.493
4.481
4.479
4.480
4.508
4.505
4.496
4.485
4.509
4.512
4.495
4.497
4.508
4.528
4.519
4.512
4.512
4.525
4.538
4.526
4.530
4.521
4.534
4.537
4.539
4.536
4.522
4.514
4.514
4.521
4.509
4.500
4.520
4.507
4.502
4.507
4.502
4.511
4.529
4.524
4.522
4.503
4.507
4.511
4.534
4.515
4.510
4.512
4.507
4.504
4.526
4.536
4.541
4.533
4.530
4.531
4.526
4.529
4.552
4.546
4.537
4.531
4.532
4.526
4.526
4.543
4.561
4.569
4.555
4.557
4.566
4.551
4.542
4.543
4.564
4.579
4.572
4.571
4.563
4.564
4.558
4.547
4.553
4.568
4.557
4.556
4.549
4.553
4.542
4.522
4.527
4.545
4.564
4.569
4.567
4.573
4.556
4.559
4.547
4.540
4.542
4.542
4.560
4.579
4.596
4.587
4.575
4.582
4.559
4.556
4.567
4.561
4.568
4.559
4.577
4.595
4.600
4.589
4.603
4.600
4.596
4.593
4.591
4.589
4.581
4.581
4.576
4.590
4.607
4.613
4.613
4.599
4.583
4.583
4.577
4.573
4.572
4.578
4.572
4.567
4.583
4.599
4.613
4.614
4.619
4.615
4.601
4.600
4.599
4.594
4.606
4.611
4.605
4.600
4.596
4.593
4.601
4.616
4.631
4.647
4.640
4.632
4.633
4.628
4.629
4.621
4.622
4.613
4.607
4.618
4.618
4.617
4.611
4.609
4.622
4.636
4.646
4.637
4.629
4.620
4.612
4.603
4.608
4.611
4.604
4.600
4.602
4.594
4.602
4.596
4.594
4.599
4.613
4.610
4.610
4.615
4.598
4.595
4.592
4.586
4.587
4.587
4.586
4.581
4.582
4.583
4.587
4.584
4.580
4.578
4.589
4.588
4.602
4.614
4.627
4.629
4.630
4.629
4.619
4.613
4.606
4.595
4.591
4.580
4.584
4.585
4.572
4.574
4.566
4.565
4.567
4.571
4.574
4.574
4.582
4.594
4.606
4.618
4.630
4.641
4.626
4.624
4.621
4.612
4.608
4.610
4.606
4.604
4.599
4.598
4.605
4.605
4.605
4.593
4.581
4.581
4.583
4.581
4.583
4.581
4.578
4.583
4.595
4.606
4.617
4.621
4.619
4.624
4.629
4.637
4.637
4.634
4.631
4.630
4.629
4.614
4.610
4.608
4.605
4.605
4.603
4.609
4.600
4.589
4.588
4.587
4.595
4.595
4.594
4.597
4.587
4.588
4.586
4.593
4.604
4.615
4.625
4.636
4.646
4.642
4.641
4.641
4.638
4.635
4.633
4.628
4.623
4.630
4.629
4.627
4.632
4.627
4.626
4.621
4.611
4.607
4.609
4.613
4.604
4.603
4.614
4.618
4.621
4.617
4.610
4.602
4.600
4.602
4.610
4.606
4.614
4.610
4.620
4.630
4.639
4.649
4.659
4.669
4.675
4.670
4.666
4.664
4.669
4.661
4.657
4.653
4.661
4.654
4.649
4.652
4.649
4.647
4.648
4.639
4.636
4.646
4.647
4.642
4.646
4.656
4.649
4.651
4.659
4.652
4.647
4.648
4.640
4.640
4.633
4.631
4.635
4.634
4.636
4.638
4.630
4.635
4.642
4.637
4.646
4.655
4.664
4.670
4.676
4.671
4.675
4.680
4.689
4.690
4.691
4.683
4.676
4.668
4.660
4.658
4.647
4.641
4.635
4.628
4.626
4.626
4.625
4.613
4.612
4.609
4.611
4.623
4.629
4.626
4.623
4.624
4.623
4.615
4.625
4.625
4.626
4.623
4.610
4.610
4.607
4.603
4.610
4.613
4.619
4.612
4.608
4.605
4.613
4.621
4.629
4.637
4.645
4.653
4.662
4.670
4.678
4.676
4.675
4.671
4.668
4.664
4.659
4.660
4.660
4.665
4.667
4.657
4.656
4.646
4.649
4.653
4.654
4.663
4.660
4.658
4.653
4.654
4.658
4.645
4.646
4.651
4.653
4.656
4.651
4.657
4.652
4.650
4.647
4.642
4.644
4.649
4.645
4.645
4.646
4.647
4.643
4.640
4.634
4.629
4.628
4.626
4.623
4.626
4.626
4.626
4.637
4.641
4.636
4.638
4.647
4.652
4.640
4.636
4.637
4.641
4.651
4.656
4.663
4.671
4.678
4.685
4.693
4.700
4.702
4.699
4.697
4.705
4.702
4.701
4.693
4.688
4.692
4.687
4.683
4.682
4.675
4.673
4.669
4.663
4.654
4.655
4.651
4.649
4.652
4.652
4.651
4.659
4.652
4.645
4.637
4.636
4.633
4.631
4.637
4.646
4.649
4.647
4.635
4.642
4.635
4.622
4.630
4.626
4.623
4.629
4.633
4.631
4.632
4.625
4.631
4.632
4.631
4.626
4.626
4.622
4.617
4.618
4.620
4.613
4.607
4.609
4.613
4.605
4.598
4.590
4.596
4.593
4.599
4.606
4.613
4.619
4.626
4.632
4.638
4.645
4.651
4.658
4.665
4.671
4.677
4.684
4.689
4.689
4.686
4.696
4.692
4.689
4.693
4.692
4.682
4.684
4.692
4.702
4.709
4.705
4.699
4.695
4.693
4.694
4.698
4.697
4.691
4.692
4.691
4.693
4.691
4.692
4.690
4.688
4.688
4.680
4.675
4.671
4.671
4.670
4.670
4.667
4.668
4.665
4.666
4.670
4.674
4.668
4.661
4.660
4.663
4.662
4.660
4.651
4.647
4.649
4.645
4.642
4.637
4.630
4.633
4.639
4.635
4.633
4.627
4.621
4.615
4.609
4.615
4.620
4.621
4.620
4.620
4.628
4.628
4.619
4.614
4.612
4.615
4.610
4.609
4.603
4.612
4.614
4.609
4.607
4.613
4.621
4.628
4.632
4.633
4.627
4.625
4.622
4.626
4.624
4.621
4.621
4.627
4.633
4.638
4.644
4.650
4.655
4.661
4.667
4.672
4.678
4.684
4.689
4.695
4.695
4.689
4.686
4.690
4.685
4.683
4.683
4.678
4.679
4.679
4.676
4.682
4.681
4.685
4.678
4.678
4.674
4.668
4.664
4.660
4.655
4.652
4.653
4.663
4.672
4.669
4.665
4.669
4.667
4.668
4.672
4.674
4.674
4.665
4.659
4.666
4.674
4.682
4.688
4.688
4.686
4.690
4.699
4.696
4.698
4.695
4.699
4.691
4.683
4.682
4.683
4.683
4.685
4.679
4.681
4.676
4.673
4.672
4.665
4.663
4.659
4.656
4.653
4.648
4.641
4.635
4.628
4.623
4.624
4.624
4.628
4.628
4.626
4.631
4.633
4.634
4.635
4.640
4.640
4.640
4.646
4.649
4.646
4.644
4.646
4.642
4.642
4.643
4.643
4.641
4.641
4.643
4.634
4.630
4.632
4.631
4.630
4.625
4.617
4.615
4.617
4.616
4.615
4.613
4.617
4.618
4.616
4.620
4.616
4.615
4.620
4.622
4.624
4.627
4.635
4.633
4.628
4.636
4.643
4.650
4.657
4.654
4.654
4.653
4.654
4.646
4.643
4.648
4.653
4.657
4.662
4.667
4.672
4.677
4.682
4.687
4.692
4.696
4.701
4.706
4.711
4.716
4.721
4.726
4.731
4.735
4.740
4.744
4.733
4.729
4.727
4.726
4.722
4.715
4.716
4.711
4.710
4.717
4.715
4.722
4.717
4.717
4.721
4.720
4.729
4.731
4.734
4.733
4.728
4.721
4.721
4.721
4.718
4.715
4.709
4.703
