2.994
3.331
3.516
3.628
3.706
3.794
3.848
3.883
3.898
3.951
4.001
4.000
4.010
4.041
4.072
4.101
4.125
4.153
4.174
4.162
4.114
4.113
4.135
4.143
4.152
4.167
4.180
4.184
4.199
4.205
4.218
4.230
4.231
4.242
4.254
4.252
4.264
4.279
4.287
4.282
4.289
4.304
4.309
4.315
4.312
4.321
4.328
4.335
4.347
4.351
4.344
4.351
4.352
4.364
4.371
4.375
4.386
4.389
4.386
4.379
4.383
4.389
4.396
4.403
4.405
4.411
4.418
4.423
4.424
4.431
4.438
4.428
4.424
4.427
4.429
4.435
4.443
4.447
4.445
4.450
4.451
4.461
4.464
4.469
4.476
4.472
4.476
4.479
4.484
4.494
4.495
4.502
4.483
4.469
4.478
4.477
4.481
4.485
4.494
4.493
4.495
4.501
4.500
4.501
4.497
4.505
4.508
4.515
4.519
4.521
4.520
4.524
4.530
4.531
4.530
4.538
4.535
4.532
4.542
4.545
4.549
4.548
4.549
4.548
4.552
4.562
4.563
4.572
4.561
4.568
4.566
4.562
4.568
4.553
4.539
4.537
4.547
4.551
4.544
4.548
4.560
4.557
4.552
4.560
4.561
4.559
4.564
4.568
4.571
4.567
4.569
4.557
4.569
4.567
4.564
4.575
4.571
4.578
4.571
4.579
4.580
4.584
4.586
4.589
4.593
4.594
4.593
4.584
4.598
4.594
4.604
4.606
4.605
4.606
4.607
4.609
4.605
4.598
4.602
4.606
4.602
4.601
4.596
4.608
4.605
4.614
4.610
4.609
4.616
4.612
4.621
4.623
4.620
4.633
4.632
4.627
4.638
4.630
4.635
4.638
4.623
4.639
4.635
4.633
4.646
4.642
4.642
4.647
4.649
4.649
4.657
4.652
4.653
4.660
4.656
4.663
4.656
4.644
4.642
4.658
4.656
4.660
4.656
4.653
4.649
4.650
4.651
4.649
4.646
4.663
4.657
4.660
4.656
4.669
4.673
4.669
4.672
4.677
4.676
4.674
4.672
4.686
4.686
4.682
4.676
4.690
4.690
4.691
4.687
4.680
4.672
4.666
4.659
4.650
4.645
4.649
4.646
4.646
4.646
4.647
4.660
4.657
4.657
4.653
4.656
4.669
4.660
4.650
4.646
4.661
4.668
4.664
4.659
4.658
4.665
4.672
4.670
4.669
4.668
4.668
4.683
4.685
4.679
4.674
4.678
4.682
4.673
4.664
4.654
4.660
4.675
4.675
4.667
4.660
4.656
4.666
4.662
4.655
4.654
4.658
4.657
4.671
4.664
4.668
4.660
4.655
4.657
4.671
4.675
4.671
4.665
4.668
4.662
4.669
4.683
4.685
4.687
4.683
4.673
4.672
4.678
4.690
4.687
4.685
4.679
4.674
4.675
4.680
4.694
4.688
4.690
4.686
4.681
4.682
4.681
4.693
4.692
4.696
4.692
4.688
4.686
4.693
4.690
4.702
4.711
4.705
4.709
4.701
4.700
4.704
4.701
4.705
4.698
4.694
4.697
4.698
4.692
4.691
4.694
4.705
4.706
4.707
4.700
4.691
4.690
4.688
4.692
4.699
4.708
4.712
4.711
4.707
4.708
4.704
4.701
4.699
4.703
4.716
4.722
4.723
4.723
4.718
4.714
4.704
4.701
4.701
4.712
4.723
4.725
4.726
4.722
4.726
4.720
4.720
4.714
4.715
4.722
4.727
4.738
4.745
4.744
4.738
4.739
4.735
4.731
4.726
4.722
4.724
4.736
4.746
4.744
4.737
4.733
4.732
4.733
4.735
4.735
4.740
4.733
4.737
4.731
4.724
4.717
4.715
4.711
4.710
4.712
4.710
4.711
4.721
4.727
4.727
4.727
4.724
4.725
4.726
4.719
4.713
4.705
4.701
4.711
4.716
4.722
4.726
4.723
4.718
4.719
4.713
4.706
4.712
4.716
4.712
4.706
4.715
4.723
4.729
4.728
4.729
4.728
4.731
4.728
4.731
4.730
4.731
4.727
4.723
4.723
4.721
4.730
4.737
4.736
4.731
4.725
4.727
4.725
4.729
4.730
4.729
4.730
4.727
4.720
4.718
4.727
4.729
4.731
4.735
4.728
4.724
4.725
4.726
4.727
4.727
4.723
4.729
4.730
4.727
4.722
4.727
4.736
4.745
4.746
4.742
4.744
4.742
4.749
4.748
4.747
4.748
4.741
4.743
4.744
4.743
4.738
4.734
4.741
4.743
4.752
4.759
4.760
4.759
4.755
4.749
4.744
4.742
4.744
4.745
4.739
4.735
4.736
4.731
4.736
4.735
4.741
4.749
4.758
4.762
4.761
4.768
4.761
4.760
4.761
4.762
4.761
4.760
4.753
4.754
4.753
4.757
4.764
4.762
4.761
4.760
4.758
4.764
4.771
4.779
4.779
4.779
4.777
4.772
4.772
4.768
4.771
4.767
4.764
4.762
4.764
4.764
4.763
4.764
4.760
4.754
4.757
4.764
4.766
4.759
4.753
4.753
4.757
4.757
4.753
4.753
4.753
4.751
4.752
4.751
4.750
4.754
4.758
4.760
4.753
4.751
4.747
4.754
4.760
4.759
4.761
4.762
4.766
4.759
4.757
4.757
4.752
4.748
4.750
4.756
4.750
4.746
4.744
4.748
4.747
4.754
4.753
4.749
4.752
4.754
4.753
4.762
4.768
4.776
4.782
4.781
4.775
4.775
4.769
4.765
4.766
4.768
4.763
4.762
4.766
4.768
4.764
4.759
4.757
4.754
4.755
4.757
4.757
4.757
4.749
4.756
4.763
4.770
4.779
4.784
4.791
4.795
4.801
4.797
4.790
4.786
4.783
4.781
4.775
4.775
4.772
4.776
4.774
4.778
4.783
4.779
4.779
4.775
4.775
4.775
4.768
4.773
4.777
4.776
4.771
4.778
4.785
4.792
4.798
4.805
4.810
4.803
4.799
4.803
4.802
4.803
4.802
4.803
4.804
4.800
4.794
4.795
4.794
4.792
4.785
4.786
4.785
4.784
4.783
4.786
4.794
4.792
4.783
4.784
4.785
4.784
4.790
4.797
4.802
4.805
4.799
4.792
4.793
4.789
4.788
4.789
4.788
4.786
4.788
4.787
4.783
4.790
4.786
4.784
4.788
4.790
4.788
4.784
4.782
4.781
4.777
4.775
4.774
4.779
4.779
4.776
4.775
4.783
4.790
4.795
4.801
4.808
4.813
4.817
4.816
4.812
4.812
4.806
4.802
4.806
4.809
4.808
4.804
4.801
4.805
4.806
4.802
4.801
4.799
4.797
4.798
4.803
4.807
4.809
4.804
4.800
4.798
4.798
4.794
4.798
4.798
4.798
4.799
4.798
4.799
4.801
4.807
4.812
4.818
4.823
4.831
4.835
4.834
4.833
4.834
4.828
4.829
4.835
4.837
4.836
4.838
4.841
4.834
4.838
4.832
4.828
4.823
4.816
4.813
4.812
4.812
4.811
4.815
4.808
4.807
4.805
4.804
4.803
4.810
4.816
4.823
4.820
4.815
4.814
4.815
4.808
4.815
4.819
4.816
4.814
4.815
4.809
4.810
4.805
4.802
4.806
4.809
4.806
4.802
4.798
4.796
4.794
4.799
4.800
4.801
4.794
4.793
4.789
4.788
4.787
4.785
4.790
4.793
4.792
4.794
4.792
4.790
4.789
4.790
4.789
4.786
4.783
4.783
4.786
4.786
4.792
4.798
4.800
4.799
4.801
4.804
4.805
4.807
4.808
4.809
4.805
4.802
4.800
4.798
4.795
4.801
4.801
4.799
4.797
4.799
4.798
4.798
4.798
4.798
4.800
4.796
4.794
4.791
4.795
4.793
4.787
4.788
4.789
4.790
4.786
4.783
4.784
4.788
4.787
4.786
4.783
4.782
4.784
4.782
4.776
4.779
4.784
4.790
4.794
4.799
4.805
4.810
4.809
4.807
4.806
4.805
4.806
4.805
4.806
4.805
4.803
4.804
4.803
4.810
4.808
4.815
4.817
4.816
4.812
4.815
4.812
4.810
4.808
4.805
4.806
4.809
4.803
4.801
4.797
4.793
4.795
4.791
4.789
4.790
4.792
4.793
4.794
4.798
4.795
4.794
4.790
4.791
4.787
4.785
4.786
4.780
4.778
4.779
4.779
4.785
4.790
4.794
4.798
4.804
4.808
4.813
4.812
4.807
4.806
4.802
4.801
4.799
4.805
4.802
4.801
4.805
4.811
4.807
4.801
4.801
4.800
4.799
4.795
4.794
4.794
4.796
4.795
4.793
4.787
4.786
4.792
4.796
4.792
4.796
4.795
4.798
4.794
4.798
4.794
4.790
4.794
4.788
4.792
4.793
4.795
4.793
4.787
4.790
4.792
