2.989
3.324
3.502
3.635
3.710
3.778
3.810
3.889
3.875
3.924
3.971
4.008
4.049
4.079
4.013
4.012
4.024
4.049
4.067
4.083
4.092
4.111
4.122
4.141
4.146
4.159
4.166
4.174
4.193
4.207
4.203
4.222
4.233
4.241
4.238
4.246
4.252
4.268
4.277
4.286
4.274
4.284
4.297
4.299
4.312
4.316
4.324
4.334
4.325
4.319
4.327
4.336
4.337
4.348
4.358
4.363
4.370
4.364
4.381
4.390
4.392
4.396
4.381
4.371
4.376
4.391
4.391
4.402
4.395
4.401
4.403
4.414
4.416
4.422
4.430
4.437
4.430
4.427
4.435
4.443
4.452
4.450
4.460
4.460
4.471
4.464
4.468
4.460
4.467
4.465
4.444
4.439
4.450
4.455
4.458
4.460
4.466
4.471
4.484
4.462
4.471
4.467
4.471
4.472
4.474
4.483
4.489
4.486
4.498
4.494
4.497
4.490
4.508
4.509
4.510
4.518
4.515
4.502
4.506
4.512
4.500
4.520
4.511
4.510
4.525
4.521
4.536
4.528
4.539
4.538
4.545
4.538
4.541
4.536
4.550
4.540
4.558
4.553
4.560
4.561
4.565
4.563
4.561
4.562
4.556
4.562
4.556
4.561
4.555
4.562
4.561
4.559
4.568
4.573
4.575
4.578
4.576
4.589
4.594
4.586
4.595
4.599
4.594
4.602
4.596
4.593
4.600
4.588
4.577
4.565
4.560
4.566
4.557
4.558
4.567
4.557
4.559
4.576
4.568
4.564
4.570
4.585
4.583
4.581
4.583
4.588
4.591
4.579
4.593
4.584
4.569
4.575
4.575
4.568
4.571
4.577
4.572
4.565
4.562
4.573
4.573
4.572
4.571
4.572
4.585
4.589
4.585
4.581
4.585
4.597
4.594
4.592
4.583
4.593
4.597
4.590
4.592
4.582
4.598
4.600
4.597
4.596
4.596
4.600
4.618
4.616
4.613
4.614
4.606
4.612
4.620
4.605
4.602
4.602
4.602
4.617
4.618
4.607
4.601
4.599
4.606
4.624
4.616
4.616
4.620
4.614
4.612
4.623
4.633
4.625
4.614
4.620
4.617
4.615
4.633
4.635
4.637
4.636
4.634
4.631
4.638
4.637
4.655
4.647
4.643
4.650
4.646
4.641
4.642
4.652
4.661
4.659
4.655
4.646
4.646
4.644
4.643
4.646
4.636
4.626
4.624
4.622
4.624
4.627
4.643
4.639
4.636
4.624
4.618
4.611
4.618
4.620
4.634
4.639
4.632
4.629
4.630
4.622
4.627
4.631
4.628
4.637
4.650
4.649
4.644
4.639
4.637
4.632
4.625
4.630
4.629
4.644
4.655
4.642
4.632
4.630
4.627
4.629
4.627
4.623
4.628
4.642
4.653
4.654
4.653
4.651
4.646
4.643
4.646
4.653
4.647
4.652
4.645
4.658
4.667
4.665
4.660
4.661
4.660
4.659
4.658
4.645
4.637
4.643
4.650
4.664
4.677
4.670
4.671
4.668
4.666
4.669
4.669
4.669
4.668
4.667
4.661
4.668
4.671
4.684
4.692
4.698
4.692
4.682
4.685
4.678
4.673
4.677
4.673
4.670
4.675
4.678
4.679
4.691
4.692
4.687
4.682
4.673
4.668
4.661
4.660
4.662
4.660
4.662
4.662
4.661
4.674
4.677
4.678
4.669
4.662
4.669
4.661
4.663
4.666
4.665
4.662
4.656
4.662
4.663
4.661
4.667
4.679
4.690
4.693
4.683
4.680
4.681
4.685
4.679
4.674
4.669
4.665
4.670
4.673
4.677
4.675
4.669
4.669
4.680
4.691
4.702
4.708
4.697
4.695
4.696
4.699
4.694
4.696
4.696
4.690
4.685
4.689
4.687
4.687
4.691
4.693
4.697
4.698
4.697
4.708
4.718
4.721
4.723
4.722
4.728
4.717
4.720
4.711
4.704
4.710
4.712
4.714
4.712
4.701
4.702
4.693
4.693
4.687
4.696
4.706
4.713
4.714
4.718
4.711
4.710
4.713
4.706
4.702
4.700
4.699
4.701
4.699
4.699
4.689
4.699
4.700
4.701
4.697
4.695
4.691
4.696
4.706
4.715
4.725
4.735
4.728
4.728
4.727
4.723
4.727
4.725
4.728
4.722
4.718
4.722
4.728
4.727
4.732
4.728
4.725
4.722
4.713
4.711
4.715
4.715
4.717
4.723
4.725
4.732
4.740
4.750
4.755
4.758
4.749
4.747
4.745
4.740
4.733
4.739
4.736
4.739
4.735
4.741
4.741
4.738
4.734
4.737
4.731
4.727
4.730
4.734
4.734
4.731
4.731
4.731
4.731
4.730
4.725
4.722
4.721
4.726
4.728
4.726
4.719
4.715
4.717
4.714
4.713
4.715
4.712
4.716
4.718
4.712
4.707
4.704
4.713
4.714
4.713
4.711
4.705
4.699
4.698
4.707
4.715
4.723
4.732
4.734
4.736
4.727
4.721
4.712
4.709
4.712
4.708
4.709
4.720
4.723
4.723
4.712
4.703
4.701
4.696
4.700
4.698
4.695
4.694
4.693
4.691
4.689
4.692
4.695
4.695
4.687
4.690
4.699
4.704
4.712
4.720
4.728
4.735
4.737
4.731
4.734
4.733
4.733
4.734
4.732
4.732
4.727
4.732
4.735
4.729
4.722
4.715
4.708
4.709
4.701
4.704
4.705
4.705
4.701
4.699
4.697
4.689
4.692
4.693
4.684
4.684
4.683
4.685
4.686
4.693
4.701
4.708
4.715
4.723
4.730
4.726
4.730
4.725
4.726
4.725
4.723
4.731
4.734
4.731
4.733
4.736
4.732
4.734
4.738
4.733
4.738
4.736
4.728
4.725
4.722
4.718
4.717
4.711
4.711
4.708
4.701
4.696
4.700
4.705
4.702
4.710
4.708
4.708
4.709
4.706
4.699
4.692
4.698
4.705
4.712
4.718
4.725
4.732
4.739
4.740
4.735
4.730
4.733
4.735
4.733
4.728
4.730
4.732
4.732
4.726
4.720
4.718
4.718
4.716
4.721
4.731
4.725
4.724
4.726
4.730
4.723
4.718
4.718
4.719
4.722
4.726
4.723
4.717
4.714
4.722
4.714
4.722
4.719
4.719
4.717
4.710
4.707
4.707
4.702
4.698
4.703
4.701
4.708
4.714
4.721
4.727
4.734
4.740
4.747
4.750
4.752
4.749
4.750
4.750
4.752
4.752
4.750
4.753
4.748
4.743
4.742
4.739
4.742
4.743
4.737
4.727
4.727
4.732
4.733
4.735
4.736
4.736
4.736
4.733
4.734
4.725
4.724
4.720
4.723
4.732
4.737
4.734
4.738
4.731
4.736
4.727
4.720
4.721
4.715
4.714
4.709
4.716
4.716
4.713
4.708
4.708
4.703
4.710
4.708
4.714
4.720
4.726
4.732
4.738
4.744
4.750
4.756
4.762
4.763
4.760
4.763
4.758
4.762
4.769
4.767
4.767
4.761
4.763
4.758
4.762
4.769
4.766
4.764
4.760
4.762
4.762
4.757
4.750
4.745
4.749
4.749
4.750
4.753
4.747
4.747
4.741
4.740
4.736
4.731
4.734
4.734
4.742
4.748
4.751
4.748
4.751
4.754
4.747
4.744
4.745
4.744
4.740
4.738
4.737
4.731
4.730
4.735
4.743
4.744
4.747
4.746
4.739
4.735
4.738
4.739
4.735
4.740
4.737
4.737
4.739
4.745
4.750
4.756
4.761
4.767
4.772
4.778
4.783
4.789
4.794
4.800
4.805
4.796
4.791
4.790
4.790
4.792
4.793
4.791
4.793
4.792
4.793
4.790
4.789
4.788
4.792
4.785
4.786
4.783
4.777
4.773
4.768
4.763
4.757
4.763
4.770
4.776
4.780
4.780
4.776
4.772
4.773
4.767
4.768
4.774
4.773
4.771
4.767
4.761
4.756
4.757
4.754
4.752
4.751
4.753
4.751
4.748
4.750
4.749
4.750
4.749
4.744
4.740
4.735
4.731
4.732
4.728
4.730
4.726
4.721
4.721
4.719
4.715
4.720
4.725
4.730
4.735
4.740
4.745
4.750
4.755
4.760
4.765
4.771
4.774
4.777
4.781
4.781
4.779
4.777
4.774
4.774
4.770
4.772
4.771
4.771
4.773
4.773
4.771
4.771
4.769
4.768
4.765
4.766
4.764
4.759
4.756
4.756
4.755
4.757
4.757
4.754
4.754
4.756
4.749
4.748
4.748
4.752
4.745
4.745
4.745
4.746
4.744
4.751
4.743
4.737
4.736
4.740
4.740
4.735
4.740
4.747
4.743
4.745
4.743
4.742
4.743
4.750
4.757
4.757
4.756
4.753
4.753
4.747
4.740
4.738
4.742
