2.988
3.321
3.506
3.625
3.689
3.743
3.834
3.832
3.882
3.935
3.980
4.025
4.012
3.963
3.992
4.003
4.032
4.049
4.060
4.075
4.094
4.105
4.121
4.130
4.144
4.162
4.161
4.176
4.189
4.204
4.195
4.210
4.220
4.233
4.251
4.235
4.245
4.258
4.266
4.280
4.283
4.292
4.290
4.281
4.299
4.307
4.302
4.316
4.330
4.331
4.333
4.349
4.349
4.368
4.358
4.335
4.346
4.351
4.361
4.367
4.360
4.370
4.372
4.380
4.392
4.393
4.390
4.392
4.398
4.413
4.415
4.416
4.427
4.433
4.432
4.440
4.434
4.440
4.432
4.408
4.416
4.424
4.425
4.431
4.437
4.445
4.440
4.435
4.430
4.435
4.447
4.444
4.442
4.452
4.467
4.453
4.466
4.460
4.471
4.477
4.482
4.479
4.471
4.473
4.473
4.472
4.481
4.487
4.481
4.495
4.494
4.501
4.509
4.504
4.510
4.500
4.513
4.512
4.519
4.522
4.517
4.529
4.531
4.534
4.541
4.533
4.524
4.538
4.522
4.531
4.530
4.532
4.533
4.536
4.547
4.540
4.553
4.555
4.552
4.560
4.557
4.562
4.567
4.557
4.571
4.569
4.560
4.547
4.534
4.530
4.523
4.538
4.523
4.524
4.539
4.531
4.529
4.553
4.550
4.548
4.550
4.561
4.551
4.554
4.565
4.548
4.536
4.541
4.546
4.541
4.543
4.533
4.536
4.534
4.545
4.541
4.532
4.541
4.564
4.556
4.546
4.543
4.568
4.565
4.556
4.552
4.565
4.564
4.561
4.553
4.558
4.577
4.569
4.577
4.569
4.570
4.591
4.587
4.584
4.583
4.580
4.577
4.578
4.571
4.566
4.577
4.579
4.573
4.575
4.572
4.572
4.592
4.592
4.594
4.586
4.585
4.584
4.595
4.594
4.596
4.592
4.587
4.588
4.609
4.617
4.619
4.615
4.615
4.603
4.606
4.626
4.627
4.620
4.613
4.614
4.610
4.617
4.628
4.626
4.625
4.619
4.615
4.608
4.608
4.606
4.599
4.600
4.595
4.592
4.597
4.600
4.601
4.596
4.591
4.584
4.582
4.586
4.603
4.612
4.613
4.615
4.613
4.606
4.603
4.599
4.601
4.617
4.613
4.612
4.615
4.611
4.611
4.606
4.593
4.607
4.610
4.614
4.623
4.612
4.610
4.603
4.605
4.607
4.603
4.619
4.635
4.637
4.631
4.637
4.626
4.621
4.615
4.617
4.614
4.621
4.628
4.636
4.625
4.628
4.628
4.626
4.627
4.626
4.624
4.616
4.627
4.642
4.657
4.659
4.661
4.653
4.653
4.644
4.645
4.642
4.641
4.638
4.638
4.650
4.664
4.662
4.661
4.658
4.655
4.653
4.649
4.644
4.645
4.640
4.630
4.644
4.658
4.653
4.648
4.641
4.645
4.641
4.630
4.627
4.620
4.619
4.618
4.627
4.640
4.653
4.656
4.657
4.656
4.656
4.662
4.656
4.646
4.639
4.628
4.640
4.638
4.637
4.635
4.647
4.660
4.667
4.668
4.661
4.669
4.672
4.671
4.667
4.656
4.653
4.650
4.649
4.648
4.649
4.645
4.651
4.663
4.676
4.688
4.691
4.691
4.691
4.687
4.676
4.676
4.671
4.677
4.679
4.676
4.682
4.675
4.671
4.664
4.667
4.673
4.684
4.692
4.689
4.697
4.695
4.695
4.685
4.674
4.669
4.664
4.665
4.660
4.656
4.662
4.660
4.666
4.658
4.663
4.674
4.686
4.693
4.696
4.687
4.688
4.691
4.687
4.688
4.693
4.686
4.687
4.687
4.685
4.683
4.681
4.680
4.673
4.670
4.674
4.682
4.688
4.688
4.698
4.709
4.720
4.731
4.726
4.733
4.732
4.726
4.719
4.711
4.710
4.711
4.702
4.708
4.705
4.702
4.698
4.696
4.692
4.697
4.695
4.691
4.694
4.698
4.708
4.718
4.728
4.724
4.715
4.722
4.716
4.710
4.704
4.698
4.692
4.686
4.681
4.676
4.676
4.668
4.667
4.676
4.677
4.674
4.674
4.678
4.681
4.682
4.692
4.695
4.695
4.692
4.694
4.690
4.688
4.681
4.686
4.681
4.685
4.688
4.691
4.683
4.676
4.671
4.668
4.672
4.668
4.662
4.663
4.655
4.654
4.655
4.652
4.658
4.668
4.677
4.686
4.695
4.704
4.713
4.709
4.705
4.706
4.703
4.702
4.704
4.701
4.692
4.697
4.694
4.697
4.688
4.685
4.684
4.682
4.687
4.693
4.692
4.685
4.677
4.669
4.665
4.661
4.653
4.651
4.659
4.668
4.676
4.685
4.693
4.700
4.704
4.699
4.694
4.684
4.683
4.692
4.691
4.692
4.689
4.699
4.689
4.691
4.692
4.691
4.696
4.693
4.692
4.691
4.693
4.684
4.688
4.685
4.678
4.677
4.672
4.678
4.678
4.683
4.673
4.672
4.675
4.671
4.673
4.681
4.689
4.697
4.700
4.702
4.699
4.698
4.696
4.698
4.697
4.699
4.700
4.702
4.699
4.700
4.698
4.690
4.684
4.689
4.694
4.692
4.687
4.689
4.693
4.685
4.678
4.679
4.679
4.682
4.677
4.678
4.684
4.681
4.687
4.692
4.686
4.680
4.680
4.678
4.678
4.669
4.677
4.684
4.692
4.699
4.707
4.709
4.720
4.719
4.712
4.711
4.707
4.709
4.711
4.713
4.716
4.711
4.706
4.704
4.702
4.709
4.711
4.702
4.698
4.702
4.697
4.700
4.701
4.699
4.687
4.688
4.684
4.684
4.693
4.697
4.696
4.704
4.701
4.696
4.700
4.697
4.695
4.690
4.694
4.694
4.692
4.691
4.687
4.679
4.677
4.684
4.691
4.698
4.705
4.712
4.719
4.726
4.731
4.729
4.727
4.721
4.721
4.722
4.728
4.727
4.725
4.722
4.732
4.730
4.739
4.746
4.741
4.732
4.728
4.725
4.721
4.718
4.713
4.714
4.711
4.712
4.719
4.721
4.714
4.710
4.706
4.707
4.706
4.706
4.706
4.700
4.701
4.702
4.705
4.707
4.709
4.706
4.705
4.706
4.701
4.705
4.714
4.711
4.707
4.709
4.704
4.699
4.702
4.703
4.705
4.710
4.716
4.723
4.729
4.735
4.742
4.748
4.755
4.761
4.762
4.755
4.761
4.761
4.760
4.758
4.761
4.762
4.767
4.762
4.762
4.757
4.752
4.751
4.747
4.751
4.751
4.744
4.741
4.739
4.741
4.744
4.747
4.740
4.749
4.750
4.752
4.747
4.741
4.735
4.737
4.745
4.754
4.747
4.741
4.741
4.735
4.739
4.734
4.727
4.720
4.718
4.717
4.709
4.705
4.714
4.716
4.715
4.711
4.710
4.714
4.721
4.717
4.721
4.715
4.711
4.709
4.706
4.712
4.718
4.724
4.730
4.736
4.735
4.739
4.742
4.744
4.747
4.754
4.751
4.750
4.747
4.744
4.746
4.745
4.745
4.744
4.742
4.743
4.740
4.737
4.736
4.735
4.728
4.729
4.724
4.725
4.718
4.721
4.718
4.719
4.714
4.708
4.703
4.708
4.709
4.714
4.713
4.713
4.719
4.723
4.722
4.715
4.711
4.709
4.708
4.711
4.710
4.707
4.708
4.716
4.720
4.717
4.719
4.710
4.709
4.708
4.706
4.706
4.707
4.711
4.715
4.717
4.714
4.709
4.705
4.700
4.695
4.690
4.690
4.691
4.694
4.690
4.692
4.693
4.697
4.702
4.707
4.713
4.718
4.723
4.729
4.734
4.739
4.745
4.750
4.755
4.761
4.766
4.765
4.764
4.765
4.760
4.765
4.761
4.763
4.768
4.765
4.763
4.761
4.752
4.750
4.753
4.745
4.745
4.750
4.746
4.746
4.751
4.759
4.759
4.753
4.757
4.760
4.763
4.759
4.758
4.758
4.758
4.753
4.750
4.756
4.751
4.750
4.755
4.750
4.747
4.749
4.754
4.757
4.757
4.753
4.753
4.754
4.754
4.755
4.754
4.757
4.749
4.745
4.745
4.751
4.752
4.745
4.744
4.739
4.741
4.739
4.733
4.732
4.735
4.743
4.744
4.739
4.742
4.737
4.739
4.739
4.735
4.732
4.728
4.724
4.721
4.717
4.718
4.718
4.717
4.717
4.714
4.710
4.715
4.715
4.723
4.726
4.724
4.723
4.720
4.719
4.724
4.729
4.733
4.738
4.743
4.748
4.753
4.757
4.762
4.767
4.772
4.769
4.762
4.761
4.756
4.759
4.755
4.757
4.755
4.757
4.755
4.750
4.751
4.746
