2.994
3.337
3.509
3.625
3.714
3.774
3.833
3.869
3.934
3.940
3.986
4.029
4.030
4.034
4.065
4.094
4.118
4.141
4.164
4.184
4.203
4.179
4.134
4.146
4.159
4.166
4.173
4.192
4.197
4.212
4.216
4.229
4.233
4.242
4.258
4.255
4.268
4.278
4.287
4.283
4.292
4.307
4.317
4.308
4.317
4.327
4.331
4.344
4.334
4.344
4.347
4.357
4.362
4.371
4.373
4.366
4.375
4.379
4.386
4.393
4.397
4.403
4.407
4.412
4.414
4.406
4.414
4.415
4.416
4.426
4.433
4.433
4.438
4.442
4.451
4.450
4.452
4.462
4.463
4.445
4.454
4.450
4.449
4.456
4.463
4.467
4.476
4.472
4.474
4.478
4.488
4.494
4.495
4.497
4.496
4.505
4.499
4.510
4.510
4.522
4.518
4.521
4.503
4.497
4.498
4.502
4.506
4.505
4.515
4.522
4.518
4.518
4.526
4.524
4.521
4.524
4.526
4.532
4.537
4.543
4.545
4.547
4.548
4.549
4.556
4.558
4.548
4.554
4.562
4.560
4.558
4.565
4.564
4.570
4.577
4.576
4.584
4.582
4.581
4.587
4.581
4.593
4.588
4.587
4.589
4.599
4.591
4.579
4.567
4.566
4.564
4.568
4.578
4.571
4.572
4.582
4.580
4.581
4.583
4.582
4.584
4.588
4.588
4.598
4.591
4.593
4.594
4.590
4.589
4.587
4.589
4.592
4.591
4.598
4.594
4.604
4.600
4.607
4.607
4.610
4.610
4.614
4.619
4.615
4.618
4.614
4.613
4.615
4.624
4.618
4.632
4.628
4.632
4.629
4.630
4.634
4.622
4.621
4.619
4.634
4.633
4.629
4.629
4.621
4.632
4.631
4.633
4.637
4.633
4.637
4.641
4.636
4.649
4.644
4.643
4.655
4.657
4.651
4.662
4.656
4.652
4.664
4.654
4.653
4.660
4.661
4.657
4.667
4.668
4.666
4.673
4.672
4.673
4.672
4.679
4.677
4.671
4.686
4.677
4.677
4.677
4.669
4.665
4.673
4.679
4.678
4.676
4.683
4.674
4.673
4.674
4.681
4.673
4.670
4.679
4.683
4.684
4.678
4.684
4.689
4.690
4.691
4.690
4.702
4.695
4.694
4.693
4.702
4.704
4.707
4.704
4.700
4.710
4.703
4.707
4.705
4.699
4.694
4.688
4.681
4.674
4.670
4.666
4.677
4.665
4.666
4.666
4.667
4.681
4.683
4.679
4.677
4.673
4.684
4.685
4.684
4.685
4.675
4.684
4.686
4.684
4.684
4.682
4.683
4.692
4.691
4.687
4.686
4.688
4.692
4.703
4.705
4.704
4.707
4.698
4.699
4.709
4.700
4.692
4.684
4.685
4.688
4.690
4.691
4.687
4.688
4.687
4.691
4.690
4.688
4.677
4.673
4.682
4.689
4.695
4.691
4.684
4.681
4.677
4.691
4.692
4.689
4.684
4.689
4.684
4.688
4.695
4.699
4.698
4.700
4.701
4.699
4.698
4.699
4.706
4.705
4.703
4.707
4.703
4.702
4.703
4.703
4.707
4.703
4.706
4.700
4.698
4.700
4.701
4.711
4.715
4.711
4.714
4.710
4.709
4.707
4.704
4.711
4.721
4.727
4.726
4.722
4.723
4.722
4.725
4.721
4.720
4.732
4.734
4.733
4.729
4.721
4.717
4.707
4.712
4.722
4.728
4.725
4.721
4.721
4.721
4.719
4.717
4.716
4.723
4.727
4.720
4.721
4.721
4.722
4.718
4.721
4.721
4.721
4.729
4.736
4.734
4.732
4.734
4.736
4.734
4.733
4.729
4.729
4.733
4.741
4.737
4.738
4.729
4.733
4.733
4.730
4.736
4.733
4.734
4.736
4.747
4.751
4.755
4.751
4.751
4.751
4.751
4.747
4.745
4.749
4.755
4.752
4.758
4.765
4.759
4.760
4.759
4.755
4.756
4.758
4.755
4.754
4.747
4.752
4.761
4.768
4.767
4.768
4.766
4.762
4.755
4.749
4.744
4.738
4.739
4.743
4.744
4.744
4.748
4.746
4.739
4.735
4.734
4.736
4.734
4.732
4.733
4.743
4.751
4.746
4.739
4.732
4.733
4.729
4.726
4.727
4.725
4.725
4.725
4.729
4.736
4.746
4.747
4.747
4.744
4.744
4.744
4.741
4.736
4.736
4.736
4.736
4.734
4.736
4.736
4.743
4.753
4.757
4.762
4.762
4.761
4.763
4.755
4.749
4.748
4.744
4.742
4.741
4.744
4.740
4.744
4.751
4.759
4.762
4.759
4.755
4.761
4.754
4.747
4.749
4.748
4.744
4.744
4.736
4.733
4.735
4.744
4.751
4.753
4.760
4.762
4.762
4.756
4.754
4.753
4.754
4.758
4.752
4.751
4.755
4.755
4.749
4.747
4.747
4.751
4.760
4.767
4.774
4.772
4.776
4.772
4.773
4.777
4.776
4.775
4.766
4.764
4.763
4.762
4.760
4.751
4.757
4.762
4.760
4.766
4.773
4.780
4.773
4.769
4.771
4.767
4.768
4.764
4.766
4.769
4.766
4.769
4.768
4.767
4.760
4.762
4.763
4.764
4.763
4.770
4.777
4.784
4.787
4.791
4.788
4.788
4.788
4.791
4.792
4.791
4.788
4.789
4.784
4.783
4.785
4.786
4.784
4.784
4.776
4.775
4.777
4.780
4.787
4.794
4.796
4.792
4.796
4.791
4.788
4.797
4.798
4.797
4.795
4.789
4.784
4.778
4.779
4.778
4.779
4.777
4.774
4.770
4.770
4.775
4.784
4.789
4.785
4.783
4.781
4.784
4.785
4.783
4.779
4.783
4.782
4.781
4.782
4.783
4.781
4.777
4.779
4.780
4.773
4.767
4.762
4.762
4.771
4.777
4.776
4.781
4.779
4.783
4.784
4.786
4.788
4.783
4.779
4.777
4.777
4.781
4.779
4.780
4.779
4.773
4.777
4.777
4.776
4.783
4.781
4.781
4.785
4.784
4.779
4.780
4.785
4.791
4.792
4.794
4.796
4.794
4.792
4.791
4.793
4.795
4.792
4.788
4.787
4.788
4.785
4.784
4.787
4.784
4.788
4.786
4.784
4.784
4.785
4.788
4.784
4.783
4.781
4.788
4.790
4.792
4.799
4.805
4.810
4.818
4.812
4.808
4.810
4.811
4.806
4.802
4.801
4.803
4.801
4.800
4.801
4.800
4.801
4.805
4.804
4.802
4.803
4.807
4.806
4.802
4.798
4.802
4.806
4.807
4.804
4.799
4.801
4.803
4.810
4.814
4.821
4.827
4.826
4.824
4.826
4.830
4.826
4.822
4.823
4.821
4.818
4.814
4.810
4.808
4.815
4.819
4.815
4.816
4.817
4.811
4.809
4.807
4.809
4.811
4.810
4.805
4.810
4.807
4.807
4.805
4.804
4.808
4.814
4.819
4.820
4.819
4.821
4.821
4.814
4.813
4.807
4.803
4.807
4.808
4.809
4.811
4.812
4.818
4.817
4.811
4.812
4.816
4.810
4.810
4.807
4.807
4.807
4.800
4.799
4.800
4.801
4.802
4.799
4.800
4.799
4.799
4.804
4.810
4.815
4.821
4.825
4.830
4.836
4.838
4.834
4.836
4.836
4.830
4.833
4.836
4.836
4.833
4.828
4.824
4.826
4.827
4.829
4.829
4.829
4.829
4.825
4.822
4.825
4.829
4.829
4.830
4.833
4.825
4.825
4.829
4.826
4.832
4.829
4.829
4.829
4.824
4.823
4.824
4.828
4.822
4.828
4.833
4.839
4.843
4.848
4.855
4.861
4.866
4.864
4.863
4.858
4.857
4.858
4.854
4.848
4.841
4.848
4.847
4.845
4.847
4.848
4.843
4.839
4.835
4.836
4.835
4.836
4.835
4.844
4.840
4.840
4.838
4.834
4.833
4.831
4.833
4.836
4.832
4.829
4.825
4.823
4.821
4.820
4.824
4.829
4.835
4.839
4.836
4.831
4.827
4.821
4.819
4.821
4.822
4.818
4.818
4.820
4.822
4.820
4.822
4.817
4.816
4.821
4.825
4.821
4.818
4.820
4.821
4.818
4.818
4.815
4.816
4.818
4.819
4.817
4.818
4.815
4.808
4.809
4.816
4.817
4.814
4.810
4.808
4.804
4.800
4.799
4.802
4.807
4.813
4.818
4.822
4.821
4.827
4.834
4.835
4.833
4.830
4.831
4.830
4.828
4.824
4.825
4.825
4.825
4.829
4.826
4.827
4.826
4.824
4.823
4.824
4.825
4.819
4.815
4.814
4.812
4.808
4.807
4.810
4.807
4.802
4.807
4.813
4.817
4.814
4.810
4.808
4.807
4.803
4.799
