2.994
3.335
3.504
3.622
3.684
3.754
3.832
3.848
3.885
3.934
3.984
4.020
4.029
3.958
3.989
4.009
4.028
4.047
4.060
4.082
4.094
4.099
4.119
4.141
4.140
4.163
4.167
4.174
4.187
4.203
4.198
4.213
4.223
4.232
4.243
4.243
4.236
4.256
4.260
4.275
4.279
4.291
4.310
4.284
4.292
4.300
4.312
4.312
4.320
4.332
4.338
4.343
4.354
4.356
4.368
4.356
4.343
4.348
4.355
4.361
4.366
4.366
4.366
4.383
4.385
4.390
4.404
4.399
4.393
4.408
4.411
4.422
4.424
4.427
4.438
4.440
4.435
4.441
4.451
4.439
4.415
4.418
4.428
4.424
4.427
4.431
4.444
4.447
4.428
4.434
4.437
4.444
4.445
4.460
4.459
4.455
4.470
4.456
4.469
4.474
4.474
4.486
4.489
4.485
4.473
4.476
4.479
4.481
4.484
4.491
4.485
4.502
4.496
4.502
4.512
4.506
4.507
4.502
4.516
4.512
4.525
4.521
4.530
4.527
4.536
4.531
4.546
4.532
4.531
4.533
4.527
4.530
4.530
4.526
4.544
4.541
4.552
4.551
4.543
4.561
4.562
4.564
4.568
4.565
4.575
4.568
4.570
4.572
4.565
4.553
4.540
4.537
4.530
4.531
4.535
4.535
4.534
4.546
4.543
4.534
4.557
4.556
4.547
4.558
4.564
4.558
4.557
4.560
4.544
4.541
4.545
4.552
4.539
4.546
4.537
4.539
4.536
4.550
4.545
4.537
4.541
4.566
4.558
4.549
4.546
4.566
4.572
4.557
4.553
4.561
4.571
4.564
4.563
4.561
4.576
4.575
4.576
4.574
4.573
4.585
4.597
4.585
4.590
4.585
4.586
4.584
4.576
4.572
4.575
4.583
4.579
4.579
4.583
4.577
4.582
4.599
4.599
4.599
4.588
4.594
4.591
4.599
4.603
4.599
4.597
4.588
4.596
4.613
4.627
4.621
4.620
4.618
4.607
4.609
4.629
4.626
4.623
4.612
4.620
4.615
4.618
4.636
4.633
4.634
4.619
4.619
4.608
4.616
4.609
4.603
4.605
4.599
4.595
4.600
4.600
4.604
4.599
4.593
4.588
4.592
4.590
4.598
4.615
4.617
4.613
4.619
4.615
4.605
4.605
4.601
4.611
4.620
4.615
4.621
4.617
4.620
4.615
4.600
4.597
4.613
4.613
4.622
4.623
4.619
4.615
4.606
4.613
4.610
4.607
4.623
4.639
4.642
4.635
4.640
4.625
4.627
4.619
4.623
4.615
4.627
4.637
4.640
4.630
4.632
4.638
4.628
4.636
4.631
4.631
4.620
4.625
4.640
4.654
4.655
4.665
4.660
4.656
4.651
4.650
4.645
4.652
4.641
4.641
4.645
4.659
4.673
4.668
4.664
4.655
4.658
4.655
4.650
4.652
4.645
4.634
4.637
4.651
4.660
4.657
4.649
4.640
4.649
4.635
4.634
4.625
4.623
4.621
4.623
4.630
4.643
4.656
4.664
4.661
4.660
4.661
4.666
4.659
4.648
4.637
4.630
4.642
4.643
4.641
4.635
4.647
4.660
4.673
4.674
4.675
4.672
4.673
4.674
4.671
4.663
4.657
4.656
4.653
4.650
4.652
4.650
4.658
4.660
4.672
4.684
4.696
4.697
4.695
4.685
4.682
4.678
4.678
4.678
4.686
4.681
4.685
4.681
4.674
4.676
4.672
4.669
4.678
4.689
4.692
4.694
4.702
4.701
4.691
4.681
4.671
4.673
4.670
4.671
4.664
4.659
4.662
4.665
4.672
4.659
4.664
4.675
4.686
4.697
4.703
4.694
4.694
4.692
4.691
4.693
4.700
4.696
4.690
4.689
4.693
4.687
4.684
4.684
4.682
4.681
4.682
4.686
4.686
4.688
4.695
4.706
4.716
4.727
4.738
4.738
4.731
4.732
4.724
4.715
4.710
4.715
4.705
4.708
4.714
4.706
4.708
4.702
4.703
4.697
4.699
4.698
4.699
4.692
4.701
4.711
4.721
4.729
4.723
4.719
4.720
4.714
4.708
4.703
4.697
4.691
4.685
4.680
4.679
4.680
4.674
4.675
4.679
4.684
4.678
4.677
4.681
4.687
4.681
4.691
4.700
4.704
4.701
4.699
4.697
4.691
4.686
4.687
4.686
4.685
4.691
4.694
4.692
4.683
4.677
4.678
4.675
4.672
4.667
4.670
4.659
4.657
4.660
4.655
4.657
4.663
4.672
4.681
4.690
4.699
4.708
4.717
4.712
4.710
4.708
4.708
4.707
4.708
4.698
4.693
4.699
4.700
4.702
4.694
4.692
4.689
4.688
4.693
4.699
4.691
4.683
4.676
4.668
4.667
4.665
4.663
4.657
4.659
4.667
4.675
4.684
4.692
4.701
4.704
4.703
4.697
4.687
4.690
4.690
4.696
4.698
4.694
4.699
4.696
4.692
4.697
4.698
4.699
4.703
4.702
4.696
4.699
4.692
4.689
4.691
4.683
4.683
4.680
4.680
4.678
4.683
4.679
4.672
4.684
4.677
4.674
4.677
4.684
4.692
4.700
4.708
4.705
4.704
4.706
4.703
4.702
4.702
4.707
4.702
4.703
4.708
4.706
4.703
4.692
4.692
4.689
4.698
4.695
4.690
4.693
4.694
4.688
4.688
4.686
4.683
4.687
4.682
4.680
4.687
4.684
4.687
4.696
4.694
4.686
4.683
4.684
4.680
4.670
4.674
4.682
4.689
4.696
4.704
4.704
4.715
4.725
4.717
4.711
4.716
4.712
4.711
4.715
4.718
4.718
4.713
4.711
4.709
4.709
4.714
4.712
4.702
4.700
4.703
4.700
4.705
4.702
4.696
4.696
4.693
4.692
4.690
4.693
4.702
4.700
4.704
4.706
4.700
4.705
4.705
4.698
4.695
4.695
4.699
4.697
4.693
4.691
4.684
4.679
4.683
4.690
4.697
4.703
4.710
4.717
4.724
4.731
4.732
4.732
4.729
4.724
4.722
4.727
4.732
4.731
4.728
4.729
4.737
4.737
4.744
4.746
4.739
4.732
4.731
4.729
4.724
4.718
4.719
4.718
4.713
4.718
4.723
4.720
4.713
4.717
4.709
4.708
4.708
4.706
4.710
4.705
4.707
4.706
4.711
4.709
4.713
4.715
4.710
4.714
4.705
4.705
4.714
4.714
4.713
4.712
4.708
4.706
4.704
4.708
4.709
4.710
4.715
4.721
4.728
4.734
4.740
4.747
4.753
4.759
4.766
4.762
4.762
4.767
4.767
4.765
4.763
4.767
4.769
4.767
4.764
4.761
4.759
4.759
4.751
4.756
4.758
4.752
4.750
4.744
4.744
4.745
4.752
4.749
4.749
4.752
4.751
4.752
4.745
4.740
4.741
4.742
4.746
4.757
4.753
4.749
4.744
4.743
4.740
4.734
4.728
4.727
4.720
4.718
4.714
4.710
4.713
4.723
4.721
4.713
4.713
4.719
4.724
4.725
4.726
4.722
4.716
4.711
4.706
4.711
4.717
4.722
4.728
4.734
4.740
4.739
4.744
4.741
4.749
4.756
4.755
4.756
4.752
4.749
4.753
4.748
4.746
4.751
4.746
4.746
4.746
4.745
4.741
4.742
4.736
4.731
4.728
4.727
4.727
4.724
4.724
4.727
4.724
4.716
4.710
4.710
4.714
4.714
4.715
4.720
4.714
4.723
4.728
4.724
4.719
4.715
4.716
4.711
4.714
4.716
4.713
4.707
4.715
4.722
4.722
4.722
4.717
4.715
4.715
4.711
4.709
4.712
4.715
4.717
4.718
4.717
4.715
4.708
4.704
4.698
4.695
4.692
4.692
4.696
4.693
4.698
4.695
4.698
4.699
4.704
4.709
4.715
4.720
4.725
4.731
4.736
4.741
4.746
4.752
4.757
4.762
4.767
4.769
4.769
4.765
4.766
4.767
4.765
4.766
4.774
4.771
4.763
4.764
4.758
4.751
4.754
4.754
4.753
4.753
4.752
4.749
4.750
4.758
4.762
4.762
4.761
4.764
4.766
4.765
4.765
4.767
4.765
4.759
4.752
4.755
4.759
4.759
4.759
4.754
4.746
4.751
4.757
4.759
4.761
4.759
4.755
4.756
4.758
4.757
4.761
4.760
4.756
4.754
4.749
4.751
4.753
4.756
4.750
4.745
4.743
4.744
4.740
4.740
4.738
4.740
4.746
4.749
4.746
4.746
4.741
4.742
4.738
4.735
4.732
4.728
4.724
4.721
4.717
4.718
4.725
4.720
4.718
4.721
4.718
4.717
4.718
4.722
4.729
4.726
4.730
4.726
4.720
4.722
4.727
4.732
4.737
4.741
4.746
4.751
4.756
