2.980
3.320
3.508
3.601
3.665
3.779
3.685
3.735
3.794
3.812
3.855
3.877
3.913
3.940
3.964
3.967
4.006
4.028
4.017
4.039
4.072
4.089
4.091
4.092
4.098
4.118
4.139
4.131
4.156
4.159
4.186
4.198
4.207
4.171
4.189
4.193
4.190
4.194
4.205
4.221
4.226
4.234
4.231
4.219
4.243
4.260
4.264
4.285
4.287
4.303
4.317
4.286
4.287
4.304
4.316
4.307
4.319
4.345
4.348
4.340
4.342
4.322
4.309
4.323
4.311
4.340
4.333
4.299
4.295
4.295
4.319
4.306
4.327
4.312
4.327
4.313
4.342
4.332
4.361
4.348
4.347
4.347
4.327
4.364
4.343
4.352
4.365
4.364
4.368
4.384
4.380
4.375
4.402
4.394
4.377
4.419
4.416
4.390
4.395
4.360
4.343
4.386
4.381
4.368
4.357
4.398
4.375
4.373
4.360
4.395
4.388
4.391
4.384
4.385
4.409
4.407
4.391
4.390
4.398
4.433
4.437
4.418
4.416
4.410
4.432
4.463
4.443
4.430
4.425
4.420
4.422
4.415
4.399
4.393
4.408
4.413
4.439
4.428
4.421
4.423
4.419
4.413
4.426
4.457
4.459
4.453
4.449
4.451
4.439
4.446
4.448
4.477
4.472
4.467
4.461
4.465
4.439
4.450
4.446
4.474
4.469
4.476
4.468
4.468
4.453
4.457
4.454
4.455
4.474
4.500
4.518
4.505
4.509
4.482
4.483
4.485
4.481
4.469
4.472
4.497
4.518
4.511
4.530
4.512
4.512
4.506
4.500
4.485
4.471
4.464
4.488
4.479
4.459
4.465
4.459
4.453
4.450
4.448
4.452
4.442
4.437
4.446
4.468
4.490
4.504
4.500
4.490
4.476
4.466
4.451
4.453
4.452
4.441
4.436
4.433
4.440
4.455
4.475
4.496
4.501
4.487
4.486
4.482
4.480
4.488
4.482
4.461
4.462
4.443
4.440
4.440
4.446
4.443
4.457
4.476
4.495
4.512
4.505
4.498
4.485
4.481
4.483
4.482
4.482
4.481
4.467
4.457
4.459
4.456
4.449
4.467
4.464
4.459
4.463
4.480
4.498
4.515
4.526
4.510
4.508
4.509
4.512
4.528
4.514
4.500
4.493
4.493
4.485
4.492
4.502
4.486
4.471
4.494
4.497
4.484
4.474
4.480
4.478
4.490
4.506
4.522
4.538
4.546
4.552
4.559
4.543
4.550
4.558
4.554
4.548
4.537
4.552
4.548
4.547
4.535
4.538
4.535
4.515
4.510
4.515
4.508
4.513
4.519
4.516
4.517
4.499
4.495
4.503
4.518
4.532
4.546
4.537
4.531
4.523
4.532
4.518
4.516
4.509
4.512
4.519
4.512
4.516
4.505
4.499
4.494
4.497
4.499
4.498
4.507
4.502
4.491
4.480
4.487
4.484
4.477
4.470
4.468
4.469
4.470
4.471
4.484
4.497
4.510
4.523
4.536
4.549
4.562
4.575
4.575
4.574
4.575
4.570
4.566
4.564
4.583
4.572
4.563
4.550
4.546
4.557
4.558
4.551
4.543
4.543
4.552
4.556
4.553
4.559
4.553
4.559
4.576
4.566
4.557
4.548
4.539
4.529
4.520
4.511
4.505
4.493
4.484
4.477
4.473
4.485
4.496
4.508
4.520
4.531
4.543
4.550
4.556
4.560
4.540
4.546
4.544
4.551
4.550
4.547
4.536
4.534
4.539
4.533
4.517
4.518
4.517
4.513
4.508
4.508
4.512
4.504
4.494
4.508
4.522
4.525
4.515
4.518
4.523
4.523
4.513
4.522
4.515
4.513
4.515
4.511
4.503
4.511
4.512
4.514
4.510
4.520
4.509
4.504
4.509
4.497
4.503
4.493
4.490
4.494
4.495
4.493
4.503
4.514
4.524
4.534
4.544
4.554
4.564
4.561
4.557
4.562
4.561
4.562
4.561
4.546
4.549
4.546
4.551
4.552
4.550
4.549
4.562
4.555
4.550
4.545
4.546
4.546
4.544
4.539
4.526
4.534
4.533
4.532
4.534
4.543
4.529
4.524
4.519
4.514
4.521
4.519
4.519
4.512
4.517
4.522
4.515
4.510
4.505
4.511
4.511
4.509
4.507
4.495
4.505
4.514
4.518
4.514
4.514
4.514
4.515
4.503
4.496
4.490
4.486
4.486
4.482
4.483
4.487
4.486
4.480
4.485
4.488
4.484
4.487
4.496
4.504
4.513
4.522
4.531
4.539
4.548
4.557
4.566
4.574
4.583
4.592
4.601
4.598
4.595
4.598
4.591
4.585
4.594
4.593
4.596
4.595
4.592
4.591
4.577
4.575
4.583
4.578
4.570
4.583
4.587
4.580
4.576
4.575
4.573
4.563
4.564
4.569
4.569
4.564
4.556
4.569
4.566
4.563
4.552
4.545
4.534
4.535
4.532
4.530
4.534
4.544
4.549
4.549
4.544
4.542
4.542
4.542
4.542
4.540
4.533
4.541
4.543
4.555
4.566
4.564
4.560
4.555
4.558
4.553
4.553
4.554
4.558
4.554
4.550
4.540
4.534
4.536
4.536
4.537
4.538
4.538
4.538
4.529
4.520
4.511
4.511
4.508
4.520
4.530
4.525
4.527
4.518
4.515
4.521
4.528
4.532
4.529
4.521
4.519
4.520
4.519
4.515
4.508
4.502
4.509
4.516
4.523
4.530
4.538
4.545
4.552
4.559
4.567
4.574
4.581
4.588
4.596
4.592
4.578
4.577
4.577
4.578
4.577
4.576
4.570
4.568
4.559
4.544
4.541
4.555
4.571
4.560
4.545
4.556
4.563
4.559
4.569
4.564
4.555
4.553
4.565
4.557
4.558
4.569
4.563
4.550
4.550
4.561
4.560
4.572
4.566
4.560
4.571
4.573
4.571
4.560
4.551
4.560
4.550
4.558
4.558
4.553
4.560
4.549
4.552
4.550
4.544
4.541
4.537
4.528
4.522
4.531
4.524
4.531
4.528
4.531
4.519
4.527
4.527
4.530
4.525
4.525
4.522
4.520
4.519
4.510
4.513
4.514
4.510
4.508
4.510
4.518
4.513
4.508
4.510
4.513
4.516
4.510
4.503
4.504
4.495
4.497
4.503
4.505
4.504
4.516
4.523
4.509
4.512
4.507
4.500
4.497
4.502
4.501
4.494
4.497
4.499
4.501
4.504
4.507
4.516
4.514
4.522
4.517
4.527
4.538
4.539
4.547
4.551
4.542
4.538
4.527
4.530
4.526
4.529
4.529
4.533
4.534
4.528
4.522
4.527
4.519
4.506
4.506
4.511
4.517
4.520
4.519
4.511
4.504
4.496
4.491
4.487
4.482
4.481
4.483
4.489
4.495
4.501
4.507
4.512
4.518
4.524
4.530
4.536
4.542
4.547
4.553
4.559
4.565
4.571
4.576
4.582
4.588
4.594
4.600
4.605
4.606
4.609
4.616
4.611
4.603
4.597
4.606
4.612
4.603
4.611
4.619
4.617
4.623
4.626
4.619
4.611
4.608
4.602
4.596
4.598
4.596
4.594
4.599
4.596
4.602
4.608
4.600
4.597
4.601
4.603
4.593
4.593
4.588
4.581
4.578
4.579
4.577
4.578
4.587
4.595
4.603
4.590
4.588
4.580
4.584
4.592
4.602
4.611
4.620
4.616
4.616
4.609
4.607
4.602
4.599
4.595
4.593
4.594
4.592
4.583
4.581
4.576
4.569
4.565
4.563
4.563
4.563
4.566
4.560
4.563
4.561
4.557
4.559
4.562
4.563
4.569
4.564
4.569
4.576
4.584
4.584
4.579
4.581
4.578
4.573
4.564
4.554
4.565
4.561
4.567
4.560
4.556
4.551
4.546
4.540
4.535
4.536
4.531
4.531
4.536
4.536
4.548
4.549
4.554
4.548
4.543
4.539
4.540
4.532
4.530
4.530
4.531
4.530
4.524
4.520
4.513
4.513
4.519
4.518
4.513
4.511
4.512
4.518
4.521
4.531
4.532
4.530
4.524
4.531
4.535
4.531
4.530
4.537
4.536
4.541
4.540
4.544
4.539
4.533
4.530
4.526
4.524
4.517
4.512
4.517
4.511
4.504
4.497
4.491
4.484
4.479
4.478
4.486
4.492
4.489
4.486
4.494
4.492
4.495
4.485
4.489
4.488
4.482
4.483
4.484
4.488
4.493
4.489
4.487
4.488
4.485
4.479
4.483
4.481
4.480
4.481
4.486
4.487
4.492
4.495
4.497
4.507
4.507
4.501
4.505
4.497
4.498
4.493
4.497
4.497
4.498
4.489
4.488
4.491
4.490
4.492
4.487
4.493
4.497
4.499
4.495
4.483
4.480
4.487
4.478
4.476
4.475
4.477
4.467
