2.989
3.328
3.501
3.633
3.709
3.780
3.812
3.888
3.873
3.926
3.970
4.010
4.047
4.079
4.013
4.010
4.022
4.048
4.066
4.081
4.092
4.111
4.121
4.142
4.148
4.158
4.165
4.176
4.191
4.207
4.202
4.220
4.233
4.243
4.240
4.248
4.252
4.268
4.275
4.286
4.272
4.285
4.297
4.299
4.309
4.318
4.322
4.335
4.322
4.317
4.326
4.335
4.336
4.346
4.358
4.363
4.369
4.366
4.382
4.392
4.391
4.394
4.380
4.373
4.378
4.390
4.391
4.404
4.393
4.402
4.401
4.413
4.418
4.421
4.429
4.436
4.429
4.427
4.437
4.445
4.450
4.448
4.460
4.462
4.474
4.462
4.466
4.461
4.468
4.465
4.443
4.441
4.447
4.454
4.457
4.458
4.464
4.472
4.482
4.461
4.473
4.469
4.473
4.470
4.473
4.485
4.488
4.484
4.500
4.491
4.497
4.493
4.506
4.511
4.508
4.516
4.517
4.500
4.508
4.510
4.501
4.516
4.513
4.509
4.523
4.518
4.535
4.530
4.541
4.537
4.545
4.539
4.539
4.537
4.546
4.540
4.559
4.555
4.559
4.558
4.567
4.565
4.564
4.560
4.558
4.561
4.557
4.558
4.556
4.563
4.561
4.561
4.571
4.572
4.577
4.578
4.573
4.591
4.594
4.588
4.595
4.600
4.591
4.601
4.594
4.592
4.599
4.587
4.576
4.565
4.562
4.566
4.560
4.560
4.566
4.559
4.555
4.577
4.569
4.565
4.572
4.588
4.584
4.584
4.585
4.586
4.592
4.582
4.595
4.583
4.568
4.577
4.574
4.570
4.572
4.579
4.570
4.563
4.563
4.573
4.572
4.572
4.569
4.574
4.582
4.589
4.582
4.584
4.587
4.595
4.593
4.591
4.581
4.593
4.593
4.590
4.592
4.581
4.600
4.601
4.596
4.593
4.599
4.599
4.620
4.615
4.611
4.615
4.605
4.614
4.618
4.604
4.600
4.603
4.604
4.616
4.621
4.605
4.597
4.602
4.608
4.621
4.616
4.619
4.615
4.614
4.614
4.625
4.632
4.625
4.612
4.618
4.618
4.617
4.635
4.636
4.637
4.636
4.634
4.632
4.636
4.640
4.657
4.649
4.646
4.648
4.648
4.641
4.641
4.654
4.661
4.659
4.656
4.647
4.649
4.643
4.645
4.645
4.635
4.625
4.624
4.621
4.623
4.629
4.643
4.641
4.634
4.626
4.617
4.612
4.616
4.622
4.632
4.638
4.631
4.630
4.627
4.622
4.625
4.631
4.625
4.639
4.648
4.647
4.643
4.639
4.636
4.631
4.625
4.632
4.631
4.646
4.653
4.640
4.631
4.631
4.626
4.631
4.624
4.623
4.630
4.644
4.653
4.654
4.654
4.649
4.644
4.642
4.648
4.653
4.650
4.648
4.647
4.661
4.668
4.662
4.662
4.663
4.661
4.661
4.656
4.643
4.640
4.640
4.653
4.666
4.677
4.672
4.668
4.667
4.664
4.671
4.668
4.666
4.667
4.669
4.660
4.666
4.673
4.686
4.695
4.697
4.690
4.681
4.686
4.676
4.671
4.677
4.675
4.670
4.673
4.677
4.681
4.693
4.692
4.688
4.681
4.672
4.667
4.659
4.662
4.663
4.660
4.662
4.662
4.664
4.676
4.678
4.677
4.672
4.659
4.668
4.660
4.666
4.667
4.663
4.663
4.659
4.659
4.661
4.660
4.669
4.681
4.692
4.693
4.680
4.679
4.685
4.684
4.678
4.675
4.669
4.662
4.668
4.676
4.678
4.676
4.671
4.671
4.682
4.693
4.704
4.705
4.695
4.693
4.692
4.698
4.697
4.698
4.697
4.687
4.685
4.693
4.688
4.686
4.693
4.691
4.698
4.698
4.699
4.710
4.719
4.721
4.727
4.719
4.724
4.714
4.718
4.709
4.702
4.710
4.710
4.716
4.709
4.702
4.702
4.692
4.693
4.688
4.698
4.709
4.711
4.715
4.718
4.710
4.712
4.708
4.707
4.700
4.699
4.700
4.698
4.698
4.699
4.690
4.698
4.702
4.699
4.697
4.691
4.690
4.698
4.708
4.717
4.727
4.737
4.727
4.725
4.729
4.724
4.728
4.728
4.725
4.720
4.720
4.725
4.727
4.730
4.732
4.730
4.724
4.719
4.710
4.715
4.713
4.715
4.716
4.724
4.727
4.733
4.743
4.752
4.755
4.755
4.749
4.745
4.745
4.737
4.731
4.741
4.736
4.737
4.736
4.742
4.739
4.737
4.733
4.736
4.727
4.728
4.729
4.732
4.735
4.733
4.733
4.729
4.733
4.728
4.723
4.720
4.722
4.724
4.730
4.723
4.719
4.714
4.720
4.713
4.712
4.715
4.716
4.713
4.717
4.711
4.706
4.706
4.716
4.714
4.712
4.710
4.703
4.697
4.701
4.709
4.717
4.725
4.734
4.734
4.735
4.726
4.720
4.709
4.713
4.709
4.704
4.712
4.719
4.719
4.720
4.709
4.700
4.699
4.697
4.701
4.696
4.694
4.693
4.691
4.690
4.688
4.696
4.696
4.693
4.685
4.693
4.703
4.706
4.714
4.722
4.730
4.738
4.737
4.734
4.732
4.731
4.729
4.735
4.729
4.728
4.728
4.735
4.733
4.727
4.720
4.713
4.706
4.704
4.702
4.701
4.705
4.703
4.698
4.699
4.693
4.686
4.696
4.691
4.684
4.684
4.681
4.686
4.688
4.695
4.703
4.710
4.718
4.725
4.732
4.731
4.729
4.722
4.729
4.724
4.724
4.734
4.735
4.732
4.733
4.734
4.733
4.736
4.739
4.734
4.737
4.735
4.725
4.726
4.720
4.719
4.717
4.707
4.709
4.705
4.701
4.697
4.703
4.703
4.705
4.709
4.706
4.710
4.710
4.703
4.697
4.693
4.700
4.707
4.714
4.721
4.728
4.735
4.736
4.740
4.735
4.733
4.734
4.736
4.732
4.729
4.731
4.731
4.729
4.725
4.719
4.716
4.718
4.716
4.724
4.728
4.723
4.725
4.726
4.726
4.722
4.718
4.719
4.719
4.726
4.725
4.721
4.713
4.718
4.719
4.718
4.722
4.721
4.720
4.714
4.707
4.709
4.705
4.700
4.699
4.698
4.703
4.710
4.716
4.723
4.729
4.736
4.742
4.749
4.750
4.749
4.749
4.751
4.749
4.754
4.750
4.754
4.751
4.747
4.741
4.741
4.742
4.742
4.739
4.733
4.727
4.727
4.729
4.729
4.731
4.734
4.735
4.736
4.730
4.731
4.722
4.724
4.718
4.727
4.733
4.734
4.737
4.735
4.733
4.733
4.724
4.720
4.717
4.713
4.712
4.711
4.715
4.716
4.714
4.706
4.707
4.705
4.708
4.710
4.716
4.722
4.728
4.734
4.740
4.746
4.752
4.758
4.763
4.761
4.760
4.762
4.757
4.764
4.768
4.767
4.763
4.760
4.761
4.760
4.765
4.767
4.765
4.765
4.762
4.760
4.760
4.754
4.746
4.748
4.751
4.746
4.749
4.749
4.749
4.742
4.741
4.739
4.733
4.732
4.735
4.738
4.745
4.747
4.749
4.745
4.751
4.749
4.748
4.744
4.745
4.744
4.740
4.740
4.737
4.731
4.734
4.738
4.746
4.744
4.747
4.745
4.737
4.734
4.738
4.738
4.735
4.739
4.736
4.738
4.741
4.747
4.752
4.758
4.763
4.769
4.774
4.780
4.785
4.791
4.797
4.800
4.801
4.793
4.788
4.789
4.791
4.789
4.792
4.793
4.793
4.796
4.791
4.789
4.790
4.789
4.787
4.782
4.787
4.782
4.775
4.771
4.766
4.760
4.760
4.766
4.774
4.779
4.783
4.775
4.771
4.775
4.770
4.765
4.771
4.774
4.771
4.772
4.766
4.759
4.757
4.757
4.754
4.751
4.753
4.752
4.752
4.748
4.749
4.749
4.750
4.747
4.742
4.738
4.733
4.733
4.731
4.732
4.730
4.723
4.722
4.719
4.718
4.717
4.722
4.727
4.732
4.737
4.742
4.747
4.752
4.758
4.762
4.768
4.773
4.775
4.779
4.784
4.781
4.777
4.776
4.776
4.772
4.772
4.768
4.771
4.773
4.769
4.769
4.771
4.771
4.771
4.767
4.763
4.762
4.762
4.758
4.756
4.756
4.755
4.757
4.758
4.754
4.756
4.754
4.749
4.747
4.749
4.749
4.745
4.747
4.746
4.743
4.748
4.748
4.742
4.737
4.738
4.737
4.739
4.737
4.743
4.746
4.744
4.743
4.745
4.739
4.746
4.753
4.757
4.758
4.755
4.752
4.751
4.744
4.738
4.737
4.740
