2.994
3.335
3.513
3.632
3.719
3.778
3.837
3.871
3.936
3.945
3.988
4.034
4.007
4.039
4.065
4.093
4.119
4.148
4.166
4.189
4.197
4.151
4.131
4.145
4.152
4.170
4.175
4.186
4.199
4.203
4.218
4.233
4.232
4.247
4.248
4.260
4.271
4.282
4.276
4.288
4.298
4.310
4.301
4.310
4.325
4.327
4.338
4.329
4.338
4.345
4.355
4.359
4.366
4.371
4.361
4.373
4.369
4.382
4.385
4.390
4.402
4.403
4.405
4.398
4.401
4.403
4.412
4.419
4.424
4.427
4.429
4.434
4.442
4.442
4.446
4.457
4.457
4.439
4.448
4.444
4.448
4.455
4.464
4.466
4.471
4.469
4.471
4.479
4.481
4.482
4.490
4.490
4.495
4.491
4.501
4.505
4.509
4.513
4.517
4.505
4.492
4.496
4.492
4.496
4.503
4.505
4.511
4.515
4.514
4.519
4.517
4.518
4.519
4.521
4.527
4.524
4.530
4.535
4.539
4.543
4.547
4.551
4.553
4.546
4.552
4.554
4.555
4.557
4.558
4.557
4.563
4.568
4.572
4.571
4.579
4.578
4.575
4.582
4.583
4.584
4.585
4.586
4.580
4.576
4.564
4.553
4.557
4.565
4.566
4.562
4.572
4.568
4.577
4.573
4.572
4.579
4.579
4.579
4.586
4.584
4.591
4.584
4.582
4.582
4.583
4.584
4.588
4.584
4.590
4.587
4.597
4.590
4.597
4.594
4.607
4.601
4.604
4.605
4.616
4.606
4.608
4.603
4.610
4.614
4.623
4.619
4.623
4.628
4.621
4.630
4.626
4.620
4.612
4.622
4.621
4.625
4.619
4.619
4.626
4.622
4.632
4.628
4.626
4.631
4.626
4.633
4.640
4.639
4.642
4.649
4.648
4.650
4.648
4.650
4.656
4.657
4.645
4.647
4.651
4.653
4.660
4.660
4.657
4.664
4.662
4.661
4.667
4.672
4.668
4.664
4.681
4.675
4.667
4.679
4.668
4.657
4.670
4.669
4.671
4.669
4.681
4.672
4.665
4.677
4.673
4.663
4.667
4.674
4.678
4.672
4.673
4.683
4.681
4.680
4.679
4.694
4.692
4.683
4.687
4.696
4.698
4.697
4.695
4.696
4.708
4.699
4.698
4.699
4.701
4.694
4.687
4.682
4.675
4.668
4.665
4.675
4.662
4.658
4.659
4.671
4.671
4.669
4.668
4.669
4.675
4.679
4.675
4.679
4.675
4.675
4.676
4.675
4.675
4.677
4.678
4.685
4.684
4.680
4.678
4.683
4.689
4.693
4.695
4.693
4.698
4.693
4.698
4.701
4.700
4.691
4.684
4.683
4.682
4.682
4.681
4.680
4.682
4.688
4.681
4.679
4.681
4.672
4.676
4.680
4.684
4.682
4.681
4.679
4.675
4.685
4.682
4.683
4.678
4.675
4.675
4.680
4.694
4.690
4.689
4.688
4.692
4.690
4.687
4.697
4.701
4.699
4.697
4.696
4.695
4.693
4.697
4.707
4.700
4.701
4.697
4.691
4.690
4.693
4.705
4.712
4.703
4.707
4.703
4.704
4.700
4.697
4.708
4.712
4.719
4.716
4.712
4.713
4.712
4.718
4.714
4.721
4.723
4.726
4.728
4.727
4.719
4.710
4.705
4.715
4.723
4.723
4.717
4.713
4.716
4.715
4.708
4.710
4.717
4.718
4.717
4.713
4.711
4.715
4.712
4.713
4.712
4.716
4.727
4.732
4.730
4.723
4.725
4.727
4.730
4.723
4.722
4.723
4.733
4.742
4.734
4.727
4.725
4.726
4.728
4.724
4.725
4.726
4.731
4.740
4.747
4.746
4.744
4.743
4.741
4.742
4.739
4.740
4.742
4.745
4.745
4.756
4.755
4.756
4.753
4.753
4.749
4.748
4.749
4.749
4.752
4.746
4.753
4.759
4.757
4.759
4.755
4.756
4.760
4.754
4.747
4.742
4.736
4.738
4.733
4.738
4.741
4.742
4.736
4.729
4.725
4.731
4.730
4.726
4.731
4.740
4.750
4.746
4.739
4.732
4.727
4.721
4.716
4.719
4.717
4.715
4.720
4.731
4.739
4.745
4.741
4.735
4.739
4.732
4.738
4.732
4.730
4.732
4.728
4.723
4.728
4.732
4.739
4.748
4.750
4.754
4.752
4.756
4.755
4.751
4.749
4.742
4.736
4.731
4.736
4.738
4.734
4.743
4.750
4.753
4.753
4.751
4.750
4.751
4.745
4.745
4.742
4.740
4.738
4.738
4.733
4.731
4.738
4.746
4.744
4.753
4.752
4.753
4.750
4.748
4.744
4.748
4.753
4.748
4.744
4.746
4.745
4.740
4.742
4.745
4.752
4.759
4.768
4.765
4.764
4.765
4.768
4.768
4.768
4.770
4.769
4.762
4.755
4.753
4.752
4.753
4.749
4.753
4.755
4.764
4.769
4.771
4.771
4.765
4.763
4.760
4.763
4.757
4.760
4.762
4.761
4.760
4.757
4.757
4.757
4.756
4.755
4.756
4.764
4.771
4.779
4.778
4.786
4.784
4.782
4.781
4.785
4.781
4.782
4.781
4.777
4.782
4.777
4.775
4.782
4.782
4.777
4.771
4.769
4.770
4.779
4.786
4.793
4.794
4.788
4.784
4.786
4.786
4.791
4.789
4.790
4.789
4.785
4.782
4.777
4.770
4.772
4.768
4.769
4.771
4.768
4.771
4.779
4.779
4.780
4.778
4.774
4.776
4.777
4.776
4.772
4.773
4.771
4.771
4.777
4.776
4.774
4.775
4.772
4.771
4.766
4.760
4.761
4.764
4.769
4.776
4.775
4.775
4.774
4.778
4.777
4.779
4.782
4.775
4.769
4.770
4.774
4.771
4.772
4.771
4.766
4.771
4.768
4.771
4.774
4.775
4.774
4.781
4.774
4.773
4.777
4.784
4.790
4.789
4.788
4.792
4.788
4.786
4.783
4.786
4.783
4.792
4.785
4.781
4.779
4.776
4.777
4.781
4.780
4.781
4.777
4.778
4.777
4.779
4.777
4.773
4.775
4.779
4.783
4.790
4.797
4.803
4.810
4.809
4.808
4.803
4.804
4.801
4.799
4.797
4.794
4.795
4.794
4.794
4.796
4.792
4.797
4.800
4.796
4.794
4.796
4.795
4.797
4.794
4.794
4.795
4.794
4.798
4.793
4.794
4.801
4.808
4.812
4.819
4.821
4.817
4.816
4.820
4.824
4.825
4.823
4.817
4.813
4.812
4.808
4.803
4.807
4.812
4.810
4.806
4.808
4.811
4.808
4.803
4.797
4.805
4.807
4.803
4.804
4.801
4.799
4.801
4.801
4.805
4.812
4.817
4.813
4.811
4.816
4.812
4.810
4.809
4.805
4.798
4.799
4.801
4.804
4.803
4.808
4.812
4.808
4.808
4.807
4.811
4.804
4.798
4.799
4.797
4.796
4.797
4.794
4.797
4.794
4.790
4.797
4.792
4.794
4.800
4.807
4.812
4.818
4.823
4.829
4.833
4.829
4.830
4.826
4.825
4.824
4.828
4.834
4.827
4.823
4.820
4.819
4.820
4.819
4.819
4.819
4.819
4.824
4.820
4.819
4.823
4.824
4.820
4.824
4.819
4.819
4.819
4.819
4.822
4.819
4.820
4.824
4.820
4.818
4.816
4.818
4.822
4.827
4.833
4.837
4.842
4.849
4.855
4.859
4.855
4.853
4.852
4.853
4.855
4.854
4.852
4.846
4.841
4.840
4.839
4.840
4.844
4.840
4.839
4.834
4.830
4.827
4.825
4.831
4.830
4.831
4.833
4.831
4.827
4.827
4.825
4.831
4.836
4.831
4.827
4.826
4.823
4.821
4.819
4.824
4.830
4.835
4.833
4.832
4.828
4.824
4.820
4.816
4.817
4.816
4.811
4.813
4.814
4.816
4.812
4.812
4.812
4.816
4.819
4.815
4.812
4.810
4.812
4.808
4.808
4.808
4.811
4.813
4.812
4.812
4.811
4.808
4.805
4.807
4.808
4.808
4.806
4.805
4.806
4.804
4.800
4.799
4.805
4.810
4.814
4.816
4.819
4.824
4.827
4.829
4.828
4.824
4.823
4.821
4.820
4.819
4.816
4.816
4.820
4.823
4.820
4.818
4.817
4.818
4.817
4.818
4.819
4.818
4.814
4.808
4.803
4.804
4.803
4.799
4.800
4.801
4.806
4.810
4.809
4.805
4.805
4.802
4.805
4.799
4.795
4.790
4.794
4.794
4.792
4.790
4.792
4.793
4.797
4.802
4.806
4.810
4.816
4.819
4.825
4.829
4.830
4.831
4.823
4.824
4.825
4.823
4.823
4.821
4.827
4.823
4.827
4.827
4.828
