2.994
3.326
3.508
3.621
3.699
3.767
3.802
3.878
3.922
3.918
3.961
4.003
4.039
4.071
4.080
4.014
4.021
4.043
4.068
4.086
4.096
4.105
4.129
4.133
4.154
4.152
4.174
4.190
4.187
4.201
4.218
4.214
4.218
4.241
4.251
4.257
4.253
4.263
4.275
4.279
4.292
4.301
4.290
4.291
4.307
4.309
4.319
4.332
4.331
4.344
4.349
4.337
4.336
4.344
4.347
4.362
4.362
4.366
4.375
4.381
4.386
4.388
4.391
4.402
4.411
4.411
4.390
4.391
4.396
4.402
4.402
4.417
4.413
4.415
4.417
4.423
4.433
4.433
4.443
4.445
4.444
4.453
4.448
4.454
4.459
4.464
4.468
4.480
4.475
4.483
4.486
4.481
4.481
4.487
4.490
4.470
4.455
4.457
4.465
4.474
4.471
4.472
4.481
4.487
4.491
4.485
4.480
4.484
4.481
4.484
4.497
4.488
4.498
4.505
4.504
4.511
4.509
4.510
4.508
4.521
4.522
4.521
4.532
4.523
4.526
4.527
4.519
4.518
4.525
4.528
4.529
4.524
4.534
4.529
4.548
4.545
4.551
4.546
4.555
4.548
4.550
4.546
4.564
4.556
4.564
4.566
4.575
4.567
4.571
4.577
4.573
4.588
4.578
4.578
4.573
4.578
4.575
4.566
4.568
4.570
4.581
4.577
4.574
4.594
4.597
4.582
4.600
4.597
4.594
4.611
4.595
4.601
4.615
4.614
4.608
4.618
4.617
4.604
4.595
4.584
4.575
4.571
4.569
4.582
4.583
4.579
4.575
4.582
4.580
4.577
4.589
4.589
4.591
4.581
4.598
4.606
4.597
4.600
4.605
4.602
4.603
4.599
4.598
4.588
4.584
4.585
4.594
4.588
4.577
4.581
4.582
4.590
4.577
4.574
4.596
4.591
4.587
4.593
4.585
4.605
4.607
4.595
4.597
4.594
4.611
4.611
4.605
4.600
4.592
4.612
4.613
4.606
4.605
4.605
4.609
4.618
4.620
4.622
4.616
4.620
4.621
4.630
4.635
4.632
4.630
4.623
4.627
4.625
4.618
4.619
4.615
4.613
4.628
4.624
4.623
4.619
4.618
4.623
4.624
4.640
4.638
4.636
4.637
4.633
4.633
4.632
4.640
4.638
4.632
4.636
4.635
4.634
4.634
4.651
4.658
4.657
4.656
4.662
4.652
4.655
4.650
4.663
4.666
4.664
4.666
4.663
4.658
4.644
4.655
4.668
4.677
4.667
4.666
4.664
4.666
4.658
4.651
4.641
4.644
4.647
4.642
4.639
4.635
4.636
4.642
4.646
4.635
4.637
4.640
4.637
4.629
4.634
4.627
4.642
4.651
4.656
4.649
4.647
4.643
4.647
4.649
4.649
4.646
4.648
4.662
4.658
4.658
4.654
4.650
4.645
4.645
4.649
4.653
4.652
4.659
4.657
4.654
4.644
4.644
4.649
4.648
4.648
4.648
4.645
4.647
4.660
4.669
4.672
4.669
4.670
4.670
4.667
4.664
4.669
4.668
4.666
4.663
4.666
4.676
4.682
4.683
4.682
4.678
4.667
4.661
4.664
4.658
4.653
4.664
4.661
4.673
4.685
4.689
4.686
4.685
4.687
4.680
4.690
4.689
4.689
4.685
4.684
4.679
4.684
4.681
4.693
4.705
4.710
4.706
4.696
4.691
4.696
4.692
4.690
4.691
4.691
4.691
4.688
4.679
4.689
4.700
4.693
4.684
4.690
4.688
4.685
4.687
4.683
4.681
4.683
4.676
4.669
4.675
4.673
4.683
4.691
4.687
4.682
4.681
4.682
4.683
4.678
4.684
4.685
4.678
4.679
4.680
4.686
4.680
4.677
4.679
4.687
4.697
4.694
4.700
4.698
4.701
4.699
4.694
4.690
4.694
4.686
4.679
4.682
4.694
4.699
4.692
4.690
4.692
4.691
4.696
4.706
4.716
4.713
4.705
4.713
4.714
4.716
4.712
4.711
4.708
4.712
4.712
4.703
4.706
4.712
4.709
4.711
4.712
4.711
4.710
4.709
4.719
4.729
4.739
4.743
4.736
4.732
4.728
4.728
4.726
4.725
4.723
4.728
4.720
4.725
4.718
4.715
4.716
4.710
4.705
4.698
4.703
4.713
4.722
4.722
4.724
4.735
4.730
4.730
4.724
4.722
4.714
4.716
4.719
4.715
4.715
4.713
4.713
4.712
4.714
4.715
4.718
4.710
4.709
4.704
4.707
4.716
4.726
4.734
4.744
4.744
4.744
4.747
4.743
4.740
4.741
4.744
4.744
4.740
4.737
4.742
4.749
4.748
4.746
4.743
4.735
4.734
4.730
4.731
4.732
4.732
4.731
4.738
4.742
4.750
4.747
4.751
4.759
4.767
4.765
4.762
4.764
4.758
4.759
4.752
4.748
4.756
4.754
4.754
4.749
4.754
4.756
4.758
4.753
4.751
4.745
4.747
4.751
4.752
4.750
4.741
4.737
4.729
4.735
4.736
4.733
4.734
4.739
4.748
4.743
4.741
4.740
4.740
4.731
4.730
4.737
4.735
4.731
4.732
4.730
4.729
4.735
4.734
4.732
4.724
4.722
4.717
4.711
4.705
4.707
4.710
4.703
4.711
4.719
4.726
4.734
4.742
4.742
4.739
4.737
4.733
4.727
4.728
4.726
4.722
4.722
4.727
4.728
4.727
4.724
4.722
4.725
4.722
4.712
4.710
4.713
4.715
4.715
4.711
4.710
4.707
4.710
4.710
4.714
4.709
4.708
4.708
4.714
4.718
4.723
4.728
4.735
4.742
4.750
4.754
4.754
4.754
4.749
4.749
4.752
4.751
4.745
4.739
4.732
4.736
4.727
4.726
4.722
4.716
4.711
4.709
4.716
4.715
4.719
4.712
4.708
4.707
4.708
4.706
4.705
4.711
4.706
4.704
4.699
4.699
4.702
4.699
4.705
4.712
4.719
4.726
4.733
4.740
4.746
4.750
4.744
4.742
4.742
4.745
4.742
4.749
4.754
4.752
4.751
4.757
4.751
4.754
4.752
4.747
4.748
4.748
4.743
4.738
4.735
4.731
4.725
4.721
4.722
4.717
4.717
4.719
4.718
4.714
4.717
4.715
4.722
4.717
4.711
4.706
4.707
4.711
4.707
4.705
4.709
4.715
4.722
4.728
4.735
4.741
4.748
4.754
4.756
4.754
4.748
4.745
4.747
4.745
4.745
4.744
4.748
4.744
4.744
4.738
4.737
4.736
4.736
4.733
4.740
4.743
4.741
4.745
4.746
4.748
4.744
4.739
4.740
4.739
4.738
4.739
4.735
4.727
4.726
4.734
4.733
4.738
4.734
4.729
4.728
4.728
4.723
4.721
4.723
4.716
4.712
4.705
4.709
4.715
4.721
4.727
4.733
4.740
4.745
4.751
4.757
4.764
4.766
4.767
4.773
4.770
4.770
4.766
4.762
4.767
4.761
4.759
4.757
4.755
4.754
4.753
4.749
4.747
4.746
4.748
4.748
4.749
4.751
4.756
4.749
4.747
4.748
4.743
4.740
4.738
4.741
4.743
4.737
4.745
4.744
4.747
4.746
4.741
4.734
4.727
4.723
4.724
4.725
4.731
4.733
4.730
4.733
4.734
4.734
4.732
4.731
4.728
4.729
4.728
4.725
4.726
4.732
4.738
4.743
4.749
4.754
4.760
4.766
4.771
4.777
4.779
4.775
4.771
4.776
4.780
4.778
4.776
4.772
4.775
4.771
4.773
4.776
4.783
4.781
4.774
4.772
4.772
4.770
4.770
4.769
4.768
4.769
4.764
4.760
4.760
4.760
4.762
4.757
4.758
4.758
4.754
4.754
4.754
4.753
4.756
4.762
4.770
4.768
4.765
4.763
4.758
4.762
4.760
4.759
4.756
4.753
4.754
4.747
4.748
4.749
4.753
4.753
4.759
4.758
4.757
4.759
4.752
4.748
4.754
4.753
4.746
4.750
4.749
4.754
4.759
4.751
4.757
4.762
4.767
4.772
4.777
4.782
4.787
4.793
4.798
4.803
4.808
4.811
4.810
4.806
4.810
4.806
4.810
4.811
4.811
4.807
4.807
4.810
4.810
4.806
4.801
4.796
4.794
4.788
4.782
4.780
4.776
4.777
4.782
4.782
4.780
4.780
4.781
4.783
4.791
4.785
4.780
4.776
4.781
4.777
4.783
4.786
4.786
4.783
4.779
4.776
4.774
4.769
4.776
4.780
4.775
4.774
4.768
4.765
4.764
4.760
4.756
4.752
4.747
4.749
4.744
4.743
4.741
4.744
4.745
4.743
4.741
4.734
4.728
4.725
4.724
4.724
4.724
4.726
4.730
4.735
4.740
4.745
4.749
4.754
4.759
