2.986
3.334
3.505
3.634
3.693
3.747
3.836
3.834
3.890
3.941
3.984
4.029
3.967
3.961
3.986
4.009
4.027
4.040
4.066
4.084
4.088
4.106
4.112
4.131
4.151
4.153
4.168
4.182
4.198
4.186
4.208
4.218
4.225
4.234
4.222
4.242
4.244
4.264
4.269
4.286
4.293
4.267
4.285
4.289
4.291
4.305
4.313
4.319
4.323
4.338
4.342
4.353
4.342
4.325
4.337
4.346
4.354
4.352
4.353
4.366
4.367
4.371
4.379
4.383
4.378
4.390
4.394
4.407
4.403
4.416
4.425
4.420
4.422
4.423
4.433
4.418
4.403
4.413
4.409
4.410
4.422
4.429
4.433
4.413
4.419
4.421
4.430
4.429
4.441
4.451
4.450
4.445
4.446
4.457
4.466
4.468
4.463
4.473
4.460
4.470
4.463
4.465
4.468
4.473
4.472
4.487
4.480
4.492
4.498
4.494
4.494
4.494
4.499
4.505
4.520
4.516
4.516
4.523
4.523
4.530
4.516
4.522
4.520
4.519
4.505
4.522
4.515
4.535
4.537
4.531
4.538
4.536
4.551
4.539
4.549
4.561
4.546
4.564
4.554
4.555
4.549
4.538
4.524
4.517
4.526
4.520
4.526
4.528
4.521
4.531
4.534
4.538
4.534
4.555
4.540
4.538
4.559
4.557
4.538
4.535
4.527
4.525
4.534
4.520
4.520
4.528
4.531
4.522
4.524
4.541
4.546
4.539
4.537
4.552
4.554
4.546
4.546
4.549
4.551
4.549
4.537
4.553
4.559
4.552
4.554
4.555
4.570
4.575
4.570
4.569
4.570
4.582
4.570
4.558
4.554
4.566
4.578
4.566
4.560
4.560
4.567
4.580
4.578
4.574
4.575
4.575
4.583
4.585
4.583
4.577
4.575
4.575
4.594
4.605
4.600
4.602
4.601
4.598
4.598
4.616
4.612
4.610
4.605
4.602
4.595
4.615
4.617
4.615
4.616
4.612
4.600
4.605
4.597
4.585
4.594
4.585
4.578
4.588
4.595
4.585
4.587
4.579
4.576
4.574
4.583
4.599
4.592
4.593
4.597
4.598
4.592
4.586
4.595
4.604
4.606
4.601
4.597
4.598
4.601
4.601
4.590
4.599
4.595
4.602
4.598
4.601
4.594
4.596
4.592
4.588
4.603
4.620
4.619
4.621
4.623
4.613
4.617
4.605
4.605
4.601
4.614
4.629
4.622
4.613
4.612
4.609
4.622
4.612
4.614
4.605
4.612
4.626
4.642
4.642
4.649
4.643
4.638
4.642
4.635
4.629
4.631
4.624
4.630
4.643
4.658
4.646
4.644
4.651
4.652
4.640
4.631
4.629
4.630
4.629
4.631
4.646
4.644
4.645
4.631
4.631
4.623
4.634
4.623
4.610
4.608
4.609
4.623
4.635
4.639
4.640
4.644
4.643
4.647
4.646
4.644
4.635
4.628
4.626
4.631
4.626
4.627
4.638
4.652
4.649
4.657
4.648
4.652
4.654
4.658
4.659
4.653
4.645
4.636
4.634
4.631
4.638
4.641
4.654
4.666
4.678
4.677
4.678
4.688
4.678
4.669
4.662
4.657
4.662
4.664
4.670
4.663
4.664
4.666
4.654
4.661
4.673
4.680
4.679
4.683
4.678
4.682
4.679
4.677
4.672
4.661
4.659
4.647
4.649
4.647
4.651
4.647
4.651
4.663
4.673
4.680
4.686
4.685
4.676
4.675
4.672
4.677
4.684
4.682
4.672
4.679
4.673
4.677
4.668
4.666
4.660
4.660
4.660
4.671
4.676
4.688
4.697
4.709
4.720
4.713
4.712
4.718
4.722
4.712
4.705
4.701
4.698
4.699
4.698
4.698
4.690
4.686
4.678
4.682
4.683
4.685
4.686
4.688
4.698
4.707
4.719
4.723
4.722
4.712
4.711
4.713
4.706
4.702
4.695
4.690
4.684
4.679
4.673
4.666
4.662
4.668
4.659
4.663
4.665
4.663
4.673
4.683
4.692
4.696
4.687
4.685
4.678
4.671
4.668
4.674
4.668
4.675
4.686
4.682
4.672
4.669
4.662
4.655
4.653
4.658
4.656
4.647
4.648
4.647
4.646
4.652
4.662
4.671
4.679
4.690
4.698
4.704
4.698
4.694
4.689
4.690
4.690
4.693
4.686
4.690
4.686
4.685
4.675
4.674
4.672
4.669
4.678
4.679
4.687
4.685
4.681
4.674
4.665
4.660
4.651
4.649
4.657
4.664
4.673
4.683
4.687
4.691
4.689
4.686
4.679
4.682
4.679
4.680
4.683
4.680
4.684
4.675
4.679
4.677
4.683
4.686
4.679
4.675
4.675
4.672
4.676
4.671
4.670
4.672
4.667
4.666
4.670
4.671
4.672
4.671
4.662
4.661
4.670
4.679
4.684
4.693
4.687
4.683
4.690
4.682
4.683
4.682
4.686
4.685
4.690
4.694
4.687
4.685
4.681
4.680
4.681
4.683
4.679
4.679
4.676
4.675
4.668
4.666
4.670
4.672
4.665
4.664
4.670
4.664
4.673
4.672
4.672
4.672
4.668
4.668
4.665
4.664
4.673
4.680
4.687
4.694
4.703
4.705
4.708
4.704
4.703
4.704
4.695
4.693
4.700
4.701
4.695
4.696
4.692
4.690
4.692
4.691
4.687
4.690
4.689
4.686
4.689
4.685
4.687
4.680
4.678
4.671
4.679
4.685
4.679
4.691
4.692
4.691
4.689
4.683
4.678
4.682
4.684
4.683
4.681
4.686
4.679
4.674
4.675
4.682
4.687
4.696
4.703
4.710
4.717
4.724
4.725
4.718
4.709
4.709
4.711
4.720
4.714
4.707
4.712
4.716
4.725
4.732
4.736
4.726
4.727
4.721
4.712
4.707
4.708
4.707
4.700
4.701
4.706
4.707
4.703
4.705
4.700
4.696
4.698
4.701
4.698
4.691
4.690
4.690
4.689
4.693
4.692
4.688
4.689
4.686
4.695
4.702
4.698
4.694
4.697
4.693
4.692
4.694
4.692
4.699
4.706
4.713
4.720
4.726
4.731
4.738
4.746
4.753
4.752
4.751
4.753
4.749
4.744
4.742
4.746
4.748
4.749
4.751
4.752
4.751
4.753
4.743
4.736
4.737
4.728
4.731
4.731
4.731
4.733
4.731
4.730
4.738
4.746
4.745
4.744
4.735
4.736
4.734
4.735
4.738
4.735
4.735
4.727
4.724
4.727
4.726
4.725
4.721
4.717
4.712
4.705
4.704
4.700
4.699
4.698
4.699
4.703
4.704
4.705
4.705
4.705
4.702
4.698
4.704
4.709
4.713
4.720
4.726
4.727
4.726
4.731
4.735
4.741
4.738
4.739
4.738
4.733
4.731
4.731
4.731
4.735
4.732
4.738
4.738
4.735
4.727
4.723
4.721
4.722
4.718
4.716
4.712
4.708
4.712
4.703
4.701
4.701
4.702
4.695
4.693
4.703
4.699
4.706
4.710
4.708
4.702
4.703
4.709
4.703
4.702
4.705
4.702
4.698
4.705
4.706
4.704
4.706
4.699
4.698
4.699
4.690
4.694
4.695
4.694
4.703
4.701
4.701
4.696
4.695
4.693
4.687
4.685
4.681
4.677
4.679
4.680
4.686
4.691
4.697
4.702
4.708
4.713
4.719
4.724
4.728
4.735
4.741
4.746
4.752
4.757
4.757
4.753
4.755
4.749
4.752
4.756
4.750
4.756
4.750
4.748
4.747
4.746
4.741
4.742
4.742
4.734
4.730
4.735
4.741
4.746
4.749
4.746
4.744
4.745
4.747
4.746
4.750
4.746
4.741
4.738
4.741
4.748
4.744
4.738
4.738
4.734
4.741
4.740
4.739
4.742
4.739
4.738
4.744
4.743
4.744
4.740
4.742
4.740
4.736
4.738
4.736
4.738
4.736
4.737
4.733
4.729
4.722
4.721
4.719
4.723
4.728
4.726
4.725
4.724
4.727
4.735
4.733
4.727
4.733
4.729
4.725
4.721
4.717
4.715
4.711
4.707
4.703
4.701
4.701
4.707
4.709
4.709
4.717
4.716
4.712
4.718
4.722
4.727
4.733
4.737
4.741
4.746
4.752
4.756
4.761
4.767
4.771
4.768
4.761
4.756
4.750
4.745
4.741
4.740
4.739
4.738
4.742
4.738
4.735
4.731
4.735
4.731
4.725
4.724
4.722
4.724
4.723
4.720
4.727
4.723
4.725
4.727
4.720
4.720
4.723
4.720
4.719
4.724
4.722
4.716
4.716
4.713
4.720
4.721
4.720
4.718
4.717
4.715
4.712
4.718
4.725
4.727
4.727
4.723
4.723
4.718
4.712
4.707
4.703
4.698
4.695
4.698
4.703
4.701
4.705
