2.992
3.335
3.511
3.623
3.712
3.790
3.847
3.883
3.921
3.949
3.997
4.021
4.011
4.042
4.069
4.097
4.126
4.146
4.171
4.185
4.137
4.120
4.132
4.142
4.149
4.166
4.178
4.193
4.197
4.213
4.214
4.226
4.241
4.240
4.253
4.265
4.261
4.273
4.282
4.289
4.288
4.298
4.310
4.319
4.315
4.320
4.327
4.334
4.343
4.353
4.359
4.347
4.357
4.357
4.370
4.369
4.379
4.386
4.390
4.397
4.389
4.393
4.390
4.399
4.405
4.409
4.414
4.420
4.427
4.427
4.436
4.438
4.442
4.424
4.433
4.432
4.436
4.445
4.447
4.457
4.450
4.453
4.460
4.470
4.471
4.479
4.477
4.479
4.477
4.489
4.493
4.498
4.504
4.501
4.485
4.478
4.480
4.483
4.490
4.490
4.499
4.500
4.496
4.506
4.504
4.505
4.507
4.509
4.510
4.516
4.524
4.527
4.524
4.528
4.535
4.538
4.532
4.536
4.540
4.539
4.543
4.546
4.554
4.555
4.554
4.555
4.557
4.563
4.570
4.571
4.576
4.571
4.568
4.575
4.565
4.568
4.554
4.541
4.543
4.555
4.551
4.550
4.559
4.560
4.564
4.561
4.565
4.561
4.568
4.569
4.570
4.580
4.571
4.568
4.567
4.568
4.567
4.577
4.568
4.579
4.573
4.583
4.579
4.586
4.586
4.590
4.590
4.599
4.597
4.597
4.600
4.591
4.601
4.602
4.605
4.612
4.609
4.613
4.612
4.621
4.608
4.605
4.601
4.615
4.608
4.613
4.601
4.612
4.617
4.615
4.619
4.618
4.620
4.621
4.620
4.631
4.630
4.631
4.642
4.638
4.634
4.638
4.638
4.643
4.633
4.631
4.647
4.642
4.641
4.653
4.649
4.645
4.655
4.662
4.653
4.660
4.658
4.660
4.661
4.665
4.664
4.656
4.652
4.648
4.658
4.667
4.661
4.657
4.661
4.657
4.655
4.660
4.658
4.656
4.657
4.667
4.664
4.660
4.666
4.679
4.680
4.675
4.672
4.681
4.682
4.676
4.677
4.692
4.686
4.690
4.679
4.697
4.697
4.694
4.685
4.678
4.672
4.664
4.661
4.654
4.650
4.651
4.653
4.656
4.655
4.651
4.661
4.664
4.661
4.664
4.657
4.670
4.664
4.654
4.657
4.659
4.674
4.668
4.669
4.665
4.663
4.675
4.675
4.675
4.675
4.675
4.675
4.690
4.688
4.681
4.683
4.681
4.679
4.670
4.661
4.662
4.664
4.678
4.677
4.665
4.664
4.664
4.669
4.668
4.664
4.662
4.661
4.664
4.671
4.670
4.671
4.664
4.666
4.656
4.671
4.683
4.675
4.675
4.672
4.673
4.672
4.679
4.693
4.697
4.688
4.679
4.675
4.678
4.685
4.697
4.691
4.690
4.685
4.684
4.674
4.686
4.697
4.698
4.697
4.690
4.690
4.686
4.683
4.695
4.699
4.701
4.699
4.697
4.693
4.700
4.699
4.703
4.715
4.716
4.709
4.712
4.707
4.709
4.705
4.705
4.704
4.706
4.702
4.705
4.701
4.698
4.696
4.701
4.712
4.712
4.704
4.700
4.699
4.692
4.697
4.698
4.707
4.717
4.720
4.712
4.713
4.712
4.710
4.708
4.707
4.708
4.720
4.730
4.729
4.728
4.721
4.714
4.709
4.709
4.707
4.712
4.723
4.728
4.729
4.730
4.729
4.727
4.726
4.722
4.724
4.727
4.726
4.736
4.746
4.750
4.745
4.741
4.742
4.739
4.734
4.730
4.729
4.731
4.742
4.750
4.742
4.741
4.738
4.739
4.737
4.742
4.742
4.742
4.735
4.734
4.729
4.723
4.723
4.720
4.720
4.717
4.718
4.717
4.713
4.722
4.732
4.738
4.732
4.733
4.731
4.727
4.721
4.714
4.707
4.700
4.710
4.719
4.724
4.731
4.727
4.727
4.726
4.717
4.716
4.711
4.720
4.719
4.715
4.712
4.720
4.728
4.737
4.734
4.735
4.734
4.737
4.738
4.735
4.738
4.737
4.731
4.724
4.725
4.723
4.733
4.742
4.738
4.735
4.736
4.734
4.731
4.732
4.736
4.737
4.734
4.729
4.720
4.718
4.727
4.734
4.736
4.738
4.734
4.734
4.733
4.732
4.730
4.732
4.731
4.729
4.734
4.734
4.727
4.729
4.731
4.740
4.749
4.753
4.750
4.749
4.746
4.753
4.755
4.754
4.750
4.748
4.750
4.754
4.746
4.740
4.738
4.745
4.744
4.753
4.761
4.764
4.766
4.757
4.750
4.748
4.744
4.746
4.750
4.745
4.747
4.745
4.736
4.737
4.742
4.743
4.747
4.754
4.763
4.770
4.768
4.767
4.768
4.767
4.766
4.768
4.764
4.765
4.761
4.762
4.760
4.762
4.766
4.765
4.771
4.765
4.761
4.765
4.772
4.779
4.788
4.786
4.780
4.778
4.772
4.778
4.775
4.775
4.774
4.771
4.769
4.768
4.769
4.768
4.761
4.756
4.761
4.762
4.768
4.760
4.761
4.759
4.760
4.764
4.761
4.759
4.758
4.760
4.755
4.757
4.760
4.757
4.760
4.764
4.763
4.759
4.753
4.751
4.755
4.762
4.769
4.765
4.768
4.765
4.763
4.762
4.763
4.759
4.760
4.759
4.757
4.754
4.753
4.754
4.752
4.756
4.755
4.759
4.757
4.756
4.760
4.760
4.760
4.767
4.772
4.781
4.783
4.778
4.782
4.775
4.771
4.770
4.769
4.770
4.771
4.768
4.775
4.771
4.764
4.762
4.763
4.762
4.763
4.764
4.764
4.760
4.757
4.757
4.764
4.771
4.779
4.784
4.791
4.798
4.805
4.798
4.794
4.790
4.794
4.787
4.780
4.779
4.779
4.778
4.780
4.783
4.783
4.786
4.782
4.778
4.783
4.778
4.775
4.773
4.780
4.784
4.777
4.775
4.782
4.789
4.796
4.801
4.807
4.809
4.805
4.806
4.809
4.811
4.809
4.808
4.810
4.811
4.805
4.803
4.797
4.797
4.793
4.792
4.793
4.795
4.793
4.792
4.793
4.795
4.793
4.786
4.791
4.789
4.790
4.790
4.794
4.801
4.805
4.800
4.794
4.798
4.797
4.794
4.796
4.795
4.793
4.792
4.791
4.786
4.790
4.794
4.793
4.790
4.794
4.797
4.794
4.789
4.785
4.786
4.780
4.779
4.780
4.783
4.782
4.776
4.783
4.783
4.790
4.795
4.802
4.806
4.813
4.819
4.821
4.816
4.815
4.814
4.812
4.809
4.813
4.816
4.813
4.811
4.809
4.809
4.807
4.811
4.802
4.800
4.805
4.805
4.807
4.816
4.810
4.806
4.807
4.805
4.801
4.803
4.805
4.803
4.804
4.806
4.804
4.806
4.807
4.808
4.813
4.820
4.824
4.831
4.837
4.839
4.840
4.839
4.835
4.838
4.835
4.842
4.842
4.844
4.843
4.841
4.840
4.834
4.829
4.827
4.823
4.820
4.820
4.819
4.820
4.816
4.813
4.814
4.815
4.814
4.810
4.811
4.815
4.819
4.827
4.823
4.823
4.819
4.812
4.809
4.816
4.820
4.823
4.822
4.820
4.819
4.815
4.811
4.809
4.812
4.812
4.806
4.802
4.803
4.799
4.800
4.799
4.803
4.804
4.800
4.799
4.798
4.796
4.792
4.790
4.790
4.799
4.798
4.799
4.798
4.797
4.792
4.794
4.795
4.794
4.789
4.786
4.790
4.791
4.790
4.794
4.798
4.804
4.798
4.802
4.806
4.812
4.814
4.813
4.809
4.813
4.808
4.805
4.803
4.799
4.803
4.807
4.801
4.804
4.805
4.805
4.803
4.804
4.805
4.805
4.800
4.802
4.800
4.799
4.797
4.791
4.786
4.793
4.795
4.794
4.789
4.788
4.790
4.793
4.792
4.788
4.790
4.786
4.784
4.780
4.778
4.783
4.786
4.791
4.797
4.801
4.805
4.810
4.816
4.815
4.814
4.815
4.811
4.812
4.812
4.809
4.806
4.807
4.812
4.810
4.816
4.815
4.820
4.821
4.816
4.820
4.819
4.821
4.812
4.810
4.811
4.810
4.805
4.804
4.805
4.802
4.801
4.801
4.797
4.796
4.795
4.796
4.801
4.802
4.800
4.802
4.798
4.794
4.790
4.788
4.784
4.786
4.787
4.786
4.786
4.786
4.786
4.790
4.795
4.797
4.803
4.809
4.812
4.815
4.811
4.810
4.809
4.809
4.808
4.807
4.806
4.807
4.808
4.812
4.814
4.812
4.806
4.809
4.805
4.801
4.800
4.801
4.798
4.802
