2.991
3.329
3.517
3.633
3.716
3.760
3.850
3.867
3.932
3.913
3.957
3.996
4.034
4.071
4.098
4.085
4.033
4.042
4.064
4.087
4.096
4.109
4.130
4.136
4.157
4.160
4.180
4.179
4.196
4.211
4.209
4.221
4.237
4.231
4.240
4.251
4.265
4.275
4.268
4.274
4.285
4.291
4.303
4.308
4.323
4.312
4.308
4.326
4.327
4.337
4.345
4.352
4.355
4.371
4.360
4.350
4.353
4.368
4.377
4.374
4.371
4.386
4.393
4.397
4.403
4.402
4.415
4.425
4.427
4.436
4.415
4.403
4.413
4.411
4.428
4.426
4.427
4.428
4.432
4.434
4.443
4.447
4.453
4.456
4.460
4.467
4.460
4.460
4.468
4.471
4.480
4.481
4.484
4.487
4.492
4.501
4.504
4.501
4.504
4.497
4.505
4.489
4.480
4.478
4.481
4.482
4.486
4.490
4.487
4.496
4.503
4.503
4.503
4.489
4.500
4.499
4.504
4.500
4.508
4.513
4.515
4.520
4.530
4.525
4.524
4.520
4.522
4.531
4.536
4.539
4.544
4.540
4.544
4.540
4.536
4.544
4.533
4.537
4.541
4.543
4.548
4.548
4.553
4.554
4.557
4.567
4.559
4.569
4.562
4.572
4.558
4.573
4.574
4.581
4.575
4.580
4.592
4.581
4.599
4.586
4.593
4.600
4.592
4.588
4.584
4.595
4.595
4.586
4.591
4.580
4.595
4.593
4.588
4.603
4.602
4.602
4.611
4.611
4.606
4.615
4.622
4.624
4.616
4.627
4.625
4.620
4.633
4.628
4.623
4.618
4.607
4.597
4.587
4.581
4.596
4.591
4.592
4.587
4.606
4.591
4.586
4.597
4.600
4.600
4.591
4.603
4.609
4.610
4.609
4.611
4.621
4.618
4.615
4.613
4.624
4.611
4.598
4.603
4.606
4.596
4.599
4.596
4.601
4.601
4.595
4.592
4.606
4.600
4.596
4.596
4.594
4.613
4.614
4.606
4.614
4.612
4.615
4.622
4.620
4.616
4.620
4.616
4.628
4.617
4.617
4.615
4.613
4.626
4.626
4.627
4.625
4.620
4.616
4.634
4.643
4.642
4.642
4.636
4.634
4.637
4.652
4.649
4.648
4.636
4.626
4.635
4.644
4.640
4.639
4.637
4.638
4.629
4.640
4.647
4.644
4.646
4.637
4.639
4.634
4.651
4.661
4.659
4.657
4.651
4.650
4.640
4.650
4.660
4.664
4.653
4.654
4.656
4.650
4.651
4.659
4.673
4.680
4.681
4.673
4.672
4.671
4.663
4.662
4.677
4.690
4.684
4.674
4.673
4.671
4.668
4.673
4.675
4.687
4.689
4.683
4.674
4.665
4.657
4.648
4.662
4.667
4.667
4.667
4.663
4.659
4.652
4.653
4.652
4.659
4.662
4.653
4.658
4.656
4.652
4.649
4.648
4.646
4.649
4.663
4.673
4.668
4.671
4.672
4.668
4.666
4.667
4.666
4.663
4.658
4.671
4.672
4.667
4.673
4.673
4.670
4.667
4.670
4.671
4.659
4.658
4.671
4.667
4.672
4.669
4.664
4.669
4.675
4.672
4.665
4.665
4.665
4.662
4.675
4.687
4.693
4.696
4.691
4.685
4.689
4.684
4.682
4.682
4.676
4.679
4.669
4.681
4.693
4.702
4.690
4.689
4.683
4.682
4.683
4.679
4.683
4.676
4.677
4.678
4.682
4.688
4.699
4.707
4.705
4.706
4.706
4.702
4.707
4.707
4.710
4.708
4.704
4.699
4.693
4.693
4.695
4.706
4.718
4.716
4.718
4.715
4.709
4.715
4.711
4.710
4.712
4.702
4.695
4.696
4.701
4.699
4.701
4.705
4.704
4.693
4.702
4.709
4.708
4.709
4.702
4.696
4.691
4.688
4.688
4.686
4.682
4.684
4.694
4.704
4.708
4.700
4.698
4.697
4.704
4.704
4.700
4.704
4.707
4.703
4.703
4.700
4.702
4.700
4.703
4.699
4.696
4.704
4.714
4.715
4.717
4.713
4.714
4.715
4.714
4.708
4.710
4.706
4.707
4.707
4.704
4.715
4.722
4.714
4.711
4.712
4.707
4.709
4.719
4.728
4.730
4.727
4.736
4.729
4.727
4.727
4.733
4.734
4.731
4.731
4.735
4.726
4.728
4.734
4.731
4.727
4.722
4.725
4.721
4.717
4.725
4.735
4.744
4.745
4.754
4.747
4.749
4.749
4.749
4.745
4.738
4.733
4.741
4.734
4.741
4.730
4.730
4.730
4.728
4.728
4.725
4.718
4.714
4.723
4.732
4.741
4.749
4.747
4.749
4.743
4.740
4.740
4.740
4.733
4.733
4.736
4.736
4.734
4.728
4.729
4.725
4.730
4.733
4.732
4.731
4.727
4.725
4.727
4.724
4.729
4.736
4.745
4.753
4.762
4.761
4.760
4.758
4.759
4.760
4.759
4.763
4.766
4.765
4.757
4.762
4.765
4.761
4.762
4.758
4.758
4.751
4.750
4.748
4.750
4.754
4.758
4.754
4.759
4.759
4.757
4.752
4.760
4.768
4.776
4.781
4.781
4.784
4.779
4.777
4.773
4.771
4.771
4.765
4.767
4.767
4.772
4.770
4.771
4.777
4.773
4.770
4.766
4.761
4.757
4.752
4.747
4.743
4.739
4.734
4.736
4.743
4.751
4.758
4.758
4.753
4.758
4.756
4.756
4.757
4.758
4.758
4.753
4.751
4.753
4.751
4.748
4.748
4.748
4.745
4.740
4.734
4.729
4.724
4.722
4.720
4.722
4.725
4.722
4.723
4.722
4.722
4.722
4.725
4.732
4.740
4.747
4.754
4.758
4.759
4.752
4.747
4.743
4.742
4.743
4.740
4.731
4.735
4.745
4.746
4.750
4.740
4.734
4.736
4.736
4.732
4.731
4.730
4.732
4.732
4.731
4.729
4.723
4.723
4.724
4.730
4.733
4.726
4.723
4.726
4.728
4.736
4.740
4.736
4.743
4.749
4.756
4.763
4.770
4.769
4.765
4.759
4.753
4.747
4.744
4.744
4.746
4.751
4.748
4.738
4.735
4.729
4.730
4.730
4.728
4.724
4.729
4.729
4.731
4.728
4.727
4.725
4.723
4.726
4.722
4.725
4.726
4.722
4.720
4.720
4.720
4.715
4.711
4.714
4.721
4.727
4.734
4.740
4.746
4.753
4.759
4.764
4.764
4.765
4.763
4.763
4.762
4.762
4.771
4.771
4.772
4.768
4.762
4.765
4.764
4.761
4.762
4.758
4.750
4.742
4.744
4.743
4.740
4.737
4.737
4.740
4.736
4.737
4.734
4.729
4.729
4.731
4.725
4.726
4.726
4.726
4.729
4.730
4.727
4.728
4.727
4.727
4.726
4.722
4.727
4.733
4.739
4.745
4.751
4.757
4.763
4.762
4.762
4.760
4.760
4.758
4.757
4.757
4.757
4.762
4.764
4.761
4.758
4.753
4.750
4.750
4.750
4.751
4.753
4.758
4.763
4.762
4.766
4.768
4.760
4.758
4.754
4.752
4.747
4.752
4.751
4.748
4.747
4.750
4.747
4.747
4.749
4.748
4.748
4.744
4.740
4.734
4.727
4.726
4.720
4.719
4.722
4.717
4.717
4.721
4.727
4.733
4.738
4.744
4.750
4.755
4.761
4.766
4.772
4.777
4.783
4.788
4.783
4.784
4.779
4.779
4.779
4.779
4.771
4.770
4.769
4.769
4.774
4.774
4.768
4.764
4.766
4.764
4.766
4.765
4.764
4.767
4.767
4.767
4.767
4.765
4.763
4.765
4.757
4.756
4.755
4.751
4.753
4.754
4.754
4.748
4.750
4.747
4.746
4.745
4.744
4.745
4.746
4.746
4.753
4.755
4.753
4.757
4.755
4.754
4.752
4.748
4.741
4.737
4.736
4.733
4.736
4.739
4.745
4.750
4.755
4.760
4.765
4.770
4.776
4.781
4.786
4.792
4.793
4.786
4.789
4.791
4.787
4.787
4.786
4.786
4.793
4.788
4.787
4.790
4.793
4.794
4.794
4.791
4.795
4.792
4.788
4.784
4.782
4.778
4.777
4.774
4.775
4.777
4.777
4.782
4.782
4.781
4.779
4.778
4.773
4.775
4.776
4.775
4.776
4.778
4.783
4.779
4.780
4.775
4.774
4.771
4.776
4.773
4.771
4.772
4.771
4.771
4.769
4.770
4.765
4.764
4.765
4.772
4.773
4.776
4.769
4.762
4.761
4.767
4.769
4.770
4.769
4.770
4.769
4.769
4.767
4.763
4.765
4.770
4.775
4.780
4.785
4.790
4.794
4.799
4.804
4.809
4.814
4.818
4.823
4.827
4.828
