2.966
3.289
3.482
3.424
3.487
3.604
3.616
3.724
3.727
3.804
3.792
3.854
3.871
3.878
3.871
3.913
3.907
3.959
3.977
4.011
3.999
4.030
4.054
4.056
4.032
4.048
3.989
4.004
3.997
4.053
4.031
4.057
4.064
4.070
4.107
4.086
4.119
4.080
4.054
4.081
4.067
4.120
4.076
4.122
4.125
4.128
4.159
4.118
4.139
4.111
4.101
4.166
4.134
4.142
4.167
4.192
4.159
4.134
4.197
4.184
4.189
4.182
4.192
4.231
4.223
4.211
4.203
4.214
4.276
4.257
4.218
4.179
4.191
4.242
4.184
4.166
4.189
4.135
4.177
4.230
4.218
4.212
4.181
4.142
4.152
4.164
4.207
4.214
4.196
4.222
4.217
4.189
4.154
4.164
4.167
4.211
4.255
4.258
4.236
4.246
4.227
4.234
4.235
4.208
4.231
4.214
4.219
4.255
4.291
4.300
4.290
4.280
4.243
4.207
4.182
4.194
4.208
4.191
4.182
4.193
4.228
4.262
4.296
4.281
4.278
4.272
4.293
4.311
4.306
4.270
4.293
4.254
4.292
4.273
4.258
4.220
4.241
4.223
4.240
4.270
4.290
4.314
4.285
4.258
4.246
4.231
4.232
4.236
4.229
4.252
4.273
4.271
4.247
4.235
4.219
4.215
4.204
4.181
4.185
4.192
4.200
4.226
4.252
4.278
4.305
4.314
4.312
4.312
4.290
4.281
4.273
4.274
4.268
4.259
4.283
4.278
4.248
4.252
4.247
4.220
4.217
4.237
4.224
4.250
4.261
4.232
4.216
4.202
4.198
4.200
4.206
4.177
4.201
4.208
4.230
4.252
4.274
4.295
4.317
4.338
4.360
4.352
4.338
4.363
4.343
4.327
4.325
4.322
4.303
4.329
4.340
4.327
4.294
4.294
4.309
4.329
4.320
4.312
4.293
4.302
4.296
4.268
4.261
4.242
4.224
4.206
4.189
4.188
4.168
4.164
4.177
4.171
4.193
4.165
4.185
4.207
4.223
4.237
4.208
4.220
4.192
4.193
4.208
4.225
4.243
4.260
4.277
4.294
4.312
4.329
4.346
4.364
4.381
4.361
4.353
4.361
4.364
4.337
4.327
4.350
4.352
4.331
4.318
4.322
4.314
4.301
4.274
4.282
4.279
4.290
4.280
4.265
4.242
4.243
4.252
4.262
4.238
4.260
4.260
4.276
4.263
4.263
4.280
4.269
4.258
4.253
4.260
4.257
4.255
4.248
4.256
4.281
4.275
4.252
4.241
4.225
4.244
4.249
4.249
4.251
4.240
4.239
4.244
4.229
4.229
4.229
4.234
4.235
4.231
4.223
4.201
4.194
4.200
4.201
4.204
4.208
4.221
4.239
4.235
4.225
4.221
4.225
4.210
4.199
4.212
4.225
4.238
4.251
4.264
4.276
4.289
4.302
4.315
4.328
4.341
4.353
4.345
4.352
4.349
4.368
4.387
4.401
4.394
4.396
4.414
4.409
4.404
4.382
4.361
4.341
4.319
4.314
4.307
4.309
4.311
4.323
4.317
4.308
4.302
4.286
4.298
4.308
4.294
4.294
4.292
4.293
4.288
4.299
4.301
4.298
4.315
4.311
4.301
4.298
4.315
4.331
4.321
4.325
4.320
4.322
4.312
4.321
4.295
4.296
4.295
4.295
4.274
4.276
4.289
4.276
4.285
4.273
4.263
4.256
4.252
4.246
4.232
4.220
4.241
4.234
4.223
4.225
4.206
4.202
4.212
4.225
4.214
4.205
4.203
4.203
4.190
4.208
4.211
4.194
4.207
4.222
4.236
4.251
4.266
4.272
4.265
4.270
4.256
4.261
4.252
4.257
4.245
4.233
4.238
4.237
4.248
4.265
4.267
4.267
4.267
4.288
4.291
4.264
4.254
4.260
4.251
4.256
4.245
4.255
4.249
4.255
4.242
4.255
4.244
4.226
4.210
4.207
4.210
4.215
4.205
4.206
4.213
4.209
4.215
4.193
4.192
4.180
4.188
4.184
4.196
4.181
4.178
4.175
4.169
4.149
4.155
4.147
4.164
4.144
4.165
4.157
4.159
4.179
4.189
4.193
4.192
4.171
4.185
4.187
4.181
4.191
4.198
4.207
4.216
4.224
4.233
4.241
4.250
4.259
4.267
4.276
4.285
4.293
4.302
4.310
4.319
4.327
4.336
4.345
4.353
4.362
4.371
4.379
4.388
4.396
4.405
4.414
4.406
4.412
4.408
4.414
4.414
4.409
4.399
4.386
4.378
4.382
4.386
4.371
4.363
4.379
4.394
4.388
4.378
4.367
4.356
4.360
4.349
4.345
4.347
4.335
4.330
4.333
4.335
4.321
4.331
4.331
4.314
4.307
4.321
4.334
4.331
4.331
4.332
4.340
4.349
4.353
4.343
4.329
4.316
4.302
4.303
4.296
4.307
4.316
4.312
4.314
4.308
4.314
4.326
4.336
4.348
4.349
4.353
4.349
4.337
4.334
4.341
4.343
4.349
4.351
4.357
4.365
4.363
4.351
4.336
4.331
4.323
4.317
4.311
4.304
4.302
4.305
4.313
4.321
4.333
4.334
4.318
4.318
4.306
4.293
4.279
4.277
4.260
4.266
4.281
4.296
4.293
4.284
4.266
4.256
4.253
4.271
4.276
4.277
4.277
4.272
4.266
4.276
4.285
4.276
4.274
4.273
4.263
4.257
4.256
4.248
4.245
4.256
4.257
4.263
4.265
4.247
4.240
4.252
4.249
4.249
4.246
4.231
4.243
4.250
4.260
4.258
4.247
4.255
4.274
4.264
4.272
4.285
4.288
4.287
4.272
4.257
4.257
4.270
4.272
4.271
4.281
4.292
4.271
4.258
4.261
4.263
4.248
4.240
4.254
4.247
4.238
4.228
4.219
4.214
4.201
4.196
4.215
4.204
4.209
4.205
4.206
4.208
4.209
4.199
4.213
4.216
4.217
4.214
4.203
4.217
4.223
4.238
4.248
4.234
4.228
4.227
4.216
4.218
4.205
4.217
4.193
4.199
4.193
4.201
4.198
4.205
4.198
4.180
4.189
4.200
4.194
4.192
4.183
4.175
4.178
4.176
4.177
4.178
4.177
4.181
4.189
4.184
4.189
4.199
4.209
4.220
4.228
4.227
4.225
4.217
4.218
4.231
4.216
4.227
4.228
4.229
4.219
4.220
4.221
4.218
4.228
4.231
4.231
4.227
4.234
4.244
4.228
4.219
4.227
4.230
4.242
4.232
4.228
4.222
4.217
4.229
4.232
4.243
4.257
4.255
4.249
4.241
4.253
4.255
4.246
4.236
4.230
4.229
4.227
4.220
4.217
4.223
4.229
4.226
4.228
4.223
4.231
4.231
4.226
4.225
4.224
4.216
4.216
4.207
4.197
4.202
4.200
4.211
4.210
4.208
4.215
4.218
4.217
4.231
4.238
4.221
4.221
4.209
4.207
4.206
4.197
4.197
4.192
4.184
4.185
4.183
4.180
4.181
4.187
4.189
4.196
4.199
4.193
4.181
4.185
4.188
4.186
4.178
4.181
4.171
4.170
4.174
4.179
4.175
4.174
4.187
4.187
4.190
4.181
4.186
4.180
4.171
4.172
4.161
4.162
4.170
4.176
4.184
4.191
4.199
4.206
4.213
4.221
4.228
4.235
4.243
4.250
4.250
4.245
4.248
4.248
4.242
4.239
4.254
4.263
4.274
4.280
4.292
4.284
4.274
4.262
4.270
4.259
4.256
4.256
4.257
4.261
4.262
4.251
4.245
4.244
4.234
4.250
4.260
4.260
4.269
4.279
4.288
4.287
4.290
4.283
4.280
4.275
4.269
4.273
4.282
4.281
4.280
4.270
4.271
4.280
4.274
4.270
4.269
4.278
4.280
4.275
4.274
4.274
4.266
4.265
4.261
4.261
4.262
4.262
4.250
4.251
4.243
4.252
4.246
4.240
4.238
4.251
4.234
4.231
4.240
4.230
4.232
4.239
4.232
4.243
4.246
4.238
4.246
4.235
4.238
4.239
4.245
4.236
4.230
4.223
4.215
4.221
4.201
4.212
4.204
4.200
4.184
4.180
4.192
4.185
4.191
4.202
4.213
4.220
4.205
4.220
4.223
4.212
4.208
4.201
4.208
4.210
4.213
4.202
4.204
4.196
4.195
4.193
4.194
4.190
4.194
4.194
4.195
4.190
4.195
4.207
4.210
4.215
4.224
4.217
4.227
4.227
4.226
4.229
4.235
4.232
4.224
4.223
4.226
4.212
4.211
4.202
4.198
4.202
4.206
4.211
4.215
4.219
4.224
4.228
4.232
4.237
4.241
4.245
4.249
4.254
4.258
4.262
4.267
4.271
4.275
4.280
4.284
4.288
4.292
4.297
4.301
