2.994
3.335
3.510
3.630
3.715
3.777
3.843
3.886
3.915
3.968
3.970
4.012
4.047
4.086
4.054
4.080
4.106
4.127
4.151
4.170
4.192
4.207
4.225
4.242
4.211
4.173
4.181
4.190
4.205
4.210
4.218
4.231
4.233
4.247
4.260
4.259
4.271
4.270
4.282
4.292
4.299
4.300
4.310
4.322
4.321
4.324
4.334
4.343
4.350
4.344
4.347
4.358
4.364
4.370
4.378
4.376
4.373
4.384
4.388
4.398
4.399
4.406
4.413
4.409
4.405
4.414
4.414
4.417
4.430
4.429
4.436
4.442
4.447
4.451
4.451
4.440
4.449
4.450
4.454
4.455
4.465
4.469
4.465
4.472
4.474
4.483
4.487
4.484
4.492
4.494
4.499
4.483
4.485
4.491
4.487
4.491
4.495
4.499
4.507
4.508
4.510
4.503
4.517
4.518
4.517
4.525
4.525
4.532
4.534
4.530
4.537
4.536
4.539
4.547
4.547
4.552
4.553
4.552
4.537
4.540
4.532
4.535
4.536
4.543
4.542
4.544
4.547
4.554
4.555
4.557
4.562
4.565
4.558
4.560
4.564
4.562
4.567
4.568
4.573
4.577
4.583
4.584
4.583
4.584
4.583
4.590
4.589
4.584
4.589
4.595
4.594
4.593
4.591
4.599
4.605
4.604
4.607
4.609
4.618
4.612
4.611
4.618
4.624
4.618
4.625
4.620
4.622
4.623
4.629
4.625
4.614
4.603
4.592
4.593
4.599
4.596
4.605
4.601
4.608
4.609
4.608
4.617
4.616
4.614
4.611
4.618
4.618
4.620
4.622
4.623
4.629
4.626
4.627
4.614
4.629
4.621
4.622
4.621
4.619
4.620
4.630
4.626
4.635
4.631
4.638
4.632
4.636
4.637
4.635
4.645
4.643
4.651
4.647
4.648
4.649
4.647
4.651
4.645
4.652
4.653
4.654
4.662
4.658
4.661
4.670
4.661
4.670
4.666
4.655
4.656
4.654
4.658
4.660
4.661
4.666
4.655
4.660
4.662
4.660
4.664
4.671
4.667
4.668
4.672
4.668
4.669
4.679
4.675
4.674
4.684
4.684
4.681
4.687
4.692
4.685
4.683
4.693
4.691
4.690
4.688
4.690
4.683
4.690
4.699
4.696
4.691
4.701
4.702
4.699
4.695
4.707
4.710
4.712
4.702
4.714
4.711
4.710
4.710
4.715
4.711
4.703
4.708
4.704
4.700
4.699
4.710
4.717
4.714
4.714
4.710
4.714
4.705
4.706
4.710
4.709
4.710
4.704
4.707
4.720
4.721
4.712
4.714
4.715
4.722
4.723
4.722
4.726
4.724
4.732
4.730
4.731
4.727
4.729
4.740
4.739
4.738
4.732
4.732
4.742
4.736
4.729
4.724
4.720
4.714
4.707
4.703
4.710
4.707
4.704
4.703
4.701
4.700
4.699
4.697
4.696
4.699
4.709
4.714
4.709
4.710
4.710
4.705
4.714
4.721
4.718
4.718
4.714
4.708
4.715
4.711
4.715
4.714
4.714
4.714
4.718
4.727
4.721
4.721
4.718
4.719
4.720
4.729
4.731
4.735
4.732
4.730
4.737
4.733
4.736
4.732
4.725
4.719
4.712
4.718
4.723
4.721
4.717
4.718
4.720
4.719
4.718
4.727
4.723
4.716
4.717
4.710
4.706
4.716
4.720
4.714
4.717
4.719
4.718
4.718
4.714
4.724
4.721
4.719
4.717
4.714
4.714
4.711
4.717
4.727
4.729
4.730
4.726
4.725
4.723
4.727
4.726
4.730
4.739
4.743
4.737
4.735
4.731
4.729
4.732
4.732
4.737
4.740
4.739
4.741
4.734
4.730
4.728
4.729
4.731
4.740
4.744
4.746
4.750
4.741
4.739
4.736
4.734
4.738
4.742
4.751
4.753
4.751
4.747
4.749
4.748
4.749
4.745
4.746
4.748
4.758
4.764
4.768
4.759
4.757
4.755
4.758
4.753
4.746
4.750
4.754
4.750
4.755
4.755
4.754
4.750
4.749
4.744
4.746
4.747
4.755
4.761
4.754
4.750
4.747
4.751
4.751
4.742
4.743
4.740
4.751
4.758
4.765
4.767
4.768
4.762
4.762
4.761
4.757
4.758
4.755
4.755
4.757
4.767
4.776
4.770
4.770
4.775
4.777
4.770
4.762
4.755
4.757
4.756
4.760
4.769
4.777
4.777
4.779
4.773
4.777
4.772
4.777
4.777
4.774
4.772
4.771
4.769
4.776
4.783
4.792
4.792
4.793
4.795
4.796
4.792
4.787
4.778
4.782
4.786
4.782
4.778
4.784
4.791
4.793
4.789
4.792
4.794
4.790
4.789
4.787
4.783
4.784
4.786
4.782
4.778
4.777
4.778
4.774
4.766
4.768
4.766
4.766
4.762
4.766
4.766
4.765
4.766
4.766
4.773
4.781
4.775
4.779
4.781
4.779
4.778
4.776
4.772
4.770
4.764
4.758
4.755
4.757
4.762
4.771
4.767
4.773
4.766
4.768
4.769
4.771
4.773
4.770
4.767
4.768
4.766
4.758
4.756
4.758
4.764
4.773
4.780
4.779
4.778
4.779
4.777
4.779
4.775
4.776
4.773
4.774
4.778
4.781
4.777
4.779
4.777
4.776
4.773
4.781
4.788
4.788
4.788
4.788
4.791
4.784
4.781
4.777
4.775
4.774
4.772
4.774
4.770
4.777
4.777
4.776
4.775
4.781
4.788
4.792
4.789
4.787
4.781
4.774
4.775
4.777
4.783
4.781
4.773
4.773
4.769
4.771
4.772
4.766
4.772
4.774
4.781
4.788
4.794
4.801
4.799
4.798
4.794
4.790
4.791
4.793
4.792
4.787
4.783
4.785
4.792
4.790
4.784
4.790
4.788
4.793
4.792
4.787
4.794
4.799
4.807
4.807
4.802
4.804
4.803
4.799
4.803
4.796
4.795
4.801
4.800
4.798
4.797
4.790
4.784
4.785
4.792
4.785
4.783
4.790
4.797
4.803
4.810
4.807
4.810
4.806
4.807
4.806
4.807
4.803
4.800
4.806
4.807
4.810
4.807
4.807
4.802
4.801
4.799
4.804
4.803
4.801
4.802
4.796
4.803
4.810
4.814
4.821
4.829
4.832
4.830
4.829
4.829
4.828
4.825
4.821
4.816
4.814
4.814
4.815
4.814
4.815
4.822
4.820
4.818
4.810
4.808
4.807
4.805
4.810
4.811
4.818
4.824
4.820
4.819
4.817
4.819
4.820
4.814
4.812
4.807
4.803
4.799
4.793
4.799
4.795
4.794
4.790
4.791
4.793
4.792
4.798
4.797
4.796
4.797
4.803
4.810
4.814
4.819
4.825
4.824
4.823
4.827
4.823
4.816
4.817
4.816
4.809
4.803
4.806
4.799
4.799
4.799
4.803
4.810
4.804
4.800
4.793
4.789
4.790
4.788
4.788
4.794
4.801
4.807
4.810
4.818
4.817
4.818
4.821
4.827
4.826
4.822
4.821
4.822
4.817
4.819
4.820
4.819
4.820
4.819
4.818
4.816
4.817
4.818
4.817
4.813
4.814
4.811
4.814
4.808
4.804
4.803
4.803
4.803
4.809
4.814
4.818
4.825
4.826
4.829
4.828
4.824
4.825
4.829
4.826
4.825
4.825
4.829
4.826
4.830
4.826
4.827
4.828
4.824
4.826
4.830
4.829
4.824
4.826
4.829
4.828
4.830
4.828
4.821
4.817
4.816
4.818
4.819
4.817
4.819
4.825
4.830
4.836
4.841
4.847
4.847
4.845
4.844
4.844
4.841
4.840
4.840
4.839
4.835
4.836
4.838
4.845
4.844
4.839
4.841
4.840
4.847
4.847
4.851
4.848
4.846
4.847
4.844
4.840
4.838
4.836
4.835
4.832
4.830
4.831
4.832
4.834
4.832
4.836
4.841
4.845
4.851
4.851
4.854
4.851
4.857
4.858
4.862
4.861
4.855
4.851
4.847
4.848
4.847
4.845
4.844
4.851
4.855
4.851
4.849
4.847
4.846
4.842
4.836
4.834
4.829
4.825
4.824
4.826
4.822
4.823
4.825
4.825
4.822
4.823
4.825
4.831
4.835
4.839
4.844
4.850
4.855
4.853
4.851
4.850
4.855
4.853
4.851
4.848
4.847
4.845
4.846
4.844
4.846
4.850
4.849
4.848
4.849
4.845
4.849
4.850
4.844
4.839
4.838
4.839
4.835
4.836
4.835
4.837
4.836
4.836
4.836
4.837
4.836
4.839
4.836
4.837
4.835
4.839
4.843
4.842
4.843
4.847
4.852
4.856
4.860
4.866
4.868
4.870
4.868
4.866
4.866
4.873
4.876
4.875
4.870
4.867
4.866
4.862
4.862
4.864
