2.985
3.294
3.491
3.625
3.651
3.770
3.733
3.734
3.779
3.832
3.867
3.897
3.918
3.958
3.959
4.002
3.996
4.035
4.056
4.044
4.053
4.083
4.096
4.126
4.120
4.109
4.112
4.131
4.165
4.156
4.179
4.198
4.195
4.197
4.228
4.177
4.205
4.205
4.206
4.202
4.223
4.226
4.250
4.259
4.249
4.242
4.257
4.267
4.278
4.276
4.286
4.293
4.306
4.322
4.296
4.294
4.321
4.338
4.338
4.333
4.352
4.345
4.365
4.353
4.346
4.317
4.329
4.318
4.345
4.340
4.343
4.326
4.313
4.302
4.323
4.326
4.327
4.335
4.325
4.339
4.352
4.371
4.373
4.357
4.369
4.346
4.362
4.351
4.361
4.377
4.362
4.376
4.395
4.392
4.383
4.410
4.400
4.395
4.419
4.395
4.403
4.414
4.417
4.391
4.394
4.386
4.380
4.369
4.406
4.393
4.375
4.384
4.407
4.395
4.395
4.377
4.397
4.431
4.422
4.406
4.400
4.412
4.413
4.414
4.410
4.412
4.413
4.448
4.447
4.439
4.439
4.419
4.434
4.467
4.457
4.461
4.450
4.434
4.437
4.430
4.430
4.425
4.424
4.426
4.425
4.455
4.446
4.432
4.455
4.449
4.436
4.425
4.453
4.482
4.490
4.469
4.461
4.465
4.455
4.469
4.463
4.488
4.482
4.488
4.490
4.469
4.456
4.459
4.445
4.471
4.493
4.491
4.500
4.487
4.489
4.484
4.486
4.470
4.476
4.489
4.507
4.531
4.531
4.507
4.505
4.494
4.500
4.512
4.501
4.489
4.490
4.512
4.535
4.535
4.545
4.536
4.522
4.508
4.494
4.483
4.488
4.486
4.486
4.502
4.488
4.476
4.466
4.478
4.472
4.478
4.468
4.473
4.462
4.461
4.456
4.472
4.493
4.514
4.513
4.505
4.486
4.468
4.468
4.473
4.471
4.464
4.460
4.467
4.453
4.465
4.461
4.480
4.499
4.510
4.505
4.501
4.500
4.510
4.501
4.491
4.489
4.469
4.458
4.459
4.451
4.464
4.458
4.458
4.463
4.480
4.498
4.516
4.521
4.525
4.512
4.506
4.492
4.490
4.506
4.505
4.496
4.494
4.486
4.472
4.468
4.484
4.479
4.482
4.474
4.463
4.479
4.496
4.512
4.529
4.541
4.528
4.526
4.526
4.551
4.535
4.513
4.521
4.507
4.514
4.516
4.511
4.502
4.504
4.505
4.504
4.511
4.512
4.509
4.503
4.497
4.482
4.497
4.512
4.527
4.542
4.557
4.573
4.571
4.557
4.556
4.572
4.579
4.574
4.572
4.555
4.566
4.573
4.565
4.560
4.545
4.530
4.516
4.521
4.519
4.519
4.518
4.533
4.537
4.529
4.528
4.510
4.498
4.512
4.525
4.539
4.553
4.546
4.533
4.536
4.545
4.542
4.546
4.533
4.539
4.534
4.532
4.526
4.523
4.522
4.514
4.517
4.521
4.517
4.513
4.517
4.517
4.505
4.507
4.498
4.504
4.502
4.505
4.496
4.496
4.485
4.477
4.479
4.491
4.507
4.522
4.528
4.540
4.553
4.565
4.577
4.590
4.587
4.594
4.594
4.588
4.593
4.590
4.594
4.585
4.580
4.572
4.570
4.574
4.577
4.565
4.558
4.567
4.565
4.570
4.579
4.567
4.570
4.574
4.576
4.568
4.559
4.550
4.541
4.532
4.524
4.517
4.518
4.512
4.505
4.502
4.498
4.495
4.490
4.495
4.506
4.517
4.527
4.538
4.549
4.560
4.568
4.580
4.565
4.560
4.564
4.559
4.555
4.547
4.562
4.556
4.554
4.553
4.548
4.536
4.539
4.540
4.536
4.529
4.535
4.526
4.527
4.522
4.514
4.526
4.543
4.547
4.534
4.542
4.540
4.545
4.539
4.542
4.539
4.537
4.541
4.533
4.533
4.526
4.535
4.523
4.526
4.525
4.531
4.522
4.513
4.519
4.516
4.517
4.514
4.511
4.511
4.501
4.510
4.507
4.516
4.526
4.535
4.545
4.554
4.564
4.574
4.583
4.578
4.581
4.582
4.583
4.575
4.570
4.567
4.573
4.570
4.573
4.572
4.572
4.571
4.586
4.583
4.578
4.567
4.556
4.552
4.543
4.530
4.533
4.540
4.551
4.556
4.547
4.552
4.547
4.546
4.539
4.539
4.536
4.536
4.534
4.534
4.536
4.536
4.544
4.538
4.540
4.532
4.530
4.529
4.520
4.524
4.517
4.519
4.525
4.536
4.533
4.527
4.525
4.524
4.526
4.520
4.515
4.510
4.502
4.506
4.497
4.500
4.495
4.507
4.508
4.503
4.492
4.482
4.486
4.494
4.502
4.512
4.524
4.533
4.542
4.543
4.552
4.560
4.568
4.576
4.584
4.593
4.601
4.609
4.617
4.610
4.608
4.604
4.607
4.612
4.617
4.616
4.615
4.603
4.601
4.594
4.588
4.593
4.592
4.593
4.594
4.598
4.600
4.595
4.597
4.593
4.593
4.591
4.597
4.594
4.580
4.575
4.573
4.570
4.571
4.567
4.556
4.557
4.560
4.555
4.565
4.557
4.567
4.563
4.564
4.557
4.554
4.555
4.547
4.552
4.553
4.559
4.563
4.561
4.560
4.568
4.569
4.563
4.574
4.578
4.573
4.574
4.577
4.590
4.578
4.579
4.577
4.562
4.564
4.564
4.559
4.556
4.551
4.551
4.555
4.547
4.540
4.530
4.524
4.524
4.530
4.535
4.535
4.529
4.535
4.539
4.538
4.537
4.536
4.541
4.532
4.543
4.545
4.538
4.536
4.529
4.523
4.517
4.511
4.504
4.503
4.510
4.517
4.524
4.531
4.537
4.544
4.551
4.558
4.565
4.572
4.578
4.585
4.592
4.599
4.601
4.595
4.596
4.595
4.592
4.591
4.592
4.590
4.578
4.574
4.577
4.578
4.573
4.567
4.577
4.579
4.570
4.567
4.567
4.576
4.571
4.576
4.582
4.573
4.576
4.579
4.585
4.573
4.580
4.584
4.569
4.569
4.576
4.579
4.579
4.588
4.590
4.580
4.583
4.572
4.583
4.571
4.571
4.577
4.574
4.572
4.568
4.576
4.571
4.578
4.568
4.566
4.555
4.551
4.551
4.538
4.541
4.535
4.549
4.551
4.550
4.545
4.546
4.539
4.542
4.545
4.555
4.550
4.547
4.542
4.531
4.525
4.529
4.524
4.520
4.529
4.534
4.534
4.531
4.529
4.526
4.527
4.522
4.521
4.521
4.523
4.534
4.526
4.522
4.523
4.518
4.519
4.527
4.525
4.525
4.531
4.526
4.518
4.517
4.521
4.513
4.518
4.522
4.525
4.519
4.517
4.513
4.524
4.523
4.528
4.520
4.525
4.532
4.541
4.546
4.543
4.550
4.552
4.560
4.552
4.558
4.558
4.546
4.547
4.553
4.548
4.545
4.539
4.542
4.541
4.532
4.538
4.537
4.531
4.524
4.524
4.523
4.521
4.522
4.510
4.510
4.509
4.507
4.508
4.511
4.501
4.491
4.488
4.493
4.499
4.504
4.510
4.515
4.521
4.526
4.532
4.537
4.543
4.548
4.554
4.559
4.564
4.570
4.575
4.581
4.586
4.592
4.597
4.603
4.608
4.614
4.619
4.625
4.630
4.633
4.633
4.628
4.620
4.625
4.621
4.622
4.627
4.637
4.632
4.640
4.638
4.632
4.628
4.627
4.625
4.617
4.615
4.611
4.616
4.617
4.617
4.619
4.620
4.626
4.619
4.610
4.617
4.608
4.603
4.607
4.603
4.597
4.599
4.603
4.603
4.603
4.607
4.611
4.616
4.608
4.602
4.593
4.594
4.597
4.607
4.615
4.624
4.632
4.627
4.621
4.618
4.609
4.607
4.605
4.602
4.600
4.608
4.604
4.605
4.598
4.595
4.594
4.592
4.586
4.584
4.577
4.579
4.575
4.571
4.573
4.582
4.580
4.583
4.577
4.569
4.568
4.569
4.577
4.580
4.587
4.594
4.601
4.594
4.589
4.591
4.586
4.581
4.576
4.571
4.566
4.561
4.556
4.551
4.551
4.557
4.556
4.552
4.551
4.549
4.550
4.551
4.553
4.555
4.559
4.564
4.571
4.571
4.569
4.562
4.555
4.554
4.552
4.552
4.547
4.543
4.541
4.541
4.543
4.539
4.531
4.531
4.541
4.539
4.534
4.528
4.529
4.534
4.543
4.551
4.550
4.551
4.547
4.547
4.552
4.553
4.554
4.552
4.551
4.554
4.546
4.548
4.556
4.550
4.544
4.538
4.532
4.525
4.519
4.520
4.514
4.510
4.508
4.501
4.492
