2.987
3.320
3.495
3.617
3.702
3.787
3.825
3.882
3.885
3.930
3.975
4.019
4.057
3.986
3.980
4.008
4.029
4.041
4.070
4.081
4.088
4.111
4.122
4.134
4.138
4.154
4.174
4.174
4.191
4.198
4.210
4.210
4.219
4.231
4.243
4.255
4.253
4.250
4.262
4.272
4.285
4.300
4.301
4.308
4.297
4.298
4.310
4.316
4.316
4.333
4.338
4.344
4.341
4.355
4.363
4.371
4.375
4.352
4.351
4.358
4.361
4.377
4.368
4.373
4.383
4.388
4.391
4.402
4.405
4.404
4.404
4.414
4.420
4.430
4.427
4.432
4.443
4.451
4.441
4.443
4.453
4.456
4.433
4.422
4.431
4.434
4.433
4.440
4.444
4.457
4.452
4.443
4.441
4.449
4.458
4.456
4.459
4.458
4.473
4.481
4.472
4.468
4.481
4.488
4.483
4.489
4.502
4.491
4.483
4.478
4.496
4.488
4.490
4.504
4.498
4.510
4.506
4.516
4.512
4.514
4.519
4.517
4.528
4.515
4.539
4.537
4.544
4.537
4.549
4.540
4.552
4.535
4.548
4.542
4.541
4.532
4.543
4.540
4.537
4.555
4.551
4.560
4.559
4.556
4.580
4.565
4.566
4.582
4.576
4.580
4.578
4.575
4.579
4.566
4.554
4.542
4.544
4.541
4.540
4.545
4.549
4.541
4.549
4.553
4.547
4.548
4.573
4.563
4.565
4.567
4.568
4.573
4.572
4.557
4.548
4.543
4.563
4.556
4.541
4.552
4.554
4.543
4.542
4.557
4.557
4.557
4.549
4.559
4.573
4.560
4.565
4.555
4.579
4.568
4.563
4.562
4.571
4.578
4.573
4.576
4.565
4.582
4.591
4.586
4.589
4.583
4.587
4.600
4.601
4.592
4.592
4.587
4.587
4.588
4.585
4.580
4.583
4.593
4.591
4.592
4.586
4.583
4.593
4.613
4.611
4.603
4.599
4.595
4.598
4.614
4.610
4.609
4.606
4.597
4.608
4.616
4.635
4.628
4.623
4.624
4.614
4.607
4.626
4.645
4.629
4.623
4.624
4.626
4.619
4.630
4.647
4.640
4.634
4.623
4.612
4.608
4.626
4.619
4.611
4.616
4.608
4.609
4.598
4.615
4.609
4.606
4.604
4.601
4.602
4.600
4.597
4.614
4.630
4.625
4.625
4.624
4.622
4.608
4.604
4.611
4.621
4.632
4.631
4.634
4.622
4.621
4.607
4.596
4.603
4.619
4.626
4.634
4.633
4.625
4.618
4.613
4.619
4.618
4.614
4.623
4.638
4.647
4.647
4.640
4.637
4.631
4.636
4.632
4.625
4.629
4.631
4.646
4.649
4.645
4.644
4.640
4.636
4.641
4.643
4.636
4.639
4.629
4.643
4.657
4.670
4.672
4.669
4.660
4.658
4.662
4.654
4.653
4.655
4.643
4.649
4.656
4.670
4.679
4.668
4.659
4.669
4.664
4.664
4.659
4.648
4.639
4.640
4.643
4.656
4.663
4.667
4.657
4.653
4.646
4.635
4.640
4.638
4.633
4.631
4.633
4.633
4.642
4.655
4.668
4.670
4.673
4.676
4.672
4.664
4.654
4.649
4.644
4.642
4.645
4.649
4.650
4.640
4.652
4.665
4.677
4.683
4.689
4.680
4.683
4.678
4.670
4.670
4.665
4.663
4.660
4.666
4.661
4.654
4.662
4.664
4.670
4.682
4.693
4.701
4.700
4.704
4.693
4.691
4.690
4.689
4.689
4.691
4.693
4.687
4.686
4.683
4.688
4.681
4.678
4.680
4.691
4.702
4.698
4.709
4.700
4.692
4.684
4.683
4.674
4.677
4.677
4.673
4.670
4.670
4.671
4.677
4.674
4.668
4.671
4.681
4.692
4.703
4.710
4.706
4.703
4.701
4.706
4.702
4.705
4.704
4.701
4.697
4.698
4.693
4.698
4.696
4.695
4.691
4.691
4.694
4.693
4.696
4.693
4.703
4.713
4.723
4.734
4.744
4.746
4.737
4.733
4.728
4.721
4.720
4.714
4.720
4.712
4.720
4.715
4.718
4.713
4.714
4.702
4.704
4.707
4.705
4.704
4.704
4.710
4.720
4.729
4.732
4.726
4.721
4.715
4.710
4.704
4.698
4.699
4.696
4.685
4.687
4.687
4.689
4.691
4.685
4.683
4.695
4.686
4.687
4.692
4.689
4.688
4.691
4.700
4.708
4.705
4.705
4.712
4.702
4.700
4.697
4.698
4.695
4.690
4.699
4.699
4.695
4.687
4.687
4.691
4.678
4.674
4.675
4.673
4.671
4.662
4.663
4.664
4.672
4.665
4.673
4.682
4.691
4.699
4.708
4.717
4.725
4.724
4.720
4.717
4.715
4.709
4.702
4.701
4.704
4.711
4.710
4.708
4.704
4.702
4.698
4.702
4.700
4.695
4.689
4.682
4.676
4.673
4.671
4.676
4.672
4.666
4.659
4.667
4.676
4.684
4.692
4.700
4.708
4.708
4.702
4.702
4.698
4.703
4.697
4.708
4.709
4.708
4.706
4.707
4.702
4.706
4.706
4.706
4.714
4.710
4.708
4.704
4.705
4.700
4.693
4.694
4.688
4.689
4.686
4.688
4.686
4.686
4.688
4.684
4.685
4.687
4.681
4.682
4.689
4.697
4.704
4.712
4.714
4.716
4.719
4.711
4.711
4.712
4.707
4.706
4.711
4.717
4.713
4.706
4.702
4.695
4.696
4.700
4.703
4.701
4.701
4.702
4.706
4.700
4.688
4.687
4.696
4.696
4.692
4.690
4.695
4.696
4.697
4.701
4.699
4.699
4.694
4.686
4.685
4.687
4.680
4.683
4.691
4.698
4.705
4.712
4.718
4.726
4.725
4.722
4.725
4.726
4.726
4.721
4.728
4.725
4.729
4.722
4.721
4.721
4.719
4.721
4.717
4.712
4.708
4.711
4.710
4.713
4.708
4.709
4.706
4.703
4.698
4.698
4.698
4.705
4.713
4.708
4.712
4.715
4.713
4.713
4.708
4.703
4.701
4.705
4.703
4.700
4.702
4.695
4.686
4.680
4.687
4.694
4.700
4.707
4.713
4.720
4.727
4.733
4.739
4.742
4.739
4.734
4.731
4.730
4.740
4.740
4.743
4.738
4.742
4.742
4.743
4.752
4.747
4.742
4.740
4.736
4.733
4.730
4.729
4.728
4.729
4.727
4.729
4.726
4.729
4.725
4.727
4.718
4.711
4.711
4.718
4.718
4.720
4.714
4.718
4.715
4.720
4.722
4.724
4.726
4.719
4.712
4.707
4.712
4.721
4.725
4.715
4.717
4.715
4.714
4.714
4.720
4.714
4.717
4.718
4.724
4.730
4.736
4.742
4.748
4.755
4.761
4.767
4.769
4.766
4.773
4.779
4.778
4.778
4.777
4.774
4.777
4.772
4.763
4.765
4.769
4.766
4.767
4.766
4.767
4.760
4.757
4.752
4.754
4.757
4.759
4.762
4.756
4.754
4.755
4.751
4.745
4.744
4.752
4.751
4.756
4.757
4.765
4.757
4.753
4.746
4.740
4.742
4.742
4.737
4.730
4.723
4.723
4.722
4.724
4.727
4.728
4.725
4.723
4.724
4.726
4.732
4.729
4.724
4.719
4.714
4.709
4.706
4.712
4.717
4.723
4.728
4.734
4.739
4.745
4.748
4.752
4.748
4.756
4.762
4.765
4.764
4.764
4.762
4.758
4.756
4.756
4.748
4.748
4.753
4.752
4.751
4.750
4.748
4.743
4.737
4.740
4.735
4.736
4.734
4.735
4.736
4.726
4.722
4.722
4.723
4.720
4.722
4.724
4.725
4.725
4.724
4.729
4.728
4.722
4.724
4.722
4.721
4.718
4.720
4.717
4.721
4.721
4.717
4.725
4.730
4.730
4.730
4.725
4.721
4.723
4.722
4.721
4.724
4.724
4.725
4.725
4.718
4.712
4.710
4.709
4.706
4.702
4.702
4.702
4.700
4.703
4.704
4.706
4.704
4.710
4.706
4.711
4.717
4.722
4.727
4.732
4.737
4.742
4.747
4.752
4.757
4.762
4.767
4.773
4.775
4.775
4.776
4.770
4.775
4.777
4.777
4.783
4.776
4.769
4.768
4.764
4.764
4.763
4.766
4.764
4.760
4.756
4.754
4.756
4.760
4.767
4.772
4.771
4.773
4.774
4.775
4.779
4.777
4.769
4.763
4.761
4.759
4.763
4.770
4.765
4.761
4.760
4.757
4.758
4.765
4.773
4.768
4.769
4.764
4.767
4.765
4.768
4.768
4.768
4.767
4.768
4.764
4.760
4.759
4.762
4.756
4.756
4.754
4.749
4.755
4.754
4.748
4.748
4.751
4.755
