2.988
3.331
3.505
3.623
3.688
3.748
3.828
3.842
3.886
3.933
3.979
4.024
4.023
3.963
3.989
4.011
4.031
4.052
4.061
4.072
4.096
4.104
4.120
4.134
4.145
4.161
4.158
4.174
4.188
4.199
4.203
4.211
4.216
4.240
4.246
4.235
4.240
4.260
4.263
4.274
4.284
4.296
4.309
4.286
4.296
4.301
4.305
4.313
4.323
4.337
4.333
4.342
4.356
4.360
4.362
4.344
4.339
4.349
4.351
4.368
4.359
4.365
4.374
4.386
4.386
4.396
4.407
4.396
4.397
4.406
4.415
4.420
4.430
4.429
4.439
4.437
4.431
4.435
4.450
4.427
4.415
4.424
4.424
4.425
4.436
4.437
4.450
4.436
4.435
4.435
4.443
4.445
4.446
4.450
4.457
4.468
4.457
4.467
4.466
4.475
4.483
4.480
4.484
4.473
4.477
4.477
4.476
4.483
4.486
4.487
4.501
4.501
4.508
4.503
4.509
4.514
4.498
4.518
4.508
4.519
4.521
4.525
4.521
4.539
4.532
4.550
4.529
4.533
4.527
4.526
4.525
4.527
4.523
4.540
4.536
4.548
4.547
4.540
4.560
4.563
4.561
4.564
4.567
4.572
4.566
4.568
4.571
4.566
4.553
4.540
4.534
4.527
4.531
4.535
4.531
4.534
4.545
4.539
4.535
4.554
4.556
4.546
4.560
4.561
4.556
4.554
4.559
4.543
4.543
4.542
4.549
4.537
4.542
4.536
4.535
4.540
4.546
4.543
4.538
4.545
4.566
4.560
4.553
4.546
4.571
4.567
4.556
4.549
4.567
4.570
4.558
4.556
4.559
4.577
4.576
4.579
4.575
4.570
4.590
4.590
4.586
4.583
4.583
4.579
4.583
4.574
4.569
4.574
4.582
4.577
4.583
4.575
4.569
4.590
4.597
4.602
4.590
4.593
4.586
4.592
4.597
4.604
4.593
4.594
4.592
4.603
4.621
4.621
4.615
4.614
4.609
4.599
4.619
4.635
4.624
4.620
4.613
4.616
4.614
4.628
4.629
4.629
4.625
4.615
4.610
4.611
4.606
4.603
4.604
4.600
4.591
4.602
4.602
4.604
4.601
4.595
4.588
4.593
4.592
4.592
4.610
4.616
4.614
4.619
4.614
4.605
4.602
4.597
4.606
4.620
4.615
4.618
4.617
4.616
4.613
4.604
4.593
4.610
4.614
4.618
4.623
4.616
4.613
4.602
4.611
4.609
4.606
4.621
4.636
4.640
4.633
4.639
4.625
4.626
4.616
4.617
4.614
4.625
4.635
4.640
4.628
4.632
4.635
4.627
4.634
4.628
4.629
4.619
4.625
4.639
4.654
4.655
4.664
4.658
4.656
4.648
4.648
4.643
4.647
4.642
4.642
4.646
4.660
4.668
4.667
4.662
4.654
4.656
4.652
4.648
4.649
4.643
4.633
4.639
4.653
4.655
4.653
4.647
4.641
4.647
4.635
4.631
4.621
4.622
4.620
4.621
4.633
4.646
4.658
4.663
4.659
4.660
4.659
4.666
4.651
4.647
4.633
4.634
4.638
4.641
4.636
4.639
4.651
4.664
4.669
4.671
4.668
4.670
4.674
4.673
4.668
4.659
4.655
4.651
4.654
4.652
4.652
4.648
4.655
4.665
4.678
4.690
4.699
4.690
4.691
4.689
4.676
4.679
4.675
4.677
4.680
4.679
4.686
4.675
4.672
4.670
4.668
4.673
4.684
4.691
4.689
4.695
4.703
4.696
4.686
4.676
4.670
4.665
4.668
4.662
4.660
4.665
4.662
4.665
4.663
4.661
4.672
4.683
4.694
4.698
4.693
4.692
4.688
4.691
4.690
4.697
4.692
4.693
4.687
4.691
4.686
4.684
4.682
4.680
4.679
4.678
4.681
4.684
4.690
4.693
4.704
4.715
4.725
4.736
4.735
4.732
4.731
4.723
4.716
4.706
4.713
4.706
4.706
4.712
4.704
4.704
4.704
4.697
4.695
4.697
4.693
4.694
4.691
4.701
4.711
4.721
4.730
4.722
4.719
4.720
4.714
4.708
4.703
4.697
4.691
4.685
4.679
4.677
4.678
4.671
4.672
4.678
4.679
4.678
4.674
4.683
4.682
4.682
4.692
4.696
4.700
4.697
4.696
4.693
4.689
4.683
4.688
4.683
4.684
4.689
4.692
4.686
4.680
4.675
4.673
4.675
4.670
4.668
4.667
4.656
4.660
4.658
4.656
4.657
4.666
4.675
4.684
4.693
4.702
4.711
4.715
4.710
4.709
4.706
4.705
4.705
4.705
4.695
4.698
4.698
4.700
4.695
4.691
4.688
4.690
4.686
4.694
4.695
4.688
4.680
4.672
4.665
4.668
4.660
4.658
4.654
4.663
4.671
4.680
4.688
4.697
4.698
4.706
4.699
4.691
4.684
4.685
4.696
4.697
4.695
4.694
4.700
4.691
4.693
4.696
4.696
4.702
4.697
4.693
4.695
4.694
4.689
4.689
4.687
4.681
4.677
4.677
4.680
4.679
4.681
4.671
4.679
4.677
4.672
4.674
4.682
4.690
4.698
4.706
4.705
4.702
4.706
4.701
4.702
4.697
4.702
4.702
4.701
4.704
4.704
4.701
4.691
4.688
4.688
4.696
4.695
4.688
4.693
4.691
4.687
4.683
4.682
4.681
4.684
4.682
4.675
4.685
4.682
4.684
4.694
4.692
4.682
4.683
4.682
4.680
4.670
4.674
4.682
4.689
4.696
4.704
4.705
4.715
4.725
4.715
4.711
4.713
4.710
4.710
4.711
4.719
4.716
4.712
4.709
4.705
4.709
4.712
4.708
4.700
4.701
4.702
4.698
4.703
4.700
4.694
4.691
4.691
4.689
4.687
4.696
4.701
4.701
4.704
4.703
4.700
4.701
4.702
4.693
4.693
4.696
4.697
4.693
4.692
4.688
4.683
4.678
4.685
4.692
4.699
4.706
4.713
4.720
4.727
4.733
4.732
4.727
4.722
4.723
4.722
4.732
4.728
4.729
4.725
4.734
4.733
4.739
4.747
4.743
4.732
4.733
4.728
4.728
4.718
4.718
4.717
4.716
4.715
4.719
4.724
4.715
4.713
4.710
4.708
4.704
4.712
4.708
4.706
4.703
4.708
4.708
4.708
4.713
4.712
4.708
4.712
4.706
4.702
4.711
4.716
4.709
4.713
4.708
4.704
4.703
4.706
4.705
4.710
4.713
4.720
4.726
4.732
4.739
4.745
4.751
4.758
4.764
4.760
4.760
4.764
4.765
4.763
4.762
4.765
4.767
4.766
4.764
4.763
4.757
4.756
4.752
4.752
4.756
4.752
4.749
4.742
4.741
4.743
4.750
4.748
4.745
4.751
4.750
4.752
4.746
4.740
4.737
4.740
4.746
4.754
4.749
4.746
4.744
4.739
4.740
4.733
4.726
4.724
4.720
4.719
4.712
4.709
4.714
4.718
4.720
4.713
4.710
4.716
4.725
4.721
4.724
4.719
4.714
4.711
4.706
4.712
4.717
4.723
4.729
4.735
4.741
4.737
4.745
4.742
4.751
4.754
4.751
4.753
4.749
4.750
4.752
4.744
4.748
4.748
4.744
4.744
4.743
4.741
4.739
4.739
4.733
4.731
4.727
4.726
4.723
4.720
4.725
4.725
4.721
4.713
4.708
4.708
4.711
4.709
4.719
4.715
4.717
4.724
4.726
4.721
4.715
4.714
4.713
4.711
4.715
4.713
4.707
4.711
4.718
4.720
4.721
4.716
4.714
4.715
4.711
4.706
4.711
4.710
4.712
4.718
4.720
4.715
4.710
4.706
4.698
4.698
4.690
4.690
4.692
4.695
4.694
4.696
4.696
4.700
4.702
4.708
4.713
4.718
4.724
4.729
4.734
4.739
4.745
4.750
4.755
4.761
4.766
4.768
4.769
4.766
4.764
4.765
4.766
4.763
4.771
4.770
4.765
4.762
4.758
4.752
4.752
4.751
4.750
4.750
4.753
4.748
4.749
4.757
4.762
4.758
4.757
4.763
4.763
4.765
4.763
4.763
4.763
4.758
4.753
4.755
4.759
4.755
4.757
4.754
4.744
4.751
4.755
4.754
4.760
4.759
4.754
4.754
4.756
4.756
4.758
4.758
4.754
4.752
4.748
4.749
4.752
4.750
4.748
4.743
4.741
4.745
4.737
4.735
4.735
4.739
4.748
4.746
4.743
4.744
4.738
4.742
4.738
4.734
4.731
4.727
4.724
4.720
4.717
4.719
4.724
4.720
4.718
4.717
4.717
4.718
4.716
4.724
4.728
4.727
4.727
4.723
4.719
4.724
4.729
4.733
4.738
4.743
4.748
4.752
4.757
4.762
4.767
4.772
4.769
4.767
4.762
