2.973
3.306
3.453
3.599
3.641
3.752
3.832
3.739
3.790
3.824
3.862
3.893
3.921
3.936
3.980
3.975
4.007
4.038
4.037
4.054
4.085
4.090
4.090
4.098
4.127
4.146
4.160
4.160
4.145
4.157
4.176
4.181
4.199
4.202
4.220
4.219
4.238
4.250
4.259
4.233
4.224
4.242
4.240
4.232
4.252
4.266
4.266
4.277
4.271
4.290
4.282
4.282
4.297
4.302
4.302
4.307
4.316
4.334
4.335
4.364
4.359
4.344
4.341
4.337
4.355
4.375
4.361
4.373
4.392
4.379
4.391
4.407
4.386
4.360
4.346
4.370
4.362
4.385
4.368
4.390
4.356
4.347
4.356
4.347
4.355
4.367
4.359
4.385
4.358
4.386
4.367
4.369
4.399
4.390
4.395
4.405
4.385
4.409
4.394
4.385
4.419
4.411
4.402
4.421
4.415
4.408
4.416
4.438
4.434
4.418
4.443
4.454
4.443
4.422
4.461
4.450
4.444
4.432
4.438
4.409
4.399
4.431
4.432
4.426
4.415
4.422
4.442
4.435
4.416
4.416
4.436
4.430
4.433
4.431
4.431
4.438
4.463
4.458
4.435
4.443
4.428
4.459
4.467
4.469
4.462
4.464
4.456
4.466
4.487
4.477
4.482
4.485
4.479
4.459
4.488
4.484
4.462
4.461
4.451
4.437
4.464
4.478
4.489
4.474
4.466
4.459
4.458
4.453
4.480
4.504
4.487
4.488
4.483
4.478
4.469
4.479
4.487
4.501
4.516
4.521
4.518
4.511
4.512
4.501
4.500
4.477
4.501
4.525
4.524
4.506
4.498
4.490
4.489
4.491
4.491
4.486
4.502
4.525
4.529
4.540
4.533
4.542
4.530
4.520
4.531
4.523
4.523
4.517
4.522
4.543
4.556
4.555
4.545
4.555
4.549
4.539
4.551
4.542
4.529
4.515
4.516
4.534
4.554
4.548
4.544
4.538
4.536
4.531
4.535
4.532
4.516
4.501
4.487
4.495
4.514
4.530
4.526
4.511
4.519
4.515
4.519
4.526
4.527
4.513
4.517
4.510
4.497
4.495
4.492
4.503
4.517
4.530
4.531
4.530
4.514
4.515
4.498
4.504
4.515
4.509
4.522
4.520
4.518
4.510
4.496
4.498
4.488
4.499
4.516
4.532
4.549
4.541
4.534
4.530
4.536
4.526
4.522
4.523
4.499
4.501
4.495
4.497
4.500
4.501
4.520
4.511
4.521
4.508
4.502
4.518
4.533
4.546
4.546
4.545
4.532
4.531
4.528
4.535
4.527
4.539
4.536
4.535
4.542
4.541
4.533
4.514
4.515
4.509
4.516
4.508
4.509
4.509
4.504
4.513
4.527
4.541
4.556
4.570
4.584
4.565
4.566
4.567
4.560
4.571
4.569
4.566
4.547
4.540
4.538
4.539
4.538
4.550
4.557
4.547
4.544
4.546
4.548
4.546
4.547
4.533
4.538
4.535
4.529
4.529
4.542
4.556
4.569
4.582
4.595
4.608
4.606
4.603
4.599
4.612
4.615
4.618
4.605
4.592
4.594
4.589
4.585
4.578
4.564
4.556
4.555
4.554
4.548
4.562
4.563
4.562
4.556
4.560
4.554
4.545
4.534
4.523
4.512
4.522
4.534
4.546
4.557
4.569
4.576
4.571
4.573
4.579
4.591
4.591
4.575
4.568
4.556
4.561
4.559
4.553
4.553
4.569
4.565
4.570
4.562
4.548
4.553
4.546
4.554
4.552
4.561
4.553
4.544
4.546
4.545
4.547
4.539
4.538
4.527
4.525
4.519
4.522
4.521
4.526
4.527
4.528
4.544
4.547
4.551
4.562
4.573
4.584
4.594
4.605
4.616
4.626
4.636
4.637
4.625
4.626
4.626
4.632
4.637
4.630
4.624
4.615
4.606
4.614
4.615
4.621
4.623
4.613
4.608
4.605
4.603
4.595
4.587
4.585
4.576
4.583
4.574
4.558
4.556
4.553
4.555
4.546
4.550
4.552
4.550
4.546
4.534
4.530
4.523
4.517
4.523
4.511
4.505
4.511
4.521
4.531
4.540
4.550
4.559
4.569
4.578
4.588
4.591
4.589
4.581
4.578
4.580
4.588
4.596
4.583
4.583
4.594
4.600
4.592
4.594
4.591
4.586
4.576
4.577
4.584
4.578
4.575
4.570
4.571
4.576
4.571
4.568
4.561
4.566
4.573
4.588
4.585
4.582
4.589
4.589
4.591
4.586
4.587
4.586
4.584
4.575
4.571
4.559
4.554
4.551
4.551
4.548
4.547
4.543
4.555
4.554
4.550
4.548
4.550
4.543
4.544
4.545
4.536
4.537
4.547
4.539
4.542
4.546
4.537
4.539
4.547
4.555
4.564
4.572
4.580
4.589
4.597
4.605
4.614
4.622
4.628
4.629
4.631
4.623
4.622
4.615
4.617
4.617
4.619
4.624
4.613
4.601
4.600
4.594
4.583
4.570
4.571
4.568
4.570
4.574
4.566
4.565
4.566
4.563
4.575
4.586
4.587
4.580
4.584
4.588
4.578
4.579
4.575
4.577
4.576
4.574
4.582
4.584
4.581
4.581
4.582
4.586
4.584
4.581
4.577
4.573
4.580
4.584
4.578
4.569
4.560
4.555
4.555
4.564
4.558
4.556
4.560
4.554
4.556
4.552
4.553
4.540
4.537
4.538
4.537
4.532
4.525
4.515
4.521
4.534
4.532
4.530
4.531
4.534
4.535
4.533
4.541
4.539
4.543
4.542
4.552
4.563
4.557
4.561
4.568
4.575
4.582
4.590
4.597
4.604
4.611
4.618
4.625
4.632
4.639
4.647
4.654
4.653
4.646
4.645
4.649
4.643
4.641
4.635
4.634
4.633
4.631
4.631
4.624
4.633
4.630
4.632
4.630
4.634
4.646
4.649
4.648
4.643
4.636
4.627
4.617
4.608
4.606
4.599
4.594
4.591
4.591
4.600
4.611
4.613
4.616
4.611
4.611
4.620
4.609
4.603
4.595
4.586
4.588
4.586
4.578
4.581
4.586
4.588
4.589
4.594
4.606
4.612
4.599
4.608
4.605
4.600
4.600
4.598
4.595
4.601
4.601
4.610
4.620
4.620
4.618
4.617
4.612
4.606
4.603
4.596
4.589
4.584
4.581
4.585
4.583
4.577
4.572
4.574
4.581
4.579
4.580
4.572
4.564
4.571
4.564
4.567
4.560
4.555
4.553
4.555
4.565
4.573
4.567
4.561
4.556
4.550
4.545
4.543
4.544
4.553
4.546
4.543
4.539
4.541
4.543
4.547
4.550
4.536
4.524
4.526
4.532
4.538
4.544
4.550
4.556
4.562
4.568
4.574
4.580
4.585
4.591
4.597
4.603
4.609
4.615
4.621
4.626
4.626
4.621
4.618
4.629
4.634
4.628
4.627
4.622
4.624
4.624
4.611
4.607
4.603
4.607
4.601
4.598
4.595
4.592
4.596
4.599
4.597
4.596
4.600
4.608
4.615
4.612
4.614
4.611
4.619
4.619
4.621
4.621
4.624
4.623
4.612
4.613
4.612
4.600
4.611
4.613
4.604
4.613
4.609
4.618
4.620
4.617
4.618
4.613
4.613
4.606
4.598
4.605
4.599
4.599
4.602
4.599
4.598
4.596
4.599
4.598
4.600
4.584
4.584
4.588
4.583
4.579
4.591
4.591
4.595
4.588
4.585
4.577
4.578
4.581
4.579
4.579
4.574
4.581
4.567
4.569
4.570
4.570
4.572
4.566
4.564
4.563
4.562
4.569
4.560
4.563
4.570
4.558
4.563
4.566
4.560
4.565
4.572
4.572
4.572
4.572
4.566
4.560
4.558
4.554
4.555
4.553
4.556
4.557
4.566
4.568
4.570
4.565
4.558
4.560
4.564
4.560
4.559
4.566
4.559
4.558
4.550
4.553
4.565
4.565
4.564
4.564
4.563
4.565
4.563
4.567
4.563
4.572
4.571
4.574
4.581
4.587
4.585
4.588
4.591
4.582
4.581
4.573
4.569
4.578
4.572
4.566
4.559
4.553
4.549
4.543
4.544
4.542
4.537
4.536
4.539
4.545
4.550
4.547
4.539
4.538
4.540
4.539
4.544
4.543
4.548
4.542
4.545
4.535
4.533
4.522
4.523
4.521
4.530
4.529
4.534
4.539
4.544
4.548
4.553
4.558
4.563
4.568
4.572
4.577
4.582
4.587
4.591
4.596
4.601
4.605
4.610
4.615
4.620
4.624
4.629
4.634
4.639
4.644
4.648
4.653
4.658
4.657
4.653
4.656
4.656
4.653
4.660
4.660
4.665
4.674
4.682
4.681
4.674
4.676
4.670
4.664
4.662
4.659
4.654
4.651
4.655
4.652
4.658
4.657
