2.980
3.325
3.486
3.602
3.680
3.750
3.792
3.867
3.932
3.895
3.874
3.893
3.933
3.955
3.978
3.991
4.021
4.035
4.061
4.065
4.091
4.095
4.108
4.126
4.137
4.129
4.161
4.166
4.177
4.201
4.182
4.194
4.207
4.218
4.232
4.235
4.258
4.272
4.262
4.243
4.248
4.267
4.266
4.283
4.281
4.293
4.302
4.301
4.309
4.320
4.330
4.340
4.337
4.333
4.356
4.349
4.322
4.327
4.325
4.344
4.352
4.336
4.345
4.349
4.356
4.367
4.361
4.357
4.378
4.384
4.389
4.392
4.384
4.381
4.388
4.398
4.401
4.402
4.408
4.423
4.426
4.414
4.422
4.432
4.431
4.434
4.461
4.443
4.447
4.435
4.440
4.430
4.460
4.445
4.466
4.463
4.469
4.465
4.473
4.470
4.481
4.471
4.492
4.476
4.457
4.447
4.432
4.453
4.450
4.454
4.458
4.458
4.473
4.474
4.467
4.464
4.448
4.463
4.434
4.451
4.448
4.437
4.466
4.463
4.457
4.477
4.465
4.472
4.479
4.473
4.462
4.475
4.485
4.486
4.479
4.499
4.498
4.496
4.488
4.495
4.483
4.477
4.496
4.496
4.487
4.485
4.501
4.513
4.503
4.495
4.501
4.506
4.512
4.503
4.503
4.522
4.535
4.527
4.524
4.518
4.535
4.544
4.525
4.539
4.521
4.541
4.545
4.544
4.534
4.518
4.531
4.520
4.526
4.506
4.502
4.522
4.515
4.513
4.509
4.511
4.509
4.534
4.520
4.523
4.512
4.509
4.519
4.530
4.520
4.519
4.523
4.513
4.516
4.517
4.539
4.551
4.549
4.533
4.538
4.536
4.525
4.540
4.550
4.548
4.541
4.542
4.532
4.525
4.532
4.549
4.569
4.575
4.563
4.562
4.565
4.559
4.548
4.546
4.566
4.587
4.577
4.584
4.572
4.563
4.565
4.560
4.557
4.569
4.563
4.565
4.559
4.558
4.545
4.526
4.533
4.539
4.558
4.577
4.579
4.574
4.564
4.566
4.555
4.550
4.549
4.547
4.551
4.569
4.587
4.598
4.589
4.586
4.574
4.565
4.564
4.573
4.567
4.572
4.568
4.580
4.597
4.605
4.596
4.606
4.613
4.603
4.602
4.603
4.590
4.586
4.589
4.576
4.588
4.605
4.622
4.615
4.600
4.585
4.588
4.592
4.586
4.578
4.580
4.587
4.575
4.576
4.592
4.608
4.621
4.626
4.623
4.612
4.610
4.610
4.606
4.604
4.615
4.613
4.613
4.608
4.607
4.602
4.611
4.619
4.634
4.649
4.641
4.631
4.638
4.635
4.635
4.629
4.629
4.619
4.619
4.625
4.626
4.616
4.621
4.615
4.619
4.633
4.648
4.639
4.631
4.622
4.614
4.605
4.612
4.613
4.615
4.613
4.613
4.601
4.607
4.609
4.600
4.591
4.605
4.617
4.617
4.624
4.618
4.608
4.603
4.597
4.586
4.595
4.595
4.598
4.585
4.584
4.591
4.591
4.594
4.596
4.587
4.594
4.594
4.601
4.613
4.626
4.636
4.636
4.634
4.625
4.618
4.608
4.596
4.594
4.583
4.588
4.588
4.588
4.581
4.582
4.569
4.574
4.572
4.577
4.582
4.582
4.587
4.599
4.611
4.623
4.635
4.644
4.634
4.629
4.623
4.615
4.615
4.614
4.613
4.613
4.601
4.610
4.612
4.608
4.603
4.594
4.583
4.585
4.591
4.589
4.588
4.586
4.585
4.581
4.592
4.603
4.614
4.626
4.627
4.625
4.635
4.641
4.646
4.634
4.640
4.632
4.637
4.627
4.620
4.611
4.614
4.604
4.613
4.610
4.608
4.595
4.588
4.599
4.597
4.602
4.599
4.601
4.603
4.594
4.590
4.590
4.595
4.605
4.615
4.625
4.636
4.646
4.651
4.650
4.642
4.639
4.638
4.632
4.635
4.631
4.631
4.634
4.635
4.640
4.639
4.637
4.626
4.620
4.617
4.609
4.619
4.619
4.612
4.613
4.621
4.629
4.626
4.619
4.607
4.611
4.605
4.607
4.617
4.612
4.625
4.619
4.622
4.632
4.641
4.651
4.660
4.670
4.677
4.670
4.673
4.673
4.669
4.671
4.667
4.665
4.663
4.657
4.655
4.658
4.656
4.655
4.654
4.644
4.636
4.642
4.655
4.656
4.653
4.655
4.655
4.656
4.659
4.656
4.661
4.658
4.649
4.643
4.644
4.643
4.641
4.642
4.637
4.642
4.638
4.637
4.643
4.644
4.642
4.647
4.656
4.665
4.674
4.682
4.679
4.677
4.681
4.688
4.699
4.691
4.683
4.676
4.668
4.661
4.659
4.649
4.650
4.642
4.635
4.636
4.634
4.630
4.626
4.623
4.620
4.616
4.619
4.631
4.632
4.632
4.635
4.627
4.618
4.619
4.629
4.631
4.631
4.619
4.624
4.617
4.614
4.608
4.615
4.619
4.625
4.622
4.613
4.611
4.614
4.622
4.630
4.637
4.645
4.653
4.661
4.669
4.677
4.675
4.673
4.683
4.670
4.678
4.668
4.667
4.669
4.669
4.671
4.670
4.662
4.661
4.652
4.659
4.658
4.661
4.669
4.666
4.664
4.658
4.660
4.658
4.656
4.654
4.657
4.663
4.660
4.656
4.665
4.657
4.655
4.655
4.645
4.649
4.652
4.655
4.652
4.653
4.651
4.648
4.643
4.639
4.632
4.636
4.629
4.630
4.637
4.633
4.630
4.636
4.648
4.647
4.642
4.644
4.654
4.650
4.651
4.643
4.646
4.648
4.658
4.660
4.667
4.674
4.681
4.688
4.695
4.702
4.706
4.706
4.704
4.705
4.709
4.708
4.699
4.699
4.696
4.691
4.692
4.682
4.675
4.673
4.670
4.669
4.661
4.659
4.655
4.654
4.656
4.659
4.657
4.659
4.655
4.646
4.641
4.643
4.643
4.633
4.633
4.643
4.652
4.652
4.647
4.643
4.641
4.635
4.634
4.634
4.633
4.628
4.634
4.637
4.635
4.637
4.631
4.635
4.637
4.635
4.633
4.630
4.631
4.627
4.623
4.622
4.621
4.616
4.617
4.612
4.604
4.597
4.590
4.595
4.594
4.599
4.605
4.612
4.618
4.624
4.631
4.637
4.643
4.650
4.656
4.662
4.669
4.675
4.682
4.688
4.694
4.695
4.692
4.702
4.696
4.696
4.702
4.692
4.688
4.690
4.695
4.704
4.713
4.711
4.709
4.700
4.696
4.705
4.699
4.701
4.698
4.700
4.696
4.698
4.697
4.700
4.696
4.695
4.691
4.686
4.678
4.678
4.673
4.678
4.675
4.674
4.674
4.673
4.667
4.668
4.677
4.678
4.670
4.673
4.665
4.670
4.663
4.654
4.651
4.654
4.657
4.652
4.643
4.643
4.641
4.641
4.641
4.637
4.631
4.625
4.619
4.613
4.608
4.616
4.624
4.631
4.622
4.627
4.631
4.626
4.621
4.624
4.626
4.623
4.618
4.615
4.614
4.614
4.618
4.617
4.613
4.616
4.619
4.628
4.635
4.637
4.639
4.634
4.633
4.629
4.632
4.632
4.628
4.628
4.630
4.635
4.641
4.646
4.652
4.658
4.663
4.669
4.674
4.680
4.685
4.691
4.696
4.701
4.697
4.691
4.691
4.696
4.694
4.686
4.689
4.688
4.682
4.682
4.684
4.684
4.690
4.687
4.688
4.678
4.675
4.665
4.666
4.666
4.664
4.659
4.659
4.669
4.674
4.676
4.675
4.676
4.675
4.676
4.676
4.678
4.675
4.669
4.668
4.669
4.677
4.684
4.692
4.696
4.692
4.694
4.701
4.705
4.708
4.704
4.698
4.695
4.690
4.690
4.683
4.692
4.686
4.684
4.683
4.683
4.683
4.675
4.675
4.667
4.667
4.661
4.655
4.648
4.647
4.640
4.637
4.634
4.632
4.631
4.632
4.635
4.635
4.634
4.636
4.640
4.641
4.641
4.650
4.646
4.649
4.652
4.651
4.655
4.652
4.653
4.650
4.655
4.651
4.649
4.651
4.652
4.646
4.637
4.635
4.633
4.637
4.634
4.625
4.623
4.615
4.622
4.626
4.624
4.617
4.617
4.625
4.624
4.622
4.626
4.623
4.624
4.625
4.628
4.633
4.635
4.636
4.633
4.632
4.639
4.646
4.653
4.660
4.659
4.660
4.663
4.652
4.649
4.646
4.649
4.654
4.659
4.664
4.668
4.673
4.678
4.683
4.687
4.692
4.697
4.702
4.706
4.711
4.716
4.721
4.725
4.730
4.735
4.740
4.745
4.739
4.736
4.731
4.733
4.728
4.725
