2.992
3.335
3.515
3.625
3.726
3.788
3.837
3.882
3.911
3.966
3.987
4.010
4.047
4.084
4.070
4.077
4.103
4.128
4.148
4.170
4.187
4.208
4.228
4.244
4.236
4.197
4.179
4.194
4.201
4.208
4.223
4.229
4.239
4.244
4.258
4.255
4.269
4.281
4.278
4.290
4.300
4.303
4.307
4.315
4.327
4.326
4.329
4.339
4.346
4.353
4.349
4.355
4.363
4.367
4.376
4.383
4.387
4.378
4.387
4.388
4.399
4.403
4.411
4.416
4.417
4.408
4.414
4.421
4.425
4.429
4.434
4.438
4.442
4.451
4.455
4.457
4.448
4.448
4.451
4.452
4.459
4.463
4.469
4.474
4.475
4.476
4.481
4.490
4.492
4.490
4.497
4.501
4.507
4.490
4.492
4.496
4.491
4.498
4.500
4.504
4.508
4.506
4.514
4.515
4.518
4.515
4.521
4.526
4.533
4.533
4.540
4.539
4.538
4.542
4.541
4.544
4.555
4.556
4.560
4.562
4.551
4.540
4.540
4.542
4.541
4.537
4.543
4.548
4.555
4.555
4.565
4.562
4.560
4.564
4.570
4.559
4.563
4.567
4.565
4.570
4.571
4.575
4.577
4.588
4.590
4.583
4.592
4.592
4.593
4.597
4.585
4.589
4.595
4.603
4.599
4.597
4.598
4.608
4.611
4.608
4.614
4.618
4.618
4.611
4.620
4.625
4.628
4.625
4.636
4.625
4.625
4.630
4.631
4.627
4.618
4.607
4.598
4.603
4.599
4.608
4.603
4.611
4.612
4.608
4.617
4.614
4.625
4.621
4.617
4.618
4.625
4.622
4.626
4.627
4.628
4.632
4.636
4.625
4.623
4.635
4.626
4.629
4.629
4.629
4.626
4.637
4.631
4.637
4.639
4.635
4.639
4.637
4.647
4.646
4.648
4.652
4.651
4.654
4.656
4.657
4.653
4.652
4.658
4.651
4.659
4.663
4.656
4.668
4.667
4.666
4.672
4.665
4.674
4.663
4.661
4.663
4.659
4.668
4.670
4.665
4.667
4.665
4.664
4.670
4.670
4.666
4.680
4.674
4.670
4.681
4.672
4.671
4.680
4.684
4.680
4.681
4.692
4.693
4.686
4.696
4.692
4.690
4.692
4.698
4.697
4.688
4.694
4.688
4.691
4.696
4.703
4.703
4.699
4.704
4.713
4.701
4.703
4.711
4.716
4.715
4.708
4.715
4.718
4.717
4.718
4.720
4.711
4.703
4.707
4.712
4.710
4.707
4.708
4.722
4.719
4.720
4.711
4.717
4.716
4.712
4.711
4.715
4.716
4.715
4.710
4.712
4.725
4.720
4.721
4.720
4.719
4.729
4.733
4.731
4.732
4.729
4.738
4.736
4.735
4.729
4.733
4.742
4.746
4.742
4.738
4.736
4.743
4.737
4.730
4.725
4.721
4.715
4.708
4.706
4.711
4.714
4.713
4.709
4.710
4.706
4.707
4.704
4.707
4.706
4.705
4.715
4.714
4.718
4.718
4.711
4.713
4.717
4.727
4.725
4.722
4.715
4.710
4.718
4.719
4.723
4.725
4.722
4.721
4.718
4.730
4.728
4.725
4.726
4.727
4.728
4.727
4.736
4.743
4.740
4.740
4.742
4.738
4.733
4.735
4.729
4.721
4.717
4.713
4.722
4.727
4.728
4.724
4.723
4.729
4.726
4.722
4.731
4.727
4.723
4.716
4.709
4.708
4.718
4.727
4.725
4.724
4.726
4.725
4.720
4.713
4.723
4.730
4.728
4.724
4.723
4.722
4.720
4.721
4.726
4.737
4.733
4.732
4.733
4.732
4.734
4.730
4.733
4.735
4.745
4.748
4.736
4.743
4.736
4.738
4.739
4.737
4.739
4.749
4.745
4.746
4.737
4.733
4.736
4.733
4.733
4.741
4.751
4.755
4.751
4.751
4.747
4.743
4.742
4.746
4.740
4.749
4.756
4.757
4.755
4.752
4.758
4.752
4.755
4.754
4.753
4.754
4.764
4.773
4.767
4.763
4.762
4.763
4.758
4.751
4.751
4.752
4.759
4.760
4.759
4.763
4.756
4.754
4.756
4.751
4.751
4.752
4.758
4.762
4.756
4.760
4.753
4.757
4.753
4.751
4.748
4.749
4.750
4.759
4.766
4.773
4.772
4.770
4.769
4.770
4.764
4.760
4.767
4.763
4.762
4.765
4.772
4.779
4.778
4.777
4.781
4.777
4.770
4.762
4.764
4.759
4.764
4.765
4.770
4.779
4.786
4.781
4.780
4.784
4.780
4.782
4.783
4.776
4.777
4.777
4.778
4.776
4.783
4.790
4.797
4.803
4.800
4.804
4.799
4.793
4.791
4.784
4.789
4.792
4.783
4.782
4.788
4.795
4.796
4.796
4.797
4.796
4.796
4.793
4.792
4.788
4.791
4.787
4.783
4.779
4.786
4.782
4.775
4.771
4.774
4.771
4.772
4.771
4.772
4.773
4.774
4.771
4.767
4.773
4.780
4.781
4.781
4.787
4.785
4.784
4.783
4.777
4.772
4.766
4.762
4.759
4.755
4.760
4.767
4.774
4.775
4.776
4.774
4.776
4.775
4.777
4.780
4.774
4.774
4.771
4.767
4.763
4.766
4.762
4.766
4.773
4.780
4.784
4.785
4.784
4.786
4.785
4.788
4.782
4.778
4.779
4.783
4.785
4.785
4.785
4.786
4.782
4.783
4.779
4.785
4.792
4.794
4.792
4.794
4.792
4.788
4.782
4.781
4.784
4.780
4.779
4.778
4.781
4.781
4.782
4.781
4.776
4.781
4.788
4.796
4.795
4.789
4.785
4.778
4.779
4.783
4.787
4.783
4.779
4.778
4.777
4.777
4.777
4.778
4.776
4.775
4.779
4.786
4.793
4.799
4.806
4.805
4.801
4.797
4.798
4.799
4.796
4.794
4.792
4.791
4.793
4.797
4.795
4.794
4.793
4.797
4.798
4.796
4.793
4.794
4.801
4.807
4.809
4.808
4.809
4.808
4.807
4.807
4.804
4.803
4.806
4.808
4.806
4.799
4.793
4.791
4.787
4.792
4.795
4.792
4.790
4.794
4.801
4.805
4.812
4.814
4.814
4.813
4.814
4.810
4.812
4.807
4.807
4.810
4.814
4.818
4.815
4.811
4.809
4.805
4.804
4.808
4.811
4.810
4.804
4.803
4.803
4.810
4.815
4.822
4.828
4.833
4.836
4.835
4.834
4.835
4.829
4.825
4.822
4.822
4.822
4.822
4.820
4.819
4.825
4.825
4.822
4.818
4.815
4.811
4.814
4.814
4.814
4.813
4.820
4.824
4.826
4.824
4.822
4.824
4.818
4.816
4.811
4.807
4.804
4.802
4.803
4.800
4.801
4.797
4.799
4.800
4.798
4.799
4.801
4.802
4.803
4.802
4.801
4.807
4.812
4.818
4.823
4.829
4.833
4.832
4.826
4.824
4.822
4.819
4.814
4.808
4.804
4.807
4.806
4.805
4.806
4.811
4.812
4.807
4.801
4.796
4.796
4.797
4.793
4.794
4.793
4.800
4.806
4.811
4.815
4.822
4.825
4.822
4.829
4.832
4.833
4.830
4.829
4.825
4.823
4.825
4.826
4.825
4.826
4.827
4.823
4.822
4.825
4.821
4.817
4.814
4.817
4.818
4.815
4.813
4.811
4.811
4.807
4.803
4.809
4.814
4.820
4.825
4.831
4.833
4.834
4.833
4.831
4.833
4.836
4.829
4.833
4.830
4.834
4.833
4.834
4.835
4.834
4.833
4.831
4.833
4.833
4.835
4.833
4.833
4.834
4.833
4.833
4.827
4.823
4.822
4.817
4.822
4.825
4.818
4.822
4.827
4.831
4.837
4.840
4.846
4.850
4.851
4.853
4.851
4.848
4.848
4.845
4.846
4.842
4.841
4.844
4.848
4.850
4.848
4.844
4.848
4.847
4.852
4.855
4.854
4.855
4.852
4.850
4.844
4.842
4.843
4.844
4.841
4.839
4.835
4.837
4.837
4.839
4.838
4.837
4.843
4.847
4.852
4.858
4.859
4.859
4.859
4.864
4.866
4.862
4.857
4.858
4.859
4.856
4.855
4.853
4.851
4.853
4.859
4.856
4.855
4.851
4.848
4.842
4.840
4.836
4.830
4.831
4.830
4.829
4.830
4.828
4.832
4.829
4.827
4.831
4.832
4.829
4.832
4.837
4.840
4.845
4.851
4.855
4.860
4.859
4.859
4.859
4.860
4.856
4.852
4.851
4.852
4.851
4.846
4.848
4.854
4.851
4.855
4.851
4.852
4.851
4.854
4.848
4.844
4.847
4.844
4.844
4.843
4.840
4.841
4.842
4.841
4.840
4.846
4.842
4.843
4.842
4.843
