2.988
3.285
3.455
3.526
3.667
3.758
3.687
3.732
3.785
3.829
3.862
3.895
3.912
3.947
3.949
3.985
4.020
4.004
4.017
4.035
4.075
4.101
4.070
4.069
4.098
4.117
4.127
4.132
4.166
4.164
4.192
4.137
4.154
4.152
4.169
4.198
4.191
4.201
4.213
4.206
4.212
4.235
4.247
4.237
4.249
4.256
4.276
4.266
4.270
4.272
4.274
4.293
4.302
4.326
4.323
4.320
4.319
4.296
4.286
4.298
4.295
4.305
4.289
4.272
4.272
4.294
4.288
4.310
4.292
4.312
4.313
4.322
4.332
4.319
4.322
4.312
4.329
4.315
4.347
4.333
4.323
4.375
4.352
4.350
4.383
4.365
4.361
4.387
4.382
4.370
4.372
4.353
4.347
4.354
4.351
4.350
4.371
4.357
4.355
4.345
4.375
4.361
4.363
4.355
4.390
4.396
4.381
4.366
4.378
4.401
4.398
4.396
4.390
4.392
4.423
4.412
4.407
4.415
4.400
4.427
4.403
4.396
4.369
4.372
4.407
4.418
4.399
4.407
4.380
4.374
4.406
4.436
4.433
4.423
4.415
4.429
4.412
4.416
4.448
4.468
4.447
4.437
4.423
4.422
4.429
4.435
4.443
4.448
4.427
4.437
4.434
4.435
4.417
4.429
4.457
4.486
4.498
4.490
4.484
4.471
4.467
4.461
4.449
4.450
4.478
4.505
4.493
4.497
4.480
4.478
4.483
4.478
4.481
4.475
4.466
4.491
4.474
4.454
4.451
4.439
4.422
4.425
4.413
4.404
4.423
4.447
4.470
4.491
4.490
4.467
4.456
4.449
4.457
4.443
4.422
4.422
4.405
4.414
4.437
4.459
4.481
4.476
4.465
4.469
4.460
4.449
4.462
4.446
4.450
4.447
4.434
4.424
4.419
4.427
4.447
4.468
4.488
4.508
4.491
4.464
4.461
4.465
4.470
4.472
4.452
4.447
4.443
4.425
4.435
4.438
4.432
4.429
4.445
4.464
4.484
4.502
4.497
4.499
4.484
4.485
4.490
4.475
4.480
4.484
4.473
4.460
4.467
4.479
4.474
4.462
4.461
4.462
4.457
4.455
4.456
4.474
4.491
4.508
4.526
4.526
4.519
4.514
4.527
4.540
4.525
4.524
4.522
4.522
4.523
4.527
4.512
4.503
4.503
4.494
4.505
4.502
4.488
4.501
4.495
4.487
4.481
4.476
4.492
4.508
4.515
4.513
4.509
4.515
4.525
4.512
4.490
4.486
4.478
4.484
4.498
4.501
4.496
4.492
4.472
4.471
4.468
4.485
4.477
4.470
4.469
4.472
4.461
4.450
4.448
4.439
4.440
4.454
4.468
4.482
4.497
4.511
4.525
4.539
4.548
4.543
4.557
4.555
4.547
4.545
4.545
4.546
4.536
4.533
4.533
4.530
4.520
4.518
4.519
4.526
4.528
4.529
4.525
4.535
4.531
4.545
4.543
4.535
4.539
4.549
4.531
4.532
4.520
4.515
4.506
4.496
4.486
4.476
4.476
4.488
4.501
4.513
4.526
4.532
4.535
4.529
4.514
4.526
4.522
4.532
4.529
4.537
4.541
4.526
4.512
4.498
4.495
4.500
4.485
4.483
4.489
4.482
4.472
4.479
4.494
4.502
4.490
4.494
4.495
4.491
4.492
4.486
4.483
4.486
4.484
4.476
4.476
4.481
4.482
4.491
4.508
4.500
4.494
4.488
4.487
4.491
4.473
4.480
4.471
4.481
4.489
4.500
4.512
4.523
4.534
4.545
4.554
4.553
4.541
4.530
4.539
4.529
4.518
4.518
4.525
4.521
4.520
4.515
4.527
4.527
4.520
4.515
4.515
4.523
4.531
4.531
4.522
4.520
4.519
4.511
4.522
4.512
4.505
4.495
4.493
4.496
4.492
4.489
4.493
4.497
4.499
4.480
4.479
4.481
4.475
4.474
4.465
4.472
4.485
4.486
4.475
4.489
4.490
4.497
4.501
4.489
4.477
4.468
4.464
4.462
4.461
4.471
4.474
4.464
4.460
4.462
4.472
4.481
4.491
4.500
4.510
4.519
4.529
4.538
4.548
4.557
4.566
4.576
4.579
4.576
4.567
4.565
4.555
4.565
4.572
4.570
4.561
4.550
4.562
4.563
4.558
4.568
4.554
4.555
4.561
4.560
4.552
4.556
4.553
4.543
4.549
4.538
4.535
4.529
4.536
4.551
4.552
4.542
4.532
4.533
4.528
4.529
4.520
4.507
4.506
4.513
4.528
4.526
4.527
4.529
4.527
4.532
4.517
4.515
4.523
4.536
4.548
4.549
4.544
4.538
4.537
4.533
4.527
4.518
4.518
4.528
4.532
4.528
4.525
4.509
4.511
4.514
4.507
4.502
4.503
4.506
4.517
4.513
4.500
4.503
4.502
4.510
4.510
4.503
4.505
4.508
4.502
4.505
4.503
4.502
4.510
4.496
4.486
4.490
4.498
4.506
4.514
4.522
4.530
4.537
4.545
4.553
4.561
4.569
4.575
4.571
4.560
4.555
4.563
4.562
4.559
4.556
4.552
4.552
4.549
4.531
4.528
4.536
4.537
4.527
4.525
4.535
4.539
4.550
4.559
4.552
4.546
4.548
4.538
4.533
4.534
4.539
4.532
4.534
4.541
4.541
4.536
4.541
4.553
4.555
4.547
4.545
4.554
4.544
4.533
4.533
4.527
4.536
4.527
4.528
4.523
4.518
4.524
4.509
4.516
4.507
4.518
4.511
4.504
4.491
4.493
4.503
4.508
4.503
4.502
4.497
4.494
4.487
4.494
4.491
4.494
4.503
4.487
4.487
4.480
4.477
4.474
4.482
4.497
4.493
4.487
4.491
4.476
4.477
4.477
4.474
4.487
4.490
4.484
4.481
4.488
4.479
4.483
4.490
4.478
4.477
4.471
4.475
4.472
4.482
4.485
4.491
4.502
4.501
4.504
4.513
4.522
4.532
4.542
4.533
4.534
4.522
4.518
4.522
4.512
4.505
4.501
4.500
4.501
4.511
4.502
4.498
4.492
4.488
4.494
4.506
4.504
4.497
4.495
4.489
4.498
4.490
4.481
4.474
4.480
4.487
4.493
4.499
4.506
4.512
4.518
4.525
4.531
4.537
4.543
4.550
4.556
4.562
4.569
4.575
4.581
4.588
4.588
4.589
4.588
4.595
4.593
4.579
4.580
4.578
4.575
4.587
4.598
4.604
4.600
4.604
4.603
4.589
4.586
4.583
4.575
4.574
4.572
4.572
4.575
4.578
4.581
4.574
4.571
4.578
4.572
4.566
4.567
4.562
4.564
4.562
4.562
4.551
4.554
4.566
4.567
4.558
4.558
4.561
4.572
4.581
4.589
4.587
4.579
4.578
4.574
4.582
4.585
4.587
4.583
4.587
4.583
4.582
4.573
4.563
4.553
4.549
4.551
4.539
4.538
4.533
4.536
4.548
4.551
4.546
4.539
4.535
4.539
4.547
4.555
4.563
4.571
4.566
4.554
4.555
4.548
4.546
4.539
4.542
4.540
4.545
4.532
4.539
4.535
4.542
4.548
4.544
4.539
4.533
4.527
4.521
4.518
4.521
4.530
4.527
4.524
4.517
4.507
4.506
4.504
4.503
4.504
4.498
4.492
4.490
4.490
4.496
4.489
4.487
4.484
4.495
4.497
4.503
4.506
4.504
4.496
4.505
4.505
4.506
4.504
4.508
4.512
4.511
4.520
4.524
4.530
4.526
4.515
4.516
4.508
4.499
4.503
4.500
4.490
4.490
4.489
4.489
4.481
4.476
4.479
4.472
4.469
4.477
4.469
4.466
4.464
4.458
4.458
4.458
4.456
4.468
4.461
4.463
4.464
4.460
4.466
4.466
4.470
4.465
4.468
4.464
4.462
4.466
4.467
4.478
4.482
4.480
4.475
4.471
4.466
4.472
4.463
4.468
4.463
4.461
4.458
4.462
4.461
4.464
4.473
4.482
4.482
4.476
4.481
4.471
4.466
4.465
4.458
4.451
4.453
4.450
4.447
4.448
4.443
4.438
4.438
4.439
4.432
4.437
4.447
4.456
4.445
4.453
4.452
4.449
4.441
4.433
4.437
4.442
4.447
4.452
4.456
4.461
4.466
4.471
4.475
4.480
4.485
4.490
4.494
4.499
4.504
4.508
4.513
4.518
4.523
4.527
4.532
4.537
4.541
4.546
4.551
4.556
4.560
4.565
4.570
4.575
4.579
4.584
4.589
4.593
4.598
4.603
4.608
4.612
4.617
4.622
4.626
4.631
4.636
4.641
4.645
4.650
4.649
4.644
4.645
4.641
4.640
4.631
4.623
4.620
4.620
4.623
4.617
4.617
4.613
4.614
4.615
4.618
4.613
4.606
