2.981
3.289
3.427
3.543
3.675
3.720
3.680
3.737
3.772
3.816
3.839
3.896
3.910
3.945
3.937
3.984
3.998
3.995
4.039
4.050
4.066
4.058
4.066
4.080
4.123
4.120
4.134
4.161
4.158
4.180
4.130
4.147
4.138
4.156
4.171
4.181
4.197
4.209
4.182
4.207
4.231
4.227
4.238
4.235
4.264
4.276
4.252
4.269
4.271
4.278
4.288
4.314
4.305
4.318
4.309
4.290
4.267
4.281
4.305
4.290
4.273
4.266
4.266
4.276
4.287
4.285
4.302
4.289
4.310
4.320
4.312
4.328
4.306
4.315
4.310
4.332
4.321
4.331
4.356
4.344
4.357
4.375
4.351
4.374
4.368
4.358
4.380
4.360
4.329
4.334
4.348
4.332
4.361
4.340
4.335
4.339
4.363
4.344
4.338
4.349
4.386
4.372
4.357
4.364
4.383
4.387
4.393
4.385
4.371
4.408
4.397
4.396
4.408
4.401
4.413
4.414
4.388
4.370
4.364
4.400
4.410
4.386
4.386
4.367
4.372
4.407
4.424
4.404
4.402
4.411
4.407
4.401
4.426
4.449
4.457
4.446
4.426
4.402
4.426
4.423
4.436
4.431
4.429
4.427
4.426
4.424
4.405
4.426
4.455
4.467
4.480
4.478
4.462
4.457
4.462
4.440
4.437
4.459
4.486
4.494
4.488
4.464
4.468
4.467
4.465
4.468
4.473
4.466
4.484
4.469
4.461
4.441
4.423
4.415
4.409
4.397
4.400
4.425
4.449
4.474
4.474
4.469
4.459
4.444
4.445
4.428
4.437
4.415
4.395
4.404
4.427
4.450
4.474
4.467
4.453
4.452
4.455
4.446
4.439
4.425
4.438
4.436
4.428
4.420
4.409
4.430
4.452
4.473
4.487
4.488
4.474
4.456
4.448
4.456
4.458
4.448
4.441
4.422
4.421
4.418
4.418
4.414
4.423
4.443
4.463
4.483
4.493
4.487
4.475
4.477
4.474
4.466
4.458
4.462
4.466
4.463
4.460
4.461
4.452
4.453
4.460
4.451
4.435
4.435
4.451
4.469
4.487
4.505
4.514
4.523
4.517
4.503
4.518
4.535
4.519
4.505
4.505
4.514
4.508
4.501
4.502
4.488
4.483
4.494
4.492
4.485
4.494
4.493
4.473
4.459
4.472
4.489
4.505
4.519
4.504
4.490
4.504
4.516
4.502
4.488
4.473
4.472
4.482
4.478
4.481
4.480
4.469
4.467
4.456
4.461
4.459
4.460
4.451
4.451
4.454
4.441
4.437
4.426
4.437
4.452
4.467
4.482
4.496
4.511
4.526
4.541
4.533
4.540
4.537
4.546
4.539
4.535
4.538
4.538
4.516
4.507
4.520
4.519
4.508
4.495
4.511
4.519
4.517
4.511
4.522
4.524
4.544
4.534
4.518
4.522
4.522
4.526
4.521
4.519
4.501
4.503
4.494
4.484
4.474
4.481
4.494
4.507
4.513
4.525
4.519
4.525
4.507
4.514
4.517
4.517
4.518
4.529
4.527
4.529
4.514
4.499
4.486
4.478
4.479
4.471
4.465
4.468
4.467
4.482
4.486
4.480
4.479
4.487
4.472
4.479
4.475
4.468
4.472
4.464
4.462
4.464
4.468
4.475
4.492
4.497
4.489
4.484
4.482
4.474
4.468
4.467
4.459
4.471
4.483
4.494
4.506
4.517
4.528
4.540
4.547
4.534
4.538
4.533
4.521
4.512
4.508
4.508
4.510
4.510
4.505
4.507
4.517
4.507
4.496
4.503
4.509
4.517
4.519
4.515
4.516
4.527
4.514
4.513
4.505
4.493
4.487
4.479
4.488
4.485
4.472
4.477
4.489
4.483
4.475
4.466
4.460
4.455
4.457
4.454
4.471
4.473
4.476
4.471
4.470
4.481
4.485
4.488
4.474
4.461
4.457
4.449
4.456
4.461
4.456
4.455
4.455
4.461
4.471
4.480
4.490
4.500
4.510
4.520
4.530
4.540
4.549
4.559
4.569
4.569
4.562
4.553
4.553
4.540
4.558
4.552
4.548
4.557
4.546
4.545
4.543
4.547
4.562
4.551
4.542
4.554
4.547
4.544
4.538
4.529
4.531
4.531
4.529
4.516
4.526
4.534
4.541
4.541
4.524
4.524
4.518
4.510
4.511
4.511
4.501
4.509
4.502
4.505
4.520
4.528
4.524
4.517
4.510
4.512
4.525
4.526
4.524
4.523
4.526
4.538
4.523
4.515
4.507
4.509
4.510
4.504
4.509
4.513
4.509
4.503
4.496
4.491
4.492
4.489
4.498
4.501
4.507
4.500
4.496
4.493
4.498
4.493
4.504
4.500
4.498
4.487
4.486
4.494
4.495
4.492
4.480
4.487
4.495
4.503
4.511
4.519
4.527
4.536
4.544
4.552
4.560
4.558
4.546
4.551
4.552
4.546
4.549
4.552
4.550
4.549
4.533
4.534
4.540
4.525
4.526
4.525
4.522
4.514
4.525
4.536
4.547
4.544
4.535
4.536
4.542
4.534
4.530
4.523
4.517
4.518
4.526
4.533
4.531
4.531
4.538
4.548
4.535
4.535
4.531
4.541
4.540
4.526
4.518
4.520
4.507
4.521
4.506
4.511
4.501
4.500
4.500
4.505
4.504
4.500
4.501
4.488
4.490
4.487
4.491
4.487
4.487
4.475
4.476
4.479
4.473
4.488
4.490
4.492
4.481
4.470
4.469
4.466
4.479
4.482
4.478
4.478
4.466
4.465
4.465
4.468
4.475
4.477
4.473
4.471
4.475
4.462
4.469
4.477
4.471
4.469
4.471
4.459
4.466
4.471
4.479
4.487
4.489
4.491
4.502
4.511
4.521
4.526
4.528
4.532
4.517
4.506
4.513
4.514
4.501
4.503
4.495
4.488
4.499
4.484
4.483
4.481
4.492
4.487
4.490
4.484
4.481
4.490
4.487
4.485
4.479
4.475
4.473
4.479
4.486
4.493
4.499
4.506
4.512
4.519
4.525
4.532
4.538
4.545
4.552
4.558
4.565
4.571
4.578
4.584
4.586
4.582
4.579
4.585
4.578
4.567
4.572
4.566
4.574
4.584
4.590
4.592
4.593
4.589
4.585
4.578
4.572
4.559
4.561
4.565
4.564
4.561
4.561
4.573
4.562
4.566
4.556
4.554
4.558
4.553
4.556
4.542
4.552
4.553
4.546
4.550
4.557
4.544
4.542
4.553
4.563
4.574
4.581
4.582
4.574
4.563
4.560
4.562
4.565
4.571
4.574
4.575
4.583
4.573
4.567
4.564
4.557
4.547
4.536
4.533
4.531
4.524
4.531
4.533
4.535
4.538
4.535
4.533
4.541
4.549
4.558
4.566
4.556
4.544
4.545
4.533
4.528
4.521
4.529
4.537
4.529
4.525
4.525
4.530
4.539
4.538
4.536
4.533
4.533
4.528
4.522
4.516
4.516
4.511
4.508
4.504
4.502
4.493
4.496
4.492
4.488
4.482
4.481
4.480
4.479
4.480
4.480
4.472
4.483
4.488
4.495
4.488
4.485
4.490
4.493
4.488
4.487
4.495
4.497
4.496
4.502
4.504
4.512
4.515
4.511
4.506
4.505
4.500
4.493
4.495
4.487
4.482
4.483
4.471
4.474
4.476
4.471
4.475
4.467
4.464
4.457
4.462
4.455
4.449
4.447
4.440
4.449
4.452
4.456
4.451
4.446
4.446
4.451
4.455
4.454
4.454
4.459
4.464
4.454
4.457
4.462
4.464
4.468
4.458
4.461
4.455
4.455
4.451
4.451
4.448
4.449
4.445
4.444
4.449
4.458
4.468
4.460
4.468
4.469
4.465
4.461
4.462
4.455
4.450
4.451
4.443
4.435
4.441
4.435
4.428
4.436
4.432
4.423
4.429
4.437
4.440
4.438
4.439
4.438
4.440
4.438
4.435
4.435
4.440
4.445
4.450
4.455
4.460
4.464
4.469
4.474
4.479
4.484
4.489
4.494
4.499
4.504
4.509
4.514
4.519
4.524
4.528
4.533
4.538
4.543
4.548
4.553
4.558
4.563
4.568
4.573
4.577
4.582
4.587
4.592
4.597
4.602
4.607
4.612
4.617
4.622
4.627
4.631
4.636
4.641
4.645
4.637
4.638
4.633
4.627
4.629
4.627
4.624
4.616
4.610
4.606
4.604
4.604
4.600
4.606
4.600
4.599
4.590
4.596
4.598
4.604
4.600
4.602
4.597
4.596
4.596
4.596
4.600
4.597
4.595
4.586
4.583
4.582
4.582
4.584
4.586
4.580
4.570
4.567
4.580
4.573
4.566
4.560
4.566
4.573
4.569
4.576
4.581
4.581
4.586
4.581
4.582
4.575
4.573
4.577
4.565
4.562
