2.994
3.329
3.509
3.638
3.716
3.798
3.826
3.893
3.927
3.946
3.980
4.027
4.064
4.031
4.059
4.088
4.112
4.135
4.161
4.178
4.199
4.222
4.180
4.142
4.155
4.171
4.180
4.187
4.202
4.205
4.221
4.222
4.238
4.249
4.248
4.263
4.271
4.272
4.282
4.291
4.294
4.302
4.309
4.316
4.322
4.320
4.328
4.338
4.344
4.356
4.345
4.353
4.360
4.368
4.371
4.379
4.388
4.378
4.383
4.389
4.390
4.400
4.402
4.409
4.416
4.423
4.424
4.417
4.420
4.423
4.424
4.428
4.437
4.442
4.443
4.449
4.451
4.460
4.459
4.464
4.467
4.474
4.460
4.460
4.459
4.464
4.468
4.474
4.479
4.480
4.486
4.483
4.484
4.490
4.501
4.501
4.503
4.510
4.509
4.510
4.511
4.515
4.523
4.524
4.530
4.531
4.517
4.510
4.509
4.513
4.509
4.515
4.523
4.526
4.531
4.526
4.531
4.540
4.531
4.532
4.536
4.535
4.541
4.543
4.547
4.553
4.555
4.556
4.558
4.562
4.564
4.565
4.561
4.562
4.568
4.565
4.566
4.576
4.579
4.582
4.583
4.582
4.591
4.589
4.596
4.597
4.591
4.603
4.597
4.598
4.596
4.605
4.599
4.590
4.579
4.570
4.571
4.571
4.583
4.581
4.579
4.589
4.586
4.592
4.590
4.589
4.597
4.590
4.599
4.597
4.601
4.605
4.605
4.598
4.596
4.597
4.602
4.600
4.601
4.600
4.607
4.603
4.610
4.609
4.615
4.611
4.620
4.620
4.621
4.620
4.623
4.631
4.621
4.625
4.623
4.628
4.626
4.634
4.632
4.634
4.642
4.639
4.648
4.642
4.638
4.630
4.635
4.633
4.638
4.645
4.637
4.638
4.638
4.636
4.648
4.645
4.640
4.647
4.645
4.644
4.651
4.650
4.651
4.661
4.660
4.655
4.668
4.664
4.660
4.668
4.668
4.666
4.667
4.661
4.660
4.675
4.671
4.671
4.676
4.680
4.673
4.674
4.686
4.686
4.682
4.686
4.690
4.690
4.689
4.693
4.690
4.680
4.684
4.679
4.676
4.682
4.692
4.694
4.689
4.686
4.686
4.686
4.679
4.690
4.687
4.682
4.686
4.693
4.694
4.694
4.689
4.694
4.705
4.705
4.705
4.702
4.709
4.708
4.705
4.705
4.706
4.721
4.717
4.713
4.714
4.716
4.720
4.713
4.706
4.702
4.695
4.688
4.682
4.686
4.686
4.682
4.675
4.680
4.679
4.679
4.679
4.679
4.686
4.690
4.689
4.688
4.684
4.686
4.700
4.696
4.689
4.679
4.682
4.696
4.701
4.697
4.694
4.690
4.692
4.701
4.703
4.705
4.698
4.699
4.700
4.708
4.716
4.721
4.714
4.710
4.700
4.710
4.701
4.693
4.694
4.686
4.695
4.701
4.705
4.705
4.697
4.690
4.694
4.702
4.694
4.690
4.687
4.685
4.687
4.699
4.706
4.699
4.692
4.690
4.690
4.690
4.701
4.697
4.700
4.699
4.703
4.694
4.697
4.702
4.714
4.713
4.711
4.708
4.716
4.712
4.708
4.710
4.717
4.721
4.717
4.713
4.712
4.707
4.709
4.713
4.716
4.715
4.716
4.713
4.712
4.713
4.712
4.716
4.727
4.723
4.725
4.716
4.720
4.718
4.720
4.716
4.723
4.732
4.738
4.740
4.738
4.737
4.731
4.735
4.730
4.727
4.738
4.740
4.734
4.729
4.723
4.721
4.722
4.721
4.727
4.737
4.738
4.737
4.734
4.727
4.733
4.732
4.722
4.721
4.731
4.734
4.734
4.737
4.733
4.732
4.731
4.729
4.736
4.729
4.733
4.743
4.750
4.745
4.745
4.748
4.750
4.743
4.739
4.738
4.744
4.743
4.749
4.746
4.745
4.746
4.745
4.743
4.745
4.751
4.742
4.745
4.744
4.751
4.760
4.760
4.764
4.765
4.763
4.765
4.761
4.759
4.758
4.765
4.766
4.756
4.766
4.775
4.771
4.767
4.769
4.773
4.772
4.767
4.760
4.760
4.757
4.756
4.764
4.773
4.777
4.771
4.766
4.762
4.757
4.751
4.745
4.740
4.738
4.746
4.755
4.756
4.753
4.753
4.755
4.753
4.747
4.742
4.742
4.742
4.749
4.748
4.744
4.751
4.745
4.743
4.739
4.738
4.741
4.743
4.736
4.737
4.741
4.740
4.738
4.737
4.742
4.749
4.758
4.756
4.757
4.757
4.753
4.751
4.747
4.740
4.747
4.749
4.750
4.749
4.745
4.743
4.752
4.759
4.768
4.773
4.772
4.768
4.761
4.757
4.758
4.756
4.758
4.756
4.752
4.749
4.749
4.743
4.752
4.759
4.768
4.771
4.769
4.762
4.757
4.753
4.755
4.759
4.760
4.751
4.745
4.742
4.745
4.746
4.745
4.753
4.761
4.767
4.774
4.773
4.769
4.768
4.769
4.768
4.763
4.767
4.764
4.762
4.763
4.765
4.760
4.757
4.758
4.762
4.763
4.771
4.777
4.786
4.785
4.782
4.782
4.786
4.785
4.781
4.775
4.776
4.777
4.771
4.764
4.762
4.763
4.765
4.774
4.771
4.771
4.776
4.785
4.784
4.783
4.781
4.777
4.776
4.779
4.776
4.774
4.779
4.779
4.784
4.775
4.773
4.771
4.773
4.775
4.778
4.775
4.775
4.782
4.789
4.796
4.798
4.805
4.801
4.797
4.801
4.804
4.803
4.804
4.800
4.796
4.795
4.796
4.790
4.794
4.789
4.793
4.790
4.786
4.789
4.793
4.790
4.796
4.805
4.810
4.803
4.802
4.803
4.805
4.806
4.801
4.797
4.796
4.794
4.791
4.789
4.791
4.786
4.780
4.778
4.772
4.768
4.774
4.781
4.786
4.794
4.797
4.795
4.796
4.792
4.793
4.794
4.793
4.794
4.796
4.795
4.791
4.790
4.786
4.784
4.783
4.784
4.779
4.771
4.768
4.771
4.772
4.773
4.779
4.786
4.788
4.794
4.790
4.794
4.796
4.797
4.796
4.792
4.793
4.790
4.790
4.792
4.793
4.792
4.790
4.787
4.786
4.789
4.788
4.789
4.794
4.794
4.793
4.795
4.793
4.789
4.786
4.792
4.797
4.805
4.804
4.803
4.807
4.805
4.804
4.805
4.799
4.797
4.799
4.795
4.801
4.801
4.801
4.800
4.796
4.795
4.799
4.798
4.797
4.798
4.797
4.801
4.796
4.792
4.793
4.795
4.801
4.801
4.804
4.808
4.815
4.820
4.823
4.822
4.823
4.822
4.818
4.817
4.816
4.812
4.815
4.806
4.810
4.812
4.815
4.811
4.813
4.819
4.818
4.817
4.816
4.814
4.815
4.812
4.816
4.819
4.818
4.814
4.813
4.814
4.813
4.811
4.816
4.822
4.827
4.833
4.837
4.838
4.834
4.831
4.832
4.833
4.832
4.830
4.829
4.827
4.824
4.825
4.823
4.828
4.827
4.822
4.821
4.820
4.821
4.823
4.821
4.819
4.820
4.819
4.815
4.817
4.815
4.811
4.808
4.806
4.813
4.817
4.823
4.828
4.831
4.825
4.826
4.822
4.820
4.822
4.824
4.819
4.818
4.820
4.818
4.823
4.824
4.825
4.826
4.825
4.821
4.823
4.826
4.822
4.818
4.817
4.815
4.809
4.812
4.811
4.812
4.808
4.805
4.806
4.810
4.811
4.810
4.812
4.816
4.819
4.824
4.830
4.834
4.841
4.846
4.847
4.846
4.847
4.845
4.841
4.843
4.841
4.843
4.839
4.837
4.838
4.842
4.841
4.842
4.841
4.835
4.833
4.837
4.834
4.832
4.838
4.840
4.839
4.843
4.839
4.840
4.838
4.840
4.842
4.840
4.834
4.834
4.838
4.835
4.836
4.834
4.834
4.832
4.833
4.838
4.844
4.849
4.853
4.857
4.863
4.868
4.871
4.870
4.866
4.860
4.860
4.856
4.857
4.854
4.853
4.857
4.860
4.856
4.855
4.854
4.850
4.851
4.849
4.849
4.849
4.849
4.849
4.851
4.850
4.851
4.849
4.846
4.842
4.840
4.838
4.834
4.831
4.829
4.827
4.824
4.822
4.820
4.823
4.829
4.834
4.838
4.838
4.838
4.836
4.835
4.833
4.829
4.828
4.829
4.833
4.831
4.828
4.827
4.831
4.831
4.830
4.829
4.827
4.829
4.834
4.835
4.833
4.834
4.830
4.829
4.827
4.826
4.825
4.826
4.830
4.827
4.823
4.826
4.825
4.823
4.822
4.818
4.814
4.810
4.809
4.805
4.801
