2.992
3.334
3.513
3.638
3.715
3.774
3.830
3.891
3.903
3.957
4.005
3.979
4.010
4.047
4.077
4.103
4.129
4.160
4.166
4.116
4.103
4.119
4.131
4.140
4.153
4.163
4.173
4.188
4.192
4.207
4.222
4.225
4.238
4.245
4.251
4.259
4.271
4.266
4.277
4.289
4.296
4.303
4.301
4.310
4.317
4.324
4.332
4.341
4.332
4.336
4.345
4.352
4.356
4.369
4.370
4.381
4.367
4.374
4.375
4.384
4.389
4.393
4.395
4.409
4.414
4.417
4.421
4.426
4.416
4.412
4.413
4.417
4.429
4.428
4.440
4.437
4.444
4.447
4.454
4.456
4.463
4.462
4.465
4.466
4.474
4.486
4.484
4.486
4.474
4.462
4.465
4.469
4.469
4.475
4.484
4.478
4.492
4.494
4.488
4.494
4.490
4.494
4.503
4.508
4.507
4.510
4.512
4.518
4.520
4.518
4.525
4.521
4.521
4.530
4.534
4.543
4.547
4.546
4.548
4.549
4.548
4.552
4.555
4.552
4.561
4.554
4.561
4.547
4.534
4.529
4.540
4.536
4.534
4.544
4.550
4.544
4.544
4.547
4.553
4.551
4.559
4.562
4.561
4.555
4.556
4.552
4.551
4.560
4.556
4.562
4.562
4.566
4.572
4.569
4.580
4.573
4.584
4.581
4.581
4.579
4.577
4.585
4.589
4.588
4.599
4.593
4.602
4.593
4.599
4.593
4.589
4.593
4.597
4.592
4.594
4.588
4.605
4.601
4.607
4.599
4.603
4.609
4.605
4.618
4.618
4.618
4.625
4.618
4.625
4.626
4.622
4.617
4.622
4.626
4.635
4.628
4.635
4.636
4.633
4.642
4.644
4.639
4.646
4.653
4.643
4.650
4.651
4.639
4.644
4.642
4.641
4.650
4.654
4.639
4.647
4.647
4.636
4.644
4.651
4.648
4.644
4.655
4.657
4.655
4.657
4.670
4.663
4.659
4.662
4.672
4.666
4.672
4.669
4.675
4.673
4.673
4.674
4.681
4.673
4.664
4.658
4.650
4.641
4.642
4.633
4.629
4.638
4.648
4.644
4.645
4.636
4.651
4.654
4.651
4.649
4.644
4.652
4.653
4.652
4.644
4.654
4.659
4.658
4.661
4.655
4.659
4.674
4.673
4.676
4.666
4.665
4.675
4.676
4.666
4.655
4.658
4.662
4.661
4.660
4.653
4.654
4.659
4.660
4.648
4.641
4.648
4.662
4.658
4.652
4.651
4.647
4.653
4.660
4.658
4.657
4.656
4.652
4.656
4.669
4.669
4.671
4.670
4.669
4.666
4.668
4.680
4.676
4.677
4.677
4.667
4.663
4.677
4.677
4.669
4.674
4.677
4.674
4.667
4.681
4.684
4.682
4.681
4.676
4.673
4.677
4.683
4.696
4.697
4.695
4.697
4.692
4.684
4.685
4.692
4.704
4.694
4.684
4.681
4.688
4.684
4.684
4.695
4.695
4.695
4.695
4.691
4.684
4.678
4.684
4.695
4.695
4.697
4.693
4.699
4.698
4.692
4.685
4.692
4.704
4.714
4.712
4.705
4.706
4.710
4.703
4.700
4.695
4.707
4.712
4.710
4.715
4.710
4.707
4.711
4.704
4.705
4.707
4.718
4.728
4.725
4.726
4.729
4.731
4.725
4.720
4.722
4.712
4.721
4.731
4.738
4.739
4.730
4.721
4.719
4.721
4.719
4.723
4.722
4.729
4.736
4.729
4.722
4.717
4.710
4.703
4.702
4.706
4.708
4.717
4.718
4.712
4.714
4.710
4.713
4.715
4.713
4.706
4.705
4.701
4.703
4.710
4.708
4.710
4.708
4.706
4.707
4.698
4.702
4.701
4.700
4.703
4.711
4.714
4.711
4.718
4.718
4.717
4.714
4.715
4.716
4.718
4.714
4.710
4.716
4.715
4.725
4.731
4.727
4.721
4.719
4.712
4.714
4.717
4.718
4.714
4.713
4.715
4.714
4.718
4.722
4.720
4.724
4.725
4.714
4.709
4.707
4.714
4.713
4.710
4.713
4.712
4.713
4.717
4.724
4.734
4.738
4.732
4.729
4.726
4.736
4.732
4.735
4.732
4.733
4.732
4.729
4.728
4.729
4.729
4.732
4.742
4.741
4.745
4.746
4.740
4.741
4.740
4.741
4.734
4.732
4.729
4.729
4.721
4.718
4.725
4.729
4.737
4.746
4.748
4.747
4.750
4.754
4.751
4.746
4.751
4.749
4.747
4.744
4.742
4.743
4.748
4.749
4.753
4.751
4.745
4.751
4.759
4.766
4.770
4.766
4.761
4.763
4.764
4.768
4.764
4.757
4.755
4.751
4.747
4.752
4.755
4.747
4.750
4.752
4.751
4.758
4.767
4.762
4.755
4.751
4.744
4.743
4.742
4.741
4.737
4.741
4.740
4.740
4.739
4.744
4.747
4.743
4.737
4.741
4.748
4.757
4.756
4.749
4.753
4.752
4.753
4.751
4.744
4.740
4.736
4.738
4.737
4.740
4.734
4.733
4.737
4.740
4.742
4.738
4.742
4.743
4.751
4.757
4.766
4.769
4.769
4.769
4.772
4.766
4.761
4.758
4.758
4.755
4.751
4.752
4.751
4.749
4.753
4.752
4.747
4.741
4.744
4.744
4.742
4.746
4.755
4.762
4.769
4.776
4.780
4.781
4.786
4.782
4.786
4.785
4.780
4.771
4.766
4.768
4.766
4.763
4.762
4.771
4.770
4.766
4.764
4.765
4.762
4.757
4.762
4.757
4.758
4.765
4.772
4.779
4.786
4.793
4.800
4.799
4.797
4.796
4.794
4.792
4.792
4.792
4.789
4.787
4.784
4.785
4.784
4.788
4.786
4.781
4.773
4.769
4.770
4.779
4.780
4.776
4.778
4.776
4.773
4.781
4.788
4.793
4.800
4.803
4.799
4.793
4.786
4.782
4.777
4.771
4.773
4.779
4.780
4.779
4.778
4.769
4.775
4.776
4.777
4.771
4.773
4.773
4.766
4.763
4.766
4.766
4.762
4.766
4.770
4.777
4.783
4.790
4.795
4.803
4.807
4.801
4.800
4.799
4.800
4.795
4.794
4.796
4.797
4.793
4.789
4.793
4.792
4.793
4.792
4.788
4.789
4.790
4.792
4.793
4.792
4.796
4.792
4.787
4.783
4.785
4.783
4.788
4.786
4.785
4.788
4.795
4.800
4.807
4.813
4.818
4.824
4.823
4.824
4.825
4.818
4.817
4.822
4.825
4.822
4.825
4.825
4.825
4.830
4.829
4.824
4.825
4.816
4.812
4.808
4.803
4.799
4.803
4.802
4.801
4.797
4.790
4.799
4.801
4.810
4.810
4.805
4.801
4.805
4.803
4.808
4.814
4.819
4.817
4.813
4.809
4.807
4.803
4.799
4.798
4.792
4.795
4.797
4.796
4.792
4.788
4.786
4.788
4.789
4.784
4.780
4.776
4.772
4.774
4.780
4.777
4.778
4.777
4.778
4.777
4.780
4.777
4.777
4.773
4.772
4.774
4.780
4.785
4.791
4.796
4.799
4.793
4.794
4.793
4.794
4.793
4.794
4.793
4.792
4.788
4.784
4.788
4.786
4.782
4.786
4.785
4.784
4.787
4.786
4.787
4.784
4.782
4.783
4.782
4.780
4.779
4.780
4.785
4.781
4.776
4.775
4.773
4.775
4.774
4.773
4.776
4.772
4.773
4.770
4.769
4.773
4.779
4.784
4.788
4.794
4.799
4.803
4.801
4.797
4.795
4.792
4.792
4.794
4.792
4.789
4.793
4.795
4.798
4.800
4.806
4.805
4.804
4.802
4.803
4.800
4.795
4.795
4.793
4.797
4.795
4.797
4.799
4.794
4.788
4.784
4.777
4.778
4.781
4.780
4.781
4.783
4.782
4.783
4.782
4.778
4.781
4.786
4.784
4.780
4.776
4.772
4.777
4.783
4.788
4.791
4.796
4.802
4.803
4.799
4.798
4.800
4.801
4.795
4.788
4.788
4.793
4.794
4.796
4.795
4.792
4.789
4.788
4.784
4.785
4.786
4.785
4.783
4.781
4.780
4.776
4.780
4.785
4.784
4.782
4.783
4.784
4.780
4.782
4.786
4.781
4.781
4.779
4.780
4.781
4.780
4.777
4.777
4.781
4.778
4.779
4.780
4.777
4.775
4.777
4.781
4.782
4.780
4.777
4.780
4.784
4.789
4.793
4.799
4.803
4.807
4.812
4.813
4.810
4.805
4.804
4.807
4.810
4.813
4.807
4.810
4.809
4.811
4.807
4.803
4.799
4.799
4.793
4.789
4.787
4.784
4.785
4.783
4.782
4.781
4.784
4.783
4.779
4.780
4.781
4.781
4.784
4.778
4.781
