2.992
3.335
3.509
3.634
3.721
3.770
3.844
3.867
3.926
3.915
3.954
3.995
4.034
4.064
4.095
4.117
4.055
4.052
4.069
4.085
4.092
4.117
4.125
4.135
4.153
4.158
4.173
4.190
4.193
4.204
4.219
4.223
4.230
4.245
4.236
4.247
4.260
4.269
4.278
4.274
4.284
4.293
4.297
4.314
4.315
4.329
4.312
4.316
4.328
4.339
4.334
4.348
4.360
4.360
4.366
4.372
4.359
4.361
4.367
4.382
4.382
4.383
4.390
4.401
4.401
4.407
4.411
4.412
4.422
4.431
4.434
4.445
4.422
4.410
4.417
4.419
4.431
4.430
4.435
4.440
4.437
4.439
4.445
4.456
4.454
4.459
4.466
4.468
4.466
4.471
4.465
4.475
4.482
4.491
4.490
4.487
4.499
4.496
4.506
4.508
4.500
4.504
4.505
4.507
4.495
4.483
4.482
4.488
4.496
4.499
4.495
4.493
4.502
4.506
4.517
4.510
4.501
4.501
4.502
4.509
4.509
4.510
4.515
4.520
4.520
4.526
4.527
4.539
4.532
4.529
4.536
4.546
4.540
4.548
4.545
4.555
4.553
4.537
4.551
4.541
4.539
4.547
4.552
4.554
4.550
4.558
4.560
4.562
4.567
4.568
4.576
4.571
4.575
4.576
4.573
4.575
4.582
4.580
4.582
4.586
4.585
4.602
4.590
4.595
4.602
4.598
4.606
4.604
4.599
4.596
4.595
4.608
4.594
4.596
4.593
4.585
4.605
4.597
4.595
4.611
4.612
4.611
4.615
4.620
4.611
4.616
4.631
4.625
4.616
4.634
4.633
4.630
4.636
4.639
4.629
4.619
4.609
4.600
4.595
4.591
4.590
4.603
4.599
4.598
4.598
4.600
4.595
4.601
4.604
4.607
4.604
4.601
4.608
4.622
4.619
4.625
4.618
4.629
4.624
4.624
4.620
4.623
4.611
4.608
4.607
4.612
4.610
4.613
4.609
4.608
4.615
4.604
4.599
4.603
4.611
4.604
4.605
4.606
4.605
4.620
4.621
4.618
4.627
4.618
4.619
4.628
4.633
4.624
4.628
4.622
4.633
4.623
4.625
4.630
4.623
4.624
4.641
4.640
4.632
4.633
4.628
4.628
4.646
4.656
4.651
4.645
4.641
4.642
4.645
4.661
4.654
4.642
4.638
4.632
4.640
4.653
4.648
4.647
4.648
4.637
4.630
4.647
4.649
4.658
4.649
4.646
4.645
4.642
4.648
4.664
4.665
4.665
4.661
4.657
4.651
4.647
4.659
4.672
4.668
4.664
4.664
4.666
4.660
4.661
4.664
4.679
4.692
4.686
4.679
4.683
4.671
4.671
4.671
4.678
4.692
4.685
4.680
4.683
4.680
4.683
4.677
4.679
4.684
4.693
4.684
4.676
4.668
4.661
4.652
4.655
4.669
4.674
4.678
4.674
4.667
4.663
4.662
4.658
4.649
4.662
4.667
4.667
4.663
4.663
4.662
4.656
4.656
4.657
4.650
4.661
4.674
4.683
4.679
4.684
4.680
4.675
4.671
4.671
4.667
4.661
4.666
4.677
4.676
4.676
4.682
4.682
4.680
4.677
4.677
4.666
4.661
4.661
4.673
4.677
4.682
4.679
4.673
4.674
4.681
4.680
4.676
4.675
4.667
4.666
4.672
4.684
4.696
4.708
4.701
4.699
4.700
4.693
4.689
4.686
4.686
4.685
4.682
4.674
4.685
4.697
4.699
4.697
4.696
4.694
4.692
4.693
4.693
4.690
4.688
4.681
4.692
4.689
4.687
4.698
4.709
4.717
4.715
4.718
4.713
4.713
4.712
4.718
4.716
4.717
4.705
4.700
4.702
4.704
4.700
4.711
4.721
4.730
4.726
4.722
4.722
4.722
4.723
4.718
4.710
4.706
4.704
4.702
4.709
4.706
4.700
4.710
4.710
4.710
4.707
4.713
4.714
4.717
4.713
4.703
4.698
4.701
4.699
4.696
4.689
4.689
4.688
4.698
4.708
4.718
4.711
4.710
4.707
4.715
4.710
4.706
4.707
4.715
4.715
4.707
4.710
4.710
4.715
4.708
4.706
4.697
4.702
4.712
4.721
4.725
4.718
4.718
4.724
4.725
4.718
4.718
4.720
4.717
4.715
4.714
4.715
4.722
4.729
4.725
4.720
4.718
4.712
4.710
4.719
4.729
4.738
4.739
4.735
4.741
4.732
4.738
4.742
4.741
4.740
4.744
4.743
4.739
4.738
4.743
4.738
4.733
4.730
4.725
4.730
4.733
4.727
4.729
4.738
4.746
4.756
4.760
4.756
4.765
4.754
4.753
4.749
4.747
4.742
4.741
4.746
4.742
4.744
4.739
4.736
4.741
4.734
4.727
4.719
4.712
4.720
4.728
4.737
4.745
4.753
4.753
4.754
4.755
4.752
4.748
4.744
4.738
4.741
4.745
4.741
4.737
4.739
4.736
4.735
4.733
4.739
4.738
4.740
4.737
4.736
4.733
4.733
4.736
4.737
4.743
4.751
4.759
4.767
4.769
4.767
4.767
4.768
4.768
4.769
4.767
4.777
4.773
4.768
4.767
4.770
4.768
4.767
4.765
4.766
4.762
4.760
4.761
4.759
4.765
4.764
4.770
4.760
4.766
4.759
4.763
4.760
4.766
4.773
4.781
4.789
4.790
4.793
4.788
4.785
4.782
4.778
4.771
4.775
4.772
4.779
4.778
4.777
4.778
4.778
4.773
4.769
4.765
4.760
4.756
4.752
4.747
4.743
4.739
4.734
4.734
4.742
4.749
4.756
4.764
4.761
4.756
4.764
4.763
4.764
4.768
4.765
4.767
4.763
4.762
4.757
4.760
4.759
4.754
4.749
4.744
4.739
4.733
4.728
4.723
4.728
4.731
4.732
4.733
4.728
4.730
4.730
4.734
4.729
4.731
4.731
4.737
4.744
4.751
4.758
4.765
4.764
4.756
4.755
4.751
4.749
4.744
4.739
4.732
4.740
4.748
4.757
4.752
4.747
4.743
4.747
4.748
4.740
4.740
4.740
4.740
4.738
4.742
4.737
4.735
4.732
4.731
4.733
4.737
4.738
4.736
4.735
4.734
4.732
4.741
4.739
4.739
4.745
4.752
4.758
4.765
4.772
4.769
4.763
4.757
4.757
4.758
4.754
4.752
4.753
4.756
4.751
4.750
4.740
4.742
4.740
4.737
4.734
4.733
4.727
4.733
4.737
4.738
4.733
4.735
4.736
4.731
4.733
4.729
4.729
4.737
4.731
4.731
4.728
4.721
4.720
4.719
4.720
4.721
4.728
4.734
4.740
4.746
4.752
4.759
4.765
4.771
4.775
4.772
4.772
4.774
4.772
4.770
4.776
4.775
4.775
4.773
4.770
4.771
4.769
4.767
4.762
4.759
4.756
4.752
4.753
4.749
4.747
4.745
4.750
4.745
4.746
4.742
4.738
4.738
4.736
4.730
4.724
4.725
4.731
4.733
4.734
4.737
4.737
4.733
4.736
4.738
4.735
4.735
4.730
4.730
4.736
4.742
4.747
4.753
4.759
4.765
4.771
4.772
4.771
4.766
4.766
4.767
4.765
4.765
4.766
4.771
4.767
4.764
4.764
4.760
4.758
4.761
4.761
4.759
4.761
4.764
4.772
4.770
4.772
4.773
4.770
4.763
4.756
4.753
4.755
4.757
4.761
4.757
4.758
4.754
4.750
4.755
4.755
4.757
4.752
4.746
4.740
4.734
4.733
4.733
4.733
4.728
4.727
4.729
4.725
4.720
4.725
4.730
4.737
4.741
4.747
4.752
4.758
4.763
4.768
4.774
4.779
4.785
4.790
4.792
4.791
4.792
4.787
4.783
4.783
4.784
4.779
4.779
4.778
4.777
4.782
4.777
4.778
4.774
4.776
4.771
4.767
4.774
4.773
4.775
4.775
4.779
4.778
4.776
4.773
4.767
4.763
4.763
4.764
4.758
4.756
4.755
4.756
4.760
4.754
4.758
4.759
4.755
4.754
4.754
4.750
4.755
4.755
4.763
4.766
4.765
4.766
4.764
4.761
4.755
4.748
4.748
4.745
4.744
4.741
4.741
4.744
4.747
4.752
4.757
4.762
4.767
4.772
4.777
4.782
4.787
4.792
4.797
4.793
4.794
4.794
4.799
4.795
4.796
4.796
4.795
4.794
4.791
4.792
4.795
4.802
4.805
4.805
4.799
4.802
4.800
4.793
4.788
4.785
4.787
4.784
4.782
4.785
4.786
4.786
4.788
4.791
4.786
4.790
4.791
4.786
4.785
4.785
4.783
4.777
4.782
4.786
4.790
4.784
4.783
4.781
4.782
4.778
4.782
4.786
4.785
4.782
4.781
4.782
4.778
4.775
4.769
