2.994
3.334
3.508
3.616
3.709
3.788
3.836
3.857
3.920
3.972
3.951
3.985
4.027
4.053
4.085
4.120
4.138
4.081
4.066
4.081
4.094
4.120
4.126
4.138
4.156
4.158
4.179
4.180
4.198
4.212
4.209
4.226
4.238
4.237
4.244
4.257
4.271
4.265
4.269
4.284
4.291
4.300
4.296
4.301
4.310
4.325
4.327
4.338
4.340
4.342
4.337
4.339
4.349
4.360
4.357
4.371
4.375
4.382
4.387
4.399
4.383
4.379
4.384
4.393
4.397
4.405
4.405
4.407
4.416
4.416
4.425
4.424
4.430
4.442
4.446
4.448
4.450
4.454
4.431
4.431
4.435
4.440
4.449
4.445
4.460
4.459
4.458
4.456
4.466
4.462
4.472
4.479
4.475
4.481
4.486
4.487
4.486
4.484
4.490
4.498
4.504
4.509
4.512
4.516
4.526
4.522
4.532
4.527
4.526
4.530
4.529
4.531
4.515
4.498
4.505
4.498
4.510
4.514
4.513
4.512
4.516
4.523
4.524
4.525
4.538
4.527
4.524
4.522
4.521
4.528
4.527
4.530
4.534
4.531
4.545
4.547
4.546
4.555
4.549
4.549
4.554
4.552
4.562
4.558
4.568
4.561
4.572
4.568
4.557
4.566
4.564
4.568
4.557
4.566
4.567
4.571
4.567
4.579
4.572
4.583
4.581
4.583
4.594
4.585
4.597
4.593
4.600
4.585
4.594
4.594
4.597
4.609
4.600
4.602
4.616
4.610
4.616
4.618
4.612
4.627
4.622
4.615
4.611
4.609
4.620
4.621
4.614
4.620
4.612
4.607
4.620
4.621
4.612
4.626
4.623
4.624
4.631
4.631
4.630
4.631
4.641
4.642
4.641
4.645
4.644
4.645
4.644
4.660
4.655
4.648
4.639
4.629
4.622
4.613
4.608
4.605
4.617
4.613
4.608
4.612
4.627
4.624
4.617
4.613
4.630
4.623
4.622
4.618
4.630
4.635
4.630
4.624
4.628
4.646
4.642
4.638
4.635
4.640
4.650
4.640
4.630
4.629
4.635
4.632
4.622
4.618
4.635
4.626
4.619
4.618
4.620
4.627
4.627
4.626
4.616
4.618
4.633
4.632
4.631
4.626
4.628
4.632
4.647
4.648
4.639
4.634
4.635
4.640
4.653
4.651
4.639
4.640
4.635
4.643
4.655
4.649
4.647
4.643
4.639
4.645
4.660
4.657
4.657
4.656
4.657
4.654
4.657
4.670
4.669
4.668
4.668
4.665
4.666
4.662
4.664
4.665
4.658
4.657
4.657
4.654
4.663
4.672
4.660
4.654
4.655
4.656
4.652
4.660
4.672
4.676
4.674
4.668
4.669
4.672
4.669
4.668
4.680
4.684
4.679
4.670
4.671
4.665
4.669
4.670
4.682
4.695
4.688
4.681
4.686
4.690
4.685
4.683
4.685
4.690
4.704
4.706
4.697
4.695
4.691
4.697
4.701
4.697
4.693
4.705
4.702
4.700
4.712
4.709
4.702
4.690
4.696
4.697
4.690
4.687
4.683
4.673
4.679
4.676
4.671
4.672
4.677
4.689
4.686
4.692
4.683
4.676
4.666
4.660
4.671
4.668
4.672
4.684
4.690
4.679
4.685
4.686
4.680
4.673
4.674
4.679
4.671
4.673
4.685
4.695
4.705
4.703
4.697
4.695
4.686
4.687
4.688
4.684
4.680
4.676
4.688
4.700
4.697
4.703
4.704
4.694
4.686
4.681
4.675
4.676
4.675
4.673
4.683
4.694
4.702
4.709
4.707
4.700
4.696
4.701
4.697
4.695
4.691
4.692
4.690
4.686
4.693
4.705
4.713
4.725
4.720
4.717
4.709
4.711
4.705
4.701
4.707
4.701
4.707
4.701
4.697
4.703
4.712
4.717
4.716
4.716
4.716
4.719
4.713
4.711
4.710
4.712
4.709
4.705
4.712
4.709
4.712
4.712
4.721
4.731
4.740
4.739
4.738
4.736
4.732
4.733
4.732
4.731
4.731
4.728
4.727
4.722
4.721
4.717
4.720
4.730
4.738
4.749
4.748
4.741
4.734
4.733
4.729
4.728
4.727
4.727
4.720
4.714
4.707
4.706
4.705
4.714
4.723
4.733
4.735
4.730
4.729
4.728
4.727
4.727
4.727
4.717
4.709
4.708
4.707
4.708
4.704
4.701
4.705
4.708
4.716
4.725
4.734
4.735
4.731
4.728
4.734
4.735
4.734
4.731
4.734
4.736
4.735
4.735
4.729
4.723
4.715
4.711
4.712
4.712
4.715
4.723
4.731
4.738
4.746
4.744
4.743
4.744
4.746
4.744
4.746
4.742
4.740
4.738
4.742
4.738
4.742
4.744
4.737
4.733
4.729
4.725
4.724
4.728
4.732
4.741
4.748
4.757
4.754
4.761
4.767
4.758
4.759
4.768
4.768
4.766
4.765
4.764
4.760
4.755
4.753
4.753
4.748
4.747
4.751
4.746
4.748
4.757
4.753
4.746
4.748
4.757
4.764
4.772
4.772
4.775
4.773
4.766
4.770
4.764
4.764
4.760
4.756
4.764
4.757
4.755
4.749
4.744
4.746
4.744
4.738
4.739
4.732
4.727
4.732
4.739
4.746
4.753
4.760
4.769
4.773
4.772
4.772
4.769
4.767
4.766
4.757
4.760
4.764
4.763
4.759
4.760
4.759
4.757
4.753
4.752
4.757
4.761
4.760
4.761
4.760
4.755
4.756
4.753
4.751
4.760
4.757
4.764
4.770
4.777
4.784
4.791
4.790
4.793
4.797
4.793
4.792
4.786
4.794
4.788
4.784
4.788
4.787
4.788
4.787
4.791
4.789
4.793
4.790
4.790
4.790
4.786
4.787
4.779
4.770
4.771
4.773
4.775
4.778
4.772
4.773
4.780
4.787
4.793
4.800
4.807
4.808
4.797
4.798
4.797
4.794
4.794
4.797
4.794
4.790
4.786
4.783
4.780
4.776
4.772
4.768
4.764
4.759
4.755
4.751
4.749
4.743
4.742
4.740
4.741
4.738
4.746
4.751
4.758
4.764
4.771
4.778
4.777
4.778
4.782
4.786
4.793
4.787
4.782
4.778
4.772
4.767
4.764
4.759
4.753
4.753
4.750
4.751
4.752
4.749
4.746
4.746
4.744
4.746
4.749
4.749
4.752
4.754
4.752
4.748
4.757
4.753
4.750
4.748
4.746
4.746
4.752
4.759
4.764
4.770
4.777
4.770
4.766
4.768
4.761
4.759
4.761
4.759
4.760
4.760
4.760
4.765
4.772
4.775
4.771
4.770
4.768
4.765
4.761
4.760
4.758
4.762
4.760
4.762
4.763
4.760
4.758
4.751
4.750
4.754
4.758
4.760
4.758
4.756
4.750
4.746
4.749
4.756
4.758
4.757
4.757
4.762
4.768
4.773
4.779
4.778
4.779
4.778
4.775
4.778
4.774
4.767
4.768
4.762
4.769
4.773
4.772
4.762
4.757
4.751
4.752
4.749
4.747
4.751
4.746
4.749
4.753
4.759
4.757
4.754
4.755
4.756
4.753
4.757
4.752
4.746
4.747
4.743
4.741
4.745
4.741
4.743
4.742
4.742
4.739
4.740
4.746
4.746
4.750
4.757
4.763
4.768
4.772
4.778
4.783
4.789
4.796
4.797
4.793
4.794
4.785
4.789
4.793
4.792
4.785
4.779
4.779
4.778
4.775
4.778
4.782
4.778
4.775
4.773
4.775
4.775
4.771
4.764
4.763
4.757
4.752
4.748
4.744
4.743
4.744
4.740
4.742
4.745
4.749
4.745
4.750
4.754
4.758
4.762
4.758
4.757
4.760
4.760
4.753
4.751
4.749
4.748
4.744
4.749
4.755
4.760
4.764
4.768
4.774
4.779
4.785
4.789
4.786
4.786
4.786
4.789
4.782
4.784
4.786
4.787
4.786
4.787
4.786
4.786
4.780
4.784
4.783
4.783
4.782
4.783
4.780
4.784
4.785
4.786
4.786
4.786
4.783
4.781
4.779
4.778
4.782
4.776
4.775
4.773
4.768
4.770
4.763
4.759
4.764
4.760
4.761
4.759
4.757
4.757
4.758
4.756
4.752
4.745
4.744
4.742
4.741
4.740
4.741
4.737
4.742
4.748
4.753
4.757
4.758
4.762
4.768
4.773
4.779
4.783
4.786
4.792
4.796
4.801
4.805
4.806
4.804
4.801
4.802
4.803
4.805
4.805
4.801
4.800
4.801
4.798
4.801
4.794
4.796
4.790
4.791
4.790
4.790
4.790
4.797
4.797
4.799
4.798
4.796
4.792
4.786
4.781
4.774
4.770
4.766
4.767
4.761
4.765
4.771
4.775
4.774
4.781
4.777
4.781
4.780
4.781
4.777
