2.915
3.171
3.260
3.391
3.466
3.544
3.618
3.664
3.703
3.758
3.754
3.771
3.792
3.853
3.899
3.893
3.916
3.950
3.933
3.892
3.880
3.905
3.929
3.918
3.963
4.007
4.027
3.996
3.954
3.958
3.980
3.993
4.011
4.015
4.017
4.063
3.998
4.014
4.030
4.054
4.116
4.034
4.073
4.113
4.063
4.053
4.141
4.126
4.113
4.086
4.159
4.155
4.109
4.058
4.127
4.130
4.073
4.044
4.045
4.114
4.092
4.087
4.105
4.037
4.039
4.101
4.163
4.119
4.112
4.092
4.098
4.080
4.073
4.125
4.181
4.205
4.180
4.197
4.179
4.123
4.133
4.129
4.106
4.149
4.163
4.138
4.119
4.170
4.154
4.111
4.088
4.126
4.099
4.082
4.125
4.136
4.179
4.222
4.240
4.222
4.199
4.165
4.131
4.131
4.150
4.113
4.084
4.090
4.054
4.096
4.098
4.123
4.160
4.197
4.223
4.220
4.215
4.182
4.195
4.199
4.161
4.157
4.115
4.102
4.097
4.079
4.116
4.146
4.142
4.117
4.107
4.081
4.078
4.098
4.129
4.159
4.190
4.220
4.251
4.269
4.246
4.253
4.236
4.209
4.172
4.214
4.203
4.190
4.198
4.216
4.225
4.220
4.235
4.206
4.179
4.170
4.136
4.123
4.137
4.107
4.125
4.122
4.134
4.092
4.121
4.110
4.124
4.098
4.122
4.147
4.171
4.195
4.220
4.240
4.268
4.282
4.243
4.227
4.222
4.203
4.213
4.223
4.217
4.215
4.186
4.191
4.180
4.210
4.209
4.209
4.204
4.194
4.171
4.160
4.192
4.188
4.176
4.147
4.123
4.143
4.132
4.120
4.130
4.147
4.106
4.096
4.103
4.095
4.077
4.090
4.102
4.119
4.131
4.130
4.151
4.125
4.119
4.128
4.108
4.102
4.087
4.109
4.107
4.115
4.118
4.122
4.140
4.158
4.177
4.195
4.213
4.231
4.249
4.268
4.277
4.264
4.254
4.270
4.288
4.289
4.279
4.283
4.288
4.262
4.262
4.259
4.254
4.238
4.210
4.196
4.192
4.179
4.208
4.200
4.203
4.173
4.161
4.187
4.188
4.200
4.184
4.191
4.210
4.211
4.220
4.197
4.213
4.205
4.194
4.174
4.142
4.137
4.134
4.130
4.123
4.123
4.141
4.119
4.123
4.119
4.112
4.117
4.132
4.127
4.105
4.116
4.118
4.110
4.107
4.113
4.128
4.148
4.151
4.166
4.142
4.140
4.152
4.135
4.144
4.153
4.159
4.166
4.176
4.192
4.173
4.186
4.188
4.184
4.177
4.160
4.143
4.126
4.114
4.100
4.103
4.100
4.083
4.120
4.100
4.101
4.102
4.104
4.103
4.088
4.102
4.090
4.087
4.082
4.076
4.083
4.056
4.052
4.040
4.066
4.062
4.080
4.085
4.097
4.109
4.121
4.134
4.146
4.158
4.170
4.182
4.194
4.206
4.218
4.230
4.242
4.255
4.267
4.279
4.291
4.303
4.308
4.305
4.326
4.320
4.285
4.290
4.315
4.291
4.282
4.300
4.320
4.313
4.296
4.277
4.299
4.314
4.291
4.291
4.283
4.293
4.269
4.267
4.255
4.241
4.265
4.264
4.278
4.271
4.261
4.267
4.252
4.237
4.238
4.231
4.204
4.193
4.204
4.200
4.206
4.221
4.237
4.253
4.256
4.241
4.256
4.231
4.219
4.229
4.232
4.237
4.229
4.234
4.221
4.215
4.207
4.191
4.178
4.173
4.197
4.194
4.203
4.210
4.217
4.216
4.189
4.171
4.178
4.189
4.214
4.207
4.201
4.215
4.192
4.199
4.181
4.176
4.176
4.175
4.173
4.165
4.146
4.134
4.124
4.142
4.133
4.144
4.132
4.116
4.106
4.122
4.110
4.127
4.119
4.109
4.128
4.131
4.148
4.138
4.140
4.147
4.165
4.182
4.186
4.176
4.177
4.150
4.156
4.169
4.162
4.163
4.154
4.140
4.133
4.132
4.113
4.110
4.101
4.115
4.124
4.132
4.131
4.135
4.144
4.145
4.132
4.137
4.137
4.140
4.133
4.123
4.117
4.112
4.095
4.083
4.092
4.085
4.098
4.077
4.095
4.083
4.080
4.062
4.081
4.060
4.070
4.084
4.098
4.113
4.115
4.128
4.117
4.117
4.097
4.111
4.105
4.103
4.120
4.104
4.110
4.121
4.113
4.102
4.099
4.105
4.096
4.099
4.113
4.113
4.110
4.118
4.131
4.142
4.150
4.151
4.166
4.174
4.157
4.139
4.150
4.139
4.130
4.115
4.124
4.120
4.104
4.112
4.122
4.123
4.118
4.101
4.094
4.086
4.082
4.089
4.080
4.084
4.093
4.092
4.102
4.094
4.087
4.095
4.086
4.078
4.063
4.077
4.087
4.074
4.073
4.077
4.099
4.114
4.109
4.094
4.076
4.078
4.071
4.070
4.080
4.096
4.092
4.092
4.078
4.065
4.075
4.085
4.096
4.106
4.117
4.127
4.137
4.148
4.158
4.169
4.157
4.142
4.127
4.113
4.129
4.145
4.155
4.161
4.163
4.147
4.137
4.135
4.142
4.138
4.143
4.150
4.145
4.140
4.147
4.160
4.173
4.186
4.200
4.186
4.185
4.172
4.177
4.164
4.162
4.162
4.144
4.136
4.115
4.118
4.129
4.135
4.130
4.129
4.154
4.146
4.164
4.182
4.166
4.167
4.163
4.159
4.164
4.152
4.146
4.155
4.156
4.148
4.126
4.133
4.143
4.144
4.131
4.117
4.105
4.120
4.122
4.123
4.134
4.142
4.117
4.130
4.126
4.125
4.118
4.129
4.130
4.142
4.141
4.134
4.126
4.119
4.120
4.118
4.107
4.099
4.101
4.091
4.080
4.073
4.077
4.094
4.085
4.095
4.101
4.103
4.109
4.115
4.121
4.127
4.133
4.139
4.145
4.151
4.157
4.163
4.169
4.175
4.181
4.187
4.193
4.199
4.206
4.212
4.217
4.223
4.230
4.236
4.242
4.248
4.254
4.260
4.266
4.272
4.278
4.284
4.290
4.296
4.302
4.308
4.314
4.320
4.326
4.332
4.338
4.344
4.350
4.356
4.362
4.369
4.374
4.367
4.371
4.374
4.362
4.366
4.355
4.338
4.348
4.346
4.349
4.362
4.363
4.362
4.345
4.352
4.361
4.348
4.351
4.339
4.339
4.328
4.318
4.308
4.298
4.291
4.289
4.277
4.276
4.275
4.280
4.299
4.302
4.300
4.293
4.277
4.270
4.263
4.263
4.245
4.261
4.260
4.251
4.264
4.268
4.259
4.247
4.253
4.262
4.272
4.281
4.278
4.288
4.301
4.292
4.296
4.278
4.279
4.282
4.289
4.302
4.293
4.290
4.281
4.283
4.286
4.287
4.286
4.282
4.264
4.262
4.259
4.265
4.273
4.280
4.273
4.266
4.270
4.275
4.266
4.267
4.275
4.287
4.290
4.287
4.280
4.264
4.258
4.259
4.248
4.242
4.247
4.241
4.241
4.224
4.238
4.243
4.242
4.251
4.255
4.267
4.251
4.252
4.249
4.243
4.232
4.246
4.227
4.230
4.219
4.223
4.208
4.212
4.220
4.222
4.221
4.227
4.237
4.232
4.226
4.216
4.225
4.235
4.246
4.231
4.230
4.223
4.247
4.225
4.222
4.224
4.223
4.214
4.204
4.195
4.189
4.178
4.172
4.162
4.169
4.161
4.168
4.174
4.176
4.164
4.167
4.160
4.151
4.155
4.163
4.161
4.169
4.169
4.170
4.167
4.168
4.157
4.150
4.139
4.146
4.157
4.168
4.180
4.191
4.185
4.191
4.186
4.165
4.177
4.166
4.181
4.183
4.166
4.156
4.154
4.145
4.139
4.139
4.148
4.147
4.150
4.145
4.134
4.141
4.139
4.149
4.156
4.169
4.176
4.188
4.185
4.181
4.178
4.175
4.189
4.200
4.200
4.208
4.207
4.195
4.195
4.212
4.200
4.197
4.186
4.190
4.177
4.185
4.170
4.182
4.172
4.186
4.191
4.185
4.175
4.170
4.168
4.162
4.160
4.163
4.170
4.175
4.176
4.171
4.164
4.169
4.154
4.168
4.157
4.148
4.158
4.152
4.164
4.160
4.157
4.159
4.172
4.164
4.158
4.165
4.162
4.153
4.145
4.146
4.140
4.151
4.162
4.173
4.184
4.171
4.175
4.166
4.169
4.172
4.165
4.160
4.157
4.147
4.155
4.164
4.162
4.150
4.139
4.140
4.129
4.124
4.119
4.126
4.110
4.115
4.103
4.099
4.104
4.113
4.107
4.126
4.122
