2.988
3.322
3.493
3.604
3.700
3.753
3.844
3.837
3.888
3.943
3.995
4.018
3.936
3.965
3.986
4.008
4.033
4.047
4.057
4.084
4.091
4.114
4.115
4.132
4.141
4.154
4.167
4.188
4.179
4.193
4.204
4.212
4.234
4.213
4.236
4.243
4.252
4.257
4.277
4.283
4.260
4.272
4.290
4.282
4.297
4.307
4.313
4.325
4.330
4.345
4.344
4.321
4.318
4.330
4.339
4.348
4.342
4.351
4.359
4.359
4.377
4.386
4.378
4.376
4.398
4.390
4.403
4.402
4.413
4.415
4.413
4.422
4.434
4.411
4.391
4.398
4.404
4.413
4.417
4.427
4.427
4.414
4.412
4.420
4.418
4.436
4.435
4.441
4.446
4.433
4.441
4.455
4.460
4.459
4.464
4.456
4.459
4.457
4.457
4.460
4.465
4.467
4.478
4.490
4.482
4.490
4.492
4.480
4.498
4.485
4.505
4.502
4.511
4.511
4.511
4.520
4.516
4.518
4.512
4.510
4.497
4.517
4.507
4.527
4.524
4.531
4.524
4.526
4.546
4.533
4.552
4.550
4.544
4.551
4.549
4.558
4.547
4.534
4.520
4.520
4.512
4.511
4.519
4.513
4.520
4.523
4.526
4.525
4.535
4.536
4.531
4.543
4.554
4.537
4.526
4.515
4.519
4.531
4.514
4.511
4.527
4.517
4.513
4.525
4.528
4.528
4.533
4.535
4.545
4.537
4.536
4.541
4.539
4.541
4.536
4.542
4.557
4.543
4.541
4.542
4.564
4.568
4.556
4.560
4.559
4.579
4.573
4.555
4.547
4.565
4.570
4.562
4.546
4.546
4.570
4.571
4.570
4.561
4.569
4.568
4.583
4.580
4.566
4.567
4.568
4.583
4.589
4.592
4.592
4.594
4.587
4.591
4.608
4.600
4.602
4.594
4.594
4.592
4.613
4.610
4.603
4.603
4.599
4.594
4.607
4.596
4.583
4.582
4.575
4.573
4.593
4.593
4.578
4.573
4.569
4.561
4.573
4.592
4.588
4.580
4.588
4.589
4.583
4.585
4.586
4.601
4.596
4.592
4.588
4.589
4.591
4.590
4.583
4.595
4.589
4.593
4.586
4.589
4.583
4.590
4.584
4.591
4.609
4.607
4.615
4.610
4.613
4.606
4.609
4.598
4.593
4.606
4.623
4.627
4.613
4.609
4.597
4.610
4.609
4.602
4.598
4.610
4.626
4.632
4.639
4.639
4.632
4.631
4.634
4.627
4.625
4.622
4.621
4.633
4.648
4.638
4.638
4.639
4.642
4.640
4.635
4.624
4.619
4.621
4.627
4.640
4.635
4.639
4.628
4.625
4.619
4.623
4.623
4.612
4.604
4.608
4.622
4.635
4.634
4.638
4.634
4.636
4.632
4.632
4.636
4.629
4.618
4.621
4.619
4.618
4.632
4.646
4.640
4.645
4.639
4.640
4.647
4.652
4.650
4.647
4.643
4.635
4.624
4.623
4.628
4.639
4.652
4.666
4.665
4.670
4.674
4.671
4.668
4.661
4.658
4.655
4.654
4.656
4.663
4.656
4.657
4.649
4.654
4.667
4.675
4.673
4.677
4.674
4.670
4.668
4.667
4.668
4.665
4.655
4.643
4.646
4.642
4.642
4.637
4.649
4.661
4.674
4.677
4.678
4.670
4.667
4.668
4.663
4.672
4.669
4.665
4.668
4.669
4.667
4.668
4.663
4.650
4.647
4.650
4.665
4.671
4.683
4.694
4.706
4.705
4.698
4.703
4.707
4.707
4.706
4.696
4.699
4.697
4.691
4.697
4.688
4.684
4.680
4.668
4.676
4.677
4.677
4.680
4.691
4.702
4.713
4.721
4.714
4.716
4.708
4.704
4.700
4.696
4.694
4.693
4.686
4.680
4.674
4.668
4.661
4.655
4.652
4.651
4.655
4.662
4.673
4.683
4.694
4.695
4.687
4.679
4.671
4.664
4.663
4.659
4.666
4.674
4.678
4.668
4.664
4.660
4.653
4.646
4.649
4.652
4.644
4.638
4.645
4.642
4.649
4.659
4.669
4.679
4.689
4.696
4.690
4.687
4.685
4.679
4.678
4.684
4.679
4.677
4.688
4.683
4.672
4.663
4.662
4.661
4.670
4.671
4.676
4.678
4.674
4.671
4.668
4.662
4.654
4.646
4.654
4.663
4.672
4.679
4.678
4.679
4.675
4.675
4.670
4.672
4.675
4.672
4.669
4.671
4.666
4.666
4.673
4.671
4.674
4.671
4.668
4.665
4.661
4.664
4.662
4.661
4.664
4.665
4.661
4.664
4.666
4.664
4.665
4.662
4.658
4.667
4.676
4.684
4.693
4.689
4.680
4.676
4.673
4.670
4.674
4.678
4.680
4.683
4.686
4.682
4.670
4.668
4.674
4.679
4.676
4.671
4.671
4.673
4.661
4.657
4.662
4.662
4.661
4.660
4.656
4.658
4.665
4.667
4.661
4.659
4.660
4.659
4.657
4.664
4.672
4.680
4.688
4.696
4.697
4.706
4.697
4.694
4.699
4.695
4.691
4.693
4.691
4.687
4.684
4.683
4.683
4.686
4.679
4.677
4.682
4.687
4.682
4.677
4.679
4.673
4.671
4.670
4.669
4.675
4.676
4.679
4.680
4.681
4.685
4.684
4.678
4.671
4.675
4.678
4.675
4.677
4.669
4.664
4.670
4.677
4.685
4.692
4.700
4.707
4.712
4.716
4.716
4.718
4.709
4.698
4.705
4.706
4.708
4.700
4.707
4.713
4.721
4.724
4.725
4.720
4.716
4.715
4.708
4.698
4.698
4.695
4.695
4.696
4.697
4.693
4.694
4.686
4.690
4.693
4.692
4.695
4.687
4.685
4.680
4.682
4.681
4.678
4.680
4.676
4.684
4.694
4.701
4.692
4.687
4.688
4.685
4.685
4.686
4.693
4.700
4.707
4.714
4.721
4.727
4.734
4.741
4.744
4.741
4.741
4.749
4.747
4.742
4.733
4.734
4.737
4.738
4.739
4.742
4.744
4.741
4.740
4.735
4.728
4.722
4.718
4.721
4.726
4.725
4.721
4.731
4.734
4.732
4.742
4.733
4.733
4.724
4.730
4.728
4.724
4.722
4.723
4.721
4.719
4.716
4.711
4.711
4.713
4.712
4.707
4.700
4.697
4.689
4.685
4.694
4.701
4.695
4.693
4.693
4.690
4.690
4.697
4.703
4.709
4.716
4.722
4.720
4.718
4.727
4.728
4.735
4.734
4.732
4.729
4.724
4.723
4.716
4.725
4.721
4.726
4.730
4.732
4.732
4.729
4.721
4.712
4.713
4.714
4.708
4.702
4.703
4.698
4.698
4.689
4.689
4.691
4.692
4.689
4.689
4.699
4.698
4.698
4.693
4.692
4.696
4.695
4.699
4.698
4.698
4.694
4.703
4.703
4.696
4.695
4.694
4.688
4.687
4.687
4.683
4.686
4.688
4.693
4.693
4.688
4.687
4.684
4.683
4.678
4.678
4.679
4.673
4.675
4.681
4.687
4.692
4.698
4.704
4.710
4.716
4.721
4.727
4.733
4.739
4.744
4.750
4.750
4.746
4.744
4.742
4.746
4.747
4.744
4.747
4.746
4.739
4.738
4.732
4.733
4.734
4.731
4.729
4.730
4.728
4.734
4.742
4.745
4.738
4.736
4.738
4.740
4.736
4.734
4.734
4.732
4.732
4.736
4.742
4.739
4.735
4.730
4.730
4.736
4.736
4.735
4.731
4.730
4.733
4.737
4.738
4.736
4.732
4.733
4.731
4.729
4.733
4.733
4.724
4.724
4.722
4.723
4.720
4.714
4.713
4.719
4.716
4.713
4.713
4.712
4.723
4.726
4.727
4.725
4.728
4.725
4.722
4.721
4.719
4.715
4.711
4.707
4.703
4.700
4.701
4.699
4.699
4.710
4.705
4.708
4.713
4.718
4.724
4.729
4.734
4.739
4.744
4.749
4.755
4.760
4.762
4.764
4.768
4.760
4.756
4.750
4.746
4.739
4.733
4.727
4.732
4.727
4.728
4.727
4.728
4.731
4.726
4.719
4.712
4.715
4.716
4.711
4.716
4.712
4.719
4.723
4.717
4.718
4.715
4.715
4.713
4.711
4.704
4.710
4.705
4.710
4.716
4.717
4.712
4.710
4.709
4.705
4.712
4.719
4.718
4.719
4.720
4.721
4.715
4.710
4.711
4.707
4.702
4.696
4.692
4.692
4.695
4.695
4.694
4.693
4.692
4.697
4.694
4.701
4.697
4.692
4.692
4.689
4.688
4.685
4.684
4.686
4.682
4.679
4.681
4.681
4.677
4.678
4.676
4.678
4.672
4.670
4.675
4.673
4.669
4.666
4.672
4.679
4.679
