2.991
3.335
3.505
3.619
3.698
3.768
3.805
3.878
3.935
3.917
3.966
4.003
4.043
4.076
4.093
4.027
4.034
4.052
4.071
4.082
4.095
4.119
4.125
4.132
4.149
4.169
4.170
4.185
4.184
4.200
4.208
4.227
4.222
4.236
4.243
4.258
4.254
4.260
4.273
4.275
4.288
4.297
4.302
4.295
4.300
4.311
4.315
4.328
4.339
4.335
4.351
4.358
4.338
4.339
4.354
4.363
4.362
4.361
4.378
4.380
4.389
4.391
4.393
4.400
4.410
4.417
4.415
4.395
4.397
4.399
4.410
4.408
4.421
4.415
4.414
4.421
4.423
4.438
4.432
4.445
4.448
4.447
4.454
4.444
4.459
4.466
4.467
4.473
4.470
4.479
4.488
4.492
4.489
4.486
4.484
4.491
4.475
4.464
4.463
4.476
4.481
4.478
4.483
4.480
4.481
4.495
4.494
4.480
4.492
4.489
4.486
4.491
4.494
4.501
4.498
4.502
4.516
4.514
4.505
4.516
4.515
4.521
4.531
4.525
4.534
4.535
4.520
4.528
4.529
4.521
4.533
4.529
4.533
4.527
4.541
4.536
4.553
4.545
4.551
4.552
4.558
4.550
4.556
4.549
4.566
4.556
4.569
4.572
4.575
4.572
4.575
4.580
4.583
4.592
4.579
4.580
4.579
4.577
4.577
4.567
4.577
4.576
4.576
4.584
4.577
4.588
4.600
4.588
4.596
4.600
4.599
4.603
4.604
4.602
4.607
4.617
4.614
4.608
4.621
4.610
4.599
4.589
4.578
4.575
4.578
4.571
4.588
4.586
4.580
4.586
4.585
4.582
4.578
4.596
4.590
4.591
4.586
4.607
4.605
4.599
4.597
4.612
4.611
4.609
4.595
4.596
4.591
4.580
4.590
4.600
4.584
4.582
4.585
4.589
4.593
4.579
4.578
4.598
4.598
4.588
4.594
4.591
4.606
4.612
4.597
4.599
4.597
4.610
4.614
4.608
4.602
4.592
4.610
4.621
4.612
4.610
4.612
4.606
4.625
4.625
4.626
4.622
4.623
4.620
4.635
4.640
4.639
4.633
4.624
4.623
4.631
4.626
4.624
4.620
4.623
4.621
4.624
4.632
4.623
4.623
4.625
4.620
4.633
4.640
4.639
4.641
4.640
4.638
4.629
4.639
4.644
4.642
4.640
4.641
4.641
4.639
4.640
4.656
4.661
4.659
4.662
4.662
4.655
4.656
4.654
4.666
4.671
4.670
4.668
4.667
4.655
4.647
4.658
4.670
4.676
4.670
4.671
4.667
4.666
4.657
4.651
4.648
4.647
4.650
4.643
4.646
4.643
4.639
4.641
4.647
4.643
4.639
4.641
4.642
4.635
4.634
4.633
4.639
4.651
4.659
4.653
4.652
4.650
4.648
4.652
4.651
4.652
4.646
4.657
4.663
4.656
4.660
4.657
4.652
4.648
4.649
4.655
4.655
4.652
4.657
4.656
4.654
4.647
4.652
4.652
4.651
4.655
4.651
4.651
4.652
4.665
4.673
4.677
4.673
4.673
4.672
4.669
4.670
4.673
4.671
4.670
4.659
4.668
4.681
4.687
4.686
4.684
4.678
4.668
4.664
4.667
4.659
4.656
4.665
4.666
4.673
4.685
4.694
4.694
4.692
4.693
4.684
4.689
4.692
4.694
4.693
4.688
4.683
4.683
4.681
4.691
4.703
4.713
4.710
4.699
4.695
4.700
4.696
4.696
4.692
4.696
4.695
4.691
4.685
4.684
4.696
4.696
4.687
4.684
4.686
4.692
4.694
4.690
4.684
4.684
4.681
4.670
4.674
4.680
4.677
4.688
4.694
4.694
4.691
4.683
4.687
4.686
4.682
4.689
4.689
4.682
4.685
4.686
4.688
4.684
4.683
4.682
4.689
4.699
4.699
4.703
4.707
4.703
4.701
4.694
4.695
4.699
4.689
4.686
4.688
4.694
4.703
4.700
4.696
4.697
4.695
4.695
4.706
4.716
4.719
4.710
4.719
4.717
4.714
4.714
4.714
4.713
4.718
4.715
4.709
4.711
4.713
4.714
4.714
4.717
4.710
4.713
4.707
4.715
4.725
4.735
4.745
4.745
4.736
4.731
4.726
4.730
4.731
4.729
4.730
4.728
4.723
4.724
4.718
4.722
4.717
4.712
4.707
4.705
4.707
4.716
4.726
4.727
4.729
4.737
4.731
4.730
4.726
4.720
4.720
4.719
4.724
4.717
4.718
4.719
4.719
4.712
4.717
4.717
4.720
4.717
4.714
4.709
4.708
4.717
4.726
4.735
4.743
4.751
4.749
4.752
4.747
4.743
4.743
4.744
4.750
4.744
4.743
4.746
4.751
4.749
4.748
4.745
4.742
4.740
4.735
4.734
4.734
4.736
4.738
4.739
4.745
4.752
4.754
4.748
4.756
4.765
4.770
4.766
4.766
4.762
4.766
4.759
4.756
4.757
4.759
4.758
4.755
4.757
4.759
4.761
4.762
4.752
4.755
4.748
4.750
4.756
4.752
4.747
4.740
4.736
4.732
4.737
4.738
4.738
4.737
4.742
4.744
4.745
4.743
4.743
4.739
4.736
4.736
4.740
4.740
4.737
4.735
4.730
4.735
4.737
4.740
4.733
4.727
4.722
4.717
4.711
4.705
4.711
4.711
4.703
4.710
4.717
4.725
4.733
4.740
4.745
4.745
4.744
4.735
4.734
4.732
4.730
4.726
4.723
4.725
4.732
4.730
4.728
4.728
4.727
4.726
4.716
4.714
4.714
4.717
4.719
4.716
4.712
4.712
4.707
4.710
4.714
4.716
4.712
4.711
4.710
4.718
4.724
4.725
4.731
4.738
4.745
4.752
4.758
4.755
4.756
4.754
4.748
4.755
4.750
4.743
4.737
4.736
4.739
4.732
4.731
4.723
4.717
4.716
4.714
4.717
4.717
4.720
4.713
4.710
4.714
4.709
4.709
4.708
4.714
4.711
4.706
4.702
4.702
4.706
4.704
4.706
4.711
4.718
4.725
4.731
4.738
4.745
4.752
4.748
4.747
4.749
4.749
4.746
4.750
4.755
4.759
4.753
4.755
4.757
4.756
4.756
4.749
4.752
4.754
4.749
4.744
4.740
4.735
4.728
4.726
4.722
4.716
4.722
4.724
4.721
4.720
4.718
4.716
4.720
4.721
4.715
4.709
4.713
4.709
4.714
4.710
4.708
4.711
4.717
4.724
4.730
4.736
4.742
4.749
4.755
4.759
4.755
4.751
4.746
4.747
4.747
4.746
4.745
4.749
4.745
4.744
4.741
4.739
4.739
4.737
4.737
4.740
4.748
4.746
4.747
4.751
4.753
4.748
4.742
4.744
4.741
4.740
4.744
4.736
4.729
4.732
4.733
4.738
4.739
4.740
4.736
4.733
4.730
4.727
4.726
4.726
4.721
4.715
4.708
4.707
4.713
4.719
4.724
4.730
4.737
4.743
4.748
4.754
4.760
4.766
4.771
4.772
4.775
4.774
4.773
4.765
4.766
4.768
4.766
4.761
4.763
4.754
4.759
4.756
4.753
4.749
4.751
4.748
4.752
4.755
4.756
4.754
4.754
4.752
4.749
4.745
4.744
4.744
4.745
4.747
4.738
4.745
4.749
4.748
4.748
4.741
4.736
4.730
4.727
4.727
4.730
4.732
4.737
4.736
4.736
4.739
4.738
4.735
4.735
4.735
4.731
4.734
4.728
4.725
4.730
4.736
4.741
4.747
4.753
4.758
4.764
4.769
4.775
4.780
4.781
4.778
4.780
4.781
4.784
4.780
4.776
4.772
4.778
4.774
4.778
4.780
4.785
4.778
4.773
4.776
4.774
4.774
4.777
4.771
4.772
4.770
4.765
4.762
4.764
4.763
4.767
4.763
4.763
4.762
4.760
4.758
4.758
4.756
4.758
4.764
4.772
4.770
4.766
4.765
4.763
4.764
4.763
4.763
4.758
4.758
4.756
4.750
4.750
4.752
4.752
4.758
4.758
4.760
4.760
4.761
4.754
4.753
4.754
4.754
4.751
4.754
4.754
4.754
4.759
4.757
4.755
4.760
4.765
4.770
4.775
4.781
4.786
4.791
4.796
4.801
4.806
4.811
4.815
4.812
4.812
4.813
4.809
4.814
4.816
4.809
4.812
4.810
4.814
4.809
4.804
4.799
4.800
4.792
4.789
4.782
4.780
4.780
4.781
4.785
4.788
4.783
4.784
4.785
4.785
4.789
4.784
4.783
4.779
4.785
4.781
4.786
4.787
4.787
4.786
4.784
4.779
4.777
4.775
4.778
4.784
4.778
4.775
4.773
4.768
4.764
4.760
4.756
4.752
4.747
4.751
4.748
4.747
4.743
4.745
4.743
4.747
4.741
4.736
