2.990
3.324
3.515
3.612
3.714
3.761
3.816
3.836
3.896
3.948
4.000
3.937
3.938
3.967
3.983
4.014
4.025
4.042
4.053
4.075
4.081
4.108
4.121
4.121
4.143
4.156
4.156
4.173
4.189
4.198
4.201
4.207
4.220
4.227
4.244
4.246
4.262
4.240
4.252
4.267
4.266
4.279
4.288
4.293
4.300
4.312
4.329
4.320
4.302
4.311
4.314
4.326
4.326
4.330
4.341
4.350
4.354
4.352
4.351
4.367
4.370
4.378
4.386
4.397
4.395
4.391
4.394
4.412
4.390
4.374
4.383
4.384
4.396
4.408
4.406
4.393
4.388
4.395
4.394
4.411
4.412
4.430
4.413
4.422
4.435
4.437
4.440
4.448
4.440
4.438
4.439
4.443
4.435
4.446
4.462
4.453
4.466
4.474
4.467
4.463
4.478
4.466
4.486
4.483
4.494
4.491
4.496
4.505
4.488
4.501
4.489
4.482
4.492
4.491
4.496
4.511
4.500
4.517
4.513
4.522
4.519
4.531
4.524
4.524
4.535
4.528
4.537
4.521
4.506
4.491
4.500
4.489
4.506
4.501
4.493
4.513
4.516
4.508
4.523
4.524
4.511
4.534
4.524
4.505
4.506
4.506
4.503
4.497
4.501
4.498
4.504
4.502
4.500
4.518
4.529
4.511
4.514
4.530
4.530
4.519
4.515
4.532
4.521
4.531
4.521
4.541
4.546
4.536
4.537
4.548
4.550
4.552
4.543
4.543
4.545
4.536
4.540
4.535
4.546
4.549
4.541
4.542
4.542
4.567
4.560
4.557
4.549
4.545
4.569
4.568
4.558
4.561
4.560
4.565
4.583
4.589
4.576
4.574
4.577
4.578
4.589
4.586
4.585
4.584
4.573
4.582
4.596
4.590
4.586
4.573
4.560
4.576
4.574
4.575
4.574
4.558
4.548
4.569
4.567
4.567
4.562
4.559
4.555
4.558
4.572
4.587
4.580
4.571
4.566
4.562
4.561
4.565
4.585
4.585
4.574
4.560
4.559
4.558
4.565
4.569
4.588
4.585
4.585
4.587
4.587
4.588
4.587
4.578
4.581
4.599
4.601
4.606
4.599
4.591
4.585
4.578
4.579
4.581
4.599
4.610
4.609
4.615
4.609
4.605
4.605
4.600
4.611
4.604
4.604
4.621
4.633
4.627
4.615
4.622
4.617
4.616
4.608
4.611
4.611
4.614
4.630
4.625
4.612
4.600
4.608
4.605
4.602
4.591
4.591
4.593
4.609
4.606
4.608
4.608
4.608
4.608
4.612
4.607
4.600
4.597
4.611
4.607
4.606
4.621
4.622
4.620
4.619
4.614
4.621
4.625
4.619
4.621
4.620
4.619
4.612
4.608
4.616
4.630
4.645
4.639
4.640
4.646
4.641
4.645
4.638
4.645
4.642
4.640
4.634
4.630
4.632
4.630
4.637
4.651
4.659
4.665
4.663
4.655
4.655
4.649
4.636
4.638
4.643
4.643
4.639
4.639
4.627
4.624
4.637
4.650
4.658
4.656
4.651
4.653
4.649
4.645
4.649
4.646
4.643
4.642
4.646
4.649
4.639
4.638
4.634
4.630
4.643
4.656
4.668
4.681
4.690
4.688
4.681
4.677
4.678
4.676
4.670
4.675
4.682
4.675
4.681
4.677
4.669
4.668
4.663
4.662
4.651
4.662
4.674
4.685
4.697
4.692
4.688
4.696
4.696
4.698
4.692
4.687
4.675
4.671
4.670
4.671
4.677
4.667
4.661
4.657
4.651
4.644
4.654
4.665
4.676
4.686
4.681
4.678
4.682
4.675
4.667
4.659
4.651
4.653
4.659
4.649
4.643
4.646
4.639
4.636
4.633
4.619
4.619
4.628
4.630
4.641
4.651
4.656
4.671
4.675
4.671
4.665
4.661
4.655
4.660
4.665
4.651
4.663
4.662
4.663
4.658
4.650
4.649
4.649
4.649
4.651
4.651
4.648
4.645
4.652
4.654
4.649
4.640
4.649
4.660
4.657
4.655
4.655
4.656
4.650
4.649
4.659
4.657
4.659
4.656
4.649
4.644
4.649
4.646
4.652
4.644
4.640
4.645
4.636
4.637
4.634
4.637
4.640
4.647
4.650
4.650
4.646
4.648
4.643
4.651
4.661
4.670
4.679
4.676
4.673
4.677
4.669
4.667
4.658
4.654
4.659
4.658
4.657
4.653
4.649
4.658
4.658
4.661
4.655
4.652
4.654
4.640
4.639
4.640
4.638
4.638
4.637
4.639
4.642
4.639
4.635
4.632
4.635
4.640
4.649
4.658
4.667
4.675
4.684
4.681
4.692
4.696
4.689
4.689
4.682
4.672
4.677
4.674
4.667
4.655
4.657
4.661
4.656
4.653
4.662
4.654
4.664
4.663
4.663
4.651
4.648
4.653
4.658
4.655
4.657
4.657
4.656
4.657
4.653
4.650
4.659
4.662
4.656
4.656
4.659
4.652
4.660
4.669
4.676
4.685
4.686
4.683
4.687
4.687
4.691
4.686
4.684
4.692
4.691
4.682
4.683
4.693
4.697
4.696
4.695
4.690
4.698
4.692
4.692
4.690
4.689
4.684
4.674
4.683
4.674
4.673
4.663
4.664
4.674
4.675
4.682
4.678
4.670
4.667
4.668
4.660
4.652
4.657
4.662
4.668
4.675
4.666
4.667
4.672
4.664
4.671
4.679
4.686
4.694
4.702
4.709
4.717
4.724
4.729
4.727
4.724
4.723
4.721
4.720
4.720
4.717
4.720
4.716
4.712
4.717
4.719
4.720
4.716
4.718
4.710
4.709
4.706
4.706
4.701
4.707
4.717
4.711
4.710
4.711
4.709
4.715
4.714
4.722
4.716
4.712
4.711
4.708
4.707
4.700
4.696
4.687
4.687
4.685
4.686
4.691
4.698
4.689
4.685
4.677
4.670
4.672
4.672
4.676
4.683
4.690
4.697
4.704
4.711
4.712
4.712
4.706
4.716
4.711
4.714
4.715
4.712
4.708
4.706
4.703
4.700
4.704
4.704
4.705
4.710
4.709
4.701
4.699
4.702
4.699
4.698
4.689
4.693
4.685
4.674
4.671
4.670
4.668
4.673
4.679
4.676
4.672
4.667
4.672
4.670
4.671
4.677
4.677
4.683
4.684
4.687
4.689
4.682
4.677
4.674
4.668
4.661
4.666
4.661
4.673
4.668
4.665
4.661
4.657
4.658
4.656
4.657
4.662
4.660
4.666
4.672
4.679
4.685
4.691
4.697
4.704
4.710
4.716
4.722
4.729
4.735
4.739
4.729
4.721
4.724
4.723
4.727
4.727
4.724
4.732
4.721
4.720
4.713
4.711
4.711
4.703
4.705
4.709
4.718
4.725
4.724
4.722
4.721
4.725
4.723
4.717
4.714
4.711
4.705
4.711
4.720
4.718
4.712
4.714
4.716
4.719
4.718
4.714
4.710
4.713
4.715
4.709
4.712
4.711
4.711
4.711
4.710
4.706
4.709
4.706
4.701
4.701
4.703
4.699
4.692
4.703
4.701
4.693
4.691
4.691
4.695
4.700
4.704
4.710
4.707
4.708
4.707
4.700
4.705
4.713
4.711
4.710
4.706
4.702
4.698
4.694
4.692
4.697
4.703
4.709
4.714
4.720
4.725
4.731
4.737
4.743
4.748
4.750
4.749
4.750
4.746
4.741
4.738
4.733
4.734
4.732
4.725
4.719
4.719
4.716
4.711
4.711
4.711
4.709
4.702
4.704
4.701
4.696
4.691
4.697
4.700
4.693
4.697
4.700
4.703
4.704
4.700
4.692
4.687
4.691
4.688
4.695
4.694
4.694
4.693
4.692
4.700
4.700
4.696
4.699
4.694
4.700
4.695
4.692
4.694
4.690
4.688
4.685
4.687
4.691
4.686
4.680
4.674
4.675
4.676
4.676
4.676
4.674
4.667
4.669
4.671
4.667
4.666
4.660
4.662
4.658
4.653
4.657
4.654
4.658
4.659
4.653
4.647
4.651
4.650
4.645
4.653
4.658
4.658
4.665
4.664
4.661
4.654
4.658
4.663
4.668
4.673
4.678
4.683
4.688
4.693
4.698
4.703
4.708
4.713
4.718
4.723
4.728
4.733
4.738
4.743
4.749
4.754
4.759
4.762
4.758
4.754
4.750
4.758
4.754
4.760
4.758
4.759
4.766
4.773
4.767
4.764
4.759
4.755
4.750
4.752
4.747
4.745
4.745
4.745
4.737
4.734
4.732
4.726
4.727
4.731
4.725
4.719
4.721
4.720
4.724
4.720
4.722
4.723
4.720
4.713
4.714
4.719
4.715
4.717
4.713
4.709
4.704
4.699
4.694
4.694
4.687
4.695
4.692
4.693
4.685
4.686
4.689
4.684
4.684
