2.991
3.326
3.503
3.632
3.703
3.784
3.834
3.853
3.916
3.973
3.947
3.989
4.023
4.057
4.087
4.116
4.144
4.098
4.064
4.083
4.105
4.115
4.127
4.143
4.152
4.157
4.174
4.186
4.196
4.208
4.209
4.219
4.234
4.233
4.246
4.257
4.270
4.266
4.273
4.285
4.289
4.302
4.308
4.304
4.309
4.321
4.325
4.334
4.342
4.349
4.341
4.346
4.347
4.356
4.364
4.362
4.375
4.384
4.385
4.397
4.404
4.383
4.380
4.386
4.398
4.398
4.409
4.406
4.410
4.420
4.426
4.433
4.427
4.431
4.440
4.447
4.449
4.460
4.462
4.439
4.435
4.438
4.440
4.455
4.451
4.458
4.461
4.457
4.462
4.466
4.465
4.475
4.483
4.480
4.483
4.493
4.497
4.486
4.494
4.494
4.503
4.504
4.514
4.516
4.519
4.516
4.527
4.527
4.535
4.523
4.535
4.531
4.533
4.529
4.512
4.501
4.511
4.509
4.517
4.516
4.516
4.516
4.522
4.531
4.525
4.529
4.542
4.534
4.525
4.527
4.530
4.534
4.530
4.538
4.538
4.538
4.552
4.545
4.550
4.554
4.557
4.556
4.549
4.559
4.560
4.565
4.569
4.568
4.575
4.575
4.564
4.562
4.572
4.564
4.561
4.565
4.574
4.573
4.575
4.568
4.579
4.578
4.591
4.590
4.591
4.594
4.590
4.601
4.596
4.597
4.590
4.600
4.602
4.597
4.613
4.603
4.605
4.620
4.610
4.617
4.623
4.612
4.627
4.622
4.613
4.620
4.615
4.620
4.624
4.616
4.623
4.617
4.605
4.627
4.624
4.617
4.626
4.628
4.631
4.628
4.637
4.636
4.635
4.644
4.649
4.646
4.642
4.652
4.653
4.652
4.653
4.660
4.651
4.642
4.635
4.627
4.618
4.608
4.607
4.612
4.623
4.620
4.613
4.617
4.631
4.627
4.613
4.619
4.635
4.625
4.626
4.623
4.635
4.636
4.631
4.630
4.632
4.649
4.643
4.647
4.638
4.641
4.649
4.639
4.629
4.630
4.637
4.635
4.623
4.623
4.632
4.628
4.624
4.620
4.621
4.630
4.632
4.628
4.623
4.620
4.631
4.638
4.637
4.630
4.634
4.630
4.643
4.655
4.646
4.644
4.638
4.638
4.648
4.658
4.645
4.644
4.640
4.635
4.649
4.658
4.656
4.652
4.643
4.644
4.649
4.661
4.661
4.658
4.662
4.658
4.659
4.660
4.675
4.674
4.673
4.672
4.668
4.669
4.664
4.669
4.668
4.664
4.659
4.658
4.657
4.664
4.672
4.663
4.659
4.663
4.661
4.660
4.659
4.672
4.681
4.677
4.675
4.671
4.673
4.674
4.672
4.679
4.690
4.682
4.678
4.674
4.672
4.674
4.673
4.677
4.689
4.698
4.690
4.690
4.692
4.694
4.690
4.694
4.694
4.698
4.709
4.705
4.703
4.702
4.698
4.701
4.705
4.699
4.697
4.709
4.709
4.709
4.714
4.712
4.703
4.693
4.700
4.694
4.690
4.690
4.686
4.680
4.683
4.677
4.675
4.679
4.678
4.688
4.694
4.693
4.684
4.675
4.668
4.668
4.673
4.674
4.672
4.682
4.692
4.686
4.687
4.685
4.687
4.679
4.678
4.683
4.676
4.672
4.681
4.693
4.703
4.709
4.705
4.701
4.689
4.691
4.692
4.690
4.686
4.680
4.683
4.693
4.705
4.705
4.708
4.699
4.695
4.688
4.683
4.683
4.681
4.679
4.676
4.686
4.697
4.707
4.714
4.710
4.700
4.702
4.705
4.701
4.700
4.694
4.695
4.698
4.692
4.693
4.705
4.713
4.725
4.723
4.719
4.715
4.712
4.705
4.703
4.712
4.711
4.710
4.708
4.702
4.701
4.709
4.720
4.721
4.716
4.720
4.723
4.718
4.719
4.716
4.717
4.715
4.708
4.709
4.716
4.713
4.717
4.716
4.727
4.735
4.744
4.742
4.744
4.740
4.736
4.735
4.738
4.731
4.738
4.731
4.727
4.724
4.728
4.718
4.722
4.732
4.741
4.749
4.747
4.740
4.731
4.735
4.735
4.729
4.731
4.726
4.720
4.713
4.709
4.710
4.708
4.715
4.722
4.732
4.739
4.735
4.735
4.737
4.735
4.731
4.728
4.720
4.712
4.715
4.712
4.709
4.703
4.710
4.711
4.705
4.714
4.723
4.731
4.740
4.739
4.732
4.733
4.740
4.741
4.737
4.735
4.738
4.739
4.737
4.733
4.726
4.720
4.718
4.716
4.715
4.719
4.718
4.727
4.734
4.741
4.751
4.747
4.746
4.753
4.751
4.750
4.749
4.747
4.743
4.742
4.746
4.746
4.745
4.746
4.742
4.738
4.731
4.733
4.731
4.731
4.731
4.739
4.746
4.755
4.757
4.764
4.768
4.763
4.759
4.768
4.773
4.768
4.772
4.771
4.767
4.761
4.751
4.755
4.753
4.750
4.754
4.752
4.751
4.755
4.759
4.750
4.748
4.753
4.761
4.768
4.776
4.779
4.781
4.772
4.770
4.771
4.768
4.766
4.759
4.758
4.765
4.760
4.754
4.747
4.749
4.752
4.749
4.744
4.740
4.731
4.729
4.736
4.740
4.747
4.754
4.761
4.768
4.774
4.775
4.775
4.775
4.771
4.768
4.763
4.765
4.768
4.768
4.766
4.762
4.764
4.761
4.757
4.754
4.755
4.765
4.766
4.767
4.764
4.762
4.757
4.757
4.755
4.756
4.763
4.761
4.768
4.773
4.782
4.789
4.796
4.794
4.796
4.797
4.794
4.792
4.791
4.797
4.791
4.787
4.793
4.790
4.791
4.792
4.794
4.795
4.796
4.795
4.794
4.795
4.788
4.786
4.779
4.775
4.772
4.773
4.777
4.781
4.777
4.773
4.780
4.787
4.793
4.800
4.807
4.809
4.802
4.803
4.801
4.798
4.801
4.798
4.794
4.790
4.786
4.784
4.780
4.776
4.772
4.772
4.768
4.761
4.757
4.753
4.752
4.746
4.742
4.748
4.747
4.742
4.744
4.748
4.755
4.762
4.768
4.773
4.780
4.783
4.782
4.784
4.790
4.790
4.785
4.781
4.775
4.770
4.768
4.762
4.758
4.756
4.758
4.753
4.755
4.754
4.755
4.753
4.750
4.753
4.750
4.749
4.757
4.756
4.758
4.756
4.752
4.757
4.757
4.754
4.752
4.746
4.746
4.751
4.758
4.764
4.769
4.776
4.775
4.773
4.772
4.765
4.764
4.765
4.766
4.768
4.764
4.761
4.766
4.772
4.777
4.778
4.775
4.770
4.771
4.768
4.764
4.764
4.763
4.764
4.764
4.767
4.764
4.765
4.758
4.754
4.755
4.759
4.761
4.764
4.761
4.754
4.750
4.749
4.750
4.759
4.766
4.764
4.757
4.762
4.769
4.773
4.779
4.784
4.782
4.783
4.779
4.778
4.775
4.770
4.769
4.768
4.769
4.775
4.774
4.765
4.758
4.757
4.755
4.753
4.753
4.754
4.752
4.748
4.753
4.761
4.763
4.757
4.761
4.759
4.758
4.759
4.755
4.749
4.752
4.748
4.747
4.749
4.749
4.743
4.746
4.745
4.746
4.745
4.744
4.751
4.747
4.753
4.758
4.764
4.769
4.773
4.780
4.786
4.791
4.797
4.799
4.797
4.793
4.787
4.791
4.797
4.791
4.786
4.780
4.781
4.780
4.783
4.783
4.783
4.785
4.783
4.779
4.778
4.777
4.772
4.768
4.764
4.758
4.754
4.750
4.748
4.750
4.748
4.744
4.745
4.749
4.753
4.750
4.749
4.757
4.761
4.766
4.767
4.763
4.761
4.763
4.757
4.757
4.754
4.753
4.748
4.750
4.751
4.757
4.762
4.768
4.772
4.775
4.781
4.786
4.790
4.793
4.789
4.790
4.789
4.786
4.787
4.788
4.790
4.793
4.794
4.791
4.789
4.786
4.787
4.791
4.789
4.786
4.786
4.782
4.786
4.786
4.792
4.791
4.790
4.788
4.786
4.786
4.783
4.783
4.783
4.782
4.776
4.774
4.770
4.766
4.764
4.766
4.765
4.764
4.765
4.763
4.762
4.763
4.761
4.755
4.753
4.749
4.746
4.746
4.746
4.746
4.742
4.742
4.746
4.753
4.756
4.761
4.761
4.764
4.770
4.774
4.779
4.785
4.787
4.793
4.798
4.802
4.808
4.809
4.809
4.805
4.808
4.804
4.808
4.807
4.803
4.805
4.801
4.799
4.805
4.801
4.801
4.796
4.795
4.794
4.794
4.794
4.798
4.801
4.800
4.801
4.800
4.793
4.787
