2.991
3.332
3.514
3.622
3.704
3.792
3.846
3.881
3.914
3.951
3.999
4.014
4.007
4.042
4.068
4.096
4.129
4.148
4.175
4.177
4.129
4.118
4.133
4.141
4.151
4.170
4.175
4.192
4.199
4.212
4.214
4.229
4.230
4.242
4.255
4.258
4.266
4.273
4.284
4.280
4.292
4.300
4.309
4.321
4.311
4.321
4.326
4.335
4.342
4.354
4.350
4.349
4.350
4.360
4.370
4.373
4.383
4.390
4.392
4.385
4.385
4.385
4.394
4.404
4.410
4.409
4.414
4.423
4.430
4.429
4.433
4.444
4.430
4.431
4.424
4.433
4.440
4.448
4.446
4.450
4.452
4.455
4.460
4.466
4.471
4.473
4.474
4.478
4.482
4.488
4.496
4.494
4.506
4.492
4.473
4.480
4.476
4.486
4.490
4.489
4.499
4.496
4.501
4.508
4.499
4.500
4.509
4.511
4.514
4.521
4.522
4.521
4.523
4.529
4.534
4.530
4.533
4.541
4.537
4.540
4.545
4.551
4.551
4.552
4.556
4.554
4.561
4.570
4.570
4.574
4.569
4.566
4.573
4.563
4.567
4.554
4.540
4.540
4.551
4.549
4.545
4.555
4.559
4.560
4.559
4.566
4.559
4.566
4.570
4.568
4.580
4.570
4.562
4.565
4.570
4.565
4.572
4.568
4.575
4.576
4.578
4.584
4.583
4.590
4.588
4.596
4.592
4.603
4.592
4.598
4.589
4.604
4.597
4.607
4.605
4.611
4.613
4.612
4.616
4.606
4.600
4.607
4.611
4.604
4.605
4.599
4.610
4.612
4.616
4.614
4.613
4.620
4.616
4.622
4.629
4.623
4.633
4.634
4.632
4.644
4.632
4.634
4.640
4.628
4.638
4.640
4.640
4.645
4.646
4.647
4.649
4.656
4.655
4.653
4.660
4.658
4.659
4.664
4.662
4.659
4.651
4.647
4.651
4.664
4.663
4.658
4.660
4.655
4.655
4.658
4.657
4.655
4.657
4.667
4.662
4.661
4.662
4.673
4.677
4.673
4.670
4.681
4.682
4.677
4.677
4.691
4.688
4.689
4.676
4.692
4.695
4.694
4.687
4.680
4.671
4.666
4.660
4.650
4.649
4.650
4.652
4.655
4.651
4.648
4.660
4.659
4.659
4.661
4.654
4.669
4.663
4.655
4.651
4.659
4.673
4.669
4.666
4.662
4.662
4.677
4.674
4.673
4.674
4.672
4.677
4.692
4.685
4.680
4.682
4.680
4.677
4.669
4.660
4.659
4.666
4.681
4.674
4.664
4.660
4.664
4.670
4.667
4.659
4.661
4.663
4.662
4.670
4.667
4.671
4.664
4.660
4.659
4.673
4.681
4.673
4.669
4.670
4.669
4.670
4.683
4.688
4.692
4.684
4.675
4.676
4.680
4.688
4.694
4.685
4.685
4.681
4.678
4.679
4.691
4.693
4.692
4.692
4.688
4.687
4.683
4.690
4.699
4.699
4.696
4.693
4.694
4.693
4.699
4.698
4.710
4.712
4.708
4.707
4.705
4.706
4.710
4.703
4.702
4.704
4.702
4.701
4.700
4.698
4.696
4.698
4.710
4.714
4.707
4.696
4.696
4.692
4.692
4.696
4.703
4.714
4.716
4.714
4.710
4.711
4.708
4.706
4.703
4.706
4.716
4.728
4.727
4.729
4.721
4.715
4.708
4.711
4.707
4.712
4.722
4.729
4.727
4.728
4.729
4.723
4.725
4.720
4.721
4.725
4.725
4.734
4.746
4.750
4.744
4.739
4.741
4.737
4.732
4.728
4.729
4.731
4.743
4.748
4.741
4.740
4.736
4.737
4.736
4.739
4.741
4.739
4.735
4.734
4.729
4.722
4.722
4.720
4.714
4.715
4.718
4.715
4.714
4.723
4.733
4.734
4.729
4.729
4.729
4.728
4.719
4.712
4.705
4.703
4.711
4.722
4.724
4.728
4.725
4.722
4.721
4.714
4.711
4.712
4.721
4.715
4.713
4.714
4.722
4.733
4.732
4.734
4.732
4.736
4.736
4.733
4.733
4.734
4.733
4.726
4.724
4.720
4.727
4.736
4.738
4.734
4.732
4.729
4.732
4.728
4.733
4.737
4.733
4.731
4.724
4.718
4.722
4.731
4.736
4.737
4.738
4.731
4.729
4.728
4.729
4.729
4.732
4.728
4.732
4.737
4.729
4.725
4.729
4.737
4.746
4.748
4.746
4.747
4.743
4.750
4.752
4.753
4.749
4.744
4.746
4.750
4.746
4.740
4.733
4.742
4.743
4.750
4.760
4.762
4.763
4.756
4.752
4.745
4.744
4.744
4.748
4.744
4.744
4.744
4.736
4.736
4.741
4.742
4.748
4.755
4.763
4.767
4.766
4.766
4.763
4.767
4.766
4.767
4.763
4.761
4.759
4.759
4.760
4.762
4.766
4.766
4.770
4.761
4.760
4.766
4.773
4.781
4.785
4.783
4.779
4.775
4.773
4.777
4.773
4.772
4.770
4.767
4.768
4.766
4.768
4.767
4.760
4.755
4.759
4.764
4.765
4.759
4.759
4.758
4.760
4.764
4.759
4.756
4.759
4.756
4.757
4.755
4.757
4.756
4.759
4.762
4.760
4.755
4.749
4.751
4.759
4.766
4.765
4.766
4.763
4.762
4.762
4.759
4.759
4.755
4.754
4.756
4.755
4.755
4.751
4.750
4.751
4.751
4.759
4.756
4.755
4.756
4.759
4.756
4.763
4.772
4.777
4.785
4.779
4.778
4.776
4.770
4.770
4.767
4.771
4.772
4.768
4.772
4.771
4.767
4.762
4.759
4.760
4.759
4.760
4.762
4.759
4.756
4.755
4.762
4.770
4.777
4.782
4.789
4.796
4.803
4.799
4.796
4.788
4.791
4.787
4.781
4.777
4.777
4.777
4.778
4.781
4.781
4.784
4.781
4.777
4.781
4.777
4.773
4.771
4.780
4.782
4.775
4.774
4.781
4.788
4.796
4.801
4.808
4.807
4.803
4.803
4.807
4.807
4.807
4.804
4.807
4.809
4.802
4.801
4.797
4.793
4.792
4.790
4.791
4.793
4.789
4.787
4.789
4.795
4.791
4.785
4.789
4.788
4.788
4.790
4.796
4.801
4.805
4.798
4.792
4.798
4.792
4.793
4.794
4.793
4.789
4.790
4.789
4.785
4.792
4.792
4.788
4.792
4.794
4.796
4.789
4.785
4.786
4.782
4.778
4.777
4.778
4.785
4.778
4.779
4.780
4.785
4.792
4.798
4.803
4.811
4.816
4.822
4.819
4.814
4.813
4.809
4.807
4.809
4.813
4.812
4.808
4.809
4.808
4.807
4.805
4.806
4.799
4.801
4.803
4.804
4.813
4.811
4.805
4.807
4.802
4.801
4.802
4.801
4.803
4.801
4.803
4.801
4.803
4.804
4.807
4.812
4.819
4.823
4.829
4.836
4.836
4.836
4.838
4.834
4.835
4.833
4.840
4.840
4.841
4.842
4.838
4.839
4.836
4.829
4.825
4.820
4.819
4.818
4.818
4.818
4.816
4.814
4.813
4.811
4.811
4.807
4.810
4.814
4.819
4.826
4.821
4.820
4.819
4.812
4.810
4.815
4.819
4.822
4.821
4.818
4.816
4.814
4.810
4.806
4.810
4.811
4.805
4.801
4.800
4.798
4.796
4.801
4.802
4.803
4.797
4.796
4.794
4.792
4.791
4.788
4.792
4.793
4.797
4.798
4.796
4.795
4.789
4.793
4.792
4.793
4.786
4.785
4.788
4.788
4.791
4.796
4.800
4.803
4.799
4.806
4.808
4.811
4.811
4.814
4.808
4.809
4.807
4.801
4.800
4.798
4.805
4.804
4.800
4.803
4.803
4.801
4.802
4.801
4.803
4.803
4.797
4.798
4.799
4.798
4.794
4.788
4.789
4.792
4.794
4.790
4.786
4.787
4.791
4.790
4.791
4.785
4.786
4.787
4.781
4.776
4.781
4.784
4.789
4.795
4.799
4.804
4.808
4.814
4.813
4.811
4.811
4.809
4.808
4.811
4.808
4.806
4.805
4.809
4.808
4.812
4.813
4.818
4.821
4.815
4.818
4.818
4.818
4.812
4.808
4.811
4.810
4.806
4.802
4.804
4.800
4.798
4.797
4.795
4.792
4.793
4.794
4.796
4.799
4.799
4.800
4.796
4.796
4.792
4.788
4.784
4.786
4.785
4.783
4.784
4.785
4.785
4.789
4.795
4.799
4.803
4.808
4.814
4.814
4.809
4.808
4.809
4.807
4.804
4.807
4.804
4.805
4.806
4.811
4.811
4.808
4.804
4.807
4.804
4.799
4.798
4.800
4.798
4.800
4.796
4.791
4.788
4.791
4.796
4.799
4.796
