2.945
3.276
3.458
3.384
3.507
3.581
3.680
3.728
3.734
3.801
3.790
3.838
3.899
3.896
3.876
3.899
3.932
3.920
3.972
4.001
4.017
3.993
4.056
4.027
4.057
4.065
4.024
4.011
4.024
4.023
4.033
4.065
4.051
4.091
4.064
4.119
4.115
4.105
4.162
4.094
4.092
4.105
4.096
4.105
4.093
4.087
4.176
4.132
4.138
4.169
4.175
4.162
4.154
4.123
4.161
4.172
4.175
4.175
4.207
4.193
4.173
4.165
4.219
4.217
4.217
4.211
4.198
4.231
4.272
4.230
4.231
4.225
4.259
4.261
4.224
4.188
4.171
4.217
4.235
4.211
4.195
4.174
4.144
4.183
4.233
4.243
4.228
4.185
4.170
4.194
4.178
4.191
4.237
4.226
4.217
4.248
4.215
4.220
4.198
4.175
4.197
4.216
4.257
4.298
4.265
4.259
4.273
4.263
4.258
4.259
4.242
4.255
4.244
4.236
4.268
4.298
4.312
4.301
4.266
4.243
4.210
4.209
4.200
4.231
4.237
4.198
4.195
4.214
4.247
4.280
4.313
4.295
4.309
4.309
4.300
4.335
4.320
4.328
4.299
4.292
4.291
4.284
4.275
4.263
4.257
4.256
4.235
4.255
4.283
4.312
4.307
4.289
4.285
4.301
4.265
4.262
4.261
4.253
4.269
4.283
4.288
4.278
4.250
4.248
4.239
4.228
4.203
4.209
4.215
4.221
4.210
4.230
4.254
4.279
4.303
4.312
4.307
4.331
4.337
4.310
4.300
4.316
4.306
4.291
4.310
4.296
4.286
4.261
4.272
4.254
4.245
4.246
4.249
4.245
4.247
4.274
4.270
4.241
4.232
4.230
4.226
4.220
4.205
4.185
4.221
4.245
4.233
4.254
4.274
4.295
4.315
4.335
4.356
4.376
4.390
4.391
4.382
4.345
4.350
4.359
4.344
4.331
4.346
4.349
4.321
4.334
4.320
4.307
4.335
4.355
4.327
4.321
4.318
4.299
4.283
4.266
4.248
4.231
4.229
4.197
4.222
4.191
4.190
4.198
4.192
4.203
4.209
4.191
4.178
4.202
4.227
4.234
4.248
4.240
4.230
4.249
4.219
4.212
4.229
4.245
4.261
4.278
4.294
4.310
4.327
4.343
4.359
4.375
4.392
4.391
4.377
4.376
4.391
4.369
4.348
4.359
4.375
4.370
4.343
4.318
4.327
4.329
4.312
4.297
4.303
4.292
4.302
4.289
4.283
4.280
4.264
4.270
4.285
4.259
4.262
4.283
4.286
4.291
4.291
4.290
4.303
4.286
4.259
4.274
4.290
4.293
4.267
4.267
4.282
4.296
4.293
4.276
4.288
4.270
4.256
4.269
4.273
4.263
4.262
4.247
4.243
4.261
4.253
4.243
4.238
4.260
4.254
4.233
4.220
4.225
4.220
4.226
4.226
4.227
4.231
4.239
4.243
4.261
4.255
4.241
4.228
4.214
4.214
4.207
4.216
4.228
4.240
4.253
4.265
4.277
4.289
4.301
4.314
4.326
4.338
4.350
4.362
4.375
4.374
4.374
4.385
4.392
4.410
4.410
4.420
4.427
4.421
4.400
4.379
4.362
4.358
4.357
4.343
4.346
4.344
4.350
4.345
4.341
4.333
4.320
4.303
4.294
4.300
4.319
4.322
4.328
4.320
4.310
4.324
4.322
4.324
4.332
4.322
4.311
4.331
4.317
4.325
4.328
4.335
4.343
4.350
4.359
4.354
4.340
4.334
4.325
4.314
4.314
4.313
4.308
4.315
4.304
4.309
4.308
4.287
4.287
4.282
4.271
4.255
4.244
4.249
4.258
4.259
4.258
4.243
4.224
4.237
4.238
4.233
4.243
4.230
4.217
4.232
4.224
4.222
4.238
4.222
4.207
4.228
4.223
4.219
4.233
4.247
4.261
4.275
4.288
4.273
4.287
4.285
4.274
4.263
4.251
4.262
4.271
4.270
4.249
4.249
4.267
4.278
4.282
4.281
4.296
4.307
4.303
4.296
4.277
4.282
4.263
4.273
4.269
4.273
4.279
4.277
4.271
4.258
4.246
4.247
4.236
4.219
4.223
4.224
4.236
4.228
4.224
4.230
4.235
4.229
4.222
4.207
4.199
4.204
4.207
4.198
4.193
4.197
4.196
4.196
4.181
4.193
4.188
4.183
4.173
4.182
4.171
4.186
4.202
4.180
4.198
4.212
4.212
4.225
4.206
4.201
4.213
4.201
4.203
4.203
4.211
4.220
4.228
4.236
4.244
4.252
4.260
4.268
4.277
4.285
4.293
4.301
4.309
4.317
4.325
4.333
4.341
4.350
4.358
4.366
4.374
4.382
4.390
4.398
4.406
4.414
4.423
4.431
4.430
4.433
4.428
4.415
4.401
4.403
4.397
4.405
4.403
4.404
4.410
4.400
4.389
4.394
4.388
4.376
4.385
4.388
4.377
4.369
4.356
4.355
4.353
4.347
4.355
4.339
4.354
4.351
4.336
4.340
4.344
4.334
4.329
4.334
4.347
4.360
4.352
4.356
4.368
4.357
4.359
4.356
4.351
4.333
4.326
4.325
4.325
4.324
4.328
4.333
4.318
4.329
4.341
4.334
4.343
4.345
4.356
4.364
4.368
4.368
4.373
4.365
4.356
4.364
4.366
4.375
4.373
4.376
4.381
4.378
4.361
4.354
4.345
4.344
4.336
4.329
4.338
4.332
4.334
4.341
4.343
4.339
4.335
4.325
4.317
4.322
4.309
4.299
4.290
4.301
4.292
4.295
4.293
4.304
4.295
4.296
4.290
4.292
4.288
4.298
4.297
4.296
4.289
4.280
4.289
4.296
4.292
4.297
4.309
4.301
4.290
4.294
4.274
4.283
4.286
4.286
4.273
4.268
4.275
4.268
4.282
4.280
4.279
4.279
4.269
4.262
4.271
4.281
4.269
4.268
4.266
4.271
4.292
4.288
4.280
4.294
4.284
4.292
4.294
4.285
4.267
4.280
4.273
4.266
4.278
4.290
4.302
4.297
4.288
4.283
4.285
4.279
4.279
4.270
4.261
4.252
4.244
4.240
4.229
4.227
4.226
4.231
4.222
4.224
4.228
4.231
4.228
4.223
4.211
4.223
4.236
4.233
4.226
4.240
4.233
4.244
4.235
4.238
4.242
4.243
4.247
4.250
4.248
4.249
4.236
4.230
4.233
4.240
4.229
4.221
4.216
4.216
4.219
4.220
4.222
4.220
4.222
4.222
4.220
4.211
4.197
4.197
4.203
4.209
4.198
4.199
4.190
4.205
4.210
4.196
4.199
4.209
4.213
4.208
4.207
4.216
4.226
4.235
4.245
4.251
4.254
4.240
4.238
4.251
4.257
4.250
4.242
4.243
4.243
4.244
4.245
4.255
4.248
4.253
4.260
4.260
4.245
4.250
4.253
4.242
4.235
4.248
4.250
4.239
4.230
4.221
4.240
4.230
4.238
4.249
4.255
4.264
4.270
4.269
4.270
4.269
4.276
4.261
4.255
4.255
4.242
4.248
4.242
4.241
4.238
4.235
4.244
4.250
4.257
4.255
4.245
4.253
4.251
4.243
4.248
4.237
4.227
4.229
4.221
4.224
4.220
4.228
4.227
4.235
4.243
4.241
4.244
4.241
4.249
4.248
4.238
4.236
4.226
4.221
4.212
4.205
4.197
4.192
4.189
4.186
4.200
4.214
4.222
4.217
4.201
4.197
4.207
4.208
4.221
4.218
4.208
4.212
4.202
4.200
4.191
4.192
4.184
4.181
4.187
4.187
4.183
4.184
4.194
4.206
4.217
4.204
4.196
4.185
4.175
4.170
4.170
4.179
4.187
4.198
4.199
4.191
4.197
4.204
4.211
4.218
4.225
4.232
4.239
4.246
4.253
4.260
4.267
4.264
4.263
4.259
4.265
4.272
4.271
4.282
4.288
4.290
4.299
4.305
4.299
4.297
4.282
4.281
4.275
4.276
4.266
4.272
4.264
4.257
4.255
4.267
4.277
4.267
4.261
4.275
4.275
4.277
4.284
4.293
4.302
4.310
4.312
4.312
4.297
4.300
4.292
4.293
4.296
4.300
4.304
4.305
4.298
4.301
4.299
4.298
4.288
4.290
4.291
4.289
4.279
4.274
4.274
4.274
4.269
4.277
4.282
4.285
4.278
4.284
4.275
4.272
4.269
4.284
4.270
4.256
4.266
4.264
4.255
4.263
4.261
4.259
4.264
4.253
4.257
4.253
4.266
4.268
4.261
4.261
4.253
4.247
4.239
4.232
4.230
4.229
4.238
4.245
4.232
4.218
4.215
4.211
4.224
4.217
4.210
4.207
4.216
4.209
4.212
4.218
4.228
4.238
4.229
4.233
4.230
4.237
4.239
