2.988
3.324
3.498
3.619
3.693
3.779
3.827
3.873
3.885
3.933
3.979
4.023
4.054
3.977
3.985
4.005
4.024
4.043
4.057
4.081
4.092
4.114
4.119
4.138
4.142
4.160
4.180
4.169
4.189
4.201
4.211
4.214
4.222
4.235
4.246
4.259
4.245
4.254
4.270
4.271
4.284
4.293
4.300
4.315
4.291
4.300
4.303
4.321
4.316
4.326
4.337
4.342
4.343
4.363
4.362
4.374
4.369
4.343
4.351
4.366
4.368
4.376
4.373
4.370
4.389
4.385
4.393
4.405
4.411
4.409
4.405
4.418
4.421
4.429
4.438
4.432
4.441
4.439
4.443
4.441
4.451
4.440
4.426
4.434
4.436
4.434
4.441
4.441
4.455
4.455
4.440
4.443
4.449
4.453
4.450
4.452
4.462
4.469
4.477
4.467
4.466
4.478
4.489
4.481
4.486
4.498
4.487
4.479
4.477
4.490
4.484
4.489
4.501
4.492
4.509
4.504
4.515
4.514
4.514
4.519
4.515
4.523
4.513
4.535
4.530
4.541
4.534
4.544
4.535
4.550
4.529
4.544
4.539
4.538
4.527
4.545
4.539
4.544
4.549
4.548
4.555
4.550
4.557
4.576
4.558
4.574
4.575
4.576
4.581
4.574
4.571
4.575
4.562
4.550
4.537
4.543
4.540
4.533
4.541
4.536
4.538
4.548
4.549
4.543
4.558
4.566
4.560
4.558
4.574
4.563
4.566
4.564
4.552
4.545
4.557
4.552
4.546
4.542
4.548
4.548
4.536
4.548
4.550
4.552
4.543
4.550
4.573
4.560
4.560
4.554
4.571
4.572
4.563
4.556
4.565
4.574
4.569
4.576
4.566
4.576
4.589
4.584
4.587
4.577
4.583
4.601
4.598
4.592
4.592
4.584
4.586
4.589
4.581
4.579
4.581
4.589
4.588
4.593
4.584
4.582
4.592
4.612
4.609
4.601
4.598
4.592
4.598
4.612
4.608
4.609
4.604
4.593
4.603
4.617
4.634
4.627
4.625
4.621
4.613
4.610
4.629
4.638
4.627
4.622
4.625
4.626
4.621
4.633
4.642
4.636
4.632
4.621
4.610
4.612
4.621
4.615
4.607
4.610
4.612
4.607
4.603
4.610
4.612
4.605
4.599
4.595
4.601
4.598
4.603
4.620
4.623
4.623
4.620
4.624
4.615
4.601
4.606
4.612
4.628
4.620
4.631
4.630
4.620
4.615
4.600
4.595
4.611
4.627
4.629
4.632
4.624
4.622
4.615
4.613
4.616
4.614
4.619
4.632
4.648
4.645
4.647
4.634
4.635
4.630
4.630
4.628
4.623
4.627
4.642
4.644
4.642
4.641
4.638
4.634
4.642
4.637
4.633
4.633
4.628
4.640
4.655
4.666
4.673
4.671
4.660
4.653
4.660
4.655
4.650
4.652
4.644
4.647
4.655
4.669
4.673
4.669
4.659
4.666
4.662
4.662
4.659
4.649
4.639
4.639
4.643
4.656
4.658
4.662
4.653
4.645
4.644
4.637
4.635
4.634
4.629
4.628
4.630
4.631
4.644
4.657
4.670
4.667
4.669
4.673
4.671
4.661
4.651
4.643
4.642
4.643
4.648
4.645
4.644
4.644
4.656
4.668
4.678
4.685
4.681
4.678
4.680
4.679
4.670
4.665
4.666
4.662
4.660
4.658
4.655
4.661
4.663
4.663
4.675
4.687
4.699
4.701
4.697
4.696
4.689
4.687
4.684
4.688
4.685
4.689
4.687
4.680
4.679
4.684
4.683
4.676
4.676
4.687
4.698
4.700
4.704
4.704
4.694
4.687
4.680
4.677
4.676
4.676
4.674
4.667
4.666
4.671
4.675
4.671
4.664
4.668
4.679
4.689
4.700
4.706
4.700
4.700
4.698
4.702
4.698
4.703
4.703
4.696
4.697
4.697
4.693
4.695
4.693
4.693
4.685
4.687
4.691
4.691
4.693
4.693
4.703
4.713
4.723
4.734
4.744
4.745
4.737
4.732
4.723
4.719
4.716
4.713
4.716
4.708
4.720
4.713
4.715
4.712
4.709
4.699
4.702
4.705
4.701
4.700
4.702
4.712
4.722
4.732
4.730
4.725
4.719
4.714
4.708
4.703
4.697
4.698
4.690
4.682
4.681
4.684
4.688
4.684
4.679
4.688
4.690
4.683
4.687
4.689
4.688
4.686
4.695
4.705
4.710
4.702
4.706
4.705
4.696
4.698
4.694
4.696
4.688
4.694
4.696
4.698
4.689
4.682
4.687
4.684
4.677
4.672
4.669
4.670
4.663
4.662
4.662
4.669
4.665
4.670
4.679
4.688
4.697
4.705
4.714
4.723
4.722
4.716
4.715
4.715
4.710
4.702
4.698
4.700
4.709
4.708
4.706
4.698
4.698
4.695
4.697
4.699
4.696
4.689
4.681
4.675
4.668
4.669
4.677
4.672
4.663
4.659
4.667
4.675
4.684
4.692
4.700
4.708
4.708
4.700
4.701
4.693
4.699
4.698
4.707
4.702
4.706
4.706
4.703
4.699
4.705
4.705
4.706
4.713
4.706
4.706
4.701
4.702
4.696
4.691
4.691
4.685
4.686
4.684
4.685
4.685
4.683
4.685
4.688
4.683
4.683
4.678
4.684
4.692
4.699
4.707
4.713
4.710
4.715
4.712
4.709
4.707
4.711
4.704
4.707
4.712
4.713
4.707
4.702
4.697
4.691
4.695
4.702
4.700
4.697
4.701
4.701
4.700
4.693
4.681
4.690
4.695
4.688
4.686
4.690
4.693
4.695
4.700
4.696
4.694
4.693
4.688
4.681
4.683
4.681
4.681
4.688
4.696
4.703
4.710
4.715
4.723
4.725
4.719
4.720
4.724
4.721
4.716
4.724
4.723
4.725
4.720
4.718
4.719
4.717
4.720
4.716
4.706
4.706
4.709
4.707
4.710
4.704
4.706
4.702
4.699
4.699
4.697
4.695
4.705
4.711
4.704
4.709
4.712
4.711
4.713
4.705
4.698
4.701
4.704
4.703
4.697
4.697
4.695
4.686
4.681
4.688
4.695
4.701
4.708
4.714
4.721
4.728
4.734
4.738
4.738
4.736
4.730
4.727
4.732
4.740
4.738
4.740
4.735
4.743
4.740
4.746
4.749
4.745
4.739
4.741
4.732
4.731
4.725
4.727
4.726
4.723
4.726
4.728
4.726
4.722
4.724
4.723
4.712
4.707
4.716
4.713
4.718
4.714
4.715
4.715
4.720
4.717
4.721
4.723
4.720
4.712
4.707
4.709
4.717
4.725
4.717
4.715
4.718
4.710
4.710
4.717
4.715
4.715
4.716
4.722
4.728
4.735
4.741
4.747
4.753
4.759
4.765
4.767
4.763
4.771
4.777
4.776
4.774
4.774
4.774
4.774
4.774
4.764
4.763
4.765
4.763
4.762
4.766
4.763
4.759
4.754
4.752
4.751
4.755
4.758
4.761
4.756
4.754
4.755
4.750
4.744
4.744
4.750
4.749
4.755
4.757
4.762
4.756
4.751
4.746
4.739
4.738
4.739
4.734
4.728
4.722
4.718
4.719
4.720
4.723
4.726
4.723
4.721
4.722
4.727
4.731
4.728
4.723
4.718
4.713
4.708
4.707
4.713
4.719
4.724
4.730
4.736
4.741
4.744
4.746
4.748
4.751
4.757
4.763
4.761
4.761
4.762
4.758
4.754
4.753
4.753
4.745
4.748
4.752
4.751
4.746
4.751
4.745
4.739
4.735
4.736
4.732
4.732
4.729
4.734
4.730
4.721
4.721
4.718
4.720
4.720
4.719
4.724
4.724
4.721
4.726
4.731
4.723
4.720
4.720
4.719
4.717
4.718
4.718
4.716
4.719
4.715
4.723
4.729
4.727
4.726
4.724
4.721
4.720
4.722
4.717
4.720
4.722
4.724
4.724
4.720
4.712
4.709
4.708
4.702
4.698
4.698
4.702
4.696
4.702
4.703
4.702
4.701
4.707
4.706
4.711
4.717
4.722
4.727
4.732
4.737
4.742
4.747
4.752
4.758
4.763
4.768
4.773
4.774
4.773
4.774
4.770
4.774
4.774
4.778
4.778
4.772
4.767
4.761
4.761
4.759
4.761
4.762
4.763
4.758
4.751
4.754
4.755
4.762
4.769
4.769
4.771
4.775
4.771
4.776
4.774
4.772
4.767
4.759
4.757
4.758
4.765
4.767
4.761
4.759
4.756
4.757
4.760
4.768
4.767
4.767
4.762
4.762
4.765
4.766
4.765
4.763
4.765
4.763
4.762
4.761
4.757
4.760
4.756
4.753
4.751
4.749
4.751
4.751
4.749
4.744
4.747
4.752
4.754
4.751
4.747
4.742
4.740
4.737
4.733
4.730
4.727
