2.994
3.321
3.491
3.619
3.718
3.770
3.782
3.840
3.905
3.958
3.993
3.905
3.928
3.957
3.977
4.000
4.013
4.046
4.050
4.081
4.088
4.111
4.115
4.126
4.148
4.145
4.156
4.177
4.186
4.199
4.189
4.211
4.214
4.233
4.240
4.256
4.229
4.245
4.259
4.258
4.270
4.284
4.292
4.297
4.310
4.316
4.295
4.303
4.296
4.315
4.316
4.312
4.332
4.333
4.349
4.353
4.345
4.348
4.367
4.371
4.379
4.387
4.388
4.384
4.388
4.394
4.381
4.375
4.370
4.369
4.382
4.394
4.398
4.389
4.384
4.393
4.395
4.401
4.411
4.418
4.413
4.426
4.435
4.433
4.427
4.441
4.423
4.419
4.437
4.441
4.433
4.447
4.457
4.451
4.461
4.474
4.456
4.465
4.479
4.475
4.480
4.477
4.488
4.494
4.497
4.492
4.487
4.477
4.488
4.482
4.495
4.495
4.499
4.500
4.503
4.514
4.501
4.526
4.513
4.525
4.530
4.528
4.532
4.516
4.501
4.492
4.486
4.492
4.491
4.484
4.500
4.498
4.503
4.522
4.515
4.503
4.531
4.519
4.508
4.496
4.494
4.502
4.494
4.480
4.503
4.496
4.489
4.497
4.514
4.508
4.500
4.517
4.517
4.521
4.502
4.521
4.515
4.516
4.512
4.531
4.531
4.527
4.526
4.544
4.540
4.547
4.537
4.542
4.533
4.527
4.523
4.536
4.537
4.544
4.521
4.533
4.549
4.559
4.553
4.543
4.533
4.556
4.557
4.555
4.549
4.552
4.557
4.577
4.579
4.569
4.561
4.562
4.574
4.590
4.576
4.579
4.574
4.569
4.584
4.587
4.575
4.585
4.572
4.563
4.564
4.562
4.562
4.556
4.554
4.558
4.555
4.553
4.558
4.549
4.539
4.547
4.566
4.577
4.573
4.570
4.558
4.556
4.547
4.564
4.584
4.580
4.575
4.557
4.545
4.555
4.553
4.573
4.582
4.571
4.575
4.575
4.574
4.581
4.574
4.572
4.591
4.590
4.594
4.588
4.591
4.585
4.574
4.564
4.578
4.596
4.602
4.600
4.603
4.599
4.597
4.599
4.591
4.595
4.590
4.608
4.626
4.615
4.609
4.610
4.609
4.605
4.600
4.598
4.596
4.607
4.623
4.623
4.618
4.606
4.593
4.600
4.596
4.585
4.583
4.592
4.605
4.596
4.605
4.596
4.601
4.596
4.594
4.601
4.585
4.598
4.609
4.596
4.611
4.623
4.607
4.613
4.611
4.612
4.611
4.610
4.606
4.610
4.609
4.606
4.602
4.614
4.629
4.641
4.635
4.627
4.638
4.633
4.628
4.627
4.631
4.632
4.632
4.625
4.622
4.618
4.628
4.642
4.656
4.651
4.657
4.658
4.645
4.635
4.638
4.626
4.631
4.631
4.627
4.632
4.630
4.623
4.636
4.648
4.643
4.646
4.641
4.638
4.644
4.643
4.639
4.630
4.633
4.631
4.636
4.633
4.630
4.626
4.628
4.637
4.650
4.663
4.676
4.684
4.680
4.672
4.671
4.667
4.658
4.660
4.664
4.676
4.668
4.675
4.666
4.663
4.650
4.658
4.649
4.652
4.665
4.677
4.684
4.684
4.680
4.687
4.683
4.689
4.685
4.683
4.677
4.669
4.657
4.663
4.672
4.665
4.656
4.659
4.652
4.646
4.653
4.665
4.673
4.677
4.673
4.670
4.663
4.662
4.662
4.656
4.649
4.648
4.638
4.636
4.635
4.631
4.629
4.628
4.617
4.612
4.616
4.627
4.638
4.649
4.654
4.660
4.662
4.659
4.651
4.649
4.647
4.649
4.645
4.650
4.651
4.652
4.648
4.640
4.642
4.644
4.645
4.643
4.641
4.635
4.632
4.638
4.642
4.637
4.636
4.646
4.657
4.654
4.650
4.645
4.645
4.635
4.647
4.647
4.647
4.647
4.648
4.637
4.639
4.638
4.640
4.634
4.631
4.634
4.622
4.625
4.628
4.626
4.629
4.636
4.644
4.645
4.640
4.640
4.639
4.649
4.658
4.668
4.678
4.670
4.664
4.666
4.659
4.656
4.659
4.652
4.645
4.643
4.645
4.638
4.648
4.652
4.653
4.646
4.650
4.648
4.638
4.632
4.630
4.628
4.631
4.628
4.628
4.636
4.633
4.622
4.621
4.630
4.639
4.649
4.657
4.667
4.676
4.675
4.682
4.687
4.683
4.680
4.676
4.675
4.671
4.665
4.662
4.654
4.652
4.649
4.644
4.644
4.651
4.648
4.648
4.655
4.652
4.649
4.639
4.651
4.644
4.650
4.650
4.646
4.650
4.646
4.639
4.647
4.649
4.651
4.651
4.645
4.646
4.655
4.663
4.672
4.680
4.680
4.674
4.679
4.680
4.674
4.671
4.678
4.685
4.686
4.679
4.680
4.690
4.687
4.686
4.682
4.683
4.682
4.680
4.676
4.676
4.682
4.677
4.674
4.663
4.663
4.660
4.658
4.666
4.663
4.665
4.664
4.670
4.665
4.661
4.656
4.649
4.654
4.652
4.662
4.658
4.655
4.657
4.656
4.664
4.672
4.679
4.687
4.695
4.703
4.711
4.718
4.722
4.724
4.714
4.718
4.718
4.709
4.706
4.707
4.712
4.708
4.708
4.705
4.706
4.704
4.705
4.708
4.704
4.697
4.696
4.704
4.698
4.705
4.703
4.705
4.705
4.697
4.703
4.702
4.713
4.719
4.713
4.703
4.697
4.698
4.703
4.697
4.690
4.683
4.675
4.676
4.684
4.686
4.683
4.677
4.680
4.671
4.663
4.669
4.676
4.683
4.690
4.697
4.704
4.707
4.706
4.706
4.708
4.707
4.705
4.707
4.702
4.700
4.692
4.697
4.693
4.696
4.698
4.698
4.695
4.697
4.692
4.688
4.688
4.692
4.687
4.686
4.682
4.676
4.671
4.665
4.660
4.664
4.670
4.669
4.674
4.661
4.661
4.664
4.664
4.667
4.668
4.670
4.680
4.690
4.683
4.676
4.671
4.662
4.663
4.656
4.654
4.658
4.658
4.657
4.656
4.652
4.648
4.641
4.643
4.651
4.654
4.661
4.667
4.674
4.680
4.687
4.693
4.700
4.706
4.713
4.719
4.726
4.727
4.730
4.724
4.721
4.713
4.712
4.717
4.715
4.720
4.714
4.710
4.712
4.703
4.702
4.703
4.696
4.701
4.710
4.715
4.720
4.717
4.707
4.713
4.718
4.713
4.708
4.704
4.700
4.702
4.704
4.702
4.702
4.703
4.713
4.711
4.710
4.712
4.701
4.701
4.706
4.706
4.698
4.699
4.696
4.700
4.703
4.698
4.693
4.694
4.690
4.694
4.693
4.689
4.690
4.690
4.687
4.684
4.683
4.688
4.690
4.696
4.695
4.698
4.699
4.694
4.696
4.704
4.704
4.703
4.704
4.699
4.696
4.698
4.694
4.692
4.698
4.704
4.710
4.716
4.722
4.727
4.733
4.739
4.740
4.747
4.740
4.743
4.740
4.732
4.730
4.725
4.725
4.722
4.721
4.716
4.710
4.704
4.712
4.705
4.699
4.697
4.696
4.689
4.691
4.691
4.690
4.687
4.686
4.687
4.689
4.691
4.697
4.688
4.686
4.682
4.686
4.684
4.681
4.687
4.681
4.683
4.691
4.694
4.690
4.686
4.690
4.689
4.683
4.682
4.685
4.683
4.679
4.679
4.680
4.683
4.682
4.684
4.678
4.672
4.670
4.668
4.665
4.661
4.665
4.660
4.653
4.652
4.654
4.655
4.650
4.646
4.649
4.648
4.650
4.646
4.643
4.643
4.642
4.640
4.638
4.646
4.650
4.649
4.657
4.656
4.648
4.650
4.655
4.660
4.665
4.671
4.676
4.681
4.686
4.691
4.697
4.702
4.707
4.712
4.717
4.723
4.728
4.733
4.738
4.743
4.749
4.753
4.750
4.746
4.740
4.742
4.749
4.747
4.750
4.749
4.755
4.762
4.763
4.756
4.758
4.757
4.755
4.746
4.742
4.744
4.737
4.736
4.738
4.734
4.731
4.723
4.720
4.722
4.722
4.716
4.713
4.710
4.715
4.720
4.715
4.710
4.712
4.717
4.710
4.714
4.709
4.706
4.711
4.711
4.706
4.701
4.697
4.692
4.687
4.682
4.678
4.678
4.683
4.680
4.674
4.677
4.672
4.675
4.670
4.667
4.664
4.669
4.665
4.672
4.672
4.672
4.672
4.665
4.658
4.651
4.650
4.647
4.653
4.659
4.666
4.665
4.666
4.670
4.677
4.676
4.682
4.678
4.676
4.679
4.674
4.672
4.673
4.674
4.670
4.668
4.667
