2.994
3.335
3.512
3.633
3.701
3.780
3.828
3.872
3.912
3.967
3.948
3.983
4.025
4.050
4.082
4.116
4.140
4.121
4.071
4.086
4.101
4.112
4.124
4.143
4.149
4.169
4.171
4.190
4.190
4.204
4.222
4.220
4.235
4.245
4.245
4.254
4.267
4.275
4.267
4.284
4.292
4.298
4.309
4.314
4.308
4.316
4.322
4.328
4.340
4.352
4.351
4.344
4.352
4.353
4.358
4.372
4.369
4.381
4.391
4.389
4.393
4.406
4.398
4.393
4.394
4.398
4.406
4.410
4.409
4.412
4.423
4.430
4.434
4.440
4.440
4.437
4.452
4.456
4.461
4.461
4.461
4.437
4.441
4.440
4.449
4.456
4.457
4.460
4.470
4.464
4.467
4.466
4.474
4.479
4.483
4.487
4.489
4.499
4.499
4.492
4.501
4.499
4.501
4.510
4.513
4.514
4.519
4.520
4.531
4.525
4.537
4.537
4.529
4.540
4.534
4.540
4.526
4.510
4.510
4.513
4.520
4.521
4.521
4.521
4.528
4.530
4.527
4.532
4.539
4.540
4.530
4.525
4.539
4.536
4.527
4.540
4.541
4.541
4.546
4.545
4.552
4.555
4.560
4.568
4.553
4.556
4.560
4.563
4.569
4.573
4.577
4.577
4.583
4.577
4.569
4.567
4.574
4.570
4.571
4.567
4.583
4.575
4.583
4.575
4.589
4.583
4.590
4.600
4.597
4.603
4.600
4.606
4.604
4.598
4.601
4.599
4.615
4.609
4.606
4.615
4.616
4.618
4.624
4.618
4.628
4.624
4.623
4.635
4.623
4.620
4.627
4.625
4.625
4.629
4.616
4.628
4.618
4.616
4.629
4.629
4.623
4.628
4.639
4.639
4.637
4.647
4.646
4.643
4.641
4.653
4.658
4.647
4.655
4.657
4.659
4.655
4.664
4.655
4.646
4.638
4.629
4.620
4.618
4.614
4.617
4.623
4.631
4.625
4.620
4.624
4.637
4.623
4.618
4.623
4.639
4.634
4.633
4.625
4.638
4.644
4.640
4.638
4.644
4.649
4.650
4.649
4.644
4.646
4.651
4.640
4.629
4.626
4.644
4.639
4.628
4.628
4.633
4.630
4.627
4.630
4.633
4.626
4.640
4.636
4.629
4.624
4.627
4.638
4.642
4.641
4.637
4.636
4.639
4.647
4.660
4.647
4.649
4.647
4.645
4.651
4.657
4.651
4.653
4.644
4.644
4.651
4.663
4.658
4.658
4.652
4.654
4.654
4.662
4.669
4.666
4.664
4.670
4.669
4.667
4.669
4.683
4.679
4.685
4.676
4.676
4.667
4.671
4.678
4.675
4.671
4.667
4.664
4.665
4.668
4.671
4.666
4.668
4.670
4.668
4.665
4.663
4.675
4.684
4.686
4.681
4.680
4.679
4.685
4.678
4.678
4.690
4.684
4.686
4.682
4.681
4.682
4.681
4.678
4.686
4.699
4.699
4.697
4.695
4.701
4.700
4.700
4.703
4.697
4.702
4.713
4.712
4.707
4.710
4.706
4.710
4.709
4.697
4.699
4.712
4.719
4.719
4.719
4.712
4.709
4.701
4.702
4.694
4.701
4.695
4.687
4.689
4.684
4.683
4.685
4.684
4.681
4.687
4.699
4.695
4.686
4.677
4.678
4.678
4.674
4.680
4.679
4.676
4.688
4.700
4.693
4.693
4.692
4.687
4.688
4.690
4.687
4.684
4.682
4.687
4.695
4.706
4.711
4.710
4.699
4.697
4.697
4.695
4.698
4.691
4.686
4.685
4.692
4.704
4.715
4.709
4.705
4.701
4.693
4.685
4.690
4.690
4.685
4.686
4.684
4.693
4.704
4.715
4.717
4.708
4.706
4.705
4.710
4.707
4.704
4.705
4.699
4.703
4.699
4.701
4.706
4.717
4.727
4.727
4.725
4.727
4.716
4.708
4.716
4.713
4.719
4.717
4.719
4.711
4.702
4.709
4.719
4.728
4.725
4.725
4.727
4.724
4.722
4.724
4.725
4.723
4.717
4.715
4.718
4.720
4.723
4.721
4.721
4.731
4.741
4.748
4.750
4.749
4.743
4.737
4.741
4.742
4.741
4.744
4.738
4.730
4.734
4.727
4.720
4.722
4.731
4.741
4.750
4.747
4.742
4.742
4.742
4.742
4.740
4.735
4.728
4.721
4.714
4.715
4.718
4.717
4.712
4.720
4.729
4.738
4.745
4.738
4.736
4.739
4.736
4.733
4.727
4.720
4.717
4.720
4.718
4.708
4.707
4.718
4.714
4.710
4.714
4.723
4.732
4.741
4.746
4.741
4.743
4.745
4.748
4.744
4.742
4.744
4.749
4.745
4.736
4.732
4.725
4.723
4.724
4.722
4.723
4.727
4.722
4.730
4.739
4.747
4.754
4.755
4.753
4.760
4.760
4.757
4.756
4.755
4.752
4.751
4.751
4.750
4.747
4.748
4.750
4.740
4.737
4.737
4.739
4.732
4.739
4.739
4.747
4.755
4.764
4.769
4.770
4.774
4.769
4.770
4.776
4.779
4.777
4.779
4.772
4.765
4.761
4.758
4.759
4.760
4.761
4.760
4.758
4.758
4.760
4.761
4.752
4.750
4.755
4.762
4.770
4.778
4.786
4.782
4.778
4.777
4.778
4.773
4.770
4.768
4.762
4.766
4.759
4.757
4.754
4.755
4.757
4.758
4.750
4.742
4.739
4.738
4.740
4.745
4.744
4.752
4.759
4.767
4.774
4.779
4.781
4.782
4.781
4.772
4.773
4.771
4.770
4.772
4.775
4.773
4.766
4.769
4.767
4.767
4.765
4.762
4.767
4.772
4.773
4.767
4.770
4.766
4.764
4.761
4.765
4.766
4.763
4.766
4.774
4.781
4.788
4.795
4.802
4.804
4.804
4.801
4.799
4.797
4.796
4.798
4.799
4.794
4.796
4.797
4.799
4.800
4.800
4.802
4.807
4.803
4.801
4.798
4.790
4.787
4.784
4.785
4.778
4.780
4.781
4.784
4.779
4.778
4.780
4.787
4.793
4.800
4.807
4.811
4.813
4.809
4.809
4.808
4.804
4.800
4.796
4.792
4.789
4.785
4.781
4.778
4.777
4.780
4.772
4.767
4.760
4.754
4.756
4.754
4.752
4.750
4.754
4.752
4.749
4.752
4.749
4.756
4.762
4.769
4.775
4.782
4.788
4.790
4.787
4.794
4.790
4.785
4.781
4.776
4.771
4.767
4.766
4.763
4.765
4.761
4.760
4.759
4.759
4.762
4.762
4.759
4.757
4.756
4.756
4.753
4.762
4.764
4.763
4.762
4.762
4.762
4.760
4.756
4.752
4.751
4.750
4.753
4.759
4.765
4.771
4.777
4.783
4.781
4.775
4.773
4.771
4.771
4.775
4.774
4.768
4.763
4.766
4.775
4.778
4.782
4.783
4.779
4.773
4.777
4.777
4.771
4.770
4.769
4.771
4.771
4.774
4.771
4.768
4.764
4.765
4.765
4.767
4.766
4.766
4.760
4.755
4.757
4.753
4.754
4.760
4.768
4.769
4.763
4.765
4.769
4.774
4.780
4.786
4.789
4.790
4.787
4.781
4.781
4.778
4.771
4.772
4.775
4.778
4.775
4.770
4.765
4.767
4.763
4.758
4.762
4.758
4.759
4.757
4.755
4.759
4.764
4.767
4.765
4.768
4.767
4.767
4.761
4.757
4.753
4.754
4.756
4.756
4.756
4.753
4.753
4.752
4.754
4.752
4.753
4.752
4.753
4.753
4.752
4.757
4.763
4.768
4.774
4.779
4.785
4.790
4.796
4.801
4.801
4.798
4.796
4.793
4.795
4.794
4.790
4.788
4.784
4.787
4.788
4.788
4.789
4.786
4.790
4.788
4.787
4.783
4.777
4.773
4.767
4.762
4.757
4.755
4.755
4.757
4.755
4.753
4.754
4.752
4.751
4.758
4.756
4.754
4.755
4.763
4.770
4.770
4.771
4.768
4.765
4.767
4.765
4.764
4.759
4.759
4.760
4.757
4.757
4.758
4.764
4.769
4.774
4.779
4.784
4.789
4.794
4.800
4.797
4.793
4.793
4.794
4.792
4.794
4.794
4.798
4.799
4.800
4.794
4.795
4.793
4.799
4.795
4.792
4.789
4.791
4.785
4.792
4.795
4.798
4.797
4.797
4.795
4.792
4.793
4.786
4.788
4.787
4.784
4.779
4.773
4.768
4.763
4.770
4.770
4.771
4.771
4.771
4.772
4.769
4.766
4.761
4.758
4.758
4.757
4.754
4.752
4.758
4.753
4.752
4.751
4.751
4.754
4.757
4.761
4.768
4.767
4.768
4.773
4.777
4.782
4.787
4.792
4.797
4.801
4.806
4.811
4.816
