2.992
3.332
3.507
3.635
3.721
3.797
3.826
3.899
3.927
3.953
3.981
4.024
4.062
4.030
4.059
4.085
4.111
4.134
4.160
4.183
4.198
4.218
4.185
4.144
4.160
4.170
4.179
4.195
4.199
4.203
4.220
4.227
4.236
4.251
4.253
4.260
4.270
4.273
4.283
4.293
4.291
4.299
4.306
4.318
4.329
4.323
4.329
4.336
4.341
4.355
4.346
4.350
4.358
4.367
4.376
4.380
4.387
4.389
4.379
4.386
4.393
4.399
4.406
4.410
4.417
4.422
4.426
4.429
4.417
4.422
4.421
4.430
4.437
4.441
4.440
4.444
4.455
4.458
4.464
4.462
4.467
4.474
4.469
4.460
4.467
4.463
4.462
4.468
4.478
4.477
4.483
4.479
4.491
4.492
4.497
4.503
4.502
4.510
4.508
4.509
4.514
4.512
4.524
4.525
4.532
4.532
4.529
4.512
4.506
4.514
4.510
4.514
4.522
4.525
4.525
4.529
4.530
4.537
4.541
4.531
4.532
4.536
4.540
4.545
4.549
4.553
4.557
4.559
4.560
4.562
4.565
4.566
4.565
4.564
4.565
4.569
4.568
4.567
4.577
4.580
4.584
4.586
4.587
4.592
4.590
4.595
4.598
4.594
4.604
4.597
4.598
4.599
4.606
4.600
4.590
4.580
4.573
4.572
4.576
4.583
4.584
4.580
4.587
4.588
4.596
4.589
4.590
4.597
4.592
4.600
4.596
4.603
4.601
4.608
4.599
4.597
4.601
4.597
4.603
4.602
4.604
4.606
4.607
4.610
4.612
4.613
4.614
4.614
4.618
4.618
4.625
4.621
4.634
4.625
4.626
4.629
4.626
4.627
4.629
4.636
4.636
4.646
4.644
4.641
4.650
4.641
4.636
4.629
4.640
4.640
4.639
4.643
4.634
4.638
4.642
4.640
4.650
4.646
4.647
4.655
4.642
4.654
4.655
4.651
4.659
4.660
4.662
4.665
4.670
4.662
4.667
4.668
4.669
4.666
4.667
4.663
4.667
4.676
4.673
4.671
4.681
4.682
4.677
4.681
4.691
4.687
4.680
4.692
4.689
4.690
4.686
4.695
4.688
4.677
4.684
4.682
4.680
4.685
4.692
4.695
4.688
4.690
4.688
4.688
4.681
4.692
4.688
4.687
4.686
4.696
4.697
4.695
4.692
4.698
4.706
4.706
4.705
4.701
4.711
4.710
4.705
4.709
4.708
4.723
4.718
4.714
4.714
4.717
4.721
4.714
4.706
4.701
4.695
4.688
4.683
4.688
4.686
4.684
4.678
4.682
4.683
4.682
4.681
4.681
4.686
4.692
4.691
4.688
4.684
4.687
4.699
4.699
4.691
4.682
4.680
4.693
4.702
4.701
4.695
4.692
4.694
4.701
4.703
4.706
4.702
4.699
4.703
4.707
4.718
4.721
4.718
4.710
4.703
4.709
4.703
4.696
4.694
4.688
4.694
4.704
4.706
4.707
4.700
4.693
4.689
4.701
4.697
4.687
4.691
4.685
4.684
4.693
4.705
4.706
4.695
4.692
4.695
4.685
4.697
4.699
4.700
4.703
4.705
4.699
4.694
4.698
4.708
4.717
4.713
4.709
4.716
4.715
4.713
4.704
4.714
4.721
4.722
4.720
4.716
4.710
4.710
4.707
4.718
4.717
4.716
4.715
4.714
4.714
4.716
4.715
4.721
4.728
4.725
4.725
4.719
4.723
4.719
4.718
4.716
4.726
4.735
4.739
4.741
4.739
4.736
4.732
4.740
4.729
4.730
4.740
4.740
4.736
4.730
4.721
4.724
4.721
4.724
4.729
4.738
4.740
4.736
4.734
4.729
4.732
4.730
4.721
4.722
4.732
4.735
4.737
4.740
4.734
4.733
4.732
4.733
4.736
4.733
4.734
4.743
4.753
4.746
4.747
4.747
4.750
4.746
4.742
4.743
4.747
4.746
4.748
4.749
4.748
4.746
4.748
4.746
4.748
4.752
4.744
4.744
4.744
4.749
4.758
4.763
4.767
4.766
4.764
4.765
4.764
4.760
4.759
4.765
4.769
4.758
4.764
4.773
4.773
4.766
4.770
4.776
4.772
4.768
4.762
4.762
4.759
4.757
4.761
4.769
4.780
4.774
4.769
4.763
4.758
4.752
4.747
4.741
4.736
4.744
4.751
4.760
4.756
4.755
4.756
4.754
4.751
4.744
4.744
4.749
4.745
4.751
4.745
4.749
4.750
4.741
4.744
4.740
4.739
4.741
4.740
4.738
4.742
4.740
4.742
4.740
4.737
4.746
4.753
4.760
4.759
4.760
4.759
4.752
4.753
4.746
4.744
4.749
4.751
4.754
4.748
4.747
4.745
4.754
4.761
4.769
4.777
4.774
4.767
4.760
4.761
4.760
4.758
4.760
4.758
4.749
4.750
4.749
4.745
4.754
4.761
4.769
4.775
4.768
4.761
4.758
4.755
4.757
4.762
4.758
4.750
4.747
4.747
4.747
4.748
4.746
4.755
4.762
4.769
4.774
4.775
4.773
4.770
4.771
4.767
4.763
4.769
4.766
4.764
4.765
4.766
4.760
4.758
4.760
4.764
4.763
4.770
4.777
4.784
4.785
4.783
4.784
4.788
4.785
4.781
4.777
4.777
4.777
4.772
4.766
4.764
4.765
4.764
4.774
4.775
4.773
4.775
4.782
4.788
4.787
4.783
4.781
4.777
4.779
4.778
4.777
4.781
4.784
4.784
4.777
4.775
4.771
4.775
4.776
4.780
4.777
4.775
4.781
4.788
4.793
4.797
4.804
4.805
4.799
4.805
4.804
4.808
4.806
4.802
4.799
4.800
4.796
4.794
4.792
4.792
4.795
4.792
4.790
4.789
4.792
4.789
4.795
4.800
4.807
4.806
4.806
4.803
4.806
4.805
4.804
4.799
4.798
4.795
4.793
4.791
4.792
4.789
4.784
4.778
4.774
4.772
4.769
4.777
4.784
4.789
4.796
4.799
4.796
4.799
4.795
4.795
4.795
4.795
4.798
4.799
4.795
4.791
4.792
4.789
4.787
4.788
4.784
4.777
4.771
4.770
4.773
4.773
4.774
4.780
4.787
4.791
4.795
4.792
4.796
4.797
4.798
4.799
4.796
4.795
4.792
4.792
4.793
4.792
4.795
4.791
4.788
4.788
4.793
4.791
4.790
4.795
4.795
4.795
4.798
4.794
4.788
4.786
4.793
4.797
4.804
4.805
4.804
4.808
4.807
4.805
4.804
4.800
4.796
4.802
4.796
4.800
4.803
4.802
4.801
4.797
4.796
4.799
4.799
4.799
4.799
4.799
4.801
4.799
4.793
4.795
4.795
4.802
4.804
4.802
4.809
4.813
4.820
4.825
4.825
4.824
4.823
4.821
4.820
4.819
4.817
4.816
4.809
4.811
4.812
4.816
4.812
4.811
4.817
4.821
4.820
4.819
4.817
4.818
4.815
4.814
4.818
4.821
4.817
4.816
4.815
4.816
4.810
4.814
4.820
4.824
4.831
4.836
4.839
4.835
4.832
4.832
4.836
4.832
4.834
4.832
4.828
4.829
4.826
4.824
4.826
4.830
4.825
4.824
4.823
4.822
4.823
4.824
4.823
4.818
4.821
4.819
4.818
4.816
4.815
4.810
4.806
4.810
4.815
4.819
4.825
4.830
4.831
4.829
4.826
4.821
4.823
4.824
4.825
4.819
4.820
4.824
4.820
4.825
4.825
4.827
4.826
4.825
4.823
4.825
4.826
4.824
4.818
4.816
4.814
4.811
4.814
4.813
4.812
4.810
4.809
4.808
4.812
4.814
4.810
4.814
4.818
4.821
4.825
4.830
4.834
4.840
4.845
4.849
4.848
4.851
4.847
4.843
4.844
4.843
4.845
4.843
4.840
4.840
4.842
4.843
4.842
4.841
4.836
4.833
4.839
4.836
4.832
4.836
4.840
4.841
4.845
4.843
4.840
4.840
4.844
4.843
4.842
4.836
4.834
4.840
4.837
4.836
4.836
4.836
4.834
4.833
4.837
4.843
4.848
4.852
4.858
4.862
4.867
4.873
4.872
4.868
4.862
4.862
4.858
4.857
4.859
4.855
4.856
4.862
4.858
4.852
4.856
4.854
4.853
4.851
4.851
4.851
4.850
4.849
4.851
4.855
4.851
4.851
4.847
4.844
4.842
4.838
4.836
4.833
4.831
4.829
4.826
4.822
4.820
4.822
4.826
4.832
4.836
4.840
4.840
4.840
4.837
4.836
4.831
4.829
4.829
4.832
4.834
4.830
4.828
4.832
4.829
4.833
4.832
4.830
4.828
4.830
4.837
4.836
4.834
4.833
4.832
4.830
4.829
4.827
4.826
4.827
4.831
4.827
4.826
4.829
4.828
4.824
