2.989
3.326
3.502
3.626
3.719
3.790
3.844
3.866
3.925
3.935
3.956
3.995
4.030
4.063
4.092
4.126
4.075
4.047
4.066
4.081
4.102
4.112
4.123
4.146
4.150
4.170
4.173
4.185
4.188
4.206
4.219
4.215
4.227
4.241
4.253
4.250
4.258
4.269
4.282
4.289
4.282
4.283
4.300
4.303
4.320
4.320
4.334
4.322
4.322
4.336
4.342
4.341
4.359
4.363
4.364
4.374
4.381
4.363
4.365
4.366
4.380
4.385
4.384
4.391
4.401
4.402
4.409
4.414
4.411
4.424
4.437
4.438
4.445
4.434
4.418
4.416
4.425
4.437
4.430
4.439
4.445
4.439
4.443
4.445
4.457
4.459
4.461
4.467
4.472
4.470
4.473
4.480
4.468
4.479
4.488
4.494
4.496
4.497
4.506
4.505
4.514
4.507
4.512
4.511
4.507
4.515
4.497
4.495
4.489
4.495
4.493
4.499
4.496
4.500
4.512
4.511
4.510
4.523
4.511
4.506
4.513
4.506
4.515
4.521
4.516
4.521
4.532
4.526
4.537
4.540
4.535
4.530
4.540
4.539
4.553
4.548
4.556
4.552
4.558
4.552
4.543
4.556
4.551
4.551
4.550
4.559
4.555
4.557
4.558
4.564
4.561
4.576
4.573
4.579
4.578
4.585
4.583
4.580
4.582
4.581
4.587
4.582
4.591
4.594
4.594
4.599
4.599
4.611
4.603
4.601
4.610
4.594
4.606
4.604
4.598
4.604
4.602
4.603
4.597
4.593
4.609
4.605
4.600
4.619
4.619
4.618
4.621
4.626
4.618
4.621
4.639
4.626
4.625
4.640
4.641
4.639
4.637
4.638
4.628
4.619
4.609
4.599
4.601
4.598
4.594
4.608
4.606
4.605
4.602
4.605
4.603
4.605
4.600
4.617
4.613
4.610
4.607
4.621
4.624
4.630
4.626
4.620
4.632
4.634
4.627
4.623
4.617
4.617
4.610
4.610
4.617
4.616
4.614
4.605
4.614
4.617
4.609
4.606
4.608
4.609
4.616
4.618
4.608
4.608
4.622
4.627
4.627
4.631
4.623
4.619
4.638
4.637
4.633
4.633
4.622
4.631
4.629
4.632
4.637
4.629
4.626
4.637
4.645
4.637
4.637
4.639
4.634
4.640
4.657
4.658
4.655
4.648
4.647
4.651
4.654
4.661
4.648
4.645
4.640
4.635
4.647
4.656
4.654
4.652
4.646
4.637
4.637
4.651
4.655
4.660
4.655
4.650
4.648
4.650
4.650
4.665
4.671
4.670
4.669
4.663
4.651
4.647
4.658
4.673
4.681
4.672
4.667
4.672
4.667
4.666
4.665
4.676
4.690
4.694
4.685
4.689
4.676
4.677
4.678
4.679
4.686
4.690
4.686
4.687
4.690
4.691
4.685
4.685
4.680
4.690
4.689
4.681
4.673
4.664
4.660
4.657
4.659
4.673
4.678
4.682
4.678
4.670
4.672
4.667
4.657
4.650
4.663
4.673
4.673
4.665
4.667
4.671
4.664
4.661
4.661
4.653
4.660
4.673
4.686
4.686
4.687
4.684
4.683
4.676
4.678
4.673
4.666
4.663
4.674
4.684
4.681
4.686
4.691
4.690
4.686
4.682
4.671
4.666
4.660
4.666
4.678
4.685
4.688
4.685
4.680
4.683
4.687
4.680
4.684
4.675
4.673
4.673
4.674
4.686
4.698
4.710
4.705
4.705
4.706
4.698
4.697
4.690
4.691
4.685
4.689
4.681
4.684
4.695
4.702
4.702
4.697
4.696
4.696
4.694
4.701
4.697
4.693
4.687
4.689
4.696
4.691
4.696
4.705
4.716
4.721
4.722
4.723
4.721
4.717
4.720
4.724
4.719
4.717
4.707
4.705
4.710
4.710
4.704
4.713
4.724
4.735
4.731
4.729
4.731
4.727
4.727
4.717
4.712
4.715
4.710
4.710
4.711
4.706
4.699
4.709
4.713
4.716
4.717
4.718
4.722
4.721
4.715
4.709
4.707
4.704
4.708
4.698
4.688
4.694
4.692
4.694
4.704
4.714
4.724
4.717
4.716
4.712
4.719
4.714
4.711
4.714
4.724
4.717
4.712
4.717
4.715
4.718
4.713
4.704
4.695
4.704
4.714
4.723
4.725
4.725
4.725
4.730
4.729
4.726
4.723
4.728
4.721
4.718
4.718
4.719
4.723
4.733
4.734
4.728
4.724
4.714
4.708
4.717
4.727
4.736
4.744
4.737
4.744
4.742
4.739
4.746
4.746
4.745
4.747
4.750
4.747
4.747
4.745
4.743
4.742
4.734
4.736
4.728
4.736
4.736
4.731
4.732
4.740
4.749
4.758
4.763
4.765
4.767
4.761
4.756
4.754
4.749
4.750
4.742
4.753
4.741
4.746
4.746
4.744
4.742
4.734
4.727
4.722
4.717
4.721
4.727
4.736
4.744
4.752
4.757
4.758
4.758
4.759
4.754
4.747
4.746
4.745
4.750
4.745
4.745
4.744
4.742
4.740
4.741
4.738
4.745
4.742
4.746
4.740
4.742
4.740
4.742
4.738
4.741
4.745
4.752
4.760
4.769
4.773
4.774
4.773
4.771
4.773
4.773
4.775
4.779
4.776
4.772
4.775
4.771
4.774
4.771
4.772
4.770
4.772
4.770
4.766
4.766
4.768
4.775
4.772
4.765
4.764
4.762
4.768
4.763
4.763
4.770
4.778
4.786
4.793
4.797
4.799
4.791
4.792
4.784
4.776
4.776
4.779
4.779
4.783
4.782
4.780
4.781
4.776
4.772
4.768
4.764
4.759
4.755
4.751
4.747
4.742
4.738
4.734
4.735
4.742
4.749
4.756
4.764
4.766
4.763
4.763
4.765
4.771
4.773
4.774
4.773
4.771
4.766
4.762
4.765
4.761
4.756
4.750
4.745
4.742
4.735
4.730
4.725
4.726
4.733
4.738
4.736
4.735
4.732
4.734
4.740
4.736
4.734
4.736
4.735
4.739
4.746
4.753
4.760
4.767
4.766
4.762
4.761
4.755
4.751
4.751
4.741
4.738
4.740
4.751
4.757
4.758
4.754
4.751
4.750
4.751
4.748
4.744
4.744
4.744
4.745
4.747
4.741
4.740
4.738
4.737
4.739
4.739
4.744
4.744
4.743
4.740
4.736
4.738
4.743
4.740
4.742
4.748
4.755
4.762
4.768
4.772
4.766
4.761
4.756
4.761
4.762
4.757
4.757
4.756
4.758
4.756
4.752
4.749
4.748
4.746
4.743
4.740
4.735
4.730
4.736
4.740
4.743
4.742
4.741
4.742
4.738
4.736
4.738
4.737
4.738
4.739
4.735
4.730
4.722
4.725
4.727
4.729
4.726
4.725
4.732
4.738
4.744
4.750
4.756
4.762
4.768
4.774
4.776
4.778
4.777
4.778
4.777
4.777
4.779
4.780
4.778
4.776
4.776
4.774
4.773
4.767
4.762
4.766
4.763
4.761
4.758
4.753
4.753
4.752
4.754
4.752
4.750
4.745
4.746
4.742
4.736
4.731
4.729
4.729
4.732
4.738
4.742
4.741
4.741
4.740
4.739
4.745
4.742
4.740
4.738
4.738
4.736
4.739
4.745
4.751
4.756
4.762
4.768
4.773
4.777
4.772
4.767
4.773
4.771
4.770
4.768
4.772
4.773
4.771
4.771
4.768
4.765
4.763
4.768
4.766
4.761
4.768
4.767
4.772
4.777
4.776
4.778
4.771
4.763
4.761
4.761
4.761
4.763
4.764
4.767
4.763
4.759
4.755
4.754
4.759
4.759
4.753
4.747
4.745
4.740
4.739
4.738
4.739
4.739
4.733
4.733
4.732
4.724
4.722
4.727
4.733
4.740
4.744
4.749
4.754
4.760
4.765
4.770
4.775
4.781
4.786
4.792
4.795
4.794
4.795
4.790
4.787
4.789
4.789
4.787
4.785
4.783
4.782
4.786
4.788
4.783
4.782
4.778
4.771
4.775
4.774
4.777
4.778
4.783
4.785
4.784
4.783
4.778
4.776
4.772
4.766
4.767
4.762
4.759
4.759
4.757
4.760
4.763
4.759
4.766
4.764
4.763
4.759
4.759
4.758
4.761
4.762
4.766
4.769
4.769
4.772
4.767
4.761
4.756
4.754
4.751
4.751
4.750
4.747
4.748
4.749
4.750
4.752
4.757
4.762
4.767
4.772
4.777
4.781
4.786
4.791
4.796
4.800
4.797
4.795
4.797
4.804
4.800
4.800
4.799
4.796
4.794
4.797
4.799
4.799
4.805
4.811
4.807
4.803
4.807
4.799
4.795
4.792
4.792
4.789
4.792
4.785
4.790
4.790
4.793
4.794
4.794
4.794
4.795
4.795
4.794
4.790
