2.988
3.332
3.512
3.626
3.706
3.773
3.811
3.883
3.890
3.923
3.961
4.009
4.047
4.080
4.048
4.008
4.029
4.047
4.063
4.077
4.098
4.107
4.125
4.137
4.158
4.155
4.175
4.173
4.192
4.204
4.214
4.215
4.232
4.240
4.248
4.245
4.253
4.262
4.277
4.284
4.294
4.282
4.290
4.301
4.305
4.319
4.324
4.323
4.337
4.347
4.321
4.327
4.341
4.351
4.354
4.359
4.364
4.375
4.370
4.380
4.390
4.398
4.399
4.402
4.387
4.380
4.385
4.398
4.397
4.411
4.407
4.402
4.409
4.418
4.426
4.429
4.436
4.436
4.435
4.436
4.441
4.445
4.453
4.460
4.461
4.469
4.471
4.482
4.475
4.481
4.477
4.483
4.469
4.451
4.458
4.467
4.469
4.469
4.469
4.467
4.473
4.485
4.475
4.473
4.471
4.482
4.481
4.484
4.485
4.496
4.494
4.496
4.509
4.498
4.499
4.504
4.519
4.512
4.521
4.525
4.520
4.512
4.523
4.513
4.515
4.518
4.521
4.528
4.523
4.533
4.531
4.542
4.541
4.554
4.543
4.551
4.540
4.548
4.549
4.560
4.551
4.567
4.566
4.566
4.569
4.563
4.575
4.575
4.568
4.564
4.577
4.574
4.569
4.564
4.558
4.573
4.568
4.574
4.583
4.582
4.587
4.591
4.586
4.597
4.606
4.588
4.604
4.607
4.601
4.609
4.607
4.606
4.599
4.588
4.577
4.566
4.559
4.574
4.573
4.573
4.576
4.570
4.571
4.569
4.585
4.574
4.576
4.581
4.599
4.597
4.590
4.591
4.600
4.597
4.591
4.594
4.585
4.575
4.577
4.585
4.582
4.578
4.576
4.579
4.576
4.572
4.572
4.585
4.581
4.579
4.575
4.586
4.596
4.599
4.590
4.588
4.595
4.608
4.600
4.593
4.589
4.600
4.610
4.603
4.599
4.593
4.601
4.610
4.609
4.610
4.605
4.608
4.616
4.623
4.621
4.623
4.617
4.618
4.622
4.616
4.612
4.614
4.609
4.612
4.623
4.615
4.614
4.606
4.614
4.612
4.630
4.627
4.623
4.630
4.626
4.625
4.625
4.638
4.635
4.624
4.625
4.631
4.622
4.631
4.647
4.647
4.651
4.642
4.648
4.645
4.645
4.648
4.661
4.656
4.656
4.661
4.655
4.649
4.641
4.658
4.668
4.667
4.658
4.651
4.659
4.658
4.654
4.644
4.636
4.635
4.633
4.630
4.627
4.636
4.640
4.649
4.637
4.630
4.632
4.626
4.624
4.622
4.628
4.641
4.648
4.639
4.642
4.636
4.635
4.640
4.641
4.640
4.639
4.654
4.652
4.649
4.650
4.648
4.634
4.636
4.638
4.643
4.641
4.656
4.650
4.646
4.639
4.637
4.640
4.641
4.638
4.636
4.640
4.648
4.660
4.662
4.664
4.658
4.659
4.656
4.655
4.658
4.665
4.655
4.652
4.659
4.669
4.673
4.672
4.676
4.670
4.669
4.660
4.648
4.650
4.649
4.655
4.659
4.672
4.685
4.680
4.676
4.680
4.673
4.675
4.681
4.679
4.681
4.674
4.671
4.672
4.675
4.686
4.698
4.704
4.696
4.697
4.691
4.688
4.683
4.682
4.686
4.683
4.680
4.687
4.681
4.687
4.699
4.695
4.685
4.679
4.678
4.673
4.677
4.671
4.670
4.668
4.667
4.666
4.664
4.675
4.687
4.687
4.674
4.671
4.675
4.671
4.667
4.678
4.679
4.673
4.670
4.666
4.675
4.674
4.668
4.674
4.685
4.696
4.691
4.689
4.688
4.696
4.692
4.684
4.680
4.679
4.678
4.675
4.683
4.692
4.689
4.682
4.679
4.683
4.690
4.701
4.712
4.707
4.699
4.705
4.702
4.706
4.707
4.704
4.700
4.697
4.700
4.698
4.695
4.701
4.700
4.704
4.701
4.704
4.700
4.710
4.720
4.731
4.729
4.738
4.731
4.727
4.720
4.714
4.715
4.714
4.721
4.723
4.716
4.711
4.709
4.712
4.701
4.699
4.692
4.702
4.712
4.721
4.721
4.723
4.721
4.723
4.721
4.714
4.711
4.710
4.711
4.711
4.710
4.703
4.703
4.701
4.710
4.705
4.710
4.701
4.703
4.695
4.703
4.713
4.722
4.731
4.741
4.738
4.735
4.734
4.736
4.734
4.730
4.733
4.733
4.729
4.731
4.739
4.738
4.737
4.736
4.735
4.727
4.722
4.721
4.728
4.722
4.723
4.728
4.734
4.739
4.744
4.747
4.756
4.760
4.754
4.758
4.756
4.749
4.745
4.745
4.745
4.745
4.747
4.747
4.746
4.746
4.749
4.748
4.745
4.740
4.732
4.739
4.741
4.744
4.738
4.740
4.731
4.730
4.730
4.728
4.724
4.734
4.733
4.738
4.733
4.729
4.730
4.727
4.723
4.729
4.725
4.723
4.725
4.725
4.723
4.724
4.717
4.720
4.719
4.722
4.716
4.710
4.705
4.699
4.697
4.706
4.714
4.722
4.730
4.738
4.740
4.736
4.726
4.723
4.723
4.718
4.720
4.713
4.713
4.725
4.728
4.719
4.710
4.707
4.712
4.713
4.707
4.701
4.700
4.705
4.704
4.699
4.699
4.699
4.703
4.704
4.699
4.694
4.699
4.708
4.709
4.717
4.725
4.732
4.740
4.746
4.744
4.743
4.742
4.743
4.737
4.743
4.738
4.738
4.740
4.733
4.727
4.720
4.714
4.716
4.711
4.706
4.708
4.711
4.712
4.708
4.710
4.699
4.696
4.702
4.699
4.701
4.698
4.694
4.695
4.691
4.692
4.696
4.704
4.710
4.718
4.725
4.732
4.739
4.739
4.737
4.735
4.734
4.733
4.733
4.741
4.745
4.740
4.742
4.747
4.742
4.745
4.746
4.740
4.741
4.742
4.735
4.731
4.730
4.726
4.721
4.720
4.712
4.713
4.706
4.709
4.711
4.713
4.710
4.713
4.716
4.715
4.711
4.705
4.698
4.698
4.698
4.704
4.710
4.717
4.724
4.730
4.737
4.744
4.746
4.745
4.746
4.745
4.740
4.737
4.735
4.736
4.742
4.735
4.734
4.731
4.728
4.727
4.728
4.725
4.731
4.733
4.732
4.736
4.737
4.736
4.734
4.730
4.727
4.727
4.734
4.729
4.724
4.725
4.724
4.721
4.724
4.728
4.730
4.727
4.719
4.722
4.715
4.715
4.710
4.712
4.706
4.703
4.709
4.715
4.721
4.727
4.733
4.740
4.746
4.752
4.758
4.756
4.761
4.761
4.762
4.762
4.762
4.756
4.757
4.755
4.753
4.750
4.745
4.751
4.743
4.741
4.735
4.738
4.737
4.741
4.739
4.744
4.746
4.748
4.741
4.734
4.735
4.731
4.729
4.732
4.730
4.739
4.738
4.741
4.746
4.738
4.735
4.733
4.725
4.718
4.718
4.720
4.721
4.723
4.726
4.723
4.721
4.718
4.719
4.716
4.721
4.717
4.720
4.726
4.732
4.737
4.743
4.749
4.755
4.760
4.766
4.772
4.772
4.772
4.768
4.768
4.774
4.775
4.768
4.765
4.770
4.765
4.766
4.773
4.779
4.773
4.771
4.770
4.763
4.759
4.756
4.758
4.760
4.762
4.758
4.755
4.755
4.755
4.752
4.749
4.746
4.744
4.744
4.743
4.745
4.748
4.756
4.759
4.762
4.759
4.759
4.753
4.751
4.755
4.755
4.751
4.746
4.741
4.739
4.742
4.741
4.743
4.751
4.754
4.751
4.750
4.744
4.746
4.745
4.746
4.745
4.746
4.739
4.744
4.748
4.748
4.753
4.758
4.764
4.769
4.774
4.780
4.785
4.790
4.796
4.801
4.806
4.802
4.800
4.802
4.797
4.798
4.805
4.802
4.799
4.803
4.801
4.801
4.800
4.799
4.800
4.796
4.791
4.786
4.780
4.775
4.770
4.774
4.773
4.769
4.771
4.773
4.780
4.787
4.788
4.783
4.777
4.772
4.771
4.775
4.776
4.784
4.780
4.774
4.766
4.765
4.765
4.766
4.765
4.769
4.763
4.760
4.756
4.760
4.759
4.755
4.751
4.746
4.742
4.738
4.733
4.735
4.741
4.740
4.736
4.737
4.732
4.725
4.719
4.715
4.720
4.725
4.729
4.734
4.739
4.744
4.749
4.754
4.759
4.764
4.769
4.774
4.779
4.783
4.784
4.787
4.790
4.789
4.784
4.784
4.777
4.778
4.779
4.782
4.778
4.774
4.776
4.780
4.779
4.777
4.779
4.775
4.770
4.767
4.764
4.768
4.770
4.767
4.764
4.765
4.768
