2.995
3.334
3.509
3.620
3.704
3.763
3.845
3.871
3.938
3.913
3.959
4.000
4.038
4.072
4.101
4.072
4.027
4.048
4.064
4.078
4.101
4.112
4.119
4.140
4.140
4.165
4.182
4.180
4.194
4.199
4.208
4.220
4.234
4.233
4.241
4.253
4.266
4.274
4.269
4.274
4.287
4.296
4.304
4.308
4.301
4.307
4.320
4.328
4.327
4.338
4.351
4.348
4.357
4.368
4.352
4.354
4.360
4.364
4.374
4.375
4.378
4.389
4.396
4.392
4.400
4.410
4.419
4.421
4.434
4.418
4.402
4.409
4.408
4.421
4.420
4.424
4.425
4.433
4.430
4.439
4.441
4.454
4.449
4.456
4.464
4.454
4.460
4.464
4.464
4.474
4.477
4.481
4.493
4.491
4.501
4.499
4.496
4.495
4.491
4.497
4.484
4.477
4.472
4.483
4.488
4.489
4.490
4.486
4.492
4.497
4.513
4.498
4.498
4.494
4.492
4.501
4.510
4.501
4.504
4.516
4.514
4.522
4.532
4.521
4.516
4.529
4.527
4.536
4.540
4.544
4.548
4.537
4.533
4.544
4.536
4.532
4.533
4.544
4.541
4.545
4.547
4.552
4.552
4.561
4.560
4.568
4.558
4.571
4.555
4.567
4.569
4.578
4.573
4.578
4.584
4.582
4.592
4.584
4.594
4.597
4.591
4.583
4.580
4.594
4.592
4.588
4.589
4.578
4.594
4.592
4.583
4.599
4.599
4.601
4.607
4.602
4.602
4.618
4.614
4.618
4.616
4.617
4.622
4.624
4.627
4.624
4.621
4.614
4.604
4.594
4.583
4.585
4.595
4.589
4.581
4.599
4.598
4.585
4.586
4.597
4.597
4.594
4.594
4.609
4.602
4.606
4.605
4.619
4.620
4.608
4.614
4.621
4.615
4.602
4.598
4.608
4.593
4.594
4.592
4.599
4.595
4.594
4.589
4.603
4.598
4.592
4.591
4.594
4.607
4.607
4.601
4.610
4.606
4.615
4.614
4.617
4.614
4.617
4.614
4.624
4.616
4.612
4.608
4.611
4.628
4.621
4.623
4.621
4.614
4.619
4.638
4.636
4.640
4.634
4.633
4.629
4.642
4.647
4.651
4.643
4.632
4.627
4.641
4.637
4.635
4.633
4.630
4.630
4.636
4.636
4.641
4.639
4.635
4.635
4.630
4.643
4.654
4.654
4.652
4.652
4.645
4.643
4.643
4.654
4.663
4.658
4.650
4.657
4.653
4.645
4.654
4.670
4.674
4.680
4.673
4.672
4.667
4.663
4.659
4.674
4.687
4.682
4.676
4.669
4.667
4.661
4.669
4.672
4.684
4.685
4.682
4.675
4.666
4.657
4.648
4.662
4.661
4.663
4.665
4.659
4.658
4.645
4.654
4.651
4.658
4.658
4.649
4.656
4.652
4.648
4.645
4.645
4.640
4.652
4.666
4.669
4.665
4.668
4.670
4.665
4.664
4.663
4.661
4.658
4.663
4.674
4.667
4.667
4.670
4.668
4.662
4.664
4.666
4.664
4.654
4.665
4.664
4.667
4.668
4.662
4.666
4.668
4.667
4.666
4.660
4.661
4.658
4.671
4.682
4.690
4.694
4.686
4.686
4.684
4.683
4.681
4.685
4.675
4.673
4.668
4.679
4.691
4.701
4.692
4.688
4.681
4.679
4.681
4.677
4.678
4.670
4.677
4.674
4.682
4.688
4.700
4.706
4.705
4.703
4.699
4.697
4.706
4.706
4.705
4.704
4.700
4.696
4.692
4.687
4.697
4.709
4.717
4.714
4.713
4.710
4.709
4.714
4.706
4.707
4.707
4.699
4.689
4.693
4.697
4.694
4.697
4.700
4.699
4.696
4.706
4.708
4.701
4.704
4.696
4.690
4.688
4.685
4.687
4.687
4.679
4.690
4.700
4.709
4.699
4.694
4.693
4.702
4.698
4.696
4.700
4.702
4.699
4.700
4.697
4.697
4.697
4.700
4.693
4.695
4.702
4.713
4.714
4.716
4.710
4.710
4.712
4.713
4.706
4.702
4.699
4.702
4.705
4.704
4.714
4.715
4.713
4.709
4.709
4.704
4.710
4.719
4.729
4.728
4.725
4.731
4.726
4.727
4.726
4.730
4.730
4.728
4.726
4.731
4.723
4.723
4.730
4.727
4.725
4.719
4.718
4.716
4.720
4.729
4.738
4.747
4.748
4.744
4.746
4.741
4.744
4.745
4.741
4.732
4.733
4.734
4.734
4.737
4.725
4.727
4.727
4.721
4.722
4.717
4.713
4.720
4.729
4.736
4.745
4.744
4.745
4.743
4.737
4.738
4.736
4.732
4.731
4.731
4.730
4.731
4.725
4.726
4.724
4.729
4.730
4.727
4.723
4.723
4.723
4.721
4.720
4.729
4.736
4.745
4.753
4.762
4.758
4.755
4.757
4.757
4.756
4.754
4.762
4.759
4.758
4.759
4.758
4.757
4.756
4.754
4.755
4.750
4.745
4.745
4.746
4.750
4.749
4.753
4.751
4.757
4.758
4.754
4.755
4.763
4.771
4.776
4.777
4.779
4.778
4.775
4.769
4.767
4.766
4.767
4.761
4.765
4.765
4.769
4.772
4.771
4.768
4.768
4.767
4.763
4.758
4.754
4.749
4.745
4.740
4.736
4.733
4.741
4.749
4.757
4.754
4.749
4.755
4.754
4.755
4.751
4.753
4.756
4.752
4.751
4.751
4.750
4.745
4.745
4.744
4.746
4.740
4.735
4.729
4.724
4.718
4.716
4.720
4.720
4.721
4.719
4.715
4.718
4.719
4.726
4.733
4.741
4.748
4.754
4.756
4.755
4.748
4.743
4.740
4.740
4.739
4.737
4.729
4.738
4.743
4.748
4.744
4.735
4.732
4.730
4.728
4.730
4.729
4.727
4.732
4.724
4.725
4.723
4.717
4.722
4.725
4.733
4.726
4.719
4.720
4.723
4.732
4.737
4.736
4.740
4.747
4.754
4.761
4.768
4.769
4.764
4.761
4.755
4.749
4.743
4.739
4.744
4.747
4.746
4.740
4.731
4.729
4.725
4.728
4.725
4.722
4.727
4.727
4.727
4.726
4.725
4.722
4.720
4.724
4.719
4.725
4.721
4.719
4.719
4.714
4.718
4.715
4.709
4.715
4.722
4.728
4.735
4.741
4.748
4.754
4.761
4.760
4.761
4.761
4.761
4.757
4.758
4.764
4.771
4.768
4.767
4.767
4.758
4.760
4.762
4.760
4.760
4.755
4.747
4.739
4.739
4.738
4.736
4.734
4.733
4.735
4.734
4.732
4.729
4.724
4.728
4.727
4.722
4.723
4.721
4.723
4.727
4.723
4.725
4.723
4.720
4.724
4.719
4.726
4.732
4.738
4.744
4.750
4.756
4.762
4.762
4.759
4.759
4.757
4.760
4.752
4.754
4.756
4.762
4.760
4.756
4.754
4.749
4.748
4.748
4.745
4.749
4.751
4.758
4.760
4.762
4.764
4.763
4.759
4.752
4.752
4.748
4.746
4.749
4.746
4.743
4.742
4.744
4.747
4.744
4.746
4.744
4.744
4.739
4.738
4.732
4.725
4.719
4.716
4.717
4.716
4.713
4.718
4.724
4.730
4.735
4.741
4.747
4.752
4.758
4.764
4.769
4.775
4.781
4.785
4.782
4.780
4.780
4.775
4.776
4.777
4.773
4.766
4.765
4.765
4.771
4.771
4.766
4.761
4.763
4.762
4.761
4.764
4.762
4.763
4.763
4.764
4.765
4.760
4.762
4.759
4.756
4.754
4.753
4.747
4.753
4.754
4.752
4.745
4.748
4.745
4.742
4.738
4.741
4.740
4.744
4.747
4.748
4.749
4.752
4.755
4.754
4.748
4.748
4.746
4.739
4.733
4.731
4.730
4.736
4.741
4.746
4.751
4.757
4.762
4.767
4.773
4.778
4.783
4.788
4.789
4.789
4.784
4.787
4.788
4.782
4.782
4.783
4.790
4.787
4.790
4.786
4.791
4.790
4.788
4.787
4.794
4.788
4.786
4.782
4.779
4.776
4.773
4.771
4.770
4.774
4.774
4.780
4.776
4.775
4.778
4.771
4.770
4.773
4.774
4.770
4.775
4.778
4.779
4.776
4.776
4.773
4.773
4.770
4.773
4.771
4.766
4.768
4.770
4.767
4.766
4.768
4.764
4.761
4.766
4.770
4.770
4.774
4.768
4.761
4.760
4.765
4.763
4.765
4.771
4.766
4.767
4.770
4.765
4.762
4.767
4.772
4.777
4.781
4.786
4.791
4.796
4.801
4.806
4.811
4.816
4.821
4.825
4.822
4.827
4.824
4.822
4.823
4.825
4.821
4.816
4.814
4.813
4.811
4.805
4.803
4.802
