2.974
3.313
3.439
3.544
3.693
3.680
3.688
3.742
3.773
3.811
3.841
3.870
3.907
3.922
3.953
3.999
3.984
4.001
4.023
4.058
4.046
4.064
4.061
4.091
4.110
4.119
4.146
4.157
4.167
4.126
4.143
4.126
4.142
4.161
4.175
4.199
4.183
4.174
4.205
4.225
4.218
4.240
4.240
4.259
4.249
4.252
4.268
4.273
4.271
4.286
4.288
4.314
4.306
4.285
4.272
4.260
4.291
4.304
4.272
4.235
4.267
4.262
4.280
4.283
4.285
4.297
4.306
4.304
4.311
4.303
4.302
4.296
4.321
4.310
4.327
4.326
4.335
4.357
4.350
4.342
4.360
4.347
4.354
4.380
4.347
4.338
4.322
4.317
4.350
4.337
4.336
4.332
4.342
4.340
4.324
4.349
4.366
4.352
4.344
4.352
4.373
4.362
4.365
4.362
4.383
4.416
4.376
4.389
4.380
4.397
4.403
4.402
4.372
4.355
4.393
4.399
4.375
4.378
4.358
4.372
4.408
4.415
4.396
4.391
4.394
4.391
4.403
4.437
4.429
4.444
4.423
4.409
4.412
4.409
4.442
4.419
4.417
4.413
4.398
4.405
4.394
4.423
4.453
4.454
4.452
4.462
4.447
4.457
4.460
4.432
4.438
4.467
4.478
4.487
4.476
4.448
4.450
4.458
4.453
4.451
4.464
4.477
4.476
4.445
4.447
4.426
4.405
4.398
4.377
4.401
4.426
4.452
4.475
4.460
4.460
4.443
4.422
4.436
4.432
4.419
4.408
4.393
4.418
4.441
4.463
4.461
4.445
4.449
4.443
4.444
4.426
4.410
4.409
4.414
4.424
4.408
4.412
4.434
4.457
4.459
4.466
4.461
4.458
4.443
4.442
4.444
4.440
4.435
4.429
4.406
4.413
4.410
4.403
4.420
4.441
4.461
4.482
4.479
4.475
4.472
4.474
4.467
4.445
4.442
4.440
4.451
4.444
4.451
4.440
4.431
4.459
4.448
4.431
4.427
4.446
4.464
4.483
4.502
4.508
4.500
4.506
4.503
4.508
4.511
4.507
4.492
4.500
4.497
4.483
4.489
4.486
4.472
4.480
4.481
4.474
4.490
4.480
4.483
4.463
4.467
4.485
4.502
4.519
4.508
4.493
4.501
4.503
4.499
4.478
4.471
4.464
4.464
4.463
4.472
4.464
4.461
4.462
4.450
4.445
4.447
4.439
4.442
4.446
4.438
4.426
4.421
4.435
4.450
4.465
4.481
4.496
4.512
4.527
4.534
4.521
4.518
4.529
4.517
4.521
4.525
4.513
4.510
4.501
4.501
4.504
4.503
4.490
4.491
4.495
4.506
4.506
4.502
4.523
4.519
4.525
4.516
4.506
4.506
4.518
4.518
4.506
4.499
4.483
4.492
4.479
4.474
4.487
4.501
4.514
4.504
4.513
4.505
4.500
4.496
4.504
4.510
4.516
4.516
4.512
4.510
4.505
4.492
4.486
4.470
4.462
4.454
4.451
4.454
4.466
4.473
4.469
4.464
4.470
4.461
4.460
4.462
4.454
4.451
4.444
4.450
4.457
4.456
4.474
4.486
4.477
4.473
4.485
4.478
4.463
4.455
4.466
4.463
4.475
4.487
4.499
4.511
4.523
4.535
4.538
4.525
4.521
4.523
4.516
4.506
4.496
4.498
4.494
4.488
4.491
4.501
4.488
4.487
4.480
4.494
4.500
4.499
4.497
4.502
4.518
4.522
4.508
4.494
4.492
4.480
4.473
4.474
4.474
4.470
4.466
4.463
4.463
4.457
4.464
4.451
4.436
4.436
4.456
4.455
4.457
4.461
4.460
4.466
4.469
4.466
4.460
4.460
4.450
4.441
4.451
4.449
4.441
4.445
4.449
4.459
4.469
4.480
4.490
4.500
4.510
4.521
4.531
4.541
4.551
4.562
4.569
4.557
4.546
4.540
4.531
4.550
4.541
4.540
4.539
4.535
4.538
4.524
4.540
4.540
4.539
4.542
4.544
4.534
4.532
4.525
4.511
4.515
4.511
4.506
4.515
4.526
4.517
4.522
4.521
4.516
4.508
4.501
4.499
4.494
4.501
4.496
4.491
4.496
4.499
4.510
4.524
4.508
4.501
4.513
4.514
4.513
4.507
4.501
4.516
4.515
4.510
4.497
4.494
4.501
4.488
4.486
4.488
4.493
4.501
4.489
4.478
4.475
4.483
4.480
4.486
4.486
4.500
4.495
4.488
4.477
4.485
4.490
4.500
4.491
4.478
4.470
4.475
4.481
4.475
4.483
4.491
4.500
4.508
4.517
4.525
4.534
4.542
4.549
4.559
4.548
4.534
4.524
4.536
4.539
4.534
4.534
4.540
4.531
4.530
4.512
4.509
4.520
4.514
4.507
4.508
4.520
4.532
4.544
4.537
4.524
4.528
4.523
4.520
4.523
4.521
4.508
4.511
4.526
4.530
4.521
4.528
4.521
4.517
4.529
4.516
4.523
4.518
4.523
4.521
4.508
4.500
4.497
4.497
4.503
4.485
4.492
4.490
4.498
4.488
4.494
4.480
4.480
4.477
4.475
4.470
4.479
4.465
4.467
4.462
4.466
4.472
4.474
4.472
4.475
4.471
4.460
4.463
4.464
4.459
4.472
4.458
4.460
4.457
4.452
4.463
4.467
4.460
4.461
4.460
4.448
4.458
4.462
4.457
4.459
4.462
4.454
4.455
4.466
4.471
4.483
4.478
4.489
4.499
4.509
4.507
4.513
4.512
4.504
4.503
4.501
4.510
4.492
4.493
4.494
4.492
4.482
4.471
4.469
4.473
4.478
4.481
4.481
4.471
4.470
4.473
4.483
4.472
4.463
4.465
4.472
4.479
4.486
4.492
4.499
4.506
4.513
4.520
4.527
4.533
4.540
4.547
4.554
4.561
4.567
4.574
4.573
4.569
4.575
4.578
4.576
4.561
4.562
4.561
4.561
4.571
4.574
4.573
4.577
4.591
4.575
4.567
4.563
4.556
4.551
4.551
4.549
4.554
4.551
4.554
4.545
4.558
4.548
4.541
4.541
4.540
4.536
4.535
4.533
4.535
4.539
4.546
4.534
4.533
4.543
4.551
4.561
4.571
4.571
4.565
4.560
4.553
4.550
4.550
4.551
4.559
4.564
4.567
4.574
4.562
4.554
4.542
4.539
4.535
4.528
4.522
4.523
4.516
4.514
4.517
4.520
4.525
4.534
4.543
4.552
4.561
4.562
4.552
4.542
4.532
4.523
4.513
4.519
4.521
4.515
4.514
4.517
4.522
4.525
4.527
4.522
4.521
4.521
4.519
4.522
4.516
4.510
4.504
4.498
4.492
4.485
4.489
4.481
4.472
4.472
4.467
4.464
4.470
4.463
4.459
4.470
4.470
4.477
4.476
4.482
4.472
4.475
4.481
4.478
4.477
4.476
4.488
4.486
4.491
4.503
4.498
4.495
4.496
4.487
4.484
4.489
4.495
4.483
4.475
4.466
4.464
4.457
4.461
4.470
4.477
4.469
4.462
4.454
4.446
4.440
4.442
4.429
4.440
4.433
4.443
4.435
4.437
4.435
4.440
4.444
4.441
4.446
4.447
4.451
4.450
4.449
4.454
4.453
4.446
4.444
4.442
4.447
4.438
4.437
4.435
4.433
4.432
4.433
4.443
4.452
4.459
4.453
4.445
4.452
4.447
4.450
4.446
4.444
4.445
4.440
4.431
4.432
4.423
4.423
4.420
4.417
4.417
4.421
4.431
4.424
4.419
4.426
4.425
4.420
4.422
4.427
4.432
4.437
4.443
4.448
4.453
4.458
4.463
4.468
4.473
4.478
4.483
4.489
4.494
4.499
4.504
4.509
4.514
4.519
4.524
4.530
4.535
4.540
4.545
4.550
4.555
4.560
4.566
4.570
4.575
4.581
4.586
4.591
4.596
4.601
4.606
4.611
4.617
4.622
4.627
4.632
4.637
4.640
4.634
4.630
4.623
4.623
4.617
4.614
4.610
4.610
4.605
4.603
4.593
4.583
4.593
4.587
4.592
4.584
4.581
4.581
4.586
4.582
4.585
4.582
4.583
4.586
4.584
4.581
4.585
4.589
4.580
4.576
4.576
4.576
4.573
4.575
4.562
4.567
4.564
4.564
4.565
4.560
4.562
4.556
4.552
4.564
4.565
4.563
4.567
4.564
4.566
4.569
4.569
4.569
4.559
4.560
4.553
4.545
4.555
4.559
4.549
4.550
4.549
4.541
4.548
4.557
4.566
4.570
4.566
4.565
4.566
4.570
4.567
4.566
4.569
4.576
4.578
4.579
4.579
4.573
4.568
4.563
4.566
4.563
4.571
4.569
4.571
4.572
4.562
4.554
4.556
4.551
4.542
4.533
4.532
4.531
