2.993
3.321
3.496
3.632
3.708
3.778
3.813
3.885
3.871
3.923
3.971
4.004
4.048
4.078
4.026
4.013
4.030
4.049
4.068
4.082
4.091
4.114
4.122
4.137
4.142
4.165
4.177
4.176
4.188
4.206
4.201
4.219
4.231
4.237
4.234
4.244
4.260
4.266
4.280
4.287
4.275
4.279
4.292
4.295
4.306
4.317
4.321
4.333
4.341
4.318
4.325
4.338
4.345
4.349
4.354
4.365
4.371
4.371
4.380
4.383
4.390
4.397
4.400
4.376
4.381
4.384
4.392
4.395
4.407
4.399
4.405
4.404
4.422
4.423
4.426
4.432
4.436
4.437
4.436
4.440
4.445
4.454
4.459
4.468
4.461
4.470
4.469
4.475
4.468
4.471
4.468
4.450
4.448
4.457
4.464
4.462
4.463
4.472
4.477
4.474
4.469
4.467
4.462
4.472
4.477
4.479
4.482
4.485
4.492
4.503
4.500
4.487
4.502
4.504
4.507
4.514
4.513
4.515
4.514
4.514
4.512
4.509
4.511
4.520
4.523
4.510
4.525
4.523
4.537
4.529
4.544
4.534
4.544
4.535
4.541
4.541
4.551
4.543
4.563
4.559
4.566
4.561
4.569
4.567
4.565
4.559
4.560
4.570
4.562
4.564
4.555
4.570
4.563
4.559
4.576
4.576
4.574
4.580
4.581
4.586
4.600
4.591
4.596
4.598
4.598
4.603
4.602
4.601
4.601
4.590
4.579
4.568
4.556
4.569
4.562
4.562
4.574
4.564
4.564
4.570
4.576
4.571
4.567
4.585
4.587
4.591
4.580
4.594
4.595
4.585
4.587
4.590
4.577
4.570
4.576
4.581
4.575
4.571
4.578
4.571
4.564
4.565
4.578
4.580
4.568
4.572
4.579
4.588
4.596
4.585
4.578
4.591
4.600
4.598
4.597
4.580
4.598
4.601
4.592
4.593
4.581
4.601
4.602
4.600
4.603
4.598
4.604
4.619
4.619
4.620
4.618
4.610
4.614
4.619
4.610
4.603
4.603
4.600
4.619
4.618
4.608
4.603
4.602
4.603
4.622
4.621
4.620
4.623
4.620
4.617
4.619
4.637
4.634
4.619
4.619
4.623
4.621
4.627
4.642
4.643
4.642
4.637
4.637
4.641
4.636
4.648
4.652
4.646
4.649
4.655
4.647
4.636
4.643
4.660
4.661
4.660
4.655
4.651
4.651
4.650
4.649
4.642
4.632
4.623
4.625
4.622
4.629
4.632
4.647
4.644
4.632
4.628
4.622
4.615
4.617
4.623
4.635
4.642
4.637
4.635
4.631
4.628
4.633
4.636
4.631
4.638
4.653
4.648
4.647
4.644
4.641
4.632
4.630
4.631
4.633
4.643
4.655
4.646
4.637
4.630
4.630
4.630
4.631
4.627
4.630
4.639
4.653
4.657
4.658
4.652
4.652
4.648
4.649
4.651
4.654
4.654
4.652
4.654
4.666
4.666
4.665
4.670
4.664
4.664
4.664
4.651
4.639
4.646
4.644
4.657
4.670
4.681
4.673
4.671
4.673
4.666
4.676
4.672
4.672
4.672
4.668
4.663
4.671
4.675
4.688
4.698
4.700
4.691
4.686
4.688
4.678
4.676
4.677
4.681
4.673
4.678
4.680
4.681
4.693
4.695
4.690
4.681
4.674
4.669
4.669
4.666
4.666
4.662
4.662
4.665
4.661
4.673
4.680
4.681
4.673
4.662
4.671
4.668
4.664
4.671
4.670
4.665
4.663
4.665
4.666
4.665
4.664
4.676
4.687
4.699
4.686
4.684
4.687
4.688
4.685
4.678
4.675
4.668
4.671
4.672
4.682
4.684
4.677
4.674
4.675
4.686
4.697
4.708
4.702
4.695
4.699
4.698
4.700
4.699
4.703
4.696
4.689
4.691
4.696
4.691
4.691
4.697
4.695
4.701
4.700
4.700
4.711
4.721
4.726
4.727
4.727
4.728
4.719
4.719
4.708
4.707
4.714
4.717
4.716
4.710
4.704
4.705
4.698
4.695
4.690
4.696
4.706
4.716
4.714
4.718
4.714
4.713
4.716
4.711
4.705
4.704
4.701
4.707
4.706
4.703
4.694
4.696
4.702
4.703
4.702
4.698
4.699
4.693
4.703
4.713
4.722
4.732
4.733
4.732
4.731
4.730
4.732
4.729
4.732
4.727
4.723
4.724
4.730
4.730
4.734
4.732
4.730
4.729
4.718
4.713
4.717
4.719
4.717
4.721
4.726
4.730
4.736
4.744
4.753
4.758
4.754
4.753
4.751
4.748
4.738
4.737
4.742
4.741
4.744
4.741
4.742
4.741
4.742
4.738
4.740
4.731
4.727
4.735
4.736
4.740
4.734
4.734
4.731
4.732
4.729
4.724
4.725
4.726
4.729
4.729
4.728
4.723
4.720
4.716
4.720
4.718
4.716
4.720
4.719
4.717
4.718
4.710
4.711
4.712
4.721
4.716
4.713
4.706
4.700
4.696
4.704
4.712
4.720
4.728
4.736
4.737
4.734
4.727
4.717
4.714
4.717
4.711
4.708
4.714
4.724
4.723
4.718
4.708
4.704
4.703
4.704
4.703
4.699
4.696
4.698
4.697
4.690
4.695
4.696
4.698
4.696
4.688
4.692
4.703
4.706
4.714
4.722
4.729
4.737
4.739
4.737
4.736
4.735
4.735
4.735
4.737
4.732
4.732
4.736
4.735
4.728
4.721
4.715
4.708
4.709
4.701
4.707
4.705
4.709
4.704
4.706
4.699
4.690
4.690
4.696
4.692
4.689
4.688
4.686
4.684
4.692
4.699
4.706
4.714
4.721
4.728
4.731
4.735
4.730
4.729
4.732
4.727
4.727
4.737
4.738
4.735
4.735
4.738
4.734
4.741
4.739
4.739
4.740
4.736
4.729
4.727
4.722
4.721
4.718
4.712
4.712
4.704
4.701
4.701
4.703
4.709
4.705
4.709
4.710
4.712
4.710
4.703
4.697
4.693
4.699
4.706
4.713
4.720
4.727
4.734
4.740
4.744
4.739
4.737
4.739
4.738
4.736
4.731
4.733
4.735
4.736
4.727
4.724
4.722
4.722
4.722
4.722
4.730
4.729
4.724
4.729
4.731
4.729
4.725
4.723
4.722
4.721
4.731
4.728
4.719
4.718
4.722
4.717
4.722
4.723
4.725
4.720
4.715
4.713
4.709
4.710
4.700
4.706
4.700
4.705
4.712
4.718
4.724
4.731
4.737
4.743
4.750
4.756
4.752
4.755
4.754
4.752
4.759
4.754
4.755
4.754
4.751
4.743
4.744
4.742
4.747
4.743
4.734
4.731
4.733
4.735
4.739
4.738
4.741
4.739
4.738
4.738
4.732
4.724
4.727
4.724
4.725
4.733
4.737
4.734
4.739
4.737
4.735
4.728
4.725
4.723
4.715
4.714
4.712
4.717
4.721
4.719
4.713
4.712
4.712
4.710
4.712
4.713
4.719
4.725
4.731
4.737
4.742
4.748
4.754
4.760
4.766
4.767
4.766
4.764
4.761
4.766
4.775
4.770
4.764
4.762
4.764
4.763
4.767
4.771
4.771
4.766
4.764
4.767
4.761
4.753
4.749
4.750
4.755
4.751
4.754
4.750
4.751
4.747
4.744
4.742
4.737
4.737
4.737
4.737
4.745
4.750
4.757
4.752
4.756
4.753
4.749
4.746
4.751
4.749
4.744
4.744
4.739
4.734
4.735
4.736
4.744
4.751
4.750
4.747
4.744
4.739
4.737
4.741
4.737
4.740
4.742
4.737
4.740
4.744
4.750
4.755
4.761
4.766
4.771
4.777
4.782
4.788
4.793
4.799
4.803
4.800
4.793
4.793
4.794
4.795
4.796
4.797
4.795
4.799
4.797
4.794
4.795
4.792
4.794
4.793
4.788
4.786
4.780
4.775
4.770
4.767
4.763
4.762
4.767
4.774
4.781
4.785
4.781
4.776
4.776
4.770
4.767
4.772
4.779
4.776
4.772
4.767
4.760
4.760
4.760
4.758
4.758
4.758
4.755
4.753
4.753
4.753
4.751
4.752
4.748
4.744
4.739
4.735
4.730
4.737
4.733
4.734
4.727
4.728
4.724
4.720
4.715
4.720
4.725
4.730
4.735
4.740
4.745
4.750
4.755
4.760
4.765
4.770
4.775
4.780
4.783
4.782
4.783
4.782
4.779
4.779
4.777
4.774
4.773
4.776
4.776
4.771
4.771
4.776
4.774
4.774
4.770
4.769
4.769
4.767
4.758
4.759
4.761
4.760
4.759
4.760
4.759
4.758
4.756
4.752
4.754
4.752
4.749
4.746
4.748
4.751
4.747
4.747
4.751
4.743
4.739
4.737
4.745
4.740
4.740
4.742
4.748
4.747
4.749
