2.994
3.327
3.505
3.616
3.718
3.788
3.818
3.894
3.877
3.929
3.975
4.012
4.047
4.052
3.983
4.009
4.029
4.045
4.058
4.085
4.100
4.104
4.124
4.126
4.153
4.166
4.166
4.181
4.197
4.199
4.205
4.220
4.229
4.227
4.235
4.247
4.259
4.270
4.277
4.263
4.278
4.291
4.291
4.302
4.314
4.321
4.332
4.308
4.316
4.330
4.337
4.333
4.343
4.350
4.365
4.361
4.371
4.379
4.382
4.391
4.381
4.361
4.369
4.387
4.385
4.392
4.390
4.387
4.395
4.409
4.413
4.418
4.418
4.423
4.422
4.426
4.427
4.439
4.445
4.442
4.447
4.460
4.469
4.458
4.452
4.461
4.469
4.447
4.438
4.443
4.447
4.449
4.451
4.453
4.456
4.469
4.457
4.456
4.455
4.464
4.472
4.474
4.471
4.478
4.487
4.492
4.481
4.482
4.491
4.497
4.497
4.514
4.507
4.508
4.499
4.508
4.493
4.502
4.510
4.504
4.510
4.509
4.526
4.519
4.526
4.527
4.534
4.535
4.528
4.542
4.535
4.545
4.545
4.549
4.550
4.550
4.556
4.552
4.570
4.551
4.556
4.551
4.557
4.547
4.551
4.549
4.556
4.556
4.559
4.575
4.567
4.568
4.577
4.578
4.582
4.584
4.582
4.587
4.594
4.590
4.595
4.591
4.584
4.573
4.561
4.560
4.552
4.547
4.566
4.558
4.545
4.566
4.559
4.558
4.565
4.574
4.572
4.578
4.582
4.583
4.577
4.574
4.595
4.584
4.569
4.574
4.563
4.559
4.563
4.564
4.564
4.554
4.563
4.563
4.558
4.563
4.562
4.580
4.577
4.575
4.572
4.579
4.587
4.583
4.587
4.575
4.591
4.579
4.582
4.582
4.577
4.595
4.595
4.588
4.584
4.588
4.602
4.609
4.603
4.600
4.602
4.600
4.619
4.615
4.600
4.594
4.593
4.608
4.609
4.606
4.597
4.590
4.601
4.617
4.609
4.611
4.601
4.601
4.603
4.622
4.621
4.618
4.613
4.605
4.606
4.618
4.631
4.632
4.624
4.625
4.621
4.627
4.627
4.645
4.647
4.634
4.638
4.638
4.634
4.633
4.646
4.648
4.653
4.647
4.641
4.636
4.637
4.641
4.647
4.637
4.627
4.617
4.609
4.612
4.629
4.631
4.628
4.629
4.622
4.610
4.608
4.610
4.626
4.628
4.626
4.622
4.618
4.618
4.615
4.618
4.618
4.632
4.646
4.637
4.639
4.634
4.625
4.622
4.620
4.618
4.629
4.644
4.650
4.643
4.629
4.625
4.620
4.620
4.614
4.617
4.632
4.647
4.649
4.648
4.639
4.639
4.634
4.633
4.645
4.641
4.637
4.640
4.654
4.660
4.657
4.655
4.650
4.654
4.654
4.652
4.643
4.633
4.637
4.651
4.665
4.663
4.657
4.661
4.653
4.655
4.658
4.664
4.656
4.654
4.653
4.657
4.665
4.678
4.685
4.686
4.685
4.677
4.674
4.677
4.669
4.669
4.668
4.662
4.663
4.665
4.678
4.681
4.682
4.677
4.683
4.673
4.664
4.654
4.652
4.654
4.648
4.656
4.654
4.666
4.678
4.673
4.662
4.657
4.656
4.652
4.657
4.654
4.652
4.652
4.652
4.651
4.650
4.653
4.665
4.677
4.689
4.686
4.684
4.675
4.673
4.669
4.671
4.666
4.658
4.660
4.667
4.666
4.660
4.660
4.662
4.674
4.685
4.696
4.706
4.695
4.692
4.686
4.687
4.689
4.689
4.684
4.686
4.677
4.674
4.682
4.679
4.682
4.682
4.687
4.687
4.698
4.709
4.712
4.710
4.716
4.715
4.711
4.711
4.706
4.708
4.700
4.703
4.703
4.711
4.704
4.695
4.688
4.682
4.683
4.693
4.704
4.714
4.707
4.715
4.710
4.701
4.695
4.697
4.695
4.692
4.696
4.691
4.689
4.689
4.687
4.688
4.691
4.696
4.685
4.689
4.690
4.700
4.710
4.720
4.727
4.726
4.722
4.721
4.718
4.713
4.722
4.720
4.713
4.710
4.718
4.715
4.715
4.717
4.719
4.718
4.712
4.709
4.705
4.703
4.713
4.712
4.715
4.725
4.734
4.744
4.753
4.748
4.748
4.744
4.736
4.731
4.730
4.728
4.729
4.727
4.729
4.736
4.733
4.734
4.723
4.722
4.719
4.722
4.721
4.725
4.721
4.727
4.727
4.724
4.733
4.729
4.724
4.719
4.717
4.715
4.718
4.719
4.708
4.710
4.710
4.704
4.702
4.705
4.707
4.708
4.702
4.702
4.698
4.710
4.712
4.705
4.704
4.706
4.700
4.698
4.707
4.716
4.724
4.727
4.727
4.728
4.721
4.714
4.709
4.704
4.705
4.702
4.710
4.714
4.718
4.709
4.701
4.698
4.688
4.688
4.692
4.689
4.684
4.680
4.679
4.681
4.684
4.690
4.684
4.681
4.689
4.697
4.705
4.713
4.721
4.729
4.737
4.732
4.725
4.721
4.721
4.724
4.721
4.720
4.721
4.726
4.728
4.730
4.725
4.718
4.711
4.704
4.697
4.699
4.697
4.694
4.692
4.689
4.687
4.687
4.684
4.687
4.679
4.673
4.676
4.680
4.687
4.695
4.703
4.710
4.718
4.724
4.722
4.719
4.717
4.717
4.716
4.717
4.727
4.725
4.721
4.725
4.727
4.721
4.729
4.727
4.729
4.732
4.729
4.723
4.716
4.716
4.708
4.709
4.706
4.701
4.704
4.698
4.692
4.692
4.695
4.706
4.705
4.699
4.700
4.698
4.701
4.696
4.695
4.702
4.709
4.716
4.723
4.731
4.733
4.733
4.724
4.726
4.722
4.728
4.727
4.726
4.727
4.726
4.721
4.718
4.713
4.709
4.710
4.715
4.721
4.719
4.718
4.716
4.718
4.714
4.710
4.705
4.709
4.717
4.712
4.711
4.713
4.711
4.712
4.712
4.709
4.710
4.705
4.707
4.706
4.699
4.701
4.694
4.692
4.696
4.703
4.709
4.716
4.722
4.729
4.736
4.742
4.742
4.740
4.744
4.739
4.738
4.745
4.740
4.747
4.744
4.744
4.737
4.733
4.736
4.735
4.728
4.728
4.724
4.723
4.721
4.725
4.726
4.724
4.726
4.721
4.724
4.720
4.719
4.715
4.718
4.723
4.726
4.728
4.729
4.724
4.724
4.725
4.719
4.712
4.715
4.712
4.705
4.705
4.705
4.703
4.698
4.697
4.699
4.701
4.708
4.714
4.720
4.726
4.732
4.739
4.745
4.751
4.757
4.753
4.749
4.749
4.747
4.755
4.762
4.757
4.752
4.756
4.759
4.751
4.759
4.760
4.757
4.755
4.756
4.753
4.749
4.748
4.748
4.743
4.736
4.737
4.742
4.742
4.744
4.736
4.734
4.727
4.725
4.724
4.727
4.734
4.736
4.742
4.736
4.741
4.739
4.742
4.738
4.738
4.734
4.733
4.733
4.726
4.726
4.726
4.734
4.734
4.735
4.736
4.740
4.733
4.728
4.730
4.729
4.731
4.727
4.730
4.736
4.740
4.746
4.752
4.758
4.763
4.769
4.775
4.780
4.786
4.791
4.793
4.799
4.794
4.791
4.784
4.783
4.785
4.781
4.783
4.784
4.787
4.787
4.782
4.779
4.781
4.776
4.776
4.775
4.775
4.775
4.769
4.767
4.762
4.758
4.763
4.767
4.773
4.771
4.769
4.768
4.766
4.768
4.765
4.766
4.764
4.759
4.757
4.760
4.751
4.751
4.747
4.742
4.739
4.740
4.745
4.745
4.738
4.739
4.739
4.745
4.744
4.739
4.734
4.730
4.725
4.721
4.720
4.717
4.715
4.712
4.713
4.718
4.723
4.728
4.734
4.739
4.744
4.749
4.754
4.760
4.765
4.765
4.767
4.774
4.781
4.781
4.775
4.768
4.767
4.763
4.762
4.766
4.763
4.763
4.768
4.767
4.761
4.761
4.762
4.755
4.753
4.756
4.755
4.753
4.748
4.745
4.747
4.749
4.747
4.743
4.742
4.743
4.738
4.741
4.741
4.744
4.739
4.733
4.738
4.745
4.740
4.737
4.732
4.731
4.728
4.727
4.734
4.737
4.737
4.738
4.731
4.735
4.740
4.745
4.747
4.747
4.743
4.745
4.744
4.741
4.739
4.734
4.731
4.738
4.734
4.732
4.728
4.724
4.728
4.720
4.719
4.717
4.716
4.719
4.718
4.719
4.721
4.724
4.724
4.727
4.722
4.720
4.728
4.728
4.732
4.737
4.742
4.747
4.752
4.756
4.761
4.766
4.770
4.775
4.780
