2.995
3.328
3.497
3.616
3.690
3.775
3.826
3.869
3.878
3.932
3.977
4.023
4.050
3.974
3.984
4.003
4.026
4.044
4.057
4.082
4.091
4.115
4.116
4.139
4.142
4.162
4.176
4.174
4.191
4.199
4.218
4.211
4.220
4.230
4.250
4.254
4.244
4.253
4.268
4.270
4.281
4.287
4.307
4.314
4.285
4.301
4.311
4.313
4.316
4.336
4.337
4.337
4.350
4.357
4.366
4.376
4.362
4.349
4.358
4.359
4.370
4.376
4.373
4.373
4.384
4.397
4.393
4.402
4.403
4.402
4.409
4.412
4.425
4.428
4.433
4.441
4.448
4.439
4.444
4.449
4.456
4.433
4.419
4.425
4.433
4.430
4.434
4.438
4.453
4.450
4.435
4.436
4.442
4.453
4.452
4.461
4.455
4.466
4.473
4.461
4.475
4.475
4.483
4.496
4.483
4.493
4.482
4.488
4.478
4.489
4.490
4.482
4.496
4.499
4.507
4.513
4.511
4.520
4.514
4.509
4.516
4.522
4.525
4.533
4.532
4.534
4.536
4.539
4.539
4.540
4.539
4.536
4.538
4.535
4.533
4.538
4.529
4.552
4.547
4.552
4.558
4.549
4.571
4.570
4.560
4.577
4.569
4.576
4.577
4.577
4.581
4.568
4.555
4.543
4.543
4.539
4.535
4.543
4.537
4.537
4.550
4.548
4.544
4.548
4.567
4.560
4.558
4.569
4.565
4.568
4.569
4.554
4.544
4.548
4.552
4.553
4.536
4.548
4.549
4.538
4.540
4.551
4.553
4.550
4.553
4.566
4.569
4.561
4.559
4.564
4.578
4.565
4.554
4.558
4.579
4.569
4.570
4.565
4.570
4.590
4.583
4.588
4.581
4.577
4.600
4.598
4.595
4.588
4.584
4.585
4.589
4.580
4.576
4.584
4.589
4.589
4.591
4.581
4.581
4.588
4.607
4.608
4.599
4.593
4.591
4.594
4.611
4.606
4.604
4.603
4.592
4.602
4.614
4.633
4.625
4.622
4.621
4.613
4.607
4.626
4.636
4.630
4.620
4.622
4.624
4.619
4.631
4.639
4.639
4.630
4.622
4.611
4.611
4.620
4.616
4.609
4.610
4.606
4.606
4.602
4.610
4.609
4.604
4.599
4.595
4.602
4.599
4.603
4.620
4.625
4.621
4.621
4.618
4.612
4.601
4.605
4.612
4.628
4.619
4.628
4.626
4.621
4.615
4.600
4.596
4.612
4.625
4.630
4.630
4.622
4.621
4.614
4.613
4.615
4.612
4.618
4.633
4.645
4.643
4.645
4.633
4.633
4.630
4.626
4.624
4.626
4.629
4.644
4.644
4.642
4.639
4.635
4.635
4.639
4.638
4.634
4.631
4.628
4.643
4.657
4.663
4.672
4.667
4.657
4.656
4.661
4.652
4.654
4.648
4.641
4.647
4.658
4.672
4.672
4.666
4.663
4.665
4.661
4.662
4.656
4.646
4.636
4.636
4.646
4.660
4.660
4.662
4.652
4.649
4.641
4.641
4.635
4.630
4.626
4.630
4.629
4.635
4.648
4.661
4.669
4.666
4.669
4.669
4.668
4.658
4.647
4.638
4.638
4.646
4.650
4.645
4.642
4.648
4.660
4.673
4.676
4.683
4.678
4.682
4.675
4.673
4.667
4.663
4.661
4.657
4.661
4.662
4.651
4.656
4.661
4.668
4.680
4.692
4.702
4.699
4.699
4.692
4.684
4.688
4.685
4.689
4.686
4.691
4.687
4.677
4.679
4.687
4.679
4.671
4.681
4.692
4.697
4.699
4.705
4.699
4.689
4.682
4.679
4.671
4.673
4.675
4.669
4.669
4.671
4.670
4.674
4.665
4.664
4.674
4.685
4.696
4.705
4.705
4.699
4.695
4.704
4.699
4.697
4.708
4.696
4.691
4.697
4.691
4.692
4.691
4.693
4.687
4.689
4.690
4.692
4.691
4.689
4.699
4.710
4.720
4.730
4.741
4.741
4.736
4.736
4.724
4.717
4.719
4.713
4.717
4.710
4.717
4.714
4.717
4.708
4.708
4.700
4.702
4.704
4.704
4.702
4.700
4.710
4.719
4.729
4.731
4.725
4.721
4.715
4.710
4.704
4.699
4.696
4.691
4.681
4.684
4.685
4.685
4.684
4.680
4.685
4.691
4.682
4.684
4.688
4.686
4.684
4.694
4.703
4.707
4.704
4.703
4.707
4.696
4.697
4.694
4.695
4.690
4.692
4.697
4.697
4.690
4.682
4.686
4.685
4.679
4.671
4.671
4.669
4.665
4.662
4.661
4.667
4.664
4.670
4.679
4.687
4.696
4.705
4.714
4.722
4.722
4.714
4.714
4.715
4.710
4.703
4.695
4.700
4.706
4.705
4.705
4.697
4.699
4.694
4.697
4.697
4.696
4.689
4.681
4.675
4.668
4.668
4.676
4.670
4.661
4.659
4.667
4.676
4.684
4.692
4.700
4.707
4.708
4.701
4.696
4.692
4.697
4.699
4.705
4.704
4.702
4.706
4.701
4.698
4.707
4.701
4.707
4.710
4.704
4.704
4.698
4.699
4.697
4.689
4.688
4.684
4.686
4.682
4.685
4.684
4.683
4.681
4.687
4.681
4.682
4.678
4.685
4.693
4.701
4.709
4.710
4.708
4.716
4.709
4.706
4.707
4.711
4.702
4.704
4.715
4.713
4.704
4.698
4.693
4.690
4.697
4.699
4.699
4.698
4.700
4.701
4.698
4.690
4.682
4.694
4.693
4.685
4.688
4.693
4.691
4.695
4.699
4.696
4.694
4.689
4.685
4.682
4.680
4.679
4.684
4.691
4.698
4.705
4.707
4.719
4.725
4.719
4.719
4.719
4.721
4.721
4.719
4.720
4.721
4.722
4.719
4.716
4.714
4.720
4.718
4.710
4.704
4.707
4.705
4.707
4.708
4.704
4.705
4.701
4.701
4.693
4.694
4.699
4.709
4.706
4.710
4.709
4.707
4.713
4.707
4.701
4.702
4.699
4.702
4.698
4.698
4.696
4.688
4.682
4.685
4.691
4.698
4.705
4.711
4.718
4.725
4.732
4.736
4.738
4.735
4.732
4.729
4.728
4.739
4.736
4.741
4.734
4.740
4.744
4.742
4.749
4.744
4.738
4.736
4.736
4.729
4.723
4.724
4.726
4.721
4.723
4.725
4.724
4.721
4.721
4.721
4.714
4.710
4.712
4.713
4.717
4.713
4.712
4.716
4.717
4.715
4.721
4.720
4.721
4.716
4.707
4.706
4.715
4.724
4.720
4.713
4.715
4.712
4.708
4.714
4.717
4.713
4.714
4.721
4.727
4.733
4.739
4.745
4.752
4.758
4.764
4.765
4.763
4.769
4.774
4.775
4.772
4.772
4.776
4.773
4.772
4.766
4.760
4.766
4.762
4.763
4.763
4.762
4.757
4.754
4.749
4.750
4.752
4.757
4.759
4.753
4.753
4.756
4.750
4.744
4.743
4.748
4.746
4.755
4.756
4.760
4.756
4.749
4.746
4.740
4.737
4.738
4.734
4.727
4.722
4.719
4.717
4.718
4.722
4.725
4.722
4.720
4.721
4.726
4.730
4.729
4.724
4.718
4.713
4.708
4.708
4.713
4.719
4.724
4.730
4.736
4.742
4.744
4.747
4.747
4.751
4.758
4.761
4.761
4.758
4.759
4.757
4.753
4.753
4.753
4.745
4.748
4.750
4.750
4.743
4.749
4.742
4.738
4.734
4.735
4.731
4.730
4.729
4.734
4.729
4.719
4.717
4.718
4.718
4.719
4.718
4.723
4.721
4.721
4.727
4.730
4.722
4.717
4.719
4.718
4.716
4.720
4.715
4.717
4.716
4.717
4.724
4.728
4.727
4.725
4.722
4.718
4.719
4.719
4.719
4.718
4.721
4.724
4.726
4.718
4.710
4.708
4.705
4.702
4.697
4.697
4.700
4.698
4.699
4.704
4.703
4.703
4.705
4.708
4.713
4.718
4.723
4.729
4.734
4.739
4.744
4.749
4.754
4.759
4.765
4.770
4.775
4.773
4.772
4.771
4.770
4.776
4.771
4.779
4.774
4.768
4.765
4.760
4.759
4.760
4.763
4.760
4.759
4.754
4.751
4.752
4.758
4.765
4.768
4.766
4.768
4.771
4.772
4.774
4.772
4.771
4.762
4.759
4.760
4.762
4.767
4.764
4.759
4.754
4.750
4.756
4.764
4.766
4.767
4.763
4.761
4.764
4.764
4.765
4.768
4.763
4.763
4.760
4.759
4.758
4.757
4.760
4.752
4.754
4.752
4.749
4.749
4.748
4.743
4.744
4.748
4.756
4.752
4.749
4.745
4.742
4.738
4.735
4.732
4.728
4.725
4.721
4.717
4.716
