2.991
3.333
3.505
3.631
3.721
3.777
3.844
3.866
3.932
3.922
3.951
3.992
4.033
4.067
4.100
4.122
4.062
4.048
4.070
4.081
4.096
4.116
4.125
4.133
4.152
4.160
4.170
4.194
4.189
4.207
4.224
4.218
4.230
4.244
4.249
4.250
4.263
4.269
4.281
4.281
4.285
4.290
4.302
4.306
4.321
4.322
4.315
4.317
4.330
4.336
4.341
4.348
4.358
4.363
4.369
4.382
4.366
4.360
4.366
4.375
4.378
4.384
4.385
4.397
4.404
4.409
4.409
4.409
4.422
4.428
4.433
4.441
4.435
4.412
4.417
4.416
4.430
4.430
4.432
4.446
4.438
4.438
4.445
4.449
4.454
4.464
4.458
4.466
4.478
4.466
4.471
4.475
4.480
4.483
4.486
4.492
4.488
4.500
4.500
4.507
4.507
4.511
4.508
4.512
4.508
4.490
4.486
4.479
4.491
4.498
4.494
4.503
4.498
4.501
4.506
4.523
4.514
4.506
4.500
4.503
4.511
4.514
4.515
4.518
4.524
4.524
4.529
4.531
4.541
4.534
4.532
4.537
4.548
4.541
4.553
4.546
4.558
4.553
4.538
4.554
4.546
4.541
4.547
4.554
4.553
4.554
4.557
4.564
4.560
4.570
4.572
4.579
4.573
4.581
4.578
4.576
4.576
4.584
4.583
4.580
4.589
4.588
4.599
4.595
4.593
4.605
4.601
4.606
4.607
4.594
4.598
4.599
4.606
4.598
4.592
4.596
4.593
4.598
4.603
4.602
4.604
4.617
4.613
4.611
4.621
4.618
4.615
4.633
4.629
4.616
4.631
4.641
4.633
4.629
4.642
4.632
4.623
4.613
4.603
4.597
4.594
4.588
4.601
4.602
4.602
4.598
4.607
4.599
4.598
4.597
4.615
4.611
4.606
4.607
4.618
4.620
4.627
4.623
4.618
4.631
4.629
4.625
4.620
4.618
4.614
4.609
4.608
4.612
4.606
4.607
4.605
4.611
4.613
4.607
4.601
4.604
4.606
4.613
4.611
4.603
4.607
4.626
4.622
4.623
4.627
4.620
4.624
4.635
4.631
4.629
4.629
4.619
4.632
4.625
4.627
4.630
4.623
4.627
4.645
4.637
4.633
4.636
4.627
4.631
4.648
4.655
4.653
4.645
4.643
4.645
4.647
4.661
4.654
4.641
4.639
4.636
4.641
4.655
4.652
4.648
4.649
4.640
4.631
4.647
4.652
4.661
4.653
4.649
4.647
4.645
4.648
4.663
4.666
4.666
4.664
4.658
4.653
4.646
4.658
4.673
4.671
4.668
4.666
4.669
4.664
4.661
4.664
4.677
4.692
4.689
4.685
4.686
4.674
4.674
4.671
4.676
4.689
4.688
4.680
4.687
4.685
4.688
4.679
4.683
4.680
4.694
4.687
4.678
4.670
4.662
4.653
4.651
4.665
4.678
4.671
4.680
4.672
4.669
4.666
4.660
4.652
4.657
4.670
4.672
4.664
4.663
4.668
4.662
4.654
4.659
4.657
4.655
4.668
4.681
4.683
4.683
4.681
4.679
4.679
4.677
4.672
4.664
4.661
4.671
4.682
4.679
4.683
4.685
4.686
4.682
4.681
4.673
4.665
4.660
4.666
4.678
4.681
4.683
4.681
4.674
4.681
4.683
4.676
4.677
4.670
4.668
4.665
4.676
4.688
4.700
4.709
4.697
4.701
4.702
4.695
4.694
4.690
4.686
4.682
4.682
4.676
4.687
4.699
4.701
4.696
4.693
4.697
4.689
4.696
4.696
4.692
4.688
4.682
4.693
4.690
4.691
4.699
4.710
4.719
4.717
4.718
4.716
4.714
4.713
4.719
4.718
4.716
4.709
4.702
4.706
4.707
4.702
4.710
4.721
4.732
4.729
4.724
4.725
4.723
4.725
4.720
4.710
4.710
4.705
4.704
4.710
4.707
4.699
4.709
4.712
4.710
4.708
4.714
4.717
4.720
4.714
4.705
4.700
4.700
4.701
4.697
4.688
4.692
4.690
4.695
4.705
4.715
4.718
4.714
4.710
4.710
4.711
4.707
4.710
4.714
4.719
4.713
4.712
4.712
4.710
4.710
4.711
4.700
4.698
4.708
4.718
4.723
4.720
4.722
4.724
4.727
4.723
4.720
4.721
4.722
4.717
4.714
4.717
4.717
4.728
4.732
4.725
4.719
4.717
4.709
4.714
4.724
4.733
4.740
4.740
4.741
4.738
4.734
4.743
4.746
4.741
4.742
4.746
4.742
4.741
4.741
4.741
4.736
4.736
4.734
4.727
4.729
4.734
4.727
4.731
4.740
4.749
4.758
4.764
4.759
4.762
4.758
4.753
4.748
4.745
4.743
4.744
4.747
4.742
4.742
4.741
4.739
4.740
4.733
4.725
4.718
4.714
4.721
4.730
4.738
4.746
4.754
4.754
4.755
4.757
4.756
4.750
4.743
4.740
4.741
4.747
4.741
4.738
4.742
4.739
4.741
4.736
4.742
4.741
4.741
4.737
4.738
4.736
4.738
4.738
4.738
4.742
4.750
4.758
4.766
4.772
4.770
4.769
4.770
4.770
4.770
4.771
4.777
4.775
4.771
4.767
4.770
4.767
4.767
4.769
4.767
4.763
4.764
4.762
4.761
4.764
4.770
4.772
4.763
4.765
4.759
4.764
4.762
4.763
4.771
4.779
4.787
4.790
4.793
4.790
4.788
4.785
4.780
4.774
4.777
4.775
4.778
4.780
4.782
4.775
4.780
4.775
4.771
4.766
4.762
4.758
4.754
4.749
4.745
4.741
4.736
4.732
4.738
4.745
4.753
4.760
4.766
4.761
4.760
4.766
4.765
4.766
4.770
4.767
4.768
4.764
4.762
4.762
4.760
4.757
4.752
4.747
4.742
4.736
4.731
4.726
4.724
4.731
4.733
4.735
4.734
4.729
4.733
4.733
4.734
4.730
4.733
4.732
4.739
4.746
4.753
4.760
4.767
4.763
4.758
4.758
4.755
4.751
4.745
4.740
4.735
4.741
4.750
4.755
4.752
4.749
4.745
4.749
4.749
4.742
4.741
4.743
4.739
4.741
4.744
4.738
4.736
4.734
4.733
4.737
4.738
4.741
4.739
4.737
4.735
4.735
4.741
4.740
4.739
4.745
4.752
4.758
4.765
4.771
4.769
4.763
4.758
4.756
4.759
4.756
4.754
4.753
4.755
4.753
4.751
4.743
4.744
4.745
4.740
4.736
4.735
4.729
4.734
4.737
4.739
4.737
4.735
4.738
4.736
4.735
4.732
4.732
4.737
4.735
4.732
4.730
4.723
4.721
4.723
4.723
4.720
4.726
4.732
4.738
4.744
4.750
4.757
4.763
4.769
4.775
4.773
4.774
4.772
4.773
4.775
4.772
4.779
4.778
4.770
4.773
4.773
4.775
4.771
4.765
4.763
4.759
4.757
4.756
4.754
4.750
4.747
4.750
4.751
4.749
4.743
4.739
4.741
4.740
4.734
4.728
4.725
4.729
4.734
4.736
4.739
4.739
4.735
4.735
4.742
4.740
4.737
4.735
4.735
4.732
4.738
4.743
4.749
4.755
4.761
4.766
4.772
4.772
4.773
4.766
4.770
4.769
4.767
4.767
4.768
4.773
4.767
4.768
4.766
4.760
4.760
4.764
4.761
4.760
4.761
4.765
4.773
4.772
4.773
4.775
4.770
4.763
4.759
4.755
4.757
4.760
4.763
4.760
4.759
4.756
4.752
4.756
4.755
4.758
4.752
4.745
4.740
4.735
4.735
4.735
4.736
4.732
4.727
4.732
4.725
4.720
4.725
4.730
4.736
4.741
4.746
4.752
4.757
4.763
4.768
4.773
4.779
4.784
4.790
4.794
4.789
4.793
4.790
4.785
4.786
4.787
4.784
4.781
4.780
4.780
4.783
4.783
4.781
4.779
4.776
4.772
4.769
4.773
4.774
4.773
4.781
4.780
4.780
4.779
4.774
4.771
4.767
4.765
4.765
4.761
4.757
4.757
4.754
4.761
4.758
4.758
4.760
4.760
4.758
4.754
4.756
4.754
4.756
4.760
4.765
4.766
4.766
4.768
4.765
4.756
4.753
4.748
4.747
4.747
4.745
4.744
4.746
4.746
4.749
4.754
4.759
4.764
4.769
4.774
4.779
4.784
4.789
4.794
4.797
4.795
4.793
4.794
4.801
4.797
4.795
4.798
4.795
4.792
4.794
4.793
4.797
4.804
4.808
4.804
4.801
4.804
4.800
4.793
4.791
4.787
4.788
4.786
4.782
4.788
4.787
4.787
4.790
4.793
4.788
4.791
4.792
4.788
4.786
4.787
4.784
4.777
4.784
4.786
4.790
4.783
4.785
4.781
4.783
4.780
4.782
4.788
