2.991
3.332
3.515
3.635
3.699
3.776
3.827
3.876
3.913
3.968
3.947
3.987
4.020
4.051
4.080
4.115
4.136
4.125
4.070
4.086
4.099
4.115
4.131
4.141
4.147
4.168
4.171
4.188
4.189
4.203
4.219
4.218
4.232
4.245
4.240
4.252
4.268
4.276
4.270
4.283
4.290
4.297
4.310
4.315
4.308
4.317
4.322
4.328
4.337
4.350
4.350
4.352
4.351
4.352
4.362
4.369
4.373
4.378
4.386
4.389
4.391
4.403
4.405
4.392
4.389
4.393
4.402
4.410
4.414
4.420
4.421
4.431
4.430
4.435
4.436
4.440
4.445
4.451
4.457
4.467
4.468
4.445
4.441
4.448
4.444
4.456
4.461
4.462
4.465
4.467
4.465
4.469
4.470
4.476
4.488
4.487
4.486
4.492
4.501
4.496
4.498
4.497
4.499
4.505
4.511
4.516
4.521
4.523
4.527
4.530
4.531
4.534
4.532
4.532
4.535
4.530
4.534
4.517
4.512
4.515
4.509
4.520
4.524
4.528
4.525
4.521
4.527
4.533
4.533
4.542
4.536
4.530
4.532
4.533
4.535
4.539
4.536
4.551
4.540
4.548
4.556
4.551
4.564
4.558
4.562
4.562
4.555
4.570
4.565
4.575
4.573
4.581
4.579
4.584
4.571
4.570
4.575
4.577
4.575
4.570
4.578
4.586
4.578
4.581
4.576
4.589
4.587
4.597
4.596
4.595
4.600
4.602
4.610
4.607
4.603
4.604
4.599
4.617
4.608
4.612
4.613
4.617
4.625
4.620
4.622
4.630
4.624
4.624
4.633
4.619
4.624
4.626
4.627
4.631
4.624
4.618
4.631
4.618
4.615
4.633
4.629
4.627
4.633
4.640
4.642
4.637
4.647
4.646
4.644
4.646
4.657
4.655
4.648
4.660
4.656
4.660
4.653
4.662
4.654
4.645
4.636
4.627
4.620
4.617
4.616
4.616
4.625
4.629
4.624
4.623
4.627
4.637
4.621
4.618
4.625
4.637
4.633
4.635
4.627
4.639
4.646
4.643
4.639
4.647
4.651
4.652
4.651
4.644
4.648
4.650
4.639
4.631
4.627
4.645
4.639
4.627
4.627
4.633
4.630
4.631
4.631
4.634
4.626
4.640
4.635
4.631
4.627
4.630
4.638
4.645
4.641
4.641
4.637
4.640
4.646
4.660
4.648
4.649
4.650
4.646
4.650
4.657
4.652
4.653
4.646
4.645
4.649
4.664
4.658
4.660
4.656
4.654
4.656
4.660
4.670
4.666
4.665
4.672
4.669
4.666
4.667
4.681
4.682
4.686
4.675
4.677
4.669
4.668
4.677
4.671
4.672
4.670
4.666
4.662
4.665
4.675
4.669
4.670
4.670
4.668
4.666
4.668
4.672
4.684
4.687
4.683
4.683
4.680
4.682
4.677
4.681
4.687
4.687
4.683
4.685
4.683
4.684
4.684
4.680
4.682
4.695
4.703
4.699
4.698
4.702
4.699
4.700
4.700
4.697
4.698
4.711
4.711
4.709
4.710
4.708
4.710
4.710
4.701
4.695
4.707
4.719
4.721
4.717
4.715
4.710
4.706
4.705
4.697
4.697
4.696
4.692
4.691
4.683
4.687
4.687
4.684
4.683
4.684
4.693
4.699
4.690
4.682
4.681
4.676
4.679
4.677
4.679
4.680
4.683
4.695
4.698
4.689
4.694
4.692
4.689
4.688
4.689
4.689
4.683
4.681
4.694
4.700
4.712
4.711
4.705
4.700
4.701
4.696
4.693
4.697
4.687
4.685
4.686
4.697
4.709
4.714
4.704
4.710
4.699
4.692
4.687
4.689
4.685
4.685
4.688
4.686
4.697
4.708
4.719
4.715
4.709
4.707
4.709
4.707
4.705
4.706
4.703
4.701
4.704
4.702
4.701
4.710
4.720
4.731
4.724
4.726
4.721
4.716
4.711
4.714
4.717
4.720
4.717
4.717
4.708
4.701
4.711
4.722
4.728
4.723
4.728
4.730
4.724
4.723
4.724
4.728
4.724
4.716
4.717
4.719
4.721
4.722
4.723
4.723
4.733
4.743
4.750
4.751
4.749
4.743
4.740
4.744
4.743
4.742
4.746
4.736
4.731
4.736
4.725
4.722
4.724
4.732
4.742
4.752
4.748
4.743
4.744
4.741
4.740
4.741
4.734
4.727
4.721
4.714
4.716
4.719
4.719
4.712
4.720
4.730
4.739
4.746
4.740
4.737
4.739
4.738
4.733
4.729
4.722
4.719
4.720
4.718
4.708
4.708
4.718
4.715
4.712
4.715
4.723
4.732
4.741
4.746
4.742
4.743
4.746
4.749
4.745
4.743
4.744
4.749
4.745
4.735
4.733
4.725
4.725
4.724
4.722
4.724
4.728
4.721
4.730
4.738
4.747
4.755
4.755
4.752
4.760
4.764
4.759
4.756
4.757
4.754
4.753
4.752
4.750
4.748
4.746
4.752
4.741
4.738
4.739
4.739
4.735
4.740
4.739
4.746
4.754
4.762
4.770
4.772
4.774
4.770
4.771
4.774
4.780
4.777
4.780
4.774
4.767
4.764
4.759
4.758
4.761
4.759
4.761
4.759
4.760
4.758
4.762
4.754
4.750
4.752
4.760
4.768
4.776
4.784
4.785
4.781
4.778
4.779
4.777
4.774
4.769
4.762
4.767
4.761
4.759
4.759
4.754
4.756
4.758
4.753
4.745
4.739
4.737
4.741
4.746
4.745
4.749
4.757
4.764
4.771
4.778
4.784
4.785
4.785
4.775
4.772
4.774
4.770
4.771
4.774
4.779
4.770
4.769
4.769
4.766
4.766
4.762
4.764
4.772
4.775
4.770
4.769
4.771
4.761
4.764
4.763
4.766
4.767
4.763
4.770
4.777
4.784
4.791
4.799
4.804
4.805
4.802
4.801
4.801
4.798
4.801
4.798
4.796
4.796
4.796
4.801
4.802
4.802
4.805
4.806
4.806
4.805
4.801
4.795
4.788
4.783
4.785
4.782
4.776
4.779
4.784
4.781
4.779
4.777
4.782
4.789
4.796
4.803
4.810
4.814
4.814
4.814
4.810
4.807
4.803
4.799
4.795
4.791
4.788
4.784
4.780
4.779
4.780
4.778
4.771
4.765
4.758
4.758
4.756
4.754
4.753
4.751
4.754
4.752
4.750
4.753
4.753
4.758
4.764
4.770
4.777
4.783
4.790
4.790
4.788
4.794
4.789
4.784
4.780
4.775
4.770
4.766
4.767
4.765
4.766
4.762
4.760
4.760
4.759
4.764
4.764
4.760
4.759
4.756
4.757
4.754
4.763
4.765
4.763
4.764
4.761
4.763
4.761
4.756
4.751
4.751
4.751
4.753
4.759
4.766
4.772
4.778
4.784
4.780
4.776
4.774
4.771
4.773
4.776
4.775
4.767
4.764
4.768
4.776
4.778
4.782
4.784
4.780
4.775
4.778
4.777
4.771
4.770
4.769
4.772
4.772
4.773
4.773
4.768
4.766
4.766
4.765
4.766
4.766
4.766
4.760
4.755
4.757
4.753
4.754
4.761
4.768
4.770
4.764
4.765
4.768
4.774
4.780
4.785
4.791
4.790
4.787
4.782
4.783
4.780
4.772
4.775
4.776
4.779
4.777
4.771
4.767
4.767
4.762
4.761
4.761
4.760
4.760
4.759
4.757
4.757
4.765
4.768
4.767
4.767
4.769
4.769
4.762
4.760
4.754
4.754
4.758
4.756
4.756
4.754
4.754
4.751
4.754
4.752
4.753
4.752
4.753
4.755
4.754
4.756
4.761
4.767
4.772
4.778
4.783
4.788
4.794
4.799
4.804
4.798
4.798
4.795
4.793
4.797
4.793
4.787
4.787
4.785
4.791
4.790
4.790
4.786
4.789
4.791
4.791
4.786
4.780
4.775
4.769
4.764
4.759
4.756
4.755
4.758
4.757
4.757
4.753
4.755
4.751
4.754
4.759
4.758
4.754
4.760
4.767
4.771
4.773
4.770
4.768
4.767
4.766
4.764
4.764
4.758
4.761
4.761
4.759
4.758
4.761
4.766
4.771
4.776
4.781
4.787
4.792
4.797
4.797
4.796
4.793
4.798
4.796
4.792
4.796
4.795
4.802
4.802
4.797
4.796
4.796
4.795
4.798
4.795
4.789
4.789
4.788
4.788
4.792
4.797
4.799
4.800
4.797
4.795
4.792
4.792
4.786
4.787
4.785
4.782
4.776
4.771
4.767
4.765
4.770
4.770
4.771
4.770
4.774
4.772
4.769
4.764
4.758
4.759
4.759
4.756
4.753
4.754
4.758
4.751
4.754
4.753
4.752
4.757
4.759
4.763
4.769
4.768
4.770
4.774
4.779
4.784
4.788
4.793
4.798
