2.993
3.328
3.516
3.630
3.716
3.766
3.818
3.892
3.901
3.956
4.010
3.978
4.013
4.048
4.073
4.106
4.131
4.159
4.156
4.104
4.097
4.112
4.133
4.145
4.151
4.170
4.175
4.191
4.193
4.209
4.209
4.226
4.235
4.238
4.251
4.261
4.274
4.269
4.277
4.291
4.299
4.292
4.302
4.306
4.320
4.324
4.335
4.325
4.333
4.336
4.349
4.350
4.359
4.370
4.376
4.373
4.365
4.370
4.375
4.386
4.391
4.389
4.398
4.408
4.407
4.413
4.424
4.423
4.411
4.413
4.413
4.422
4.430
4.432
4.431
4.436
4.443
4.452
4.454
4.460
4.457
4.464
4.463
4.473
4.483
4.482
4.483
4.474
4.462
4.461
4.466
4.464
4.474
4.481
4.482
4.487
4.492
4.485
4.489
4.488
4.494
4.501
4.503
4.506
4.506
4.514
4.522
4.520
4.514
4.521
4.516
4.519
4.525
4.529
4.538
4.539
4.537
4.543
4.551
4.551
4.561
4.550
4.555
4.553
4.549
4.553
4.541
4.527
4.527
4.533
4.529
4.541
4.539
4.544
4.543
4.550
4.543
4.550
4.559
4.551
4.561
4.550
4.554
4.549
4.557
4.556
4.551
4.562
4.557
4.564
4.565
4.566
4.575
4.573
4.581
4.577
4.580
4.573
4.573
4.579
4.587
4.584
4.592
4.591
4.599
4.595
4.601
4.590
4.587
4.591
4.592
4.590
4.591
4.587
4.600
4.600
4.600
4.595
4.604
4.606
4.602
4.615
4.616
4.614
4.621
4.616
4.622
4.622
4.622
4.615
4.617
4.629
4.627
4.624
4.634
4.631
4.627
4.647
4.641
4.632
4.648
4.646
4.635
4.656
4.647
4.637
4.638
4.641
4.637
4.652
4.647
4.636
4.645
4.643
4.633
4.648
4.645
4.642
4.649
4.653
4.649
4.653
4.662
4.662
4.658
4.655
4.668
4.667
4.668
4.666
4.674
4.669
4.668
4.670
4.684
4.676
4.668
4.660
4.652
4.644
4.643
4.633
4.628
4.633
4.646
4.641
4.643
4.634
4.648
4.653
4.648
4.648
4.642
4.648
4.649
4.650
4.642
4.652
4.655
4.654
4.656
4.651
4.658
4.669
4.671
4.670
4.664
4.662
4.673
4.674
4.666
4.656
4.656
4.658
4.654
4.657
4.650
4.655
4.659
4.658
4.646
4.638
4.651
4.657
4.653
4.649
4.645
4.644
4.657
4.657
4.656
4.652
4.652
4.647
4.660
4.669
4.668
4.666
4.668
4.662
4.659
4.675
4.676
4.672
4.675
4.673
4.660
4.670
4.676
4.668
4.669
4.669
4.672
4.669
4.675
4.679
4.683
4.679
4.673
4.670
4.675
4.677
4.691
4.694
4.694
4.697
4.690
4.689
4.684
4.688
4.702
4.697
4.686
4.677
4.682
4.683
4.681
4.695
4.691
4.692
4.689
4.687
4.685
4.677
4.682
4.695
4.692
4.694
4.688
4.696
4.692
4.691
4.683
4.692
4.705
4.712
4.710
4.703
4.701
4.706
4.699
4.697
4.696
4.709
4.704
4.710
4.711
4.707
4.706
4.707
4.700
4.701
4.707
4.719
4.727
4.721
4.722
4.728
4.728
4.723
4.720
4.718
4.711
4.723
4.736
4.737
4.736
4.725
4.718
4.719
4.718
4.719
4.718
4.722
4.734
4.733
4.726
4.719
4.713
4.706
4.699
4.703
4.702
4.713
4.711
4.711
4.709
4.711
4.708
4.708
4.710
4.708
4.703
4.699
4.703
4.705
4.707
4.707
4.705
4.704
4.702
4.698
4.699
4.700
4.695
4.700
4.711
4.711
4.708
4.714
4.717
4.712
4.710
4.711
4.711
4.716
4.711
4.708
4.716
4.715
4.725
4.727
4.725
4.717
4.717
4.709
4.714
4.715
4.713
4.710
4.710
4.708
4.711
4.721
4.723
4.718
4.719
4.718
4.711
4.705
4.706
4.711
4.708
4.711
4.708
4.708
4.710
4.719
4.728
4.737
4.734
4.728
4.727
4.730
4.731
4.728
4.730
4.727
4.730
4.730
4.722
4.724
4.725
4.729
4.736
4.744
4.738
4.742
4.740
4.738
4.736
4.738
4.737
4.731
4.726
4.731
4.720
4.715
4.722
4.725
4.734
4.743
4.748
4.742
4.748
4.750
4.750
4.746
4.748
4.745
4.742
4.741
4.740
4.739
4.745
4.746
4.750
4.751
4.740
4.749
4.758
4.767
4.766
4.761
4.759
4.758
4.761
4.764
4.761
4.756
4.751
4.747
4.745
4.747
4.752
4.746
4.745
4.752
4.752
4.761
4.768
4.762
4.755
4.749
4.743
4.740
4.737
4.737
4.739
4.737
4.738
4.737
4.739
4.741
4.743
4.738
4.734
4.743
4.751
4.758
4.753
4.746
4.753
4.750
4.750
4.747
4.739
4.736
4.735
4.735
4.736
4.735
4.731
4.732
4.738
4.738
4.737
4.741
4.739
4.747
4.755
4.763
4.768
4.767
4.768
4.771
4.769
4.761
4.758
4.757
4.755
4.746
4.750
4.747
4.746
4.751
4.750
4.744
4.739
4.739
4.739
4.738
4.744
4.752
4.760
4.768
4.776
4.778
4.778
4.783
4.781
4.782
4.781
4.780
4.771
4.762
4.764
4.761
4.759
4.762
4.768
4.766
4.762
4.762
4.761
4.762
4.755
4.761
4.754
4.758
4.765
4.773
4.780
4.788
4.795
4.801
4.796
4.795
4.794
4.791
4.792
4.789
4.787
4.786
4.781
4.780
4.781
4.782
4.786
4.785
4.779
4.770
4.766
4.773
4.775
4.774
4.771
4.776
4.775
4.776
4.783
4.790
4.797
4.800
4.795
4.795
4.790
4.784
4.778
4.771
4.767
4.775
4.777
4.776
4.781
4.773
4.770
4.771
4.772
4.771
4.769
4.769
4.766
4.760
4.763
4.762
4.759
4.764
4.768
4.775
4.782
4.789
4.796
4.802
4.805
4.799
4.797
4.797
4.798
4.793
4.794
4.793
4.794
4.791
4.788
4.791
4.788
4.792
4.789
4.787
4.785
4.789
4.789
4.792
4.790
4.793
4.791
4.786
4.781
4.783
4.781
4.784
4.783
4.782
4.789
4.795
4.802
4.808
4.815
4.821
4.822
4.823
4.821
4.819
4.814
4.817
4.818
4.820
4.820
4.822
4.822
4.826
4.830
4.826
4.823
4.820
4.811
4.807
4.806
4.799
4.799
4.796
4.801
4.796
4.794
4.795
4.797
4.805
4.811
4.803
4.799
4.803
4.799
4.805
4.812
4.817
4.817
4.814
4.810
4.806
4.803
4.799
4.796
4.792
4.791
4.795
4.794
4.794
4.788
4.784
4.784
4.783
4.784
4.778
4.772
4.770
4.773
4.776
4.776
4.777
4.775
4.775
4.776
4.778
4.775
4.772
4.771
4.770
4.773
4.779
4.785
4.791
4.797
4.797
4.793
4.793
4.790
4.789
4.788
4.791
4.787
4.787
4.786
4.782
4.786
4.783
4.779
4.783
4.782
4.783
4.783
4.783
4.785
4.780
4.780
4.780
4.779
4.779
4.775
4.779
4.783
4.780
4.772
4.773
4.775
4.776
4.770
4.772
4.771
4.772
4.769
4.767
4.770
4.776
4.782
4.787
4.793
4.798
4.801
4.799
4.796
4.793
4.789
4.791
4.789
4.789
4.789
4.789
4.793
4.794
4.797
4.805
4.802
4.801
4.799
4.800
4.798
4.793
4.792
4.791
4.794
4.791
4.795
4.796
4.794
4.790
4.784
4.778
4.774
4.776
4.778
4.780
4.778
4.778
4.777
4.780
4.776
4.779
4.782
4.783
4.779
4.774
4.772
4.777
4.782
4.788
4.793
4.798
4.803
4.798
4.794
4.797
4.801
4.800
4.792
4.787
4.787
4.788
4.795
4.794
4.792
4.786
4.787
4.784
4.780
4.781
4.784
4.782
4.780
4.777
4.776
4.776
4.782
4.787
4.779
4.780
4.780
4.777
4.777
4.781
4.778
4.779
4.779
4.779
4.777
4.777
4.776
4.773
4.775
4.780
4.775
4.777
4.777
4.773
4.774
4.778
4.779
4.778
4.775
4.777
4.782
4.787
4.792
4.797
4.802
4.807
4.812
4.812
4.809
4.805
4.799
4.806
4.808
4.810
4.804
4.809
4.806
4.810
4.809
4.804
4.799
4.795
4.792
4.785
4.786
4.780
4.782
4.782
4.779
4.780
4.778
4.778
4.777
4.775
4.778
4.778
4.779
4.774
4.779
4.774
4.772
4.775
4.782
4.780
4.778
4.779
4.781
4.787
4.792
4.786
