2.994
3.332
3.517
3.636
3.720
3.785
3.853
3.898
3.937
3.955
4.005
4.002
4.038
4.071
4.105
4.089
4.099
4.120
4.140
4.164
4.181
4.201
4.219
4.240
4.257
4.271
4.244
4.208
4.200
4.216
4.223
4.226
4.239
4.245
4.255
4.265
4.271
4.281
4.280
4.290
4.302
4.301
4.310
4.320
4.329
4.327
4.334
4.342
4.348
4.349
4.351
4.358
4.368
4.374
4.370
4.372
4.384
4.386
4.395
4.399
4.406
4.399
4.401
4.410
4.416
4.418
4.425
4.429
4.436
4.442
4.428
4.431
4.441
4.440
4.445
4.451
4.458
4.459
4.461
4.468
4.472
4.475
4.468
4.467
4.472
4.475
4.472
4.481
4.482
4.489
4.494
4.494
4.499
4.500
4.505
4.508
4.513
4.516
4.516
4.523
4.513
4.509
4.512
4.512
4.510
4.514
4.516
4.519
4.524
4.533
4.534
4.534
4.531
4.539
4.535
4.542
4.546
4.553
4.551
4.555
4.560
4.555
4.562
4.560
4.562
4.569
4.575
4.572
4.578
4.577
4.564
4.558
4.559
4.558
4.564
4.564
4.560
4.564
4.568
4.572
4.573
4.580
4.576
4.577
4.581
4.588
4.578
4.582
4.582
4.585
4.587
4.591
4.595
4.597
4.598
4.597
4.603
4.601
4.606
4.608
4.611
4.613
4.609
4.607
4.612
4.616
4.616
4.615
4.619
4.620
4.620
4.623
4.630
4.631
4.634
4.638
4.633
4.634
4.639
4.638
4.645
4.646
4.642
4.640
4.645
4.642
4.647
4.643
4.634
4.624
4.614
4.618
4.616
4.618
4.623
4.623
4.630
4.629
4.633
4.624
4.636
4.634
4.645
4.637
4.638
4.635
4.642
4.637
4.647
4.643
4.649
4.648
4.657
4.645
4.642
4.643
4.652
4.643
4.647
4.646
4.644
4.648
4.649
4.653
4.647
4.659
4.655
4.657
4.657
4.656
4.663
4.660
4.666
4.667
4.666
4.671
4.671
4.671
4.672
4.671
4.674
4.671
4.668
4.676
4.675
4.678
4.682
4.682
4.682
4.690
4.686
4.687
4.685
4.673
4.680
4.681
4.674
4.682
4.683
4.687
4.688
4.679
4.677
4.684
4.683
4.686
4.691
4.692
4.688
4.690
4.697
4.692
4.688
4.701
4.697
4.697
4.699
4.708
4.705
4.703
4.710
4.716
4.712
4.706
4.712
4.714
4.710
4.709
4.712
4.708
4.705
4.714
4.720
4.717
4.716
4.720
4.724
4.723
4.721
4.723
4.729
4.725
4.729
4.727
4.732
4.731
4.729
4.728
4.738
4.733
4.726
4.720
4.726
4.727
4.724
4.719
4.732
4.734
4.734
4.733
4.734
4.731
4.729
4.728
4.724
4.733
4.731
4.728
4.729
4.727
4.738
4.738
4.740
4.738
4.731
4.742
4.745
4.741
4.742
4.741
4.745
4.758
4.749
4.750
4.748
4.745
4.757
4.757
4.757
4.753
4.754
4.755
4.760
4.755
4.749
4.744
4.740
4.734
4.729
4.723
4.729
4.731
4.727
4.727
4.721
4.722
4.732
4.727
4.718
4.716
4.713
4.722
4.732
4.731
4.731
4.730
4.723
4.731
4.734
4.734
4.737
4.734
4.732
4.736
4.732
4.739
4.734
4.730
4.729
4.730
4.729
4.738
4.745
4.745
4.743
4.738
4.738
4.734
4.742
4.749
4.751
4.749
4.748
4.747
4.748
4.745
4.754
4.766
4.760
4.755
4.748
4.741
4.738
4.742
4.740
4.741
4.737
4.734
4.732
4.738
4.746
4.753
4.745
4.739
4.742
4.741
4.732
4.734
4.734
4.736
4.732
4.733
4.732
4.731
4.731
4.741
4.751
4.745
4.742
4.741
4.738
4.730
4.731
4.738
4.748
4.745
4.743
4.744
4.745
4.747
4.742
4.742
4.743
4.752
4.753
4.760
4.756
4.755
4.754
4.757
4.756
4.753
4.754
4.763
4.757
4.761
4.764
4.760
4.753
4.747
4.749
4.750
4.759
4.757
4.760
4.760
4.754
4.755
4.756
4.758
4.757
4.757
4.762
4.772
4.767
4.769
4.768
4.760
4.759
4.760
4.764
4.763
4.762
4.771
4.778
4.780
4.775
4.775
4.779
4.779
4.781
4.777
4.771
4.772
4.776
4.783
4.778
4.772
4.768
4.771
4.770
4.764
4.764
4.761
4.767
4.774
4.776
4.779
4.781
4.777
4.773
4.777
4.771
4.769
4.770
4.763
4.771
4.779
4.779
4.774
4.770
4.771
4.778
4.779
4.778
4.772
4.773
4.771
4.771
4.780
4.787
4.793
4.789
4.786
4.786
4.788
4.782
4.785
4.790
4.785
4.782
4.780
4.782
4.791
4.798
4.790
4.789
4.791
4.789
4.782
4.784
4.785
4.784
4.782
4.786
4.786
4.789
4.796
4.803
4.804
4.803
4.802
4.798
4.799
4.803
4.801
4.800
4.799
4.800
4.797
4.798
4.799
4.806
4.815
4.819
4.815
4.811
4.810
4.809
4.807
4.803
4.805
4.811
4.808
4.803
4.797
4.801
4.808
4.814
4.815
4.816
4.810
4.806
4.801
4.797
4.793
4.789
4.785
4.782
4.785
4.789
4.797
4.797
4.799
4.795
4.790
4.794
4.791
4.792
4.791
4.790
4.786
4.786
4.786
4.786
4.782
4.790
4.796
4.800
4.796
4.790
4.786
4.781
4.779
4.778
4.779
4.776
4.775
4.779
4.774
4.775
4.775
4.782
4.788
4.795
4.799
4.800
4.797
4.795
4.793
4.792
4.791
4.789
4.791
4.790
4.790
4.787
4.790
4.784
4.785
4.782
4.790
4.795
4.804
4.809
4.808
4.806
4.805
4.803
4.802
4.801
4.801
4.805
4.805
4.808
4.802
4.798
4.794
4.787
4.786
4.790
4.797
4.805
4.808
4.803
4.805
4.801
4.804
4.801
4.805
4.801
4.805
4.803
4.802
4.795
4.791
4.792
4.790
4.789
4.790
4.790
4.796
4.801
4.807
4.801
4.804
4.808
4.802
4.798
4.796
4.801
4.804
4.801
4.801
4.801
4.804
4.800
4.799
4.798
4.796
4.795
4.797
4.798
4.802
4.808
4.813
4.819
4.824
4.820
4.815
4.814
4.812
4.814
4.818
4.817
4.816
4.814
4.815
4.816
4.818
4.814
4.815
4.814
4.815
4.816
4.810
4.809
4.808
4.816
4.821
4.823
4.824
4.825
4.823
4.830
4.827
4.822
4.818
4.817
4.816
4.814
4.813
4.809
4.808
4.808
4.805
4.811
4.813
4.812
4.808
4.809
4.810
4.814
4.821
4.825
4.831
4.834
4.829
4.830
4.827
4.830
4.832
4.830
4.834
4.828
4.835
4.834
4.832
4.830
4.827
4.828
4.824
4.825
4.831
4.830
4.827
4.827
4.824
4.823
4.826
4.828
4.834
4.839
4.843
4.850
4.846
4.845
4.846
4.847
4.848
4.847
4.845
4.845
4.845
4.841
4.837
4.833
4.834
4.836
4.835
4.834
4.838
4.833
4.831
4.834
4.832
4.828
4.824
4.828
4.834
4.831
4.827
4.825
4.827
4.827
4.827
4.828
4.827
4.825
4.823
4.819
4.820
4.819
4.824
4.822
4.818
4.823
4.821
4.819
4.821
4.822
4.820
4.822
4.821
4.820
4.821
4.820
4.824
4.830
4.837
4.841
4.837
4.833
4.835
4.831
4.831
4.830
4.827
4.823
4.824
4.825
4.826
4.827
4.821
4.820
4.820
4.825
4.824
4.817
4.818
4.816
4.816
4.817
4.816
4.817
4.815
4.812
4.816
4.820
4.826
4.830
4.835
4.841
4.842
4.847
4.853
4.853
4.851
4.850
4.848
4.844
4.848
4.847
4.846
4.844
4.840
4.838
4.834
4.834
4.834
4.834
4.831
4.827
4.832
4.833
4.835
4.834
4.829
4.827
4.827
4.825
4.826
4.827
4.824
4.830
4.834
4.838
4.843
4.849
4.854
4.853
4.853
4.853
4.854
4.850
4.851
4.847
4.849
4.855
4.856
4.860
4.859
4.855
4.853
4.852
4.851
4.853
4.853
4.849
4.853
4.849
4.846
4.844
4.840
4.841
4.840
4.834
4.835
4.836
4.842
4.838
4.840
4.841
4.845
4.844
4.849
4.853
4.857
4.863
4.867
4.872
4.871
4.868
4.867
4.868
4.868
4.871
4.867
4.864
4.862
4.868
4.870
4.872
4.871
4.868
4.868
4.869
4.868
4.868
4.867
4.864
4.865
4.863
4.860
4.858
4.857
4.861
4.859
4.855
4.854
