2.994
3.331
3.512
3.636
3.723
3.798
3.837
3.882
3.925
3.964
3.999
4.008
4.045
4.079
4.082
4.079
4.100
4.124
4.147
4.167
4.190
4.205
4.224
4.241
4.249
4.211
4.182
4.194
4.199
4.212
4.221
4.228
4.240
4.244
4.254
4.268
4.270
4.280
4.289
4.288
4.298
4.310
4.309
4.316
4.323
4.331
4.331
4.335
4.344
4.353
4.358
4.354
4.363
4.365
4.374
4.378
4.388
4.382
4.385
4.394
4.396
4.403
4.408
4.412
4.423
4.423
4.412
4.420
4.426
4.431
4.432
4.442
4.440
4.447
4.456
4.460
4.459
4.449
4.451
4.456
4.457
4.463
4.464
4.474
4.476
4.475
4.481
4.486
4.490
4.494
4.494
4.501
4.500
4.507
4.495
4.496
4.495
4.491
4.495
4.499
4.503
4.512
4.516
4.515
4.517
4.519
4.522
4.523
4.528
4.535
4.536
4.540
4.544
4.535
4.545
4.545
4.545
4.554
4.556
4.557
4.563
4.560
4.547
4.542
4.541
4.545
4.545
4.545
4.550
4.557
4.560
4.560
4.568
4.564
4.563
4.568
4.566
4.564
4.568
4.570
4.569
4.573
4.575
4.578
4.583
4.592
4.593
4.587
4.593
4.592
4.599
4.600
4.590
4.594
4.601
4.603
4.597
4.600
4.604
4.611
4.608
4.614
4.619
4.619
4.621
4.619
4.624
4.622
4.632
4.631
4.629
4.628
4.631
4.631
4.631
4.631
4.623
4.611
4.602
4.600
4.604
4.605
4.607
4.612
4.618
4.616
4.610
4.622
4.619
4.625
4.621
4.622
4.626
4.625
4.631
4.630
4.635
4.633
4.638
4.633
4.629
4.628
4.637
4.628
4.635
4.628
4.634
4.630
4.640
4.636
4.638
4.639
4.640
4.642
4.638
4.650
4.649
4.649
4.656
4.653
4.659
4.660
4.657
4.660
4.651
4.660
4.653
4.661
4.665
4.660
4.671
4.671
4.668
4.675
4.671
4.674
4.665
4.658
4.670
4.664
4.664
4.672
4.671
4.669
4.668
4.666
4.670
4.677
4.671
4.674
4.678
4.674
4.675
4.679
4.678
4.675
4.690
4.685
4.687
4.690
4.697
4.693
4.694
4.702
4.697
4.696
4.697
4.702
4.695
4.693
4.697
4.694
4.694
4.702
4.706
4.707
4.701
4.708
4.714
4.707
4.706
4.715
4.720
4.715
4.712
4.718
4.720
4.723
4.719
4.719
4.711
4.704
4.708
4.713
4.714
4.710
4.712
4.723
4.725
4.723
4.712
4.718
4.719
4.715
4.714
4.715
4.719
4.718
4.714
4.716
4.723
4.726
4.722
4.724
4.719
4.729
4.738
4.737
4.736
4.734
4.736
4.742
4.739
4.737
4.734
4.738
4.750
4.748
4.744
4.742
4.744
4.738
4.733
4.727
4.723
4.718
4.714
4.710
4.709
4.716
4.714
4.713
4.712
4.708
4.711
4.708
4.711
4.708
4.706
4.708
4.717
4.721
4.720
4.718
4.716
4.715
4.720
4.731
4.727
4.721
4.717
4.712
4.720
4.724
4.723
4.729
4.727
4.723
4.720
4.731
4.731
4.727
4.728
4.731
4.730
4.726
4.738
4.745
4.744
4.742
4.742
4.743
4.736
4.735
4.730
4.723
4.722
4.716
4.720
4.731
4.731
4.727
4.727
4.734
4.728
4.719
4.730
4.729
4.725
4.718
4.714
4.713
4.714
4.724
4.728
4.727
4.728
4.731
4.725
4.719
4.719
4.729
4.731
4.729
4.723
4.724
4.725
4.726
4.725
4.731
4.739
4.737
4.736
4.737
4.738
4.734
4.733
4.740
4.738
4.748
4.745
4.740
4.745
4.740
4.741
4.742
4.738
4.740
4.752
4.749
4.745
4.737
4.738
4.740
4.738
4.737
4.742
4.751
4.760
4.754
4.753
4.749
4.745
4.746
4.747
4.743
4.749
4.757
4.760
4.759
4.756
4.760
4.756
4.759
4.760
4.757
4.755
4.762
4.771
4.773
4.769
4.768
4.766
4.759
4.752
4.754
4.752
4.757
4.763
4.762
4.766
4.760
4.758
4.762
4.758
4.756
4.758
4.753
4.763
4.762
4.760
4.760
4.756
4.759
4.755
4.754
4.753
4.754
4.753
4.760
4.769
4.776
4.774
4.773
4.774
4.771
4.766
4.764
4.771
4.765
4.766
4.767
4.772
4.781
4.782
4.782
4.782
4.779
4.771
4.767
4.766
4.762
4.766
4.770
4.771
4.778
4.786
4.784
4.785
4.786
4.786
4.784
4.785
4.782
4.783
4.781
4.780
4.778
4.780
4.789
4.797
4.805
4.805
4.806
4.801
4.797
4.794
4.787
4.790
4.795
4.788
4.786
4.786
4.794
4.801
4.800
4.802
4.800
4.797
4.798
4.796
4.794
4.791
4.790
4.785
4.781
4.782
4.786
4.780
4.778
4.777
4.776
4.775
4.775
4.774
4.775
4.777
4.775
4.772
4.767
4.774
4.781
4.783
4.784
4.790
4.789
4.788
4.782
4.777
4.770
4.766
4.765
4.758
4.757
4.760
4.768
4.775
4.781
4.779
4.781
4.779
4.779
4.779
4.784
4.777
4.776
4.775
4.773
4.769
4.770
4.766
4.768
4.772
4.779
4.785
4.789
4.786
4.789
4.790
4.792
4.785
4.782
4.783
4.784
4.788
4.789
4.788
4.789
4.788
4.786
4.782
4.782
4.788
4.795
4.796
4.797
4.797
4.792
4.785
4.786
4.786
4.786
4.783
4.782
4.783
4.784
4.785
4.786
4.779
4.778
4.785
4.790
4.797
4.794
4.790
4.789
4.783
4.779
4.786
4.789
4.785
4.782
4.782
4.782
4.780
4.782
4.783
4.778
4.777
4.779
4.786
4.794
4.799
4.806
4.808
4.805
4.802
4.803
4.801
4.798
4.799
4.797
4.797
4.797
4.799
4.801
4.797
4.795
4.801
4.801
4.801
4.798
4.796
4.800
4.807
4.812
4.813
4.812
4.808
4.812
4.812
4.808
4.808
4.808
4.808
4.808
4.802
4.797
4.794
4.792
4.793
4.795
4.797
4.795
4.794
4.797
4.804
4.808
4.815
4.817
4.816
4.816
4.815
4.812
4.813
4.809
4.812
4.814
4.816
4.822
4.816
4.816
4.810
4.809
4.808
4.811
4.812
4.812
4.808
4.809
4.805
4.809
4.816
4.822
4.829
4.834
4.837
4.836
4.837
4.836
4.831
4.830
4.827
4.825
4.826
4.823
4.823
4.825
4.826
4.827
4.823
4.822
4.821
4.816
4.816
4.820
4.815
4.814
4.818
4.825
4.829
4.828
4.826
4.825
4.821
4.817
4.813
4.811
4.808
4.808
4.805
4.803
4.805
4.800
4.801
4.803
4.802
4.801
4.804
4.805
4.805
4.806
4.807
4.805
4.808
4.814
4.819
4.825
4.831
4.834
4.831
4.827
4.827
4.823
4.818
4.814
4.808
4.808
4.808
4.809
4.808
4.809
4.815
4.812
4.808
4.803
4.801
4.798
4.801
4.798
4.797
4.795
4.799
4.806
4.812
4.816
4.821
4.827
4.824
4.830
4.834
4.838
4.837
4.831
4.831
4.827
4.829
4.830
4.831
4.828
4.831
4.828
4.826
4.827
4.824
4.819
4.818
4.819
4.821
4.817
4.818
4.816
4.815
4.814
4.808
4.806
4.812
4.817
4.824
4.828
4.834
4.836
4.835
4.834
4.834
4.838
4.835
4.834
4.835
4.833
4.838
4.836
4.840
4.838
4.838
4.838
4.835
4.834
4.835
4.839
4.838
4.836
4.837
4.836
4.834
4.830
4.827
4.823
4.819
4.823
4.824
4.819
4.824
4.827
4.832
4.838
4.842
4.847
4.853
4.855
4.856
4.856
4.854
4.852
4.849
4.847
4.849
4.845
4.848
4.850
4.851
4.852
4.848
4.847
4.851
4.852
4.857
4.856
4.859
4.856
4.853
4.849
4.846
4.847
4.848
4.844
4.843
4.839
4.838
4.841
4.838
4.842
4.842
4.841
4.845
4.849
4.854
4.860
4.862
4.861
4.862
4.868
4.865
4.863
4.860
4.863
4.860
4.861
4.857
4.855
4.854
4.856
4.860
4.860
4.854
4.850
4.846
4.844
4.838
4.834
4.831
4.833
4.834
4.830
4.832
4.833
4.835
4.833
4.832
4.834
4.834
4.833
4.832
4.836
4.842
4.845
4.849
4.855
4.860
4.864
4.864
4.861
4.864
4.858
4.856
4.853
4.857
4.855
4.849
4.849
4.853
4.855
4.854
4.855
4.853
4.855
4.856
4.852
4.849
4.850
