2.992
3.326
3.500
3.606
3.707
3.759
3.852
3.831
3.894
3.943
3.996
3.976
3.928
3.959
3.986
4.004
4.023
4.035
4.059
4.072
4.094
4.102
4.116
4.139
4.135
4.155
4.176
4.164
4.183
4.198
4.209
4.212
4.208
4.227
4.234
4.246
4.256
4.273
4.250
4.257
4.271
4.273
4.288
4.300
4.304
4.312
4.317
4.330
4.333
4.315
4.309
4.319
4.333
4.333
4.333
4.341
4.352
4.357
4.367
4.363
4.356
4.376
4.379
4.395
4.389
4.405
4.410
4.408
4.403
4.411
4.408
4.387
4.391
4.389
4.388
4.398
4.407
4.414
4.407
4.408
4.415
4.415
4.422
4.432
4.430
4.428
4.425
4.441
4.446
4.457
4.454
4.454
4.442
4.438
4.456
4.455
4.448
4.461
4.469
4.470
4.486
4.475
4.480
4.490
4.474
4.489
4.492
4.490
4.507
4.503
4.514
4.512
4.502
4.499
4.500
4.496
4.499
4.508
4.509
4.509
4.517
4.510
4.530
4.527
4.532
4.537
4.534
4.542
4.538
4.547
4.542
4.536
4.522
4.507
4.505
4.512
4.502
4.497
4.512
4.507
4.504
4.533
4.524
4.521
4.538
4.532
4.528
4.535
4.517
4.511
4.522
4.517
4.506
4.513
4.506
4.497
4.522
4.519
4.511
4.519
4.533
4.527
4.523
4.524
4.536
4.527
4.528
4.530
4.543
4.539
4.527
4.531
4.557
4.557
4.549
4.542
4.553
4.571
4.567
4.557
4.543
4.554
4.554
4.555
4.544
4.553
4.561
4.558
4.550
4.555
4.558
4.571
4.569
4.563
4.554
4.559
4.579
4.577
4.574
4.575
4.575
4.571
4.593
4.594
4.586
4.589
4.590
4.581
4.599
4.598
4.600
4.596
4.586
4.587
4.598
4.602
4.589
4.577
4.564
4.570
4.586
4.591
4.581
4.566
4.560
4.557
4.575
4.578
4.575
4.571
4.574
4.571
4.570
4.576
4.591
4.590
4.584
4.581
4.575
4.574
4.574
4.579
4.594
4.577
4.581
4.572
4.569
4.577
4.574
4.576
4.594
4.598
4.598
4.600
4.601
4.596
4.597
4.595
4.583
4.599
4.617
4.621
4.606
4.603
4.593
4.593
4.592
4.595
4.593
4.610
4.623
4.622
4.622
4.621
4.617
4.616
4.612
4.619
4.610
4.609
4.625
4.641
4.627
4.625
4.630
4.634
4.628
4.625
4.623
4.612
4.614
4.627
4.626
4.624
4.617
4.615
4.614
4.612
4.609
4.603
4.601
4.600
4.615
4.620
4.622
4.626
4.616
4.624
4.625
4.615
4.618
4.615
4.616
4.616
4.608
4.619
4.633
4.634
4.629
4.622
4.629
4.634
4.633
4.637
4.634
4.633
4.626
4.620
4.612
4.621
4.635
4.649
4.656
4.654
4.653
4.663
4.660
4.652
4.650
4.645
4.646
4.645
4.644
4.640
4.641
4.637
4.647
4.660
4.673
4.670
4.670
4.664
4.661
4.648
4.651
4.652
4.656
4.655
4.646
4.638
4.630
4.632
4.638
4.651
4.658
4.659
4.671
4.662
4.659
4.660
4.655
4.658
4.655
4.649
4.656
4.656
4.657
4.652
4.648
4.641
4.637
4.649
4.659
4.672
4.684
4.695
4.699
4.690
4.685
4.696
4.686
4.687
4.689
4.687
4.689
4.684
4.691
4.686
4.678
4.670
4.665
4.660
4.664
4.668
4.679
4.691
4.702
4.705
4.704
4.704
4.705
4.706
4.695
4.684
4.684
4.685
4.686
4.684
4.677
4.671
4.664
4.658
4.651
4.646
4.651
4.662
4.672
4.683
4.693
4.687
4.687
4.679
4.671
4.663
4.655
4.656
4.662
4.668
4.663
4.660
4.652
4.646
4.641
4.636
4.632
4.631
4.633
4.628
4.639
4.649
4.659
4.670
4.680
4.682
4.680
4.676
4.671
4.668
4.673
4.672
4.666
4.669
4.673
4.676
4.671
4.665
4.656
4.654
4.663
4.660
4.664
4.661
4.663
4.658
4.658
4.661
4.650
4.646
4.656
4.666
4.670
4.665
4.668
4.666
4.657
4.658
4.666
4.670
4.665
4.663
4.661
4.653
4.659
4.656
4.664
4.658
4.652
4.654
4.653
4.649
4.649
4.649
4.651
4.651
4.658
4.658
4.654
4.653
4.658
4.651
4.655
4.665
4.674
4.683
4.686
4.687
4.682
4.673
4.664
4.664
4.662
4.668
4.672
4.670
4.667
4.664
4.661
4.668
4.673
4.668
4.664
4.660
4.660
4.651
4.647
4.649
4.648
4.645
4.650
4.644
4.650
4.652
4.644
4.649
4.644
4.644
4.650
4.658
4.667
4.675
4.684
4.692
4.691
4.703
4.701
4.693
4.684
4.683
4.681
4.685
4.673
4.672
4.669
4.668
4.672
4.669
4.668
4.667
4.673
4.672
4.673
4.671
4.664
4.660
4.653
4.664
4.668
4.663
4.669
4.668
4.667
4.670
4.668
4.661
4.670
4.663
4.665
4.668
4.664
4.656
4.664
4.672
4.679
4.687
4.695
4.695
4.700
4.703
4.705
4.703
4.699
4.695
4.698
4.694
4.689
4.695
4.702
4.708
4.708
4.709
4.705
4.707
4.707
4.705
4.695
4.692
4.687
4.684
4.689
4.683
4.680
4.679
4.673
4.678
4.689
4.688
4.682
4.679
4.675
4.671
4.672
4.666
4.663
4.665
4.675
4.680
4.686
4.683
4.681
4.678
4.669
4.675
4.682
4.689
4.697
4.704
4.711
4.718
4.726
4.733
4.738
4.730
4.725
4.733
4.735
4.735
4.728
4.727
4.722
4.723
4.725
4.727
4.730
4.733
4.725
4.726
4.723
4.719
4.711
4.710
4.716
4.720
4.720
4.721
4.718
4.728
4.721
4.722
4.724
4.723
4.730
4.728
4.721
4.714
4.707
4.711
4.707
4.698
4.698
4.699
4.700
4.699
4.701
4.696
4.688
4.681
4.684
4.688
4.689
4.681
4.678
4.684
4.691
4.698
4.704
4.711
4.718
4.713
4.713
4.715
4.724
4.724
4.724
4.724
4.721
4.715
4.710
4.710
4.709
4.711
4.719
4.721
4.720
4.717
4.717
4.714
4.710
4.704
4.701
4.699
4.697
4.690
4.686
4.681
4.678
4.676
4.678
4.688
4.684
4.684
4.688
4.682
4.679
4.684
4.679
4.689
4.689
4.690
4.690
4.696
4.693
4.690
4.687
4.675
4.676
4.679
4.672
4.677
4.677
4.682
4.680
4.673
4.671
4.675
4.670
4.670
4.666
4.669
4.668
4.672
4.676
4.682
4.688
4.694
4.700
4.706
4.712
4.718
4.724
4.730
4.736
4.740
4.739
4.737
4.734
4.737
4.731
4.736
4.736
4.734
4.740
4.729
4.727
4.726
4.717
4.724
4.720
4.715
4.717
4.721
4.729
4.734
4.736
4.735
4.730
4.728
4.726
4.726
4.723
4.717
4.716
4.726
4.728
4.726
4.726
4.727
4.723
4.725
4.721
4.727
4.726
4.720
4.719
4.722
4.727
4.724
4.724
4.717
4.715
4.720
4.718
4.717
4.718
4.714
4.710
4.713
4.711
4.705
4.704
4.705
4.704
4.700
4.705
4.708
4.710
4.716
4.721
4.716
4.716
4.714
4.708
4.709
4.717
4.713
4.709
4.704
4.700
4.697
4.692
4.692
4.698
4.703
4.709
4.714
4.720
4.725
4.730
4.736
4.741
4.747
4.752
4.758
4.757
4.756
4.757
4.750
4.748
4.747
4.738
4.735
4.732
4.728
4.721
4.715
4.714
4.721
4.722
4.717
4.718
4.711
4.708
4.699
4.703
4.702
4.705
4.709
4.706
4.708
4.711
4.711
4.703
4.704
4.700
4.696
4.695
4.703
4.703
4.704
4.708
4.702
4.701
4.701
4.708
4.707
4.703
4.710
4.708
4.713
4.704
4.702
4.701
4.697
4.695
4.697
4.692
4.687
4.683
4.686
4.681
4.682
4.684
4.688
4.685
4.679
4.681
4.682
4.684
4.676
4.669
4.670
4.674
4.676
4.669
4.664
4.666
4.667
4.668
4.664
4.663
4.658
4.659
4.661
4.658
4.658
4.666
4.667
4.671
4.675
4.669
4.664
4.667
4.666
4.669
4.674
4.679
4.684
4.689
4.693
4.698
4.703
4.708
4.713
4.718
4.722
4.727
4.732
4.737
4.742
4.746
4.751
4.756
4.761
4.766
4.771
4.768
4.762
4.764
4.767
4.768
4.772
4.768
4.767
4.773
4.772
4.765
4.764
4.764
4.763
4.756
4.758
