2.988
3.327
3.497
3.627
3.697
3.753
3.840
3.828
3.889
3.944
3.985
4.032
3.959
3.959
3.985
4.009
4.028
4.041
4.052
4.077
4.091
4.108
4.111
4.137
4.147
4.148
4.166
4.180
4.185
4.191
4.202
4.215
4.232
4.220
4.227
4.243
4.255
4.262
4.265
4.280
4.279
4.273
4.281
4.290
4.296
4.309
4.315
4.318
4.324
4.342
4.345
4.345
4.327
4.325
4.338
4.348
4.356
4.346
4.353
4.366
4.364
4.377
4.387
4.385
4.379
4.399
4.395
4.409
4.406
4.415
4.432
4.417
4.420
4.430
4.429
4.403
4.402
4.404
4.409
4.416
4.427
4.433
4.422
4.425
4.424
4.428
4.432
4.443
4.440
4.443
4.449
4.441
4.455
4.464
4.458
4.462
4.475
4.463
4.469
4.456
4.472
4.466
4.467
4.471
4.489
4.482
4.491
4.493
4.491
4.492
4.493
4.499
4.501
4.512
4.513
4.515
4.523
4.520
4.530
4.513
4.518
4.521
4.516
4.505
4.519
4.511
4.535
4.534
4.532
4.530
4.535
4.551
4.537
4.551
4.555
4.545
4.565
4.551
4.558
4.549
4.536
4.522
4.522
4.524
4.517
4.526
4.524
4.515
4.534
4.527
4.533
4.540
4.549
4.543
4.540
4.554
4.553
4.535
4.528
4.521
4.528
4.528
4.515
4.517
4.524
4.523
4.516
4.529
4.535
4.539
4.540
4.537
4.551
4.549
4.544
4.540
4.544
4.549
4.547
4.539
4.562
4.553
4.556
4.551
4.558
4.575
4.566
4.567
4.561
4.571
4.578
4.562
4.555
4.555
4.574
4.569
4.560
4.554
4.558
4.576
4.575
4.577
4.568
4.578
4.575
4.591
4.578
4.576
4.578
4.577
4.587
4.602
4.594
4.594
4.596
4.594
4.592
4.610
4.611
4.606
4.602
4.607
4.590
4.611
4.618
4.612
4.613
4.610
4.596
4.602
4.598
4.586
4.591
4.586
4.578
4.585
4.598
4.586
4.585
4.580
4.576
4.569
4.581
4.597
4.586
4.589
4.595
4.594
4.589
4.585
4.590
4.605
4.603
4.595
4.593
4.598
4.600
4.595
4.588
4.600
4.597
4.599
4.596
4.599
4.591
4.591
4.588
4.589
4.606
4.620
4.620
4.618
4.623
4.614
4.613
4.602
4.601
4.600
4.617
4.628
4.619
4.611
4.608
4.609
4.620
4.612
4.612
4.601
4.616
4.632
4.641
4.647
4.642
4.641
4.633
4.640
4.629
4.633
4.622
4.625
4.635
4.650
4.648
4.645
4.642
4.652
4.647
4.634
4.626
4.627
4.627
4.633
4.640
4.640
4.646
4.635
4.626
4.628
4.626
4.627
4.616
4.609
4.603
4.617
4.631
4.640
4.638
4.645
4.646
4.642
4.642
4.644
4.641
4.623
4.625
4.626
4.626
4.622
4.636
4.650
4.645
4.654
4.648
4.651
4.652
4.659
4.658
4.650
4.645
4.636
4.628
4.627
4.637
4.642
4.651
4.664
4.677
4.678
4.675
4.683
4.674
4.667
4.662
4.655
4.665
4.661
4.668
4.663
4.662
4.665
4.655
4.661
4.673
4.677
4.677
4.684
4.677
4.678
4.676
4.675
4.672
4.661
4.656
4.644
4.652
4.645
4.650
4.643
4.651
4.663
4.675
4.677
4.684
4.679
4.673
4.675
4.673
4.678
4.680
4.677
4.669
4.679
4.671
4.673
4.667
4.660
4.656
4.658
4.661
4.673
4.679
4.690
4.701
4.712
4.715
4.711
4.710
4.719
4.716
4.704
4.700
4.698
4.694
4.697
4.694
4.695
4.686
4.681
4.675
4.681
4.682
4.679
4.681
4.692
4.703
4.713
4.724
4.719
4.717
4.707
4.706
4.704
4.705
4.699
4.693
4.687
4.681
4.675
4.668
4.662
4.660
4.662
4.659
4.660
4.663
4.669
4.679
4.689
4.697
4.690
4.683
4.677
4.670
4.664
4.670
4.664
4.673
4.681
4.678
4.673
4.666
4.664
4.653
4.651
4.653
4.657
4.645
4.646
4.647
4.645
4.650
4.660
4.669
4.679
4.689
4.698
4.702
4.694
4.695
4.687
4.685
4.686
4.691
4.683
4.688
4.685
4.682
4.674
4.672
4.669
4.667
4.678
4.678
4.684
4.682
4.678
4.674
4.666
4.658
4.650
4.648
4.657
4.666
4.675
4.684
4.685
4.687
4.685
4.682
4.677
4.673
4.679
4.680
4.678
4.677
4.679
4.671
4.680
4.673
4.683
4.681
4.676
4.675
4.675
4.668
4.675
4.669
4.671
4.670
4.663
4.662
4.673
4.671
4.666
4.666
4.658
4.663
4.672
4.680
4.689
4.693
4.685
4.687
4.684
4.679
4.677
4.683
4.684
4.686
4.696
4.690
4.679
4.677
4.674
4.677
4.682
4.680
4.676
4.678
4.676
4.670
4.663
4.664
4.669
4.669
4.659
4.665
4.661
4.667
4.674
4.670
4.670
4.668
4.667
4.663
4.661
4.669
4.677
4.685
4.693
4.701
4.702
4.709
4.699
4.704
4.705
4.698
4.690
4.698
4.698
4.695
4.693
4.692
4.689
4.692
4.690
4.687
4.687
4.690
4.686
4.687
4.682
4.685
4.678
4.677
4.671
4.680
4.683
4.678
4.688
4.691
4.688
4.690
4.679
4.675
4.681
4.684
4.681
4.677
4.682
4.678
4.670
4.674
4.682
4.689
4.696
4.704
4.711
4.718
4.721
4.724
4.718
4.705
4.704
4.710
4.716
4.714
4.704
4.713
4.716
4.726
4.731
4.735
4.724
4.723
4.719
4.709
4.702
4.704
4.705
4.697
4.698
4.707
4.700
4.699
4.699
4.695
4.693
4.701
4.697
4.692
4.688
4.686
4.685
4.688
4.688
4.689
4.686
4.682
4.689
4.699
4.701
4.692
4.693
4.695
4.689
4.690
4.690
4.695
4.702
4.709
4.716
4.722
4.729
4.736
4.743
4.750
4.746
4.751
4.749
4.750
4.746
4.740
4.741
4.746
4.749
4.746
4.749
4.748
4.751
4.746
4.739
4.735
4.729
4.730
4.728
4.731
4.733
4.728
4.727
4.736
4.741
4.743
4.744
4.737
4.734
4.732
4.731
4.735
4.733
4.732
4.730
4.721
4.725
4.721
4.720
4.720
4.715
4.712
4.704
4.703
4.700
4.695
4.695
4.698
4.703
4.702
4.704
4.703
4.702
4.700
4.696
4.702
4.709
4.715
4.721
4.727
4.725
4.726
4.730
4.734
4.741
4.738
4.737
4.735
4.730
4.729
4.726
4.730
4.733
4.730
4.735
4.737
4.733
4.725
4.720
4.720
4.721
4.716
4.713
4.709
4.709
4.707
4.700
4.698
4.699
4.700
4.693
4.694
4.700
4.699
4.704
4.707
4.701
4.698
4.702
4.705
4.703
4.701
4.702
4.699
4.701
4.706
4.704
4.703
4.702
4.693
4.696
4.696
4.690
4.691
4.691
4.697
4.701
4.699
4.698
4.693
4.690
4.688
4.682
4.684
4.679
4.675
4.681
4.682
4.688
4.694
4.699
4.705
4.711
4.716
4.722
4.727
4.733
4.739
4.745
4.750
4.756
4.754
4.751
4.751
4.751
4.750
4.752
4.748
4.755
4.746
4.744
4.747
4.740
4.740
4.740
4.738
4.736
4.732
4.732
4.738
4.746
4.749
4.743
4.741
4.744
4.747
4.745
4.743
4.743
4.740
4.737
4.740
4.747
4.744
4.738
4.735
4.731
4.740
4.740
4.739
4.740
4.738
4.739
4.743
4.744
4.745
4.741
4.741
4.738
4.733
4.735
4.734
4.734
4.732
4.731
4.727
4.725
4.721
4.720
4.720
4.723
4.725
4.721
4.724
4.724
4.729
4.730
4.732
4.729
4.731
4.729
4.725
4.721
4.717
4.714
4.710
4.706
4.702
4.698
4.703
4.704
4.709
4.711
4.716
4.714
4.713
4.718
4.724
4.729
4.734
4.739
4.744
4.749
4.754
4.759
4.764
4.769
4.769
4.766
4.760
4.753
4.747
4.741
4.734
4.740
4.736
4.739
4.737
4.734
4.730
4.735
4.731
4.724
4.723
4.722
4.719
4.721
4.719
4.722
4.717
4.725
4.729
4.723
4.717
4.723
4.721
4.716
4.718
4.719
4.717
4.714
4.710
4.718
4.719
4.717
4.717
4.715
4.714
4.711
4.718
4.724
4.725
4.725
4.723
4.724
4.718
4.714
4.708
4.703
4.698
4.696
4.696
4.703
4.699
4.700
4.700
4.700
4.696
4.700
4.702
4.706
4.702
4.698
