2.992
3.329
3.512
3.635
3.717
3.770
3.824
3.891
3.905
3.959
4.005
3.976
4.012
4.046
4.078
4.107
4.131
4.159
4.161
4.110
4.100
4.120
4.131
4.138
4.149
4.167
4.174
4.192
4.194
4.208
4.218
4.225
4.238
4.238
4.249
4.260
4.273
4.264
4.275
4.288
4.295
4.301
4.300
4.304
4.319
4.324
4.338
4.335
4.334
4.338
4.346
4.354
4.357
4.368
4.371
4.378
4.369
4.371
4.374
4.384
4.393
4.395
4.399
4.408
4.413
4.417
4.424
4.431
4.408
4.414
4.415
4.419
4.432
4.431
4.434
4.438
4.442
4.450
4.456
4.460
4.462
4.464
4.464
4.469
4.475
4.482
4.481
4.483
4.464
4.458
4.464
4.466
4.475
4.479
4.483
4.480
4.487
4.485
4.484
4.491
4.498
4.497
4.501
4.505
4.511
4.510
4.519
4.518
4.511
4.515
4.520
4.523
4.527
4.531
4.534
4.535
4.539
4.538
4.542
4.549
4.550
4.560
4.552
4.556
4.560
4.559
4.552
4.538
4.525
4.535
4.536
4.529
4.541
4.546
4.544
4.542
4.550
4.549
4.552
4.560
4.557
4.565
4.552
4.551
4.549
4.553
4.560
4.556
4.563
4.560
4.566
4.568
4.568
4.578
4.572
4.584
4.579
4.581
4.577
4.576
4.582
4.587
4.586
4.594
4.593
4.600
4.594
4.600
4.591
4.589
4.593
4.595
4.591
4.592
4.588
4.603
4.601
4.605
4.597
4.605
4.608
4.603
4.616
4.617
4.615
4.623
4.620
4.625
4.624
4.620
4.615
4.619
4.626
4.630
4.627
4.636
4.634
4.630
4.643
4.642
4.635
4.649
4.649
4.638
4.653
4.649
4.635
4.641
4.642
4.639
4.651
4.649
4.637
4.649
4.645
4.633
4.648
4.646
4.648
4.644
4.654
4.653
4.653
4.658
4.664
4.658
4.656
4.666
4.671
4.668
4.668
4.674
4.673
4.672
4.671
4.682
4.678
4.669
4.664
4.655
4.648
4.646
4.638
4.630
4.629
4.644
4.646
4.641
4.642
4.641
4.653
4.653
4.648
4.642
4.651
4.647
4.654
4.647
4.648
4.660
4.653
4.653
4.653
4.650
4.667
4.672
4.676
4.666
4.664
4.669
4.673
4.671
4.660
4.652
4.657
4.660
4.657
4.657
4.649
4.660
4.660
4.652
4.642
4.642
4.657
4.661
4.654
4.644
4.646
4.649
4.657
4.657
4.653
4.655
4.656
4.650
4.665
4.668
4.668
4.668
4.670
4.666
4.665
4.679
4.675
4.672
4.676
4.671
4.660
4.672
4.675
4.669
4.671
4.674
4.675
4.669
4.678
4.682
4.683
4.683
4.675
4.671
4.678
4.680
4.694
4.696
4.695
4.697
4.690
4.686
4.684
4.691
4.703
4.696
4.686
4.679
4.684
4.683
4.683
4.694
4.695
4.694
4.692
4.690
4.684
4.677
4.684
4.696
4.694
4.696
4.692
4.697
4.695
4.693
4.684
4.693
4.705
4.713
4.711
4.704
4.703
4.707
4.700
4.697
4.695
4.707
4.706
4.708
4.712
4.708
4.708
4.708
4.703
4.701
4.706
4.718
4.730
4.723
4.725
4.729
4.728
4.724
4.720
4.720
4.712
4.721
4.733
4.740
4.738
4.729
4.719
4.716
4.720
4.720
4.720
4.721
4.731
4.734
4.727
4.721
4.716
4.708
4.701
4.701
4.701
4.708
4.714
4.713
4.711
4.715
4.711
4.712
4.712
4.710
4.703
4.701
4.705
4.704
4.709
4.710
4.708
4.708
4.703
4.699
4.698
4.699
4.700
4.697
4.708
4.716
4.709
4.716
4.719
4.716
4.716
4.708
4.714
4.716
4.714
4.712
4.711
4.713
4.719
4.729
4.728
4.721
4.719
4.716
4.708
4.713
4.717
4.713
4.716
4.712
4.712
4.715
4.725
4.720
4.719
4.720
4.719
4.713
4.708
4.712
4.712
4.708
4.712
4.713
4.711
4.713
4.722
4.731
4.739
4.732
4.727
4.724
4.733
4.732
4.731
4.731
4.730
4.731
4.728
4.724
4.727
4.727
4.731
4.738
4.742
4.742
4.744
4.738
4.739
4.737
4.741
4.734
4.733
4.727
4.730
4.721
4.716
4.723
4.727
4.737
4.744
4.749
4.744
4.748
4.752
4.748
4.746
4.749
4.749
4.745
4.741
4.740
4.741
4.745
4.747
4.751
4.749
4.742
4.750
4.757
4.766
4.767
4.763
4.760
4.760
4.762
4.764
4.764
4.757
4.754
4.749
4.745
4.750
4.753
4.746
4.748
4.750
4.753
4.760
4.768
4.761
4.754
4.750
4.743
4.741
4.738
4.739
4.738
4.738
4.740
4.738
4.738
4.744
4.745
4.741
4.735
4.742
4.749
4.758
4.756
4.749
4.754
4.755
4.753
4.749
4.742
4.736
4.735
4.738
4.738
4.738
4.735
4.731
4.738
4.739
4.738
4.739
4.740
4.746
4.751
4.760
4.768
4.766
4.767
4.769
4.773
4.763
4.757
4.755
4.756
4.750
4.754
4.750
4.749
4.752
4.749
4.747
4.743
4.739
4.740
4.742
4.742
4.750
4.757
4.764
4.771
4.780
4.778
4.783
4.784
4.785
4.784
4.783
4.776
4.766
4.765
4.761
4.762
4.761
4.767
4.769
4.767
4.763
4.764
4.761
4.757
4.758
4.759
4.755
4.762
4.769
4.775
4.783
4.790
4.797
4.798
4.796
4.795
4.796
4.790
4.793
4.790
4.788
4.786
4.783
4.781
4.783
4.786
4.786
4.783
4.775
4.768
4.768
4.776
4.777
4.776
4.775
4.778
4.775
4.778
4.786
4.792
4.799
4.801
4.796
4.794
4.788
4.783
4.779
4.770
4.769
4.778
4.780
4.778
4.780
4.771
4.774
4.773
4.774
4.771
4.772
4.771
4.766
4.762
4.764
4.765
4.760
4.764
4.769
4.776
4.782
4.789
4.796
4.803
4.805
4.800
4.799
4.798
4.799
4.795
4.794
4.794
4.796
4.792
4.788
4.792
4.791
4.792
4.791
4.787
4.788
4.789
4.791
4.792
4.791
4.795
4.791
4.786
4.783
4.786
4.782
4.786
4.785
4.783
4.788
4.795
4.802
4.806
4.813
4.820
4.824
4.822
4.823
4.823
4.815
4.816
4.820
4.823
4.821
4.823
4.826
4.825
4.829
4.828
4.824
4.822
4.813
4.809
4.807
4.801
4.797
4.801
4.802
4.798
4.796
4.792
4.797
4.803
4.812
4.808
4.802
4.801
4.801
4.805
4.810
4.816
4.820
4.816
4.812
4.808
4.805
4.801
4.797
4.795
4.791
4.797
4.797
4.797
4.791
4.789
4.785
4.787
4.785
4.779
4.777
4.771
4.771
4.776
4.775
4.775
4.777
4.776
4.775
4.781
4.779
4.776
4.771
4.771
4.772
4.776
4.783
4.789
4.793
4.798
4.796
4.792
4.790
4.794
4.791
4.794
4.791
4.792
4.788
4.787
4.786
4.786
4.785
4.783
4.785
4.783
4.783
4.786
4.788
4.786
4.780
4.781
4.780
4.779
4.780
4.778
4.782
4.783
4.779
4.775
4.771
4.773
4.775
4.771
4.774
4.770
4.772
4.768
4.769
4.773
4.779
4.784
4.788
4.794
4.799
4.801
4.799
4.797
4.794
4.790
4.791
4.792
4.790
4.789
4.791
4.794
4.796
4.798
4.805
4.803
4.802
4.801
4.802
4.798
4.794
4.794
4.791
4.795
4.793
4.795
4.797
4.795
4.788
4.784
4.779
4.776
4.779
4.779
4.782
4.781
4.780
4.781
4.782
4.778
4.780
4.784
4.783
4.778
4.775
4.771
4.777
4.783
4.788
4.792
4.797
4.803
4.801
4.797
4.797
4.800
4.799
4.794
4.788
4.789
4.791
4.794
4.794
4.794
4.790
4.789
4.786
4.784
4.783
4.786
4.783
4.783
4.779
4.778
4.777
4.781
4.786
4.783
4.783
4.783
4.780
4.778
4.782
4.783
4.779
4.781
4.777
4.778
4.779
4.776
4.775
4.775
4.779
4.778
4.777
4.779
4.775
4.773
4.777
4.779
4.780
4.778
4.777
4.781
4.786
4.790
4.796
4.800
4.804
4.809
4.815
4.812
4.807
4.803
4.804
4.809
4.812
4.808
4.805
4.809
4.807
4.809
4.805
4.801
4.797
4.797
4.790
4.787
4.785
4.783
4.782
4.784
4.779
4.784
4.782
4.778
4.777
4.779
4.779
4.781
4.782
4.776
4.777
4.778
4.775
4.778
4.783
4.781
