2.985
3.321
3.493
3.606
3.690
3.713
3.794
3.871
3.929
3.853
3.870
3.907
3.918
3.945
3.982
3.999
4.010
4.045
4.036
4.068
4.097
4.093
4.114
4.134
4.115
4.148
4.153
4.170
4.187
4.164
4.182
4.186
4.210
4.224
4.228
4.239
4.251
4.249
4.240
4.250
4.256
4.251
4.266
4.285
4.300
4.280
4.299
4.313
4.321
4.325
4.325
4.329
4.345
4.338
4.311
4.310
4.315
4.339
4.332
4.328
4.343
4.348
4.352
4.362
4.351
4.354
4.362
4.366
4.385
4.367
4.367
4.365
4.375
4.392
4.399
4.407
4.401
4.403
4.407
4.428
4.413
4.428
4.441
4.440
4.422
4.433
4.429
4.411
4.436
4.433
4.441
4.451
4.455
4.466
4.461
4.476
4.471
4.480
4.475
4.469
4.450
4.431
4.439
4.432
4.442
4.452
4.447
4.463
4.456
4.464
4.466
4.448
4.450
4.436
4.439
4.424
4.445
4.444
4.445
4.456
4.458
4.455
4.462
4.463
4.452
4.462
4.464
4.469
4.460
4.493
4.481
4.482
4.482
4.498
4.474
4.472
4.492
4.477
4.473
4.479
4.502
4.502
4.486
4.483
4.498
4.503
4.491
4.493
4.512
4.524
4.521
4.507
4.504
4.531
4.534
4.518
4.521
4.515
4.533
4.530
4.529
4.524
4.518
4.505
4.510
4.513
4.500
4.504
4.505
4.501
4.492
4.499
4.501
4.526
4.523
4.511
4.504
4.497
4.506
4.529
4.517
4.504
4.498
4.502
4.502
4.523
4.529
4.536
4.530
4.527
4.528
4.522
4.530
4.545
4.535
4.537
4.518
4.523
4.521
4.525
4.547
4.561
4.560
4.550
4.557
4.557
4.541
4.535
4.551
4.572
4.569
4.570
4.559
4.566
4.557
4.548
4.542
4.563
4.558
4.557
4.542
4.549
4.536
4.530
4.519
4.539
4.559
4.562
4.559
4.562
4.558
4.553
4.550
4.535
4.534
4.541
4.560
4.577
4.580
4.583
4.574
4.574
4.559
4.556
4.556
4.557
4.552
4.562
4.580
4.599
4.592
4.585
4.597
4.594
4.590
4.582
4.585
4.584
4.578
4.571
4.581
4.599
4.608
4.600
4.604
4.591
4.577
4.575
4.567
4.570
4.569
4.563
4.565
4.578
4.595
4.604
4.614
4.616
4.612
4.600
4.594
4.592
4.588
4.601
4.609
4.601
4.595
4.586
4.592
4.601
4.617
4.633
4.640
4.638
4.626
4.617
4.620
4.621
4.615
4.617
4.605
4.608
4.616
4.606
4.610
4.602
4.613
4.628
4.643
4.642
4.634
4.625
4.616
4.608
4.602
4.608
4.600
4.589
4.592
4.594
4.594
4.591
4.588
4.596
4.610
4.607
4.603
4.612
4.598
4.587
4.594
4.579
4.580
4.577
4.575
4.569
4.582
4.574
4.582
4.579
4.574
4.576
4.582
4.591
4.604
4.617
4.623
4.623
4.625
4.618
4.608
4.615
4.603
4.591
4.582
4.575
4.579
4.570
4.565
4.561
4.564
4.559
4.568
4.570
4.568
4.577
4.590
4.602
4.614
4.627
4.638
4.623
4.614
4.616
4.607
4.605
4.609
4.604
4.596
4.593
4.596
4.602
4.599
4.599
4.594
4.581
4.570
4.574
4.578
4.576
4.578
4.574
4.585
4.597
4.608
4.620
4.612
4.613
4.620
4.630
4.628
4.628
4.623
4.624
4.624
4.619
4.606
4.606
4.602
4.596
4.593
4.599
4.602
4.594
4.589
4.579
4.588
4.589
4.584
4.591
4.589
4.585
4.581
4.591
4.602
4.613
4.624
4.635
4.646
4.635
4.631
4.634
4.628
4.621
4.629
4.625
4.625
4.627
4.623
4.621
4.620
4.625
4.621
4.608
4.608
4.597
4.606
4.605
4.595
4.604
4.611
4.612
4.616
4.609
4.605
4.594
4.596
4.603
4.598
4.606
4.606
4.616
4.626
4.636
4.646
4.656
4.663
4.666
4.666
4.662
4.660
4.662
4.660
4.654
4.645
4.652
4.646
4.647
4.648
4.637
4.640
4.635
4.639
4.634
4.648
4.638
4.634
4.640
4.643
4.642
4.652
4.653
4.647
4.635
4.638
4.636
4.629
4.624
4.628
4.629
4.630
4.633
4.625
4.626
4.637
4.633
4.642
4.651
4.660
4.668
4.665
4.665
4.666
4.672
4.685
4.685
4.689
4.684
4.675
4.669
4.662
4.656
4.648
4.639
4.630
4.625
4.620
4.620
4.617
4.608
4.602
4.602
4.612
4.620
4.622
4.622
4.614
4.621
4.621
4.617
4.618
4.616
4.616
4.615
4.607
4.603
4.598
4.599
4.607
4.611
4.609
4.600
4.602
4.609
4.617
4.626
4.634
4.642
4.650
4.659
4.667
4.674
4.671
4.670
4.663
4.665
4.657
4.655
4.655
4.654
4.656
4.661
4.653
4.650
4.643
4.645
4.653
4.650
4.654
4.655
4.650
4.654
4.652
4.646
4.640
4.646
4.646
4.649
4.641
4.654
4.647
4.648
4.647
4.642
4.636
4.638
4.635
4.635
4.639
4.641
4.635
4.632
4.627
4.626
4.620
4.621
4.622
4.617
4.622
4.622
4.632
4.632
4.631
4.635
4.645
4.646
4.640
4.634
4.633
4.640
4.648
4.655
4.663
4.670
4.678
4.685
4.693
4.693
4.693
4.687
4.697
4.695
4.700
4.697
4.683
4.685
4.681
4.679
4.679
4.675
4.671
4.663
4.669
4.658
4.649
4.646
4.646
4.644
4.656
4.647
4.653
4.649
4.645
4.641
4.636
4.629
4.627
4.633
4.641
4.641
4.638
4.632
4.635
4.632
4.624
4.617
4.616
4.619
4.629
4.624
4.630
4.622
4.620
4.624
4.630
4.624
4.618
4.623
4.622
4.610
4.612
4.613
4.605
4.601
4.607
4.607
4.604
4.596
4.589
4.589
4.595
4.602
4.609
4.615
4.622
4.629
4.635
4.642
4.648
4.655
4.662
4.668
4.675
4.678
4.684
4.680
4.682
4.693
4.684
4.686
4.684
4.680
4.676
4.682
4.691
4.697
4.706
4.700
4.693
4.685
4.689
4.685
4.692
4.689
4.689
4.681
4.687
4.688
4.685
4.682
4.679
4.685
4.684
4.673
4.672
4.666
4.667
4.662
4.667
4.670
4.661
4.659
4.662
4.668
4.667
4.657
4.656
4.657
4.654
4.659
4.653
4.646
4.639
4.641
4.635
4.638
4.625
4.624
4.635
4.634
4.630
4.629
4.622
4.616
4.610
4.614
4.614
4.613
4.613
4.618
4.619
4.621
4.620
4.611
4.609
4.601
4.604
4.603
4.604
4.610
4.606
4.603
4.605
4.615
4.620
4.622
4.628
4.622
4.620
4.616
4.620
4.618
4.616
4.618
4.624
4.630
4.636
4.642
4.647
4.653
4.659
4.665
4.670
4.676
4.682
4.688
4.694
4.690
4.685
4.680
4.684
4.680
4.674
4.682
4.679
4.673
4.675
4.671
4.673
4.679
4.675
4.673
4.667
4.666
4.658
4.662
4.654
4.648
4.648
4.656
4.665
4.663
4.663
4.660
4.664
4.660
4.666
4.666
4.670
4.666
4.661
4.662
4.670
4.678
4.682
4.680
4.677
4.687
4.695
4.691
4.688
4.688
4.694
4.690
4.680
4.678
4.681
4.681
4.680
4.679
4.675
4.677
4.668
4.667
4.660
4.653
4.653
4.648
4.649
4.648
4.641
4.634
4.628
4.621
4.619
4.619
4.623
4.619
4.625
4.629
4.626
4.627
4.633
4.633
4.635
4.638
4.642
4.648
4.638
4.638
4.636
4.635
4.635
4.636
4.634
4.636
4.634
4.633
4.627
4.629
4.626
4.623
4.621
4.619
4.613
4.614
4.609
4.608
4.607
4.615
4.611
4.613
4.613
4.607
4.611
4.619
4.619
4.617
4.625
4.627
4.624
4.630
4.637
4.644
4.651
4.644
4.648
4.648
4.647
4.646
4.641
4.645
4.650
4.655
4.660
4.665
4.670
4.675
4.679
4.684
4.689
4.694
4.699
4.704
4.709
4.714
4.719
4.724
4.729
4.732
4.737
4.734
4.731
4.726
4.724
4.721
4.719
4.713
4.713
4.708
4.707
4.709
4.713
4.714
4.714
4.712
4.715
4.721
4.722
4.724
4.725
4.731
4.724
4.717
4.709
4.710
4.715
4.709
4.701
4.699
4.697
4.689
4.685
4.684
4.680
4.685
4.681
4.683
4.679
4.687
4.695
4.696
4.696
4.694
4.703
4.702
4.707
4.700
4.695
4.689
