2.963
3.304
3.436
3.534
3.687
3.702
3.683
3.739
3.764
3.813
3.845
3.899
3.914
3.934
3.953
3.976
3.972
4.012
4.013
4.051
4.081
4.055
4.056
4.090
4.092
4.124
4.136
4.139
4.155
4.153
4.140
4.151
4.153
4.162
4.166
4.195
4.203
4.197
4.181
4.214
4.241
4.228
4.241
4.244
4.268
4.248
4.261
4.264
4.264
4.288
4.308
4.295
4.323
4.307
4.291
4.265
4.272
4.293
4.282
4.270
4.249
4.277
4.264
4.296
4.278
4.298
4.275
4.315
4.301
4.331
4.315
4.327
4.295
4.317
4.314
4.299
4.343
4.341
4.330
4.357
4.361
4.350
4.353
4.354
4.360
4.374
4.342
4.337
4.331
4.328
4.349
4.343
4.344
4.328
4.364
4.344
4.330
4.342
4.373
4.366
4.350
4.346
4.382
4.372
4.385
4.374
4.368
4.408
4.395
4.385
4.390
4.391
4.416
4.416
4.386
4.363
4.371
4.405
4.406
4.389
4.378
4.359
4.382
4.418
4.414
4.399
4.394
4.405
4.398
4.407
4.441
4.446
4.446
4.425
4.407
4.421
4.418
4.441
4.423
4.427
4.418
4.413
4.418
4.411
4.417
4.447
4.468
4.472
4.473
4.462
4.447
4.461
4.441
4.426
4.455
4.484
4.482
4.487
4.463
4.455
4.467
4.461
4.463
4.463
4.465
4.485
4.469
4.460
4.439
4.425
4.408
4.396
4.390
4.405
4.431
4.456
4.473
4.469
4.465
4.449
4.430
4.439
4.438
4.429
4.407
4.392
4.415
4.438
4.462
4.472
4.451
4.456
4.449
4.451
4.440
4.416
4.419
4.430
4.426
4.421
4.403
4.425
4.447
4.468
4.477
4.474
4.468
4.449
4.444
4.451
4.455
4.453
4.442
4.420
4.409
4.411
4.415
4.410
4.425
4.445
4.465
4.485
4.483
4.481
4.473
4.479
4.475
4.454
4.453
4.453
4.461
4.453
4.448
4.450
4.444
4.457
4.456
4.442
4.426
4.441
4.459
4.478
4.496
4.511
4.510
4.515
4.501
4.506
4.525
4.524
4.504
4.498
4.510
4.497
4.488
4.503
4.490
4.473
4.486
4.487
4.483
4.483
4.492
4.477
4.457
4.471
4.488
4.504
4.521
4.505
4.490
4.502
4.511
4.498
4.482
4.470
4.472
4.484
4.474
4.484
4.473
4.465
4.464
4.458
4.451
4.453
4.460
4.451
4.444
4.452
4.434
4.421
4.428
4.444
4.459
4.474
4.489
4.504
4.519
4.534
4.534
4.531
4.528
4.535
4.527
4.530
4.530
4.528
4.518
4.504
4.514
4.516
4.507
4.490
4.493
4.509
4.505
4.507
4.510
4.523
4.531
4.534
4.514
4.521
4.509
4.521
4.518
4.517
4.500
4.497
4.494
4.483
4.473
4.483
4.497
4.510
4.508
4.514
4.523
4.512
4.503
4.501
4.514
4.511
4.525
4.526
4.520
4.519
4.506
4.494
4.479
4.472
4.467
4.462
4.457
4.459
4.473
4.482
4.472
4.475
4.477
4.472
4.476
4.466
4.464
4.471
4.457
4.454
4.455
4.459
4.472
4.490
4.491
4.477
4.486
4.479
4.474
4.463
4.468
4.459
4.471
4.483
4.495
4.507
4.518
4.530
4.541
4.540
4.528
4.532
4.524
4.514
4.502
4.497
4.508
4.503
4.497
4.499
4.506
4.506
4.497
4.494
4.498
4.505
4.508
4.506
4.505
4.520
4.523
4.507
4.511
4.495
4.482
4.475
4.483
4.482
4.472
4.473
4.482
4.476
4.465
4.470
4.455
4.446
4.448
4.452
4.469
4.468
4.464
4.470
4.464
4.476
4.479
4.476
4.472
4.456
4.458
4.448
4.458
4.460
4.451
4.446
4.454
4.463
4.472
4.482
4.492
4.503
4.513
4.523
4.533
4.543
4.553
4.563
4.568
4.563
4.552
4.547
4.537
4.549
4.548
4.541
4.546
4.542
4.539
4.533
4.540
4.559
4.544
4.543
4.547
4.544
4.540
4.532
4.524
4.525
4.519
4.521
4.517
4.524
4.528
4.533
4.535
4.523
4.520
4.515
4.508
4.505
4.506
4.501
4.507
4.494
4.501
4.515
4.524
4.525
4.510
4.507
4.515
4.524
4.523
4.509
4.512
4.522
4.527
4.513
4.505
4.500
4.504
4.499
4.493
4.504
4.504
4.504
4.497
4.487
4.484
4.485
4.487
4.491
4.498
4.495
4.501
4.491
4.491
4.485
4.490
4.495
4.503
4.485
4.482
4.480
4.488
4.483
4.485
4.485
4.494
4.502
4.510
4.519
4.527
4.535
4.544
4.552
4.560
4.549
4.541
4.534
4.543
4.539
4.540
4.544
4.546
4.540
4.529
4.518
4.519
4.523
4.521
4.516
4.513
4.517
4.529
4.540
4.546
4.532
4.528
4.538
4.529
4.529
4.525
4.512
4.510
4.524
4.532
4.529
4.527
4.532
4.528
4.535
4.529
4.526
4.531
4.530
4.530
4.516
4.513
4.507
4.503
4.510
4.504
4.501
4.488
4.491
4.500
4.493
4.495
4.498
4.489
4.486
4.482
4.481
4.484
4.482
4.470
4.473
4.467
4.476
4.480
4.482
4.481
4.475
4.465
4.462
4.468
4.470
4.465
4.482
4.466
4.461
4.460
4.457
4.469
4.470
4.465
4.465
4.463
4.456
4.465
4.469
4.464
4.463
4.467
4.463
4.462
4.466
4.473
4.484
4.486
4.489
4.499
4.509
4.518
4.515
4.523
4.529
4.515
4.503
4.509
4.506
4.498
4.499
4.493
4.486
4.478
4.476
4.477
4.483
4.489
4.489
4.488
4.473
4.481
4.479
4.488
4.470
4.474
4.468
4.475
4.482
4.488
4.495
4.502
4.508
4.515
4.522
4.528
4.535
4.542
4.548
4.555
4.562
4.568
4.575
4.582
4.579
4.580
4.575
4.582
4.570
4.564
4.570
4.564
4.569
4.580
4.580
4.584
4.593
4.587
4.576
4.574
4.567
4.557
4.551
4.555
4.565
4.555
4.557
4.565
4.553
4.560
4.555
4.548
4.551
4.547
4.544
4.540
4.542
4.541
4.543
4.550
4.538
4.536
4.546
4.556
4.567
4.575
4.573
4.573
4.568
4.558
4.554
4.560
4.562
4.564
4.570
4.574
4.575
4.566
4.554
4.558
4.546
4.541
4.530
4.535
4.524
4.528
4.526
4.525
4.528
4.530
4.532
4.540
4.548
4.557
4.565
4.555
4.545
4.536
4.530
4.517
4.519
4.525
4.527
4.522
4.522
4.520
4.531
4.537
4.532
4.530
4.532
4.528
4.527
4.521
4.515
4.511
4.505
4.502
4.494
4.490
4.489
4.486
4.485
4.480
4.472
4.473
4.475
4.471
4.468
4.471
4.478
4.476
4.487
4.487
4.480
4.479
4.487
4.486
4.483
4.483
4.490
4.493
4.494
4.500
4.509
4.503
4.505
4.505
4.495
4.497
4.492
4.491
4.485
4.475
4.475
4.470
4.460
4.468
4.472
4.475
4.467
4.461
4.453
4.449
4.452
4.442
4.437
4.439
4.448
4.448
4.446
4.446
4.438
4.443
4.446
4.456
4.448
4.448
4.456
4.455
4.452
4.455
4.466
4.456
4.458
4.452
4.450
4.450
4.444
4.444
4.442
4.443
4.441
4.437
4.447
4.456
4.464
4.456
4.453
4.463
4.457
4.454
4.460
4.451
4.449
4.446
4.437
4.433
4.430
4.429
4.426
4.428
4.424
4.420
4.431
4.434
4.431
4.432
4.431
4.432
4.428
4.433
4.431
4.436
4.441
4.446
4.451
4.456
4.461
4.466
4.471
4.476
4.481
4.486
4.491
4.496
4.501
4.506
4.511
4.516
4.521
4.526
4.531
4.537
4.542
4.546
4.551
4.556
4.561
4.566
4.571
4.576
4.581
4.586
4.591
4.596
4.601
4.607
4.612
4.616
4.621
4.626
4.631
4.636
4.642
4.640
4.632
4.630
4.626
4.622
4.620
4.622
4.618
4.613
4.607
4.597
4.599
4.593
4.599
4.598
4.591
4.587
4.587
4.590
4.597
4.592
4.593
4.593
4.592
4.589
4.590
4.596
4.591
4.594
4.584
4.583
4.577
4.580
4.577
4.580
4.573
4.569
4.563
4.569
4.575
4.569
4.562
4.564
4.562
4.563
4.572
4.577
4.574
4.574
4.576
4.577
4.571
4.573
4.570
4.566
4.555
4.554
4.554
4.561
4.568
4.560
4.552
4.544
4.544
4.552
4.560
4.569
4.578
4.575
4.573
4.577
4.573
4.571
4.567
