2.992
3.332
3.517
3.630
3.714
3.786
3.853
3.891
3.938
3.956
4.002
4.005
4.040
4.074
4.108
4.082
4.097
4.121
4.141
4.167
4.182
4.205
4.223
4.233
4.249
4.272
4.237
4.201
4.201
4.216
4.221
4.230
4.240
4.244
4.256
4.261
4.270
4.282
4.283
4.294
4.303
4.302
4.311
4.321
4.319
4.324
4.334
4.343
4.352
4.348
4.355
4.360
4.371
4.375
4.371
4.375
4.382
4.387
4.394
4.400
4.407
4.395
4.405
4.411
4.415
4.420
4.423
4.430
4.438
4.434
4.429
4.431
4.440
4.442
4.446
4.455
4.453
4.461
4.467
4.471
4.468
4.477
4.462
4.469
4.470
4.469
4.479
4.477
4.489
4.490
4.489
4.496
4.495
4.504
4.509
4.512
4.508
4.515
4.517
4.520
4.503
4.512
4.509
4.509
4.512
4.516
4.519
4.521
4.531
4.527
4.531
4.534
4.533
4.537
4.539
4.545
4.547
4.554
4.552
4.559
4.550
4.557
4.563
4.559
4.568
4.573
4.572
4.573
4.579
4.567
4.557
4.559
4.555
4.560
4.563
4.560
4.564
4.567
4.569
4.572
4.575
4.573
4.577
4.578
4.585
4.575
4.579
4.581
4.585
4.583
4.591
4.590
4.596
4.600
4.599
4.601
4.601
4.605
4.607
4.612
4.612
4.608
4.605
4.609
4.615
4.614
4.612
4.614
4.618
4.622
4.623
4.628
4.631
4.631
4.632
4.634
4.631
4.639
4.642
4.646
4.645
4.646
4.637
4.644
4.645
4.644
4.640
4.631
4.623
4.614
4.613
4.619
4.616
4.625
4.618
4.630
4.629
4.628
4.627
4.634
4.634
4.642
4.635
4.633
4.638
4.639
4.642
4.642
4.643
4.646
4.646
4.650
4.640
4.639
4.645
4.649
4.643
4.647
4.643
4.644
4.643
4.652
4.648
4.653
4.654
4.650
4.657
4.655
4.664
4.660
4.660
4.663
4.668
4.669
4.670
4.671
4.670
4.668
4.670
4.671
4.665
4.675
4.673
4.674
4.683
4.682
4.679
4.690
4.689
4.683
4.686
4.677
4.676
4.680
4.675
4.683
4.679
4.682
4.689
4.677
4.675
4.686
4.683
4.682
4.689
4.690
4.689
4.688
4.695
4.691
4.686
4.697
4.697
4.696
4.698
4.705
4.703
4.701
4.708
4.713
4.709
4.704
4.711
4.712
4.708
4.710
4.711
4.707
4.705
4.715
4.717
4.716
4.714
4.720
4.722
4.721
4.719
4.723
4.727
4.724
4.725
4.726
4.731
4.731
4.728
4.726
4.739
4.732
4.725
4.723
4.723
4.724
4.722
4.721
4.731
4.731
4.731
4.729
4.731
4.729
4.730
4.727
4.723
4.732
4.728
4.723
4.727
4.729
4.734
4.737
4.736
4.734
4.734
4.742
4.741
4.740
4.739
4.738
4.749
4.756
4.746
4.746
4.746
4.749
4.755
4.757
4.755
4.751
4.753
4.759
4.758
4.753
4.747
4.742
4.738
4.732
4.727
4.721
4.731
4.727
4.730
4.723
4.716
4.727
4.730
4.721
4.716
4.713
4.717
4.729
4.727
4.727
4.728
4.726
4.725
4.731
4.733
4.732
4.734
4.731
4.733
4.731
4.738
4.734
4.731
4.727
4.728
4.727
4.734
4.745
4.744
4.745
4.736
4.738
4.734
4.740
4.747
4.749
4.749
4.748
4.749
4.745
4.744
4.751
4.763
4.762
4.757
4.749
4.742
4.738
4.741
4.737
4.739
4.737
4.733
4.731
4.736
4.745
4.750
4.745
4.738
4.740
4.738
4.732
4.736
4.732
4.734
4.729
4.731
4.729
4.730
4.731
4.739
4.749
4.746
4.742
4.739
4.735
4.730
4.729
4.739
4.748
4.744
4.742
4.744
4.743
4.746
4.740
4.739
4.743
4.752
4.751
4.758
4.756
4.753
4.753
4.752
4.756
4.750
4.754
4.763
4.754
4.760
4.764
4.758
4.751
4.747
4.748
4.752
4.759
4.755
4.759
4.757
4.751
4.757
4.756
4.755
4.756
4.757
4.765
4.766
4.767
4.766
4.767
4.758
4.759
4.760
4.762
4.760
4.765
4.774
4.779
4.775
4.772
4.779
4.775
4.779
4.778
4.774
4.767
4.772
4.779
4.780
4.775
4.772
4.767
4.772
4.765
4.760
4.760
4.761
4.770
4.779
4.776
4.779
4.776
4.774
4.776
4.774
4.768
4.768
4.765
4.768
4.775
4.777
4.775
4.768
4.770
4.775
4.773
4.775
4.772
4.769
4.768
4.771
4.776
4.785
4.792
4.788
4.783
4.782
4.787
4.782
4.783
4.788
4.786
4.780
4.779
4.782
4.790
4.794
4.790
4.788
4.789
4.788
4.779
4.782
4.781
4.783
4.781
4.783
4.784
4.788
4.795
4.804
4.803
4.801
4.801
4.796
4.798
4.802
4.798
4.797
4.798
4.797
4.795
4.797
4.798
4.807
4.814
4.818
4.814
4.810
4.808
4.809
4.806
4.802
4.803
4.809
4.806
4.802
4.797
4.802
4.809
4.813
4.814
4.813
4.809
4.805
4.800
4.796
4.794
4.788
4.784
4.782
4.784
4.791
4.795
4.794
4.795
4.793
4.789
4.791
4.790
4.793
4.789
4.788
4.784
4.785
4.787
4.783
4.784
4.791
4.798
4.797
4.795
4.790
4.784
4.779
4.776
4.777
4.776
4.775
4.775
4.775
4.772
4.774
4.778
4.783
4.792
4.797
4.800
4.797
4.797
4.791
4.792
4.790
4.787
4.786
4.787
4.786
4.786
4.788
4.786
4.782
4.783
4.786
4.792
4.799
4.808
4.809
4.806
4.802
4.805
4.799
4.798
4.801
4.801
4.802
4.808
4.804
4.798
4.794
4.790
4.785
4.789
4.794
4.801
4.807
4.803
4.802
4.803
4.801
4.803
4.802
4.801
4.804
4.801
4.801
4.797
4.793
4.790
4.790
4.786
4.786
4.789
4.794
4.800
4.807
4.801
4.802
4.805
4.801
4.797
4.796
4.800
4.801
4.800
4.797
4.800
4.801
4.798
4.797
4.798
4.794
4.794
4.797
4.797
4.801
4.808
4.812
4.819
4.823
4.819
4.815
4.811
4.810
4.814
4.818
4.817
4.812
4.814
4.813
4.816
4.816
4.812
4.813
4.812
4.813
4.814
4.809
4.808
4.810
4.816
4.821
4.822
4.823
4.822
4.824
4.828
4.826
4.822
4.815
4.817
4.815
4.812
4.812
4.808
4.805
4.806
4.805
4.811
4.813
4.809
4.805
4.811
4.810
4.816
4.821
4.827
4.832
4.833
4.826
4.828
4.827
4.833
4.827
4.828
4.831
4.830
4.834
4.831
4.829
4.827
4.826
4.825
4.821
4.828
4.829
4.828
4.824
4.822
4.823
4.825
4.824
4.830
4.835
4.841
4.846
4.847
4.845
4.842
4.848
4.844
4.845
4.844
4.845
4.841
4.840
4.838
4.834
4.833
4.835
4.836
4.835
4.836
4.834
4.828
4.832
4.831
4.831
4.825
4.827
4.831
4.834
4.828
4.824
4.825
4.824
4.827
4.826
4.823
4.824
4.822
4.818
4.817
4.816
4.820
4.820
4.816
4.821
4.820
4.816
4.819
4.820
4.817
4.821
4.817
4.818
4.819
4.820
4.823
4.829
4.836
4.840
4.838
4.834
4.833
4.831
4.828
4.827
4.825
4.821
4.822
4.823
4.823
4.826
4.820
4.821
4.817
4.824
4.823
4.816
4.817
4.815
4.816
4.815
4.816
4.816
4.811
4.812
4.816
4.821
4.827
4.831
4.836
4.838
4.841
4.848
4.852
4.851
4.847
4.849
4.846
4.842
4.847
4.845
4.847
4.843
4.839
4.835
4.834
4.834
4.831
4.832
4.828
4.827
4.831
4.831
4.834
4.831
4.825
4.826
4.827
4.823
4.823
4.826
4.825
4.831
4.834
4.840
4.846
4.851
4.852
4.851
4.852
4.856
4.852
4.848
4.849
4.846
4.850
4.851
4.858
4.856
4.855
4.853
4.849
4.848
4.852
4.853
4.850
4.849
4.850
4.846
4.846
4.840
4.838
4.838
4.836
4.831
4.834
4.838
4.838
4.837
4.839
4.842
4.842
4.846
4.852
4.856
4.860
4.865
4.871
4.872
4.868
4.867
4.866
4.865
4.868
4.867
4.864
4.860
4.866
4.868
4.871
4.868
4.868
4.867
4.868
4.867
4.866
4.865
4.863
4.864
4.861
4.860
4.858
4.857
4.858
4.857
4.855
4.854
4.852
4.853
4.850
4.849
4.844
4.846
4.852
