2.994
3.322
3.506
3.587
3.669
3.774
3.679
3.730
3.773
3.826
3.861
3.866
3.926
3.925
3.973
3.971
4.013
4.038
4.018
4.033
4.053
4.083
4.105
4.074
4.093
4.106
4.127
4.125
4.164
4.164
4.168
4.182
4.201
4.162
4.183
4.174
4.190
4.197
4.199
4.221
4.242
4.226
4.227
4.243
4.252
4.256
4.269
4.286
4.296
4.304
4.294
4.278
4.306
4.302
4.302
4.324
4.343
4.338
4.328
4.340
4.326
4.298
4.320
4.303
4.333
4.318
4.299
4.287
4.297
4.309
4.311
4.318
4.318
4.315
4.319
4.336
4.333
4.366
4.336
4.355
4.339
4.340
4.369
4.336
4.366
4.358
4.354
4.384
4.372
4.374
4.393
4.402
4.377
4.393
4.400
4.407
4.383
4.379
4.356
4.365
4.376
4.385
4.358
4.379
4.384
4.374
4.353
4.382
4.389
4.393
4.386
4.384
4.410
4.413
4.388
4.377
4.389
4.427
4.424
4.419
4.411
4.408
4.426
4.459
4.442
4.420
4.423
4.414
4.418
4.413
4.393
4.382
4.400
4.414
4.441
4.420
4.415
4.410
4.406
4.413
4.430
4.454
4.454
4.452
4.444
4.446
4.426
4.435
4.455
4.468
4.462
4.467
4.451
4.452
4.449
4.443
4.456
4.460
4.464
4.461
4.465
4.454
4.449
4.448
4.452
4.460
4.487
4.512
4.519
4.504
4.492
4.473
4.490
4.471
4.462
4.473
4.488
4.509
4.502
4.518
4.510
4.507
4.507
4.504
4.489
4.475
4.471
4.483
4.477
4.460
4.464
4.455
4.445
4.448
4.445
4.447
4.436
4.433
4.445
4.468
4.490
4.503
4.495
4.490
4.467
4.463
4.449
4.445
4.439
4.436
4.433
4.426
4.438
4.459
4.479
4.499
4.492
4.482
4.480
4.475
4.477
4.484
4.477
4.456
4.455
4.438
4.447
4.431
4.432
4.446
4.466
4.485
4.504
4.501
4.498
4.482
4.484
4.483
4.479
4.479
4.478
4.474
4.461
4.448
4.450
4.450
4.460
4.459
4.455
4.458
4.476
4.493
4.511
4.522
4.512
4.499
4.504
4.501
4.520
4.515
4.497
4.490
4.489
4.479
4.491
4.502
4.484
4.469
4.484
4.499
4.477
4.472
4.469
4.475
4.492
4.508
4.524
4.540
4.544
4.547
4.549
4.540
4.556
4.551
4.545
4.538
4.540
4.551
4.538
4.532
4.536
4.526
4.525
4.508
4.513
4.512
4.502
4.512
4.518
4.511
4.513
4.490
4.496
4.510
4.525
4.538
4.541
4.534
4.530
4.523
4.519
4.504
4.506
4.504
4.509
4.510
4.517
4.503
4.492
4.490
4.488
4.498
4.498
4.503
4.491
4.494
4.480
4.478
4.472
4.477
4.471
4.465
4.463
4.462
4.470
4.484
4.497
4.510
4.523
4.537
4.550
4.563
4.575
4.570
4.571
4.571
4.564
4.564
4.561
4.571
4.561
4.554
4.546
4.549
4.544
4.551
4.541
4.538
4.545
4.545
4.546
4.554
4.559
4.549
4.566
4.572
4.563
4.553
4.544
4.535
4.525
4.516
4.507
4.498
4.488
4.479
4.472
4.480
4.492
4.504
4.515
4.527
4.539
4.545
4.547
4.555
4.541
4.541
4.536
4.547
4.548
4.544
4.536
4.526
4.533
4.520
4.517
4.515
4.512
4.510
4.503
4.509
4.502
4.506
4.490
4.508
4.522
4.518
4.517
4.514
4.520
4.516
4.516
4.509
4.509
4.511
4.506
4.503
4.499
4.507
4.508
4.516
4.514
4.510
4.502
4.507
4.502
4.492
4.495
4.486
4.497
4.487
4.500
4.498
4.508
4.518
4.529
4.539
4.549
4.560
4.562
4.553
4.554
4.558
4.555
4.552
4.548
4.540
4.545
4.545
4.545
4.542
4.546
4.557
4.552
4.541
4.540
4.543
4.543
4.545
4.535
4.528
4.532
4.535
4.528
4.532
4.540
4.527
4.516
4.514
4.513
4.515
4.520
4.511
4.509
4.516
4.510
4.510
4.503
4.508
4.508
4.500
4.499
4.497
4.493
4.506
4.505
4.505
4.517
4.511
4.510
4.504
4.499
4.491
4.482
4.479
4.484
4.479
4.484
4.483
4.474
4.479
4.483
4.487
4.482
4.491
4.500
4.509
4.518
4.527
4.536
4.545
4.553
4.562
4.571
4.580
4.589
4.597
4.595
4.588
4.589
4.584
4.583
4.589
4.585
4.593
4.593
4.587
4.587
4.575
4.573
4.579
4.576
4.566
4.579
4.584
4.577
4.577
4.566
4.562
4.565
4.558
4.560
4.562
4.564
4.556
4.568
4.561
4.554
4.552
4.540
4.530
4.527
4.530
4.531
4.533
4.539
4.547
4.546
4.540
4.546
4.535
4.541
4.534
4.533
4.533
4.536
4.548
4.559
4.567
4.558
4.554
4.556
4.543
4.544
4.544
4.549
4.551
4.549
4.540
4.531
4.529
4.529
4.534
4.532
4.530
4.529
4.532
4.523
4.514
4.505
4.505
4.517
4.525
4.521
4.528
4.521
4.514
4.519
4.521
4.524
4.529
4.522
4.513
4.510
4.512
4.515
4.509
4.502
4.509
4.516
4.523
4.531
4.538
4.545
4.553
4.560
4.568
4.575
4.582
4.590
4.588
4.580
4.574
4.574
4.572
4.576
4.576
4.565
4.561
4.563
4.553
4.542
4.546
4.557
4.562
4.553
4.546
4.553
4.554
4.564
4.567
4.560
4.551
4.560
4.556
4.551
4.560
4.562
4.552
4.543
4.555
4.555
4.568
4.569
4.557
4.568
4.579
4.564
4.561
4.550
4.550
4.551
4.545
4.558
4.546
4.546
4.547
4.545
4.553
4.542
4.538
4.528
4.529
4.522
4.521
4.521
4.524
4.520
4.520
4.519
4.526
4.526
4.524
4.521
4.525
4.514
4.521
4.517
4.509
4.507
4.509
4.510
4.498
4.507
4.506
4.505
4.504
4.505
4.507
4.514
4.504
4.499
4.494
4.492
4.497
4.498
4.498
4.510
4.518
4.507
4.505
4.512
4.496
4.493
4.498
4.499
4.487
4.490
4.499
4.497
4.500
4.504
4.514
4.511
4.518
4.513
4.523
4.528
4.537
4.546
4.554
4.545
4.535
4.526
4.526
4.524
4.528
4.521
4.527
4.528
4.528
4.519
4.516
4.511
4.505
4.506
4.508
4.516
4.520
4.518
4.511
4.503
4.495
4.491
4.485
4.475
4.479
4.485
4.491
4.497
4.502
4.508
4.514
4.520
4.526
4.532
4.538
4.544
4.549
4.555
4.561
4.567
4.573
4.579
4.585
4.591
4.597
4.603
4.607
4.604
4.612
4.606
4.598
4.592
4.602
4.607
4.601
4.606
4.616
4.618
4.613
4.623
4.614
4.610
4.605
4.599
4.591
4.589
4.589
4.594
4.596
4.594
4.597
4.600
4.594
4.596
4.589
4.594
4.590
4.588
4.585
4.572
4.571
4.574
4.572
4.576
4.583
4.593
4.592
4.586
4.577
4.577
4.585
4.594
4.604
4.610
4.613
4.613
4.609
4.602
4.602
4.597
4.595
4.592
4.593
4.590
4.588
4.577
4.576
4.569
4.559
4.558
4.555
4.559
4.562
4.559
4.558
4.556
4.555
4.554
4.556
4.557
4.564
4.565
4.566
4.574
4.581
4.584
4.573
4.571
4.575
4.567
4.561
4.555
4.553
4.559
4.562
4.558
4.557
4.552
4.547
4.541
4.536
4.534
4.529
4.525
4.529
4.536
4.545
4.549
4.546
4.543
4.536
4.532
4.531
4.531
4.524
4.524
4.521
4.523
4.520
4.514
4.511
4.509
4.517
4.514
4.505
4.505
4.511
4.521
4.523
4.520
4.525
4.523
4.523
4.524
4.530
4.527
4.527
4.531
4.533
4.537
4.537
4.543
4.534
4.524
4.523
4.520
4.520
4.508
4.519
4.514
4.507
4.500
4.493
4.487
4.480
4.476
4.484
4.491
4.483
4.484
4.489
4.486
4.486
4.485
4.482
4.482
4.477
4.475
4.480
4.481
4.490
4.485
4.482
4.483
4.481
4.480
4.478
4.473
4.478
4.479
4.482
4.486
4.490
4.491
4.500
4.501
4.499
4.498
4.498
4.492
4.494
4.488
4.487
4.491
4.491
4.486
4.486
4.484
4.486
4.483
4.488
4.497
4.493
4.492
4.488
4.478
4.479
4.475
4.472
4.474
4.473
4.469
4.463
4.460
4.461
4.459
4.458
4.456
4.463
4.454
4.456
4.459
4.468
4.460
4.453
4.445
4.444
