2.992
3.334
3.512
3.632
3.719
3.778
3.837
3.874
3.938
3.943
3.988
4.031
4.005
4.036
4.062
4.094
4.116
4.146
4.164
4.189
4.201
4.156
4.131
4.143
4.152
4.170
4.177
4.189
4.201
4.208
4.220
4.231
4.235
4.245
4.253
4.258
4.270
4.280
4.276
4.285
4.300
4.308
4.298
4.312
4.320
4.326
4.338
4.327
4.336
4.343
4.355
4.357
4.369
4.373
4.360
4.371
4.375
4.379
4.386
4.389
4.402
4.406
4.407
4.400
4.401
4.405
4.410
4.420
4.426
4.422
4.426
4.434
4.440
4.445
4.446
4.453
4.459
4.444
4.446
4.444
4.448
4.453
4.460
4.463
4.471
4.464
4.470
4.474
4.486
4.486
4.487
4.493
4.492
4.497
4.494
4.507
4.506
4.512
4.514
4.510
4.494
4.493
4.494
4.499
4.500
4.505
4.511
4.515
4.509
4.518
4.525
4.516
4.519
4.523
4.527
4.529
4.534
4.540
4.542
4.538
4.542
4.546
4.553
4.546
4.545
4.554
4.552
4.548
4.558
4.564
4.568
4.571
4.569
4.573
4.571
4.579
4.588
4.586
4.586
4.576
4.580
4.587
4.588
4.584
4.572
4.559
4.558
4.560
4.569
4.567
4.561
4.571
4.574
4.578
4.575
4.576
4.575
4.584
4.580
4.589
4.588
4.592
4.588
4.582
4.579
4.587
4.579
4.589
4.583
4.595
4.588
4.597
4.594
4.597
4.599
4.603
4.602
4.608
4.608
4.616
4.608
4.614
4.605
4.612
4.612
4.622
4.623
4.627
4.626
4.625
4.627
4.623
4.616
4.614
4.626
4.623
4.629
4.619
4.621
4.627
4.623
4.636
4.629
4.627
4.629
4.631
4.635
4.641
4.638
4.645
4.648
4.649
4.653
4.650
4.648
4.658
4.654
4.647
4.651
4.652
4.651
4.661
4.662
4.658
4.667
4.663
4.664
4.668
4.671
4.669
4.665
4.683
4.675
4.669
4.678
4.668
4.657
4.671
4.671
4.672
4.670
4.682
4.673
4.664
4.676
4.674
4.667
4.668
4.676
4.679
4.675
4.672
4.684
4.682
4.681
4.682
4.694
4.694
4.686
4.688
4.695
4.697
4.698
4.696
4.697
4.710
4.697
4.701
4.698
4.702
4.695
4.690
4.682
4.675
4.668
4.663
4.675
4.664
4.660
4.660
4.668
4.674
4.671
4.671
4.668
4.674
4.681
4.677
4.679
4.672
4.675
4.674
4.675
4.675
4.678
4.675
4.689
4.685
4.684
4.675
4.682
4.686
4.694
4.697
4.697
4.697
4.695
4.696
4.700
4.702
4.694
4.686
4.684
4.682
4.684
4.680
4.682
4.682
4.687
4.685
4.678
4.686
4.676
4.672
4.679
4.686
4.682
4.683
4.678
4.672
4.681
4.683
4.684
4.679
4.678
4.677
4.679
4.688
4.697
4.690
4.689
4.693
4.690
4.688
4.692
4.704
4.698
4.696
4.698
4.697
4.700
4.696
4.703
4.702
4.700
4.696
4.694
4.690
4.692
4.699
4.711
4.710
4.709
4.704
4.703
4.704
4.700
4.702
4.714
4.716
4.719
4.715
4.712
4.713
4.719
4.715
4.714
4.726
4.727
4.724
4.731
4.723
4.716
4.708
4.709
4.720
4.725
4.720
4.716
4.712
4.719
4.713
4.708
4.712
4.717
4.720
4.719
4.713
4.711
4.715
4.711
4.716
4.712
4.721
4.731
4.732
4.728
4.727
4.730
4.729
4.728
4.726
4.723
4.724
4.736
4.742
4.731
4.727
4.725
4.727
4.727
4.727
4.725
4.727
4.734
4.743
4.745
4.748
4.744
4.743
4.744
4.742
4.739
4.740
4.744
4.746
4.749
4.757
4.758
4.754
4.755
4.754
4.750
4.751
4.750
4.751
4.752
4.745
4.755
4.760
4.758
4.762
4.757
4.757
4.758
4.753
4.747
4.740
4.736
4.737
4.734
4.738
4.742
4.742
4.736
4.727
4.727
4.731
4.731
4.726
4.731
4.740
4.750
4.746
4.739
4.732
4.725
4.723
4.717
4.721
4.719
4.716
4.720
4.731
4.739
4.745
4.741
4.737
4.739
4.735
4.738
4.732
4.730
4.734
4.730
4.726
4.728
4.732
4.739
4.749
4.752
4.754
4.755
4.756
4.757
4.751
4.750
4.743
4.739
4.732
4.736
4.740
4.734
4.743
4.750
4.754
4.755
4.753
4.750
4.753
4.747
4.746
4.744
4.742
4.741
4.740
4.733
4.729
4.738
4.745
4.745
4.753
4.755
4.753
4.752
4.749
4.747
4.746
4.753
4.749
4.744
4.749
4.747
4.743
4.745
4.743
4.750
4.757
4.766
4.767
4.766
4.767
4.766
4.768
4.768
4.768
4.771
4.765
4.758
4.757
4.753
4.756
4.749
4.753
4.753
4.760
4.768
4.770
4.772
4.767
4.764
4.760
4.763
4.759
4.758
4.765
4.761
4.764
4.758
4.757
4.757
4.756
4.755
4.760
4.761
4.768
4.775
4.781
4.783
4.786
4.783
4.782
4.782
4.786
4.782
4.784
4.782
4.782
4.777
4.779
4.779
4.786
4.780
4.775
4.772
4.770
4.774
4.782
4.790
4.797
4.791
4.787
4.783
4.786
4.790
4.792
4.791
4.792
4.786
4.786
4.779
4.775
4.772
4.770
4.771
4.770
4.771
4.767
4.775
4.782
4.779
4.779
4.777
4.778
4.779
4.779
4.774
4.775
4.775
4.771
4.775
4.779
4.775
4.776
4.774
4.773
4.769
4.765
4.763
4.759
4.766
4.771
4.779
4.773
4.775
4.778
4.779
4.778
4.782
4.781
4.774
4.770
4.769
4.776
4.771
4.773
4.772
4.768
4.772
4.768
4.772
4.775
4.775
4.776
4.779
4.773
4.772
4.779
4.785
4.792
4.790
4.789
4.793
4.789
4.783
4.784
4.786
4.786
4.791
4.782
4.782
4.778
4.779
4.776
4.782
4.781
4.782
4.778
4.780
4.778
4.782
4.778
4.775
4.778
4.779
4.784
4.791
4.798
4.804
4.809
4.810
4.809
4.804
4.805
4.802
4.800
4.796
4.795
4.797
4.795
4.794
4.797
4.794
4.798
4.802
4.797
4.794
4.797
4.797
4.800
4.794
4.795
4.797
4.797
4.799
4.795
4.794
4.801
4.807
4.812
4.820
4.822
4.820
4.817
4.821
4.825
4.824
4.822
4.818
4.816
4.813
4.809
4.805
4.808
4.812
4.812
4.808
4.809
4.812
4.809
4.804
4.800
4.804
4.808
4.804
4.803
4.801
4.800
4.801
4.800
4.805
4.811
4.816
4.814
4.812
4.816
4.815
4.811
4.810
4.806
4.801
4.798
4.801
4.806
4.805
4.809
4.815
4.811
4.808
4.806
4.813
4.806
4.801
4.801
4.799
4.798
4.797
4.795
4.793
4.797
4.791
4.797
4.794
4.794
4.799
4.805
4.812
4.817
4.821
4.827
4.834
4.833
4.831
4.830
4.827
4.825
4.827
4.833
4.831
4.827
4.823
4.820
4.823
4.820
4.821
4.823
4.821
4.823
4.823
4.817
4.823
4.823
4.823
4.825
4.821
4.822
4.818
4.819
4.823
4.822
4.821
4.825
4.823
4.817
4.816
4.819
4.820
4.825
4.831
4.836
4.840
4.845
4.851
4.858
4.857
4.855
4.857
4.855
4.853
4.855
4.854
4.849
4.843
4.842
4.842
4.839
4.842
4.844
4.840
4.836
4.831
4.827
4.829
4.827
4.834
4.830
4.835
4.834
4.829
4.827
4.826
4.828
4.834
4.834
4.829
4.827
4.826
4.822
4.820
4.820
4.826
4.831
4.837
4.833
4.831
4.828
4.823
4.819
4.816
4.819
4.815
4.811
4.815
4.816
4.816
4.816
4.813
4.814
4.818
4.820
4.815
4.814
4.812
4.812
4.808
4.809
4.810
4.812
4.815
4.811
4.812
4.812
4.808
4.805
4.808
4.808
4.810
4.808
4.805
4.806
4.802
4.800
4.801
4.805
4.810
4.816
4.818
4.820
4.824
4.828
4.829
4.827
4.824
4.825
4.823
4.822
4.821
4.817
4.818
4.820
4.824
4.822
4.820
4.819
4.820
4.817
4.820
4.820
4.818
4.812
4.808
4.803
4.804
4.805
4.801
4.801
4.801
4.806
4.812
4.811
4.807
4.805
4.804
4.803
4.799
4.795
4.790
4.795
4.796
4.792
4.791
4.794
4.794
4.797
4.802
4.806
4.810
4.816
4.820
4.825
4.829
4.831
4.831
4.825
4.826
4.827
4.824
4.825
4.823
4.827
