2.988
3.321
3.509
3.610
3.719
3.785
3.817
3.891
3.880
3.928
3.975
4.011
4.051
4.046
3.983
4.009
4.026
4.045
4.061
4.082
4.096
4.107
4.123
4.132
4.152
4.166
4.166
4.180
4.199
4.194
4.212
4.221
4.235
4.230
4.242
4.248
4.261
4.266
4.266
4.267
4.279
4.283
4.293
4.305
4.304
4.325
4.327
4.311
4.320
4.325
4.339
4.334
4.344
4.350
4.365
4.357
4.373
4.380
4.381
4.389
4.370
4.367
4.376
4.378
4.387
4.386
4.384
4.393
4.399
4.404
4.409
4.417
4.425
4.421
4.414
4.430
4.433
4.440
4.444
4.456
4.450
4.460
4.458
4.461
4.458
4.463
4.457
4.435
4.439
4.446
4.444
4.445
4.454
4.458
4.467
4.468
4.451
4.459
4.466
4.465
4.465
4.465
4.478
4.486
4.482
4.484
4.480
4.495
4.492
4.501
4.506
4.501
4.509
4.496
4.501
4.497
4.504
4.502
4.502
4.509
4.505
4.518
4.517
4.528
4.521
4.531
4.529
4.528
4.535
4.536
4.541
4.547
4.544
4.546
4.546
4.553
4.549
4.568
4.554
4.557
4.548
4.560
4.545
4.547
4.547
4.554
4.556
4.556
4.574
4.567
4.565
4.575
4.574
4.580
4.581
4.581
4.587
4.590
4.585
4.595
4.590
4.584
4.573
4.561
4.559
4.550
4.549
4.564
4.555
4.547
4.563
4.555
4.556
4.568
4.571
4.570
4.574
4.582
4.582
4.576
4.574
4.595
4.582
4.567
4.570
4.557
4.557
4.566
4.559
4.560
4.551
4.568
4.558
4.554
4.559
4.567
4.574
4.577
4.571
4.573
4.585
4.580
4.583
4.580
4.576
4.586
4.578
4.582
4.580
4.584
4.594
4.588
4.588
4.583
4.588
4.609
4.606
4.610
4.595
4.601
4.608
4.618
4.609
4.594
4.591
4.601
4.601
4.608
4.604
4.590
4.590
4.610
4.608
4.605
4.607
4.604
4.600
4.613
4.628
4.625
4.611
4.606
4.602
4.610
4.628
4.625
4.624
4.624
4.627
4.622
4.625
4.637
4.643
4.638
4.634
4.635
4.636
4.628
4.640
4.646
4.647
4.645
4.640
4.641
4.631
4.635
4.651
4.641
4.631
4.620
4.610
4.612
4.624
4.630
4.629
4.625
4.626
4.613
4.602
4.606
4.622
4.628
4.625
4.624
4.619
4.614
4.613
4.616
4.615
4.629
4.645
4.640
4.641
4.632
4.629
4.622
4.623
4.617
4.627
4.642
4.648
4.644
4.631
4.624
4.618
4.615
4.613
4.616
4.631
4.646
4.645
4.648
4.637
4.640
4.634
4.633
4.640
4.641
4.637
4.640
4.654
4.660
4.655
4.655
4.646
4.652
4.653
4.651
4.641
4.633
4.638
4.652
4.666
4.660
4.658
4.661
4.651
4.658
4.658
4.661
4.657
4.653
4.651
4.654
4.667
4.680
4.685
4.682
4.683
4.675
4.670
4.673
4.666
4.667
4.663
4.662
4.664
4.669
4.681
4.678
4.679
4.677
4.680
4.671
4.662
4.652
4.652
4.652
4.649
4.656
4.658
4.670
4.677
4.668
4.662
4.657
4.651
4.650
4.655
4.654
4.649
4.652
4.653
4.648
4.649
4.659
4.671
4.683
4.689
4.686
4.677
4.672
4.672
4.668
4.669
4.658
4.654
4.661
4.667
4.664
4.659
4.659
4.668
4.679
4.691
4.703
4.696
4.690
4.687
4.689
4.682
4.684
4.682
4.683
4.680
4.676
4.677
4.677
4.680
4.677
4.687
4.684
4.695
4.705
4.714
4.708
4.718
4.712
4.707
4.710
4.703
4.706
4.701
4.698
4.700
4.706
4.703
4.698
4.688
4.683
4.680
4.691
4.701
4.712
4.709
4.714
4.710
4.701
4.692
4.697
4.692
4.692
4.692
4.692
4.687
4.686
4.687
4.688
4.689
4.693
4.687
4.685
4.689
4.699
4.709
4.719
4.727
4.722
4.719
4.720
4.717
4.713
4.722
4.719
4.711
4.710
4.717
4.712
4.715
4.716
4.718
4.713
4.709
4.708
4.703
4.702
4.710
4.711
4.716
4.725
4.735
4.744
4.753
4.745
4.749
4.743
4.732
4.729
4.729
4.726
4.729
4.727
4.729
4.737
4.733
4.729
4.722
4.718
4.717
4.721
4.719
4.723
4.719
4.724
4.723
4.726
4.733
4.728
4.723
4.717
4.712
4.713
4.714
4.718
4.704
4.709
4.705
4.701
4.704
4.704
4.705
4.707
4.699
4.699
4.703
4.711
4.708
4.703
4.702
4.704
4.698
4.702
4.710
4.719
4.724
4.722
4.729
4.721
4.716
4.711
4.705
4.699
4.700
4.706
4.711
4.713
4.712
4.705
4.698
4.693
4.687
4.688
4.690
4.689
4.679
4.676
4.683
4.683
4.685
4.684
4.678
4.685
4.693
4.702
4.710
4.718
4.726
4.734
4.736
4.727
4.719
4.721
4.721
4.725
4.719
4.719
4.721
4.727
4.728
4.725
4.719
4.713
4.706
4.700
4.700
4.695
4.691
4.693
4.689
4.686
4.688
4.681
4.681
4.678
4.672
4.673
4.678
4.686
4.694
4.701
4.709
4.716
4.723
4.719
4.720
4.715
4.715
4.713
4.716
4.725
4.724
4.718
4.724
4.726
4.719
4.723
4.723
4.728
4.730
4.730
4.721
4.717
4.715
4.707
4.706
4.706
4.701
4.702
4.699
4.692
4.690
4.695
4.703
4.701
4.699
4.700
4.698
4.699
4.694
4.695
4.703
4.710
4.717
4.724
4.731
4.730
4.732
4.724
4.723
4.722
4.725
4.725
4.724
4.725
4.723
4.720
4.716
4.710
4.707
4.707
4.717
4.718
4.717
4.716
4.715
4.716
4.713
4.708
4.703
4.709
4.715
4.710
4.708
4.709
4.709
4.711
4.714
4.708
4.708
4.703
4.706
4.702
4.697
4.694
4.690
4.692
4.698
4.705
4.712
4.718
4.725
4.732
4.739
4.739
4.740
4.740
4.744
4.738
4.738
4.738
4.741
4.745
4.746
4.738
4.733
4.728
4.735
4.729
4.726
4.726
4.722
4.719
4.720
4.725
4.726
4.722
4.721
4.717
4.716
4.716
4.716
4.714
4.721
4.725
4.724
4.730
4.724
4.728
4.722
4.719
4.716
4.713
4.713
4.707
4.703
4.704
4.701
4.698
4.698
4.694
4.699
4.706
4.712
4.718
4.724
4.731
4.737
4.743
4.749
4.756
4.753
4.747
4.749
4.744
4.753
4.762
4.759
4.752
4.754
4.759
4.751
4.758
4.759
4.755
4.750
4.754
4.754
4.748
4.744
4.746
4.744
4.737
4.735
4.739
4.741
4.745
4.734
4.733
4.727
4.723
4.721
4.726
4.734
4.736
4.740
4.735
4.738
4.736
4.742
4.739
4.737
4.734
4.732
4.730
4.724
4.726
4.726
4.734
4.731
4.734
4.734
4.734
4.731
4.728
4.728
4.726
4.731
4.725
4.732
4.736
4.741
4.747
4.753
4.759
4.764
4.770
4.776
4.781
4.787
4.790
4.795
4.796
4.793
4.789
4.779
4.783
4.783
4.777
4.780
4.784
4.786
4.785
4.779
4.779
4.780
4.772
4.777
4.771
4.772
4.774
4.768
4.765
4.760
4.761
4.761
4.768
4.769
4.766
4.766
4.769
4.763
4.768
4.762
4.763
4.761
4.757
4.756
4.757
4.753
4.747
4.742
4.737
4.737
4.742
4.743
4.741
4.736
4.737
4.743
4.746
4.742
4.737
4.732
4.728
4.723
4.718
4.716
4.715
4.711
4.710
4.715
4.721
4.726
4.731
4.736
4.742
4.747
4.752
4.758
4.763
4.763
4.764
4.771
4.779
4.779
4.777
4.770
4.764
4.765
4.763
4.763
4.763
4.761
4.766
4.764
4.764
4.758
4.759
4.756
4.752
4.753
4.751
4.754
4.748
4.743
4.744
4.747
4.747
4.743
4.740
4.741
4.739
4.738
4.740
4.742
4.740
4.733
4.737
4.744
4.737
4.735
4.733
4.730
4.728
4.726
4.734
4.733
4.736
4.738
4.729
4.733
4.740
4.745
4.745
4.745
4.741
4.741
4.743
4.739
4.738
4.735
4.730
4.737
4.731
4.729
4.727
4.723
4.726
4.720
4.715
4.716
4.716
4.716
4.718
4.716
4.722
4.723
4.723
4.726
4.721
4.722
4.728
4.728
4.733
4.738
4.743
4.748
4.752
4.757
4.762
4.767
4.772
4.776
4.781
4.786
4.788
4.791
4.790
4.789
4.789
