2.994
3.334
3.510
3.628
3.713
3.790
3.841
3.879
3.938
3.958
4.005
4.004
4.041
4.075
4.107
4.073
4.099
4.123
4.146
4.163
4.186
4.201
4.219
4.237
4.253
4.260
4.223
4.194
4.205
4.210
4.225
4.229
4.242
4.246
4.258
4.260
4.274
4.275
4.282
4.295
4.294
4.303
4.310
4.320
4.323
4.328
4.337
4.344
4.342
4.347
4.354
4.364
4.370
4.364
4.370
4.379
4.384
4.393
4.395
4.404
4.390
4.397
4.405
4.410
4.416
4.418
4.425
4.434
4.433
4.424
4.431
4.435
4.438
4.445
4.452
4.449
4.458
4.465
4.468
4.468
4.472
4.460
4.464
4.467
4.469
4.476
4.475
4.487
4.486
4.487
4.493
4.494
4.502
4.505
4.508
4.505
4.512
4.514
4.512
4.503
4.507
4.509
4.505
4.511
4.513
4.517
4.520
4.527
4.529
4.527
4.526
4.534
4.532
4.541
4.542
4.549
4.545
4.553
4.549
4.553
4.556
4.552
4.562
4.568
4.567
4.569
4.575
4.566
4.554
4.553
4.553
4.558
4.557
4.553
4.559
4.561
4.562
4.564
4.571
4.571
4.575
4.577
4.579
4.579
4.579
4.580
4.583
4.582
4.584
4.586
4.590
4.594
4.603
4.604
4.600
4.599
4.603
4.608
4.614
4.602
4.608
4.607
4.608
4.608
4.612
4.613
4.612
4.621
4.623
4.623
4.628
4.632
4.631
4.629
4.631
4.634
4.639
4.643
4.638
4.642
4.641
4.638
4.639
4.643
4.633
4.624
4.614
4.608
4.617
4.612
4.622
4.616
4.625
4.623
4.627
4.626
4.630
4.631
4.638
4.634
4.628
4.638
4.638
4.640
4.638
4.645
4.641
4.646
4.647
4.640
4.636
4.646
4.644
4.645
4.641
4.642
4.638
4.642
4.649
4.642
4.653
4.651
4.655
4.653
4.652
4.657
4.650
4.665
4.660
4.662
4.668
4.664
4.671
4.665
4.663
4.670
4.668
4.670
4.669
4.668
4.679
4.678
4.675
4.686
4.683
4.679
4.690
4.679
4.672
4.673
4.671
4.681
4.674
4.676
4.685
4.679
4.672
4.683
4.679
4.676
4.686
4.686
4.690
4.687
4.690
4.687
4.685
4.692
4.694
4.689
4.697
4.701
4.699
4.697
4.708
4.709
4.707
4.705
4.710
4.705
4.705
4.709
4.705
4.703
4.704
4.709
4.712
4.711
4.710
4.717
4.718
4.716
4.715
4.727
4.720
4.720
4.721
4.728
4.727
4.723
4.726
4.731
4.737
4.730
4.721
4.719
4.721
4.720
4.716
4.728
4.727
4.727
4.726
4.727
4.731
4.725
4.723
4.722
4.732
4.728
4.720
4.723
4.727
4.731
4.732
4.731
4.732
4.730
4.740
4.738
4.737
4.734
4.735
4.747
4.753
4.746
4.745
4.741
4.748
4.750
4.753
4.749
4.746
4.750
4.756
4.757
4.753
4.747
4.742
4.738
4.732
4.727
4.724
4.727
4.723
4.725
4.718
4.719
4.731
4.727
4.720
4.712
4.710
4.722
4.723
4.727
4.724
4.720
4.721
4.723
4.735
4.728
4.727
4.728
4.724
4.727
4.735
4.733
4.729
4.723
4.724
4.723
4.731
4.739
4.740
4.744
4.735
4.733
4.734
4.738
4.743
4.744
4.745
4.744
4.743
4.741
4.740
4.750
4.759
4.760
4.756
4.750
4.743
4.738
4.734
4.736
4.734
4.731
4.727
4.728
4.735
4.744
4.745
4.744
4.737
4.736
4.732
4.731
4.734
4.731
4.729
4.727
4.727
4.730
4.726
4.733
4.743
4.742
4.742
4.736
4.735
4.730
4.724
4.733
4.742
4.741
4.738
4.738
4.738
4.741
4.738
4.738
4.738
4.749
4.746
4.752
4.753
4.749
4.746
4.749
4.751
4.750
4.751
4.758
4.754
4.755
4.760
4.758
4.751
4.744
4.742
4.750
4.759
4.753
4.754
4.753
4.749
4.755
4.753
4.752
4.749
4.757
4.765
4.764
4.762
4.761
4.764
4.755
4.753
4.758
4.757
4.758
4.765
4.769
4.776
4.771
4.770
4.772
4.773
4.772
4.773
4.769
4.767
4.774
4.783
4.779
4.773
4.766
4.765
4.769
4.762
4.757
4.757
4.764
4.775
4.775
4.773
4.775
4.771
4.771
4.773
4.768
4.762
4.766
4.764
4.772
4.775
4.772
4.768
4.764
4.771
4.771
4.770
4.771
4.767
4.764
4.767
4.775
4.783
4.786
4.787
4.783
4.779
4.780
4.779
4.779
4.784
4.780
4.779
4.777
4.781
4.788
4.792
4.788
4.786
4.783
4.783
4.777
4.778
4.777
4.776
4.780
4.781
4.782
4.789
4.797
4.800
4.799
4.798
4.794
4.792
4.797
4.795
4.796
4.794
4.794
4.790
4.794
4.794
4.802
4.809
4.818
4.811
4.810
4.805
4.804
4.803
4.799
4.800
4.805
4.801
4.801
4.798
4.799
4.806
4.812
4.809
4.810
4.811
4.807
4.801
4.797
4.792
4.790
4.786
4.780
4.783
4.790
4.792
4.791
4.790
4.786
4.789
4.785
4.784
4.791
4.789
4.786
4.781
4.780
4.779
4.779
4.786
4.791
4.795
4.796
4.794
4.788
4.783
4.777
4.773
4.774
4.771
4.772
4.771
4.772
4.768
4.772
4.781
4.786
4.792
4.796
4.792
4.793
4.792
4.788
4.789
4.785
4.784
4.785
4.784
4.782
4.781
4.782
4.781
4.780
4.784
4.790
4.797
4.804
4.803
4.804
4.801
4.799
4.797
4.794
4.797
4.797
4.800
4.804
4.801
4.799
4.792
4.788
4.783
4.786
4.794
4.799
4.806
4.804
4.801
4.797
4.797
4.797
4.798
4.797
4.800
4.797
4.797
4.797
4.792
4.786
4.786
4.783
4.786
4.790
4.797
4.802
4.800
4.799
4.800
4.797
4.798
4.794
4.797
4.801
4.795
4.794
4.795
4.797
4.794
4.797
4.794
4.790
4.789
4.791
4.794
4.797
4.803
4.808
4.816
4.818
4.817
4.813
4.809
4.807
4.809
4.813
4.812
4.813
4.809
4.810
4.812
4.812
4.811
4.810
4.809
4.808
4.812
4.808
4.805
4.808
4.814
4.820
4.820
4.820
4.819
4.821
4.822
4.821
4.820
4.815
4.814
4.812
4.809
4.808
4.808
4.802
4.800
4.804
4.809
4.810
4.805
4.804
4.805
4.810
4.817
4.821
4.828
4.831
4.827
4.824
4.820
4.826
4.827
4.826
4.825
4.826
4.830
4.829
4.827
4.824
4.822
4.824
4.819
4.823
4.823
4.826
4.823
4.821
4.817
4.820
4.822
4.827
4.833
4.838
4.844
4.846
4.844
4.840
4.841
4.842
4.842
4.840
4.839
4.838
4.836
4.837
4.833
4.829
4.831
4.834
4.830
4.829
4.831
4.826
4.827
4.826
4.828
4.826
4.827
4.831
4.831
4.829
4.825
4.823
4.823
4.823
4.822
4.823
4.822
4.816
4.816
4.813
4.814
4.816
4.816
4.815
4.817
4.815
4.814
4.813
4.814
4.816
4.820
4.815
4.814
4.815
4.820
4.826
4.831
4.837
4.838
4.835
4.831
4.829
4.825
4.826
4.823
4.818
4.819
4.818
4.820
4.824
4.822
4.816
4.817
4.820
4.819
4.816
4.812
4.812
4.811
4.812
4.812
4.812
4.809
4.810
4.814
4.820
4.825
4.829
4.834
4.837
4.841
4.846
4.849
4.846
4.844
4.843
4.841
4.840
4.842
4.842
4.842
4.843
4.838
4.832
4.830
4.829
4.828
4.827
4.827
4.827
4.828
4.829
4.831
4.826
4.822
4.821
4.820
4.820
4.820
4.824
4.828
4.831
4.836
4.842
4.847
4.851
4.847
4.845
4.850
4.849
4.844
4.846
4.842
4.848
4.847
4.853
4.852
4.854
4.850
4.846
4.846
4.849
4.849
4.851
4.846
4.846
4.844
4.845
4.838
4.834
4.834
4.835
4.830
4.831
4.836
4.832
4.834
4.837
4.839
4.842
4.847
4.849
4.855
4.860
4.866
4.870
4.866
4.865
4.860
4.860
4.860
4.865
4.863
4.862
4.860
4.862
4.864
4.864
4.863
4.864
4.864
4.864
4.866
4.865
4.861
4.860
4.860
4.856
4.857
4.856
4.855
4.853
4.853
4.849
4.849
4.853
4.850
4.848
4.846
4.845
4.849
4.854
4.858
4.862
4.868
4.871
4.872
4.870
4.872
4.873
4.875
4.876
4.877
4.873
4.871
4.871
