2.992
3.332
3.505
3.630
3.728
3.785
3.844
3.878
3.942
3.947
3.995
4.040
4.005
4.037
4.069
4.095
4.120
4.149
4.167
4.190
4.159
4.116
4.126
4.141
4.156
4.165
4.178
4.190
4.192
4.207
4.222
4.226
4.241
4.239
4.255
4.264
4.263
4.272
4.284
4.291
4.288
4.299
4.307
4.314
4.326
4.316
4.328
4.332
4.344
4.344
4.359
4.360
4.350
4.360
4.361
4.373
4.377
4.382
4.391
4.393
4.403
4.388
4.395
4.398
4.399
4.410
4.416
4.418
4.424
4.432
4.436
4.439
4.440
4.450
4.436
4.436
4.435
4.436
4.444
4.453
4.455
4.464
4.458
4.461
4.466
4.477
4.477
4.481
4.479
4.486
4.485
4.492
4.498
4.506
4.504
4.506
4.488
4.481
4.484
4.491
4.490
4.499
4.503
4.500
4.507
4.514
4.512
4.508
4.514
4.514
4.517
4.521
4.523
4.525
4.531
4.535
4.540
4.544
4.540
4.538
4.545
4.543
4.542
4.551
4.551
4.558
4.559
4.562
4.559
4.566
4.573
4.569
4.578
4.577
4.570
4.573
4.583
4.576
4.569
4.557
4.547
4.555
4.551
4.558
4.556
4.558
4.566
4.571
4.566
4.568
4.573
4.569
4.572
4.584
4.577
4.579
4.580
4.569
4.573
4.577
4.572
4.582
4.577
4.582
4.583
4.588
4.584
4.592
4.591
4.598
4.595
4.604
4.605
4.601
4.602
4.601
4.602
4.607
4.608
4.617
4.614
4.625
4.621
4.623
4.610
4.612
4.610
4.617
4.614
4.610
4.611
4.614
4.621
4.621
4.619
4.623
4.616
4.629
4.625
4.625
4.638
4.636
4.633
4.645
4.636
4.642
4.646
4.644
4.644
4.639
4.638
4.651
4.649
4.648
4.655
4.655
4.649
4.659
4.666
4.659
4.662
4.666
4.668
4.661
4.674
4.667
4.657
4.659
4.658
4.658
4.671
4.667
4.668
4.664
4.665
4.661
4.658
4.662
4.665
4.661
4.668
4.675
4.669
4.669
4.674
4.688
4.682
4.680
4.679
4.688
4.688
4.683
4.684
4.697
4.692
4.688
4.685
4.699
4.699
4.692
4.684
4.678
4.671
4.664
4.666
4.659
4.655
4.651
4.662
4.662
4.660
4.661
4.660
4.673
4.666
4.670
4.665
4.666
4.668
4.662
4.660
4.661
4.668
4.677
4.676
4.675
4.666
4.669
4.682
4.684
4.682
4.681
4.682
4.683
4.695
4.692
4.688
4.688
4.684
4.677
4.673
4.669
4.668
4.670
4.681
4.678
4.668
4.670
4.669
4.669
4.671
4.672
4.669
4.667
4.673
4.669
4.677
4.675
4.673
4.672
4.662
4.666
4.679
4.684
4.684
4.677
4.679
4.681
4.674
4.688
4.699
4.695
4.687
4.683
4.684
4.684
4.690
4.699
4.690
4.694
4.690
4.684
4.681
4.689
4.701
4.706
4.699
4.694
4.695
4.689
4.690
4.695
4.706
4.706
4.706
4.703
4.703
4.702
4.706
4.705
4.715
4.721
4.715
4.719
4.715
4.716
4.714
4.703
4.710
4.713
4.714
4.710
4.703
4.706
4.706
4.699
4.707
4.718
4.712
4.708
4.706
4.700
4.699
4.705
4.701
4.710
4.721
4.722
4.720
4.716
4.715
4.716
4.714
4.713
4.714
4.719
4.729
4.736
4.734
4.724
4.718
4.714
4.715
4.714
4.714
4.722
4.732
4.733
4.739
4.735
4.734
4.732
4.729
4.729
4.731
4.733
4.731
4.743
4.753
4.751
4.747
4.747
4.750
4.738
4.737
4.735
4.736
4.738
4.745
4.752
4.750
4.747
4.747
4.746
4.747
4.751
4.750
4.744
4.739
4.735
4.728
4.727
4.731
4.729
4.729
4.722
4.720
4.721
4.720
4.721
4.729
4.740
4.736
4.736
4.739
4.730
4.723
4.718
4.710
4.708
4.704
4.714
4.723
4.733
4.737
4.733
4.731
4.725
4.725
4.721
4.718
4.724
4.725
4.721
4.717
4.722
4.731
4.740
4.737
4.741
4.742
4.743
4.745
4.740
4.742
4.741
4.736
4.729
4.726
4.730
4.731
4.740
4.744
4.740
4.742
4.738
4.740
4.736
4.740
4.741
4.737
4.730
4.726
4.727
4.725
4.730
4.740
4.741
4.742
4.741
4.742
4.738
4.737
4.733
4.739
4.738
4.737
4.740
4.739
4.733
4.734
4.733
4.742
4.749
4.758
4.757
4.753
4.754
4.753
4.763
4.759
4.757
4.755
4.757
4.758
4.751
4.742
4.741
4.747
4.743
4.751
4.758
4.767
4.769
4.762
4.757
4.755
4.751
4.751
4.752
4.753
4.749
4.755
4.747
4.742
4.744
4.750
4.747
4.750
4.758
4.766
4.774
4.770
4.776
4.775
4.771
4.772
4.773
4.773
4.771
4.769
4.769
4.766
4.773
4.770
4.773
4.775
4.769
4.766
4.763
4.772
4.779
4.786
4.788
4.788
4.782
4.775
4.781
4.781
4.777
4.781
4.777
4.775
4.773
4.777
4.771
4.766
4.760
4.759
4.766
4.766
4.768
4.769
4.766
4.766
4.766
4.767
4.768
4.766
4.765
4.766
4.760
4.766
4.766
4.767
4.766
4.767
4.769
4.762
4.755
4.753
4.755
4.761
4.768
4.770
4.773
4.766
4.768
4.767
4.768
4.767
4.765
4.767
4.760
4.762
4.758
4.761
4.758
4.759
4.762
4.759
4.763
4.762
4.762
4.766
4.766
4.762
4.769
4.777
4.782
4.783
4.784
4.781
4.779
4.778
4.774
4.775
4.776
4.778
4.777
4.780
4.773
4.767
4.768
4.766
4.771
4.770
4.769
4.769
4.766
4.766
4.760
4.766
4.771
4.777
4.784
4.789
4.796
4.803
4.806
4.799
4.796
4.799
4.793
4.789
4.785
4.786
4.784
4.783
4.787
4.786
4.788
4.789
4.788
4.788
4.787
4.783
4.784
4.783
4.787
4.788
4.784
4.783
4.782
4.789
4.795
4.802
4.809
4.814
4.814
4.810
4.809
4.814
4.810
4.816
4.815
4.814
4.812
4.806
4.801
4.797
4.798
4.799
4.798
4.800
4.799
4.797
4.799
4.799
4.796
4.794
4.793
4.797
4.795
4.792
4.795
4.797
4.803
4.805
4.803
4.805
4.803
4.802
4.798
4.805
4.803
4.800
4.796
4.792
4.793
4.797
4.798
4.802
4.798
4.800
4.799
4.802
4.793
4.794
4.792
4.788
4.787
4.784
4.788
4.786
4.782
4.783
4.787
4.788
4.793
4.799
4.806
4.810
4.817
4.822
4.823
4.822
4.818
4.821
4.817
4.814
4.818
4.821
4.821
4.818
4.815
4.813
4.815
4.810
4.809
4.806
4.810
4.810
4.810
4.816
4.814
4.814
4.815
4.808
4.809
4.810
4.809
4.810
4.809
4.811
4.814
4.813
4.812
4.810
4.812
4.818
4.825
4.829
4.834
4.840
4.847
4.846
4.848
4.844
4.842
4.841
4.847
4.851
4.847
4.846
4.845
4.840
4.834
4.830
4.832
4.830
4.828
4.825
4.826
4.824
4.817
4.821
4.818
4.822
4.818
4.818
4.820
4.816
4.820
4.827
4.832
4.827
4.821
4.818
4.815
4.818
4.820
4.824
4.829
4.825
4.826
4.819
4.818
4.816
4.815
4.813
4.809
4.803
4.807
4.803
4.806
4.808
4.804
4.810
4.807
4.808
4.804
4.803
4.801
4.799
4.796
4.797
4.801
4.806
4.804
4.803
4.801
4.797
4.796
4.800
4.796
4.794
4.793
4.794
4.798
4.795
4.796
4.799
4.803
4.806
4.804
4.808
4.814
4.819
4.820
4.816
4.818
4.818
4.812
4.810
4.809
4.808
4.806
4.811
4.810
4.811
4.812
4.808
4.807
4.810
4.812
4.808
4.809
4.808
4.807
4.802
4.798
4.792
4.790
4.794
4.799
4.795
4.795
4.795
4.795
4.797
4.796
4.794
4.796
4.791
4.787
4.783
4.785
4.786
4.785
4.789
4.795
4.800
4.803
4.808
4.814
4.819
4.820
4.821
4.820
4.816
4.818
4.816
4.812
4.814
4.812
4.816
4.814
4.819
4.818
4.822
4.826
4.825
4.823
4.829
4.825
4.819
4.820
4.814
4.810
4.808
4.810
4.810
4.809
4.808
4.804
4.803
4.804
4.799
4.799
4.803
4.806
4.805
4.804
4.800
4.796
4.794
4.788
4.788
4.787
4.791
4.796
4.794
4.793
4.792
4.788
4.792
4.796
4.802
4.804
