2.987
3.336
3.502
3.627
3.716
3.783
3.814
3.891
3.875
3.926
3.970
4.014
4.051
4.063
3.992
4.005
4.023
4.045
4.059
4.082
4.090
4.107
4.123
4.134
4.145
4.166
4.162
4.184
4.200
4.193
4.205
4.219
4.227
4.226
4.235
4.251
4.260
4.266
4.284
4.270
4.275
4.290
4.287
4.310
4.317
4.317
4.330
4.320
4.318
4.325
4.334
4.335
4.344
4.346
4.361
4.363
4.361
4.372
4.384
4.394
4.389
4.372
4.366
4.373
4.383
4.390
4.397
4.394
4.399
4.397
4.414
4.410
4.422
4.421
4.419
4.426
4.429
4.434
4.443
4.452
4.449
4.453
4.462
4.467
4.463
4.455
4.462
4.469
4.447
4.436
4.445
4.448
4.446
4.447
4.454
4.463
4.475
4.460
4.463
4.461
4.469
4.473
4.466
4.473
4.483
4.492
4.490
4.486
4.489
4.498
4.495
4.505
4.511
4.505
4.515
4.510
4.501
4.498
4.509
4.506
4.510
4.511
4.515
4.525
4.527
4.536
4.532
4.538
4.529
4.533
4.525
4.541
4.539
4.550
4.547
4.553
4.552
4.562
4.559
4.562
4.562
4.558
4.559
4.552
4.558
4.550
4.557
4.558
4.565
4.563
4.561
4.581
4.571
4.569
4.583
4.581
4.582
4.586
4.589
4.592
4.593
4.595
4.598
4.594
4.583
4.571
4.560
4.560
4.552
4.552
4.568
4.560
4.551
4.568
4.564
4.559
4.565
4.579
4.575
4.577
4.580
4.585
4.586
4.576
4.592
4.585
4.570
4.576
4.567
4.566
4.565
4.569
4.564
4.559
4.558
4.568
4.565
4.566
4.560
4.578
4.581
4.581
4.577
4.574
4.590
4.588
4.588
4.583
4.583
4.588
4.586
4.584
4.584
4.589
4.601
4.591
4.590
4.587
4.593
4.612
4.609
4.610
4.606
4.602
4.608
4.623
4.608
4.602
4.593
4.600
4.608
4.612
4.609
4.591
4.594
4.607
4.616
4.612
4.611
4.605
4.606
4.608
4.626
4.627
4.617
4.611
4.610
4.610
4.621
4.633
4.634
4.628
4.631
4.623
4.633
4.628
4.646
4.648
4.637
4.641
4.642
4.639
4.634
4.646
4.652
4.654
4.650
4.646
4.639
4.639
4.642
4.648
4.638
4.628
4.618
4.612
4.617
4.626
4.636
4.636
4.627
4.624
4.612
4.607
4.609
4.622
4.629
4.630
4.626
4.621
4.622
4.619
4.621
4.623
4.626
4.642
4.644
4.640
4.639
4.633
4.625
4.627
4.620
4.624
4.637
4.652
4.649
4.635
4.622
4.625
4.621
4.621
4.615
4.623
4.638
4.646
4.650
4.649
4.644
4.642
4.634
4.639
4.644
4.645
4.642
4.644
4.658
4.659
4.656
4.660
4.657
4.655
4.659
4.652
4.644
4.634
4.640
4.653
4.667
4.668
4.663
4.664
4.660
4.657
4.665
4.663
4.664
4.657
4.657
4.658
4.665
4.678
4.684
4.689
4.688
4.681
4.678
4.681
4.670
4.667
4.671
4.664
4.669
4.669
4.676
4.687
4.685
4.681
4.683
4.675
4.666
4.656
4.653
4.659
4.655
4.656
4.659
4.662
4.675
4.676
4.670
4.665
4.661
4.658
4.656
4.657
4.659
4.656
4.657
4.656
4.652
4.654
4.660
4.672
4.683
4.693
4.691
4.678
4.677
4.675
4.675
4.672
4.662
4.663
4.660
4.669
4.671
4.666
4.665
4.666
4.677
4.688
4.700
4.706
4.697
4.694
4.689
4.690
4.690
4.689
4.689
4.686
4.679
4.682
4.685
4.680
4.687
4.684
4.690
4.691
4.699
4.710
4.716
4.715
4.718
4.719
4.716
4.713
4.707
4.708
4.703
4.708
4.705
4.714
4.707
4.697
4.695
4.684
4.683
4.692
4.702
4.713
4.708
4.714
4.710
4.704
4.701
4.699
4.699
4.696
4.695
4.690
4.694
4.692
4.690
4.692
4.694
4.697
4.689
4.691
4.687
4.697
4.706
4.716
4.726
4.728
4.726
4.721
4.726
4.720
4.722
4.727
4.718
4.713
4.713
4.721
4.719
4.722
4.722
4.722
4.717
4.717
4.706
4.711
4.710
4.708
4.717
4.719
4.728
4.737
4.746
4.751
4.749
4.751
4.744
4.739
4.733
4.731
4.733
4.731
4.731
4.735
4.738
4.736
4.734
4.729
4.728
4.723
4.725
4.724
4.728
4.725
4.730
4.725
4.725
4.733
4.729
4.724
4.719
4.717
4.717
4.720
4.722
4.710
4.710
4.713
4.707
4.706
4.708
4.711
4.711
4.710
4.706
4.698
4.708
4.715
4.708
4.707
4.707
4.701
4.696
4.705
4.713
4.722
4.726
4.730
4.734
4.727
4.717
4.713
4.708
4.707
4.701
4.708
4.715
4.717
4.713
4.707
4.702
4.692
4.692
4.696
4.693
4.690
4.685
4.685
4.683
4.683
4.687
4.692
4.687
4.684
4.692
4.700
4.708
4.716
4.724
4.732
4.738
4.729
4.728
4.725
4.727
4.726
4.727
4.724
4.725
4.728
4.732
4.731
4.724
4.717
4.710
4.703
4.698
4.701
4.698
4.698
4.696
4.694
4.689
4.688
4.686
4.689
4.680
4.677
4.676
4.680
4.687
4.695
4.702
4.710
4.717
4.725
4.727
4.722
4.722
4.717
4.718
4.720
4.725
4.726
4.728
4.723
4.730
4.725
4.728
4.731
4.730
4.730
4.733
4.727
4.719
4.719
4.713
4.713
4.711
4.704
4.707
4.701
4.694
4.696
4.694
4.701
4.704
4.703
4.705
4.706
4.698
4.699
4.692
4.698
4.706
4.713
4.720
4.727
4.734
4.736
4.729
4.728
4.726
4.729
4.733
4.730
4.727
4.729
4.727
4.726
4.719
4.712
4.712
4.713
4.717
4.723
4.723
4.720
4.718
4.723
4.721
4.714
4.710
4.712
4.719
4.719
4.713
4.715
4.713
4.715
4.716
4.713
4.715
4.714
4.711
4.708
4.700
4.702
4.694
4.693
4.695
4.702
4.709
4.715
4.722
4.728
4.735
4.742
4.745
4.743
4.747
4.743
4.744
4.745
4.743
4.746
4.750
4.747
4.742
4.738
4.733
4.736
4.733
4.733
4.727
4.722
4.724
4.724
4.732
4.727
4.730
4.728
4.726
4.726
4.723
4.718
4.718
4.722
4.726
4.728
4.733
4.731
4.728
4.728
4.727
4.717
4.714
4.715
4.708
4.706
4.709
4.707
4.705
4.703
4.699
4.702
4.703
4.709
4.716
4.722
4.728
4.734
4.740
4.746
4.752
4.758
4.755
4.754
4.754
4.751
4.757
4.764
4.761
4.761
4.759
4.759
4.755
4.760
4.761
4.761
4.757
4.756
4.758
4.753
4.753
4.750
4.743
4.744
4.740
4.744
4.746
4.746
4.740
4.736
4.735
4.729
4.726
4.726
4.734
4.739
4.745
4.741
4.743
4.745
4.742
4.741
4.742
4.739
4.738
4.736
4.731
4.729
4.728
4.731
4.739
4.738
4.739
4.741
4.737
4.732
4.732
4.733
4.733
4.734
4.731
4.736
4.738
4.743
4.749
4.755
4.760
4.766
4.771
4.777
4.783
4.789
4.794
4.796
4.800
4.796
4.787
4.780
4.787
4.786
4.783
4.786
4.786
4.790
4.789
4.782
4.785
4.783
4.779
4.778
4.779
4.778
4.775
4.769
4.766
4.760
4.759
4.767
4.768
4.775
4.774
4.773
4.768
4.770
4.770
4.765
4.770
4.764
4.763
4.763
4.760
4.754
4.753
4.751
4.743
4.743
4.744
4.749
4.747
4.743
4.742
4.743
4.747
4.744
4.740
4.735
4.731
4.726
4.725
4.725
4.723
4.717
4.716
4.711
4.716
4.722
4.727
4.732
4.737
4.742
4.747
4.752
4.758
4.762
4.768
4.771
4.771
4.778
4.784
4.778
4.771
4.770
4.767
4.764
4.766
4.767
4.764
4.767
4.770
4.766
4.761
4.766
4.762
4.759
4.755
4.761
4.758
4.753
4.749
4.749
4.751
4.754
4.751
4.746
4.747
4.746
4.741
4.746
4.745
4.744
4.739
4.736
4.741
4.747
4.740
4.739
4.735
4.733
4.730
4.733
4.736
4.739
4.741
4.737
4.736
4.740
4.741
4.748
4.754
4.750
4.749
4.749
4.748
4.745
4.741
4.735
4.734
4.738
4.737
4.735
4.733
4.728
4.730
4.723
4.723
4.720
4.718
4.723
4.716
4.723
4.723
4.728
4.726
4.730
4.727
4.723
4.726
4.733
