2.992
3.332
3.518
3.635
3.719
3.794
3.835
3.879
3.942
3.960
4.012
4.005
4.045
4.079
4.101
4.075
4.101
4.126
4.144
4.164
4.186
4.206
4.226
4.242
4.260
4.230
4.193
4.190
4.197
4.212
4.218
4.233
4.237
4.249
4.249
4.268
4.267
4.275
4.287
4.288
4.298
4.305
4.317
4.315
4.323
4.331
4.339
4.337
4.342
4.349
4.358
4.367
4.361
4.365
4.369
4.379
4.385
4.392
4.386
4.390
4.399
4.401
4.407
4.414
4.418
4.423
4.426
4.416
4.421
4.430
4.431
4.436
4.443
4.441
4.448
4.457
4.462
4.463
4.462
4.455
4.459
4.461
4.462
4.468
4.473
4.480
4.481
4.480
4.486
4.494
4.500
4.501
4.500
4.507
4.508
4.513
4.495
4.499
4.505
4.499
4.506
4.508
4.508
4.515
4.520
4.521
4.522
4.521
4.530
4.527
4.534
4.535
4.541
4.540
4.549
4.542
4.549
4.553
4.553
4.557
4.561
4.562
4.569
4.570
4.555
4.548
4.545
4.548
4.547
4.548
4.553
4.559
4.560
4.562
4.566
4.564
4.566
4.568
4.575
4.567
4.569
4.571
4.572
4.575
4.579
4.579
4.585
4.592
4.594
4.595
4.591
4.597
4.594
4.603
4.604
4.597
4.602
4.600
4.605
4.606
4.607
4.609
4.612
4.616
4.621
4.617
4.621
4.628
4.624
4.623
4.632
4.633
4.634
4.633
4.637
4.628
4.634
4.639
4.637
4.628
4.618
4.608
4.608
4.605
4.610
4.608
4.615
4.617
4.624
4.619
4.618
4.628
4.624
4.631
4.621
4.628
4.626
4.628
4.629
4.634
4.634
4.639
4.638
4.636
4.635
4.638
4.637
4.634
4.635
4.634
4.635
4.639
4.637
4.644
4.642
4.647
4.646
4.647
4.648
4.645
4.656
4.653
4.657
4.661
4.656
4.664
4.662
4.663
4.659
4.657
4.664
4.660
4.665
4.669
4.667
4.675
4.675
4.674
4.681
4.679
4.675
4.664
4.662
4.674
4.671
4.666
4.679
4.680
4.670
4.672
4.675
4.668
4.682
4.675
4.676
4.682
4.682
4.680
4.686
4.682
4.684
4.685
4.690
4.691
4.690
4.697
4.698
4.697
4.698
4.701
4.705
4.697
4.703
4.702
4.697
4.697
4.701
4.702
4.700
4.705
4.712
4.708
4.708
4.710
4.716
4.712
4.714
4.716
4.723
4.718
4.716
4.720
4.728
4.727
4.722
4.720
4.712
4.708
4.711
4.718
4.719
4.716
4.716
4.721
4.730
4.724
4.716
4.715
4.725
4.723
4.719
4.713
4.722
4.721
4.723
4.720
4.722
4.729
4.733
4.727
4.730
4.724
4.734
4.745
4.742
4.742
4.736
4.738
4.747
4.743
4.744
4.740
4.741
4.753
4.747
4.748
4.750
4.745
4.739
4.732
4.728
4.723
4.717
4.716
4.717
4.715
4.716
4.724
4.719
4.718
4.709
4.708
4.716
4.715
4.716
4.716
4.712
4.718
4.725
4.726
4.723
4.723
4.720
4.716
4.727
4.735
4.727
4.723
4.717
4.716
4.725
4.731
4.730
4.737
4.730
4.726
4.727
4.734
4.736
4.734
4.734
4.737
4.734
4.734
4.738
4.748
4.752
4.749
4.749
4.748
4.739
4.737
4.730
4.727
4.727
4.721
4.722
4.731
4.738
4.735
4.734
4.734
4.731
4.726
4.727
4.737
4.730
4.721
4.722
4.716
4.717
4.721
4.730
4.737
4.733
4.734
4.731
4.729
4.722
4.723
4.733
4.738
4.731
4.729
4.730
4.732
4.730
4.731
4.733
4.742
4.738
4.742
4.744
4.743
4.739
4.738
4.742
4.742
4.749
4.748
4.744
4.746
4.750
4.748
4.749
4.745
4.741
4.749
4.758
4.749
4.744
4.743
4.744
4.743
4.742
4.743
4.749
4.757
4.757
4.760
4.755
4.754
4.752
4.749
4.750
4.748
4.753
4.762
4.763
4.764
4.764
4.764
4.761
4.765
4.766
4.764
4.761
4.764
4.772
4.778
4.774
4.771
4.764
4.759
4.761
4.759
4.752
4.757
4.768
4.768
4.771
4.764
4.766
4.764
4.766
4.762
4.760
4.757
4.760
4.768
4.768
4.765
4.763
4.760
4.761
4.762
4.760
4.760
4.761
4.759
4.766
4.773
4.782
4.781
4.780
4.775
4.774
4.768
4.772
4.775
4.772
4.770
4.772
4.775
4.783
4.790
4.788
4.786
4.780
4.775
4.772
4.768
4.769
4.770
4.777
4.771
4.779
4.787
4.791
4.792
4.790
4.794
4.788
4.789
4.791
4.787
4.785
4.786
4.788
4.784
4.786
4.795
4.802
4.811
4.812
4.808
4.804
4.798
4.797
4.790
4.796
4.795
4.791
4.792
4.791
4.797
4.804
4.806
4.805
4.801
4.802
4.801
4.799
4.798
4.794
4.789
4.785
4.781
4.782
4.789
4.783
4.784
4.782
4.779
4.780
4.776
4.782
4.779
4.785
4.778
4.775
4.771
4.772
4.781
4.788
4.789
4.793
4.795
4.790
4.786
4.779
4.775
4.771
4.768
4.766
4.765
4.763
4.765
4.772
4.778
4.782
4.786
4.786
4.784
4.785
4.782
4.786
4.782
4.779
4.779
4.777
4.776
4.772
4.771
4.774
4.775
4.780
4.786
4.793
4.794
4.794
4.797
4.794
4.792
4.788
4.787
4.786
4.790
4.796
4.797
4.794
4.794
4.793
4.784
4.780
4.787
4.793
4.801
4.804
4.798
4.796
4.789
4.788
4.792
4.790
4.792
4.788
4.789
4.790
4.787
4.788
4.784
4.777
4.779
4.786
4.794
4.801
4.797
4.791
4.794
4.788
4.787
4.788
4.790
4.790
4.787
4.786
4.787
4.785
4.787
4.788
4.784
4.782
4.782
4.785
4.792
4.799
4.805
4.812
4.811
4.807
4.808
4.807
4.801
4.802
4.803
4.802
4.801
4.804
4.803
4.807
4.801
4.802
4.805
4.804
4.806
4.802
4.800
4.802
4.809
4.815
4.817
4.812
4.811
4.815
4.812
4.812
4.816
4.815
4.812
4.807
4.803
4.802
4.800
4.799
4.795
4.799
4.805
4.804
4.800
4.799
4.803
4.810
4.814
4.821
4.822
4.823
4.820
4.820
4.816
4.816
4.817
4.820
4.819
4.823
4.823
4.821
4.816
4.813
4.814
4.812
4.816
4.816
4.817
4.815
4.816
4.810
4.812
4.820
4.825
4.832
4.836
4.843
4.838
4.842
4.838
4.832
4.834
4.834
4.830
4.834
4.828
4.829
4.831
4.831
4.827
4.827
4.827
4.824
4.820
4.821
4.823
4.818
4.822
4.820
4.823
4.827
4.834
4.831
4.825
4.823
4.819
4.816
4.814
4.816
4.812
4.812
4.808
4.807
4.808
4.807
4.806
4.810
4.806
4.807
4.809
4.810
4.809
4.812
4.812
4.810
4.811
4.816
4.822
4.827
4.833
4.837
4.831
4.831
4.827
4.823
4.820
4.818
4.816
4.810
4.811
4.816
4.816
4.818
4.817
4.813
4.812
4.808
4.806
4.805
4.803
4.804
4.803
4.801
4.801
4.804
4.809
4.815
4.820
4.826
4.831
4.831
4.834
4.840
4.842
4.840
4.838
4.835
4.831
4.835
4.834
4.835
4.833
4.835
4.834
4.832
4.827
4.824
4.823
4.820
4.822
4.823
4.820
4.823
4.822
4.820
4.817
4.813
4.809
4.813
4.819
4.824
4.828
4.834
4.839
4.842
4.841
4.840
4.839
4.843
4.842
4.838
4.836
4.838
4.841
4.843
4.842
4.845
4.844
4.845
4.839
4.838
4.841
4.845
4.839
4.842
4.841
4.838
4.838
4.834
4.828
4.826
4.827
4.829
4.827
4.827
4.830
4.831
4.833
4.838
4.844
4.848
4.853
4.857
4.861
4.862
4.860
4.856
4.855
4.851
4.855
4.854
4.852
4.853
4.857
4.857
4.857
4.853
4.855
4.859
4.858
4.860
4.861
4.860
4.855
4.853
4.849
4.851
4.850
4.851
4.847
4.843
4.845
4.842
4.844
4.845
4.847
4.843
4.842
4.848
4.850
4.856
4.861
4.867
4.868
4.865
4.869
4.865
4.868
4.867
4.869
4.867
4.866
4.860
4.861
4.860
4.863
4.862
4.858
4.854
4.852
4.848
4.842
4.842
4.836
4.835
4.836
4.838
4.833
4.837
4.841
4.837
4.836
4.838
4.839
4.840
4.838
4.834
4.834
4.840
4.844
4.849
4.853
4.857
4.863
