2.987
3.335
3.505
3.627
3.717
3.781
3.815
3.890
3.873
3.925
3.968
4.015
4.050
4.063
3.992
4.003
4.026
4.042
4.061
4.082
4.089
4.106
4.124
4.133
4.146
4.166
4.164
4.180
4.199
4.193
4.206
4.221
4.229
4.224
4.234
4.249
4.261
4.264
4.281
4.270
4.277
4.288
4.284
4.307
4.317
4.319
4.328
4.319
4.316
4.323
4.336
4.332
4.343
4.348
4.360
4.361
4.362
4.374
4.382
4.391
4.391
4.371
4.368
4.373
4.381
4.389
4.397
4.394
4.401
4.398
4.415
4.412
4.423
4.423
4.419
4.425
4.427
4.432
4.445
4.451
4.448
4.451
4.464
4.465
4.463
4.454
4.463
4.468
4.446
4.438
4.445
4.451
4.448
4.449
4.455
4.462
4.473
4.459
4.466
4.459
4.467
4.475
4.468
4.476
4.481
4.494
4.486
4.485
4.491
4.499
4.494
4.503
4.513
4.506
4.514
4.510
4.501
4.497
4.505
4.503
4.509
4.514
4.513
4.527
4.526
4.538
4.532
4.537
4.529
4.534
4.527
4.540
4.539
4.553
4.545
4.551
4.550
4.560
4.558
4.564
4.561
4.560
4.559
4.554
4.556
4.547
4.556
4.555
4.567
4.565
4.564
4.581
4.570
4.571
4.582
4.582
4.584
4.585
4.590
4.593
4.593
4.592
4.599
4.593
4.582
4.570
4.559
4.559
4.553
4.551
4.570
4.558
4.550
4.570
4.562
4.559
4.567
4.578
4.576
4.580
4.582
4.583
4.584
4.574
4.594
4.584
4.569
4.578
4.569
4.564
4.563
4.567
4.566
4.558
4.560
4.566
4.565
4.566
4.560
4.580
4.581
4.580
4.579
4.574
4.588
4.585
4.589
4.581
4.585
4.587
4.587
4.586
4.582
4.591
4.599
4.590
4.593
4.590
4.593
4.614
4.610
4.608
4.604
4.601
4.611
4.622
4.606
4.601
4.594
4.602
4.606
4.615
4.606
4.592
4.596
4.609
4.614
4.608
4.609
4.606
4.605
4.610
4.629
4.629
4.615
4.610
4.608
4.608
4.623
4.631
4.633
4.631
4.633
4.622
4.633
4.630
4.648
4.648
4.638
4.641
4.638
4.636
4.632
4.648
4.650
4.655
4.652
4.644
4.638
4.638
4.641
4.647
4.637
4.627
4.617
4.610
4.617
4.628
4.638
4.634
4.631
4.623
4.610
4.608
4.610
4.624
4.631
4.634
4.627
4.621
4.620
4.621
4.623
4.624
4.628
4.644
4.643
4.643
4.636
4.630
4.624
4.624
4.623
4.624
4.639
4.654
4.647
4.634
4.625
4.625
4.623
4.620
4.618
4.626
4.640
4.644
4.651
4.649
4.645
4.640
4.636
4.637
4.645
4.643
4.643
4.646
4.660
4.662
4.657
4.659
4.656
4.653
4.659
4.653
4.642
4.638
4.642
4.655
4.669
4.665
4.662
4.665
4.657
4.660
4.663
4.664
4.662
4.657
4.659
4.658
4.667
4.680
4.687
4.689
4.690
4.680
4.680
4.679
4.667
4.670
4.669
4.668
4.665
4.668
4.679
4.685
4.685
4.681
4.683
4.673
4.664
4.655
4.654
4.656
4.654
4.654
4.658
4.665
4.677
4.674
4.670
4.663
4.659
4.660
4.658
4.656
4.658
4.653
4.657
4.655
4.654
4.654
4.662
4.674
4.686
4.692
4.689
4.675
4.679
4.676
4.674
4.672
4.663
4.661
4.663
4.670
4.666
4.666
4.666
4.668
4.679
4.691
4.702
4.704
4.694
4.691
4.688
4.692
4.689
4.687
4.692
4.683
4.676
4.680
4.684
4.679
4.685
4.687
4.689
4.694
4.701
4.712
4.715
4.715
4.715
4.719
4.717
4.710
4.710
4.706
4.702
4.706
4.706
4.714
4.703
4.694
4.691
4.686
4.684
4.694
4.705
4.715
4.709
4.716
4.710
4.703
4.700
4.699
4.695
4.696
4.696
4.694
4.691
4.693
4.687
4.688
4.696
4.698
4.686
4.690
4.689
4.699
4.709
4.719
4.728
4.729
4.724
4.721
4.722
4.717
4.722
4.725
4.715
4.712
4.716
4.720
4.720
4.723
4.724
4.722
4.713
4.714
4.706
4.709
4.709
4.707
4.717
4.721
4.730
4.740
4.749
4.750
4.746
4.749
4.742
4.739
4.733
4.728
4.733
4.733
4.732
4.734
4.741
4.735
4.730
4.727
4.727
4.725
4.727
4.725
4.726
4.725
4.728
4.724
4.727
4.733
4.728
4.722
4.717
4.719
4.719
4.722
4.719
4.709
4.713
4.714
4.706
4.706
4.707
4.710
4.712
4.707
4.702
4.699
4.711
4.713
4.710
4.706
4.706
4.699
4.698
4.707
4.715
4.724
4.726
4.730
4.732
4.725
4.719
4.711
4.707
4.707
4.700
4.711
4.716
4.720
4.716
4.708
4.700
4.689
4.691
4.694
4.692
4.690
4.685
4.682
4.686
4.687
4.689
4.688
4.685
4.686
4.694
4.702
4.710
4.718
4.726
4.734
4.736
4.728
4.727
4.725
4.723
4.728
4.725
4.720
4.723
4.732
4.734
4.729
4.722
4.715
4.708
4.701
4.701
4.698
4.698
4.697
4.695
4.692
4.691
4.685
4.689
4.688
4.679
4.676
4.677
4.682
4.690
4.697
4.705
4.712
4.720
4.727
4.726
4.722
4.720
4.719
4.719
4.718
4.729
4.727
4.727
4.727
4.729
4.724
4.731
4.732
4.730
4.733
4.732
4.723
4.718
4.719
4.712
4.712
4.710
4.702
4.708
4.698
4.692
4.696
4.697
4.704
4.706
4.700
4.705
4.702
4.702
4.697
4.694
4.701
4.708
4.715
4.722
4.729
4.736
4.735
4.728
4.727
4.723
4.730
4.730
4.726
4.724
4.729
4.726
4.723
4.716
4.713
4.711
4.710
4.720
4.724
4.722
4.721
4.720
4.721
4.717
4.711
4.711
4.714
4.718
4.715
4.715
4.714
4.714
4.716
4.713
4.712
4.712
4.709
4.712
4.706
4.702
4.699
4.692
4.692
4.698
4.704
4.711
4.717
4.724
4.731
4.737
4.744
4.745
4.742
4.747
4.742
4.742
4.747
4.743
4.748
4.750
4.744
4.737
4.733
4.736
4.737
4.731
4.732
4.727
4.724
4.726
4.725
4.732
4.726
4.728
4.726
4.723
4.725
4.722
4.715
4.717
4.725
4.729
4.729
4.733
4.731
4.731
4.728
4.724
4.716
4.717
4.713
4.706
4.707
4.709
4.707
4.704
4.701
4.698
4.702
4.706
4.712
4.718
4.724
4.730
4.736
4.742
4.749
4.755
4.760
4.754
4.752
4.754
4.752
4.759
4.761
4.759
4.758
4.758
4.757
4.755
4.763
4.762
4.759
4.757
4.759
4.754
4.753
4.751
4.748
4.742
4.740
4.743
4.744
4.747
4.743
4.737
4.735
4.731
4.727
4.727
4.729
4.738
4.742
4.745
4.738
4.744
4.743
4.746
4.739
4.740
4.737
4.734
4.733
4.729
4.731
4.727
4.734
4.739
4.737
4.741
4.744
4.735
4.731
4.732
4.734
4.732
4.731
4.731
4.736
4.740
4.746
4.751
4.757
4.763
4.768
4.774
4.779
4.785
4.791
4.796
4.800
4.800
4.793
4.787
4.783
4.788
4.786
4.781
4.788
4.788
4.793
4.786
4.784
4.784
4.782
4.780
4.780
4.777
4.776
4.772
4.769
4.764
4.758
4.762
4.767
4.772
4.776
4.774
4.770
4.770
4.769
4.767
4.769
4.769
4.766
4.762
4.762
4.757
4.754
4.753
4.748
4.743
4.744
4.746
4.746
4.743
4.741
4.742
4.743
4.747
4.742
4.738
4.733
4.729
4.724
4.724
4.721
4.722
4.714
4.714
4.715
4.719
4.724
4.729
4.734
4.739
4.744
4.750
4.755
4.760
4.765
4.769
4.768
4.774
4.781
4.781
4.775
4.768
4.770
4.770
4.766
4.769
4.763
4.766
4.767
4.768
4.765
4.761
4.764
4.759
4.759
4.754
4.761
4.755
4.751
4.746
4.748
4.753
4.752
4.747
4.747
4.746
4.743
4.740
4.745
4.745
4.741
4.737
4.737
4.743
4.746
4.740
4.735
4.733
4.732
4.733
4.733
4.738
4.739
4.743
4.734
4.734
4.740
4.744
4.751
4.751
4.750
4.748
4.746
4.746
4.743
4.739
4.733
4.735
4.737
4.736
4.734
4.731
4.730
4.726
4.722
4.726
4.719
4.720
4.719
4.720
4.723
4.725
4.727
4.727
4.731
4.727
4.724
4.729
4.732
