2.993
3.328
3.500
3.637
3.711
3.779
3.813
3.891
3.877
3.928
3.964
4.012
4.049
4.079
4.008
4.005
4.022
4.042
4.069
4.084
4.094
4.118
4.121
4.142
4.145
4.163
4.162
4.181
4.193
4.202
4.201
4.219
4.231
4.246
4.239
4.251
4.253
4.269
4.280
4.280
4.271
4.285
4.298
4.300
4.312
4.316
4.323
4.333
4.323
4.320
4.333
4.340
4.338
4.347
4.353
4.361
4.369
4.370
4.375
4.389
4.397
4.393
4.371
4.373
4.381
4.385
4.398
4.399
4.396
4.401
4.408
4.410
4.414
4.422
4.426
4.429
4.432
4.431
4.440
4.447
4.444
4.457
4.459
4.468
4.469
4.464
4.466
4.474
4.477
4.456
4.440
4.454
4.458
4.454
4.459
4.464
4.467
4.468
4.475
4.460
4.468
4.463
4.469
4.479
4.479
4.482
4.481
4.496
4.493
4.481
4.496
4.507
4.501
4.507
4.516
4.510
4.511
4.512
4.506
4.501
4.518
4.508
4.512
4.512
4.523
4.524
4.534
4.534
4.532
4.541
4.532
4.541
4.532
4.553
4.546
4.556
4.552
4.557
4.561
4.556
4.568
4.561
4.567
4.552
4.561
4.559
4.567
4.558
4.563
4.564
4.555
4.568
4.569
4.569
4.575
4.577
4.583
4.594
4.588
4.594
4.594
4.592
4.603
4.598
4.595
4.601
4.590
4.579
4.567
4.557
4.566
4.556
4.555
4.571
4.556
4.556
4.576
4.566
4.564
4.568
4.583
4.581
4.579
4.582
4.586
4.591
4.578
4.592
4.585
4.570
4.575
4.572
4.569
4.571
4.578
4.571
4.565
4.560
4.571
4.571
4.571
4.568
4.573
4.582
4.588
4.581
4.583
4.586
4.596
4.592
4.590
4.582
4.593
4.592
4.588
4.591
4.579
4.600
4.602
4.595
4.591
4.597
4.600
4.620
4.615
4.610
4.609
4.604
4.616
4.617
4.604
4.600
4.600
4.606
4.613
4.620
4.603
4.595
4.600
4.610
4.618
4.616
4.615
4.613
4.612
4.610
4.628
4.632
4.622
4.610
4.613
4.615
4.621
4.635
4.635
4.636
4.634
4.629
4.632
4.635
4.643
4.653
4.646
4.645
4.646
4.645
4.635
4.642
4.658
4.660
4.656
4.654
4.644
4.647
4.645
4.650
4.642
4.632
4.622
4.620
4.618
4.621
4.634
4.639
4.637
4.630
4.621
4.613
4.613
4.612
4.628
4.634
4.636
4.632
4.628
4.621
4.626
4.627
4.628
4.630
4.645
4.650
4.641
4.639
4.634
4.631
4.624
4.624
4.627
4.638
4.653
4.647
4.639
4.626
4.630
4.624
4.627
4.621
4.622
4.637
4.651
4.652
4.655
4.649
4.649
4.641
4.644
4.648
4.651
4.646
4.645
4.654
4.662
4.660
4.659
4.665
4.661
4.660
4.658
4.649
4.635
4.643
4.647
4.661
4.674
4.670
4.668
4.668
4.663
4.665
4.671
4.667
4.667
4.662
4.659
4.665
4.669
4.682
4.689
4.696
4.691
4.682
4.682
4.680
4.672
4.673
4.672
4.669
4.673
4.675
4.678
4.690
4.689
4.686
4.683
4.674
4.666
4.659
4.659
4.661
4.659
4.660
4.662
4.661
4.673
4.677
4.675
4.669
4.662
4.666
4.659
4.663
4.663
4.663
4.660
4.655
4.659
4.662
4.658
4.668
4.679
4.691
4.693
4.682
4.678
4.682
4.682
4.677
4.673
4.667
4.662
4.667
4.675
4.674
4.674
4.670
4.670
4.681
4.693
4.704
4.706
4.694
4.692
4.693
4.697
4.695
4.695
4.693
4.687
4.684
4.691
4.687
4.686
4.691
4.687
4.694
4.697
4.700
4.710
4.720
4.719
4.725
4.719
4.725
4.712
4.716
4.708
4.702
4.709
4.708
4.717
4.708
4.700
4.700
4.691
4.690
4.690
4.700
4.710
4.710
4.718
4.716
4.709
4.711
4.705
4.704
4.699
4.699
4.700
4.699
4.697
4.696
4.691
4.697
4.701
4.698
4.693
4.690
4.691
4.701
4.710
4.720
4.730
4.732
4.727
4.727
4.725
4.725
4.726
4.727
4.722
4.716
4.719
4.724
4.722
4.724
4.726
4.729
4.719
4.715
4.710
4.711
4.712
4.715
4.717
4.724
4.727
4.737
4.746
4.755
4.758
4.752
4.749
4.744
4.740
4.732
4.734
4.736
4.737
4.738
4.739
4.741
4.736
4.733
4.735
4.732
4.724
4.729
4.729
4.733
4.733
4.730
4.731
4.729
4.731
4.726
4.723
4.720
4.724
4.725
4.726
4.718
4.715
4.715
4.715
4.713
4.711
4.710
4.714
4.715
4.714
4.706
4.705
4.711
4.714
4.713
4.711
4.706
4.700
4.697
4.706
4.714
4.722
4.731
4.732
4.734
4.728
4.723
4.713
4.708
4.713
4.704
4.708
4.719
4.724
4.723
4.713
4.703
4.697
4.695
4.699
4.697
4.692
4.691
4.689
4.688
4.687
4.692
4.694
4.693
4.685
4.690
4.700
4.705
4.712
4.720
4.728
4.736
4.736
4.731
4.733
4.730
4.730
4.733
4.729
4.729
4.726
4.733
4.735
4.728
4.721
4.714
4.708
4.702
4.700
4.700
4.702
4.701
4.698
4.697
4.693
4.686
4.694
4.690
4.682
4.680
4.679
4.684
4.688
4.695
4.702
4.710
4.717
4.725
4.731
4.729
4.726
4.721
4.729
4.723
4.724
4.733
4.735
4.729
4.732
4.731
4.732
4.734
4.738
4.734
4.738
4.733
4.724
4.725
4.720
4.715
4.717
4.709
4.707
4.705
4.701
4.695
4.700
4.702
4.706
4.708
4.703
4.711
4.709
4.703
4.696
4.694
4.701
4.708
4.715
4.722
4.729
4.736
4.737
4.736
4.734
4.731
4.734
4.737
4.731
4.730
4.732
4.732
4.728
4.721
4.717
4.716
4.718
4.717
4.727
4.725
4.724
4.722
4.727
4.723
4.719
4.718
4.718
4.717
4.725
4.722
4.718
4.714
4.721
4.717
4.718
4.718
4.715
4.717
4.715
4.704
4.707
4.701
4.696
4.701
4.699
4.706
4.712
4.719
4.725
4.732
4.738
4.745
4.747
4.751
4.747
4.748
4.750
4.749
4.752
4.749
4.755
4.749
4.741
4.741
4.738
4.740
4.741
4.736
4.730
4.726
4.731
4.732
4.735
4.734
4.734
4.733
4.730
4.732
4.726
4.721
4.722
4.722
4.731
4.736
4.733
4.737
4.729
4.736
4.727
4.717
4.722
4.716
4.713
4.708
4.712
4.714
4.711
4.708
4.706
4.703
4.707
4.708
4.714
4.720
4.726
4.732
4.738
4.744
4.750
4.756
4.762
4.762
4.761
4.759
4.754
4.762
4.767
4.767
4.764
4.762
4.759
4.758
4.763
4.767
4.765
4.763
4.759
4.760
4.760
4.756
4.749
4.744
4.748
4.747
4.749
4.751
4.749
4.745
4.740
4.740
4.733
4.731
4.732
4.736
4.744
4.746
4.747
4.744
4.748
4.751
4.747
4.745
4.745
4.740
4.739
4.739
4.734
4.729
4.733
4.737
4.745
4.742
4.745
4.746
4.736
4.732
4.737
4.739
4.733
4.737
4.734
4.735
4.741
4.747
4.752
4.758
4.763
4.769
4.774
4.780
4.785
4.791
4.797
4.800
4.801
4.792
4.787
4.785
4.791
4.788
4.789
4.793
4.792
4.795
4.790
4.788
4.789
4.788
4.787
4.780
4.786
4.780
4.774
4.771
4.765
4.760
4.759
4.767
4.772
4.780
4.781
4.775
4.771
4.775
4.770
4.764
4.773
4.772
4.769
4.768
4.764
4.758
4.758
4.755
4.750
4.750
4.750
4.751
4.750
4.747
4.746
4.747
4.747
4.746
4.741
4.737
4.732
4.733
4.727
4.732
4.729
4.721
4.719
4.718
4.716
4.718
4.724
4.729
4.734
4.739
4.744
4.749
4.754
4.759
4.764
4.769
4.774
4.774
4.779
4.783
4.779
4.775
4.775
4.775
4.769
4.770
4.770
4.767
4.772
4.772
4.769
4.768
4.767
4.766
4.765
4.764
4.761
4.759
4.755
4.753
4.754
4.754
4.756
4.754
4.752
4.754
4.748
4.747
4.745
4.751
4.746
4.744
4.743
4.744
4.744
4.750
4.743
4.738
4.734
4.737
4.737
4.735
4.740
4.743
4.742
4.741
4.742
4.741
4.744
4.750
4.757
4.756
4.755
4.752
4.753
4.747
4.739
4.736
4.741
4.739
4.739
4.739
4.737
4.736
