2.992
3.331
3.507
3.628
3.716
3.775
3.834
3.871
3.933
3.942
3.986
4.031
4.023
4.033
4.067
4.093
4.119
4.140
4.168
4.186
4.204
4.171
4.128
4.142
4.158
4.168
4.175
4.190
4.199
4.212
4.216
4.230
4.232
4.246
4.256
4.258
4.267
4.280
4.278
4.286
4.292
4.307
4.308
4.309
4.317
4.326
4.336
4.346
4.334
4.343
4.350
4.359
4.364
4.371
4.375
4.368
4.374
4.378
4.390
4.392
4.394
4.405
4.410
4.412
4.401
4.405
4.409
4.412
4.423
4.428
4.426
4.430
4.437
4.444
4.451
4.449
4.457
4.460
4.449
4.447
4.446
4.452
4.459
4.466
4.468
4.471
4.465
4.475
4.476
4.483
4.486
4.488
4.498
4.494
4.497
4.499
4.508
4.510
4.519
4.515
4.523
4.507
4.495
4.497
4.498
4.501
4.508
4.510
4.520
4.516
4.516
4.523
4.525
4.520
4.523
4.524
4.530
4.534
4.541
4.545
4.546
4.545
4.546
4.554
4.558
4.548
4.552
4.559
4.558
4.554
4.564
4.565
4.564
4.573
4.575
4.579
4.575
4.583
4.583
4.583
4.591
4.584
4.588
4.586
4.596
4.586
4.575
4.565
4.561
4.565
4.563
4.571
4.571
4.570
4.577
4.583
4.575
4.578
4.583
4.581
4.586
4.584
4.593
4.595
4.588
4.589
4.586
4.586
4.594
4.583
4.594
4.586
4.599
4.590
4.601
4.595
4.602
4.600
4.610
4.608
4.612
4.612
4.618
4.612
4.618
4.609
4.616
4.619
4.623
4.627
4.624
4.633
4.631
4.631
4.626
4.625
4.621
4.628
4.631
4.625
4.623
4.620
4.635
4.627
4.629
4.634
4.631
4.636
4.634
4.634
4.645
4.642
4.643
4.653
4.653
4.650
4.657
4.660
4.649
4.664
4.654
4.649
4.656
4.657
4.657
4.668
4.667
4.663
4.668
4.669
4.670
4.671
4.676
4.672
4.671
4.683
4.676
4.674
4.679
4.668
4.664
4.672
4.678
4.679
4.675
4.683
4.675
4.671
4.673
4.680
4.670
4.669
4.679
4.682
4.683
4.677
4.684
4.686
4.689
4.690
4.687
4.697
4.692
4.694
4.692
4.702
4.705
4.704
4.701
4.702
4.706
4.705
4.705
4.702
4.698
4.691
4.686
4.680
4.673
4.666
4.667
4.674
4.662
4.666
4.665
4.671
4.676
4.679
4.675
4.672
4.676
4.690
4.683
4.682
4.679
4.674
4.679
4.682
4.679
4.685
4.679
4.688
4.686
4.686
4.687
4.683
4.686
4.697
4.701
4.701
4.701
4.702
4.694
4.705
4.705
4.696
4.689
4.680
4.687
4.690
4.689
4.686
4.689
4.685
4.690
4.688
4.687
4.680
4.671
4.677
4.686
4.690
4.689
4.686
4.681
4.674
4.686
4.690
4.686
4.682
4.684
4.680
4.684
4.691
4.697
4.696
4.697
4.696
4.697
4.694
4.695
4.705
4.705
4.699
4.705
4.701
4.700
4.702
4.701
4.709
4.705
4.704
4.698
4.696
4.697
4.699
4.709
4.715
4.709
4.710
4.708
4.709
4.705
4.704
4.711
4.718
4.723
4.723
4.720
4.723
4.719
4.723
4.719
4.721
4.731
4.731
4.731
4.729
4.720
4.712
4.705
4.715
4.725
4.726
4.722
4.721
4.719
4.721
4.717
4.713
4.714
4.720
4.723
4.720
4.719
4.718
4.720
4.713
4.720
4.718
4.722
4.732
4.738
4.731
4.730
4.731
4.736
4.734
4.730
4.724
4.727
4.735
4.744
4.734
4.733
4.729
4.733
4.732
4.733
4.727
4.731
4.731
4.741
4.749
4.750
4.751
4.749
4.746
4.749
4.745
4.742
4.743
4.752
4.753
4.753
4.764
4.760
4.759
4.757
4.756
4.755
4.756
4.753
4.754
4.750
4.749
4.758
4.762
4.763
4.765
4.761
4.762
4.757
4.751
4.746
4.740
4.736
4.743
4.741
4.742
4.746
4.745
4.738
4.734
4.731
4.732
4.731
4.731
4.731
4.742
4.750
4.746
4.739
4.734
4.728
4.727
4.723
4.726
4.722
4.723
4.722
4.727
4.736
4.745
4.746
4.743
4.741
4.742
4.741
4.738
4.733
4.735
4.734
4.732
4.730
4.735
4.736
4.743
4.753
4.756
4.760
4.757
4.761
4.760
4.753
4.748
4.744
4.740
4.738
4.740
4.742
4.737
4.744
4.753
4.760
4.760
4.757
4.754
4.758
4.751
4.746
4.749
4.744
4.743
4.742
4.734
4.730
4.737
4.744
4.753
4.753
4.762
4.760
4.757
4.757
4.753
4.750
4.756
4.753
4.749
4.750
4.753
4.749
4.746
4.747
4.748
4.755
4.762
4.771
4.771
4.772
4.773
4.768
4.773
4.774
4.776
4.771
4.762
4.761
4.760
4.760
4.754
4.752
4.760
4.760
4.764
4.771
4.775
4.775
4.767
4.769
4.767
4.766
4.764
4.764
4.768
4.766
4.767
4.764
4.765
4.760
4.760
4.760
4.762
4.761
4.768
4.775
4.783
4.785
4.789
4.788
4.786
4.790
4.787
4.788
4.787
4.786
4.786
4.783
4.781
4.782
4.786
4.783
4.781
4.777
4.773
4.775
4.779
4.786
4.794
4.796
4.792
4.791
4.790
4.788
4.795
4.797
4.795
4.793
4.789
4.783
4.778
4.777
4.776
4.774
4.775
4.774
4.768
4.769
4.776
4.783
4.786
4.785
4.781
4.780
4.783
4.782
4.778
4.779
4.781
4.779
4.778
4.783
4.779
4.779
4.775
4.779
4.776
4.769
4.765
4.760
4.765
4.772
4.778
4.777
4.781
4.777
4.781
4.783
4.784
4.785
4.779
4.777
4.773
4.775
4.778
4.777
4.778
4.774
4.775
4.775
4.771
4.779
4.781
4.779
4.783
4.782
4.776
4.777
4.783
4.788
4.794
4.794
4.794
4.794
4.790
4.788
4.789
4.791
4.789
4.790
4.784
4.785
4.783
4.783
4.784
4.786
4.787
4.783
4.781
4.783
4.781
4.785
4.783
4.779
4.779
4.785
4.786
4.791
4.798
4.802
4.809
4.815
4.814
4.807
4.809
4.809
4.806
4.802
4.798
4.802
4.800
4.799
4.801
4.797
4.800
4.804
4.801
4.799
4.801
4.805
4.803
4.801
4.797
4.801
4.803
4.804
4.801
4.797
4.800
4.804
4.809
4.815
4.820
4.823
4.823
4.821
4.823
4.831
4.827
4.821
4.819
4.820
4.816
4.812
4.809
4.809
4.814
4.818
4.814
4.816
4.814
4.810
4.805
4.805
4.805
4.812
4.808
4.807
4.808
4.805
4.805
4.804
4.805
4.810
4.816
4.820
4.819
4.818
4.820
4.818
4.812
4.812
4.805
4.802
4.806
4.804
4.811
4.813
4.814
4.818
4.812
4.812
4.812
4.813
4.806
4.807
4.805
4.805
4.803
4.796
4.797
4.797
4.798
4.796
4.798
4.797
4.795
4.801
4.806
4.812
4.819
4.824
4.828
4.834
4.838
4.835
4.834
4.831
4.830
4.829
4.834
4.834
4.831
4.826
4.825
4.824
4.825
4.826
4.827
4.826
4.827
4.826
4.822
4.823
4.830
4.827
4.828
4.829
4.827
4.823
4.823
4.826
4.828
4.827
4.827
4.826
4.823
4.823
4.820
4.826
4.822
4.827
4.833
4.838
4.842
4.848
4.855
4.860
4.863
4.862
4.861
4.856
4.855
4.857
4.853
4.848
4.841
4.845
4.846
4.843
4.847
4.848
4.842
4.835
4.833
4.834
4.833
4.831
4.836
4.838
4.838
4.838
4.834
4.832
4.831
4.829
4.834
4.835
4.831
4.829
4.825
4.823
4.819
4.821
4.825
4.831
4.836
4.838
4.834
4.829
4.825
4.821
4.817
4.820
4.819
4.815
4.816
4.821
4.817
4.820
4.819
4.813
4.817
4.823
4.823
4.818
4.817
4.816
4.816
4.815
4.814
4.812
4.816
4.818
4.816
4.816
4.816
4.810
4.806
4.813
4.814
4.815
4.812
4.810
4.806
4.802
4.798
4.802
4.806
4.810
4.816
4.820
4.820
4.826
4.833
4.834
4.830
4.827
4.828
4.827
4.827
4.823
4.822
4.821
4.822
4.827
4.823
4.824
4.823
4.824
4.822
4.823
4.825
4.820
4.816
4.812
4.809
4.807
4.806
4.809
4.806
4.801
4.805
4.812
4.816
4.813
4.811
4.802
4.806
4.802
4.798
4.796
4.795
4.801
4.797
4.794
4.795
4.797
4.800
