2.992
3.330
3.517
3.633
3.717
3.762
3.850
3.866
3.933
3.912
3.955
3.995
4.036
4.071
4.099
4.085
4.034
4.044
4.065
4.085
4.097
4.109
4.131
4.136
4.158
4.158
4.179
4.180
4.197
4.211
4.207
4.224
4.236
4.232
4.239
4.252
4.263
4.273
4.266
4.273
4.283
4.292
4.303
4.309
4.322
4.312
4.310
4.327
4.328
4.339
4.345
4.351
4.356
4.369
4.361
4.348
4.354
4.369
4.376
4.373
4.374
4.388
4.394
4.398
4.401
4.405
4.416
4.426
4.428
4.437
4.415
4.403
4.411
4.411
4.430
4.427
4.428
4.426
4.433
4.435
4.445
4.446
4.451
4.455
4.461
4.466
4.459
4.460
4.471
4.472
4.482
4.482
4.486
4.486
4.492
4.499
4.505
4.502
4.501
4.498
4.506
4.490
4.481
4.479
4.480
4.482
4.488
4.488
4.489
4.495
4.503
4.503
4.504
4.489
4.501
4.500
4.502
4.500
4.510
4.514
4.515
4.519
4.528
4.525
4.526
4.521
4.523
4.534
4.534
4.541
4.547
4.540
4.546
4.540
4.536
4.545
4.531
4.536
4.541
4.541
4.546
4.550
4.551
4.557
4.555
4.566
4.559
4.570
4.562
4.574
4.556
4.573
4.573
4.582
4.576
4.580
4.590
4.583
4.596
4.588
4.591
4.602
4.593
4.588
4.586
4.596
4.597
4.587
4.588
4.582
4.594
4.597
4.590
4.601
4.601
4.602
4.609
4.612
4.607
4.613
4.622
4.627
4.614
4.628
4.628
4.623
4.634
4.629
4.623
4.618
4.608
4.598
4.588
4.579
4.596
4.590
4.590
4.586
4.605
4.592
4.588
4.595
4.600
4.598
4.591
4.601
4.613
4.610
4.611
4.611
4.624
4.619
4.612
4.614
4.625
4.612
4.599
4.601
4.608
4.598
4.599
4.594
4.601
4.604
4.598
4.591
4.605
4.601
4.597
4.596
4.597
4.611
4.614
4.607
4.613
4.611
4.613
4.621
4.620
4.615
4.619
4.618
4.629
4.618
4.619
4.615
4.613
4.624
4.625
4.628
4.625
4.621
4.616
4.632
4.641
4.644
4.645
4.636
4.636
4.636
4.653
4.649
4.648
4.637
4.627
4.634
4.647
4.641
4.640
4.637
4.638
4.627
4.643
4.646
4.645
4.646
4.634
4.639
4.634
4.649
4.661
4.659
4.659
4.653
4.651
4.642
4.648
4.659
4.667
4.656
4.654
4.657
4.654
4.650
4.657
4.673
4.677
4.682
4.675
4.671
4.670
4.664
4.661
4.675
4.690
4.682
4.675
4.672
4.670
4.667
4.673
4.677
4.686
4.688
4.684
4.675
4.667
4.658
4.649
4.660
4.667
4.667
4.668
4.664
4.661
4.655
4.655
4.653
4.657
4.661
4.655
4.657
4.656
4.653
4.650
4.646
4.649
4.647
4.661
4.673
4.668
4.673
4.672
4.668
4.666
4.669
4.667
4.664
4.656
4.670
4.674
4.668
4.669
4.676
4.669
4.669
4.667
4.671
4.661
4.657
4.669
4.669
4.673
4.670
4.661
4.671
4.675
4.671
4.667
4.665
4.662
4.661
4.673
4.684
4.693
4.698
4.690
4.688
4.687
4.686
4.682
4.683
4.677
4.678
4.668
4.679
4.691
4.703
4.692
4.692
4.685
4.681
4.684
4.678
4.684
4.677
4.677
4.678
4.681
4.686
4.698
4.709
4.708
4.706
4.708
4.702
4.704
4.709
4.710
4.706
4.705
4.701
4.695
4.693
4.693
4.705
4.716
4.718
4.717
4.716
4.712
4.714
4.713
4.710
4.711
4.704
4.695
4.696
4.701
4.700
4.699
4.702
4.702
4.694
4.701
4.708
4.710
4.707
4.705
4.699
4.689
4.691
4.691
4.687
4.684
4.682
4.692
4.702
4.711
4.701
4.698
4.697
4.707
4.703
4.698
4.701
4.707
4.703
4.703
4.699
4.699
4.700
4.706
4.698
4.695
4.702
4.712
4.716
4.719
4.715
4.714
4.716
4.714
4.710
4.711
4.706
4.706
4.706
4.706
4.715
4.719
4.717
4.712
4.713
4.710
4.707
4.717
4.726
4.732
4.728
4.733
4.732
4.726
4.729
4.734
4.735
4.730
4.729
4.734
4.729
4.729
4.732
4.731
4.725
4.725
4.723
4.723
4.719
4.724
4.733
4.742
4.746
4.753
4.747
4.751
4.748
4.750
4.748
4.739
4.736
4.737
4.736
4.738
4.733
4.729
4.732
4.729
4.727
4.726
4.719
4.712
4.721
4.730
4.739
4.746
4.745
4.748
4.746
4.743
4.742
4.738
4.734
4.733
4.733
4.736
4.733
4.731
4.728
4.728
4.727
4.732
4.732
4.732
4.725
4.727
4.725
4.722
4.726
4.735
4.743
4.751
4.760
4.762
4.759
4.761
4.758
4.761
4.757
4.760
4.765
4.765
4.760
4.761
4.761
4.761
4.759
4.758
4.759
4.753
4.750
4.750
4.751
4.754
4.757
4.757
4.756
4.757
4.759
4.750
4.758
4.766
4.774
4.782
4.780
4.785
4.781
4.775
4.776
4.769
4.770
4.768
4.764
4.768
4.771
4.771
4.774
4.774
4.773
4.771
4.767
4.762
4.758
4.753
4.749
4.744
4.740
4.735
4.734
4.741
4.749
4.757
4.761
4.754
4.756
4.757
4.759
4.756
4.756
4.759
4.754
4.754
4.750
4.754
4.750
4.749
4.749
4.747
4.741
4.736
4.731
4.725
4.725
4.719
4.723
4.724
4.723
4.724
4.721
4.719
4.723
4.723
4.731
4.738
4.745
4.752
4.757
4.760
4.755
4.747
4.744
4.744
4.745
4.742
4.733
4.733
4.742
4.747
4.753
4.741
4.734
4.735
4.735
4.731
4.730
4.731
4.732
4.732
4.729
4.729
4.723
4.720
4.727
4.727
4.735
4.726
4.723
4.725
4.729
4.734
4.741
4.738
4.741
4.748
4.754
4.761
4.768
4.770
4.767
4.761
4.755
4.749
4.743
4.747
4.745
4.753
4.748
4.741
4.735
4.731
4.731
4.730
4.729
4.725
4.727
4.727
4.730
4.731
4.726
4.725
4.723
4.726
4.721
4.722
4.727
4.723
4.725
4.720
4.717
4.718
4.712
4.712
4.719
4.725
4.732
4.738
4.744
4.751
4.757
4.764
4.767
4.762
4.766
4.762
4.763
4.763
4.768
4.773
4.771
4.765
4.765
4.761
4.765
4.761
4.765
4.760
4.752
4.745
4.744
4.743
4.742
4.736
4.737
4.737
4.738
4.741
4.735
4.729
4.730
4.728
4.726
4.724
4.726
4.725
4.730
4.731
4.726
4.727
4.727
4.726
4.728
4.722
4.725
4.731
4.737
4.743
4.749
4.755
4.761
4.765
4.765
4.762
4.762
4.762
4.756
4.757
4.759
4.759
4.766
4.762
4.761
4.753
4.753
4.751
4.751
4.749
4.750
4.755
4.763
4.764
4.767
4.767
4.763
4.759
4.756
4.754
4.748
4.749
4.751
4.747
4.748
4.748
4.747
4.750
4.748
4.750
4.749
4.745
4.742
4.736
4.730
4.725
4.723
4.719
4.721
4.718
4.716
4.719
4.725
4.731
4.736
4.742
4.748
4.753
4.759
4.764
4.770
4.776
4.781
4.787
4.785
4.784
4.782
4.780
4.777
4.780
4.775
4.768
4.771
4.767
4.772
4.776
4.769
4.766
4.764
4.766
4.768
4.765
4.764
4.766
4.767
4.767
4.767
4.767
4.765
4.766
4.759
4.757
4.758
4.753
4.753
4.756
4.751
4.750
4.748
4.749
4.749
4.746
4.742
4.747
4.745
4.744
4.752
4.751
4.753
4.758
4.759
4.756
4.753
4.751
4.744
4.739
4.738
4.734
4.733
4.737
4.743
4.748
4.753
4.758
4.764
4.769
4.774
4.779
4.784
4.789
4.795
4.788
4.785
4.790
4.790
4.786
4.786
4.788
4.790
4.789
4.790
4.787
4.794
4.793
4.794
4.789
4.796
4.795
4.789
4.787
4.781
4.778
4.779
4.776
4.776
4.776
4.778
4.779
4.782
4.780
4.781
4.777
4.775
4.776
4.777
4.777
4.772
4.775
4.782
4.782
4.781
4.778
4.773
4.774
4.774
4.776
4.772
4.771
4.773
4.773
4.770
4.770
4.768
4.768
4.763
4.769
4.774
4.773
4.771
4.764
4.762
4.765
4.769
4.768
4.771
4.773
4.768
4.771
4.771
4.766
4.765
4.768
4.773
4.778
4.783
4.788
4.792
4.797
4.802
4.807
4.811
4.816
4.821
4.826
4.828
