2.951
3.193
3.238
3.364
3.498
3.575
3.637
3.646
3.738
3.765
3.730
3.814
3.825
3.876
3.877
3.896
3.973
3.911
3.840
3.883
3.911
3.925
3.924
3.910
3.979
4.003
3.970
3.923
3.973
3.978
3.987
4.005
4.037
4.005
3.984
3.977
4.033
4.039
4.024
4.077
4.020
4.031
4.126
4.092
4.060
4.085
4.173
4.119
4.087
4.084
4.088
4.060
4.020
4.029
4.104
4.092
4.043
4.014
4.001
4.056
4.123
4.093
4.078
4.065
4.065
4.058
4.062
4.122
4.150
4.165
4.178
4.172
4.112
4.114
4.086
4.082
4.135
4.157
4.122
4.124
4.110
4.086
4.056
4.095
4.058
4.040
4.091
4.121
4.168
4.215
4.228
4.222
4.149
4.156
4.111
4.113
4.092
4.081
4.054
4.014
4.041
4.081
4.121
4.161
4.174
4.174
4.213
4.193
4.150
4.123
4.144
4.138
4.107
4.093
4.038
4.056
4.100
4.138
4.115
4.080
4.053
4.054
4.087
4.120
4.153
4.186
4.220
4.253
4.226
4.203
4.157
4.200
4.165
4.187
4.205
4.186
4.150
4.195
4.205
4.168
4.159
4.194
4.157
4.134
4.130
4.097
4.080
4.080
4.105
4.096
4.095
4.127
4.100
4.080
4.106
4.133
4.159
4.186
4.212
4.239
4.227
4.226
4.209
4.198
4.177
4.188
4.192
4.177
4.194
4.149
4.136
4.174
4.177
4.169
4.177
4.174
4.177
4.145
4.154
4.161
4.166
4.170
4.116
4.107
4.078
4.092
4.108
4.069
4.057
4.078
4.055
4.061
4.054
4.075
4.086
4.095
4.103
4.079
4.090
4.085
4.079
4.089
4.078
4.083
4.072
4.089
4.099
4.119
4.139
4.159
4.178
4.198
4.218
4.238
4.257
4.265
4.250
4.249
4.260
4.249
4.264
4.286
4.250
4.233
4.204
4.189
4.184
4.176
4.182
4.181
4.152
4.175
4.166
4.164
4.160
4.148
4.149
4.157
4.187
4.177
4.171
4.188
4.181
4.171
4.152
4.145
4.149
4.157
4.160
4.130
4.110
4.095
4.085
4.103
4.070
4.104
4.097
4.082
4.084
4.086
4.085
4.092
4.098
4.064
4.062
4.083
4.106
4.128
4.115
4.103
4.123
4.133
4.118
4.104
4.135
4.134
4.125
4.149
4.176
4.163
4.162
4.148
4.149
4.129
4.127
4.144
4.140
4.122
4.104
4.086
4.068
4.075
4.073
4.065
4.084
4.057
4.056
4.039
4.050
4.083
4.073
4.079
4.049
4.037
4.014
4.029
4.040
4.053
4.066
4.079
4.092
4.105
4.119
4.132
4.145
4.158
4.171
4.184
4.197
4.211
4.224
4.237
4.250
4.263
4.276
4.289
4.280
4.279
4.286
4.264
4.251
4.274
4.259
4.245
4.268
4.287
4.279
4.275
4.262
4.282
4.288
4.257
4.255
4.250
4.259
4.237
4.239
4.230
4.242
4.227
4.235
4.225
4.246
4.266
4.260
4.250
4.236
4.220
4.204
4.188
4.173
4.190
4.207
4.224
4.207
4.217
4.230
4.226
4.209
4.194
4.198
4.195
4.209
4.197
4.188
4.178
4.164
4.167
4.173
4.165
4.158
4.154
4.165
4.177
4.184
4.173
4.159
4.165
4.174
4.162
4.162
4.138
4.154
4.158
4.182
4.168
4.170
4.160
4.150
4.146
4.126
4.107
4.116
4.111
4.107
4.081
4.096
4.083
4.094
4.087
4.100
4.086
4.085
4.095
4.100
4.117
4.128
4.127
4.135
4.154
4.143
4.140
4.129
4.123
4.131
4.112
4.103
4.118
4.130
4.115
4.114
4.104
4.094
4.091
4.091
4.113
4.106
4.097
4.106
4.100
4.110
4.115
4.128
4.131
4.117
4.103
4.093
4.082
4.074
4.066
4.078
4.060
4.042
4.046
4.041
4.058
4.048
4.045
4.046
4.062
4.077
4.082
4.084
4.074
4.081
4.081
4.087
4.088
4.081
4.067
4.066
4.069
4.070
4.086
4.088
4.072
4.081
4.059
4.070
4.085
4.071
4.090
4.098
4.116
4.124
4.114
4.128
4.119
4.126
4.123
4.135
4.108
4.092
4.100
4.106
4.090
4.091
4.105
4.087
4.070
4.066
4.074
4.069
4.077
4.066
4.054
4.058
4.056
4.057
4.043
4.047
4.037
4.048
4.059
4.056
4.070
4.052
4.041
4.045
4.055
4.067
4.058
4.058
4.059
4.065
4.059
4.036
4.050
4.062
4.072
4.089
4.081
4.069
4.071
4.082
4.094
4.105
4.116
4.127
4.139
4.132
4.125
4.119
4.113
4.117
4.127
4.110
4.111
4.129
4.136
4.131
4.121
4.102
4.100
4.111
4.104
4.119
4.117
4.131
4.145
4.152
4.160
4.156
4.178
4.167
4.153
4.140
4.137
4.131
4.139
4.123
4.128
4.110
4.103
4.090
4.094
4.111
4.121
4.135
4.140
4.140
4.120
4.128
4.124
4.106
4.100
4.116
4.106
4.101
4.109
4.109
4.130
4.113
4.105
4.102
4.106
4.108
4.096
4.096
4.100
4.090
4.083
4.088
4.077
4.082
4.099
4.115
4.117
4.121
4.102
4.104
4.100
4.096
4.076
4.085
4.073
4.087
4.065
4.069
4.076
4.072
4.079
4.085
4.092
4.098
4.105
4.112
4.118
4.125
4.131
4.138
4.144
4.151
4.158
4.164
4.171
4.177
4.184
4.190
4.197
4.203
4.210
4.216
4.223
4.229
4.236
4.243
4.249
4.256
4.262
4.269
4.275
4.282
4.288
4.295
4.301
4.308
4.313
4.321
4.326
4.320
4.334
4.347
4.354
4.361
4.363
4.350
4.350
4.349
4.339
4.332
4.312
4.324
4.340
4.328
4.337
4.317
4.313
4.325
4.341
4.352
4.348
4.341
4.330
4.323
4.308
4.299
4.306
4.306
4.295
4.284
4.273
4.262
4.256
4.264
4.248
4.238
4.227
4.231
4.242
4.238
4.228
4.228
4.237
4.233
4.246
4.227
4.229
4.239
4.249
4.251
4.250
4.249
4.262
4.264
4.244
4.237
4.242
4.257
4.259
4.246
4.267
4.263
4.263
4.265
4.269
4.254
4.248
4.243
4.235
4.231
4.246
4.238
4.235
4.234
4.237
4.227
4.238
4.243
4.248
4.260
4.271
4.268
4.277
4.261
4.259
4.246
4.225
4.231
4.214
4.209
4.208
4.204
4.216
4.200
4.212
4.223
4.216
4.208
4.219
4.235
4.231
4.218
4.209
4.196
4.191
4.187
4.176
4.181
4.183
4.181
4.181
4.188
4.197
4.194
4.199
4.200
4.212
4.208
4.194
4.196
4.193
4.190
4.178
4.191
4.205
4.217
4.200
4.205
4.199
4.182
4.186
4.170
4.166
4.156
4.146
4.137
4.139
4.147
4.147
4.156
4.143
4.146
4.135
4.126
4.117
4.123
4.134
4.117
4.120
4.124
4.130
4.140
4.139
4.146
4.143
4.157
4.156
4.154
4.147
4.145
4.151
4.139
4.139
4.141
4.141
4.144
4.125
4.119
4.125
4.117
4.115
4.105
4.105
4.109
4.123
4.138
4.145
4.146
4.143
4.151
4.147
4.155
4.165
4.174
4.184
4.193
4.203
4.201
4.191
4.196
4.184
4.171
4.159
4.161
4.151
4.141
4.132
4.139
4.158
4.162
4.163
4.142
4.154
4.138
4.138
4.139
4.134
4.136
4.132
4.145
4.151
4.149
4.139
4.132
4.131
4.121
4.115
4.131
4.127
4.122
4.138
4.137
4.121
4.119
4.124
4.130
4.126
4.135
4.135
4.141
4.143
4.155
4.150
4.140
4.131
4.137
4.131
4.130
4.123
4.125
4.122
4.123
4.139
4.139
4.139
4.135
4.146
4.128
4.118
4.117
4.104
4.092
4.080
4.083
4.082
4.078
4.075
4.077
4.083
4.099
4.108
4.115
4.102
4.094
4.102
4.085
4.074
4.073
4.068
4.068
4.071
4.070
4.081
4.097
4.083
4.085
4.082
4.074
4.082
4.084
4.097
4.107
4.114
4.112
4.101
4.093
4.085
4.082
4.080
4.086
4.075
4.065
4.075
4.078
4.078
4.065
4.076
4.074
4.067
4.082
4.093
4.093
4.086
4.098
4.108
4.102
4.101
4.113
4.130
4.125
4.122
4.131
4.140
4.149
4.158
4.155
4.139
4.135
4.150
4.145
4.132
4.128
4.124
4.124
4.117
4.115
4.114
4.124
4.119
4.111
4.102
4.094
4.085
4.084
4.096
4.109
4.119
4.117
4.100
