2.983
3.323
3.484
3.624
3.721
3.773
3.778
3.847
3.902
3.958
3.969
3.906
3.929
3.962
3.983
4.004
4.019
4.044
4.058
4.064
4.087
4.114
4.115
4.132
4.154
4.141
4.154
4.179
4.191
4.175
4.195
4.208
4.220
4.232
4.246
4.224
4.235
4.253
4.251
4.266
4.282
4.279
4.296
4.308
4.307
4.292
4.292
4.299
4.308
4.311
4.313
4.331
4.331
4.343
4.343
4.343
4.348
4.363
4.363
4.374
4.380
4.380
4.385
4.392
4.391
4.365
4.373
4.367
4.367
4.379
4.390
4.380
4.373
4.380
4.386
4.392
4.405
4.414
4.397
4.412
4.425
4.433
4.429
4.435
4.417
4.416
4.428
4.430
4.437
4.436
4.451
4.458
4.449
4.457
4.464
4.451
4.470
4.475
4.471
4.482
4.474
4.495
4.487
4.472
4.484
4.472
4.478
4.481
4.487
4.487
4.498
4.493
4.515
4.497
4.522
4.514
4.517
4.523
4.525
4.523
4.517
4.502
4.487
4.483
4.492
4.482
4.478
4.497
4.492
4.494
4.505
4.495
4.506
4.519
4.511
4.503
4.484
4.487
4.495
4.484
4.486
4.487
4.485
4.482
4.503
4.508
4.500
4.505
4.516
4.514
4.503
4.522
4.507
4.505
4.505
4.520
4.523
4.519
4.516
4.539
4.533
4.533
4.533
4.542
4.525
4.521
4.520
4.538
4.522
4.528
4.520
4.528
4.548
4.546
4.541
4.539
4.539
4.554
4.548
4.545
4.542
4.543
4.566
4.576
4.571
4.564
4.552
4.564
4.582
4.578
4.573
4.566
4.560
4.577
4.592
4.568
4.577
4.572
4.562
4.559
4.555
4.551
4.547
4.551
4.557
4.550
4.542
4.545
4.547
4.534
4.547
4.569
4.573
4.566
4.566
4.550
4.552
4.550
4.570
4.574
4.573
4.562
4.552
4.546
4.545
4.563
4.578
4.567
4.565
4.566
4.564
4.569
4.567
4.565
4.585
4.591
4.583
4.580
4.579
4.581
4.574
4.561
4.576
4.589
4.594
4.592
4.589
4.590
4.591
4.586
4.590
4.587
4.592
4.611
4.620
4.605
4.604
4.603
4.601
4.593
4.592
4.590
4.598
4.613
4.622
4.620
4.614
4.600
4.589
4.595
4.582
4.579
4.585
4.600
4.594
4.598
4.588
4.593
4.594
4.583
4.586
4.581
4.592
4.600
4.594
4.610
4.613
4.608
4.601
4.599
4.606
4.597
4.606
4.599
4.596
4.602
4.598
4.602
4.617
4.632
4.631
4.627
4.625
4.625
4.617
4.623
4.623
4.632
4.623
4.628
4.616
4.615
4.622
4.636
4.651
4.648
4.650
4.657
4.649
4.634
4.626
4.629
4.623
4.619
4.621
4.630
4.629
4.621
4.635
4.637
4.638
4.646
4.630
4.633
4.631
4.639
4.634
4.621
4.624
4.624
4.627
4.626
4.620
4.618
4.628
4.641
4.655
4.668
4.672
4.681
4.667
4.662
4.660
4.658
4.647
4.655
4.663
4.665
4.670
4.664
4.655
4.654
4.650
4.651
4.650
4.663
4.675
4.685
4.677
4.674
4.683
4.681
4.686
4.683
4.682
4.673
4.670
4.657
4.654
4.657
4.657
4.657
4.655
4.651
4.645
4.657
4.665
4.665
4.667
4.665
4.658
4.654
4.652
4.655
4.654
4.646
4.637
4.628
4.630
4.623
4.625
4.623
4.621
4.612
4.613
4.625
4.636
4.647
4.652
4.652
4.658
4.649
4.644
4.643
4.643
4.641
4.635
4.649
4.641
4.646
4.637
4.632
4.634
4.643
4.641
4.633
4.631
4.628
4.630
4.635
4.635
4.630
4.641
4.650
4.653
4.647
4.643
4.644
4.630
4.641
4.642
4.640
4.642
4.640
4.632
4.642
4.631
4.635
4.625
4.623
4.625
4.619
4.621
4.618
4.621
4.625
4.630
4.638
4.640
4.635
4.633
4.640
4.650
4.660
4.670
4.667
4.663
4.661
4.653
4.651
4.652
4.651
4.646
4.637
4.635
4.633
4.641
4.646
4.647
4.643
4.642
4.645
4.635
4.627
4.625
4.622
4.626
4.621
4.624
4.625
4.624
4.620
4.620
4.629
4.639
4.648
4.657
4.667
4.672
4.670
4.680
4.682
4.671
4.676
4.675
4.668
4.670
4.659
4.649
4.651
4.648
4.639
4.633
4.645
4.642
4.649
4.642
4.647
4.637
4.640
4.644
4.641
4.645
4.644
4.642
4.639
4.636
4.632
4.638
4.641
4.644
4.644
4.645
4.645
4.654
4.662
4.671
4.680
4.681
4.671
4.668
4.672
4.668
4.666
4.674
4.681
4.677
4.674
4.681
4.680
4.683
4.679
4.672
4.672
4.672
4.668
4.669
4.672
4.669
4.672
4.667
4.657
4.651
4.652
4.658
4.657
4.657
4.655
4.659
4.662
4.659
4.649
4.646
4.648
4.648
4.655
4.647
4.649
4.650
4.656
4.664
4.672
4.680
4.688
4.695
4.704
4.712
4.720
4.716
4.708
4.709
4.712
4.709
4.707
4.697
4.705
4.707
4.699
4.703
4.696
4.693
4.696
4.699
4.692
4.695
4.687
4.697
4.697
4.698
4.696
4.695
4.698
4.693
4.697
4.699
4.708
4.713
4.705
4.700
4.694
4.691
4.690
4.689
4.690
4.683
4.675
4.675
4.675
4.676
4.676
4.675
4.679
4.668
4.664
4.671
4.678
4.686
4.693
4.700
4.707
4.703
4.700
4.704
4.704
4.699
4.700
4.695
4.694
4.691
4.690
4.689
4.690
4.695
4.691
4.689
4.686
4.687
4.684
4.680
4.683
4.680
4.685
4.681
4.674
4.665
4.660
4.657
4.660
4.661
4.663
4.664
4.656
4.657
4.655
4.661
4.660
4.664
4.673
4.682
4.685
4.677
4.670
4.661
4.654
4.653
4.653
4.650
4.657
4.649
4.645
4.650
4.639
4.639
4.639
4.646
4.653
4.659
4.666
4.673
4.679
4.686
4.692
4.699
4.706
4.712
4.719
4.726
4.723
4.721
4.717
4.717
4.710
4.710
4.709
4.709
4.718
4.706
4.707
4.700
4.696
4.697
4.690
4.696
4.705
4.713
4.711
4.709
4.711
4.705
4.708
4.708
4.704
4.701
4.697
4.699
4.699
4.691
4.696
4.701
4.702
4.703
4.707
4.703
4.700
4.695
4.696
4.701
4.697
4.687
4.689
4.694
4.693
4.693
4.689
4.681
4.684
4.682
4.683
4.686
4.685
4.681
4.679
4.679
4.678
4.686
4.690
4.687
4.686
4.689
4.692
4.693
4.701
4.701
4.695
4.695
4.693
4.690
4.699
4.695
4.691
4.697
4.703
4.709
4.715
4.721
4.727
4.733
4.739
4.738
4.734
4.741
4.732
4.731
4.729
4.722
4.720
4.714
4.714
4.715
4.710
4.706
4.706
4.706
4.703
4.696
4.690
4.690
4.685
4.685
4.684
4.687
4.677
4.684
4.679
4.681
4.684
4.685
4.681
4.677
4.683
4.679
4.675
4.674
4.679
4.682
4.690
4.691
4.686
4.685
4.682
4.684
4.677
4.674
4.674
4.675
4.674
4.677
4.681
4.676
4.679
4.682
4.672
4.671
4.665
4.659
4.653
4.655
4.657
4.655
4.646
4.646
4.647
4.650
4.643
4.640
4.640
4.646
4.644
4.637
4.632
4.639
4.637
4.636
4.642
4.640
4.646
4.648
4.650
4.644
4.649
4.655
4.660
4.665
4.671
4.676
4.682
4.687
4.692
4.697
4.703
4.708
4.713
4.719
4.724
4.729
4.735
4.740
4.745
4.747
4.745
4.740
4.737
4.736
4.744
4.740
4.745
4.745
4.752
4.759
4.755
4.750
4.750
4.754
4.751
4.745
4.741
4.734
4.732
4.730
4.729
4.732
4.729
4.724
4.716
4.713
4.715
4.708
4.709
4.705
4.710
4.711
4.710
4.704
4.708
4.703
4.711
4.704
4.706
4.704
4.712
4.710
4.705
4.700
4.695
4.690
4.685
4.680
4.674
4.671
4.679
4.672
4.666
4.664
4.665
4.660
4.659
4.660
4.664
4.663
4.662
4.666
4.667
4.666
4.662
4.659
4.652
4.645
4.646
4.653
4.660
4.659
4.662
4.663
4.667
4.669
4.674
4.672
4.668
4.669
4.672
4.667
4.665
4.665
4.665
4.660
4.662
4.668
4.669
4.668
4.673
4.672
4.676
4.673
4.680
4.686
4.686
4.690
4.686
4.684
4.681
4.684
4.687
4.683
4.677
4.671
4.672
4.669
4.668
4.670
4.674
