2.989
3.310
3.506
3.617
3.694
3.715
3.796
3.865
3.934
3.827
3.875
3.897
3.922
3.948
3.973
4.004
4.023
4.047
4.051
4.074
4.069
4.094
4.112
4.124
4.124
4.141
4.152
4.171
4.175
4.171
4.185
4.197
4.215
4.224
4.231
4.248
4.245
4.234
4.242
4.245
4.251
4.264
4.278
4.290
4.278
4.291
4.305
4.313
4.324
4.320
4.322
4.341
4.318
4.312
4.309
4.319
4.332
4.316
4.330
4.324
4.332
4.350
4.339
4.349
4.358
4.365
4.373
4.371
4.375
4.374
4.373
4.379
4.389
4.393
4.408
4.405
4.394
4.417
4.425
4.420
4.430
4.442
4.432
4.415
4.416
4.426
4.426
4.435
4.437
4.452
4.455
4.459
4.464
4.466
4.471
4.459
4.472
4.452
4.432
4.432
4.417
4.442
4.443
4.442
4.450
4.448
4.465
4.456
4.440
4.434
4.434
4.432
4.424
4.438
4.438
4.439
4.452
4.442
4.448
4.457
4.442
4.452
4.465
4.456
4.451
4.483
4.468
4.471
4.480
4.490
4.477
4.467
4.482
4.471
4.463
4.482
4.484
4.484
4.476
4.491
4.494
4.485
4.482
4.493
4.518
4.506
4.506
4.495
4.517
4.527
4.522
4.511
4.504
4.530
4.523
4.515
4.516
4.517
4.504
4.500
4.496
4.492
4.501
4.494
4.494
4.481
4.488
4.504
4.517
4.517
4.499
4.491
4.491
4.512
4.522
4.510
4.496
4.486
4.492
4.510
4.523
4.522
4.519
4.519
4.518
4.515
4.522
4.536
4.539
4.530
4.521
4.511
4.515
4.522
4.545
4.545
4.542
4.537
4.545
4.545
4.534
4.532
4.554
4.566
4.554
4.553
4.552
4.553
4.553
4.534
4.550
4.561
4.549
4.540
4.538
4.535
4.526
4.521
4.531
4.552
4.550
4.550
4.548
4.549
4.550
4.540
4.536
4.521
4.539
4.558
4.570
4.567
4.565
4.572
4.563
4.553
4.548
4.542
4.550
4.548
4.567
4.586
4.589
4.582
4.588
4.580
4.580
4.578
4.573
4.581
4.576
4.568
4.574
4.592
4.603
4.591
4.595
4.590
4.581
4.567
4.557
4.559
4.564
4.557
4.561
4.578
4.592
4.606
4.606
4.603
4.598
4.592
4.585
4.571
4.587
4.595
4.601
4.591
4.580
4.577
4.593
4.609
4.625
4.639
4.628
4.627
4.621
4.612
4.610
4.610
4.606
4.598
4.596
4.597
4.603
4.609
4.597
4.612
4.628
4.642
4.636
4.634
4.625
4.616
4.607
4.598
4.598
4.588
4.584
4.584
4.583
4.576
4.579
4.588
4.602
4.602
4.601
4.598
4.589
4.587
4.584
4.582
4.578
4.566
4.566
4.560
4.569
4.569
4.571
4.577
4.566
4.570
4.577
4.591
4.605
4.612
4.612
4.611
4.620
4.612
4.605
4.607
4.601
4.588
4.578
4.568
4.565
4.559
4.552
4.552
4.549
4.557
4.567
4.560
4.573
4.586
4.599
4.611
4.624
4.634
4.620
4.612
4.599
4.599
4.597
4.605
4.596
4.582
4.593
4.587
4.586
4.587
4.588
4.581
4.580
4.567
4.566
4.566
4.574
4.567
4.579
4.591
4.603
4.615
4.608
4.607
4.609
4.618
4.618
4.619
4.619
4.619
4.622
4.612
4.603
4.597
4.590
4.596
4.589
4.590
4.591
4.586
4.582
4.577
4.574
4.576
4.582
4.577
4.574
4.573
4.584
4.596
4.607
4.618
4.629
4.636
4.634
4.629
4.624
4.625
4.613
4.617
4.622
4.621
4.623
4.619
4.615
4.608
4.607
4.608
4.603
4.598
4.597
4.596
4.592
4.591
4.596
4.599
4.599
4.603
4.599
4.599
4.590
4.599
4.592
4.597
4.600
4.611
4.621
4.631
4.642
4.649
4.653
4.658
4.661
4.658
4.647
4.651
4.649
4.649
4.643
4.639
4.640
4.645
4.637
4.631
4.630
4.621
4.627
4.636
4.636
4.630
4.623
4.632
4.634
4.644
4.643
4.647
4.636
4.629
4.628
4.628
4.614
4.616
4.618
4.628
4.622
4.615
4.622
4.621
4.630
4.640
4.649
4.658
4.668
4.658
4.653
4.662
4.672
4.679
4.676
4.678
4.679
4.669
4.664
4.662
4.653
4.645
4.637
4.629
4.621
4.613
4.614
4.605
4.599
4.591
4.604
4.615
4.608
4.612
4.607
4.608
4.616
4.615
4.610
4.609
4.606
4.605
4.598
4.593
4.591
4.589
4.596
4.600
4.590
4.597
4.602
4.610
4.619
4.627
4.636
4.644
4.653
4.661
4.670
4.664
4.666
4.661
4.656
4.652
4.650
4.647
4.648
4.645
4.652
4.645
4.641
4.638
4.639
4.651
4.646
4.641
4.646
4.640
4.641
4.646
4.638
4.633
4.631
4.638
4.636
4.644
4.644
4.639
4.638
4.633
4.633
4.634
4.627
4.625
4.631
4.631
4.625
4.624
4.621
4.618
4.615
4.613
4.614
4.614
4.611
4.620
4.625
4.621
4.622
4.633
4.644
4.635
4.633
4.625
4.633
4.641
4.649
4.656
4.664
4.672
4.679
4.687
4.694
4.688
4.682
4.687
4.684
4.695
4.687
4.682
4.678
4.668
4.671
4.670
4.669
4.666
4.668
4.658
4.653
4.650
4.640
4.639
4.642
4.638
4.643
4.638
4.638
4.641
4.632
4.633
4.624
4.625
4.635
4.628
4.630
4.624
4.630
4.622
4.623
4.619
4.606
4.612
4.618
4.615
4.620
4.621
4.615
4.619
4.616
4.612
4.610
4.616
4.610
4.605
4.603
4.600
4.597
4.595
4.594
4.596
4.593
4.590
4.590
4.589
4.596
4.603
4.610
4.617
4.623
4.630
4.637
4.644
4.651
4.657
4.664
4.670
4.671
4.676
4.673
4.676
4.681
4.679
4.677
4.676
4.666
4.670
4.680
4.690
4.689
4.693
4.690
4.684
4.679
4.677
4.680
4.682
4.678
4.677
4.677
4.675
4.676
4.674
4.672
4.674
4.675
4.670
4.667
4.664
4.663
4.661
4.656
4.666
4.660
4.656
4.657
4.659
4.657
4.654
4.645
4.649
4.647
4.646
4.646
4.644
4.639
4.629
4.627
4.623
4.622
4.619
4.621
4.629
4.625
4.629
4.622
4.616
4.609
4.608
4.606
4.604
4.613
4.609
4.613
4.617
4.614
4.608
4.599
4.592
4.595
4.600
4.596
4.595
4.594
4.603
4.612
4.614
4.613
4.612
4.615
4.610
4.608
4.607
4.609
4.613
4.619
4.625
4.631
4.637
4.643
4.649
4.655
4.661
4.667
4.673
4.678
4.685
4.691
4.688
4.682
4.675
4.676
4.672
4.669
4.677
4.677
4.671
4.662
4.669
4.666
4.672
4.665
4.661
4.658
4.654
4.653
4.651
4.651
4.644
4.647
4.654
4.654
4.655
4.651
4.650
4.649
4.658
4.657
4.664
4.655
4.656
4.659
4.666
4.675
4.671
4.673
4.674
4.684
4.681
4.679
4.679
4.681
4.682
4.683
4.679
4.672
4.676
4.674
4.668
4.670
4.671
4.673
4.669
4.660
4.651
4.650
4.641
4.639
4.648
4.642
4.640
4.633
4.626
4.619
4.612
4.612
4.610
4.620
4.621
4.622
4.623
4.623
4.621
4.626
4.631
4.636
4.632
4.636
4.630
4.626
4.624
4.622
4.621
4.623
4.625
4.620
4.623
4.625
4.622
4.617
4.618
4.615
4.610
4.616
4.609
4.602
4.599
4.608
4.600
4.603
4.604
4.601
4.603
4.608
4.611
4.612
4.620
4.614
4.621
4.628
4.636
4.637
4.635
4.635
4.640
4.638
4.638
4.635
4.640
4.645
4.650
4.655
4.661
4.666
4.671
4.676
4.681
4.686
4.691
4.696
4.701
4.706
4.712
4.717
4.722
4.725
4.732
4.729
4.720
4.721
4.721
4.719
4.715
4.709
4.704
4.705
4.704
4.702
4.702
4.706
4.702
4.704
4.708
4.712
4.712
4.713
4.715
4.718
4.717
4.719
4.715
4.706
4.702
4.704
4.701
4.696
4.691
4.684
4.684
4.676
4.676
4.675
4.671
4.672
4.677
4.685
4.684
4.684
4.679
4.690
4.694
4.697
4.695
4.695
4.684
4.680
4.684
4.680
4.679
4.677
4.675
4.672
4.676
4.676
4.673
4.677
4.679
4.687
4.687
4.682
4.676
4.671
4.672
4.671
4.668
4.670
4.671
4.667
4.666
4.667
4.663
4.658
4.663
4.663
4.668
