2.994
3.332
3.511
3.633
3.711
3.781
3.846
3.888
3.916
3.970
3.972
4.014
4.054
4.086
4.053
4.082
4.108
4.131
4.152
4.175
4.190
4.209
4.229
4.236
4.196
4.167
4.183
4.190
4.197
4.212
4.220
4.233
4.238
4.247
4.249
4.263
4.275
4.277
4.287
4.296
4.294
4.302
4.311
4.320
4.317
4.327
4.333
4.340
4.347
4.346
4.353
4.357
4.368
4.373
4.377
4.371
4.379
4.383
4.388
4.395
4.402
4.412
4.408
4.400
4.407
4.409
4.415
4.425
4.426
4.431
4.437
4.442
4.449
4.444
4.437
4.442
4.443
4.450
4.454
4.460
4.465
4.464
4.467
4.474
4.483
4.485
4.484
4.490
4.492
4.493
4.479
4.480
4.484
4.486
4.489
4.493
4.495
4.501
4.506
4.505
4.508
4.507
4.511
4.520
4.522
4.524
4.528
4.527
4.530
4.537
4.534
4.542
4.542
4.549
4.549
4.553
4.538
4.532
4.525
4.534
4.533
4.532
4.538
4.540
4.546
4.553
4.552
4.553
4.558
4.560
4.552
4.553
4.557
4.559
4.561
4.562
4.568
4.571
4.575
4.576
4.575
4.581
4.588
4.592
4.583
4.581
4.585
4.587
4.586
4.589
4.593
4.598
4.596
4.600
4.610
4.609
4.605
4.603
4.613
4.616
4.618
4.617
4.624
4.616
4.616
4.623
4.623
4.616
4.604
4.595
4.590
4.594
4.593
4.597
4.599
4.606
4.602
4.601
4.610
4.611
4.613
4.611
4.612
4.619
4.613
4.622
4.620
4.625
4.623
4.623
4.616
4.622
4.621
4.616
4.623
4.614
4.624
4.622
4.624
4.630
4.626
4.631
4.624
4.634
4.632
4.641
4.637
4.642
4.643
4.639
4.654
4.641
4.646
4.642
4.646
4.646
4.645
4.657
4.653
4.653
4.664
4.663
4.664
4.666
4.656
4.649
4.651
4.658
4.656
4.657
4.667
4.657
4.657
4.658
4.657
4.661
4.667
4.664
4.665
4.668
4.667
4.668
4.673
4.671
4.671
4.680
4.681
4.677
4.687
4.688
4.683
4.686
4.687
4.683
4.686
4.685
4.684
4.680
4.694
4.693
4.690
4.691
4.700
4.694
4.697
4.699
4.703
4.702
4.703
4.708
4.706
4.707
4.700
4.715
4.708
4.705
4.701
4.701
4.698
4.693
4.705
4.710
4.711
4.707
4.708
4.707
4.706
4.704
4.705
4.704
4.706
4.701
4.705
4.716
4.716
4.708
4.709
4.715
4.720
4.720
4.719
4.721
4.725
4.731
4.723
4.726
4.720
4.731
4.734
4.731
4.734
4.729
4.734
4.738
4.734
4.729
4.722
4.718
4.712
4.705
4.706
4.705
4.700
4.699
4.697
4.705
4.695
4.694
4.694
4.691
4.703
4.710
4.706
4.704
4.706
4.701
4.708
4.715
4.714
4.715
4.708
4.707
4.711
4.710
4.711
4.710
4.709
4.710
4.716
4.721
4.720
4.715
4.712
4.712
4.716
4.727
4.730
4.727
4.727
4.727
4.730
4.731
4.736
4.732
4.725
4.718
4.711
4.718
4.720
4.716
4.712
4.716
4.716
4.713
4.720
4.720
4.719
4.712
4.714
4.707
4.708
4.718
4.714
4.713
4.714
4.713
4.716
4.712
4.717
4.721
4.714
4.710
4.714
4.712
4.708
4.713
4.723
4.729
4.725
4.726
4.719
4.718
4.720
4.723
4.727
4.737
4.741
4.735
4.731
4.726
4.725
4.726
4.727
4.735
4.734
4.734
4.738
4.732
4.730
4.724
4.725
4.731
4.739
4.742
4.744
4.746
4.738
4.735
4.733
4.735
4.733
4.742
4.744
4.749
4.747
4.743
4.746
4.745
4.744
4.740
4.741
4.751
4.761
4.764
4.761
4.756
4.750
4.754
4.755
4.749
4.746
4.749
4.747
4.749
4.750
4.748
4.749
4.745
4.742
4.743
4.744
4.753
4.763
4.756
4.747
4.743
4.749
4.746
4.741
4.738
4.739
4.749
4.758
4.762
4.761
4.762
4.760
4.757
4.755
4.754
4.755
4.749
4.753
4.759
4.766
4.770
4.766
4.767
4.771
4.773
4.768
4.759
4.752
4.753
4.753
4.762
4.771
4.775
4.772
4.775
4.772
4.768
4.772
4.775
4.769
4.767
4.766
4.764
4.771
4.778
4.786
4.790
4.790
4.790
4.791
4.794
4.786
4.778
4.782
4.781
4.780
4.776
4.782
4.789
4.794
4.789
4.786
4.789
4.790
4.781
4.780
4.779
4.779
4.778
4.780
4.779
4.775
4.775
4.774
4.765
4.761
4.760
4.763
4.759
4.760
4.762
4.761
4.759
4.768
4.775
4.774
4.775
4.777
4.775
4.774
4.771
4.769
4.770
4.768
4.762
4.757
4.751
4.758
4.767
4.764
4.765
4.766
4.762
4.761
4.767
4.769
4.767
4.764
4.762
4.764
4.759
4.752
4.754
4.761
4.770
4.777
4.779
4.772
4.775
4.771
4.775
4.771
4.770
4.771
4.771
4.774
4.775
4.774
4.773
4.771
4.770
4.772
4.779
4.786
4.786
4.780
4.786
4.783
4.783
4.780
4.775
4.769
4.768
4.766
4.771
4.769
4.773
4.771
4.770
4.775
4.783
4.788
4.786
4.785
4.784
4.775
4.770
4.774
4.776
4.775
4.775
4.768
4.767
4.766
4.767
4.763
4.765
4.771
4.778
4.783
4.792
4.796
4.797
4.791
4.790
4.790
4.786
4.788
4.789
4.785
4.779
4.783
4.789
4.785
4.779
4.785
4.784
4.788
4.789
4.786
4.794
4.799
4.806
4.805
4.798
4.799
4.803
4.797
4.797
4.794
4.792
4.796
4.795
4.794
4.792
4.790
4.784
4.786
4.789
4.782
4.784
4.791
4.797
4.804
4.805
4.802
4.806
4.801
4.800
4.804
4.801
4.799
4.801
4.801
4.808
4.802
4.801
4.801
4.798
4.794
4.800
4.799
4.800
4.796
4.794
4.801
4.808
4.813
4.820
4.827
4.828
4.826
4.827
4.826
4.825
4.823
4.817
4.815
4.808
4.808
4.811
4.812
4.812
4.818
4.817
4.813
4.809
4.805
4.803
4.802
4.806
4.813
4.817
4.824
4.820
4.815
4.814
4.816
4.819
4.815
4.811
4.807
4.801
4.797
4.792
4.793
4.790
4.790
4.786
4.788
4.787
4.793
4.795
4.794
4.794
4.799
4.806
4.810
4.817
4.818
4.819
4.820
4.820
4.823
4.817
4.812
4.812
4.810
4.805
4.801
4.798
4.793
4.797
4.799
4.805
4.802
4.798
4.793
4.789
4.785
4.786
4.788
4.794
4.799
4.805
4.812
4.814
4.813
4.816
4.820
4.820
4.823
4.819
4.818
4.814
4.815
4.817
4.816
4.814
4.816
4.812
4.812
4.812
4.815
4.814
4.812
4.811
4.810
4.808
4.812
4.805
4.801
4.798
4.799
4.806
4.810
4.816
4.823
4.825
4.824
4.823
4.823
4.820
4.823
4.820
4.821
4.820
4.824
4.822
4.826
4.823
4.821
4.822
4.820
4.823
4.823
4.827
4.821
4.823
4.824
4.825
4.823
4.822
4.821
4.816
4.813
4.814
4.813
4.816
4.820
4.825
4.831
4.836
4.842
4.847
4.845
4.841
4.838
4.838
4.835
4.834
4.838
4.833
4.831
4.833
4.837
4.841
4.838
4.838
4.835
4.842
4.842
4.844
4.846
4.842
4.843
4.841
4.840
4.838
4.835
4.830
4.829
4.827
4.829
4.827
4.831
4.830
4.835
4.841
4.845
4.850
4.851
4.849
4.849
4.853
4.854
4.853
4.857
4.857
4.851
4.847
4.843
4.842
4.842
4.844
4.849
4.849
4.849
4.846
4.842
4.842
4.840
4.836
4.832
4.828
4.824
4.822
4.823
4.819
4.820
4.819
4.821
4.817
4.821
4.827
4.832
4.836
4.842
4.847
4.849
4.853
4.846
4.844
4.849
4.849
4.848
4.846
4.845
4.841
4.840
4.841
4.843
4.846
4.846
4.844
4.843
4.846
4.845
4.842
4.843
4.841
4.835
4.834
4.831
4.831
4.834
4.833
4.832
4.833
4.831
4.831
4.834
4.834
4.835
4.833
4.832
4.838
4.840
4.839
4.842
4.847
4.853
4.857
4.860
4.864
4.862
4.863
4.860
4.861
4.865
4.871
4.870
4.869
4.865
4.864
4.862
4.857
4.860
4.860
4.859
4.858
4.859
4.863
4.857
4.857
4.859
4.858
4.862
4.869
4.868
4.861
4.857
4.857
4.860
4.861
