2.992
3.329
3.493
3.629
3.703
3.773
3.772
3.841
3.906
3.960
3.951
3.900
3.936
3.964
3.986
4.006
4.021
4.035
4.063
4.067
4.092
4.093
4.118
4.131
4.133
4.149
4.168
4.171
4.186
4.183
4.198
4.214
4.221
4.236
4.239
4.222
4.245
4.244
4.254
4.263
4.269
4.286
4.291
4.306
4.300
4.281
4.289
4.302
4.306
4.309
4.320
4.323
4.335
4.340
4.336
4.343
4.354
4.365
4.360
4.383
4.374
4.379
4.381
4.389
4.361
4.363
4.366
4.377
4.386
4.381
4.371
4.380
4.388
4.390
4.399
4.405
4.407
4.408
4.409
4.413
4.427
4.428
4.425
4.422
4.423
4.430
4.419
4.428
4.444
4.443
4.451
4.449
4.455
4.450
4.457
4.466
4.466
4.477
4.467
4.488
4.485
4.472
4.487
4.469
4.468
4.480
4.479
4.488
4.493
4.494
4.507
4.497
4.516
4.506
4.517
4.517
4.521
4.518
4.516
4.500
4.484
4.468
4.481
4.481
4.488
4.482
4.484
4.507
4.505
4.492
4.517
4.512
4.505
4.495
4.476
4.502
4.483
4.472
4.486
4.480
4.477
4.496
4.501
4.491
4.496
4.507
4.505
4.504
4.511
4.505
4.503
4.500
4.517
4.512
4.515
4.512
4.538
4.531
4.525
4.521
4.542
4.527
4.517
4.512
4.537
4.521
4.517
4.521
4.532
4.539
4.543
4.537
4.526
4.545
4.546
4.541
4.538
4.532
4.551
4.567
4.560
4.563
4.556
4.550
4.574
4.572
4.575
4.561
4.556
4.566
4.586
4.579
4.566
4.569
4.561
4.555
4.558
4.546
4.544
4.547
4.551
4.546
4.538
4.539
4.545
4.528
4.543
4.565
4.569
4.560
4.559
4.550
4.546
4.549
4.570
4.571
4.566
4.558
4.551
4.538
4.544
4.565
4.572
4.563
4.563
4.559
4.560
4.564
4.561
4.570
4.590
4.588
4.574
4.575
4.571
4.573
4.565
4.565
4.584
4.591
4.590
4.586
4.584
4.585
4.581
4.582
4.578
4.585
4.604
4.619
4.608
4.599
4.610
4.596
4.595
4.586
4.584
4.592
4.609
4.615
4.617
4.611
4.603
4.590
4.585
4.578
4.574
4.585
4.601
4.589
4.594
4.581
4.591
4.588
4.580
4.576
4.578
4.585
4.591
4.597
4.609
4.604
4.604
4.595
4.597
4.595
4.593
4.595
4.590
4.598
4.594
4.594
4.608
4.624
4.626
4.623
4.622
4.616
4.621
4.610
4.618
4.622
4.625
4.620
4.616
4.608
4.617
4.632
4.647
4.645
4.640
4.654
4.647
4.638
4.622
4.623
4.619
4.614
4.619
4.624
4.622
4.622
4.635
4.631
4.635
4.636
4.628
4.628
4.629
4.632
4.623
4.621
4.622
4.623
4.619
4.620
4.614
4.618
4.631
4.645
4.658
4.666
4.670
4.667
4.662
4.657
4.653
4.649
4.644
4.657
4.655
4.670
4.663
4.658
4.647
4.646
4.640
4.646
4.657
4.670
4.680
4.675
4.667
4.679
4.674
4.677
4.675
4.672
4.669
4.662
4.660
4.648
4.645
4.651
4.652
4.647
4.647
4.645
4.657
4.662
4.656
4.659
4.664
4.653
4.646
4.649
4.649
4.653
4.645
4.636
4.627
4.621
4.617
4.620
4.620
4.613
4.610
4.617
4.629
4.640
4.642
4.651
4.649
4.645
4.640
4.636
4.636
4.637
4.632
4.640
4.641
4.637
4.632
4.627
4.628
4.637
4.636
4.636
4.627
4.624
4.624
4.629
4.626
4.628
4.639
4.648
4.645
4.642
4.640
4.631
4.630
4.640
4.638
4.633
4.637
4.636
4.629
4.631
4.628
4.626
4.617
4.618
4.613
4.616
4.612
4.613
4.617
4.622
4.634
4.632
4.632
4.635
4.634
4.644
4.654
4.664
4.662
4.660
4.656
4.655
4.647
4.648
4.648
4.651
4.641
4.631
4.623
4.637
4.639
4.645
4.639
4.639
4.640
4.633
4.627
4.624
4.618
4.622
4.619
4.620
4.621
4.618
4.613
4.619
4.629
4.638
4.647
4.657
4.667
4.671
4.671
4.680
4.671
4.670
4.667
4.666
4.666
4.669
4.658
4.648
4.645
4.643
4.633
4.637
4.632
4.641
4.642
4.636
4.637
4.633
4.638
4.638
4.637
4.638
4.642
4.641
4.631
4.627
4.635
4.635
4.640
4.635
4.640
4.642
4.651
4.660
4.668
4.677
4.677
4.673
4.663
4.665
4.660
4.664
4.669
4.675
4.673
4.671
4.680
4.675
4.678
4.672
4.669
4.667
4.664
4.661
4.665
4.665
4.664
4.670
4.661
4.652
4.646
4.654
4.653
4.656
4.649
4.652
4.651
4.658
4.656
4.645
4.645
4.643
4.647
4.641
4.639
4.643
4.651
4.660
4.668
4.676
4.684
4.692
4.700
4.708
4.717
4.717
4.705
4.705
4.705
4.705
4.702
4.698
4.699
4.699
4.697
4.700
4.694
4.689
4.688
4.690
4.690
4.687
4.686
4.693
4.693
4.693
4.685
4.693
4.697
4.690
4.689
4.700
4.704
4.708
4.697
4.692
4.688
4.686
4.686
4.681
4.682
4.681
4.673
4.670
4.667
4.669
4.672
4.676
4.671
4.661
4.667
4.674
4.682
4.689
4.697
4.704
4.707
4.700
4.700
4.706
4.697
4.698
4.690
4.691
4.685
4.687
4.683
4.691
4.689
4.686
4.682
4.679
4.675
4.680
4.677
4.676
4.675
4.678
4.672
4.670
4.666
4.658
4.655
4.661
4.660
4.655
4.653
4.656
4.649
4.652
4.658
4.656
4.666
4.676
4.674
4.675
4.674
4.668
4.658
4.648
4.650
4.647
4.650
4.648
4.639
4.642
4.640
4.633
4.636
4.643
4.649
4.656
4.663
4.670
4.677
4.683
4.690
4.697
4.704
4.711
4.717
4.723
4.720
4.713
4.710
4.709
4.709
4.705
4.703
4.705
4.706
4.705
4.696
4.693
4.698
4.688
4.687
4.697
4.703
4.701
4.706
4.702
4.704
4.702
4.701
4.703
4.702
4.692
4.692
4.695
4.688
4.688
4.694
4.700
4.696
4.699
4.699
4.694
4.695
4.691
4.696
4.694
4.692
4.683
4.687
4.685
4.690
4.685
4.676
4.678
4.677
4.672
4.680
4.684
4.678
4.676
4.676
4.674
4.682
4.682
4.682
4.680
4.682
4.683
4.692
4.697
4.694
4.692
4.689
4.685
4.690
4.696
4.694
4.692
4.698
4.704
4.710
4.716
4.722
4.728
4.734
4.736
4.731
4.735
4.737
4.730
4.723
4.721
4.719
4.715
4.711
4.707
4.713
4.701
4.701
4.698
4.706
4.699
4.693
4.686
4.685
4.679
4.680
4.683
4.677
4.679
4.678
4.676
4.677
4.674
4.680
4.674
4.679
4.676
4.673
4.669
4.673
4.681
4.687
4.685
4.679
4.683
4.679
4.676
4.674
4.671
4.670
4.669
4.670
4.672
4.673
4.673
4.675
4.674
4.670
4.670
4.664
4.658
4.651
4.651
4.651
4.647
4.642
4.642
4.645
4.638
4.638
4.634
4.640
4.637
4.633
4.629
4.629
4.634
4.632
4.638
4.636
4.641
4.645
4.641
4.642
4.648
4.653
4.659
4.664
4.669
4.675
4.680
4.686
4.691
4.697
4.702
4.707
4.713
4.718
4.724
4.729
4.735
4.740
4.742
4.745
4.740
4.734
4.731
4.735
4.736
4.737
4.740
4.746
4.753
4.751
4.749
4.746
4.745
4.748
4.744
4.743
4.738
4.729
4.731
4.727
4.723
4.728
4.720
4.717
4.713
4.707
4.704
4.704
4.703
4.703
4.707
4.705
4.702
4.703
4.701
4.709
4.706
4.699
4.701
4.707
4.709
4.702
4.701
4.696
4.691
4.686
4.680
4.675
4.670
4.673
4.666
4.662
4.659
4.657
4.656
4.656
4.658
4.654
4.658
4.656
4.662
4.664
4.658
4.656
4.653
4.649
4.643
4.648
4.655
4.657
4.658
4.657
4.661
4.664
4.669
4.670
4.662
4.667
4.664
4.663
4.662
4.659
4.658
4.657
4.656
4.664
4.665
4.661
4.667
4.668
4.671
4.670
4.678
4.683
4.682
4.681
4.680
4.680
4.675
4.681
4.680
4.678
4.678
4.672
4.665
4.665
4.665
4.670
4.675
4.680
4.684
4.689
4.694
4.698
4.703
4.708
4.713
4.717
4.722
4.727
4.724
4.729
4.728
4.729
4.722
4.726
4.729
