2.992
3.332
3.513
3.633
3.716
3.786
3.849
3.893
3.920
3.976
3.975
4.017
4.056
4.069
4.056
4.082
4.109
4.132
4.152
4.173
4.197
4.216
4.232
4.208
4.168
4.171
4.177
4.190
4.202
4.208
4.223
4.225
4.240
4.242
4.256
4.268
4.267
4.279
4.289
4.288
4.298
4.305
4.316
4.308
4.320
4.329
4.336
4.334
4.338
4.348
4.353
4.360
4.369
4.362
4.368
4.376
4.379
4.387
4.391
4.400
4.402
4.392
4.401
4.406
4.407
4.414
4.421
4.423
4.432
4.436
4.440
4.442
4.429
4.434
4.437
4.442
4.446
4.453
4.457
4.458
4.462
4.469
4.473
4.477
4.478
4.483
4.490
4.482
4.475
4.479
4.478
4.482
4.486
4.486
4.494
4.496
4.505
4.499
4.506
4.504
4.509
4.518
4.516
4.524
4.523
4.524
4.530
4.526
4.534
4.540
4.538
4.543
4.549
4.532
4.530
4.523
4.527
4.524
4.531
4.534
4.534
4.540
4.547
4.545
4.547
4.553
4.547
4.546
4.552
4.553
4.557
4.559
4.561
4.565
4.568
4.571
4.568
4.571
4.575
4.583
4.580
4.573
4.580
4.587
4.585
4.584
4.583
4.590
4.594
4.601
4.599
4.601
4.605
4.606
4.605
4.611
4.612
4.617
4.613
4.611
4.613
4.617
4.618
4.606
4.596
4.584
4.586
4.587
4.588
4.600
4.599
4.595
4.599
4.603
4.608
4.608
4.604
4.603
4.612
4.611
4.612
4.617
4.613
4.623
4.618
4.611
4.612
4.616
4.615
4.617
4.616
4.612
4.620
4.620
4.621
4.622
4.623
4.627
4.624
4.631
4.629
4.641
4.640
4.638
4.645
4.639
4.643
4.634
4.640
4.638
4.646
4.647
4.646
4.657
4.654
4.653
4.656
4.657
4.651
4.644
4.651
4.650
4.646
4.658
4.657
4.652
4.656
4.647
4.659
4.657
4.657
4.663
4.657
4.658
4.662
4.663
4.660
4.671
4.673
4.669
4.675
4.679
4.681
4.675
4.684
4.677
4.678
4.686
4.675
4.672
4.681
4.683
4.684
4.683
4.692
4.690
4.687
4.694
4.695
4.693
4.694
4.702
4.698
4.701
4.697
4.712
4.703
4.702
4.698
4.694
4.692
4.691
4.701
4.699
4.703
4.699
4.709
4.697
4.695
4.696
4.701
4.699
4.695
4.696
4.706
4.707
4.705
4.701
4.708
4.713
4.712
4.710
4.711
4.720
4.723
4.721
4.714
4.716
4.728
4.727
4.723
4.724
4.723
4.732
4.738
4.727
4.727
4.723
4.716
4.712
4.705
4.704
4.697
4.694
4.692
4.696
4.701
4.693
4.686
4.682
4.695
4.702
4.698
4.697
4.698
4.694
4.705
4.710
4.703
4.708
4.705
4.702
4.705
4.699
4.703
4.697
4.701
4.704
4.716
4.712
4.711
4.707
4.709
4.705
4.717
4.723
4.722
4.718
4.717
4.723
4.719
4.729
4.731
4.723
4.720
4.713
4.712
4.715
4.711
4.705
4.708
4.707
4.706
4.718
4.714
4.713
4.705
4.705
4.706
4.707
4.706
4.705
4.708
4.707
4.706
4.704
4.709
4.718
4.711
4.708
4.705
4.708
4.701
4.705
4.717
4.720
4.720
4.718
4.717
4.710
4.711
4.716
4.722
4.731
4.733
4.729
4.730
4.721
4.719
4.716
4.723
4.734
4.733
4.729
4.727
4.724
4.725
4.720
4.722
4.732
4.730
4.732
4.736
4.735
4.733
4.727
4.728
4.726
4.736
4.738
4.739
4.740
4.738
4.738
4.736
4.737
4.733
4.738
4.747
4.759
4.758
4.753
4.753
4.745
4.747
4.748
4.747
4.743
4.749
4.740
4.741
4.740
4.738
4.743
4.741
4.735
4.736
4.746
4.755
4.749
4.750
4.743
4.742
4.740
4.736
4.734
4.734
4.743
4.753
4.753
4.753
4.753
4.752
4.753
4.745
4.749
4.749
4.743
4.747
4.756
4.766
4.765
4.760
4.762
4.766
4.767
4.763
4.756
4.747
4.749
4.755
4.764
4.768
4.764
4.764
4.767
4.763
4.765
4.768
4.764
4.761
4.760
4.758
4.767
4.775
4.779
4.782
4.783
4.780
4.783
4.783
4.784
4.775
4.775
4.777
4.768
4.772
4.781
4.786
4.787
4.786
4.783
4.780
4.779
4.779
4.771
4.772
4.771
4.772
4.776
4.780
4.775
4.769
4.767
4.761
4.756
4.757
4.754
4.753
4.751
4.753
4.756
4.764
4.767
4.766
4.773
4.769
4.767
4.764
4.760
4.760
4.764
4.760
4.762
4.755
4.753
4.760
4.762
4.758
4.759
4.755
4.754
4.760
4.762
4.758
4.759
4.760
4.754
4.753
4.751
4.750
4.759
4.766
4.775
4.774
4.771
4.766
4.765
4.766
4.762
4.761
4.767
4.768
4.767
4.763
4.767
4.763
4.762
4.766
4.775
4.782
4.776
4.775
4.778
4.775
4.776
4.777
4.773
4.772
4.764
4.760
4.762
4.764
4.764
4.763
4.765
4.774
4.778
4.777
4.776
4.775
4.778
4.774
4.768
4.768
4.767
4.764
4.767
4.768
4.759
4.757
4.756
4.757
4.765
4.772
4.778
4.786
4.794
4.790
4.787
4.785
4.784
4.780
4.781
4.782
4.781
4.775
4.778
4.780
4.776
4.775
4.775
4.779
4.779
4.777
4.786
4.791
4.798
4.801
4.798
4.797
4.798
4.796
4.794
4.790
4.789
4.785
4.786
4.785
4.786
4.783
4.783
4.782
4.779
4.779
4.781
4.788
4.794
4.801
4.797
4.796
4.795
4.794
4.792
4.794
4.795
4.794
4.797
4.794
4.797
4.796
4.790
4.790
4.792
4.793
4.792
4.793
4.790
4.788
4.795
4.801
4.808
4.815
4.822
4.821
4.817
4.821
4.820
4.820
4.820
4.816
4.811
4.807
4.805
4.802
4.803
4.810
4.808
4.812
4.811
4.804
4.805
4.799
4.798
4.805
4.811
4.818
4.823
4.820
4.814
4.810
4.811
4.816
4.814
4.808
4.805
4.799
4.795
4.791
4.786
4.785
4.779
4.780
4.779
4.786
4.786
4.786
4.790
4.797
4.801
4.808
4.811
4.810
4.809
4.812
4.816
4.816
4.812
4.812
4.805
4.801
4.798
4.799
4.795
4.793
4.792
4.794
4.795
4.793
4.789
4.786
4.786
4.779
4.784
4.790
4.795
4.801
4.808
4.810
4.805
4.810
4.814
4.815
4.814
4.812
4.811
4.805
4.809
4.808
4.809
4.808
4.808
4.805
4.803
4.808
4.806
4.805
4.808
4.810
4.805
4.804
4.800
4.799
4.795
4.796
4.801
4.805
4.812
4.818
4.822
4.820
4.817
4.815
4.814
4.815
4.811
4.813
4.817
4.815
4.817
4.818
4.817
4.816
4.812
4.813
4.816
4.818
4.819
4.818
4.814
4.815
4.817
4.815
4.811
4.815
4.814
4.813
4.809
4.810
4.816
4.821
4.827
4.832
4.838
4.838
4.839
4.842
4.834
4.829
4.827
4.826
4.830
4.827
4.827
4.826
4.830
4.829
4.828
4.834
4.833
4.834
4.833
4.838
4.836
4.837
4.834
4.834
4.833
4.835
4.830
4.824
4.822
4.823
4.822
4.824
4.825
4.831
4.836
4.842
4.844
4.845
4.844
4.845
4.847
4.849
4.847
4.849
4.850
4.848
4.844
4.842
4.836
4.834
4.841
4.837
4.839
4.842
4.842
4.838
4.836
4.834
4.831
4.832
4.828
4.823
4.820
4.815
4.812
4.812
4.814
4.813
4.819
4.824
4.830
4.834
4.839
4.840
4.842
4.842
4.841
4.838
4.842
4.840
4.839
4.840
4.839
4.837
4.831
4.838
4.839
4.840
4.841
4.838
4.838
4.838
4.838
4.834
4.833
4.835
4.831
4.827
4.823
4.824
4.825
4.824
4.828
4.826
4.823
4.826
4.830
4.827
4.828
4.829
4.833
4.832
4.836
4.842
4.845
4.849
4.855
4.860
4.861
4.856
4.852
4.854
4.857
4.860
4.863
4.865
4.858
4.859
4.857
4.854
4.855
4.854
4.853
4.853
4.850
4.854
4.850
4.849
4.850
4.853
4.858
4.862
4.864
4.860
4.855
4.853
4.850
4.853
4.857
4.853
4.850
4.851
4.850
4.849
4.850
4.849
4.849
4.846
4.847
4.848
4.852
4.857
4.861
4.867
4.871
4.875
4.879
4.875
4.869
4.865
4.869
4.871
4.872
4.875
4.869
4.865
4.869
