2.990
3.323
3.507
3.628
3.684
3.740
3.830
3.834
3.882
3.937
3.982
4.025
4.015
3.963
3.989
4.007
4.034
4.046
4.063
4.069
4.091
4.101
4.121
4.125
4.145
4.165
4.160
4.174
4.194
4.206
4.200
4.209
4.224
4.235
4.254
4.241
4.247
4.263
4.268
4.277
4.286
4.298
4.294
4.279
4.290
4.303
4.308
4.321
4.325
4.336
4.332
4.348
4.356
4.361
4.364
4.334
4.339
4.351
4.357
4.369
4.360
4.363
4.374
4.387
4.385
4.393
4.393
4.393
4.402
4.406
4.417
4.414
4.426
4.438
4.437
4.435
4.432
4.443
4.436
4.412
4.415
4.420
4.421
4.427
4.432
4.436
4.438
4.437
4.437
4.439
4.438
4.435
4.448
4.454
4.466
4.462
4.458
4.460
4.476
4.482
4.477
4.477
4.476
4.482
4.474
4.471
4.484
4.481
4.485
4.496
4.495
4.504
4.500
4.507
4.515
4.500
4.515
4.506
4.514
4.519
4.521
4.521
4.536
4.524
4.546
4.528
4.525
4.528
4.525
4.527
4.524
4.524
4.535
4.535
4.552
4.542
4.544
4.554
4.557
4.561
4.563
4.561
4.568
4.563
4.569
4.566
4.563
4.551
4.538
4.528
4.525
4.538
4.530
4.531
4.541
4.539
4.533
4.543
4.553
4.556
4.541
4.564
4.558
4.551
4.563
4.554
4.538
4.548
4.539
4.541
4.540
4.540
4.533
4.531
4.546
4.542
4.539
4.539
4.556
4.559
4.554
4.547
4.558
4.569
4.563
4.549
4.555
4.565
4.560
4.557
4.559
4.572
4.570
4.571
4.572
4.567
4.583
4.594
4.582
4.584
4.579
4.585
4.578
4.571
4.565
4.573
4.582
4.575
4.578
4.580
4.568
4.584
4.599
4.601
4.597
4.592
4.585
4.595
4.592
4.600
4.589
4.591
4.592
4.599
4.614
4.620
4.612
4.616
4.608
4.599
4.616
4.634
4.620
4.622
4.609
4.615
4.608
4.626
4.628
4.630
4.623
4.617
4.607
4.610
4.603
4.600
4.604
4.597
4.589
4.597
4.603
4.601
4.596
4.590
4.585
4.590
4.591
4.594
4.611
4.612
4.611
4.613
4.610
4.600
4.605
4.600
4.609
4.616
4.613
4.618
4.613
4.613
4.611
4.602
4.597
4.614
4.612
4.618
4.618
4.615
4.607
4.600
4.605
4.604
4.609
4.625
4.632
4.637
4.631
4.638
4.619
4.623
4.614
4.614
4.617
4.626
4.635
4.635
4.626
4.631
4.627
4.629
4.630
4.624
4.624
4.617
4.632
4.647
4.657
4.661
4.656
4.657
4.647
4.647
4.646
4.646
4.636
4.637
4.640
4.654
4.668
4.663
4.661
4.658
4.654
4.649
4.647
4.644
4.643
4.637
4.634
4.648
4.656
4.649
4.644
4.639
4.645
4.637
4.631
4.627
4.621
4.619
4.619
4.630
4.643
4.655
4.659
4.661
4.657
4.657
4.659
4.653
4.645
4.635
4.630
4.638
4.637
4.633
4.637
4.650
4.663
4.668
4.669
4.665
4.669
4.669
4.669
4.668
4.657
4.649
4.649
4.647
4.649
4.650
4.649
4.654
4.666
4.678
4.690
4.692
4.689
4.687
4.686
4.674
4.674
4.674
4.679
4.681
4.680
4.682
4.673
4.671
4.666
4.665
4.675
4.686
4.691
4.689
4.699
4.698
4.694
4.683
4.673
4.669
4.665
4.664
4.660
4.658
4.660
4.661
4.668
4.657
4.664
4.676
4.687
4.695
4.698
4.686
4.686
4.693
4.689
4.690
4.695
4.688
4.687
4.689
4.685
4.685
4.679
4.681
4.674
4.672
4.677
4.683
4.688
4.688
4.699
4.710
4.720
4.731
4.729
4.733
4.733
4.725
4.717
4.710
4.712
4.711
4.702
4.708
4.706
4.703
4.700
4.696
4.693
4.696
4.695
4.691
4.693
4.698
4.708
4.718
4.728
4.724
4.715
4.722
4.716
4.710
4.704
4.698
4.692
4.687
4.681
4.675
4.676
4.669
4.668
4.678
4.678
4.674
4.675
4.679
4.680
4.682
4.691
4.695
4.697
4.693
4.694
4.691
4.687
4.682
4.688
4.682
4.684
4.689
4.690
4.683
4.675
4.672
4.669
4.672
4.668
4.664
4.664
4.656
4.655
4.656
4.653
4.658
4.667
4.676
4.685
4.694
4.703
4.712
4.710
4.707
4.709
4.704
4.704
4.703
4.702
4.693
4.696
4.694
4.696
4.690
4.687
4.684
4.685
4.687
4.697
4.693
4.686
4.678
4.670
4.664
4.663
4.656
4.653
4.657
4.666
4.674
4.683
4.692
4.699
4.704
4.699
4.697
4.687
4.686
4.690
4.690
4.693
4.688
4.698
4.691
4.689
4.694
4.690
4.699
4.697
4.695
4.689
4.693
4.684
4.688
4.684
4.681
4.680
4.672
4.679
4.675
4.685
4.675
4.674
4.679
4.672
4.671
4.679
4.687
4.695
4.703
4.703
4.699
4.700
4.696
4.698
4.695
4.699
4.700
4.698
4.700
4.703
4.699
4.694
4.687
4.686
4.694
4.693
4.685
4.688
4.690
4.688
4.681
4.681
4.678
4.682
4.682
4.674
4.682
4.682
4.683
4.691
4.691
4.683
4.683
4.679
4.680
4.671
4.674
4.682
4.689
4.697
4.704
4.705
4.716
4.723
4.713
4.710
4.710
4.709
4.707
4.709
4.718
4.714
4.706
4.703
4.703
4.711
4.713
4.705
4.696
4.697
4.698
4.698
4.700
4.698
4.692
4.687
4.686
4.687
4.688
4.698
4.695
4.700
4.703
4.700
4.700
4.697
4.698
4.692
4.694
4.693
4.695
4.695
4.692
4.683
4.680
4.681
4.688
4.695
4.702
4.709
4.716
4.723
4.730
4.730
4.729
4.725
4.718
4.719
4.726
4.727
4.726
4.722
4.728
4.733
4.734
4.743
4.745
4.736
4.728
4.727
4.726
4.719
4.714
4.716
4.714
4.713
4.715
4.724
4.718
4.709
4.707
4.703
4.703
4.709
4.706
4.707
4.701
4.703
4.704
4.705
4.709
4.707
4.708
4.707
4.707
4.701
4.709
4.714
4.707
4.709
4.710
4.701
4.701
4.703
4.702
4.709
4.713
4.719
4.726
4.732
4.738
4.745
4.751
4.757
4.764
4.761
4.760
4.762
4.762
4.760
4.758
4.761
4.767
4.763
4.761
4.763
4.754
4.755
4.749
4.750
4.753
4.751
4.748
4.739
4.740
4.744
4.746
4.744
4.743
4.752
4.748
4.751
4.745
4.739
4.734
4.740
4.749
4.751
4.745
4.743
4.740
4.735
4.739
4.732
4.725
4.724
4.719
4.716
4.708
4.708
4.716
4.720
4.715
4.709
4.713
4.718
4.724
4.721
4.719
4.716
4.710
4.709
4.708
4.714
4.720
4.726
4.732
4.737
4.737
4.741
4.742
4.746
4.750
4.752
4.752
4.748
4.746
4.746
4.746
4.743
4.745
4.747
4.740
4.743
4.742
4.740
4.733
4.736
4.729
4.726
4.722
4.725
4.718
4.723
4.721
4.719
4.714
4.706
4.704
4.710
4.709
4.714
4.714
4.715
4.721
4.721
4.722
4.714
4.712
4.710
4.709
4.712
4.713
4.706
4.709
4.717
4.718
4.718
4.717
4.710
4.710
4.709
4.705
4.706
4.709
4.711
4.718
4.716
4.712
4.707
4.705
4.698
4.694
4.688
4.689
4.692
4.694
4.691
4.692
4.694
4.697
4.703
4.708
4.713
4.719
4.724
4.729
4.735
4.740
4.745
4.751
4.756
4.761
4.767
4.766
4.764
4.764
4.761
4.766
4.762
4.764
4.768
4.767
4.763
4.760
4.754
4.750
4.754
4.747
4.746
4.750
4.749
4.745
4.752
4.759
4.760
4.754
4.760
4.759
4.764
4.761
4.759
4.760
4.758
4.754
4.750
4.756
4.752
4.752
4.756
4.749
4.747
4.751
4.755
4.757
4.758
4.753
4.753
4.755
4.754
4.756
4.756
4.758
4.750
4.745
4.745
4.752
4.752
4.745
4.745
4.741
4.740
4.739
4.735
4.733
4.735
4.743
4.744
4.740
4.743
4.739
4.740
4.739
4.736
4.732
4.728
4.725
4.721
4.717
4.718
4.720
4.717
4.715
4.715
4.712
4.713
4.714
4.722
4.727
4.725
4.724
4.722
4.718
4.723
4.728
4.733
4.738
4.743
4.747
4.752
4.757
4.762
4.766
4.771
4.768
4.765
4.761
4.757
4.758
4.757
4.756
4.756
4.757
4.757
4.751
