2.994
3.327
3.516
3.636
3.721
3.782
3.838
3.873
3.939
3.943
3.992
4.032
4.007
4.036
4.070
4.097
4.121
4.143
4.169
4.192
4.183
4.136
4.132
4.146
4.156
4.162
4.178
4.188
4.200
4.207
4.219
4.223
4.238
4.248
4.246
4.259
4.270
4.269
4.281
4.291
4.299
4.292
4.306
4.311
4.320
4.333
4.321
4.330
4.339
4.349
4.350
4.362
4.364
4.354
4.361
4.373
4.377
4.384
4.386
4.399
4.403
4.401
4.394
4.393
4.402
4.407
4.418
4.420
4.419
4.426
4.433
4.436
4.436
4.445
4.449
4.456
4.436
4.442
4.444
4.445
4.451
4.459
4.458
4.464
4.466
4.469
4.471
4.480
4.481
4.491
4.485
4.488
4.487
4.502
4.499
4.514
4.509
4.514
4.496
4.488
4.490
4.491
4.493
4.503
4.506
4.507
4.509
4.516
4.520
4.511
4.518
4.516
4.520
4.521
4.528
4.533
4.536
4.535
4.539
4.544
4.547
4.540
4.545
4.552
4.551
4.552
4.555
4.554
4.562
4.565
4.569
4.566
4.573
4.577
4.575
4.576
4.583
4.579
4.583
4.582
4.575
4.574
4.562
4.549
4.551
4.565
4.561
4.554
4.566
4.570
4.572
4.571
4.573
4.573
4.580
4.574
4.578
4.587
4.586
4.577
4.583
4.574
4.581
4.577
4.581
4.584
4.588
4.592
4.591
4.595
4.594
4.599
4.597
4.609
4.600
4.612
4.610
4.607
4.605
4.607
4.607
4.615
4.616
4.615
4.627
4.617
4.630
4.620
4.618
4.609
4.616
4.618
4.624
4.621
4.616
4.621
4.614
4.629
4.629
4.621
4.632
4.623
4.632
4.637
4.633
4.644
4.647
4.640
4.652
4.647
4.644
4.653
4.651
4.644
4.643
4.647
4.647
4.656
4.655
4.650
4.663
4.656
4.657
4.670
4.668
4.661
4.670
4.677
4.670
4.669
4.674
4.664
4.662
4.664
4.668
4.666
4.676
4.673
4.666
4.667
4.671
4.669
4.660
4.670
4.673
4.670
4.666
4.681
4.677
4.675
4.676
4.689
4.695
4.684
4.684
4.691
4.693
4.692
4.690
4.694
4.706
4.694
4.695
4.692
4.703
4.695
4.688
4.681
4.674
4.667
4.663
4.670
4.663
4.651
4.655
4.670
4.670
4.664
4.665
4.664
4.677
4.675
4.677
4.672
4.670
4.675
4.670
4.669
4.673
4.673
4.681
4.678
4.679
4.675
4.676
4.680
4.690
4.691
4.692
4.691
4.690
4.691
4.698
4.699
4.693
4.688
4.681
4.678
4.677
4.673
4.676
4.678
4.685
4.680
4.674
4.681
4.674
4.672
4.676
4.680
4.677
4.675
4.679
4.670
4.684
4.677
4.681
4.675
4.673
4.672
4.679
4.691
4.687
4.684
4.684
4.689
4.684
4.684
4.698
4.700
4.693
4.692
4.692
4.694
4.693
4.699
4.699
4.697
4.699
4.691
4.687
4.684
4.695
4.707
4.707
4.703
4.703
4.699
4.696
4.697
4.699
4.711
4.712
4.714
4.709
4.710
4.707
4.714
4.710
4.714
4.725
4.719
4.721
4.727
4.723
4.714
4.706
4.710
4.720
4.719
4.715
4.710
4.712
4.713
4.709
4.705
4.714
4.716
4.715
4.714
4.706
4.708
4.710
4.708
4.709
4.714
4.725
4.729
4.726
4.721
4.723
4.724
4.725
4.719
4.718
4.721
4.731
4.743
4.734
4.724
4.723
4.722
4.723
4.721
4.720
4.721
4.731
4.741
4.742
4.741
4.740
4.736
4.739
4.740
4.734
4.736
4.740
4.738
4.750
4.758
4.753
4.752
4.751
4.747
4.742
4.744
4.742
4.744
4.747
4.749
4.758
4.755
4.755
4.757
4.751
4.755
4.755
4.751
4.745
4.738
4.736
4.732
4.734
4.736
4.737
4.733
4.728
4.721
4.728
4.724
4.721
4.729
4.737
4.744
4.745
4.741
4.734
4.727
4.720
4.713
4.718
4.714
4.710
4.719
4.728
4.738
4.742
4.738
4.731
4.733
4.729
4.730
4.728
4.729
4.731
4.725
4.720
4.724
4.734
4.741
4.744
4.751
4.748
4.749
4.753
4.747
4.747
4.746
4.740
4.732
4.728
4.736
4.736
4.738
4.747
4.749
4.748
4.749
4.745
4.747
4.745
4.746
4.742
4.735
4.734
4.735
4.732
4.725
4.734
4.743
4.742
4.751
4.751
4.749
4.745
4.743
4.742
4.744
4.748
4.747
4.740
4.743
4.744
4.740
4.739
4.741
4.750
4.757
4.766
4.762
4.761
4.760
4.764
4.765
4.761
4.763
4.764
4.763
4.755
4.747
4.748
4.749
4.748
4.747
4.756
4.763
4.772
4.766
4.766
4.762
4.755
4.757
4.758
4.754
4.759
4.758
4.759
4.754
4.751
4.751
4.755
4.754
4.751
4.758
4.767
4.774
4.773
4.781
4.783
4.777
4.778
4.779
4.780
4.776
4.778
4.774
4.775
4.776
4.773
4.779
4.778
4.779
4.770
4.766
4.769
4.776
4.783
4.790
4.794
4.787
4.781
4.784
4.784
4.787
4.786
4.787
4.784
4.781
4.781
4.776
4.770
4.766
4.764
4.765
4.770
4.768
4.772
4.777
4.775
4.774
4.775
4.773
4.775
4.771
4.772
4.771
4.767
4.766
4.772
4.774
4.772
4.773
4.773
4.768
4.764
4.762
4.759
4.758
4.764
4.773
4.777
4.773
4.770
4.771
4.775
4.773
4.777
4.774
4.770
4.765
4.769
4.770
4.769
4.766
4.764
4.768
4.766
4.768
4.770
4.770
4.770
4.774
4.773
4.768
4.775
4.784
4.789
4.790
4.783
4.787
4.786
4.781
4.780
4.781
4.781
4.788
4.783
4.777
4.775
4.771
4.773
4.773
4.778
4.777
4.775
4.774
4.772
4.771
4.770
4.771
4.775
4.777
4.784
4.792
4.797
4.804
4.807
4.803
4.803
4.803
4.800
4.796
4.792
4.792
4.791
4.788
4.794
4.792
4.791
4.793
4.797
4.795
4.791
4.792
4.789
4.795
4.792
4.792
4.792
4.790
4.789
4.792
4.791
4.798
4.805
4.810
4.816
4.817
4.816
4.814
4.816
4.820
4.821
4.823
4.818
4.812
4.807
4.806
4.802
4.803
4.807
4.804
4.805
4.806
4.807
4.806
4.802
4.796
4.803
4.803
4.799
4.801
4.799
4.796
4.799
4.801
4.805
4.810
4.813
4.810
4.808
4.810
4.808
4.810
4.808
4.801
4.797
4.795
4.802
4.799
4.802
4.809
4.808
4.804
4.803
4.806
4.803
4.799
4.794
4.795
4.791
4.792
4.792
4.790
4.791
4.788
4.792
4.795
4.792
4.798
4.803
4.810
4.816
4.820
4.827
4.828
4.825
4.825
4.825
4.821
4.819
4.823
4.829
4.828
4.821
4.817
4.818
4.815
4.816
4.815
4.818
4.815
4.821
4.820
4.818
4.817
4.819
4.820
4.816
4.815
4.816
4.815
4.816
4.818
4.814
4.820
4.821
4.815
4.814
4.814
4.818
4.823
4.829
4.832
4.838
4.844
4.851
4.855
4.852
4.848
4.849
4.848
4.851
4.851
4.852
4.848
4.843
4.837
4.835
4.834
4.836
4.839
4.835
4.834
4.830
4.825
4.821
4.825
4.832
4.826
4.829
4.826
4.824
4.823
4.822
4.828
4.835
4.831
4.824
4.821
4.824
4.821
4.819
4.823
4.829
4.834
4.832
4.828
4.824
4.825
4.821
4.815
4.816
4.810
4.810
4.810
4.810
4.814
4.810
4.807
4.811
4.814
4.814
4.810
4.810
4.807
4.805
4.804
4.803
4.806
4.808
4.810
4.807
4.807
4.805
4.803
4.803
4.803
4.805
4.804
4.802
4.803
4.805
4.803
4.799
4.801
4.807
4.812
4.810
4.814
4.819
4.823
4.825
4.823
4.822
4.820
4.818
4.815
4.816
4.814
4.811
4.817
4.818
4.818
4.814
4.815
4.814
4.814
4.813
4.817
4.816
4.814
4.810
4.804
4.799
4.799
4.797
4.798
4.800
4.803
4.805
4.804
4.803
4.799
4.800
4.801
4.799
4.793
4.789
4.790
4.791
4.790
4.789
4.788
4.792
4.798
4.802
4.807
4.811
4.815
4.821
4.826
4.825
4.825
4.822
4.821
4.821
4.820
4.819
4.820
4.822
4.823
4.822
4.823
4.825
4.829
4.832
4.831
4.830
4.829
4.825
4.821
4.816
4.814
4.816
4.814
4.816
4.817
4.813
4.810
