2.988
3.326
3.489
3.626
3.713
3.776
3.781
3.849
3.907
3.954
3.961
3.901
3.933
3.958
3.983
4.006
4.020
4.034
4.056
4.068
4.084
4.111
4.108
4.130
4.150
4.142
4.161
4.172
4.198
4.178
4.200
4.206
4.228
4.230
4.246
4.220
4.237
4.249
4.261
4.265
4.272
4.278
4.289
4.315
4.307
4.275
4.297
4.302
4.309
4.310
4.322
4.333
4.340
4.343
4.343
4.342
4.353
4.370
4.365
4.377
4.385
4.378
4.383
4.393
4.377
4.357
4.368
4.373
4.376
4.387
4.387
4.384
4.380
4.390
4.400
4.400
4.412
4.401
4.408
4.421
4.419
4.418
4.428
4.418
4.422
4.429
4.429
4.427
4.432
4.449
4.449
4.444
4.457
4.458
4.453
4.461
4.469
4.465
4.479
4.472
4.493
4.486
4.476
4.485
4.469
4.476
4.479
4.484
4.486
4.497
4.491
4.512
4.498
4.515
4.512
4.518
4.521
4.525
4.518
4.518
4.502
4.486
4.477
4.484
4.481
4.482
4.490
4.486
4.499
4.507
4.499
4.512
4.515
4.509
4.500
4.479
4.492
4.490
4.475
4.493
4.486
4.478
4.490
4.503
4.501
4.496
4.514
4.511
4.508
4.502
4.516
4.506
4.496
4.516
4.521
4.517
4.521
4.524
4.532
4.536
4.532
4.531
4.538
4.520
4.513
4.524
4.535
4.526
4.524
4.520
4.541
4.542
4.550
4.534
4.528
4.549
4.552
4.543
4.543
4.536
4.558
4.575
4.568
4.560
4.558
4.555
4.579
4.571
4.569
4.562
4.554
4.570
4.585
4.576
4.569
4.576
4.566
4.552
4.559
4.549
4.551
4.549
4.553
4.549
4.541
4.542
4.543
4.530
4.544
4.565
4.574
4.565
4.561
4.552
4.547
4.548
4.568
4.575
4.571
4.561
4.553
4.543
4.542
4.562
4.575
4.567
4.563
4.564
4.558
4.567
4.565
4.566
4.586
4.584
4.579
4.576
4.572
4.578
4.571
4.559
4.578
4.586
4.591
4.589
4.587
4.585
4.586
4.582
4.589
4.582
4.596
4.614
4.613
4.607
4.602
4.607
4.596
4.589
4.589
4.585
4.601
4.618
4.620
4.621
4.610
4.597
4.594
4.590
4.582
4.575
4.592
4.596
4.592
4.588
4.583
4.591
4.584
4.581
4.579
4.585
4.591
4.595
4.602
4.605
4.606
4.601
4.602
4.603
4.599
4.599
4.598
4.597
4.602
4.599
4.597
4.611
4.627
4.628
4.625
4.622
4.621
4.621
4.616
4.620
4.627
4.623
4.621
4.618
4.608
4.618
4.632
4.647
4.650
4.644
4.658
4.647
4.638
4.624
4.628
4.618
4.617
4.620
4.629
4.622
4.622
4.633
4.638
4.634
4.641
4.630
4.630
4.629
4.637
4.629
4.619
4.624
4.624
4.627
4.623
4.617
4.615
4.628
4.642
4.655
4.662
4.672
4.673
4.665
4.662
4.657
4.650
4.644
4.653
4.658
4.665
4.665
4.660
4.655
4.651
4.647
4.651
4.652
4.665
4.678
4.680
4.673
4.673
4.677
4.681
4.684
4.679
4.677
4.670
4.667
4.654
4.658
4.651
4.652
4.658
4.652
4.649
4.649
4.661
4.666
4.661
4.662
4.663
4.650
4.648
4.655
4.648
4.650
4.642
4.633
4.626
4.619
4.621
4.622
4.615
4.612
4.610
4.619
4.631
4.642
4.646
4.651
4.653
4.649
4.643
4.640
4.637
4.641
4.634
4.643
4.641
4.642
4.635
4.631
4.629
4.642
4.643
4.636
4.628
4.628
4.626
4.633
4.631
4.627
4.638
4.648
4.649
4.643
4.646
4.638
4.632
4.639
4.638
4.634
4.640
4.639
4.633
4.636
4.631
4.631
4.624
4.621
4.621
4.616
4.615
4.617
4.619
4.625
4.630
4.637
4.638
4.636
4.634
4.640
4.650
4.660
4.668
4.667
4.659
4.660
4.650
4.647
4.651
4.651
4.645
4.636
4.632
4.631
4.643
4.644
4.645
4.639
4.637
4.639
4.629
4.627
4.627
4.619
4.621
4.616
4.624
4.624
4.620
4.616
4.623
4.632
4.642
4.651
4.660
4.670
4.668
4.675
4.681
4.677
4.672
4.671
4.668
4.670
4.666
4.655
4.645
4.645
4.644
4.632
4.640
4.637
4.641
4.644
4.640
4.641
4.638
4.640
4.640
4.639
4.645
4.644
4.643
4.634
4.631
4.636
4.637
4.640
4.640
4.646
4.642
4.651
4.660
4.668
4.677
4.681
4.672
4.664
4.669
4.665
4.663
4.671
4.677
4.674
4.672
4.680
4.678
4.679
4.676
4.671
4.669
4.668
4.665
4.665
4.667
4.665
4.673
4.666
4.656
4.650
4.650
4.656
4.655
4.656
4.652
4.655
4.659
4.659
4.649
4.645
4.648
4.647
4.648
4.640
4.645
4.648
4.656
4.664
4.672
4.680
4.688
4.696
4.704
4.712
4.721
4.714
4.705
4.711
4.708
4.705
4.705
4.699
4.702
4.704
4.697
4.701
4.694
4.691
4.693
4.695
4.688
4.690
4.691
4.694
4.696
4.693
4.691
4.698
4.693
4.690
4.691
4.703
4.709
4.709
4.702
4.694
4.690
4.690
4.688
4.684
4.686
4.680
4.672
4.671
4.671
4.672
4.673
4.678
4.670
4.664
4.667
4.675
4.682
4.689
4.697
4.704
4.706
4.700
4.699
4.706
4.701
4.699
4.694
4.692
4.689
4.687
4.686
4.691
4.690
4.690
4.685
4.686
4.680
4.681
4.680
4.679
4.678
4.682
4.677
4.675
4.667
4.659
4.656
4.658
4.663
4.660
4.659
4.657
4.655
4.653
4.661
4.656
4.663
4.673
4.676
4.681
4.676
4.671
4.661
4.654
4.650
4.653
4.650
4.653
4.647
4.640
4.648
4.639
4.633
4.639
4.646
4.653
4.660
4.666
4.673
4.680
4.686
4.693
4.700
4.707
4.713
4.720
4.723
4.722
4.718
4.712
4.713
4.709
4.706
4.707
4.710
4.710
4.703
4.703
4.696
4.694
4.694
4.690
4.699
4.706
4.708
4.707
4.704
4.706
4.704
4.706
4.704
4.701
4.695
4.698
4.700
4.691
4.690
4.695
4.701
4.699
4.702
4.704
4.697
4.699
4.694
4.700
4.697
4.693
4.683
4.691
4.690
4.693
4.685
4.680
4.679
4.682
4.678
4.683
4.684
4.679
4.676
4.678
4.677
4.683
4.685
4.684
4.682
4.686
4.689
4.690
4.698
4.698
4.695
4.692
4.689
4.688
4.697
4.697
4.692
4.696
4.702
4.708
4.714
4.720
4.726
4.732
4.737
4.734
4.731
4.738
4.734
4.727
4.727
4.720
4.720
4.711
4.713
4.710
4.707
4.702
4.703
4.703
4.704
4.696
4.689
4.686
4.683
4.680
4.685
4.684
4.677
4.683
4.679
4.678
4.682
4.679
4.678
4.678
4.682
4.677
4.675
4.670
4.675
4.683
4.690
4.690
4.681
4.683
4.681
4.678
4.675
4.676
4.671
4.670
4.672
4.674
4.678
4.676
4.677
4.674
4.671
4.669
4.663
4.657
4.653
4.653
4.658
4.650
4.642
4.645
4.650
4.643
4.639
4.635
4.641
4.638
4.636
4.633
4.633
4.637
4.632
4.640
4.642
4.640
4.648
4.647
4.642
4.647
4.652
4.658
4.663
4.669
4.674
4.679
4.685
4.690
4.695
4.701
4.706
4.711
4.717
4.722
4.728
4.733
4.739
4.744
4.747
4.745
4.737
4.735
4.733
4.740
4.739
4.743
4.743
4.750
4.758
4.752
4.750
4.748
4.751
4.749
4.744
4.741
4.733
4.727
4.732
4.726
4.728
4.726
4.723
4.715
4.714
4.708
4.707
4.705
4.705
4.707
4.709
4.709
4.705
4.703
4.704
4.711
4.703
4.701
4.704
4.712
4.709
4.705
4.699
4.694
4.689
4.684
4.679
4.674
4.669
4.677
4.668
4.661
4.663
4.661
4.658
4.659
4.659
4.660
4.660
4.660
4.665
4.666
4.662
4.663
4.657
4.650
4.643
4.649
4.655
4.660
4.658
4.658
4.664
4.667
4.670
4.670
4.666
4.667
4.669
4.666
4.661
4.663
4.661
4.659
4.660
4.664
4.666
4.665
4.667
4.672
4.671
4.674
4.676
4.683
4.687
4.684
4.683
4.682
4.680
4.680
4.684
4.684
4.680
4.673
4.669
4.666
4.667
4.668
4.673
4.678
4.682
4.687
4.692
4.696
4.701
4.706
4.711
4.715
