2.992
3.336
3.506
3.632
3.722
3.770
3.847
3.866
3.927
3.915
3.954
3.995
4.035
4.065
4.096
4.117
4.055
4.050
4.070
4.085
4.092
4.117
4.124
4.136
4.152
4.158
4.171
4.191
4.192
4.202
4.217
4.222
4.231
4.246
4.236
4.247
4.261
4.268
4.279
4.274
4.282
4.294
4.299
4.312
4.315
4.329
4.315
4.317
4.327
4.340
4.338
4.350
4.359
4.361
4.367
4.372
4.361
4.359
4.365
4.380
4.384
4.385
4.388
4.401
4.402
4.406
4.412
4.409
4.423
4.432
4.436
4.445
4.423
4.411
4.416
4.416
4.433
4.432
4.437
4.441
4.435
4.441
4.443
4.458
4.457
4.460
4.466
4.469
4.467
4.471
4.466
4.473
4.483
4.490
4.492
4.490
4.502
4.495
4.506
4.509
4.499
4.502
4.504
4.506
4.496
4.485
4.483
4.488
4.497
4.498
4.494
4.494
4.502
4.508
4.516
4.513
4.501
4.500
4.503
4.510
4.507
4.514
4.515
4.518
4.522
4.524
4.526
4.537
4.534
4.528
4.535
4.544
4.540
4.550
4.545
4.557
4.551
4.538
4.551
4.543
4.539
4.546
4.553
4.552
4.551
4.556
4.561
4.560
4.568
4.569
4.577
4.571
4.575
4.576
4.573
4.574
4.583
4.582
4.580
4.586
4.586
4.601
4.591
4.593
4.602
4.598
4.608
4.605
4.597
4.594
4.595
4.608
4.596
4.595
4.595
4.586
4.603
4.599
4.596
4.609
4.613
4.609
4.613
4.618
4.612
4.615
4.632
4.626
4.615
4.634
4.633
4.630
4.634
4.638
4.630
4.620
4.610
4.600
4.597
4.590
4.588
4.603
4.600
4.597
4.596
4.602
4.595
4.602
4.603
4.608
4.606
4.602
4.606
4.623
4.619
4.623
4.618
4.627
4.625
4.623
4.620
4.624
4.612
4.608
4.605
4.610
4.613
4.611
4.608
4.608
4.614
4.606
4.598
4.602
4.610
4.606
4.608
4.608
4.602
4.618
4.620
4.621
4.625
4.617
4.617
4.629
4.632
4.623
4.629
4.621
4.631
4.623
4.626
4.629
4.621
4.624
4.640
4.641
4.635
4.631
4.626
4.627
4.644
4.655
4.652
4.648
4.643
4.643
4.644
4.661
4.652
4.644
4.639
4.634
4.638
4.650
4.648
4.648
4.647
4.638
4.629
4.645
4.649
4.658
4.649
4.647
4.644
4.644
4.646
4.662
4.664
4.662
4.664
4.659
4.651
4.645
4.657
4.673
4.667
4.666
4.663
4.667
4.662
4.659
4.664
4.677
4.692
4.687
4.683
4.683
4.673
4.672
4.671
4.676
4.690
4.687
4.681
4.683
4.680
4.685
4.677
4.681
4.682
4.694
4.685
4.677
4.669
4.662
4.653
4.653
4.667
4.674
4.675
4.676
4.669
4.664
4.664
4.660
4.650
4.660
4.668
4.666
4.662
4.661
4.663
4.658
4.655
4.657
4.652
4.660
4.673
4.683
4.679
4.683
4.679
4.673
4.673
4.670
4.668
4.664
4.664
4.677
4.678
4.677
4.682
4.684
4.683
4.678
4.678
4.668
4.662
4.659
4.672
4.675
4.682
4.679
4.674
4.673
4.683
4.679
4.678
4.674
4.667
4.667
4.671
4.682
4.695
4.706
4.703
4.698
4.702
4.693
4.690
4.688
4.688
4.682
4.684
4.675
4.683
4.695
4.701
4.698
4.697
4.691
4.695
4.691
4.693
4.688
4.691
4.681
4.688
4.692
4.688
4.696
4.708
4.719
4.716
4.716
4.714
4.715
4.713
4.717
4.716
4.715
4.708
4.700
4.704
4.705
4.702
4.709
4.720
4.730
4.726
4.724
4.723
4.722
4.724
4.720
4.711
4.707
4.705
4.702
4.709
4.707
4.699
4.708
4.712
4.709
4.707
4.711
4.714
4.717
4.714
4.703
4.699
4.698
4.700
4.695
4.688
4.692
4.687
4.696
4.706
4.716
4.710
4.712
4.705
4.712
4.712
4.706
4.706
4.714
4.716
4.708
4.709
4.708
4.713
4.708
4.707
4.699
4.700
4.710
4.719
4.722
4.718
4.717
4.725
4.726
4.720
4.718
4.720
4.719
4.713
4.714
4.712
4.720
4.730
4.726
4.721
4.717
4.714
4.708
4.718
4.727
4.736
4.741
4.737
4.741
4.734
4.735
4.740
4.742
4.738
4.742
4.744
4.740
4.735
4.740
4.740
4.734
4.731
4.726
4.729
4.730
4.728
4.727
4.736
4.745
4.754
4.757
4.758
4.762
4.755
4.755
4.749
4.748
4.743
4.738
4.746
4.743
4.743
4.739
4.736
4.742
4.736
4.728
4.721
4.713
4.718
4.727
4.735
4.744
4.752
4.750
4.754
4.753
4.755
4.748
4.744
4.740
4.739
4.744
4.744
4.736
4.740
4.739
4.736
4.734
4.739
4.738
4.738
4.740
4.734
4.734
4.738
4.735
4.735
4.741
4.749
4.757
4.765
4.769
4.768
4.768
4.768
4.768
4.769
4.766
4.776
4.773
4.769
4.765
4.769
4.766
4.766
4.767
4.766
4.760
4.759
4.760
4.758
4.763
4.764
4.770
4.760
4.765
4.760
4.764
4.757
4.764
4.771
4.779
4.787
4.790
4.792
4.789
4.784
4.783
4.779
4.773
4.774
4.774
4.778
4.777
4.780
4.776
4.779
4.775
4.770
4.766
4.761
4.757
4.753
4.748
4.744
4.740
4.735
4.732
4.740
4.747
4.755
4.762
4.762
4.759
4.762
4.762
4.764
4.768
4.766
4.766
4.765
4.760
4.760
4.764
4.760
4.756
4.750
4.745
4.740
4.735
4.729
4.724
4.725
4.731
4.730
4.731
4.729
4.727
4.733
4.734
4.729
4.729
4.734
4.736
4.742
4.749
4.756
4.763
4.767
4.757
4.755
4.754
4.750
4.747
4.741
4.734
4.737
4.745
4.755
4.755
4.749
4.744
4.744
4.747
4.742
4.739
4.740
4.741
4.738
4.743
4.738
4.733
4.732
4.729
4.736
4.734
4.738
4.736
4.735
4.736
4.733
4.738
4.741
4.737
4.743
4.750
4.757
4.763
4.770
4.770
4.765
4.759
4.754
4.758
4.754
4.752
4.750
4.753
4.751
4.752
4.742
4.741
4.743
4.738
4.736
4.734
4.729
4.734
4.736
4.739
4.736
4.734
4.736
4.732
4.734
4.730
4.728
4.737
4.733
4.730
4.728
4.723
4.719
4.718
4.721
4.720
4.726
4.732
4.738
4.745
4.751
4.757
4.763
4.769
4.774
4.772
4.771
4.771
4.772
4.773
4.774
4.778
4.777
4.770
4.771
4.771
4.771
4.770
4.764
4.762
4.755
4.754
4.754
4.752
4.747
4.744
4.748
4.749
4.749
4.744
4.739
4.739
4.738
4.732
4.726
4.724
4.731
4.736
4.734
4.737
4.738
4.734
4.735
4.738
4.737
4.736
4.729
4.730
4.734
4.740
4.746
4.751
4.757
4.763
4.769
4.771
4.771
4.769
4.765
4.765
4.769
4.764
4.769
4.768
4.771
4.767
4.765
4.762
4.758
4.760
4.761
4.759
4.758
4.761
4.769
4.771
4.773
4.772
4.772
4.766
4.759
4.755
4.756
4.758
4.762
4.760
4.759
4.755
4.752
4.753
4.752
4.758
4.754
4.748
4.742
4.737
4.734
4.732
4.736
4.731
4.728
4.730
4.728
4.723
4.723
4.729
4.734
4.740
4.745
4.750
4.756
4.761
4.767
4.772
4.778
4.783
4.788
4.792
4.789
4.791
4.788
4.786
4.785
4.784
4.782
4.779
4.778
4.778
4.782
4.781
4.779
4.776
4.774
4.773
4.767
4.772
4.772
4.773
4.777
4.777
4.780
4.777
4.773
4.769
4.765
4.764
4.762
4.760
4.755
4.754
4.754
4.759
4.756
4.758
4.757
4.756
4.755
4.753
4.753
4.754
4.755
4.760
4.763
4.765
4.765
4.766
4.764
4.755
4.750
4.748
4.746
4.745
4.743
4.741
4.746
4.745
4.750
4.755
4.760
4.765
4.770
4.775
4.780
4.785
4.790
4.795
4.793
4.792
4.791
4.796
4.799
4.795
4.795
4.797
4.796
4.790
4.793
4.792
4.799
4.804
4.806
4.798
4.802
4.801
4.797
4.790
4.788
4.784
4.786
4.782
4.782
4.784
4.787
4.788
4.790
4.790
4.789
4.790
4.786
4.784
4.787
4.785
4.779
4.780
4.783
4.790
4.786
4.783
4.785
4.781
4.781
4.779
4.784
4.785
4.782
4.783
4.782
4.779
4.774
4.771
