2.994
3.332
3.512
3.630
3.716
3.791
3.831
3.876
3.941
3.959
4.007
4.003
4.042
4.076
4.110
4.074
4.102
4.121
4.147
4.166
4.185
4.202
4.220
4.238
4.255
4.251
4.215
4.192
4.204
4.211
4.225
4.232
4.239
4.247
4.259
4.263
4.272
4.274
4.284
4.296
4.296
4.304
4.311
4.317
4.316
4.329
4.338
4.344
4.341
4.348
4.354
4.364
4.370
4.364
4.371
4.377
4.385
4.389
4.398
4.396
4.393
4.402
4.403
4.411
4.415
4.422
4.428
4.435
4.418
4.425
4.431
4.430
4.439
4.446
4.450
4.454
4.456
4.465
4.467
4.470
4.456
4.460
4.464
4.465
4.469
4.473
4.480
4.484
4.483
4.490
4.488
4.496
4.503
4.509
4.505
4.509
4.510
4.514
4.497
4.503
4.507
4.503
4.508
4.512
4.514
4.518
4.527
4.526
4.527
4.521
4.536
4.531
4.538
4.537
4.547
4.542
4.554
4.547
4.554
4.553
4.555
4.559
4.563
4.564
4.573
4.572
4.565
4.550
4.554
4.548
4.554
4.553
4.554
4.559
4.563
4.567
4.568
4.575
4.573
4.575
4.577
4.583
4.574
4.573
4.579
4.577
4.584
4.588
4.585
4.591
4.590
4.599
4.599
4.596
4.604
4.603
4.606
4.610
4.596
4.600
4.607
4.613
4.607
4.610
4.610
4.619
4.615
4.619
4.628
4.625
4.626
4.632
4.633
4.629
4.637
4.640
4.636
4.643
4.637
4.635
4.637
4.643
4.637
4.629
4.617
4.607
4.610
4.608
4.620
4.614
4.623
4.621
4.626
4.621
4.625
4.627
4.633
4.633
4.629
4.635
4.634
4.636
4.636
4.641
4.640
4.644
4.647
4.641
4.633
4.641
4.642
4.643
4.639
4.641
4.634
4.641
4.647
4.640
4.653
4.647
4.653
4.649
4.653
4.655
4.650
4.662
4.658
4.660
4.666
4.663
4.672
4.663
4.666
4.666
4.666
4.668
4.666
4.665
4.677
4.674
4.673
4.682
4.683
4.679
4.686
4.677
4.670
4.671
4.670
4.676
4.675
4.674
4.683
4.676
4.677
4.681
4.675
4.677
4.683
4.681
4.683
4.688
4.686
4.684
4.689
4.688
4.691
4.688
4.696
4.698
4.697
4.701
4.705
4.707
4.705
4.707
4.703
4.703
4.705
4.704
4.702
4.699
4.705
4.709
4.708
4.707
4.718
4.712
4.714
4.709
4.721
4.720
4.719
4.717
4.725
4.723
4.722
4.723
4.727
4.736
4.729
4.721
4.716
4.717
4.716
4.715
4.725
4.725
4.724
4.723
4.725
4.731
4.722
4.720
4.719
4.729
4.725
4.720
4.719
4.725
4.729
4.729
4.727
4.726
4.730
4.739
4.735
4.733
4.732
4.736
4.747
4.750
4.743
4.744
4.738
4.750
4.747
4.748
4.747
4.745
4.751
4.755
4.752
4.751
4.746
4.740
4.735
4.731
4.725
4.723
4.722
4.725
4.722
4.714
4.721
4.729
4.725
4.717
4.708
4.714
4.721
4.720
4.722
4.721
4.718
4.721
4.729
4.731
4.727
4.728
4.724
4.723
4.727
4.736
4.730
4.723
4.722
4.723
4.724
4.736
4.736
4.742
4.735
4.731
4.729
4.731
4.741
4.740
4.741
4.742
4.741
4.740
4.735
4.745
4.757
4.756
4.755
4.751
4.746
4.739
4.733
4.733
4.733
4.731
4.729
4.725
4.733
4.742
4.743
4.742
4.738
4.734
4.730
4.729
4.735
4.728
4.724
4.725
4.724
4.726
4.724
4.731
4.741
4.739
4.740
4.734
4.732
4.728
4.725
4.731
4.741
4.739
4.738
4.736
4.736
4.737
4.736
4.736
4.740
4.747
4.746
4.748
4.752
4.745
4.744
4.747
4.751
4.747
4.752
4.755
4.751
4.753
4.757
4.756
4.749
4.744
4.743
4.753
4.757
4.751
4.751
4.748
4.746
4.751
4.749
4.748
4.749
4.759
4.762
4.762
4.760
4.761
4.758
4.753
4.752
4.756
4.754
4.761
4.768
4.772
4.771
4.767
4.771
4.767
4.773
4.770
4.770
4.762
4.768
4.777
4.782
4.775
4.770
4.762
4.765
4.766
4.758
4.753
4.762
4.770
4.774
4.769
4.773
4.772
4.766
4.770
4.768
4.762
4.763
4.764
4.768
4.773
4.771
4.770
4.762
4.767
4.766
4.767
4.766
4.766
4.762
4.766
4.773
4.781
4.784
4.786
4.781
4.777
4.777
4.778
4.777
4.781
4.779
4.778
4.776
4.780
4.787
4.791
4.787
4.784
4.781
4.783
4.776
4.775
4.776
4.775
4.779
4.778
4.782
4.789
4.798
4.797
4.795
4.797
4.793
4.792
4.796
4.792
4.792
4.791
4.792
4.788
4.792
4.796
4.801
4.810
4.814
4.811
4.809
4.802
4.801
4.799
4.798
4.799
4.803
4.799
4.799
4.797
4.801
4.808
4.810
4.807
4.807
4.807
4.804
4.800
4.796
4.791
4.788
4.783
4.779
4.786
4.790
4.788
4.792
4.788
4.785
4.784
4.784
4.788
4.785
4.786
4.782
4.777
4.781
4.778
4.782
4.788
4.793
4.792
4.795
4.791
4.785
4.780
4.774
4.773
4.771
4.769
4.771
4.769
4.766
4.770
4.777
4.784
4.788
4.792
4.790
4.791
4.790
4.786
4.790
4.784
4.782
4.781
4.785
4.780
4.779
4.778
4.781
4.778
4.782
4.788
4.796
4.802
4.801
4.802
4.799
4.797
4.795
4.792
4.793
4.796
4.799
4.802
4.799
4.799
4.793
4.786
4.781
4.788
4.795
4.800
4.806
4.803
4.799
4.796
4.796
4.796
4.796
4.797
4.796
4.794
4.793
4.796
4.790
4.786
4.784
4.780
4.784
4.791
4.798
4.803
4.796
4.796
4.798
4.794
4.795
4.792
4.793
4.797
4.792
4.792
4.792
4.792
4.793
4.794
4.788
4.789
4.790
4.791
4.793
4.800
4.806
4.811
4.815
4.816
4.815
4.813
4.806
4.805
4.810
4.810
4.809
4.807
4.807
4.810
4.809
4.810
4.809
4.808
4.806
4.811
4.807
4.805
4.806
4.811
4.818
4.818
4.815
4.818
4.818
4.819
4.820
4.821
4.817
4.813
4.810
4.808
4.806
4.807
4.803
4.797
4.801
4.807
4.809
4.803
4.801
4.803
4.809
4.816
4.821
4.827
4.826
4.825
4.823
4.818
4.823
4.824
4.823
4.822
4.826
4.829
4.828
4.824
4.820
4.819
4.820
4.818
4.821
4.821
4.821
4.821
4.818
4.813
4.818
4.822
4.828
4.835
4.839
4.844
4.844
4.843
4.839
4.840
4.840
4.838
4.837
4.838
4.834
4.835
4.836
4.832
4.828
4.832
4.833
4.827
4.826
4.829
4.826
4.822
4.826
4.829
4.825
4.827
4.833
4.830
4.826
4.824
4.818
4.821
4.820
4.819
4.820
4.818
4.815
4.813
4.810
4.814
4.812
4.813
4.812
4.814
4.812
4.813
4.815
4.813
4.817
4.816
4.812
4.813
4.818
4.824
4.829
4.833
4.836
4.835
4.831
4.827
4.825
4.824
4.825
4.818
4.815
4.814
4.818
4.822
4.823
4.818
4.815
4.818
4.815
4.813
4.810
4.808
4.810
4.810
4.809
4.810
4.807
4.808
4.814
4.819
4.823
4.829
4.834
4.835
4.839
4.846
4.847
4.846
4.840
4.841
4.839
4.840
4.840
4.840
4.837
4.841
4.837
4.832
4.828
4.829
4.826
4.825
4.825
4.825
4.825
4.825
4.831
4.824
4.821
4.821
4.818
4.818
4.818
4.822
4.828
4.832
4.837
4.843
4.848
4.849
4.845
4.844
4.850
4.846
4.844
4.843
4.844
4.847
4.848
4.849
4.851
4.852
4.847
4.843
4.844
4.847
4.848
4.846
4.844
4.844
4.842
4.841
4.834
4.830
4.834
4.833
4.828
4.833
4.833
4.832
4.833
4.836
4.839
4.844
4.850
4.852
4.858
4.863
4.869
4.865
4.864
4.860
4.858
4.858
4.862
4.860
4.859
4.857
4.859
4.863
4.861
4.862
4.861
4.863
4.861
4.866
4.862
4.862
4.859
4.858
4.855
4.855
4.855
4.854
4.851
4.852
4.848
4.846
4.850
4.851
4.848
4.844
4.844
4.849
4.853
4.857
4.862
4.866
4.872
4.873
4.869
4.871
4.870
4.874
4.873
4.876
4.870
4.868
4.867
4.868
4.867
4.863
4.861
4.857
4.853
4.847
4.850
4.844
