2.994
3.285
3.488
3.619
3.659
3.769
3.743
3.735
3.784
3.827
3.866
3.896
3.911
3.952
3.948
3.987
3.998
4.023
4.054
4.035
4.050
4.077
4.091
4.126
4.137
4.108
4.110
4.137
4.156
4.163
4.170
4.195
4.209
4.207
4.223
4.192
4.187
4.218
4.191
4.218
4.226
4.232
4.239
4.247
4.251
4.243
4.258
4.277
4.285
4.287
4.294
4.305
4.316
4.332
4.315
4.301
4.322
4.317
4.330
4.343
4.352
4.344
4.355
4.374
4.365
4.335
4.312
4.333
4.335
4.340
4.354
4.330
4.312
4.324
4.314
4.338
4.333
4.341
4.337
4.337
4.347
4.341
4.370
4.371
4.366
4.362
4.348
4.368
4.361
4.367
4.380
4.355
4.380
4.397
4.392
4.386
4.420
4.411
4.393
4.420
4.404
4.403
4.414
4.416
4.390
4.393
4.388
4.377
4.373
4.404
4.399
4.378
4.386
4.403
4.397
4.398
4.374
4.392
4.429
4.424
4.416
4.410
4.406
4.419
4.422
4.420
4.415
4.418
4.439
4.453
4.441
4.441
4.427
4.424
4.457
4.470
4.457
4.450
4.441
4.427
4.429
4.441
4.418
4.437
4.419
4.424
4.443
4.448
4.442
4.456
4.466
4.443
4.431
4.440
4.468
4.488
4.476
4.478
4.462
4.475
4.465
4.473
4.472
4.476
4.496
4.499
4.474
4.470
4.457
4.450
4.454
4.480
4.490
4.495
4.490
4.485
4.483
4.488
4.483
4.469
4.478
4.494
4.512
4.535
4.523
4.514
4.501
4.495
4.507
4.519
4.497
4.484
4.495
4.515
4.538
4.535
4.548
4.534
4.520
4.506
4.493
4.485
4.490
4.493
4.487
4.507
4.493
4.475
4.467
4.480
4.476
4.483
4.469
4.475
4.470
4.468
4.461
4.471
4.491
4.511
4.516
4.507
4.488
4.470
4.465
4.476
4.466
4.470
4.467
4.469
4.460
4.462
4.471
4.476
4.495
4.512
4.510
4.494
4.511
4.513
4.505
4.500
4.494
4.477
4.469
4.465
4.453
4.468
4.467
4.467
4.471
4.473
4.490
4.508
4.526
4.529
4.523
4.510
4.501
4.494
4.494
4.511
4.499
4.497
4.490
4.482
4.477
4.481
4.487
4.490
4.470
4.472
4.473
4.486
4.502
4.518
4.535
4.541
4.532
4.534
4.537
4.546
4.532
4.516
4.515
4.507
4.521
4.516
4.509
4.505
4.511
4.507
4.508
4.513
4.514
4.516
4.503
4.494
4.484
4.499
4.514
4.529
4.544
4.559
4.574
4.571
4.557
4.560
4.573
4.583
4.581
4.577
4.559
4.566
4.573
4.571
4.559
4.545
4.535
4.521
4.522
4.524
4.521
4.522
4.530
4.546
4.536
4.529
4.511
4.499
4.511
4.523
4.537
4.550
4.549
4.537
4.542
4.546
4.551
4.547
4.541
4.538
4.538
4.534
4.521
4.522
4.529
4.519
4.523
4.526
4.521
4.522
4.520
4.525
4.513
4.507
4.507
4.506
4.505
4.511
4.502
4.501
4.485
4.486
4.475
4.487
4.499
4.516
4.522
4.534
4.546
4.558
4.570
4.583
4.584
4.595
4.593
4.597
4.591
4.599
4.591
4.589
4.583
4.578
4.578
4.577
4.580
4.576
4.567
4.564
4.566
4.571
4.572
4.576
4.568
4.574
4.578
4.574
4.566
4.557
4.548
4.540
4.531
4.522
4.523
4.521
4.513
4.515
4.507
4.502
4.492
4.490
4.495
4.506
4.517
4.528
4.539
4.550
4.560
4.570
4.579
4.572
4.566
4.568
4.562
4.557
4.546
4.561
4.560
4.558
4.553
4.555
4.541
4.538
4.546
4.539
4.538
4.537
4.532
4.532
4.527
4.519
4.522
4.539
4.553
4.545
4.545
4.542
4.550
4.544
4.542
4.539
4.543
4.534
4.541
4.536
4.535
4.533
4.528
4.525
4.519
4.533
4.528
4.514
4.523
4.517
4.519
4.518
4.515
4.511
4.502
4.509
4.510
4.516
4.521
4.530
4.540
4.549
4.559
4.568
4.578
4.586
4.581
4.584
4.583
4.585
4.580
4.578
4.574
4.573
4.575
4.576
4.573
4.579
4.578
4.590
4.583
4.577
4.563
4.552
4.551
4.540
4.531
4.534
4.542
4.554
4.562
4.547
4.555
4.551
4.545
4.543
4.542
4.539
4.537
4.536
4.537
4.537
4.534
4.547
4.542
4.543
4.533
4.530
4.528
4.524
4.525
4.519
4.524
4.533
4.536
4.536
4.529
4.530
4.524
4.529
4.521
4.520
4.513
4.508
4.507
4.499
4.501
4.492
4.506
4.510
4.505
4.494
4.487
4.486
4.492
4.500
4.509
4.521
4.532
4.542
4.541
4.549
4.557
4.565
4.573
4.581
4.590
4.598
4.606
4.614
4.614
4.609
4.613
4.605
4.615
4.616
4.625
4.617
4.611
4.603
4.598
4.597
4.593
4.600
4.592
4.598
4.595
4.602
4.606
4.600
4.598
4.595
4.599
4.593
4.598
4.591
4.583
4.577
4.573
4.575
4.570
4.567
4.558
4.560
4.560
4.560
4.567
4.561
4.571
4.568
4.564
4.559
4.557
4.555
4.553
4.556
4.557
4.561
4.565
4.567
4.566
4.571
4.569
4.564
4.575
4.583
4.576
4.576
4.582
4.590
4.579
4.578
4.576
4.564
4.564
4.569
4.564
4.557
4.560
4.553
4.555
4.547
4.541
4.530
4.524
4.527
4.538
4.538
4.536
4.536
4.533
4.543
4.537
4.538
4.541
4.543
4.542
4.543
4.542
4.543
4.537
4.531
4.525
4.518
4.512
4.506
4.501
4.508
4.515
4.522
4.528
4.535
4.542
4.548
4.555
4.562
4.569
4.576
4.582
4.589
4.596
4.603
4.604
4.598
4.598
4.591
4.592
4.594
4.591
4.589
4.578
4.582
4.582
4.580
4.572
4.570
4.583
4.581
4.572
4.567
4.576
4.571
4.574
4.584
4.587
4.576
4.583
4.586
4.578
4.575
4.584
4.577
4.571
4.578
4.576
4.580
4.582
4.591
4.588
4.584
4.584
4.581
4.581
4.574
4.585
4.579
4.582
4.570
4.573
4.581
4.573
4.579
4.569
4.565
4.554
4.556
4.549
4.544
4.550
4.538
4.548
4.554
4.555
4.550
4.551
4.541
4.546
4.548
4.551
4.557
4.546
4.545
4.532
4.535
4.528
4.528
4.525
4.527
4.539
4.540
4.534
4.534
4.530
4.534
4.528
4.523
4.532
4.531
4.527
4.538
4.527
4.521
4.523
4.518
4.525
4.534
4.523
4.532
4.530
4.524
4.521
4.518
4.517
4.521
4.524
4.525
4.528
4.518
4.517
4.521
4.528
4.523
4.527
4.530
4.528
4.536
4.546
4.549
4.547
4.548
4.555
4.559
4.558
4.558
4.557
4.551
4.553
4.552
4.551
4.541
4.542
4.543
4.539
4.535
4.545
4.539
4.535
4.530
4.527
4.526
4.524
4.523
4.512
4.512
4.508
4.508
4.513
4.509
4.499
4.490
4.492
4.494
4.499
4.505
4.510
4.516
4.521
4.526
4.532
4.537
4.543
4.548
4.554
4.559
4.565
4.570
4.575
4.581
4.586
4.592
4.597
4.602
4.608
4.613
4.619
4.624
4.629
4.635
4.638
4.631
4.619
4.629
4.625
4.623
4.625
4.635
4.636
4.642
4.643
4.638
4.638
4.632
4.630
4.623
4.622
4.614
4.614
4.618
4.621
4.623
4.621
4.630
4.626
4.616
4.618
4.614
4.607
4.610
4.609
4.605
4.605
4.602
4.608
4.605
4.609
4.610
4.617
4.617
4.606
4.600
4.589
4.599
4.601
4.611
4.618
4.627
4.629
4.626
4.623
4.614
4.609
4.611
4.604
4.606
4.604
4.610
4.608
4.607
4.600
4.599
4.600
4.596
4.594
4.582
4.582
4.578
4.576
4.571
4.575
4.585
4.589
4.583
4.575
4.571
4.569
4.572
4.578
4.581
4.588
4.595
4.602
4.593
4.592
4.591
4.586
4.581
4.576
4.571
4.566
4.561
4.556
4.551
4.550
4.559
4.561
4.555
4.550
4.555
4.554
4.558
4.558
4.555
4.558
4.566
4.572
4.581
4.574
4.563
4.557
4.558
4.556
4.555
4.549
4.546
4.547
4.551
4.546
4.541
4.539
4.536
4.539
4.543
4.541
4.534
4.534
4.535
4.540
4.549
4.554
4.556
4.552
4.546
4.555
4.555
4.554
4.553
4.553
4.558
4.550
4.547
4.555
4.553
4.547
4.541
