2.971
3.298
3.468
3.576
3.569
3.612
3.669
3.734
3.776
3.812
3.825
3.863
3.885
3.923
3.939
3.995
3.966
3.975
3.987
4.027
4.035
4.074
4.040
4.062
4.052
4.063
4.093
4.115
4.100
4.116
4.126
4.139
4.177
4.169
4.154
4.177
4.197
4.211
4.220
4.225
4.223
4.197
4.209
4.194
4.174
4.153
4.181
4.198
4.181
4.212
4.211
4.223
4.242
4.211
4.239
4.212
4.258
4.243
4.275
4.272
4.269
4.291
4.270
4.280
4.238
4.274
4.247
4.252
4.255
4.252
4.263
4.274
4.273
4.260
4.286
4.264
4.271
4.298
4.307
4.297
4.278
4.317
4.327
4.317
4.290
4.308
4.313
4.286
4.274
4.297
4.340
4.319
4.302
4.300
4.320
4.349
4.374
4.342
4.328
4.325
4.329
4.362
4.344
4.333
4.324
4.331
4.327
4.367
4.407
4.391
4.386
4.352
4.349
4.357
4.371
4.409
4.400
4.396
4.406
4.405
4.406
4.377
4.378
4.366
4.335
4.322
4.335
4.347
4.343
4.346
4.346
4.379
4.377
4.372
4.341
4.340
4.324
4.324
4.325
4.327
4.339
4.369
4.396
4.399
4.369
4.337
4.343
4.347
4.340
4.331
4.326
4.329
4.341
4.369
4.387
4.397
4.377
4.367
4.373
4.381
4.367
4.351
4.352
4.355
4.354
4.342
4.338
4.364
4.390
4.409
4.424
4.409
4.393
4.414
4.413
4.400
4.401
4.394
4.376
4.380
4.364
4.380
4.380
4.388
4.395
4.387
4.411
4.434
4.458
4.452
4.435
4.452
4.434
4.424
4.423
4.413
4.412
4.411
4.392
4.382
4.368
4.350
4.350
4.342
4.346
4.368
4.389
4.410
4.425
4.447
4.448
4.430
4.434
4.429
4.422
4.419
4.409
4.400
4.403
4.380
4.385
4.393
4.401
4.412
4.406
4.424
4.407
4.389
4.390
4.402
4.409
4.398
4.393
4.405
4.424
4.443
4.461
4.480
4.467
4.453
4.438
4.437
4.427
4.431
4.410
4.411
4.394
4.388
4.380
4.377
4.385
4.396
4.390
4.387
4.381
4.379
4.368
4.348
4.341
4.364
4.367
4.357
4.354
4.363
4.368
4.376
4.393
4.409
4.426
4.442
4.458
4.475
4.482
4.474
4.468
4.463
4.447
4.435
4.436
4.431
4.426
4.439
4.422
4.413
4.413
4.400
4.399
4.407
4.420
4.423
4.412
4.411
4.412
4.415
4.416
4.417
4.404
4.388
4.377
4.372
4.359
4.346
4.344
4.351
4.346
4.344
4.336
4.342
4.354
4.366
4.380
4.394
4.409
4.423
4.437
4.451
4.465
4.479
4.493
4.491
4.479
4.465
4.462
4.466
4.472
4.474
4.473
4.462
4.449
4.452
4.441
4.440
4.430
4.425
4.421
4.415
4.416
4.432
4.429
4.437
4.416
4.407
4.406
4.395
4.393
4.417
4.412
4.411
4.417
4.437
4.426
4.444
4.453
4.437
4.430
4.413
4.409
4.417
4.416
4.402
4.393
4.387
4.389
4.377
4.369
4.392
4.389
4.401
4.398
4.397
4.405
4.412
4.418
4.411
4.410
4.410
4.420
4.432
4.443
4.455
4.467
4.478
4.490
4.502
4.508
4.497
4.486
4.476
4.465
4.456
4.472
4.450
4.429
4.427
4.443
4.437
4.443
4.459
4.461
4.441
4.451
4.441
4.441
4.441
4.430
4.439
4.444
4.460
4.443
4.435
4.437
4.428
4.425
4.434
4.424
4.411
4.408
4.393
4.397
4.391
4.404
4.394
4.397
4.403
4.401
4.388
4.367
4.369
4.382
4.379
4.380
4.367
4.370
4.364
4.379
4.366
4.372
4.350
4.369
4.383
4.372
4.390
4.365
4.364
4.355
4.349
4.352
4.366
4.382
4.394
4.408
4.420
4.408
4.427
4.422
4.411
4.405
4.393
4.387
4.389
4.406
4.391
4.388
4.387
4.396
4.399
4.402
4.405
4.398
4.403
4.412
4.422
4.431
4.440
4.450
4.459
4.468
4.478
4.487
4.496
4.503
4.503
4.490
4.489
4.484
4.488
4.492
4.477
4.473
4.485
4.486
4.475
4.485
4.488
4.479
4.476
4.471
4.462
4.458
4.452
4.469
4.461
4.446
4.448
4.447
4.446
4.436
4.432
4.438
4.448
4.463
4.457
4.470
4.469
4.462
4.460
4.450
4.451
4.455
4.459
4.461
4.462
4.448
4.448
4.441
4.445
4.440
4.446
4.446
4.449
4.461
4.473
4.485
4.490
4.492
4.486
4.471
4.461
4.447
4.446
4.448
4.445
4.452
4.447
4.446
4.444
4.447
4.451
4.449
4.452
4.443
4.435
4.420
4.418
4.420
4.418
4.407
4.397
4.402
4.398
4.412
4.406
4.410
4.414
4.408
4.411
4.408
4.410
4.402
4.393
4.394
4.381
4.386
4.387
4.379
4.376
4.376
4.378
4.391
4.403
4.400
4.395
4.402
4.395
4.406
4.401
4.397
4.390
4.387
4.381
4.379
4.377
4.378
4.376
4.382
4.377
4.378
4.368
4.360
4.355
4.349
4.340
4.338
4.352
4.358
4.353
4.352
4.350
4.347
4.346
4.342
4.328
4.328
4.319
4.324
4.323
4.330
4.337
4.344
4.351
4.358
4.365
4.372
4.379
4.386
4.393
4.400
4.407
4.414
4.421
4.428
4.435
4.442
4.449
4.456
4.463
4.470
4.477
4.484
4.491
4.498
4.505
4.512
4.519
4.526
4.533
4.540
4.547
4.554
4.561
4.568
4.567
4.566
4.552
4.548
4.546
4.538
4.539
4.539
4.539
4.535
4.531
4.530
4.524
4.511
4.507
4.506
4.510
4.504
4.506
4.496
4.486
4.482
4.487
4.474
4.481
4.477
4.476
4.475
4.466
4.466
4.460
4.467
4.479
4.490
4.501
4.509
4.498
4.499
4.499
4.498
4.491
4.490
4.491
4.489
4.483
4.483
4.484
4.487
4.485
4.475
4.481
4.493
4.495
4.497
4.482
4.488
4.487
4.493
4.503
4.503
4.499
4.490
4.478
4.470
4.471
4.479
4.480
4.478
4.464
4.461
4.461
4.455
4.452
4.452
4.447
4.446
4.453
4.451
4.438
4.449
4.449
4.446
4.434
4.431
4.436
4.428
4.421
4.426
4.414
4.418
4.420
4.421
4.415
4.414
4.408
4.411
4.404
4.404
4.416
4.426
4.422
4.412
4.411
4.410
4.403
4.407
4.410
4.412
4.407
4.401
4.394
4.387
4.380
4.373
4.367
4.363
4.370
4.366
4.363
4.350
4.359
4.359
4.365
4.366
4.366
4.373
4.369
4.365
4.360
4.368
4.361
4.367
4.363
4.364
4.363
4.371
4.379
4.387
4.395
4.403
4.411
4.419
4.427
4.435
4.432
4.433
4.421
4.416
4.421
4.425
4.427
4.422
4.437
4.432
4.432
4.428
4.425
4.415
4.414
4.410
4.409
4.417
4.423
4.420
4.431
4.436
4.445
4.453
4.447
4.448
4.451
4.443
4.434
4.436
4.428
4.419
4.411
4.412
4.400
4.395
4.390
4.400
4.405
4.396
4.393
4.399
4.392
4.400
4.401
4.391
4.399
4.393
4.385
4.383
4.375
4.371
4.374
4.380
4.384
4.385
4.383
4.396
4.384
4.390
4.380
4.388
4.386
4.385
4.387
4.394
4.386
4.391
4.381
4.381
4.379
4.377
4.369
4.362
4.373
4.380
4.383
4.383
4.379
4.387
4.388
4.390
4.400
4.392
4.401
4.390
4.379
4.374
4.366
4.367
4.367
4.355
4.367
4.359
4.354
4.351
4.352
4.356
4.362
4.367
4.358
4.360
4.362
4.366
4.364
4.362
4.372
4.368
4.356
4.356
4.359
4.358
4.357
4.357
4.357
4.359
4.345
4.345
4.354
4.358
4.348
4.345
4.355
4.349
4.349
4.358
4.353
4.363
4.373
4.364
4.370
4.375
4.375
4.381
4.377
4.380
4.378
4.373
4.374
4.383
4.382
4.381
4.383
4.388
4.393
4.397
4.402
4.407
4.411
4.416
4.421
4.425
4.430
4.435
4.439
4.444
4.449
4.453
4.458
4.463
4.467
4.472
4.477
4.481
4.486
4.491
4.495
4.500
4.505
4.509
4.514
4.519
4.523
4.528
4.533
4.537
4.534
4.529
4.519
4.518
4.509
4.519
4.530
4.524
4.513
4.511
4.518
4.510
4.503
4.502
4.500
4.508
4.517
4.526
4.534
4.530
4.529
4.528
4.534
4.530
4.528
4.525
4.527
4.519
4.518
