2.996
3.329
3.512
3.615
3.715
3.762
3.809
3.837
3.895
3.950
4.003
3.930
3.939
3.958
3.977
4.004
4.030
4.043
4.054
4.074
4.080
4.104
4.126
4.124
4.143
4.163
4.149
4.177
4.188
4.201
4.195
4.205
4.213
4.232
4.233
4.252
4.264
4.241
4.247
4.268
4.264
4.278
4.291
4.297
4.305
4.314
4.318
4.307
4.305
4.304
4.318
4.321
4.321
4.338
4.344
4.347
4.352
4.354
4.356
4.371
4.372
4.388
4.382
4.401
4.389
4.397
4.402
4.401
4.376
4.382
4.383
4.385
4.387
4.398
4.399
4.399
4.396
4.406
4.406
4.415
4.425
4.425
4.423
4.421
4.431
4.438
4.437
4.452
4.440
4.433
4.434
4.440
4.442
4.447
4.454
4.466
4.463
4.464
4.468
4.465
4.473
4.487
4.484
4.495
4.480
4.496
4.498
4.494
4.495
4.496
4.491
4.484
4.489
4.489
4.509
4.496
4.511
4.506
4.525
4.516
4.525
4.524
4.519
4.539
4.526
4.538
4.523
4.508
4.493
4.503
4.487
4.504
4.498
4.494
4.510
4.511
4.511
4.521
4.520
4.509
4.534
4.524
4.505
4.504
4.502
4.504
4.498
4.496
4.500
4.505
4.502
4.497
4.520
4.525
4.506
4.512
4.526
4.528
4.517
4.519
4.531
4.519
4.526
4.525
4.540
4.542
4.539
4.533
4.553
4.550
4.547
4.538
4.548
4.540
4.538
4.533
4.539
4.549
4.546
4.533
4.539
4.549
4.566
4.558
4.555
4.547
4.552
4.565
4.561
4.559
4.562
4.554
4.573
4.589
4.579
4.571
4.573
4.572
4.586
4.581
4.590
4.581
4.577
4.572
4.592
4.589
4.582
4.581
4.567
4.568
4.569
4.572
4.571
4.566
4.550
4.559
4.564
4.561
4.567
4.558
4.553
4.559
4.563
4.583
4.587
4.574
4.563
4.567
4.563
4.558
4.577
4.590
4.580
4.563
4.557
4.555
4.562
4.563
4.582
4.583
4.585
4.581
4.587
4.580
4.587
4.576
4.576
4.594
4.598
4.603
4.595
4.594
4.590
4.579
4.580
4.578
4.595
4.608
4.606
4.610
4.604
4.602
4.603
4.597
4.608
4.601
4.602
4.619
4.632
4.620
4.612
4.618
4.615
4.614
4.607
4.609
4.606
4.613
4.629
4.625
4.613
4.601
4.603
4.603
4.601
4.589
4.588
4.594
4.609
4.606
4.605
4.608
4.608
4.605
4.611
4.604
4.599
4.598
4.610
4.604
4.607
4.623
4.617
4.618
4.616
4.612
4.624
4.618
4.619
4.616
4.617
4.619
4.611
4.609
4.619
4.634
4.647
4.635
4.637
4.644
4.643
4.638
4.639
4.641
4.638
4.636
4.630
4.628
4.629
4.627
4.641
4.655
4.658
4.664
4.661
4.652
4.649
4.645
4.635
4.637
4.641
4.640
4.635
4.634
4.622
4.630
4.643
4.654
4.652
4.657
4.652
4.648
4.645
4.650
4.646
4.638
4.640
4.643
4.643
4.642
4.640
4.633
4.633
4.637
4.650
4.662
4.675
4.688
4.691
4.676
4.675
4.675
4.674
4.667
4.667
4.678
4.676
4.680
4.677
4.670
4.671
4.661
4.658
4.651
4.658
4.670
4.682
4.694
4.691
4.686
4.692
4.698
4.694
4.696
4.689
4.678
4.669
4.664
4.668
4.674
4.664
4.662
4.659
4.652
4.645
4.652
4.663
4.675
4.683
4.678
4.675
4.680
4.673
4.668
4.660
4.652
4.651
4.653
4.647
4.641
4.646
4.639
4.633
4.628
4.619
4.618
4.625
4.630
4.641
4.651
4.657
4.667
4.674
4.670
4.661
4.658
4.653
4.656
4.660
4.650
4.662
4.657
4.657
4.652
4.649
4.649
4.647
4.646
4.648
4.648
4.645
4.643
4.648
4.651
4.646
4.641
4.651
4.661
4.655
4.659
4.650
4.651
4.647
4.650
4.657
4.655
4.655
4.655
4.646
4.646
4.644
4.648
4.647
4.640
4.637
4.639
4.635
4.636
4.636
4.637
4.639
4.641
4.655
4.651
4.641
4.643
4.646
4.655
4.664
4.674
4.682
4.673
4.672
4.671
4.667
4.663
4.653
4.659
4.655
4.658
4.652
4.648
4.651
4.661
4.657
4.656
4.657
4.653
4.645
4.636
4.639
4.638
4.634
4.636
4.631
4.641
4.637
4.633
4.630
4.631
4.637
4.646
4.655
4.664
4.672
4.681
4.680
4.689
4.695
4.688
4.685
4.685
4.675
4.677
4.674
4.665
4.659
4.655
4.657
4.655
4.652
4.660
4.654
4.660
4.658
4.662
4.653
4.646
4.651
4.655
4.652
4.659
4.654
4.654
4.655
4.653
4.646
4.657
4.660
4.658
4.654
4.656
4.652
4.660
4.668
4.676
4.684
4.683
4.683
4.687
4.686
4.687
4.683
4.683
4.689
4.690
4.679
4.683
4.694
4.696
4.696
4.691
4.689
4.690
4.691
4.686
4.686
4.688
4.678
4.672
4.679
4.670
4.670
4.661
4.666
4.671
4.671
4.679
4.677
4.668
4.667
4.667
4.659
4.651
4.659
4.660
4.671
4.670
4.663
4.668
4.670
4.666
4.674
4.681
4.689
4.696
4.704
4.711
4.719
4.727
4.727
4.720
4.719
4.719
4.717
4.718
4.716
4.718
4.717
4.711
4.710
4.716
4.714
4.715
4.716
4.712
4.707
4.705
4.704
4.702
4.701
4.712
4.711
4.706
4.713
4.704
4.710
4.712
4.716
4.721
4.712
4.708
4.704
4.705
4.703
4.696
4.691
4.684
4.685
4.683
4.686
4.690
4.691
4.686
4.680
4.672
4.668
4.670
4.674
4.681
4.688
4.695
4.702
4.709
4.710
4.709
4.708
4.713
4.712
4.710
4.715
4.711
4.706
4.704
4.700
4.697
4.702
4.701
4.707
4.704
4.707
4.701
4.695
4.698
4.698
4.699
4.691
4.688
4.686
4.676
4.670
4.669
4.667
4.670
4.678
4.678
4.673
4.663
4.672
4.670
4.671
4.676
4.676
4.677
4.684
4.687
4.685
4.680
4.673
4.672
4.667
4.661
4.665
4.661
4.673
4.667
4.660
4.659
4.653
4.657
4.653
4.657
4.659
4.660
4.667
4.673
4.680
4.686
4.692
4.698
4.705
4.711
4.717
4.724
4.730
4.734
4.737
4.727
4.721
4.720
4.719
4.725
4.725
4.725
4.725
4.718
4.719
4.709
4.709
4.707
4.701
4.704
4.712
4.720
4.724
4.720
4.718
4.722
4.723
4.719
4.716
4.710
4.706
4.707
4.713
4.718
4.714
4.711
4.710
4.719
4.714
4.715
4.709
4.706
4.710
4.713
4.710
4.709
4.707
4.708
4.706
4.705
4.704
4.703
4.699
4.698
4.700
4.700
4.693
4.697
4.699
4.694
4.688
4.691
4.692
4.696
4.700
4.706
4.705
4.708
4.704
4.699
4.703
4.711
4.707
4.709
4.708
4.703
4.699
4.695
4.691
4.696
4.701
4.707
4.713
4.719
4.724
4.730
4.736
4.741
4.747
4.749
4.748
4.748
4.745
4.738
4.735
4.735
4.731
4.733
4.724
4.718
4.715
4.714
4.712
4.708
4.711
4.709
4.700
4.700
4.699
4.695
4.692
4.696
4.697
4.688
4.694
4.697
4.700
4.703
4.698
4.691
4.684
4.690
4.687
4.694
4.692
4.690
4.693
4.693
4.700
4.700
4.692
4.698
4.693
4.696
4.693
4.691
4.689
4.689
4.688
4.683
4.688
4.690
4.685
4.679
4.673
4.675
4.673
4.678
4.675
4.672
4.665
4.670
4.664
4.664
4.663
4.658
4.656
4.658
4.657
4.654
4.653
4.652
4.659
4.649
4.646
4.648
4.645
4.648
4.657
4.654
4.659
4.662
4.660
4.657
4.655
4.660
4.665
4.670
4.675
4.680
4.685
4.690
4.696
4.700
4.706
4.711
4.716
4.721
4.726
4.731
4.736
4.741
4.746
4.751
4.756
4.760
4.756
4.756
4.752
4.756
4.754
4.756
4.758
4.756
4.763
4.768
4.767
4.760
4.760
4.754
4.749
4.754
4.746
4.742
4.743
4.746
4.740
4.732
4.730
4.725
4.725
4.730
4.725
4.719
4.718
4.721
4.724
4.723
4.721
4.720
4.719
4.715
4.712
4.718
4.712
4.715
4.714
4.710
4.705
4.700
4.695
4.692
4.687
4.691
4.689
4.691
4.686
4.685
4.687
4.681
4.681
4.677
4.679
4.672
4.672
4.672
4.676
4.679
