2.993
3.308
3.500
3.570
3.677
3.735
3.826
3.857
3.785
3.837
3.856
3.891
3.918
3.945
3.979
3.985
4.012
4.029
4.055
4.077
4.067
4.085
4.109
4.130
4.113
4.129
4.147
4.156
4.171
4.199
4.196
4.173
4.191
4.192
4.206
4.225
4.227
4.238
4.257
4.256
4.283
4.257
4.282
4.293
4.257
4.267
4.265
4.277
4.273
4.270
4.278
4.302
4.299
4.308
4.307
4.323
4.318
4.316
4.323
4.336
4.353
4.358
4.357
4.358
4.358
4.366
4.379
4.393
4.391
4.371
4.360
4.386
4.393
4.382
4.405
4.414
4.394
4.427
4.414
4.421
4.432
4.409
4.385
4.385
4.377
4.399
4.384
4.416
4.401
4.416
4.385
4.388
4.377
4.381
4.381
4.404
4.395
4.398
4.421
4.391
4.408
4.404
4.398
4.428
4.423
4.415
4.445
4.433
4.422
4.433
4.425
4.416
4.438
4.443
4.426
4.448
4.443
4.436
4.434
4.467
4.473
4.455
4.450
4.482
4.477
4.459
4.468
4.482
4.477
4.479
4.467
4.465
4.451
4.450
4.445
4.452
4.440
4.446
4.442
4.459
4.463
4.456
4.458
4.445
4.462
4.463
4.457
4.448
4.449
4.454
4.484
4.476
4.480
4.475
4.463
4.468
4.493
4.485
4.478
4.477
4.476
4.470
4.490
4.512
4.520
4.505
4.493
4.500
4.489
4.500
4.526
4.524
4.509
4.514
4.509
4.497
4.495
4.517
4.505
4.479
4.486
4.472
4.474
4.477
4.501
4.514
4.510
4.493
4.499
4.486
4.495
4.495
4.503
4.512
4.527
4.520
4.517
4.527
4.528
4.524
4.516
4.519
4.509
4.526
4.548
4.562
4.546
4.548
4.534
4.530
4.524
4.527
4.533
4.520
4.541
4.539
4.543
4.550
4.531
4.531
4.516
4.524
4.540
4.537
4.522
4.532
4.552
4.572
4.570
4.567
4.564
4.583
4.576
4.565
4.570
4.563
4.556
4.541
4.540
4.557
4.576
4.595
4.600
4.586
4.587
4.576
4.567
4.572
4.579
4.576
4.564
4.561
4.565
4.553
4.570
4.588
4.584
4.578
4.565
4.552
4.538
4.528
4.517
4.521
4.519
4.525
4.508
4.519
4.536
4.552
4.566
4.559
4.561
4.561
4.564
4.562
4.552
4.558
4.555
4.553
4.552
4.536
4.531
4.520
4.517
4.520
4.534
4.550
4.564
4.556
4.564
4.552
4.549
4.545
4.541
4.553
4.562
4.547
4.546
4.546
4.536
4.541
4.529
4.522
4.528
4.513
4.524
4.539
4.554
4.568
4.566
4.558
4.560
4.555
4.554
4.556
4.558
4.552
4.547
4.541
4.546
4.545
4.553
4.548
4.548
4.542
4.534
4.540
4.531
4.536
4.531
4.541
4.554
4.568
4.582
4.583
4.576
4.570
4.566
4.563
4.566
4.568
4.571
4.583
4.585
4.575
4.563
4.559
4.555
4.544
4.550
4.553
4.541
4.548
4.542
4.535
4.534
4.533
4.547
4.543
4.555
4.568
4.580
4.593
4.605
4.601
4.607
4.610
4.601
4.596
4.588
4.582
4.584
4.589
4.591
4.587
4.582
4.580
4.572
4.581
4.591
4.586
4.572
4.577
4.584
4.594
4.586
4.576
4.565
4.568
4.568
4.564
4.563
4.569
4.567
4.578
4.590
4.601
4.613
4.624
4.636
4.639
4.639
4.628
4.640
4.641
4.632
4.625
4.612
4.610
4.617
4.614
4.614
4.611
4.605
4.604
4.604
4.591
4.590
4.583
4.587
4.577
4.568
4.564
4.560
4.568
4.568
4.564
4.561
4.559
4.554
4.553
4.548
4.559
4.570
4.580
4.590
4.601
4.611
4.608
4.611
4.609
4.608
4.612
4.606
4.601
4.598
4.608
4.602
4.604
4.599
4.584
4.597
4.592
4.592
4.593
4.589
4.588
4.591
4.587
4.590
4.588
4.588
4.592
4.582
4.580
4.573
4.570
4.581
4.577
4.580
4.579
4.577
4.567
4.555
4.559
4.544
4.550
4.555
4.566
4.573
4.578
4.585
4.582
4.583
4.592
4.602
4.611
4.621
4.630
4.639
4.649
4.658
4.668
4.676
4.672
4.663
4.665
4.669
4.674
4.666
4.663
4.656
4.649
4.642
4.635
4.628
4.621
4.615
4.608
4.609
4.608
4.612
4.607
4.597
4.592
4.582
4.595
4.604
4.599
4.593
4.587
4.592
4.585
4.575
4.570
4.559
4.571
4.563
4.571
4.568
4.558
4.556
4.554
4.553
4.555
4.547
4.546
4.543
4.540
4.542
4.550
4.558
4.567
4.575
4.584
4.592
4.600
4.608
4.617
4.624
4.615
4.616
4.611
4.614
4.621
4.625
4.622
4.622
4.618
4.629
4.629
4.634
4.635
4.631
4.625
4.613
4.619
4.627
4.617
4.613
4.609
4.616
4.615
4.610
4.613
4.609
4.605
4.606
4.611
4.615
4.619
4.630
4.623
4.621
4.628
4.629
4.615
4.606
4.609
4.605
4.598
4.599
4.586
4.583
4.578
4.574
4.576
4.577
4.578
4.584
4.575
4.574
4.578
4.575
4.579
4.581
4.580
4.585
4.585
4.579
4.571
4.563
4.556
4.548
4.555
4.561
4.562
4.560
4.552
4.559
4.567
4.574
4.581
4.589
4.596
4.603
4.610
4.618
4.625
4.632
4.640
4.647
4.654
4.662
4.666
4.656
4.646
4.645
4.642
4.632
4.634
4.626
4.624
4.620
4.626
4.617
4.610
4.605
4.605
4.601
4.595
4.598
4.603
4.601
4.596
4.599
4.596
4.599
4.602
4.603
4.613
4.620
4.615
4.613
4.622
4.630
4.626
4.621
4.621
4.620
4.608
4.607
4.617
4.619
4.618
4.620
4.625
4.627
4.636
4.634
4.627
4.615
4.608
4.603
4.602
4.599
4.595
4.587
4.589
4.583
4.583
4.585
4.584
4.583
4.586
4.582
4.584
4.575
4.569
4.565
4.564
4.562
4.555
4.553
4.550
4.554
4.561
4.564
4.559
4.560
4.562
4.572
4.574
4.581
4.578
4.573
4.574
4.571
4.567
4.562
4.564
4.564
4.572
4.581
4.583
4.581
4.579
4.585
4.591
4.598
4.604
4.610
4.616
4.623
4.629
4.635
4.641
4.648
4.654
4.660
4.667
4.673
4.673
4.676
4.671
4.675
4.674
4.673
4.671
4.666
4.666
4.667
4.666
4.661
4.664
4.669
4.670
4.675
4.675
4.666
4.664
4.664
4.661
4.659
4.658
4.647
4.645
4.639
4.643
4.644
4.640
4.638
4.638
4.638
4.641
4.644
4.645
4.643
4.644
4.638
4.632
4.629
4.634
4.624
4.624
4.617
4.618
4.621
4.621
4.621
4.626
4.627
4.626
4.627
4.624
4.630
4.629
4.632
4.634
4.628
4.628
4.638
4.642
4.641
4.636
4.645
4.644
4.639
4.632
4.625
4.631
4.629
4.627
4.629
4.628
4.625
4.626
4.627
4.628
4.626
4.620
4.623
4.621
4.619
4.617
4.614
4.605
4.604
4.605
4.610
4.612
4.605
4.598
4.593
4.592
4.594
4.592
4.592
4.587
4.582
4.577
4.572
4.567
4.569
4.567
4.570
4.569
4.573
4.581
4.573
4.574
4.577
4.580
4.588
4.584
4.581
4.578
4.574
4.568
4.561
4.554
4.546
4.546
4.553
4.546
4.545
4.547
4.552
4.558
4.563
4.568
4.573
4.578
4.584
4.589
4.594
4.599
4.605
4.610
4.615
4.620
4.625
4.631
4.636
4.641
4.646
4.652
4.657
4.662
4.662
4.655
4.651
4.643
4.646
4.634
4.638
4.635
4.637
4.629
4.621
4.625
4.631
4.636
4.637
4.637
4.638
4.634
4.631
4.633
4.629
4.623
4.624
4.631
4.639
4.646
4.653
4.650
4.644
4.654
4.646
4.645
4.645
4.639
4.641
4.638
4.636
4.647
4.650
4.638
4.639
4.646
4.645
4.651
4.644
4.638
4.645
4.641
4.642
4.637
4.633
4.641
4.637
4.640
4.636
4.643
4.637
4.639
4.645
4.638
4.635
4.637
4.632
4.633
4.635
4.629
4.628
4.624
4.625
4.618
4.612
4.617
4.621
4.620
4.611
4.612
4.608
4.613
4.605
4.613
4.617
4.618
4.622
4.617
4.618
4.607
4.600
4.596
4.594
4.602
4.598
4.596
4.598
4.596
4.596
4.605
4.600
4.605
4.606
4.605
4.601
4.607
4.598
4.600
4.605
4.596
4.596
4.607
4.597
4.595
