2.977
3.310
3.493
3.569
3.661
3.618
3.665
3.743
3.755
3.825
3.847
3.876
3.897
3.902
3.945
3.985
4.001
3.988
4.005
4.032
4.037
4.075
4.075
4.102
4.068
4.085
4.076
4.089
4.106
4.144
4.121
4.134
4.168
4.142
4.178
4.211
4.192
4.174
4.192
4.205
4.216
4.218
4.227
4.249
4.219
4.210
4.235
4.234
4.192
4.206
4.206
4.230
4.214
4.222
4.247
4.251
4.264
4.235
4.270
4.253
4.263
4.268
4.289
4.283
4.278
4.300
4.277
4.321
4.318
4.290
4.264
4.255
4.296
4.257
4.267
4.288
4.279
4.265
4.308
4.298
4.289
4.289
4.322
4.325
4.315
4.306
4.341
4.345
4.340
4.326
4.353
4.333
4.309
4.287
4.333
4.348
4.317
4.316
4.308
4.339
4.349
4.357
4.356
4.340
4.353
4.365
4.387
4.365
4.385
4.348
4.346
4.364
4.385
4.388
4.364
4.346
4.376
4.357
4.375
4.411
4.417
4.409
4.398
4.381
4.393
4.393
4.389
4.424
4.450
4.443
4.441
4.420
4.400
4.379
4.369
4.384
4.387
4.389
4.364
4.360
4.376
4.378
4.353
4.345
4.375
4.398
4.379
4.380
4.370
4.378
4.389
4.360
4.347
4.349
4.353
4.366
4.394
4.408
4.399
4.368
4.365
4.372
4.382
4.390
4.380
4.363
4.347
4.347
4.362
4.387
4.413
4.430
4.414
4.400
4.416
4.408
4.393
4.375
4.385
4.391
4.374
4.357
4.383
4.389
4.372
4.396
4.419
4.427
4.436
4.443
4.434
4.442
4.446
4.433
4.415
4.445
4.410
4.412
4.418
4.399
4.411
4.405
4.425
4.437
4.415
4.421
4.442
4.464
4.475
4.462
4.459
4.476
4.449
4.427
4.442
4.436
4.417
4.411
4.392
4.392
4.394
4.371
4.382
4.385
4.383
4.360
4.380
4.399
4.418
4.437
4.457
4.476
4.472
4.459
4.452
4.448
4.448
4.453
4.445
4.426
4.432
4.430
4.426
4.423
4.415
4.421
4.445
4.449
4.439
4.428
4.435
4.429
4.435
4.434
4.444
4.443
4.423
4.432
4.437
4.454
4.471
4.470
4.471
4.468
4.456
4.439
4.451
4.455
4.451
4.445
4.426
4.425
4.413
4.417
4.410
4.412
4.414
4.426
4.420
4.404
4.385
4.392
4.376
4.370
4.369
4.371
4.393
4.406
4.396
4.384
4.393
4.398
4.403
4.402
4.417
4.432
4.447
4.462
4.477
4.492
4.507
4.491
4.480
4.485
4.474
4.471
4.464
4.470
4.464
4.453
4.438
4.423
4.413
4.412
4.426
4.440
4.444
4.450
4.458
4.461
4.454
4.444
4.450
4.439
4.432
4.432
4.420
4.401
4.383
4.376
4.382
4.377
4.377
4.376
4.384
4.375
4.373
4.370
4.373
4.375
4.396
4.385
4.398
4.410
4.423
4.436
4.449
4.461
4.474
4.487
4.500
4.513
4.526
4.520
4.507
4.511
4.504
4.509
4.499
4.490
4.478
4.463
4.463
4.452
4.457
4.472
4.470
4.474
4.463
4.452
4.459
4.457
4.458
4.454
4.450
4.437
4.434
4.438
4.438
4.434
4.435
4.453
4.451
4.446
4.450
4.452
4.448
4.458
4.457
4.460
4.458
4.463
4.452
4.441
4.437
4.433
4.418
4.419
4.412
4.430
4.420
4.411
4.411
4.414
4.421
4.440
4.444
4.433
4.428
4.432
4.440
4.456
4.447
4.445
4.441
4.440
4.451
4.461
4.472
4.482
4.493
4.504
4.513
4.505
4.503
4.503
4.501
4.492
4.479
4.476
4.477
4.463
4.448
4.441
4.455
4.459
4.466
4.478
4.488
4.475
4.470
4.478
4.467
4.461
4.460
4.464
4.466
4.468
4.474
4.471
4.476
4.465
4.461
4.447
4.446
4.445
4.452
4.435
4.435
4.436
4.424
4.434
4.435
4.440
4.432
4.415
4.418
4.422
4.409
4.409
4.399
4.405
4.411
4.418
4.404
4.405
4.388
4.399
4.399
4.403
4.402
4.392
4.395
4.397
4.408
4.396
4.384
4.396
4.387
4.389
4.387
4.385
4.385
4.396
4.408
4.415
4.428
4.441
4.448
4.442
4.448
4.433
4.423
4.432
4.434
4.419
4.425
4.438
4.426
4.419
4.416
4.428
4.429
4.430
4.433
4.421
4.431
4.428
4.427
4.435
4.444
4.452
4.461
4.469
4.478
4.486
4.495
4.503
4.512
4.520
4.529
4.520
4.521
4.510
4.501
4.512
4.515
4.498
4.495
4.510
4.514
4.520
4.521
4.517
4.505
4.500
4.486
4.485
4.490
4.477
4.482
4.493
4.491
4.485
4.477
4.474
4.472
4.459
4.467
4.467
4.470
4.474
4.485
4.489
4.496
4.500
4.500
4.501
4.490
4.477
4.473
4.479
4.485
4.494
4.508
4.490
4.483
4.474
4.468
4.463
4.469
4.477
4.481
4.477
4.480
4.491
4.501
4.502
4.505
4.492
4.491
4.493
4.487
4.480
4.472
4.463
4.463
4.475
4.489
4.478
4.469
4.470
4.458
4.462
4.464
4.474
4.469
4.466
4.456
4.445
4.450
4.440
4.443
4.435
4.431
4.436
4.432
4.438
4.441
4.435
4.428
4.420
4.413
4.405
4.413
4.412
4.416
4.427
4.421
4.416
4.409
4.422
4.414
4.411
4.411
4.400
4.409
4.414
4.426
4.435
4.432
4.428
4.431
4.422
4.408
4.409
4.401
4.412
4.406
4.402
4.407
4.403
4.399
4.389
4.380
4.383
4.390
4.393
4.393
4.391
4.381
4.380
4.373
4.370
4.370
4.383
4.385
4.372
4.371
4.361
4.367
4.361
4.362
4.360
4.362
4.360
4.352
4.361
4.361
4.359
4.360
4.368
4.372
4.384
4.377
4.383
4.390
4.396
4.403
4.409
4.415
4.422
4.428
4.435
4.441
4.447
4.454
4.460
4.466
4.473
4.479
4.485
4.492
4.498
4.505
4.511
4.517
4.524
4.530
4.537
4.543
4.549
4.556
4.562
4.569
4.575
4.581
4.588
4.590
4.584
4.582
4.587
4.580
4.580
4.568
4.556
4.550
4.550
4.548
4.547
4.553
4.549
4.539
4.533
4.530
4.519
4.521
4.522
4.518
4.515
4.511
4.515
4.504
4.499
4.497
4.498
4.498
4.498
4.502
4.505
4.499
4.505
4.506
4.509
4.516
4.526
4.524
4.514
4.530
4.524
4.516
4.513
4.512
4.521
4.512
4.514
4.505
4.496
4.499
4.492
4.494
4.497
4.507
4.516
4.511
4.505
4.501
4.512
4.505
4.514
4.514
4.516
4.514
4.516
4.511
4.508
4.510
4.503
4.508
4.502
4.496
4.483
4.482
4.483
4.486
4.491
4.490
4.482
4.477
4.480
4.482
4.480
4.474
4.469
4.470
4.463
4.461
4.455
4.448
4.454
4.451
4.448
4.455
4.452
4.447
4.445
4.445
4.442
4.443
4.443
4.446
4.441
4.445
4.446
4.440
4.449
4.440
4.439
4.440
4.434
4.428
4.422
4.415
4.409
4.403
4.398
4.390
4.394
4.387
4.389
4.389
4.391
4.392
4.384
4.390
4.390
4.390
4.405
4.401
4.394
4.398
4.394
4.390
4.393
4.395
4.402
4.390
4.392
4.382
4.389
4.392
4.397
4.388
4.391
4.387
4.398
4.398
4.398
4.405
4.412
4.420
4.427
4.434
4.442
4.449
4.456
4.452
4.450
4.450
4.453
4.451
4.450
4.445
4.449
4.443
4.450
4.456
4.451
4.450
4.437
4.439
4.439
4.436
4.427
4.436
4.445
4.439
4.447
4.460
4.466
4.467
4.465
4.456
4.449
4.443
4.442
4.440
4.440
4.434
4.424
4.428
4.429
4.422
4.423
4.424
4.425
4.427
4.439
4.437
4.432
4.427
4.424
4.424
4.414
4.415
4.416
4.422
4.421
4.415
4.423
4.417
4.416
4.411
4.412
4.412
4.414
4.409
4.407
4.413
4.411
4.413
4.412
4.418
4.424
4.424
4.426
4.420
4.420
4.412
4.415
4.401
4.410
4.405
4.409
4.411
4.409
4.407
4.402
4.415
4.415
4.407
4.409
4.402
4.407
4.409
4.410
4.415
4.407
4.403
4.403
4.401
4.400
4.399
4.389
4.387
4.390
4.386
4.388
4.387
4.381
4.382
4.384
4.386
4.386
4.388
4.379
4.377
4.372
4.383
4.382
4.375
4.385
4.395
4.402
4.388
4.386
4.394
4.387
4.384
4.387
