2.992
3.330
3.511
3.617
3.708
3.787
3.835
3.857
3.916
3.977
3.948
3.988
4.023
4.057
4.086
4.122
4.129
4.070
4.064
4.080
4.097
4.115
4.129
4.135
4.155
4.161
4.178
4.180
4.198
4.203
4.211
4.226
4.238
4.234
4.249
4.260
4.269
4.265
4.275
4.280
4.295
4.303
4.296
4.303
4.312
4.316
4.331
4.334
4.344
4.332
4.335
4.346
4.351
4.356
4.361
4.373
4.382
4.377
4.391
4.395
4.381
4.383
4.382
4.396
4.395
4.396
4.400
4.412
4.418
4.424
4.428
4.431
4.429
4.436
4.448
4.452
4.461
4.437
4.430
4.427
4.440
4.442
4.444
4.454
4.456
4.455
4.456
4.464
4.461
4.467
4.477
4.476
4.478
4.485
4.489
4.484
4.483
4.490
4.497
4.505
4.506
4.511
4.508
4.519
4.516
4.526
4.524
4.520
4.527
4.524
4.530
4.513
4.496
4.499
4.499
4.508
4.513
4.514
4.511
4.508
4.520
4.528
4.524
4.532
4.523
4.519
4.529
4.517
4.525
4.530
4.529
4.532
4.539
4.537
4.543
4.545
4.553
4.549
4.541
4.551
4.554
4.559
4.565
4.561
4.575
4.568
4.566
4.559
4.564
4.565
4.556
4.566
4.564
4.572
4.567
4.572
4.569
4.573
4.585
4.580
4.590
4.586
4.597
4.588
4.592
4.589
4.586
4.594
4.598
4.604
4.600
4.595
4.614
4.611
4.610
4.617
4.609
4.623
4.617
4.618
4.608
4.608
4.618
4.617
4.614
4.618
4.611
4.605
4.615
4.615
4.610
4.621
4.623
4.620
4.632
4.630
4.630
4.630
4.638
4.638
4.638
4.644
4.641
4.642
4.642
4.657
4.649
4.647
4.638
4.629
4.620
4.611
4.602
4.609
4.614
4.615
4.606
4.615
4.621
4.624
4.612
4.617
4.628
4.619
4.620
4.618
4.626
4.629
4.625
4.623
4.634
4.644
4.640
4.636
4.631
4.648
4.645
4.636
4.624
4.631
4.632
4.623
4.615
4.626
4.631
4.619
4.611
4.611
4.627
4.621
4.622
4.618
4.613
4.628
4.634
4.628
4.622
4.620
4.624
4.642
4.649
4.639
4.634
4.630
4.634
4.649
4.656
4.640
4.634
4.634
4.639
4.650
4.648
4.651
4.642
4.634
4.643
4.657
4.653
4.653
4.654
4.651
4.651
4.653
4.670
4.670
4.666
4.663
4.665
4.663
4.661
4.661
4.664
4.659
4.650
4.650
4.651
4.664
4.670
4.658
4.654
4.652
4.653
4.647
4.661
4.670
4.672
4.670
4.667
4.665
4.669
4.666
4.669
4.684
4.683
4.677
4.665
4.665
4.663
4.665
4.671
4.685
4.692
4.686
4.683
4.687
4.689
4.682
4.682
4.684
4.695
4.704
4.701
4.692
4.691
4.692
4.697
4.696
4.694
4.698
4.704
4.699
4.706
4.709
4.705
4.696
4.690
4.694
4.693
4.685
4.683
4.681
4.678
4.673
4.665
4.671
4.672
4.685
4.692
4.692
4.688
4.678
4.669
4.659
4.667
4.667
4.669
4.681
4.686
4.677
4.684
4.682
4.678
4.674
4.672
4.678
4.670
4.670
4.683
4.695
4.704
4.699
4.696
4.696
4.686
4.687
4.686
4.678
4.678
4.676
4.688
4.700
4.695
4.702
4.703
4.692
4.685
4.679
4.676
4.677
4.675
4.673
4.684
4.696
4.698
4.705
4.701
4.696
4.697
4.700
4.694
4.691
4.689
4.689
4.684
4.684
4.695
4.706
4.717
4.728
4.716
4.715
4.706
4.706
4.704
4.702
4.704
4.702
4.704
4.696
4.696
4.706
4.715
4.713
4.711
4.709
4.712
4.711
4.712
4.710
4.707
4.707
4.704
4.707
4.707
4.709
4.709
4.717
4.727
4.737
4.739
4.738
4.733
4.733
4.732
4.732
4.727
4.727
4.725
4.721
4.723
4.719
4.718
4.716
4.726
4.736
4.746
4.747
4.743
4.734
4.729
4.729
4.725
4.723
4.724
4.722
4.715
4.708
4.703
4.703
4.713
4.723
4.733
4.733
4.727
4.730
4.726
4.724
4.724
4.723
4.718
4.709
4.703
4.704
4.703
4.701
4.699
4.701
4.708
4.717
4.726
4.736
4.733
4.726
4.726
4.733
4.731
4.730
4.728
4.735
4.734
4.729
4.732
4.727
4.720
4.711
4.709
4.709
4.707
4.716
4.725
4.734
4.741
4.744
4.739
4.742
4.743
4.743
4.741
4.743
4.735
4.734
4.736
4.737
4.738
4.739
4.740
4.735
4.728
4.725
4.725
4.722
4.727
4.736
4.744
4.753
4.750
4.755
4.762
4.758
4.754
4.761
4.768
4.763
4.763
4.764
4.765
4.754
4.751
4.748
4.750
4.745
4.747
4.745
4.746
4.751
4.751
4.744
4.746
4.754
4.763
4.771
4.773
4.772
4.771
4.767
4.764
4.762
4.762
4.758
4.754
4.757
4.757
4.756
4.749
4.742
4.745
4.740
4.738
4.736
4.729
4.726
4.730
4.738
4.746
4.754
4.762
4.767
4.774
4.771
4.770
4.764
4.761
4.764
4.756
4.760
4.761
4.759
4.753
4.759
4.755
4.752
4.749
4.751
4.759
4.760
4.761
4.757
4.757
4.749
4.751
4.751
4.751
4.752
4.758
4.766
4.773
4.781
4.788
4.788
4.789
4.789
4.794
4.791
4.786
4.789
4.787
4.782
4.785
4.783
4.786
4.784
4.785
4.786
4.788
4.785
4.784
4.785
4.785
4.785
4.781
4.773
4.766
4.775
4.772
4.774
4.772
4.770
4.777
4.785
4.791
4.799
4.806
4.809
4.799
4.794
4.792
4.792
4.791
4.795
4.796
4.792
4.788
4.784
4.780
4.776
4.772
4.768
4.764
4.760
4.756
4.752
4.749
4.743
4.739
4.740
4.737
4.737
4.744
4.751
4.758
4.765
4.771
4.778
4.774
4.775
4.782
4.784
4.786
4.787
4.782
4.778
4.773
4.768
4.763
4.758
4.753
4.751
4.750
4.746
4.748
4.747
4.744
4.742
4.741
4.744
4.750
4.747
4.750
4.753
4.747
4.752
4.753
4.748
4.748
4.744
4.741
4.748
4.755
4.761
4.767
4.774
4.774
4.766
4.764
4.763
4.757
4.758
4.756
4.756
4.758
4.758
4.761
4.767
4.773
4.770
4.766
4.764
4.765
4.760
4.756
4.758
4.759
4.756
4.758
4.758
4.756
4.755
4.753
4.748
4.750
4.754
4.758
4.755
4.753
4.752
4.746
4.746
4.755
4.756
4.756
4.754
4.760
4.767
4.773
4.779
4.775
4.776
4.775
4.772
4.777
4.771
4.767
4.762
4.762
4.767
4.769
4.770
4.762
4.757
4.749
4.751
4.747
4.745
4.748
4.742
4.750
4.753
4.758
4.752
4.752
4.752
4.750
4.753
4.754
4.750
4.747
4.743
4.739
4.737
4.740
4.739
4.739
4.739
4.737
4.736
4.741
4.743
4.746
4.752
4.758
4.764
4.769
4.775
4.781
4.786
4.792
4.792
4.794
4.790
4.787
4.785
4.790
4.792
4.785
4.784
4.776
4.774
4.772
4.778
4.776
4.780
4.773
4.771
4.771
4.772
4.769
4.767
4.761
4.758
4.754
4.749
4.743
4.738
4.742
4.739
4.741
4.745
4.744
4.742
4.750
4.754
4.756
4.759
4.759
4.755
4.756
4.757
4.755
4.748
4.746
4.744
4.742
4.748
4.753
4.758
4.764
4.769
4.774
4.780
4.783
4.785
4.783
4.785
4.784
4.784
4.782
4.782
4.783
4.787
4.786
4.784
4.784
4.781
4.779
4.780
4.782
4.778
4.781
4.782
4.780
4.783
4.784
4.784
4.783
4.780
4.778
4.779
4.775
4.777
4.778
4.778
4.772
4.768
4.766
4.765
4.763
4.758
4.761
4.759
4.755
4.756
4.753
4.755
4.756
4.753
4.749
4.741
4.739
4.741
4.736
4.737
4.738
4.738
4.744
4.749
4.755
4.755
4.760
4.765
4.770
4.775
4.780
4.785
4.790
4.795
4.800
4.803
4.803
4.801
4.800
4.800
4.799
4.805
4.800
4.799
4.797
4.798
4.799
4.797
4.793
4.790
4.788
4.789
4.787
4.786
4.788
4.792
4.795
4.797
4.797
4.793
4.793
4.786
4.782
4.776
4.770
4.766
4.762
4.761
4.765
4.770
4.770
4.774
4.778
4.776
4.778
4.779
4.776
4.774
4.776
4.776
4.775
4.778
4.778
4.782
4.780
4.777
4.774
4.772
