2.992
3.334
3.512
3.630
3.706
3.795
3.853
3.885
3.898
3.954
4.002
3.994
4.012
4.042
4.075
4.101
4.125
4.153
4.174
4.156
4.108
4.113
4.127
4.145
4.152
4.162
4.179
4.184
4.201
4.203
4.215
4.231
4.229
4.244
4.257
4.253
4.264
4.274
4.283
4.285
4.287
4.302
4.311
4.305
4.314
4.318
4.328
4.337
4.347
4.346
4.344
4.348
4.358
4.360
4.368
4.376
4.383
4.384
4.375
4.381
4.385
4.389
4.399
4.403
4.402
4.414
4.421
4.423
4.424
4.436
4.442
4.419
4.426
4.425
4.429
4.439
4.440
4.450
4.442
4.447
4.453
4.463
4.464
4.471
4.467
4.477
4.475
4.482
4.487
4.494
4.494
4.490
4.472
4.472
4.475
4.477
4.483
4.490
4.492
4.496
4.501
4.502
4.500
4.502
4.500
4.502
4.511
4.521
4.522
4.520
4.520
4.527
4.531
4.524
4.530
4.532
4.531
4.537
4.539
4.542
4.547
4.549
4.549
4.554
4.563
4.560
4.569
4.564
4.563
4.565
4.563
4.567
4.555
4.542
4.534
4.543
4.552
4.542
4.547
4.557
4.555
4.551
4.558
4.562
4.557
4.560
4.568
4.570
4.564
4.568
4.557
4.564
4.566
4.562
4.571
4.567
4.579
4.573
4.577
4.579
4.583
4.587
4.586
4.594
4.593
4.592
4.582
4.595
4.593
4.600
4.601
4.608
4.604
4.609
4.607
4.605
4.596
4.606
4.605
4.603
4.602
4.600
4.605
4.605
4.616
4.609
4.612
4.612
4.613
4.620
4.618
4.619
4.631
4.630
4.631
4.634
4.629
4.639
4.632
4.630
4.635
4.634
4.637
4.642
4.638
4.642
4.646
4.647
4.646
4.653
4.651
4.650
4.657
4.653
4.654
4.650
4.640
4.649
4.659
4.657
4.649
4.658
4.649
4.649
4.657
4.652
4.646
4.653
4.664
4.657
4.656
4.664
4.668
4.668
4.668
4.672
4.676
4.674
4.668
4.679
4.686
4.683
4.679
4.683
4.686
4.683
4.689
4.683
4.675
4.668
4.660
4.653
4.648
4.646
4.645
4.646
4.643
4.642
4.657
4.657
4.654
4.649
4.651
4.664
4.664
4.650
4.643
4.658
4.667
4.663
4.660
4.657
4.664
4.671
4.670
4.669
4.668
4.666
4.679
4.688
4.678
4.672
4.675
4.679
4.675
4.666
4.656
4.658
4.673
4.675
4.668
4.657
4.654
4.666
4.664
4.657
4.653
4.655
4.656
4.669
4.664
4.664
4.659
4.653
4.656
4.671
4.673
4.671
4.664
4.668
4.660
4.671
4.683
4.685
4.686
4.682
4.670
4.669
4.679
4.690
4.687
4.685
4.678
4.672
4.673
4.682
4.690
4.683
4.689
4.683
4.681
4.680
4.683
4.693
4.694
4.694
4.689
4.688
4.687
4.691
4.694
4.705
4.711
4.704
4.705
4.699
4.697
4.701
4.698
4.702
4.698
4.694
4.695
4.697
4.689
4.685
4.698
4.705
4.706
4.705
4.695
4.691
4.689
4.688
4.694
4.705
4.708
4.710
4.703
4.705
4.706
4.702
4.697
4.697
4.709
4.721
4.720
4.721
4.720
4.713
4.711
4.704
4.698
4.707
4.717
4.724
4.722
4.723
4.720
4.720
4.719
4.713
4.716
4.720
4.723
4.734
4.741
4.738
4.738
4.737
4.734
4.731
4.728
4.724
4.722
4.732
4.742
4.740
4.738
4.735
4.730
4.731
4.733
4.731
4.738
4.734
4.734
4.731
4.727
4.720
4.712
4.712
4.706
4.713
4.711
4.710
4.719
4.726
4.725
4.724
4.722
4.723
4.727
4.718
4.714
4.707
4.700
4.709
4.716
4.721
4.723
4.721
4.716
4.720
4.714
4.705
4.711
4.713
4.709
4.707
4.716
4.724
4.727
4.729
4.727
4.727
4.730
4.726
4.728
4.727
4.728
4.723
4.720
4.721
4.722
4.731
4.733
4.735
4.728
4.723
4.725
4.723
4.725
4.731
4.728
4.726
4.725
4.718
4.720
4.729
4.727
4.732
4.734
4.724
4.722
4.723
4.722
4.726
4.725
4.720
4.728
4.731
4.723
4.720
4.730
4.737
4.747
4.743
4.739
4.742
4.739
4.746
4.744
4.749
4.744
4.740
4.742
4.743
4.741
4.735
4.733
4.738
4.746
4.754
4.757
4.757
4.752
4.753
4.746
4.740
4.739
4.743
4.739
4.740
4.734
4.732
4.731
4.732
4.736
4.746
4.753
4.762
4.757
4.764
4.763
4.759
4.760
4.760
4.760
4.757
4.757
4.754
4.752
4.754
4.760
4.760
4.761
4.756
4.753
4.760
4.768
4.776
4.777
4.776
4.777
4.770
4.771
4.768
4.768
4.770
4.763
4.760
4.761
4.762
4.760
4.764
4.760
4.756
4.753
4.762
4.768
4.762
4.755
4.751
4.757
4.754
4.753
4.751
4.753
4.749
4.753
4.749
4.747
4.753
4.757
4.757
4.753
4.751
4.746
4.753
4.760
4.757
4.760
4.760
4.764
4.759
4.755
4.753
4.750
4.748
4.749
4.756
4.749
4.745
4.742
4.746
4.746
4.753
4.753
4.748
4.752
4.751
4.753
4.762
4.768
4.776
4.779
4.781
4.774
4.773
4.768
4.762
4.763
4.767
4.761
4.762
4.764
4.765
4.763
4.757
4.755
4.753
4.753
4.757
4.755
4.753
4.750
4.757
4.764
4.772
4.779
4.786
4.790
4.794
4.802
4.795
4.790
4.784
4.782
4.778
4.775
4.770
4.771
4.773
4.772
4.778
4.780
4.775
4.774
4.773
4.772
4.770
4.766
4.773
4.772
4.772
4.774
4.781
4.788
4.794
4.801
4.808
4.807
4.800
4.799
4.805
4.801
4.801
4.801
4.800
4.801
4.795
4.793
4.794
4.793
4.787
4.783
4.786
4.785
4.784
4.782
4.789
4.790
4.786
4.782
4.783
4.783
4.787
4.793
4.798
4.805
4.801
4.794
4.789
4.790
4.786
4.786
4.787
4.782
4.786
4.791
4.783
4.786
4.786
4.782
4.784
4.788
4.789
4.785
4.779
4.777
4.775
4.772
4.773
4.777
4.775
4.774
4.776
4.782
4.787
4.793
4.800
4.805
4.812
4.816
4.814
4.810
4.809
4.805
4.800
4.804
4.808
4.805
4.803
4.801
4.803
4.807
4.800
4.799
4.798
4.796
4.795
4.802
4.805
4.809
4.803
4.797
4.797
4.796
4.794
4.796
4.795
4.797
4.797
4.794
4.797
4.801
4.808
4.813
4.819
4.824
4.831
4.834
4.833
4.832
4.831
4.827
4.828
4.834
4.833
4.834
4.838
4.838
4.834
4.835
4.831
4.827
4.822
4.815
4.811
4.812
4.809
4.810
4.814
4.807
4.805
4.802
4.803
4.805
4.811
4.816
4.819
4.818
4.811
4.815
4.812
4.810
4.816
4.818
4.816
4.813
4.811
4.809
4.806
4.802
4.805
4.807
4.805
4.804
4.800
4.797
4.792
4.794
4.800
4.797
4.797
4.791
4.789
4.788
4.784
4.785
4.787
4.788
4.790
4.791
4.792
4.788
4.787
4.788
4.786
4.786
4.783
4.780
4.783
4.783
4.790
4.796
4.800
4.796
4.797
4.801
4.801
4.807
4.805
4.805
4.805
4.802
4.797
4.797
4.794
4.797
4.798
4.796
4.797
4.796
4.795
4.796
4.797
4.797
4.800
4.797
4.790
4.790
4.792
4.794
4.787
4.786
4.789
4.788
4.786
4.783
4.783
4.786
4.786
4.785
4.783
4.780
4.783
4.780
4.776
4.779
4.784
4.790
4.794
4.797
4.803
4.809
4.809
4.807
4.806
4.804
4.805
4.804
4.803
4.804
4.801
4.804
4.801
4.809
4.808
4.813
4.814
4.813
4.812
4.813
4.809
4.807
4.805
4.802
4.805
4.807
4.803
4.799
4.797
4.791
4.792
4.790
4.787
4.786
4.790
4.791
4.792
4.796
4.795
4.793
4.792
4.790
4.787
4.785
4.781
4.777
4.775
4.777
4.781
4.785
4.790
4.796
4.800
4.804
4.809
4.813
4.809
4.807
4.803
4.801
4.798
4.799
4.801
4.801
4.801
4.804
4.808
4.804
4.800
4.799
4.798
4.796
4.794
4.791
4.794
4.794
4.792
4.791
4.787
4.790
4.794
4.793
4.794
4.793
4.794
4.793
4.795
4.794
4.789
4.790
4.790
4.788
4.792
4.791
4.790
4.790
4.787
4.790
4.790
4.790
4.794
4.788
4.787
4.788
4.790
