2.994
3.322
3.511
3.632
3.689
3.741
3.829
3.830
3.885
3.942
3.988
4.030
3.997
3.966
3.980
4.001
4.020
4.053
4.065
4.077
4.101
4.100
4.128
4.131
4.143
4.162
4.157
4.177
4.200
4.192
4.201
4.210
4.226
4.234
4.237
4.238
4.248
4.256
4.270
4.272
4.288
4.306
4.279
4.291
4.296
4.302
4.311
4.317
4.328
4.320
4.339
4.346
4.358
4.358
4.330
4.340
4.351
4.359
4.365
4.358
4.363
4.369
4.381
4.389
4.391
4.384
4.388
4.396
4.409
4.407
4.421
4.416
4.426
4.430
4.430
4.429
4.443
4.427
4.406
4.418
4.418
4.414
4.416
4.428
4.440
4.430
4.424
4.423
4.427
4.431
4.443
4.451
4.459
4.456
4.447
4.452
4.467
4.473
4.475
4.473
4.482
4.474
4.469
4.464
4.479
4.479
4.476
4.490
4.487
4.493
4.501
4.499
4.513
4.494
4.512
4.507
4.512
4.518
4.514
4.526
4.527
4.533
4.537
4.529
4.523
4.536
4.516
4.519
4.521
4.531
4.528
4.532
4.542
4.534
4.551
4.552
4.549
4.556
4.557
4.568
4.562
4.556
4.561
4.563
4.556
4.543
4.530
4.521
4.529
4.532
4.522
4.535
4.533
4.525
4.538
4.543
4.553
4.541
4.556
4.552
4.547
4.561
4.556
4.539
4.538
4.535
4.538
4.541
4.532
4.526
4.528
4.535
4.533
4.529
4.536
4.558
4.552
4.547
4.539
4.561
4.558
4.558
4.543
4.563
4.560
4.555
4.546
4.558
4.569
4.562
4.570
4.564
4.572
4.582
4.581
4.576
4.581
4.580
4.574
4.572
4.564
4.566
4.582
4.571
4.570
4.572
4.565
4.579
4.592
4.592
4.585
4.586
4.578
4.592
4.585
4.595
4.588
4.588
4.585
4.599
4.610
4.609
4.608
4.607
4.601
4.599
4.619
4.624
4.617
4.617
4.605
4.610
4.612
4.624
4.620
4.623
4.618
4.611
4.609
4.605
4.598
4.595
4.601
4.590
4.586
4.596
4.595
4.600
4.591
4.585
4.584
4.583
4.586
4.604
4.605
4.606
4.608
4.610
4.600
4.597
4.595
4.604
4.610
4.608
4.610
4.606
4.612
4.606
4.600
4.595
4.612
4.610
4.610
4.615
4.609
4.600
4.598
4.602
4.598
4.611
4.627
4.627
4.633
4.628
4.629
4.617
4.619
4.606
4.606
4.615
4.630
4.630
4.625
4.621
4.623
4.623
4.621
4.623
4.618
4.613
4.623
4.639
4.654
4.656
4.659
4.651
4.648
4.642
4.637
4.639
4.634
4.633
4.635
4.649
4.663
4.655
4.656
4.656
4.649
4.649
4.642
4.637
4.643
4.636
4.633
4.647
4.654
4.648
4.641
4.634
4.638
4.638
4.625
4.617
4.617
4.616
4.618
4.632
4.645
4.651
4.651
4.652
4.650
4.657
4.653
4.648
4.638
4.632
4.633
4.636
4.629
4.629
4.642
4.655
4.663
4.665
4.660
4.663
4.665
4.671
4.662
4.661
4.652
4.644
4.643
4.645
4.643
4.643
4.649
4.662
4.674
4.687
4.687
4.690
4.684
4.682
4.675
4.667
4.672
4.675
4.675
4.675
4.676
4.672
4.668
4.659
4.663
4.675
4.686
4.688
4.687
4.695
4.691
4.692
4.683
4.672
4.663
4.660
4.657
4.654
4.658
4.657
4.658
4.656
4.657
4.668
4.679
4.690
4.694
4.686
4.682
4.683
4.681
4.685
4.695
4.684
4.679
4.681
4.688
4.682
4.677
4.675
4.668
4.668
4.669
4.677
4.686
4.685
4.696
4.707
4.718
4.726
4.722
4.723
4.729
4.723
4.714
4.708
4.705
4.708
4.701
4.708
4.698
4.699
4.693
4.690
4.688
4.691
4.695
4.689
4.689
4.700
4.710
4.720
4.730
4.721
4.719
4.715
4.714
4.708
4.702
4.696
4.691
4.685
4.679
4.673
4.673
4.665
4.671
4.675
4.668
4.670
4.674
4.672
4.677
4.687
4.697
4.691
4.691
4.691
4.684
4.681
4.682
4.682
4.678
4.681
4.686
4.686
4.681
4.673
4.670
4.663
4.667
4.669
4.662
4.660
4.657
4.651
4.651
4.651
4.658
4.667
4.677
4.686
4.695
4.704
4.714
4.708
4.699
4.699
4.696
4.697
4.700
4.695
4.691
4.693
4.691
4.688
4.684
4.679
4.680
4.680
4.691
4.688
4.690
4.682
4.674
4.667
4.661
4.652
4.649
4.654
4.663
4.671
4.680
4.689
4.691
4.700
4.693
4.695
4.686
4.679
4.687
4.692
4.687
4.685
4.693
4.687
4.684
4.688
4.686
4.694
4.692
4.683
4.687
4.688
4.681
4.686
4.681
4.678
4.676
4.668
4.674
4.677
4.678
4.673
4.669
4.669
4.669
4.673
4.682
4.690
4.698
4.698
4.696
4.696
4.692
4.691
4.692
4.694
4.694
4.700
4.698
4.697
4.697
4.691
4.686
4.682
4.688
4.689
4.684
4.682
4.685
4.681
4.678
4.673
4.681
4.674
4.670
4.672
4.676
4.678
4.681
4.685
4.685
4.679
4.676
4.673
4.675
4.672
4.674
4.682
4.690
4.697
4.705
4.707
4.717
4.715
4.712
4.708
4.704
4.701
4.704
4.709
4.712
4.707
4.700
4.700
4.700
4.706
4.702
4.699
4.696
4.693
4.693
4.692
4.693
4.692
4.686
4.681
4.681
4.684
4.694
4.689
4.695
4.703
4.697
4.692
4.694
4.688
4.691
4.688
4.690
4.686
4.690
4.688
4.681
4.673
4.680
4.687
4.694
4.701
4.708
4.716
4.723
4.730
4.728
4.721
4.717
4.715
4.718
4.724
4.721
4.719
4.718
4.728
4.727
4.737
4.737
4.740
4.730
4.723
4.721
4.719
4.714
4.711
4.708
4.707
4.709
4.717
4.713
4.712
4.706
4.697
4.699
4.706
4.702
4.703
4.696
4.696
4.699
4.697
4.704
4.703
4.699
4.700
4.698
4.699
4.707
4.709
4.704
4.702
4.706
4.701
4.697
4.699
4.699
4.706
4.712
4.719
4.725
4.732
4.738
4.745
4.751
4.758
4.760
4.755
4.757
4.756
4.756
4.753
4.755
4.758
4.763
4.759
4.757
4.758
4.751
4.747
4.745
4.745
4.742
4.744
4.739
4.737
4.739
4.740
4.741
4.739
4.748
4.751
4.748
4.742
4.740
4.736
4.735
4.745
4.751
4.743
4.735
4.734
4.732
4.736
4.734
4.727
4.720
4.717
4.714
4.708
4.706
4.708
4.712
4.709
4.705
4.707
4.718
4.713
4.717
4.713
4.707
4.703
4.704
4.709
4.715
4.721
4.727
4.733
4.735
4.734
4.738
4.741
4.745
4.748
4.748
4.745
4.743
4.742
4.739
4.741
4.741
4.739
4.742
4.740
4.736
4.735
4.736
4.729
4.726
4.724
4.720
4.717
4.717
4.719
4.715
4.714
4.716
4.706
4.699
4.702
4.704
4.710
4.705
4.714
4.717
4.713
4.714
4.711
4.711
4.706
4.708
4.709
4.708
4.706
4.710
4.718
4.717
4.711
4.710
4.706
4.704
4.704
4.701
4.701
4.707
4.709
4.713
4.709
4.705
4.703
4.700
4.696
4.688
4.685
4.686
4.687
4.689
4.685
4.691
4.694
4.700
4.705
4.711
4.716
4.722
4.727
4.733
4.738
4.743
4.749
4.754
4.760
4.765
4.763
4.762
4.758
4.757
4.760
4.759
4.762
4.762
4.754
4.760
4.753
4.748
4.749
4.743
4.743
4.742
4.742
4.744
4.745
4.752
4.755
4.751
4.751
4.754
4.757
4.758
4.756
4.753
4.752
4.753
4.750
4.748
4.753
4.745
4.748
4.748
4.744
4.747
4.750
4.752
4.753
4.751
4.750
4.751
4.750
4.756
4.752
4.752
4.753
4.745
4.742
4.746
4.749
4.742
4.739
4.735
4.735
4.734
4.730
4.727
4.733
4.736
4.737
4.736
4.737
4.732
4.741
4.736
4.736
4.732
4.728
4.725
4.721
4.717
4.714
4.713
4.715
4.713
4.709
4.708
4.708
4.716
4.718
4.722
4.723
4.720
4.716
4.720
4.725
4.730
4.735
4.739
4.744
4.749
4.754
4.759
4.764
4.769
4.772
4.766
4.760
4.754
4.754
4.750
4.751
4.751
4.751
4.749
4.751
4.746
4.742
4.742
4.736
4.735
4.735
4.736
4.738
4.731
4.731
4.733
4.729
4.737
4.729
4.731
4.731
4.727
4.726
