2.994
3.315
3.504
3.630
3.667
3.782
3.781
3.844
3.913
3.963
3.913
3.906
3.928
3.955
3.977
3.997
4.028
4.039
4.058
4.073
4.095
4.098
4.116
4.140
4.132
4.146
4.164
4.182
4.172
4.187
4.198
4.207
4.225
4.225
4.218
4.225
4.230
4.251
4.268
4.267
4.283
4.297
4.292
4.270
4.289
4.286
4.301
4.295
4.305
4.311
4.324
4.334
4.320
4.332
4.349
4.351
4.356
4.374
4.368
4.366
4.381
4.377
4.348
4.357
4.360
4.366
4.378
4.376
4.368
4.372
4.378
4.384
4.393
4.408
4.390
4.402
4.412
4.413
4.411
4.421
4.405
4.401
4.414
4.416
4.429
4.429
4.436
4.445
4.440
4.430
4.448
4.453
4.458
4.466
4.458
4.467
4.480
4.468
4.474
4.466
4.455
4.468
4.470
4.485
4.471
4.485
4.490
4.500
4.492
4.511
4.499
4.513
4.501
4.510
4.507
4.491
4.474
4.477
4.464
4.482
4.477
4.469
4.500
4.483
4.487
4.493
4.498
4.501
4.493
4.477
4.492
4.479
4.482
4.477
4.465
4.484
4.488
4.483
4.483
4.496
4.494
4.485
4.506
4.489
4.493
4.496
4.509
4.496
4.501
4.510
4.520
4.521
4.509
4.520
4.531
4.525
4.502
4.521
4.524
4.515
4.508
4.518
4.524
4.528
4.528
4.521
4.536
4.532
4.528
4.524
4.524
4.547
4.556
4.554
4.549
4.546
4.552
4.568
4.559
4.562
4.551
4.549
4.572
4.570
4.562
4.557
4.549
4.563
4.549
4.544
4.525
4.536
4.545
4.540
4.531
4.528
4.523
4.525
4.542
4.562
4.554
4.550
4.543
4.548
4.532
4.553
4.559
4.559
4.558
4.553
4.541
4.533
4.555
4.564
4.558
4.553
4.546
4.544
4.544
4.546
4.567
4.583
4.578
4.564
4.561
4.566
4.567
4.552
4.567
4.572
4.573
4.579
4.574
4.568
4.574
4.567
4.572
4.576
4.594
4.603
4.598
4.592
4.596
4.590
4.582
4.576
4.573
4.589
4.608
4.601
4.608
4.592
4.602
4.590
4.577
4.573
4.572
4.589
4.594
4.584
4.572
4.577
4.572
4.569
4.560
4.569
4.575
4.576
4.592
4.603
4.597
4.592
4.587
4.595
4.587
4.584
4.582
4.579
4.578
4.579
4.595
4.612
4.613
4.609
4.606
4.615
4.602
4.602
4.600
4.612
4.606
4.616
4.601
4.606
4.613
4.628
4.639
4.635
4.642
4.634
4.637
4.625
4.621
4.612
4.615
4.602
4.606
4.611
4.612
4.625
4.625
4.624
4.624
4.619
4.619
4.621
4.623
4.620
4.614
4.612
4.612
4.606
4.604
4.602
4.617
4.631
4.645
4.648
4.653
4.654
4.653
4.655
4.649
4.633
4.636
4.643
4.642
4.654
4.655
4.647
4.640
4.636
4.635
4.641
4.654
4.667
4.668
4.663
4.662
4.669
4.663
4.663
4.665
4.659
4.664
4.649
4.651
4.647
4.633
4.647
4.642
4.640
4.639
4.650
4.652
4.650
4.646
4.650
4.644
4.634
4.635
4.638
4.650
4.647
4.638
4.629
4.620
4.610
4.606
4.602
4.604
4.607
4.619
4.631
4.637
4.638
4.644
4.630
4.626
4.624
4.625
4.628
4.620
4.629
4.628
4.631
4.615
4.614
4.625
4.628
4.629
4.629
4.626
4.613
4.617
4.619
4.619
4.630
4.641
4.647
4.637
4.638
4.630
4.624
4.628
4.626
4.626
4.623
4.622
4.620
4.622
4.624
4.619
4.605
4.606
4.601
4.601
4.602
4.606
4.609
4.619
4.621
4.625
4.621
4.626
4.637
4.647
4.658
4.655
4.646
4.647
4.642
4.639
4.638
4.636
4.648
4.645
4.635
4.624
4.627
4.632
4.628
4.630
4.628
4.627
4.613
4.619
4.615
4.612
4.607
4.610
4.610
4.602
4.604
4.614
4.624
4.634
4.643
4.653
4.663
4.660
4.666
4.670
4.667
4.660
4.658
4.650
4.661
4.656
4.649
4.647
4.638
4.630
4.625
4.620
4.626
4.624
4.624
4.628
4.620
4.632
4.633
4.631
4.630
4.627
4.633
4.624
4.619
4.625
4.621
4.618
4.627
4.633
4.642
4.651
4.660
4.669
4.676
4.664
4.666
4.662
4.651
4.656
4.656
4.660
4.658
4.664
4.676
4.667
4.664
4.661
4.661
4.658
4.649
4.646
4.651
4.648
4.653
4.663
4.659
4.648
4.641
4.642
4.646
4.639
4.638
4.637
4.640
4.645
4.646
4.642
4.636
4.638
4.630
4.632
4.640
4.649
4.657
4.666
4.674
4.683
4.691
4.700
4.702
4.702
4.706
4.699
4.698
4.697
4.689
4.687
4.691
4.687
4.685
4.692
4.688
4.682
4.675
4.673
4.672
4.669
4.683
4.679
4.690
4.687
4.681
4.681
4.679
4.686
4.687
4.691
4.693
4.689
4.691
4.680
4.684
4.680
4.668
4.669
4.670
4.673
4.671
4.663
4.655
4.659
4.668
4.662
4.661
4.665
4.673
4.680
4.688
4.696
4.704
4.708
4.701
4.700
4.694
4.697
4.691
4.680
4.672
4.679
4.676
4.677
4.684
4.675
4.674
4.667
4.664
4.665
4.666
4.665
4.666
4.664
4.662
4.655
4.654
4.659
4.651
4.650
4.649
4.646
4.643
4.643
4.644
4.641
4.649
4.660
4.661
4.666
4.659
4.661
4.659
4.653
4.651
4.643
4.641
4.646
4.636
4.628
4.626
4.624
4.629
4.636
4.643
4.650
4.657
4.664
4.671
4.678
4.685
4.692
4.699
4.706
4.706
4.710
4.710
4.706
4.699
4.701
4.699
4.702
4.696
4.699
4.689
4.691
4.683
4.683
4.683
4.678
4.688
4.692
4.688
4.696
4.695
4.693
4.693
4.698
4.689
4.684
4.687
4.687
4.686
4.680
4.679
4.686
4.686
4.684
4.689
4.686
4.686
4.688
4.688
4.681
4.680
4.678
4.681
4.669
4.674
4.671
4.668
4.670
4.665
4.665
4.665
4.671
4.667
4.669
4.665
4.669
4.676
4.672
4.671
4.667
4.672
4.681
4.691
4.689
4.686
4.685
4.680
4.681
4.682
4.684
4.693
4.693
4.699
4.705
4.712
4.718
4.724
4.731
4.730
4.731
4.728
4.728
4.721
4.722
4.716
4.707
4.706
4.699
4.697
4.695
4.695
4.694
4.698
4.687
4.691
4.685
4.686
4.678
4.672
4.676
4.672
4.673
4.670
4.669
4.667
4.662
4.661
4.671
4.669
4.668
4.667
4.663
4.671
4.675
4.676
4.670
4.672
4.674
4.674
4.663
4.662
4.662
4.656
4.658
4.665
4.663
4.664
4.668
4.661
4.661
4.667
4.667
4.661
4.655
4.648
4.641
4.635
4.634
4.635
4.626
4.625
4.629
4.627
4.625
4.622
4.617
4.618
4.622
4.626
4.628
4.624
4.631
4.635
4.634
4.639
4.645
4.651
4.656
4.662
4.668
4.673
4.679
4.685
4.690
4.696
4.701
4.707
4.713
4.719
4.721
4.730
4.730
4.730
4.733
4.728
4.725
4.718
4.725
4.723
4.729
4.735
4.743
4.743
4.738
4.733
4.735
4.736
4.737
4.734
4.735
4.732
4.726
4.722
4.717
4.718
4.708
4.711
4.712
4.709
4.704
4.695
4.694
4.696
4.697
4.694
4.696
4.698
4.697
4.699
4.699
4.697
4.699
4.699
4.691
4.689
4.686
4.689
4.691
4.686
4.681
4.676
4.671
4.665
4.660
4.654
4.650
4.644
4.642
4.647
4.648
4.647
4.648
4.652
4.652
4.651
4.644
4.637
4.638
4.640
4.647
4.643
4.646
4.647
4.656
4.650
4.654
4.658
4.654
4.655
4.653
4.650
4.651
4.652
4.647
4.645
4.652
4.651
4.653
4.652
4.656
4.657
4.660
4.668
4.671
4.670
4.673
4.670
4.663
4.663
4.672
4.667
4.663
4.667
4.666
4.670
4.665
4.662
4.667
4.672
4.677
4.682
4.687
4.691
4.696
4.701
4.706
4.711
4.716
4.716
4.717
4.719
4.718
4.713
4.715
4.716
4.719
4.716
4.719
4.714
4.710
4.710
4.715
4.716
4.712
4.714
4.707
4.703
4.700
4.697
4.703
4.698
4.696
4.698
4.690
4.698
4.703
4.706
4.699
4.702
4.704
4.702
4.707
4.702
4.710
4.714
4.708
4.709
4.708
4.703
4.708
4.709
4.711
4.718
4.725
4.726
