2.986
3.328
3.471
3.612
3.643
3.749
3.811
3.744
3.786
3.832
3.852
3.885
3.920
3.935
3.974
3.983
4.022
4.011
4.041
4.063
4.068
4.078
4.089
4.098
4.130
4.135
4.119
4.146
4.139
4.150
4.184
4.181
4.196
4.202
4.225
4.224
4.246
4.219
4.208
4.220
4.216
4.222
4.223
4.253
4.254
4.261
4.284
4.262
4.263
4.282
4.296
4.296
4.308
4.310
4.324
4.330
4.335
4.337
4.324
4.318
4.325
4.336
4.364
4.352
4.362
4.375
4.369
4.380
4.381
4.353
4.341
4.345
4.359
4.357
4.375
4.362
4.338
4.334
4.313
4.354
4.344
4.359
4.359
4.353
4.357
4.343
4.389
4.375
4.376
4.394
4.378
4.394
4.382
4.373
4.399
4.393
4.384
4.403
4.388
4.397
4.425
4.424
4.405
4.426
4.429
4.424
4.413
4.442
4.431
4.421
4.427
4.417
4.401
4.402
4.410
4.408
4.406
4.402
4.415
4.421
4.404
4.402
4.425
4.418
4.414
4.407
4.405
4.440
4.439
4.430
4.428
4.418
4.439
4.444
4.445
4.439
4.435
4.448
4.458
4.473
4.462
4.450
4.453
4.449
4.462
4.493
4.479
4.461
4.438
4.434
4.450
4.455
4.469
4.451
4.457
4.436
4.439
4.451
4.479
4.476
4.472
4.487
4.463
4.450
4.456
4.461
4.488
4.507
4.488
4.497
4.485
4.496
4.494
4.476
4.478
4.502
4.506
4.511
4.503
4.480
4.466
4.473
4.478
4.468
4.492
4.516
4.513
4.508
4.508
4.514
4.510
4.503
4.501
4.505
4.501
4.506
4.529
4.538
4.544
4.537
4.526
4.516
4.532
4.531
4.523
4.521
4.506
4.513
4.535
4.557
4.548
4.535
4.522
4.510
4.510
4.526
4.502
4.507
4.495
4.490
4.510
4.510
4.491
4.502
4.493
4.505
4.502
4.505
4.493
4.497
4.506
4.492
4.469
4.476
4.495
4.513
4.520
4.503
4.504
4.496
4.485
4.489
4.490
4.489
4.495
4.491
4.493
4.494
4.485
4.475
4.477
4.494
4.512
4.529
4.532
4.522
4.527
4.514
4.509
4.511
4.501
4.487
4.487
4.482
4.480
4.483
4.491
4.488
4.497
4.494
4.496
4.502
4.518
4.535
4.547
4.528
4.513
4.514
4.511
4.521
4.518
4.520
4.522
4.520
4.514
4.507
4.503
4.502
4.499
4.500
4.497
4.492
4.481
4.491
4.504
4.519
4.534
4.550
4.565
4.562
4.567
4.552
4.552
4.549
4.542
4.542
4.543
4.540
4.528
4.513
4.520
4.532
4.540
4.525
4.523
4.536
4.537
4.534
4.517
4.519
4.506
4.505
4.520
4.532
4.546
4.559
4.573
4.587
4.594
4.585
4.581
4.590
4.602
4.590
4.597
4.588
4.586
4.582
4.582
4.564
4.557
4.559
4.548
4.533
4.535
4.550
4.547
4.537
4.542
4.551
4.546
4.533
4.533
4.521
4.514
4.524
4.536
4.549
4.562
4.557
4.558
4.557
4.564
4.571
4.584
4.568
4.563
4.547
4.540
4.540
4.539
4.550
4.548
4.550
4.546
4.543
4.541
4.532
4.530
4.537
4.534
4.528
4.530
4.526
4.527
4.531
4.530
4.522
4.514
4.497
4.506
4.500
4.499
4.518
4.523
4.533
4.537
4.549
4.560
4.571
4.583
4.594
4.606
4.610
4.619
4.620
4.613
4.613
4.611
4.613
4.614
4.616
4.609
4.602
4.592
4.597
4.596
4.595
4.589
4.592
4.593
4.591
4.596
4.594
4.586
4.578
4.575
4.570
4.559
4.548
4.537
4.531
4.540
4.536
4.532
4.533
4.533
4.533
4.521
4.508
4.495
4.491
4.498
4.508
4.518
4.528
4.538
4.548
4.558
4.569
4.579
4.589
4.589
4.577
4.565
4.564
4.571
4.568
4.566
4.576
4.580
4.574
4.576
4.582
4.566
4.561
4.562
4.564
4.554
4.556
4.555
4.554
4.551
4.545
4.547
4.541
4.554
4.570
4.562
4.558
4.568
4.570
4.572
4.567
4.564
4.563
4.566
4.565
4.564
4.552
4.545
4.540
4.540
4.536
4.542
4.541
4.540
4.533
4.533
4.538
4.536
4.538
4.526
4.522
4.524
4.522
4.523
4.530
4.533
4.540
4.537
4.545
4.554
4.563
4.572
4.581
4.590
4.598
4.603
4.611
4.603
4.610
4.606
4.600
4.600
4.596
4.597
4.601
4.606
4.601
4.601
4.604
4.593
4.580
4.568
4.564
4.557
4.562
4.559
4.546
4.549
4.549
4.561
4.571
4.566
4.564
4.572
4.578
4.570
4.561
4.558
4.551
4.555
4.558
4.565
4.559
4.564
4.563
4.574
4.562
4.552
4.551
4.551
4.556
4.557
4.553
4.556
4.549
4.545
4.545
4.550
4.542
4.546
4.541
4.547
4.543
4.541
4.527
4.520
4.521
4.512
4.518
4.516
4.521
4.515
4.510
4.504
4.505
4.507
4.517
4.513
4.520
4.511
4.525
4.532
4.543
4.550
4.548
4.555
4.563
4.570
4.578
4.585
4.593
4.601
4.608
4.616
4.623
4.631
4.639
4.642
4.635
4.636
4.637
4.636
4.625
4.630
4.619
4.617
4.614
4.614
4.609
4.617
4.615
4.612
4.612
4.618
4.619
4.622
4.626
4.630
4.631
4.618
4.608
4.608
4.605
4.594
4.584
4.574
4.586
4.590
4.589
4.587
4.586
4.588
4.596
4.594
4.598
4.583
4.584
4.577
4.570
4.571
4.570
4.570
4.568
4.575
4.580
4.582
4.585
4.599
4.591
4.583
4.587
4.587
4.577
4.587
4.597
4.607
4.599
4.604
4.610
4.598
4.589
4.586
4.588
4.582
4.587
4.582
4.574
4.567
4.559
4.566
4.564
4.556
4.559
4.552
4.557
4.554
4.551
4.552
4.560
4.550
4.542
4.547
4.554
4.553
4.558
4.566
4.556
4.555
4.549
4.543
4.537
4.531
4.526
4.532
4.528
4.523
4.524
4.520
4.516
4.517
4.523
4.528
4.535
4.541
4.547
4.554
4.560
4.566
4.572
4.579
4.585
4.591
4.598
4.604
4.610
4.617
4.611
4.613
4.611
4.611
4.602
4.609
4.611
4.616
4.607
4.604
4.596
4.593
4.594
4.585
4.596
4.596
4.589
4.579
4.580
4.578
4.580
4.589
4.597
4.605
4.599
4.597
4.597
4.593
4.597
4.604
4.606
4.603
4.603
4.592
4.602
4.601
4.596
4.596
4.587
4.589
4.599
4.603
4.605
4.603
4.593
4.595
4.598
4.596
4.597
4.593
4.587
4.580
4.582
4.581
4.575
4.575
4.577
4.572
4.564
4.572
4.572
4.570
4.571
4.572
4.568
4.576
4.569
4.566
4.569
4.566
4.571
4.562
4.564
4.557
4.554
4.548
4.546
4.549
4.549
4.556
4.546
4.557
4.555
4.549
4.549
4.543
4.538
4.546
4.543
4.544
4.555
4.552
4.556
4.555
4.550
4.543
4.550
4.543
4.547
4.545
4.534
4.544
4.545
4.547
4.545
4.544
4.545
4.542
4.544
4.540
4.546
4.552
4.541
4.534
4.535
4.546
4.543
4.548
4.555
4.555
4.549
4.553
4.563
4.556
4.554
4.560
4.567
4.575
4.580
4.580
4.573
4.564
4.568
4.561
4.559
4.560
4.560
4.560
4.564
4.556
4.555
4.549
4.542
4.535
4.529
4.522
4.528
4.535
4.541
4.532
4.530
4.526
4.518
4.518
4.523
4.528
4.526
4.518
4.520
4.511
4.518
4.512
4.517
4.522
4.527
4.532
4.537
4.542
4.547
4.552
4.557
4.562
4.567
4.572
4.577
4.582
4.587
4.592
4.597
4.602
4.607
4.613
4.618
4.623
4.628
4.633
4.638
4.643
4.648
4.649
4.640
4.641
4.643
4.640
4.642
4.646
4.652
4.662
4.667
4.670
4.657
4.658
4.648
4.644
4.646
4.641
4.639
4.638
4.638
4.639
4.646
4.640
4.645
4.643
4.632
4.632
4.634
4.632
4.628
4.628
4.633
4.633
4.631
4.631
4.626
4.632
4.628
4.627
4.626
4.629
4.631
4.623
4.624
4.621
4.621
4.625
4.626
4.631
4.635
4.635
4.634
4.632
4.623
4.623
4.617
4.618
4.622
4.623
4.623
4.630
4.631
4.631
4.621
4.615
4.616
4.613
4.605
4.604
4.592
4.592
4.595
4.598
4.597
4.592
4.593
4.587
4.583
4.586
4.580
4.587
4.592
