2.995
3.329
3.505
3.628
3.716
3.777
3.834
3.871
3.934
3.942
3.989
4.032
4.020
4.034
4.068
4.092
4.120
4.141
4.165
4.185
4.206
4.171
4.127
4.142
4.159
4.169
4.176
4.193
4.195
4.216
4.216
4.229
4.234
4.245
4.255
4.256
4.264
4.278
4.277
4.287
4.296
4.306
4.304
4.309
4.318
4.327
4.334
4.342
4.332
4.346
4.349
4.357
4.362
4.371
4.373
4.368
4.378
4.374
4.387
4.388
4.395
4.407
4.408
4.413
4.400
4.405
4.405
4.410
4.420
4.424
4.423
4.429
4.441
4.443
4.450
4.453
4.453
4.462
4.450
4.446
4.450
4.453
4.453
4.465
4.464
4.471
4.464
4.475
4.474
4.483
4.488
4.489
4.496
4.492
4.502
4.497
4.508
4.509
4.518
4.517
4.521
4.503
4.494
4.497
4.499
4.500
4.505
4.509
4.520
4.516
4.520
4.527
4.523
4.517
4.524
4.530
4.534
4.533
4.538
4.541
4.545
4.546
4.543
4.553
4.554
4.544
4.548
4.557
4.554
4.553
4.564
4.566
4.570
4.571
4.573
4.575
4.579
4.585
4.586
4.582
4.590
4.582
4.587
4.593
4.590
4.586
4.573
4.561
4.560
4.563
4.567
4.572
4.568
4.574
4.576
4.582
4.576
4.577
4.583
4.577
4.586
4.588
4.589
4.597
4.586
4.586
4.587
4.582
4.589
4.585
4.592
4.591
4.594
4.597
4.597
4.601
4.600
4.605
4.609
4.608
4.614
4.612
4.612
4.610
4.612
4.610
4.620
4.616
4.628
4.626
4.630
4.627
4.628
4.632
4.623
4.620
4.614
4.632
4.628
4.629
4.627
4.621
4.630
4.627
4.634
4.634
4.630
4.634
4.636
4.632
4.646
4.640
4.641
4.651
4.657
4.648
4.655
4.653
4.652
4.662
4.652
4.654
4.658
4.656
4.658
4.665
4.663
4.657
4.671
4.665
4.671
4.675
4.675
4.675
4.674
4.684
4.677
4.675
4.674
4.665
4.661
4.676
4.677
4.673
4.677
4.681
4.672
4.667
4.679
4.675
4.669
4.670
4.682
4.683
4.675
4.676
4.690
4.684
4.686
4.687
4.693
4.698
4.693
4.694
4.694
4.701
4.702
4.703
4.699
4.709
4.702
4.706
4.704
4.703
4.696
4.690
4.683
4.676
4.669
4.667
4.672
4.668
4.661
4.664
4.664
4.678
4.677
4.673
4.672
4.670
4.682
4.684
4.683
4.683
4.675
4.681
4.682
4.681
4.680
4.678
4.682
4.694
4.690
4.684
4.683
4.687
4.691
4.700
4.701
4.703
4.704
4.697
4.699
4.708
4.701
4.692
4.685
4.686
4.685
4.687
4.688
4.687
4.685
4.687
4.688
4.684
4.686
4.676
4.672
4.686
4.690
4.690
4.688
4.683
4.677
4.681
4.691
4.689
4.683
4.686
4.683
4.679
4.686
4.698
4.694
4.695
4.694
4.698
4.694
4.695
4.701
4.703
4.704
4.703
4.704
4.698
4.697
4.698
4.710
4.705
4.704
4.698
4.699
4.694
4.694
4.705
4.716
4.709
4.708
4.706
4.707
4.705
4.705
4.706
4.718
4.720
4.721
4.719
4.718
4.716
4.723
4.720
4.718
4.727
4.732
4.730
4.731
4.723
4.715
4.709
4.710
4.720
4.727
4.725
4.718
4.717
4.721
4.717
4.715
4.712
4.721
4.725
4.721
4.719
4.716
4.720
4.716
4.719
4.720
4.717
4.727
4.736
4.734
4.728
4.734
4.734
4.735
4.730
4.729
4.723
4.731
4.741
4.737
4.733
4.727
4.731
4.734
4.728
4.731
4.731
4.732
4.739
4.748
4.747
4.753
4.747
4.748
4.749
4.748
4.746
4.743
4.750
4.751
4.750
4.760
4.761
4.759
4.757
4.756
4.755
4.754
4.753
4.754
4.750
4.746
4.755
4.764
4.763
4.764
4.764
4.762
4.758
4.753
4.747
4.742
4.736
4.743
4.739
4.740
4.746
4.745
4.739
4.734
4.730
4.732
4.731
4.731
4.730
4.738
4.747
4.748
4.742
4.735
4.728
4.727
4.723
4.723
4.722
4.723
4.720
4.726
4.734
4.743
4.747
4.743
4.741
4.742
4.739
4.742
4.733
4.735
4.733
4.735
4.731
4.734
4.734
4.742
4.752
4.754
4.760
4.759
4.758
4.760
4.753
4.748
4.744
4.742
4.738
4.740
4.742
4.735
4.744
4.751
4.758
4.759
4.757
4.753
4.758
4.751
4.747
4.748
4.746
4.743
4.742
4.735
4.728
4.735
4.742
4.753
4.752
4.759
4.758
4.757
4.753
4.753
4.749
4.754
4.755
4.748
4.749
4.751
4.750
4.745
4.746
4.749
4.755
4.760
4.769
4.770
4.772
4.771
4.769
4.773
4.772
4.775
4.771
4.762
4.760
4.760
4.760
4.756
4.752
4.759
4.760
4.762
4.771
4.773
4.775
4.767
4.768
4.768
4.764
4.764
4.763
4.768
4.766
4.767
4.763
4.765
4.761
4.759
4.760
4.762
4.760
4.768
4.775
4.783
4.783
4.789
4.788
4.784
4.788
4.789
4.788
4.787
4.786
4.784
4.783
4.781
4.780
4.786
4.783
4.781
4.775
4.773
4.775
4.779
4.786
4.794
4.794
4.790
4.791
4.790
4.788
4.795
4.797
4.795
4.793
4.789
4.783
4.778
4.777
4.776
4.774
4.773
4.774
4.768
4.769
4.776
4.785
4.784
4.783
4.781
4.780
4.783
4.782
4.778
4.779
4.781
4.777
4.776
4.782
4.779
4.777
4.775
4.777
4.775
4.769
4.764
4.760
4.765
4.771
4.778
4.777
4.779
4.779
4.781
4.783
4.784
4.785
4.778
4.777
4.773
4.777
4.776
4.779
4.776
4.774
4.775
4.774
4.771
4.779
4.779
4.779
4.783
4.780
4.776
4.775
4.783
4.788
4.792
4.793
4.792
4.793
4.790
4.786
4.790
4.791
4.789
4.790
4.784
4.785
4.781
4.783
4.783
4.785
4.786
4.783
4.781
4.783
4.783
4.785
4.781
4.780
4.778
4.786
4.787
4.791
4.798
4.804
4.811
4.815
4.812
4.805
4.808
4.807
4.805
4.801
4.797
4.802
4.797
4.799
4.800
4.796
4.800
4.805
4.801
4.797
4.801
4.804
4.805
4.799
4.797
4.801
4.801
4.802
4.800
4.796
4.798
4.805
4.811
4.816
4.822
4.824
4.822
4.823
4.825
4.829
4.825
4.821
4.819
4.820
4.814
4.810
4.808
4.810
4.816
4.815
4.812
4.816
4.814
4.808
4.805
4.805
4.808
4.812
4.806
4.807
4.805
4.804
4.805
4.801
4.805
4.812
4.817
4.816
4.817
4.818
4.819
4.816
4.811
4.810
4.803
4.802
4.808
4.807
4.808
4.810
4.814
4.816
4.811
4.810
4.814
4.812
4.805
4.805
4.803
4.804
4.801
4.796
4.795
4.801
4.798
4.797
4.798
4.796
4.797
4.804
4.808
4.815
4.820
4.824
4.830
4.835
4.836
4.832
4.833
4.832
4.828
4.832
4.834
4.832
4.830
4.826
4.822
4.826
4.825
4.827
4.827
4.826
4.828
4.823
4.819
4.824
4.825
4.826
4.830
4.827
4.825
4.823
4.825
4.824
4.830
4.826
4.827
4.824
4.820
4.821
4.823
4.823
4.825
4.831
4.836
4.840
4.846
4.851
4.857
4.862
4.861
4.859
4.860
4.856
4.858
4.856
4.850
4.845
4.844
4.846
4.844
4.842
4.846
4.845
4.839
4.835
4.831
4.832
4.831
4.834
4.838
4.837
4.839
4.835
4.831
4.829
4.831
4.831
4.836
4.834
4.830
4.827
4.823
4.821
4.819
4.821
4.827
4.832
4.838
4.837
4.833
4.827
4.823
4.818
4.819
4.820
4.817
4.815
4.817
4.821
4.817
4.820
4.816
4.815
4.820
4.823
4.819
4.815
4.817
4.818
4.816
4.815
4.812
4.815
4.817
4.818
4.814
4.815
4.812
4.807
4.808
4.813
4.814
4.813
4.809
4.807
4.805
4.801
4.800
4.804
4.808
4.813
4.819
4.820
4.823
4.829
4.831
4.832
4.828
4.827
4.828
4.827
4.825
4.823
4.822
4.823
4.825
4.824
4.823
4.824
4.823
4.821
4.820
4.823
4.823
4.818
4.812
4.810
4.808
4.807
4.806
4.805
4.803
4.804
4.808
4.813
4.814
4.810
4.806
4.805
4.805
4.801
4.797
4.797
4.798
4.799
4.795
4.794
4.798
4.799
4.800
4.801
