2.992
3.335
3.507
3.625
3.720
3.787
3.851
3.893
3.919
3.973
3.974
4.016
4.054
4.060
4.056
4.083
4.111
4.134
4.153
4.175
4.194
4.212
4.232
4.198
4.158
4.173
4.180
4.187
4.204
4.209
4.223
4.228
4.240
4.244
4.256
4.268
4.267
4.279
4.289
4.286
4.297
4.307
4.305
4.312
4.319
4.331
4.338
4.331
4.341
4.345
4.358
4.360
4.371
4.359
4.368
4.375
4.380
4.384
4.391
4.398
4.397
4.392
4.399
4.401
4.410
4.419
4.420
4.423
4.434
4.438
4.442
4.427
4.432
4.438
4.437
4.441
4.453
4.457
4.454
4.458
4.465
4.471
4.475
4.474
4.478
4.485
4.486
4.475
4.475
4.471
4.476
4.480
4.484
4.490
4.492
4.501
4.495
4.502
4.503
4.507
4.516
4.515
4.522
4.523
4.520
4.529
4.525
4.534
4.534
4.538
4.541
4.546
4.531
4.526
4.519
4.527
4.520
4.526
4.530
4.537
4.541
4.545
4.539
4.543
4.550
4.546
4.550
4.553
4.549
4.556
4.560
4.560
4.566
4.570
4.572
4.573
4.575
4.576
4.579
4.575
4.574
4.575
4.582
4.581
4.580
4.590
4.588
4.589
4.596
4.600
4.602
4.598
4.602
4.606
4.612
4.605
4.613
4.608
4.612
4.609
4.616
4.612
4.601
4.590
4.586
4.579
4.590
4.589
4.593
4.598
4.591
4.600
4.601
4.605
4.604
4.600
4.608
4.603
4.608
4.609
4.615
4.619
4.620
4.609
4.607
4.616
4.610
4.614
4.612
4.611
4.615
4.616
4.618
4.619
4.620
4.625
4.621
4.630
4.627
4.638
4.637
4.636
4.642
4.639
4.643
4.633
4.638
4.634
4.645
4.645
4.643
4.653
4.651
4.653
4.653
4.653
4.651
4.641
4.648
4.649
4.646
4.655
4.656
4.649
4.651
4.645
4.659
4.655
4.654
4.661
4.657
4.655
4.660
4.658
4.657
4.669
4.668
4.664
4.676
4.675
4.676
4.677
4.679
4.674
4.678
4.682
4.671
4.675
4.681
4.682
4.681
4.688
4.687
4.685
4.684
4.694
4.692
4.690
4.695
4.696
4.698
4.696
4.703
4.708
4.695
4.697
4.694
4.691
4.686
4.699
4.698
4.699
4.698
4.704
4.703
4.693
4.694
4.704
4.700
4.693
4.692
4.704
4.705
4.704
4.703
4.704
4.711
4.710
4.705
4.710
4.716
4.723
4.716
4.713
4.711
4.724
4.725
4.720
4.722
4.720
4.730
4.732
4.725
4.723
4.723
4.716
4.712
4.705
4.701
4.697
4.692
4.688
4.695
4.701
4.692
4.683
4.681
4.694
4.700
4.696
4.697
4.694
4.694
4.704
4.706
4.702
4.705
4.702
4.700
4.704
4.698
4.701
4.695
4.697
4.705
4.715
4.711
4.710
4.705
4.705
4.708
4.720
4.719
4.718
4.716
4.718
4.719
4.721
4.731
4.726
4.722
4.720
4.711
4.712
4.711
4.707
4.705
4.704
4.701
4.712
4.717
4.715
4.709
4.704
4.703
4.704
4.706
4.707
4.703
4.704
4.703
4.702
4.703
4.712
4.714
4.708
4.703
4.704
4.705
4.701
4.711
4.718
4.717
4.715
4.714
4.712
4.708
4.710
4.719
4.727
4.730
4.727
4.730
4.724
4.714
4.715
4.720
4.731
4.734
4.726
4.723
4.721
4.723
4.721
4.719
4.729
4.730
4.729
4.733
4.732
4.733
4.726
4.725
4.724
4.734
4.734
4.738
4.735
4.734
4.734
4.733
4.735
4.731
4.737
4.747
4.757
4.757
4.751
4.750
4.743
4.744
4.745
4.745
4.743
4.745
4.740
4.739
4.738
4.738
4.740
4.736
4.734
4.738
4.746
4.750
4.746
4.749
4.743
4.739
4.738
4.731
4.732
4.736
4.745
4.753
4.753
4.753
4.749
4.749
4.749
4.744
4.749
4.744
4.740
4.750
4.759
4.768
4.762
4.760
4.759
4.760
4.760
4.760
4.753
4.745
4.749
4.758
4.768
4.761
4.760
4.761
4.765
4.761
4.762
4.761
4.760
4.761
4.757
4.763
4.770
4.779
4.779
4.780
4.779
4.779
4.779
4.780
4.776
4.774
4.778
4.769
4.770
4.777
4.784
4.783
4.786
4.783
4.776
4.777
4.778
4.771
4.771
4.771
4.768
4.772
4.779
4.775
4.770
4.764
4.762
4.755
4.754
4.752
4.753
4.750
4.749
4.755
4.762
4.763
4.762
4.771
4.768
4.764
4.764
4.760
4.757
4.763
4.760
4.763
4.756
4.752
4.759
4.758
4.757
4.757
4.754
4.752
4.756
4.757
4.754
4.758
4.756
4.753
4.751
4.749
4.753
4.760
4.767
4.774
4.771
4.769
4.764
4.761
4.759
4.758
4.760
4.764
4.765
4.764
4.762
4.764
4.759
4.761
4.768
4.775
4.781
4.772
4.775
4.775
4.770
4.772
4.776
4.771
4.767
4.760
4.759
4.760
4.765
4.761
4.760
4.769
4.776
4.775
4.773
4.772
4.776
4.772
4.771
4.768
4.768
4.761
4.764
4.763
4.760
4.758
4.756
4.753
4.762
4.768
4.776
4.783
4.790
4.790
4.784
4.782
4.781
4.777
4.779
4.780
4.778
4.772
4.776
4.775
4.773
4.772
4.775
4.775
4.778
4.775
4.784
4.790
4.797
4.801
4.795
4.796
4.795
4.793
4.794
4.788
4.784
4.783
4.781
4.782
4.784
4.782
4.779
4.782
4.776
4.775
4.781
4.786
4.794
4.801
4.794
4.794
4.792
4.793
4.792
4.793
4.792
4.793
4.792
4.794
4.794
4.793
4.787
4.788
4.790
4.793
4.789
4.788
4.787
4.790
4.797
4.802
4.809
4.816
4.819
4.816
4.817
4.820
4.820
4.815
4.817
4.812
4.808
4.802
4.801
4.799
4.805
4.808
4.808
4.808
4.808
4.801
4.801
4.796
4.801
4.808
4.814
4.821
4.822
4.815
4.812
4.807
4.811
4.810
4.811
4.807
4.801
4.797
4.794
4.788
4.784
4.780
4.779
4.775
4.782
4.785
4.782
4.788
4.795
4.799
4.806
4.807
4.808
4.805
4.809
4.812
4.814
4.812
4.812
4.805
4.798
4.797
4.801
4.794
4.790
4.788
4.792
4.793
4.789
4.790
4.786
4.785
4.779
4.783
4.787
4.794
4.801
4.807
4.808
4.805
4.808
4.813
4.814
4.812
4.809
4.808
4.805
4.805
4.808
4.807
4.806
4.804
4.801
4.802
4.808
4.804
4.801
4.807
4.809
4.804
4.803
4.796
4.798
4.793
4.797
4.802
4.808
4.813
4.819
4.820
4.819
4.815
4.811
4.813
4.811
4.808
4.812
4.816
4.812
4.818
4.812
4.812
4.812
4.808
4.812
4.813
4.817
4.815
4.814
4.810
4.816
4.812
4.809
4.812
4.811
4.810
4.811
4.807
4.812
4.818
4.823
4.829
4.834
4.835
4.836
4.840
4.836
4.829
4.823
4.823
4.827
4.824
4.825
4.824
4.825
4.826
4.825
4.831
4.831
4.832
4.831
4.835
4.833
4.835
4.831
4.829
4.831
4.834
4.831
4.824
4.817
4.821
4.822
4.824
4.825
4.831
4.834
4.840
4.844
4.842
4.842
4.843
4.844
4.846
4.847
4.845
4.849
4.846
4.844
4.840
4.834
4.834
4.839
4.837
4.834
4.838
4.839
4.837
4.834
4.832
4.830
4.829
4.827
4.823
4.819
4.815
4.811
4.812
4.811
4.813
4.819
4.824
4.830
4.834
4.839
4.838
4.839
4.838
4.838
4.838
4.838
4.838
4.836
4.837
4.836
4.832
4.833
4.837
4.838
4.838
4.838
4.837
4.836
4.840
4.833
4.829
4.830
4.831
4.828
4.824
4.820
4.821
4.820
4.824
4.823
4.823
4.822
4.826
4.825
4.827
4.827
4.831
4.831
4.834
4.839
4.845
4.847
4.853
4.858
4.859
4.858
4.853
4.849
4.853
4.858
4.859
4.860
4.857
4.855
4.856
4.853
4.854
4.850
4.851
4.850
4.848
4.852
4.849
4.849
4.846
4.850
4.857
4.860
4.860
4.857
4.854
4.852
4.848
4.850
4.853
4.849
4.849
4.850
4.846
4.847
4.849
4.847
4.846
4.842
4.846
4.847
4.853
4.857
4.862
4.868
4.870
4.875
4.875
4.872
4.867
4.864
4.868
4.869
4.870
4.872
4.867
4.864
4.868
4.866
4.864
4.869
4.871
4.871
4.867
4.866
4.865
4.863
