2.952
3.280
3.449
3.581
3.550
3.601
3.655
3.733
3.768
3.808
3.838
3.879
3.887
3.928
3.971
3.960
3.947
3.992
4.004
4.040
4.059
4.069
4.052
4.025
4.053
4.070
4.106
4.080
4.110
4.118
4.141
4.141
4.172
4.132
4.153
4.178
4.183
4.195
4.204
4.214
4.190
4.193
4.186
4.173
4.141
4.174
4.201
4.166
4.207
4.210
4.219
4.223
4.197
4.230
4.212
4.237
4.240
4.274
4.265
4.278
4.264
4.270
4.273
4.242
4.249
4.241
4.271
4.243
4.235
4.266
4.263
4.265
4.280
4.271
4.262
4.270
4.307
4.296
4.288
4.294
4.342
4.299
4.304
4.294
4.300
4.291
4.282
4.283
4.332
4.317
4.318
4.294
4.310
4.341
4.357
4.353
4.324
4.315
4.326
4.343
4.341
4.330
4.325
4.329
4.328
4.369
4.386
4.397
4.385
4.352
4.338
4.341
4.378
4.396
4.392
4.388
4.412
4.386
4.396
4.367
4.384
4.355
4.327
4.311
4.327
4.326
4.330
4.329
4.363
4.370
4.363
4.357
4.340
4.318
4.318
4.316
4.334
4.328
4.360
4.386
4.387
4.381
4.348
4.338
4.339
4.329
4.311
4.319
4.332
4.338
4.367
4.383
4.394
4.372
4.360
4.373
4.374
4.362
4.342
4.347
4.352
4.346
4.333
4.342
4.369
4.395
4.392
4.419
4.394
4.404
4.412
4.396
4.385
4.393
4.377
4.363
4.375
4.360
4.368
4.379
4.386
4.377
4.399
4.423
4.447
4.445
4.437
4.438
4.443
4.416
4.413
4.415
4.399
4.404
4.399
4.378
4.368
4.350
4.337
4.339
4.344
4.365
4.387
4.408
4.422
4.446
4.434
4.430
4.423
4.425
4.418
4.407
4.391
4.398
4.403
4.380
4.377
4.391
4.403
4.419
4.398
4.389
4.399
4.384
4.382
4.399
4.399
4.386
4.394
4.413
4.432
4.451
4.470
4.476
4.461
4.446
4.432
4.440
4.424
4.411
4.395
4.395
4.384
4.373
4.368
4.378
4.388
4.383
4.382
4.370
4.374
4.369
4.353
4.339
4.357
4.364
4.353
4.351
4.346
4.359
4.376
4.393
4.410
4.427
4.443
4.460
4.477
4.471
4.464
4.460
4.462
4.444
4.423
4.424
4.423
4.426
4.418
4.404
4.420
4.408
4.400
4.394
4.413
4.418
4.406
4.395
4.397
4.402
4.408
4.416
4.407
4.386
4.373
4.362
4.368
4.347
4.343
4.345
4.335
4.329
4.330
4.337
4.350
4.364
4.378
4.392
4.407
4.421
4.435
4.450
4.464
4.478
4.493
4.484
4.469
4.458
4.452
4.456
4.459
4.454
4.462
4.458
4.446
4.441
4.437
4.437
4.421
4.412
4.414
4.410
4.418
4.417
4.429
4.431
4.409
4.399
4.394
4.393
4.405
4.407
4.399
4.413
4.426
4.424
4.437
4.446
4.435
4.424
4.420
4.400
4.403
4.406
4.401
4.388
4.382
4.395
4.374
4.366
4.375
4.388
4.395
4.387
4.392
4.393
4.405
4.417
4.400
4.399
4.409
4.421
4.433
4.445
4.456
4.468
4.480
4.492
4.504
4.506
4.495
4.485
4.474
4.463
4.452
4.465
4.444
4.420
4.430
4.438
4.445
4.444
4.451
4.450
4.440
4.441
4.437
4.440
4.431
4.442
4.437
4.452
4.447
4.427
4.425
4.438
4.418
4.425
4.426
4.412
4.405
4.389
4.390
4.386
4.388
4.399
4.383
4.404
4.390
4.392
4.369
4.369
4.373
4.374
4.365
4.368
4.356
4.367
4.371
4.365
4.354
4.354
4.368
4.364
4.371
4.361
4.358
4.361
4.344
4.343
4.357
4.372
4.386
4.401
4.415
4.402
4.417
4.413
4.406
4.403
4.394
4.381
4.384
4.398
4.386
4.377
4.379
4.395
4.389
4.398
4.396
4.402
4.401
4.411
4.420
4.430
4.439
4.449
4.458
4.468
4.477
4.487
4.496
4.496
4.489
4.484
4.476
4.473
4.486
4.482
4.471
4.471
4.478
4.485
4.470
4.486
4.476
4.466
4.460
4.462
4.456
4.451
4.453
4.455
4.455
4.436
4.436
4.433
4.433
4.427
4.428
4.446
4.457
4.458
4.463
4.459
4.460
4.448
4.444
4.446
4.449
4.451
4.457
4.453
4.441
4.435
4.434
4.425
4.441
4.441
4.437
4.448
4.460
4.473
4.481
4.489
4.491
4.481
4.472
4.457
4.445
4.442
4.441
4.442
4.451
4.438
4.435
4.438
4.441
4.445
4.449
4.450
4.436
4.423
4.412
4.418
4.415
4.404
4.399
4.401
4.394
4.406
4.401
4.408
4.403
4.404
4.400
4.401
4.410
4.405
4.397
4.389
4.380
4.382
4.379
4.375
4.367
4.363
4.376
4.389
4.386
4.385
4.388
4.400
4.395
4.391
4.394
4.391
4.384
4.383
4.375
4.369
4.379
4.379
4.370
4.381
4.375
4.378
4.367
4.356
4.349
4.339
4.334
4.343
4.350
4.352
4.342
4.345
4.343
4.336
4.336
4.330
4.324
4.316
4.315
4.320
4.327
4.334
4.341
4.348
4.355
4.363
4.370
4.377
4.384
4.391
4.398
4.405
4.412
4.420
4.427
4.434
4.441
4.448
4.455
4.462
4.470
4.477
4.484
4.491
4.498
4.505
4.512
4.520
4.527
4.534
4.541
4.548
4.555
4.563
4.561
4.552
4.552
4.546
4.537
4.531
4.531
4.537
4.532
4.529
4.526
4.529
4.526
4.515
4.507
4.497
4.500
4.494
4.498
4.496
4.485
4.476
4.485
4.472
4.472
4.472
4.470
4.467
4.466
4.455
4.457
4.465
4.477
4.488
4.499
4.491
4.495
4.498
4.494
4.489
4.480
4.482
4.488
4.478
4.477
4.471
4.484
4.487
4.473
4.476
4.480
4.486
4.489
4.494
4.483
4.477
4.486
4.494
4.492
4.497
4.484
4.480
4.475
4.465
4.467
4.469
4.469
4.463
4.459
4.454
4.457
4.448
4.443
4.434
4.440
4.441
4.444
4.441
4.440
4.443
4.441
4.428
4.426
4.430
4.429
4.419
4.422
4.417
4.407
4.408
4.410
4.411
4.406
4.396
4.408
4.405
4.402
4.413
4.407
4.411
4.408
4.401
4.402
4.401
4.406
4.406
4.398
4.407
4.400
4.393
4.385
4.379
4.372
4.365
4.358
4.357
4.364
4.355
4.348
4.350
4.352
4.357
4.367
4.368
4.364
4.361
4.358
4.353
4.365
4.362
4.359
4.356
4.360
4.369
4.377
4.385
4.393
4.401
4.410
4.418
4.426
4.432
4.430
4.427
4.421
4.409
4.418
4.424
4.415
4.418
4.423
4.433
4.427
4.425
4.417
4.414
4.404
4.398
4.409
4.419
4.418
4.420
4.431
4.439
4.446
4.448
4.433
4.435
4.442
4.432
4.430
4.431
4.425
4.416
4.407
4.406
4.393
4.391
4.396
4.392
4.389
4.388
4.383
4.392
4.387
4.390
4.393
4.391
4.390
4.381
4.384
4.371
4.359
4.364
4.371
4.379
4.369
4.383
4.386
4.387
4.383
4.381
4.379
4.385
4.376
4.386
4.376
4.384
4.373
4.376
4.371
4.371
4.372
4.362
4.363
4.372
4.373
4.372
4.376
4.379
4.381
4.389
4.391
4.393
4.390
4.383
4.378
4.375
4.368
4.365
4.352
4.355
4.357
4.351
4.347
4.349
4.343
4.346
4.359
4.358
4.349
4.358
4.354
4.356
4.362
4.361
4.365
4.355
4.355
4.355
4.348
4.347
4.350
4.355
4.349
4.341
4.342
4.344
4.349
4.349
4.340
4.341
4.349
4.342
4.347
4.347
4.355
4.364
4.359
4.361
4.369
4.371
4.375
4.376
4.369
4.368
4.366
4.370
4.378
4.378
4.376
4.381
4.386
4.391
4.395
4.400
4.405
4.410
4.414
4.419
4.424
4.429
4.433
4.438
4.443
4.448
4.452
4.457
4.462
4.467
4.471
4.476
4.481
4.486
4.490
4.495
4.500
4.505
4.509
4.514
4.519
4.524
4.528
4.533
4.538
4.533
4.528
4.519
4.509
4.509
4.516
4.529
4.515
4.502
4.507
4.506
4.503
4.493
4.496
4.504
4.513
4.517
4.527
4.524
4.522
4.522
4.523
4.523
4.522
4.515
4.514
4.517
4.514
4.516
4.515
4.507
4.503
4.494
4.507
4.494
4.496
4.500
4.498
4.492
4.494
4.504
4.497
4.493
4.504
4.496
4.492
4.492
