2.994
3.334
3.510
3.628
3.715
3.790
3.840
3.878
3.939
3.957
4.005
4.003
4.041
4.073
4.107
4.073
4.101
4.122
4.145
4.163
4.188
4.201
4.218
4.239
4.252
4.259
4.222
4.196
4.203
4.210
4.225
4.229
4.241
4.248
4.258
4.261
4.274
4.275
4.282
4.294
4.293
4.303
4.310
4.321
4.320
4.329
4.336
4.344
4.340
4.347
4.353
4.363
4.369
4.363
4.370
4.377
4.383
4.393
4.397
4.406
4.391
4.398
4.407
4.409
4.418
4.417
4.424
4.433
4.433
4.423
4.430
4.437
4.436
4.445
4.451
4.450
4.455
4.464
4.468
4.466
4.471
4.459
4.468
4.467
4.468
4.473
4.477
4.486
4.485
4.488
4.493
4.497
4.503
4.502
4.509
4.507
4.512
4.516
4.510
4.503
4.504
4.508
4.506
4.511
4.514
4.519
4.521
4.525
4.531
4.529
4.526
4.538
4.533
4.540
4.540
4.549
4.545
4.554
4.547
4.555
4.556
4.555
4.561
4.566
4.566
4.571
4.573
4.565
4.551
4.552
4.553
4.555
4.558
4.554
4.559
4.560
4.564
4.568
4.572
4.574
4.577
4.579
4.581
4.579
4.577
4.584
4.581
4.585
4.586
4.587
4.588
4.596
4.600
4.604
4.599
4.603
4.600
4.606
4.613
4.601
4.605
4.609
4.608
4.609
4.613
4.614
4.611
4.618
4.622
4.623
4.629
4.629
4.632
4.626
4.633
4.636
4.638
4.640
4.640
4.639
4.638
4.642
4.636
4.642
4.632
4.623
4.613
4.607
4.616
4.609
4.618
4.617
4.624
4.623
4.625
4.628
4.630
4.634
4.636
4.633
4.627
4.637
4.635
4.639
4.638
4.642
4.640
4.650
4.646
4.637
4.635
4.645
4.643
4.645
4.640
4.640
4.636
4.645
4.649
4.644
4.649
4.648
4.655
4.648
4.655
4.659
4.654
4.662
4.660
4.662
4.666
4.666
4.673
4.664
4.666
4.667
4.666
4.669
4.666
4.669
4.677
4.677
4.674
4.686
4.685
4.680
4.688
4.678
4.673
4.673
4.671
4.681
4.676
4.678
4.687
4.678
4.674
4.681
4.677
4.677
4.685
4.684
4.685
4.689
4.690
4.688
4.687
4.691
4.695
4.689
4.701
4.699
4.701
4.697
4.709
4.711
4.704
4.707
4.707
4.707
4.704
4.707
4.704
4.702
4.706
4.713
4.712
4.711
4.714
4.716
4.720
4.714
4.718
4.724
4.720
4.721
4.721
4.729
4.726
4.724
4.723
4.735
4.733
4.727
4.720
4.718
4.721
4.721
4.718
4.727
4.728
4.727
4.725
4.730
4.728
4.724
4.723
4.724
4.731
4.727
4.720
4.722
4.729
4.730
4.734
4.732
4.729
4.735
4.740
4.736
4.736
4.732
4.739
4.752
4.753
4.743
4.744
4.740
4.753
4.749
4.753
4.749
4.748
4.752
4.756
4.754
4.751
4.746
4.740
4.735
4.729
4.724
4.726
4.724
4.726
4.722
4.715
4.721
4.729
4.724
4.717
4.710
4.714
4.724
4.723
4.724
4.725
4.722
4.721
4.729
4.734
4.727
4.731
4.727
4.726
4.727
4.737
4.732
4.728
4.722
4.725
4.722
4.734
4.738
4.740
4.738
4.733
4.732
4.731
4.740
4.742
4.744
4.744
4.744
4.742
4.736
4.744
4.754
4.762
4.760
4.753
4.747
4.740
4.735
4.734
4.735
4.734
4.732
4.729
4.729
4.739
4.744
4.745
4.741
4.737
4.735
4.731
4.733
4.731
4.727
4.728
4.725
4.723
4.727
4.726
4.735
4.745
4.741
4.739
4.735
4.734
4.727
4.725
4.736
4.742
4.740
4.736
4.740
4.739
4.738
4.737
4.736
4.742
4.749
4.750
4.752
4.751
4.749
4.747
4.747
4.753
4.746
4.755
4.758
4.751
4.755
4.761
4.757
4.748
4.741
4.745
4.755
4.755
4.754
4.753
4.752
4.748
4.751
4.753
4.751
4.750
4.760
4.766
4.765
4.762
4.763
4.761
4.754
4.755
4.758
4.758
4.762
4.770
4.774
4.773
4.768
4.773
4.771
4.775
4.774
4.770
4.766
4.769
4.776
4.783
4.776
4.770
4.763
4.767
4.766
4.758
4.755
4.761
4.768
4.777
4.771
4.775
4.774
4.769
4.771
4.772
4.765
4.766
4.765
4.766
4.776
4.773
4.774
4.764
4.765
4.772
4.770
4.769
4.768
4.764
4.768
4.770
4.777
4.786
4.788
4.784
4.781
4.778
4.779
4.780
4.782
4.783
4.779
4.777
4.776
4.784
4.792
4.789
4.787
4.784
4.785
4.780
4.774
4.778
4.779
4.778
4.779
4.780
4.785
4.792
4.799
4.799
4.798
4.800
4.793
4.795
4.798
4.794
4.792
4.794
4.792
4.791
4.793
4.797
4.804
4.813
4.815
4.810
4.807
4.807
4.804
4.802
4.798
4.802
4.804
4.800
4.801
4.795
4.803
4.810
4.810
4.808
4.809
4.810
4.804
4.800
4.795
4.792
4.787
4.783
4.779
4.786
4.792
4.791
4.793
4.789
4.787
4.786
4.784
4.788
4.788
4.788
4.784
4.780
4.782
4.780
4.781
4.788
4.795
4.795
4.796
4.791
4.785
4.780
4.774
4.775
4.773
4.770
4.774
4.772
4.770
4.769
4.776
4.783
4.790
4.792
4.795
4.792
4.793
4.789
4.793
4.786
4.784
4.784
4.787
4.783
4.781
4.781
4.782
4.780
4.781
4.786
4.793
4.800
4.803
4.803
4.801
4.802
4.798
4.794
4.795
4.794
4.798
4.802
4.804
4.802
4.796
4.789
4.785
4.784
4.790
4.799
4.804
4.807
4.801
4.802
4.796
4.799
4.799
4.799
4.799
4.797
4.796
4.792
4.793
4.788
4.785
4.783
4.784
4.786
4.793
4.799
4.803
4.797
4.799
4.797
4.798
4.797
4.793
4.797
4.796
4.795
4.795
4.795
4.793
4.795
4.795
4.794
4.788
4.791
4.793
4.794
4.801
4.808
4.812
4.818
4.817
4.816
4.812
4.807
4.806
4.811
4.814
4.813
4.807
4.810
4.810
4.811
4.810
4.810
4.810
4.810
4.814
4.811
4.806
4.807
4.812
4.818
4.821
4.818
4.821
4.819
4.821
4.822
4.823
4.818
4.812
4.813
4.809
4.808
4.809
4.803
4.803
4.802
4.807
4.811
4.806
4.803
4.806
4.808
4.815
4.819
4.826
4.827
4.829
4.824
4.821
4.822
4.826
4.825
4.826
4.827
4.828
4.832
4.826
4.824
4.825
4.822
4.821
4.819
4.825
4.824
4.825
4.822
4.817
4.816
4.818
4.825
4.831
4.838
4.842
4.846
4.845
4.840
4.842
4.841
4.842
4.841
4.839
4.840
4.834
4.838
4.836
4.830
4.831
4.835
4.833
4.830
4.831
4.829
4.828
4.827
4.829
4.829
4.825
4.829
4.833
4.829
4.826
4.822
4.821
4.824
4.821
4.822
4.821
4.818
4.815
4.813
4.812
4.818
4.815
4.814
4.815
4.816
4.814
4.814
4.817
4.814
4.818
4.818
4.815
4.813
4.818
4.824
4.831
4.835
4.839
4.836
4.833
4.827
4.826
4.825
4.825
4.819
4.817
4.818
4.818
4.824
4.823
4.819
4.818
4.819
4.818
4.816
4.812
4.811
4.812
4.811
4.810
4.811
4.810
4.808
4.812
4.818
4.823
4.827
4.833
4.838
4.839
4.844
4.848
4.849
4.844
4.844
4.840
4.840
4.842
4.841
4.842
4.841
4.839
4.833
4.829
4.832
4.828
4.829
4.826
4.825
4.828
4.827
4.829
4.827
4.823
4.822
4.821
4.819
4.820
4.824
4.826
4.832
4.836
4.841
4.845
4.851
4.848
4.846
4.850
4.849
4.845
4.844
4.842
4.847
4.847
4.852
4.851
4.854
4.851
4.846
4.844
4.847
4.848
4.851
4.847
4.846
4.845
4.844
4.840
4.835
4.834
4.836
4.833
4.830
4.836
4.833
4.834
4.836
4.839
4.840
4.845
4.849
4.855
4.858
4.864
4.870
4.864
4.865
4.861
4.860
4.861
4.865
4.862
4.860
4.858
4.862
4.864
4.863
4.862
4.865
4.866
4.862
4.867
4.865
4.862
4.860
4.859
4.855
4.858
4.857
4.856
4.852
4.853
4.851
4.848
4.852
4.851
4.849
4.845
4.843
4.848
4.854
4.858
4.862
4.866
4.871
4.873
4.870
4.872
4.873
4.875
4.876
4.878
4.873
4.872
4.871
4.870
