2.992
3.334
3.508
3.632
3.711
3.778
3.845
3.886
3.912
3.970
3.971
4.014
4.048
4.086
4.054
4.077
4.105
4.127
4.147
4.171
4.194
4.208
4.227
4.245
4.208
4.171
4.180
4.190
4.201
4.211
4.215
4.233
4.234
4.249
4.256
4.261
4.270
4.271
4.283
4.293
4.294
4.299
4.308
4.321
4.316
4.323
4.333
4.343
4.349
4.343
4.350
4.354
4.366
4.370
4.380
4.371
4.377
4.384
4.386
4.398
4.401
4.405
4.412
4.403
4.407
4.414
4.416
4.419
4.429
4.430
4.435
4.441
4.446
4.452
4.443
4.442
4.448
4.447
4.453
4.453
4.465
4.468
4.465
4.469
4.479
4.482
4.489
4.483
4.492
4.497
4.495
4.485
4.483
4.488
4.487
4.486
4.494
4.504
4.506
4.504
4.508
4.507
4.512
4.513
4.520
4.526
4.525
4.534
4.534
4.534
4.533
4.538
4.539
4.546
4.552
4.554
4.555
4.545
4.534
4.532
4.536
4.537
4.533
4.540
4.545
4.549
4.552
4.556
4.550
4.554
4.561
4.556
4.558
4.564
4.560
4.567
4.569
4.570
4.572
4.573
4.579
4.578
4.582
4.583
4.591
4.595
4.585
4.589
4.588
4.590
4.591
4.590
4.596
4.601
4.599
4.608
4.612
4.611
4.613
4.611
4.618
4.617
4.623
4.622
4.624
4.614
4.618
4.627
4.624
4.617
4.605
4.595
4.594
4.594
4.596
4.601
4.602
4.611
4.604
4.606
4.612
4.614
4.618
4.606
4.618
4.616
4.615
4.619
4.621
4.623
4.631
4.628
4.616
4.627
4.624
4.623
4.620
4.622
4.621
4.628
4.626
4.634
4.631
4.634
4.632
4.634
4.638
4.634
4.643
4.642
4.648
4.649
4.645
4.650
4.646
4.649
4.648
4.650
4.651
4.652
4.662
4.657
4.659
4.668
4.660
4.668
4.667
4.655
4.656
4.653
4.659
4.660
4.660
4.666
4.654
4.660
4.660
4.660
4.662
4.669
4.667
4.668
4.671
4.668
4.668
4.679
4.675
4.671
4.684
4.683
4.679
4.685
4.692
4.685
4.684
4.691
4.687
4.691
4.687
4.688
4.679
4.691
4.698
4.694
4.692
4.702
4.700
4.699
4.695
4.708
4.708
4.708
4.703
4.712
4.709
4.707
4.709
4.713
4.709
4.701
4.706
4.705
4.698
4.699
4.712
4.715
4.714
4.712
4.709
4.708
4.706
4.705
4.711
4.708
4.708
4.704
4.709
4.720
4.717
4.715
4.712
4.718
4.725
4.724
4.722
4.724
4.727
4.732
4.727
4.729
4.723
4.734
4.736
4.737
4.739
4.729
4.736
4.740
4.734
4.729
4.722
4.718
4.712
4.705
4.706
4.708
4.703
4.702
4.700
4.705
4.697
4.696
4.697
4.696
4.700
4.712
4.708
4.710
4.709
4.704
4.706
4.715
4.719
4.718
4.711
4.708
4.709
4.715
4.711
4.716
4.711
4.715
4.714
4.723
4.722
4.718
4.719
4.718
4.717
4.723
4.733
4.732
4.733
4.731
4.730
4.735
4.731
4.735
4.728
4.723
4.716
4.710
4.722
4.721
4.717
4.716
4.719
4.721
4.716
4.724
4.723
4.718
4.717
4.712
4.705
4.710
4.722
4.716
4.716
4.718
4.717
4.718
4.712
4.720
4.722
4.718
4.717
4.716
4.714
4.710
4.714
4.723
4.730
4.727
4.730
4.724
4.723
4.726
4.725
4.726
4.736
4.745
4.738
4.732
4.731
4.731
4.728
4.732
4.734
4.738
4.738
4.740
4.738
4.732
4.725
4.729
4.728
4.737
4.744
4.745
4.750
4.742
4.742
4.737
4.733
4.738
4.739
4.748
4.749
4.753
4.745
4.748
4.745
4.749
4.747
4.745
4.745
4.757
4.766
4.767
4.761
4.757
4.752
4.757
4.753
4.748
4.749
4.751
4.749
4.754
4.753
4.754
4.750
4.749
4.744
4.746
4.747
4.754
4.763
4.754
4.749
4.748
4.750
4.749
4.742
4.743
4.739
4.749
4.758
4.764
4.766
4.767
4.761
4.760
4.760
4.757
4.757
4.754
4.755
4.757
4.768
4.775
4.769
4.768
4.774
4.778
4.769
4.762
4.753
4.754
4.757
4.760
4.769
4.778
4.775
4.778
4.772
4.776
4.772
4.776
4.774
4.771
4.772
4.770
4.768
4.776
4.783
4.792
4.793
4.792
4.793
4.797
4.791
4.786
4.779
4.783
4.785
4.781
4.777
4.786
4.793
4.792
4.790
4.789
4.793
4.789
4.786
4.784
4.782
4.784
4.783
4.783
4.780
4.776
4.777
4.773
4.764
4.767
4.763
4.767
4.763
4.765
4.764
4.765
4.763
4.767
4.775
4.778
4.775
4.781
4.779
4.776
4.775
4.775
4.771
4.768
4.761
4.757
4.752
4.759
4.766
4.770
4.768
4.770
4.764
4.767
4.768
4.773
4.772
4.768
4.768
4.768
4.761
4.759
4.758
4.760
4.768
4.775
4.782
4.778
4.777
4.776
4.775
4.778
4.775
4.775
4.772
4.778
4.777
4.778
4.777
4.778
4.774
4.773
4.777
4.783
4.791
4.786
4.783
4.790
4.786
4.784
4.780
4.775
4.774
4.773
4.769
4.775
4.774
4.776
4.774
4.773
4.777
4.784
4.791
4.790
4.786
4.783
4.777
4.771
4.775
4.781
4.779
4.775
4.769
4.770
4.771
4.768
4.766
4.767
4.771
4.778
4.785
4.792
4.799
4.800
4.796
4.794
4.793
4.789
4.788
4.792
4.788
4.786
4.785
4.790
4.791
4.784
4.786
4.789
4.790
4.794
4.786
4.792
4.797
4.805
4.807
4.800
4.804
4.805
4.802
4.800
4.799
4.795
4.799
4.800
4.797
4.795
4.793
4.787
4.785
4.792
4.785
4.783
4.788
4.795
4.801
4.808
4.805
4.806
4.805
4.805
4.804
4.806
4.802
4.801
4.805
4.805
4.810
4.806
4.805
4.800
4.801
4.798
4.804
4.801
4.802
4.800
4.796
4.803
4.808
4.814
4.821
4.828
4.832
4.830
4.829
4.828
4.826
4.825
4.820
4.816
4.813
4.814
4.815
4.816
4.815
4.822
4.820
4.817
4.812
4.806
4.807
4.805
4.810
4.812
4.818
4.823
4.821
4.817
4.816
4.819
4.820
4.816
4.812
4.808
4.802
4.798
4.793
4.797
4.791
4.794
4.790
4.789
4.793
4.792
4.797
4.797
4.796
4.797
4.804
4.809
4.815
4.820
4.824
4.823
4.823
4.823
4.821
4.816
4.816
4.814
4.808
4.803
4.804
4.798
4.796
4.800
4.804
4.809
4.802
4.798
4.793
4.789
4.788
4.787
4.790
4.795
4.801
4.806
4.812
4.819
4.815
4.817
4.823
4.827
4.827
4.822
4.821
4.820
4.818
4.817
4.820
4.819
4.821
4.819
4.816
4.816
4.818
4.817
4.815
4.812
4.812
4.811
4.813
4.806
4.804
4.801
4.801
4.805
4.810
4.816
4.821
4.827
4.827
4.830
4.827
4.822
4.826
4.825
4.824
4.822
4.826
4.827
4.827
4.828
4.826
4.827
4.824
4.822
4.827
4.828
4.826
4.827
4.827
4.823
4.829
4.827
4.824
4.820
4.818
4.816
4.818
4.816
4.816
4.822
4.827
4.831
4.837
4.844
4.849
4.844
4.846
4.842
4.842
4.839
4.838
4.841
4.837
4.833
4.837
4.841
4.843
4.841
4.838
4.839
4.843
4.845
4.848
4.849
4.845
4.845
4.843
4.842
4.838
4.836
4.835
4.833
4.831
4.833
4.831
4.833
4.829
4.834
4.840
4.844
4.849
4.853
4.853
4.853
4.854
4.857
4.859
4.860
4.857
4.853
4.848
4.847
4.846
4.845
4.845
4.849
4.853
4.853
4.848
4.845
4.846
4.842
4.838
4.834
4.829
4.827
4.823
4.825
4.821
4.820
4.824
4.823
4.821
4.822
4.826
4.830
4.834
4.838
4.843
4.849
4.854
4.852
4.848
4.849
4.854
4.853
4.851
4.847
4.845
4.842
4.843
4.842
4.846
4.849
4.849
4.847
4.846
4.845
4.848
4.849
4.845
4.839
4.837
4.838
4.834
4.834
4.834
4.836
4.835
4.834
4.834
4.834
4.835
4.838
4.835
4.836
4.834
4.838
4.842
4.841
4.842
4.847
4.851
4.857
4.860
4.864
4.868
4.869
4.865
4.864
4.864
4.871
4.873
4.874
4.868
4.866
4.865
4.861
4.862
4.863
4.864
4.860
4.864
4.863
