2.991
3.335
3.507
3.625
3.727
3.775
3.821
3.900
3.910
3.963
3.978
3.985
4.021
4.049
4.078
4.107
4.136
4.158
4.103
4.083
4.104
4.118
4.127
4.136
4.161
4.166
4.180
4.185
4.200
4.201
4.219
4.232
4.229
4.243
4.253
4.250
4.259
4.275
4.285
4.285
4.287
4.293
4.308
4.314
4.320
4.313
4.324
4.327
4.336
4.341
4.355
4.353
4.361
4.354
4.360
4.363
4.371
4.378
4.377
4.388
4.393
4.396
4.400
4.413
4.409
4.397
4.397
4.405
4.411
4.416
4.423
4.421
4.426
4.434
4.442
4.447
4.445
4.455
4.454
4.458
4.467
4.470
4.478
4.463
4.445
4.449
4.453
4.458
4.463
4.466
4.469
4.478
4.470
4.476
4.474
4.481
4.491
4.492
4.492
4.495
4.504
4.512
4.507
4.500
4.507
4.508
4.514
4.519
4.523
4.527
4.530
4.532
4.534
4.535
4.542
4.543
4.536
4.546
4.536
4.540
4.534
4.518
4.515
4.525
4.521
4.533
4.529
4.530
4.532
4.535
4.537
4.537
4.544
4.549
4.545
4.541
4.541
4.543
4.540
4.546
4.546
4.550
4.554
4.551
4.562
4.558
4.562
4.569
4.573
4.567
4.560
4.569
4.568
4.578
4.575
4.588
4.580
4.586
4.586
4.575
4.581
4.582
4.589
4.574
4.588
4.581
4.588
4.586
4.585
4.588
4.586
4.600
4.599
4.603
4.610
4.604
4.614
4.606
4.614
4.613
4.604
4.616
4.607
4.618
4.620
4.615
4.626
4.627
4.627
4.631
4.628
4.633
4.635
4.637
4.632
4.626
4.620
4.634
4.640
4.631
4.636
4.631
4.627
4.634
4.628
4.633
4.635
4.640
4.634
4.633
4.652
4.651
4.650
4.647
4.656
4.648
4.651
4.660
4.662
4.655
4.653
4.668
4.669
4.666
4.659
4.658
4.649
4.641
4.633
4.627
4.626
4.631
4.625
4.626
4.627
4.636
4.638
4.633
4.630
4.638
4.628
4.634
4.630
4.640
4.645
4.642
4.634
4.639
4.651
4.654
4.653
4.651
4.655
4.659
4.659
4.658
4.656
4.650
4.646
4.638
4.642
4.640
4.647
4.644
4.643
4.638
4.641
4.642
4.645
4.641
4.640
4.635
4.640
4.644
4.640
4.635
4.637
4.641
4.648
4.649
4.656
4.646
4.650
4.652
4.653
4.659
4.654
4.661
4.659
4.654
4.656
4.665
4.666
4.654
4.652
4.652
4.658
4.665
4.669
4.666
4.667
4.663
4.659
4.660
4.672
4.678
4.679
4.677
4.683
4.679
4.676
4.675
4.689
4.696
4.691
4.686
4.675
4.664
4.673
4.680
4.679
4.681
4.675
4.672
4.672
4.674
4.680
4.678
4.683
4.675
4.678
4.680
4.681
4.670
4.682
4.693
4.697
4.696
4.693
4.692
4.691
4.687
4.684
4.693
4.692
4.691
4.693
4.691
4.694
4.689
4.685
4.689
4.697
4.710
4.710
4.709
4.706
4.712
4.713
4.712
4.709
4.701
4.709
4.720
4.721
4.721
4.724
4.718
4.716
4.705
4.702
4.702
4.714
4.726
4.727
4.721
4.724
4.717
4.709
4.702
4.695
4.700
4.702
4.702
4.697
4.694
4.694
4.696
4.695
4.694
4.694
4.692
4.700
4.694
4.692
4.687
4.692
4.689
4.687
4.685
4.689
4.688
4.689
4.700
4.705
4.702
4.699
4.702
4.701
4.700
4.696
4.698
4.697
4.695
4.696
4.701
4.712
4.715
4.710
4.713
4.707
4.703
4.702
4.699
4.701
4.697
4.696
4.693
4.704
4.715
4.710
4.714
4.711
4.701
4.698
4.698
4.697
4.692
4.698
4.698
4.693
4.699
4.710
4.720
4.724
4.721
4.717
4.714
4.719
4.714
4.718
4.712
4.713
4.713
4.715
4.708
4.710
4.717
4.727
4.737
4.735
4.733
4.721
4.723
4.721
4.722
4.723
4.729
4.724
4.716
4.707
4.708
4.713
4.723
4.732
4.737
4.737
4.732
4.734
4.731
4.735
4.736
4.730
4.730
4.729
4.723
4.728
4.729
4.731
4.733
4.728
4.738
4.747
4.757
4.758
4.750
4.748
4.744
4.749
4.755
4.753
4.749
4.744
4.739
4.735
4.735
4.732
4.732
4.737
4.741
4.750
4.754
4.753
4.751
4.750
4.749
4.743
4.736
4.730
4.729
4.723
4.723
4.724
4.728
4.725
4.721
4.723
4.732
4.741
4.748
4.744
4.745
4.746
4.739
4.738
4.736
4.731
4.729
4.728
4.719
4.719
4.720
4.721
4.726
4.721
4.721
4.725
4.729
4.738
4.746
4.755
4.754
4.751
4.755
4.758
4.752
4.753
4.752
4.751
4.745
4.741
4.738
4.734
4.735
4.733
4.736
4.735
4.734
4.728
4.729
4.737
4.745
4.754
4.762
4.766
4.762
4.769
4.766
4.767
4.766
4.767
4.767
4.762
4.760
4.754
4.753
4.750
4.756
4.752
4.748
4.748
4.747
4.748
4.744
4.750
4.746
4.754
4.762
4.770
4.776
4.779
4.785
4.785
4.780
4.782
4.788
4.784
4.780
4.778
4.774
4.773
4.764
4.766
4.772
4.767
4.769
4.772
4.770
4.764
4.760
4.759
4.756
4.758
4.761
4.769
4.776
4.784
4.791
4.791
4.787
4.787
4.782
4.777
4.776
4.776
4.769
4.763
4.760
4.770
4.766
4.767
4.764
4.759
4.755
4.751
4.753
4.750
4.749
4.750
4.753
4.750
4.758
4.765
4.772
4.779
4.785
4.793
4.789
4.784
4.785
4.783
4.781
4.777
4.781
4.783
4.782
4.776
4.776
4.777
4.774
4.772
4.771
4.775
4.777
4.779
4.780
4.776
4.776
4.774
4.774
4.774
4.773
4.773
4.770
4.770
4.777
4.784
4.791
4.798
4.805
4.809
4.809
4.809
4.812
4.810
4.801
4.807
4.807
4.805
4.805
4.807
4.807
4.810
4.813
4.811
4.815
4.816
4.809
4.801
4.796
4.791
4.796
4.788
4.782
4.780
4.786
4.787
4.792
4.793
4.789
4.788
4.789
4.794
4.801
4.808
4.814
4.819
4.816
4.812
4.808
4.804
4.800
4.797
4.793
4.789
4.786
4.782
4.781
4.788
4.782
4.776
4.769
4.766
4.764
4.761
4.763
4.761
4.764
4.762
4.759
4.765
4.762
4.763
4.767
4.762
4.762
4.768
4.774
4.781
4.787
4.793
4.799
4.796
4.791
4.787
4.782
4.778
4.775
4.770
4.771
4.772
4.779
4.772
4.769
4.768
4.767
4.771
4.769
4.774
4.772
4.769
4.765
4.762
4.767
4.764
4.769
4.771
4.775
4.774
4.769
4.767
4.764
4.760
4.758
4.758
4.757
4.759
4.761
4.767
4.773
4.779
4.785
4.788
4.784
4.784
4.783
4.784
4.783
4.779
4.775
4.774
4.771
4.778
4.783
4.784
4.790
4.791
4.786
4.786
4.787
4.786
4.780
4.779
4.778
4.780
4.780
4.782
4.780
4.779
4.776
4.777
4.775
4.772
4.771
4.767
4.770
4.767
4.764
4.763
4.762
4.766
4.771
4.774
4.778
4.775
4.773
4.772
4.777
4.783
4.789
4.794
4.794
4.789
4.785
4.788
4.784
4.782
4.781
4.784
4.781
4.781
4.780
4.780
4.774
4.774
4.773
4.767
4.770
4.768
4.769
4.770
4.766
4.763
4.771
4.778
4.778
4.774
4.771
4.767
4.765
4.768
4.762
4.763
4.766
4.767
4.765
4.764
4.760
4.761
4.763
4.762
4.763
4.766
4.761
4.761
4.764
4.762
4.765
4.766
4.771
4.777
4.782
4.787
4.792
4.798
4.803
4.807
4.807
4.805
4.803
4.798
4.796
4.797
4.791
4.794
4.798
4.798
4.797
4.792
4.798
4.797
4.795
4.790
4.784
4.779
4.774
4.769
4.764
4.765
4.766
4.766
4.762
4.767
4.763
4.765
4.762
4.764
4.763
4.759
4.767
4.765
4.764
4.765
4.770
4.777
4.778
4.774
4.773
4.773
4.775
4.773
4.773
4.774
4.770
4.772
4.766
4.762
4.763
4.766
4.771
4.776
4.780
4.785
4.790
4.795
4.800
4.802
4.801
4.804
4.806
4.803
4.801
4.805
4.807
4.805
4.809
4.808
4.807
4.806
4.806
4.802
4.799
4.796
4.793
4.792
4.790
4.794
4.801
4.807
4.810
4.810
4.807
4.803
4.796
4.795
4.794
4.789
4.784
4.778
4.776
