2.984
3.317
3.501
3.614
3.694
3.713
3.795
3.869
3.928
3.830
3.877
3.893
3.927
3.956
3.973
4.001
4.015
4.048
4.053
4.076
4.071
4.094
4.115
4.114
4.127
4.147
4.150
4.175
4.165
4.166
4.178
4.202
4.221
4.217
4.236
4.239
4.235
4.233
4.241
4.241
4.257
4.262
4.269
4.277
4.288
4.297
4.302
4.307
4.331
4.309
4.334
4.333
4.308
4.306
4.316
4.328
4.328
4.315
4.322
4.320
4.336
4.350
4.350
4.362
4.367
4.368
4.381
4.364
4.368
4.362
4.379
4.388
4.387
4.382
4.391
4.403
4.417
4.406
4.411
4.422
4.426
4.428
4.426
4.413
4.414
4.425
4.439
4.430
4.450
4.445
4.457
4.452
4.461
4.462
4.469
4.466
4.462
4.442
4.428
4.424
4.427
4.437
4.435
4.450
4.438
4.456
4.461
4.444
4.440
4.432
4.427
4.417
4.441
4.435
4.437
4.454
4.443
4.438
4.462
4.446
4.445
4.466
4.452
4.451
4.474
4.476
4.472
4.468
4.486
4.484
4.460
4.486
4.474
4.462
4.473
4.490
4.480
4.480
4.482
4.482
4.486
4.480
4.485
4.516
4.513
4.506
4.504
4.511
4.523
4.519
4.511
4.501
4.528
4.524
4.519
4.512
4.516
4.508
4.499
4.498
4.488
4.497
4.495
4.496
4.481
4.485
4.500
4.517
4.514
4.498
4.489
4.486
4.509
4.524
4.507
4.497
4.482
4.491
4.508
4.521
4.520
4.515
4.519
4.516
4.511
4.521
4.533
4.540
4.529
4.522
4.510
4.515
4.522
4.545
4.546
4.538
4.536
4.543
4.543
4.533
4.533
4.555
4.563
4.554
4.550
4.550
4.551
4.552
4.532
4.552
4.560
4.550
4.537
4.536
4.531
4.521
4.519
4.534
4.555
4.548
4.544
4.542
4.548
4.543
4.541
4.533
4.523
4.542
4.561
4.572
4.566
4.565
4.570
4.558
4.549
4.546
4.547
4.547
4.553
4.572
4.591
4.587
4.579
4.585
4.583
4.574
4.573
4.576
4.581
4.572
4.566
4.580
4.598
4.591
4.598
4.591
4.585
4.576
4.560
4.558
4.561
4.555
4.554
4.568
4.585
4.595
4.606
4.603
4.605
4.595
4.588
4.578
4.578
4.585
4.597
4.597
4.585
4.575
4.584
4.600
4.617
4.633
4.630
4.618
4.625
4.613
4.611
4.609
4.606
4.605
4.594
4.600
4.593
4.609
4.597
4.605
4.620
4.636
4.635
4.627
4.629
4.620
4.611
4.602
4.598
4.595
4.582
4.574
4.585
4.580
4.574
4.584
4.597
4.602
4.604
4.597
4.587
4.588
4.578
4.581
4.575
4.570
4.565
4.558
4.570
4.565
4.570
4.572
4.563
4.568
4.574
4.587
4.601
4.614
4.611
4.614
4.619
4.611
4.601
4.606
4.601
4.592
4.580
4.568
4.565
4.558
4.555
4.554
4.546
4.553
4.569
4.558
4.571
4.584
4.596
4.609
4.622
4.634
4.620
4.611
4.598
4.600
4.595
4.603
4.598
4.584
4.591
4.588
4.584
4.586
4.586
4.579
4.580
4.568
4.563
4.565
4.573
4.568
4.578
4.590
4.602
4.614
4.603
4.607
4.609
4.617
4.615
4.616
4.618
4.619
4.619
4.612
4.602
4.593
4.590
4.595
4.587
4.591
4.588
4.582
4.582
4.575
4.575
4.578
4.582
4.572
4.574
4.575
4.586
4.597
4.608
4.619
4.630
4.631
4.634
4.626
4.624
4.623
4.616
4.620
4.618
4.624
4.625
4.616
4.610
4.610
4.603
4.605
4.601
4.593
4.596
4.596
4.587
4.593
4.595
4.597
4.600
4.599
4.597
4.596
4.590
4.593
4.593
4.593
4.604
4.614
4.624
4.634
4.645
4.646
4.653
4.655
4.663
4.652
4.653
4.651
4.646
4.644
4.643
4.640
4.642
4.639
4.631
4.629
4.625
4.623
4.630
4.642
4.632
4.627
4.629
4.630
4.637
4.643
4.645
4.640
4.629
4.624
4.629
4.620
4.612
4.614
4.620
4.629
4.616
4.616
4.625
4.626
4.635
4.644
4.654
4.663
4.664
4.653
4.655
4.667
4.680
4.674
4.672
4.675
4.671
4.666
4.665
4.657
4.649
4.640
4.632
4.624
4.616
4.613
4.609
4.599
4.590
4.599
4.613
4.608
4.608
4.604
4.607
4.611
4.617
4.609
4.610
4.605
4.602
4.595
4.593
4.585
4.593
4.593
4.598
4.591
4.595
4.600
4.608
4.617
4.625
4.634
4.643
4.651
4.660
4.666
4.663
4.667
4.659
4.654
4.649
4.647
4.646
4.648
4.644
4.650
4.644
4.641
4.637
4.638
4.647
4.645
4.643
4.642
4.638
4.641
4.646
4.636
4.632
4.632
4.638
4.634
4.637
4.644
4.637
4.638
4.635
4.632
4.630
4.626
4.622
4.631
4.627
4.626
4.623
4.617
4.617
4.612
4.614
4.612
4.610
4.608
4.620
4.625
4.621
4.623
4.634
4.642
4.632
4.633
4.626
4.634
4.642
4.649
4.657
4.665
4.672
4.680
4.688
4.693
4.687
4.681
4.684
4.684
4.691
4.688
4.680
4.673
4.670
4.667
4.668
4.667
4.663
4.665
4.656
4.653
4.647
4.639
4.637
4.642
4.636
4.644
4.636
4.641
4.635
4.635
4.631
4.621
4.628
4.631
4.627
4.624
4.621
4.629
4.622
4.621
4.615
4.602
4.614
4.614
4.614
4.621
4.615
4.616
4.617
4.614
4.610
4.612
4.610
4.604
4.605
4.600
4.597
4.594
4.597
4.593
4.592
4.588
4.591
4.586
4.592
4.599
4.606
4.613
4.620
4.627
4.633
4.640
4.647
4.654
4.661
4.665
4.671
4.672
4.671
4.672
4.682
4.675
4.676
4.676
4.673
4.666
4.676
4.685
4.687
4.693
4.687
4.682
4.677
4.678
4.679
4.680
4.676
4.676
4.674
4.675
4.674
4.678
4.671
4.673
4.677
4.671
4.669
4.663
4.665
4.659
4.658
4.663
4.661
4.657
4.655
4.659
4.657
4.652
4.648
4.651
4.643
4.646
4.645
4.646
4.639
4.632
4.624
4.622
4.619
4.621
4.618
4.624
4.625
4.627
4.619
4.617
4.611
4.605
4.605
4.602
4.611
4.610
4.610
4.616
4.615
4.609
4.600
4.591
4.591
4.599
4.595
4.594
4.594
4.602
4.608
4.613
4.613
4.611
4.612
4.608
4.608
4.607
4.607
4.613
4.619
4.625
4.631
4.637
4.643
4.649
4.655
4.661
4.667
4.673
4.679
4.685
4.691
4.686
4.679
4.675
4.674
4.668
4.669
4.675
4.674
4.668
4.662
4.665
4.666
4.671
4.664
4.657
4.655
4.652
4.653
4.649
4.646
4.643
4.647
4.654
4.651
4.650
4.652
4.648
4.651
4.655
4.656
4.660
4.654
4.652
4.660
4.668
4.672
4.670
4.668
4.676
4.682
4.677
4.679
4.674
4.680
4.681
4.678
4.675
4.673
4.675
4.672
4.670
4.669
4.668
4.669
4.666
4.657
4.648
4.647
4.638
4.643
4.644
4.638
4.636
4.631
4.624
4.617
4.610
4.609
4.614
4.621
4.621
4.619
4.621
4.621
4.622
4.627
4.632
4.634
4.632
4.631
4.626
4.622
4.621
4.623
4.621
4.623
4.620
4.621
4.622
4.626
4.622
4.614
4.614
4.608
4.612
4.613
4.605
4.599
4.605
4.604
4.601
4.605
4.599
4.601
4.607
4.607
4.609
4.616
4.613
4.618
4.625
4.633
4.634
4.633
4.632
4.636
4.635
4.634
4.636
4.638
4.643
4.648
4.654
4.659
4.664
4.669
4.674
4.679
4.684
4.689
4.695
4.700
4.705
4.710
4.715
4.719
4.722
4.731
4.729
4.723
4.718
4.719
4.719
4.714
4.709
4.702
4.708
4.700
4.703
4.700
4.703
4.700
4.703
4.708
4.709
4.711
4.711
4.712
4.716
4.714
4.717
4.716
4.708
4.700
4.702
4.700
4.696
4.689
4.685
4.681
4.677
4.673
4.676
4.668
4.669
4.677
4.685
4.682
4.682
4.679
4.690
4.691
4.695
4.693
4.696
4.685
4.676
4.681
4.680
4.676
4.677
4.675
4.670
4.674
4.672
4.670
4.676
4.679
4.687
4.687
4.681
4.676
4.670
4.670
4.668
4.666
4.668
4.670
4.667
4.665
4.666
4.662
4.658
4.660
4.662
4.666
4.671
4.677
4.682
4.675
4.675
