2.994
3.332
3.515
3.628
3.709
3.779
3.832
3.873
3.929
3.935
3.984
4.026
4.052
4.031
4.065
4.086
4.112
4.140
4.161
4.184
4.207
4.203
4.159
4.146
4.156
4.163
4.180
4.187
4.207
4.209
4.224
4.226
4.240
4.242
4.254
4.264
4.265
4.277
4.288
4.286
4.293
4.303
4.310
4.322
4.314
4.324
4.331
4.338
4.348
4.336
4.350
4.352
4.361
4.366
4.373
4.385
4.370
4.381
4.380
4.385
4.397
4.398
4.405
4.414
4.413
4.423
4.407
4.412
4.414
4.420
4.425
4.429
4.432
4.440
4.449
4.451
4.459
4.458
4.460
4.466
4.462
4.453
4.460
4.456
4.462
4.470
4.474
4.477
4.482
4.480
4.482
4.484
4.488
4.496
4.501
4.502
4.501
4.510
4.506
4.514
4.517
4.525
4.522
4.530
4.512
4.505
4.503
4.508
4.510
4.513
4.515
4.522
4.526
4.521
4.526
4.532
4.528
4.532
4.531
4.532
4.536
4.538
4.544
4.547
4.550
4.554
4.555
4.557
4.561
4.554
4.558
4.560
4.559
4.557
4.566
4.571
4.577
4.581
4.578
4.584
4.583
4.588
4.596
4.588
4.596
4.595
4.591
4.598
4.597
4.592
4.586
4.576
4.562
4.573
4.570
4.576
4.583
4.574
4.580
4.588
4.584
4.581
4.589
4.587
4.592
4.588
4.596
4.599
4.600
4.596
4.591
4.596
4.597
4.592
4.597
4.592
4.599
4.601
4.605
4.604
4.608
4.604
4.616
4.610
4.619
4.615
4.624
4.625
4.624
4.617
4.622
4.617
4.621
4.629
4.624
4.639
4.635
4.636
4.640
4.636
4.633
4.625
4.632
4.628
4.638
4.637
4.630
4.631
4.629
4.640
4.638
4.642
4.641
4.642
4.640
4.647
4.644
4.647
4.654
4.653
4.652
4.666
4.659
4.656
4.662
4.659
4.660
4.659
4.655
4.659
4.670
4.666
4.665
4.675
4.674
4.669
4.676
4.680
4.681
4.677
4.684
4.681
4.684
4.688
4.684
4.686
4.679
4.675
4.676
4.672
4.688
4.686
4.687
4.681
4.681
4.680
4.676
4.684
4.681
4.677
4.676
4.689
4.690
4.686
4.685
4.691
4.696
4.700
4.699
4.694
4.704
4.703
4.699
4.700
4.706
4.711
4.712
4.703
4.707
4.714
4.714
4.713
4.706
4.700
4.693
4.688
4.684
4.678
4.677
4.673
4.676
4.672
4.673
4.677
4.673
4.680
4.687
4.684
4.681
4.680
4.681
4.696
4.690
4.689
4.681
4.678
4.693
4.692
4.692
4.691
4.687
4.689
4.698
4.697
4.696
4.696
4.696
4.696
4.709
4.711
4.710
4.710
4.701
4.700
4.707
4.700
4.693
4.688
4.687
4.699
4.696
4.699
4.696
4.692
4.685
4.697
4.698
4.688
4.682
4.680
4.681
4.692
4.701
4.699
4.693
4.686
4.685
4.686
4.698
4.694
4.693
4.694
4.693
4.692
4.690
4.699
4.704
4.708
4.701
4.707
4.707
4.705
4.704
4.710
4.712
4.714
4.715
4.711
4.707
4.703
4.704
4.716
4.707
4.713
4.709
4.707
4.704
4.705
4.714
4.719
4.720
4.719
4.718
4.714
4.712
4.714
4.710
4.718
4.728
4.733
4.733
4.732
4.733
4.727
4.731
4.725
4.725
4.735
4.740
4.733
4.728
4.721
4.715
4.713
4.714
4.725
4.733
4.732
4.729
4.729
4.726
4.729
4.723
4.722
4.722
4.729
4.731
4.729
4.729
4.727
4.726
4.724
4.729
4.732
4.726
4.736
4.740
4.743
4.739
4.743
4.744
4.743
4.736
4.735
4.734
4.741
4.744
4.746
4.737
4.740
4.742
4.736
4.740
4.744
4.740
4.738
4.739
4.749
4.756
4.757
4.756
4.757
4.756
4.757
4.755
4.749
4.755
4.762
4.759
4.757
4.766
4.766
4.764
4.762
4.766
4.763
4.762
4.765
4.758
4.757
4.751
4.759
4.767
4.776
4.773
4.770
4.764
4.759
4.755
4.747
4.742
4.736
4.742
4.751
4.750
4.749
4.751
4.746
4.745
4.746
4.737
4.740
4.739
4.741
4.742
4.743
4.751
4.746
4.739
4.733
4.733
4.733
4.734
4.730
4.733
4.733
4.733
4.733
4.734
4.743
4.750
4.752
4.751
4.749
4.751
4.747
4.747
4.741
4.739
4.743
4.744
4.743
4.744
4.738
4.747
4.754
4.762
4.770
4.766
4.765
4.764
4.755
4.753
4.752
4.751
4.751
4.748
4.744
4.747
4.743
4.751
4.759
4.767
4.768
4.767
4.762
4.756
4.749
4.755
4.757
4.755
4.749
4.740
4.740
4.739
4.740
4.745
4.754
4.761
4.766
4.770
4.766
4.762
4.760
4.764
4.763
4.762
4.759
4.758
4.759
4.761
4.755
4.753
4.752
4.756
4.760
4.767
4.774
4.781
4.782
4.777
4.776
4.781
4.784
4.778
4.773
4.767
4.770
4.770
4.763
4.756
4.755
4.764
4.768
4.764
4.771
4.777
4.781
4.778
4.777
4.778
4.771
4.772
4.771
4.772
4.776
4.773
4.776
4.777
4.770
4.764
4.766
4.770
4.768
4.772
4.771
4.778
4.785
4.792
4.795
4.797
4.796
4.796
4.793
4.799
4.796
4.799
4.796
4.792
4.787
4.791
4.790
4.789
4.787
4.784
4.784
4.783
4.784
4.783
4.792
4.797
4.799
4.800
4.801
4.794
4.799
4.800
4.803
4.799
4.795
4.788
4.785
4.783
4.785
4.783
4.784
4.778
4.774
4.770
4.770
4.777
4.782
4.789
4.792
4.791
4.790
4.788
4.788
4.788
4.785
4.789
4.792
4.788
4.787
4.789
4.785
4.780
4.781
4.784
4.777
4.770
4.765
4.766
4.766
4.773
4.779
4.786
4.785
4.788
4.787
4.791
4.795
4.792
4.788
4.786
4.785
4.786
4.784
4.788
4.785
4.784
4.782
4.781
4.784
4.780
4.784
4.788
4.790
4.788
4.790
4.786
4.785
4.784
4.790
4.796
4.799
4.800
4.799
4.799
4.799
4.797
4.801
4.797
4.795
4.794
4.792
4.794
4.792
4.794
4.792
4.794
4.792
4.791
4.790
4.791
4.793
4.792
4.793
4.789
4.785
4.789
4.793
4.792
4.799
4.803
4.810
4.816
4.817
4.818
4.815
4.816
4.814
4.811
4.809
4.808
4.810
4.803
4.803
4.805
4.806
4.808
4.809
4.811
4.810
4.811
4.815
4.808
4.807
4.805
4.809
4.814
4.812
4.808
4.807
4.807
4.809
4.811
4.817
4.822
4.828
4.830
4.829
4.830
4.833
4.829
4.826
4.829
4.826
4.825
4.822
4.818
4.817
4.818
4.822
4.825
4.823
4.819
4.817
4.814
4.815
4.816
4.815
4.814
4.815
4.811
4.815
4.813
4.810
4.808
4.806
4.810
4.815
4.822
4.826
4.829
4.826
4.821
4.817
4.814
4.815
4.813
4.814
4.814
4.810
4.816
4.822
4.821
4.822
4.818
4.820
4.819
4.822
4.818
4.814
4.814
4.810
4.805
4.804
4.807
4.804
4.808
4.804
4.800
4.806
4.807
4.804
4.808
4.812
4.818
4.823
4.829
4.833
4.838
4.842
4.843
4.842
4.840
4.839
4.838
4.839
4.840
4.834
4.832
4.833
4.832
4.834
4.835
4.837
4.836
4.833
4.832
4.828
4.825
4.831
4.833
4.836
4.838
4.833
4.833
4.833
4.833
4.834
4.840
4.833
4.830
4.829
4.829
4.829
4.830
4.831
4.825
4.831
4.836
4.842
4.846
4.850
4.855
4.861
4.866
4.869
4.863
4.862
4.862
4.858
4.855
4.850
4.849
4.850
4.854
4.853
4.851
4.850
4.849
4.845
4.841
4.844
4.843
4.845
4.840
4.844
4.849
4.844
4.844
4.842
4.841
4.837
4.836
4.836
4.833
4.831
4.827
4.826
4.822
4.820
4.822
4.826
4.832
4.836
4.840
4.836
4.830
4.829
4.827
4.825
4.824
4.825
4.825
4.823
4.827
4.825
4.825
4.826
4.824
4.822
4.822
4.828
4.830
4.828
4.825
4.826
4.827
4.822
4.821
4.822
4.821
4.825
4.824
4.822
4.821
4.820
4.816
4.815
4.821
4.817
4.813
4.810
4.807
4.804
4.800
4.801
4.805
4.809
4.813
4.818
4.824
4.828
4.830
4.836
4.840
4.837
4.836
4.837
4.836
4.834
4.832
4.834
4.830
4.831
4.829
4.834
