2.991
3.325
3.513
3.637
3.724
3.759
3.853
3.871
3.931
3.911
3.953
3.992
4.035
4.065
4.096
4.093
4.034
4.054
4.071
4.085
4.098
4.108
4.129
4.138
4.156
4.160
4.176
4.179
4.196
4.209
4.209
4.220
4.232
4.242
4.244
4.257
4.262
4.276
4.272
4.275
4.285
4.295
4.304
4.310
4.323
4.308
4.313
4.322
4.331
4.330
4.347
4.354
4.357
4.367
4.375
4.361
4.356
4.367
4.367
4.379
4.382
4.383
4.393
4.402
4.405
4.403
4.415
4.423
4.428
4.434
4.430
4.407
4.407
4.413
4.423
4.423
4.428
4.438
4.433
4.431
4.440
4.444
4.451
4.451
4.454
4.467
4.463
4.460
4.466
4.469
4.473
4.478
4.480
4.489
4.497
4.497
4.503
4.498
4.501
4.497
4.502
4.505
4.486
4.487
4.485
4.487
4.485
4.483
4.491
4.490
4.500
4.505
4.506
4.501
4.492
4.504
4.502
4.506
4.503
4.509
4.515
4.519
4.523
4.530
4.531
4.524
4.522
4.523
4.534
4.534
4.541
4.548
4.545
4.552
4.541
4.540
4.551
4.530
4.541
4.542
4.544
4.543
4.550
4.549
4.560
4.558
4.571
4.561
4.574
4.566
4.575
4.563
4.575
4.576
4.577
4.580
4.576
4.591
4.587
4.593
4.594
4.588
4.600
4.598
4.591
4.587
4.589
4.602
4.593
4.597
4.588
4.585
4.598
4.596
4.594
4.608
4.607
4.605
4.613
4.613
4.606
4.623
4.621
4.614
4.624
4.628
4.626
4.627
4.634
4.629
4.623
4.613
4.603
4.593
4.583
4.584
4.597
4.592
4.593
4.596
4.600
4.589
4.587
4.605
4.606
4.601
4.595
4.610
4.609
4.614
4.612
4.613
4.627
4.617
4.622
4.612
4.620
4.608
4.600
4.607
4.601
4.601
4.599
4.600
4.605
4.604
4.594
4.594
4.607
4.601
4.602
4.602
4.597
4.612
4.617
4.609
4.617
4.614
4.617
4.623
4.621
4.618
4.623
4.616
4.629
4.617
4.622
4.619
4.617
4.626
4.630
4.630
4.626
4.622
4.623
4.633
4.643
4.645
4.644
4.638
4.637
4.636
4.653
4.654
4.650
4.637
4.630
4.633
4.647
4.643
4.641
4.640
4.640
4.628
4.642
4.644
4.648
4.648
4.637
4.641
4.636
4.646
4.660
4.661
4.659
4.657
4.655
4.645
4.645
4.661
4.667
4.660
4.657
4.662
4.658
4.651
4.653
4.668
4.680
4.688
4.677
4.674
4.671
4.666
4.663
4.670
4.685
4.689
4.679
4.676
4.673
4.673
4.672
4.674
4.680
4.691
4.687
4.679
4.670
4.661
4.653
4.653
4.668
4.666
4.670
4.671
4.664
4.655
4.653
4.659
4.650
4.664
4.663
4.656
4.659
4.660
4.653
4.649
4.653
4.647
4.653
4.666
4.674
4.672
4.673
4.674
4.667
4.670
4.666
4.668
4.660
4.661
4.674
4.671
4.671
4.676
4.674
4.671
4.671
4.671
4.669
4.658
4.660
4.672
4.669
4.673
4.672
4.665
4.674
4.676
4.672
4.667
4.668
4.665
4.662
4.675
4.687
4.695
4.702
4.695
4.690
4.690
4.684
4.684
4.685
4.679
4.680
4.670
4.679
4.691
4.703
4.691
4.692
4.685
4.685
4.688
4.683
4.685
4.680
4.678
4.682
4.681
4.685
4.697
4.708
4.709
4.709
4.710
4.706
4.709
4.712
4.714
4.709
4.708
4.703
4.696
4.696
4.695
4.702
4.713
4.722
4.721
4.720
4.716
4.715
4.716
4.714
4.713
4.706
4.698
4.695
4.701
4.704
4.700
4.705
4.706
4.700
4.702
4.709
4.709
4.706
4.707
4.702
4.691
4.695
4.695
4.690
4.688
4.682
4.688
4.698
4.708
4.708
4.703
4.701
4.701
4.706
4.701
4.700
4.706
4.708
4.706
4.705
4.700
4.706
4.702
4.701
4.700
4.697
4.706
4.717
4.719
4.720
4.709
4.716
4.718
4.716
4.712
4.709
4.708
4.706
4.708
4.708
4.717
4.725
4.718
4.714
4.715
4.710
4.710
4.719
4.729
4.732
4.727
4.735
4.735
4.727
4.732
4.735
4.736
4.732
4.734
4.737
4.730
4.732
4.734
4.733
4.728
4.725
4.724
4.722
4.724
4.724
4.734
4.743
4.747
4.755
4.748
4.753
4.750
4.750
4.747
4.741
4.737
4.739
4.737
4.738
4.734
4.732
4.734
4.734
4.731
4.727
4.719
4.712
4.721
4.729
4.738
4.745
4.748
4.748
4.747
4.747
4.743
4.741
4.736
4.734
4.736
4.741
4.735
4.735
4.732
4.730
4.725
4.736
4.734
4.734
4.728
4.729
4.726
4.726
4.728
4.734
4.740
4.749
4.757
4.765
4.760
4.763
4.760
4.762
4.761
4.762
4.767
4.769
4.764
4.763
4.761
4.763
4.759
4.764
4.763
4.758
4.751
4.753
4.753
4.755
4.755
4.760
4.758
4.762
4.762
4.757
4.754
4.762
4.770
4.778
4.783
4.786
4.787
4.782
4.780
4.773
4.773
4.770
4.766
4.769
4.771
4.774
4.771
4.775
4.778
4.774
4.770
4.765
4.761
4.756
4.752
4.747
4.743
4.738
4.734
4.736
4.743
4.751
4.758
4.757
4.753
4.758
4.758
4.756
4.759
4.759
4.760
4.757
4.754
4.752
4.752
4.753
4.752
4.751
4.746
4.741
4.735
4.730
4.724
4.726
4.723
4.723
4.728
4.725
4.724
4.726
4.723
4.723
4.725
4.730
4.738
4.745
4.752
4.757
4.765
4.758
4.749
4.748
4.745
4.745
4.743
4.734
4.732
4.741
4.751
4.752
4.745
4.738
4.737
4.739
4.736
4.734
4.733
4.732
4.734
4.734
4.732
4.727
4.725
4.727
4.725
4.736
4.729
4.726
4.725
4.729
4.731
4.741
4.740
4.739
4.746
4.752
4.759
4.766
4.773
4.768
4.762
4.757
4.751
4.747
4.746
4.745
4.749
4.751
4.745
4.739
4.735
4.731
4.733
4.733
4.729
4.729
4.727
4.732
4.734
4.729
4.728
4.727
4.726
4.727
4.725
4.727
4.728
4.725
4.723
4.722
4.721
4.714
4.712
4.715
4.721
4.728
4.734
4.741
4.747
4.753
4.760
4.766
4.765
4.767
4.765
4.766
4.766
4.762
4.770
4.773
4.772
4.768
4.764
4.764
4.764
4.765
4.763
4.758
4.751
4.745
4.745
4.745
4.741
4.741
4.740
4.740
4.740
4.740
4.735
4.732
4.732
4.729
4.726
4.725
4.729
4.727
4.731
4.732
4.730
4.728
4.730
4.729
4.730
4.723
4.725
4.731
4.737
4.743
4.749
4.755
4.761
4.765
4.766
4.764
4.765
4.762
4.758
4.761
4.761
4.761
4.767
4.763
4.762
4.755
4.755
4.753
4.754
4.751
4.754
4.754
4.762
4.765
4.766
4.770
4.765
4.762
4.758
4.757
4.749
4.752
4.755
4.752
4.752
4.749
4.750
4.749
4.747
4.750
4.752
4.747
4.744
4.738
4.732
4.726
4.727
4.723
4.723
4.723
4.720
4.719
4.723
4.728
4.734
4.739
4.745
4.751
4.756
4.762
4.767
4.773
4.778
4.784
4.786
4.784
4.786
4.782
4.781
4.780
4.781
4.774
4.771
4.771
4.772
4.776
4.774
4.769
4.769
4.767
4.765
4.769
4.766
4.765
4.770
4.769
4.772
4.770
4.768
4.766
4.767
4.759
4.757
4.758
4.755
4.754
4.754
4.754
4.753
4.751
4.749
4.750
4.749
4.744
4.749
4.747
4.745
4.753
4.755
4.755
4.760
4.757
4.759
4.754
4.751
4.743
4.740
4.738
4.736
4.735
4.739
4.743
4.748
4.753
4.758
4.764
4.769
4.774
4.779
4.784
4.790
4.795
4.790
4.788
4.790
4.791
4.790
4.788
4.790
4.790
4.790
4.790
4.786
4.793
4.795
4.797
4.793
4.796
4.796
4.791
4.790
4.786
4.779
4.780
4.779
4.776
4.777
4.779
4.779
4.786
4.783
4.783
4.782
4.780
4.777
4.779
4.780
4.774
4.777
4.781
4.786
4.779
4.781
4.774
4.776
4.774
4.775
4.776
4.774
4.776
4.775
4.774
4.772
4.772
4.767
4.767
4.766
4.773
4.775
4.774
4.767
4.765
4.763
4.770
4.770
4.772
4.775
4.774
4.771
4.770
4.772
4.765
4.767
4.770
4.775
4.780
4.785
4.789
4.794
