2.994
3.330
3.500
3.612
3.695
3.761
3.836
3.871
3.934
3.912
3.962
4.001
4.034
4.067
4.105
4.064
4.028
4.046
4.061
4.079
4.099
4.110
4.120
4.140
4.144
4.164
4.166
4.180
4.198
4.195
4.207
4.219
4.235
4.230
4.241
4.252
4.270
4.267
4.268
4.275
4.286
4.297
4.302
4.318
4.302
4.307
4.320
4.326
4.330
4.341
4.345
4.353
4.368
4.356
4.342
4.348
4.364
4.373
4.370
4.372
4.384
4.391
4.397
4.402
4.403
4.410
4.414
4.420
4.422
4.402
4.399
4.409
4.414
4.410
4.424
4.430
4.422
4.425
4.433
4.441
4.442
4.447
4.454
4.459
4.451
4.462
4.462
4.465
4.471
4.471
4.479
4.487
4.492
4.498
4.504
4.488
4.493
4.491
4.497
4.487
4.474
4.467
4.481
4.486
4.485
4.487
4.483
4.487
4.495
4.510
4.495
4.493
4.493
4.488
4.499
4.509
4.502
4.504
4.513
4.516
4.519
4.531
4.523
4.511
4.525
4.527
4.533
4.538
4.541
4.542
4.535
4.530
4.538
4.531
4.531
4.539
4.539
4.545
4.538
4.552
4.551
4.559
4.554
4.562
4.567
4.564
4.561
4.564
4.563
4.566
4.574
4.566
4.586
4.585
4.583
4.588
4.582
4.594
4.589
4.593
4.581
4.585
4.592
4.587
4.592
4.584
4.585
4.589
4.586
4.596
4.593
4.595
4.604
4.604
4.599
4.610
4.613
4.613
4.613
4.620
4.615
4.619
4.627
4.624
4.617
4.618
4.608
4.597
4.587
4.577
4.590
4.584
4.584
4.591
4.600
4.585
4.580
4.599
4.599
4.591
4.588
4.603
4.598
4.600
4.600
4.616
4.614
4.604
4.610
4.617
4.618
4.605
4.595
4.607
4.596
4.591
4.591
4.599
4.593
4.594
4.587
4.602
4.596
4.589
4.590
4.591
4.608
4.602
4.601
4.606
4.604
4.615
4.610
4.614
4.611
4.610
4.616
4.618
4.616
4.607
4.604
4.612
4.629
4.617
4.624
4.621
4.611
4.622
4.635
4.636
4.638
4.631
4.630
4.628
4.646
4.645
4.647
4.642
4.629
4.629
4.641
4.637
4.632
4.631
4.630
4.629
4.635
4.640
4.636
4.637
4.631
4.633
4.632
4.649
4.653
4.649
4.651
4.650
4.642
4.637
4.650
4.655
4.656
4.650
4.651
4.652
4.646
4.646
4.662
4.669
4.674
4.673
4.670
4.662
4.670
4.656
4.668
4.683
4.683
4.675
4.669
4.665
4.660
4.667
4.668
4.681
4.680
4.684
4.678
4.669
4.660
4.651
4.658
4.659
4.661
4.659
4.656
4.657
4.646
4.650
4.652
4.656
4.655
4.649
4.652
4.654
4.646
4.641
4.642
4.638
4.650
4.664
4.668
4.661
4.665
4.667
4.662
4.662
4.662
4.659
4.658
4.663
4.670
4.667
4.663
4.669
4.665
4.659
4.660
4.665
4.665
4.654
4.666
4.666
4.663
4.662
4.657
4.666
4.665
4.667
4.663
4.658
4.661
4.660
4.673
4.682
4.689
4.686
4.686
4.683
4.680
4.680
4.678
4.682
4.673
4.665
4.670
4.682
4.694
4.698
4.689
4.682
4.677
4.678
4.675
4.672
4.675
4.669
4.677
4.671
4.681
4.693
4.705
4.699
4.702
4.701
4.696
4.698
4.706
4.701
4.700
4.700
4.693
4.692
4.686
4.692
4.703
4.715
4.715
4.709
4.708
4.707
4.707
4.707
4.704
4.705
4.703
4.693
4.691
4.695
4.694
4.699
4.696
4.698
4.691
4.701
4.704
4.701
4.701
4.695
4.693
4.684
4.686
4.684
4.689
4.679
4.688
4.698
4.705
4.701
4.695
4.690
4.699
4.697
4.696
4.697
4.699
4.697
4.696
4.696
4.696
4.693
4.696
4.693
4.694
4.702
4.712
4.713
4.715
4.709
4.707
4.710
4.706
4.706
4.700
4.695
4.697
4.699
4.705
4.713
4.711
4.709
4.706
4.705
4.701
4.711
4.721
4.728
4.724
4.725
4.731
4.719
4.724
4.723
4.728
4.727
4.722
4.725
4.726
4.721
4.726
4.727
4.724
4.718
4.721
4.718
4.713
4.722
4.732
4.741
4.748
4.743
4.743
4.741
4.741
4.741
4.742
4.737
4.728
4.734
4.728
4.734
4.731
4.724
4.728
4.720
4.718
4.719
4.715
4.716
4.725
4.734
4.739
4.738
4.742
4.740
4.740
4.734
4.733
4.729
4.728
4.726
4.729
4.728
4.730
4.721
4.719
4.724
4.729
4.728
4.725
4.721
4.720
4.718
4.718
4.726
4.734
4.743
4.751
4.760
4.758
4.754
4.756
4.751
4.752
4.753
4.760
4.755
4.755
4.757
4.757
4.754
4.754
4.752
4.754
4.749
4.745
4.744
4.745
4.748
4.747
4.748
4.751
4.753
4.758
4.754
4.755
4.763
4.771
4.773
4.777
4.778
4.776
4.772
4.767
4.766
4.764
4.766
4.762
4.763
4.765
4.766
4.769
4.768
4.767
4.765
4.763
4.762
4.756
4.753
4.749
4.744
4.739
4.735
4.735
4.743
4.749
4.752
4.752
4.748
4.752
4.754
4.755
4.748
4.750
4.751
4.746
4.748
4.750
4.747
4.745
4.744
4.743
4.744
4.738
4.733
4.727
4.722
4.716
4.715
4.715
4.719
4.719
4.717
4.712
4.715
4.723
4.730
4.737
4.745
4.751
4.752
4.752
4.748
4.746
4.737
4.737
4.739
4.733
4.733
4.735
4.740
4.744
4.742
4.738
4.730
4.728
4.724
4.726
4.727
4.723
4.729
4.727
4.722
4.719
4.716
4.721
4.722
4.729
4.726
4.719
4.718
4.722
4.731
4.734
4.733
4.739
4.746
4.753
4.760
4.767
4.765
4.762
4.762
4.755
4.750
4.743
4.738
4.743
4.743
4.745
4.739
4.731
4.727
4.724
4.727
4.723
4.721
4.725
4.724
4.723
4.727
4.722
4.718
4.718
4.720
4.717
4.721
4.715
4.716
4.716
4.711
4.715
4.712
4.710
4.717
4.723
4.730
4.736
4.743
4.749
4.756
4.759
4.754
4.758
4.758
4.759
4.756
4.758
4.766
4.766
4.766
4.765
4.761
4.761
4.761
4.756
4.756
4.756
4.752
4.744
4.737
4.738
4.734
4.731
4.729
4.731
4.734
4.735
4.728
4.725
4.723
4.728
4.724
4.722
4.716
4.725
4.723
4.723
4.722
4.721
4.720
4.720
4.718
4.723
4.729
4.736
4.742
4.748
4.754
4.760
4.764
4.757
4.756
4.753
4.759
4.753
4.751
4.754
4.759
4.758
4.758
4.751
4.750
4.746
4.747
4.740
4.746
4.749
4.756
4.755
4.759
4.761
4.761
4.759
4.751
4.748
4.746
4.745
4.746
4.741
4.740
4.741
4.738
4.746
4.744
4.746
4.741
4.742
4.736
4.739
4.732
4.725
4.719
4.712
4.715
4.712
4.713
4.719
4.724
4.730
4.736
4.742
4.747
4.753
4.759
4.765
4.770
4.776
4.782
4.782
4.780
4.779
4.776
4.774
4.778
4.778
4.771
4.763
4.762
4.765
4.770
4.765
4.764
4.756
4.760
4.760
4.761
4.761
4.762
4.764
4.762
4.760
4.758
4.758
4.759
4.758
4.753
4.752
4.749
4.749
4.754
4.751
4.749
4.745
4.745
4.740
4.736
4.739
4.736
4.742
4.743
4.747
4.745
4.749
4.752
4.752
4.747
4.747
4.744
4.739
4.734
4.732
4.728
4.734
4.739
4.744
4.750
4.755
4.760
4.766
4.771
4.776
4.782
4.787
4.792
4.787
4.782
4.786
4.788
4.782
4.779
4.782
4.787
4.787
4.786
4.785
4.790
4.786
4.784
4.785
4.790
4.786
4.787
4.779
4.778
4.776
4.772
4.769
4.769
4.772
4.772
4.775
4.772
4.774
4.774
4.770
4.769
4.771
4.770
4.766
4.773
4.778
4.778
4.775
4.774
4.772
4.769
4.770
4.772
4.768
4.764
4.765
4.766
4.763
4.764
4.765
4.765
4.760
4.767
4.768
4.769
4.768
4.764
4.759
4.761
4.763
4.764
4.764
4.767
4.765
4.764
4.766
4.762
4.764
4.769
4.774
4.778
4.783
4.788
4.793
4.798
4.803
4.808
4.813
4.818
4.823
4.823
4.823
4.822
4.822
4.823
4.824
4.819
4.818
4.814
4.809
4.808
4.807
4.801
4.802
4.796
4.795
4.791
4.790
4.791
4.793
4.791
4.796
4.799
