2.994
3.334
3.512
3.634
3.727
3.794
3.831
3.903
3.924
3.959
3.979
4.021
4.064
4.029
4.061
4.084
4.110
4.137
4.157
4.181
4.201
4.218
4.193
4.151
4.160
4.167
4.176
4.192
4.199
4.216
4.217
4.233
4.236
4.249
4.248
4.263
4.273
4.273
4.283
4.293
4.303
4.295
4.308
4.318
4.325
4.320
4.330
4.336
4.343
4.350
4.360
4.348
4.358
4.362
4.373
4.373
4.388
4.389
4.379
4.388
4.388
4.395
4.406
4.405
4.412
4.422
4.428
4.429
4.417
4.424
4.429
4.430
4.431
4.441
4.443
4.444
4.450
4.457
4.461
4.465
4.467
4.471
4.478
4.463
4.459
4.466
4.469
4.473
4.477
4.482
4.484
4.487
4.486
4.490
4.491
4.499
4.503
4.503
4.514
4.509
4.510
4.512
4.516
4.528
4.525
4.532
4.533
4.526
4.516
4.509
4.516
4.509
4.516
4.525
4.525
4.529
4.530
4.531
4.540
4.543
4.535
4.536
4.538
4.540
4.544
4.547
4.552
4.556
4.558
4.558
4.560
4.562
4.569
4.564
4.562
4.567
4.571
4.572
4.569
4.581
4.582
4.580
4.588
4.589
4.595
4.594
4.590
4.600
4.598
4.605
4.599
4.595
4.601
4.610
4.603
4.594
4.584
4.570
4.576
4.580
4.579
4.591
4.585
4.583
4.592
4.591
4.598
4.594
4.592
4.595
4.598
4.600
4.606
4.608
4.614
4.599
4.604
4.603
4.598
4.606
4.598
4.605
4.603
4.613
4.609
4.616
4.609
4.618
4.614
4.624
4.623
4.625
4.625
4.627
4.634
4.627
4.628
4.622
4.629
4.629
4.636
4.638
4.636
4.647
4.643
4.647
4.645
4.640
4.636
4.633
4.640
4.643
4.645
4.641
4.636
4.641
4.643
4.643
4.653
4.644
4.650
4.652
4.645
4.657
4.656
4.652
4.661
4.662
4.662
4.666
4.670
4.663
4.669
4.669
4.670
4.666
4.667
4.665
4.667
4.677
4.675
4.674
4.681
4.684
4.680
4.679
4.692
4.690
4.681
4.692
4.692
4.695
4.689
4.698
4.689
4.679
4.686
4.685
4.683
4.685
4.695
4.696
4.691
4.688
4.689
4.690
4.683
4.690
4.689
4.688
4.689
4.693
4.697
4.696
4.694
4.693
4.708
4.710
4.710
4.706
4.706
4.714
4.710
4.712
4.706
4.717
4.722
4.715
4.719
4.712
4.722
4.715
4.710
4.703
4.697
4.692
4.684
4.690
4.688
4.687
4.683
4.677
4.689
4.684
4.683
4.684
4.680
4.692
4.695
4.690
4.691
4.690
4.691
4.701
4.694
4.687
4.684
4.687
4.699
4.706
4.700
4.698
4.695
4.693
4.705
4.707
4.710
4.704
4.702
4.704
4.711
4.720
4.724
4.715
4.711
4.706
4.710
4.703
4.694
4.695
4.692
4.696
4.706
4.707
4.708
4.698
4.695
4.690
4.703
4.695
4.689
4.692
4.688
4.688
4.695
4.706
4.705
4.698
4.694
4.696
4.688
4.698
4.702
4.703
4.703
4.706
4.700
4.696
4.700
4.707
4.719
4.715
4.713
4.717
4.719
4.714
4.706
4.714
4.724
4.726
4.722
4.717
4.711
4.710
4.710
4.717
4.719
4.715
4.718
4.717
4.718
4.718
4.714
4.717
4.727
4.726
4.727
4.725
4.725
4.721
4.724
4.718
4.724
4.734
4.741
4.743
4.741
4.740
4.736
4.737
4.733
4.731
4.738
4.742
4.735
4.734
4.727
4.723
4.725
4.721
4.725
4.732
4.741
4.743
4.736
4.732
4.735
4.736
4.727
4.723
4.727
4.736
4.736
4.742
4.740
4.736
4.738
4.736
4.735
4.736
4.733
4.737
4.747
4.755
4.749
4.750
4.752
4.748
4.749
4.743
4.744
4.748
4.743
4.751
4.752
4.750
4.751
4.748
4.749
4.751
4.752
4.747
4.746
4.747
4.751
4.759
4.766
4.767
4.768
4.764
4.768
4.764
4.762
4.761
4.769
4.769
4.758
4.764
4.773
4.773
4.769
4.773
4.777
4.775
4.768
4.764
4.765
4.762
4.757
4.761
4.771
4.778
4.774
4.769
4.765
4.759
4.754
4.748
4.741
4.736
4.743
4.750
4.760
4.759
4.757
4.759
4.757
4.753
4.746
4.745
4.747
4.748
4.752
4.748
4.747
4.751
4.744
4.745
4.744
4.739
4.744
4.745
4.741
4.740
4.744
4.747
4.741
4.740
4.743
4.750
4.758
4.759
4.762
4.761
4.757
4.756
4.749
4.743
4.749
4.755
4.755
4.753
4.749
4.747
4.751
4.759
4.766
4.775
4.779
4.770
4.765
4.761
4.760
4.761
4.762
4.761
4.755
4.751
4.751
4.750
4.749
4.758
4.765
4.773
4.773
4.766
4.760
4.759
4.758
4.761
4.765
4.756
4.752
4.748
4.749
4.751
4.747
4.748
4.757
4.764
4.771
4.777
4.776
4.775
4.774
4.773
4.768
4.766
4.769
4.769
4.766
4.767
4.766
4.762
4.758
4.761
4.766
4.764
4.771
4.778
4.785
4.788
4.785
4.784
4.790
4.788
4.782
4.780
4.779
4.780
4.773
4.770
4.766
4.767
4.769
4.773
4.777
4.773
4.776
4.783
4.790
4.791
4.787
4.784
4.779
4.781
4.781
4.778
4.781
4.784
4.785
4.781
4.777
4.775
4.777
4.777
4.781
4.780
4.779
4.778
4.785
4.791
4.798
4.803
4.807
4.802
4.804
4.805
4.809
4.810
4.806
4.802
4.801
4.800
4.796
4.792
4.793
4.794
4.798
4.794
4.792
4.794
4.795
4.791
4.799
4.805
4.812
4.806
4.807
4.805
4.806
4.806
4.801
4.799
4.798
4.797
4.793
4.791
4.792
4.786
4.782
4.778
4.773
4.772
4.773
4.778
4.785
4.791
4.798
4.800
4.799
4.797
4.798
4.799
4.799
4.795
4.801
4.802
4.796
4.792
4.792
4.789
4.787
4.786
4.782
4.777
4.773
4.773
4.776
4.772
4.776
4.781
4.787
4.792
4.796
4.795
4.798
4.799
4.801
4.800
4.799
4.797
4.792
4.794
4.796
4.794
4.796
4.792
4.790
4.789
4.796
4.792
4.790
4.799
4.796
4.795
4.801
4.795
4.790
4.786
4.792
4.797
4.804
4.806
4.806
4.810
4.809
4.808
4.806
4.802
4.799
4.802
4.801
4.802
4.806
4.802
4.803
4.802
4.801
4.802
4.799
4.802
4.801
4.803
4.804
4.802
4.798
4.795
4.795
4.800
4.807
4.803
4.806
4.811
4.817
4.824
4.828
4.825
4.825
4.825
4.823
4.822
4.818
4.814
4.814
4.808
4.815
4.816
4.817
4.813
4.815
4.821
4.823
4.822
4.821
4.818
4.820
4.819
4.820
4.821
4.821
4.818
4.818
4.816
4.815
4.813
4.817
4.822
4.826
4.833
4.839
4.840
4.836
4.835
4.834
4.835
4.836
4.833
4.834
4.832
4.831
4.829
4.826
4.829
4.829
4.824
4.825
4.822
4.826
4.827
4.825
4.822
4.820
4.822
4.821
4.819
4.818
4.814
4.809
4.805
4.809
4.816
4.820
4.825
4.831
4.830
4.829
4.827
4.821
4.825
4.828
4.827
4.821
4.824
4.826
4.822
4.826
4.827
4.826
4.832
4.828
4.825
4.828
4.830
4.825
4.821
4.818
4.814
4.815
4.814
4.814
4.813
4.812
4.811
4.809
4.814
4.818
4.811
4.814
4.819
4.823
4.824
4.829
4.835
4.839
4.844
4.850
4.852
4.853
4.849
4.845
4.843
4.845
4.847
4.847
4.841
4.842
4.844
4.842
4.847
4.843
4.841
4.837
4.840
4.840
4.836
4.836
4.840
4.843
4.844
4.847
4.844
4.843
4.843
4.845
4.843
4.842
4.836
4.836
4.841
4.840
4.838
4.836
4.840
4.836
4.836
4.839
4.844
4.850
4.855
4.859
4.863
4.869
4.874
4.870
4.866
4.861
4.862
4.858
4.860
4.861
4.857
4.858
4.860
4.856
4.855
4.858
4.857
4.856
4.854
4.855
4.854
4.853
4.852
4.853
4.855
4.853
4.849
4.847
4.844
4.840
4.838
4.836
4.833
4.831
4.829
4.825
4.822
4.820
4.822
4.826
4.832
4.836
4.840
4.842
4.843
4.837
4.840
4.832
4.830
4.831
4.835
4.837
4.833
4.831
4.832
4.832
4.833
4.834
4.832
4.831
4.830
4.836
4.841
4.839
4.835
4.832
4.835
4.832
4.830
