2.992
3.324
3.514
3.617
3.709
3.792
3.840
3.860
3.920
3.978
3.949
3.992
4.023
4.060
4.090
4.121
4.120
4.064
4.068
4.083
4.095
4.109
4.131
4.138
4.157
4.165
4.179
4.184
4.196
4.197
4.210
4.224
4.226
4.236
4.248
4.263
4.256
4.268
4.278
4.282
4.298
4.301
4.297
4.302
4.309
4.315
4.330
4.334
4.344
4.331
4.336
4.345
4.355
4.356
4.366
4.373
4.374
4.383
4.391
4.383
4.374
4.381
4.388
4.389
4.401
4.398
4.407
4.417
4.416
4.422
4.423
4.427
4.435
4.439
4.443
4.450
4.446
4.424
4.429
4.431
4.440
4.444
4.443
4.455
4.454
4.452
4.451
4.460
4.465
4.468
4.475
4.475
4.481
4.483
4.484
4.491
4.483
4.490
4.495
4.501
4.508
4.509
4.516
4.515
4.524
4.529
4.520
4.526
4.524
4.526
4.516
4.499
4.498
4.494
4.505
4.513
4.511
4.507
4.508
4.516
4.528
4.521
4.531
4.521
4.514
4.526
4.516
4.523
4.527
4.527
4.527
4.537
4.538
4.545
4.544
4.550
4.549
4.542
4.547
4.554
4.553
4.565
4.558
4.573
4.564
4.564
4.561
4.562
4.566
4.554
4.561
4.562
4.572
4.564
4.572
4.567
4.577
4.581
4.579
4.587
4.583
4.597
4.587
4.597
4.585
4.592
4.591
4.594
4.602
4.597
4.602
4.612
4.605
4.611
4.613
4.606
4.621
4.617
4.615
4.605
4.602
4.620
4.615
4.609
4.615
4.611
4.613
4.612
4.610
4.617
4.618
4.620
4.620
4.638
4.624
4.624
4.635
4.636
4.635
4.641
4.638
4.641
4.638
4.653
4.650
4.649
4.642
4.633
4.624
4.616
4.607
4.600
4.613
4.606
4.609
4.606
4.624
4.617
4.618
4.609
4.623
4.619
4.618
4.614
4.624
4.630
4.624
4.624
4.629
4.644
4.642
4.631
4.631
4.641
4.642
4.638
4.626
4.633
4.632
4.625
4.618
4.622
4.631
4.622
4.612
4.608
4.624
4.622
4.620
4.617
4.615
4.625
4.631
4.625
4.623
4.617
4.623
4.639
4.646
4.638
4.635
4.628
4.634
4.646
4.651
4.641
4.634
4.633
4.638
4.646
4.646
4.647
4.638
4.633
4.642
4.657
4.651
4.649
4.653
4.647
4.646
4.655
4.667
4.668
4.665
4.661
4.662
4.660
4.662
4.657
4.665
4.657
4.648
4.650
4.651
4.666
4.665
4.657
4.651
4.653
4.650
4.650
4.664
4.671
4.670
4.668
4.662
4.664
4.665
4.664
4.673
4.685
4.679
4.672
4.667
4.664
4.661
4.666
4.675
4.690
4.684
4.682
4.679
4.685
4.684
4.677
4.679
4.688
4.700
4.702
4.697
4.696
4.686
4.688
4.694
4.693
4.692
4.701
4.700
4.699
4.706
4.702
4.703
4.690
4.690
4.693
4.689
4.683
4.678
4.671
4.672
4.666
4.667
4.668
4.679
4.693
4.689
4.685
4.681
4.671
4.664
4.661
4.665
4.664
4.676
4.682
4.678
4.680
4.678
4.679
4.673
4.669
4.673
4.671
4.668
4.680
4.690
4.702
4.700
4.696
4.694
4.688
4.684
4.683
4.679
4.677
4.676
4.685
4.697
4.693
4.698
4.704
4.694
4.685
4.678
4.675
4.675
4.674
4.673
4.683
4.695
4.698
4.701
4.699
4.692
4.696
4.697
4.693
4.687
4.687
4.687
4.683
4.684
4.696
4.706
4.716
4.724
4.716
4.714
4.705
4.703
4.699
4.703
4.701
4.698
4.698
4.694
4.698
4.706
4.713
4.709
4.710
4.709
4.712
4.709
4.709
4.709
4.704
4.701
4.702
4.706
4.705
4.705
4.710
4.719
4.729
4.735
4.737
4.731
4.732
4.730
4.732
4.730
4.723
4.722
4.721
4.720
4.720
4.714
4.715
4.720
4.729
4.739
4.746
4.744
4.740
4.730
4.727
4.724
4.723
4.722
4.726
4.719
4.712
4.705
4.699
4.709
4.716
4.727
4.731
4.728
4.731
4.730
4.726
4.722
4.720
4.720
4.712
4.706
4.701
4.703
4.702
4.698
4.698
4.705
4.715
4.722
4.732
4.730
4.727
4.722
4.731
4.730
4.726
4.730
4.731
4.731
4.727
4.731
4.726
4.720
4.713
4.706
4.707
4.708
4.715
4.724
4.731
4.738
4.743
4.741
4.740
4.741
4.740
4.739
4.742
4.735
4.732
4.733
4.735
4.736
4.738
4.741
4.732
4.727
4.726
4.722
4.721
4.727
4.735
4.742
4.753
4.749
4.754
4.760
4.756
4.753
4.759
4.764
4.762
4.761
4.762
4.761
4.751
4.752
4.746
4.747
4.743
4.742
4.743
4.746
4.750
4.747
4.745
4.747
4.754
4.763
4.772
4.771
4.772
4.769
4.764
4.761
4.761
4.758
4.756
4.755
4.753
4.757
4.754
4.747
4.742
4.741
4.737
4.733
4.734
4.727
4.726
4.733
4.742
4.749
4.756
4.764
4.767
4.771
4.767
4.764
4.762
4.763
4.762
4.753
4.759
4.761
4.756
4.755
4.756
4.753
4.750
4.746
4.754
4.753
4.756
4.758
4.756
4.753
4.751
4.749
4.746
4.752
4.756
4.763
4.768
4.777
4.784
4.788
4.786
4.787
4.787
4.788
4.786
4.787
4.787
4.785
4.781
4.782
4.786
4.783
4.781
4.785
4.786
4.783
4.779
4.783
4.783
4.783
4.783
4.777
4.767
4.772
4.770
4.774
4.767
4.769
4.776
4.783
4.789
4.796
4.805
4.809
4.801
4.791
4.790
4.790
4.787
4.793
4.794
4.791
4.787
4.783
4.779
4.777
4.773
4.769
4.765
4.761
4.756
4.752
4.748
4.744
4.740
4.738
4.735
4.738
4.745
4.752
4.759
4.764
4.772
4.777
4.772
4.774
4.783
4.782
4.784
4.787
4.781
4.777
4.772
4.766
4.764
4.758
4.753
4.749
4.750
4.746
4.748
4.742
4.740
4.739
4.742
4.744
4.748
4.746
4.748
4.749
4.745
4.749
4.751
4.746
4.746
4.746
4.743
4.750
4.756
4.761
4.768
4.775
4.772
4.764
4.764
4.760
4.754
4.755
4.754
4.755
4.756
4.760
4.764
4.766
4.768
4.764
4.761
4.763
4.764
4.757
4.756
4.757
4.756
4.755
4.759
4.755
4.751
4.755
4.748
4.749
4.750
4.755
4.756
4.752
4.753
4.749
4.743
4.750
4.753
4.755
4.753
4.758
4.765
4.771
4.775
4.772
4.773
4.774
4.772
4.774
4.773
4.766
4.762
4.761
4.765
4.766
4.768
4.763
4.756
4.750
4.746
4.746
4.742
4.746
4.743
4.747
4.751
4.757
4.753
4.752
4.750
4.747
4.750
4.752
4.748
4.747
4.740
4.738
4.735
4.736
4.737
4.738
4.738
4.735
4.735
4.739
4.740
4.747
4.753
4.758
4.764
4.768
4.775
4.780
4.786
4.790
4.789
4.791
4.789
4.783
4.784
4.788
4.789
4.782
4.783
4.777
4.775
4.769
4.773
4.774
4.778
4.769
4.768
4.768
4.770
4.768
4.765
4.758
4.754
4.753
4.750
4.744
4.740
4.741
4.735
4.741
4.743
4.741
4.745
4.750
4.753
4.755
4.757
4.755
4.754
4.753
4.754
4.752
4.745
4.742
4.743
4.744
4.750
4.755
4.761
4.764
4.770
4.775
4.781
4.783
4.784
4.779
4.784
4.783
4.783
4.779
4.779
4.783
4.783
4.782
4.781
4.780
4.779
4.777
4.778
4.777
4.778
4.779
4.778
4.783
4.781
4.782
4.783
4.777
4.776
4.774
4.775
4.775
4.778
4.774
4.775
4.768
4.767
4.764
4.764
4.760
4.759
4.758
4.754
4.755
4.751
4.755
4.753
4.750
4.751
4.742
4.737
4.739
4.735
4.735
4.735
4.736
4.742
4.747
4.753
4.755
4.759
4.764
4.770
4.774
4.779
4.783
4.789
4.793
4.798
4.802
4.803
4.801
4.797
4.798
4.798
4.804
4.800
4.796
4.795
4.796
4.797
4.793
4.792
4.787
4.787
4.788
4.786
4.783
4.787
4.791
4.792
4.798
4.795
4.790
4.787
4.785
4.781
4.775
4.770
4.764
4.759
4.760
4.764
4.768
4.768
4.774
4.775
4.777
4.773
4.775
4.773
4.771
4.773
4.772
4.775
4.775
4.778
4.780
4.778
4.777
4.772
4.771
4.768
4.764
4.762
4.763
4.764
4.760
4.757
