2.982
3.325
3.495
3.595
3.676
3.789
3.783
3.860
3.922
3.943
3.864
3.902
3.923
3.950
3.977
4.008
4.020
4.033
4.054
4.076
4.091
4.104
4.103
4.130
4.145
4.155
4.142
4.168
4.176
4.192
4.202
4.211
4.200
4.211
4.215
4.238
4.241
4.254
4.267
4.277
4.274
4.259
4.271
4.281
4.280
4.290
4.291
4.307
4.316
4.303
4.321
4.333
4.341
4.345
4.356
4.349
4.356
4.372
4.339
4.335
4.344
4.347
4.363
4.354
4.344
4.353
4.349
4.361
4.374
4.370
4.375
4.384
4.392
4.390
4.409
4.389
4.392
4.393
4.402
4.416
4.412
4.419
4.422
4.428
4.421
4.425
4.449
4.439
4.447
4.459
4.459
4.452
4.462
4.441
4.443
4.456
4.458
4.469
4.458
4.486
4.478
4.487
4.484
4.494
4.492
4.498
4.494
4.495
4.477
4.459
4.454
4.455
4.446
4.464
4.468
4.472
4.474
4.469
4.494
4.491
4.476
4.460
4.456
4.456
4.454
4.462
4.463
4.453
4.468
4.478
4.461
4.468
4.492
4.482
4.465
4.488
4.485
4.480
4.488
4.505
4.503
4.495
4.505
4.520
4.505
4.500
4.503
4.502
4.495
4.496
4.509
4.501
4.501
4.499
4.520
4.522
4.509
4.503
4.514
4.523
4.530
4.520
4.527
4.528
4.547
4.538
4.538
4.533
4.535
4.557
4.550
4.543
4.541
4.534
4.560
4.553
4.537
4.522
4.525
4.546
4.534
4.515
4.500
4.509
4.532
4.531
4.527
4.529
4.530
4.525
4.532
4.541
4.533
4.538
4.534
4.525
4.523
4.533
4.532
4.537
4.542
4.528
4.527
4.525
4.547
4.562
4.564
4.555
4.552
4.546
4.543
4.540
4.560
4.557
4.556
4.558
4.549
4.547
4.545
4.553
4.560
4.581
4.592
4.578
4.572
4.576
4.569
4.564
4.566
4.569
4.588
4.595
4.596
4.580
4.579
4.575
4.582
4.572
4.563
4.579
4.573
4.579
4.571
4.559
4.546
4.543
4.548
4.552
4.562
4.580
4.595
4.585
4.579
4.572
4.574
4.564
4.564
4.551
4.553
4.563
4.581
4.598
4.608
4.601
4.590
4.588
4.586
4.582
4.586
4.580
4.591
4.585
4.595
4.598
4.615
4.609
4.615
4.625
4.624
4.621
4.607
4.606
4.605
4.599
4.599
4.583
4.596
4.612
4.622
4.608
4.605
4.596
4.595
4.606
4.595
4.590
4.596
4.594
4.587
4.582
4.589
4.604
4.619
4.634
4.633
4.634
4.629
4.625
4.627
4.629
4.623
4.621
4.622
4.626
4.626
4.623
4.630
4.621
4.619
4.633
4.647
4.651
4.644
4.643
4.654
4.649
4.647
4.639
4.639
4.638
4.636
4.636
4.633
4.626
4.631
4.617
4.626
4.634
4.646
4.638
4.630
4.632
4.620
4.613
4.620
4.620
4.628
4.638
4.631
4.624
4.623
4.615
4.606
4.596
4.595
4.608
4.620
4.626
4.629
4.631
4.618
4.610
4.602
4.604
4.603
4.608
4.607
4.606
4.595
4.594
4.605
4.607
4.607
4.607
4.603
4.603
4.610
4.603
4.615
4.627
4.639
4.645
4.640
4.629
4.618
4.615
4.612
4.608
4.606
4.596
4.600
4.602
4.604
4.594
4.595
4.587
4.581
4.577
4.584
4.595
4.596
4.601
4.599
4.610
4.622
4.633
4.644
4.652
4.636
4.636
4.633
4.622
4.622
4.624
4.625
4.622
4.615
4.615
4.622
4.610
4.607
4.606
4.607
4.599
4.602
4.602
4.601
4.596
4.594
4.594
4.589
4.599
4.610
4.620
4.631
4.642
4.642
4.641
4.653
4.656
4.655
4.647
4.648
4.642
4.642
4.634
4.631
4.624
4.628
4.622
4.621
4.609
4.607
4.602
4.596
4.610
4.612
4.609
4.616
4.615
4.613
4.605
4.597
4.611
4.601
4.605
4.615
4.625
4.635
4.645
4.654
4.664
4.655
4.655
4.654
4.650
4.639
4.643
4.633
4.640
4.651
4.658
4.655
4.653
4.643
4.638
4.630
4.626
4.629
4.620
4.631
4.634
4.630
4.630
4.632
4.637
4.627
4.621
4.621
4.623
4.620
4.616
4.624
4.633
4.633
4.624
4.623
4.632
4.641
4.650
4.659
4.669
4.678
4.687
4.685
4.685
4.683
4.678
4.686
4.683
4.677
4.669
4.674
4.668
4.669
4.675
4.662
4.667
4.660
4.652
4.650
4.654
4.667
4.678
4.666
4.665
4.674
4.667
4.667
4.674
4.674
4.664
4.660
4.658
4.662
4.666
4.655
4.652
4.653
4.648
4.655
4.659
4.649
4.653
4.646
4.646
4.654
4.663
4.671
4.679
4.687
4.695
4.694
4.691
4.700
4.695
4.687
4.680
4.675
4.674
4.666
4.659
4.666
4.661
4.658
4.654
4.648
4.643
4.642
4.641
4.643
4.637
4.632
4.631
4.636
4.636
4.649
4.644
4.633
4.630
4.624
4.624
4.632
4.643
4.643
4.644
4.637
4.636
4.633
4.629
4.628
4.632
4.633
4.637
4.626
4.617
4.613
4.617
4.624
4.632
4.640
4.647
4.654
4.662
4.670
4.677
4.684
4.686
4.684
4.695
4.691
4.683
4.680
4.682
4.679
4.680
4.681
4.685
4.677
4.677
4.671
4.662
4.663
4.671
4.673
4.677
4.675
4.672
4.667
4.673
4.676
4.673
4.666
4.670
4.671
4.675
4.669
4.672
4.667
4.662
4.665
4.664
4.663
4.667
4.670
4.666
4.665
4.662
4.662
4.657
4.654
4.651
4.643
4.645
4.646
4.650
4.646
4.645
4.645
4.648
4.655
4.660
4.657
4.655
4.656
4.666
4.664
4.663
4.665
4.668
4.662
4.668
4.669
4.673
4.679
4.686
4.693
4.700
4.707
4.713
4.720
4.717
4.716
4.714
4.719
4.717
4.707
4.707
4.698
4.693
4.693
4.689
4.679
4.682
4.679
4.679
4.675
4.670
4.672
4.664
4.666
4.672
4.666
4.658
4.655
4.656
4.650
4.650
4.653
4.649
4.645
4.652
4.652
4.661
4.658
4.653
4.646
4.655
4.651
4.651
4.648
4.645
4.646
4.640
4.649
4.641
4.646
4.650
4.643
4.649
4.650
4.648
4.644
4.642
4.645
4.640
4.631
4.634
4.627
4.620
4.613
4.609
4.609
4.608
4.600
4.599
4.609
4.608
4.609
4.614
4.619
4.625
4.631
4.637
4.643
4.650
4.655
4.662
4.667
4.674
4.680
4.686
4.692
4.698
4.704
4.707
4.708
4.715
4.711
4.714
4.712
4.702
4.696
4.706
4.705
4.713
4.722
4.725
4.723
4.720
4.713
4.716
4.715
4.716
4.718
4.712
4.711
4.712
4.713
4.711
4.707
4.698
4.696
4.693
4.690
4.682
4.684
4.686
4.682
4.676
4.678
4.681
4.685
4.685
4.681
4.684
4.692
4.689
4.684
4.675
4.669
4.667
4.669
4.667
4.667
4.667
4.661
4.662
4.658
4.654
4.648
4.642
4.637
4.631
4.631
4.638
4.629
4.626
4.623
4.620
4.628
4.636
4.641
4.639
4.633
4.632
4.632
4.638
4.637
4.636
4.635
4.633
4.633
4.628
4.625
4.628
4.635
4.631
4.629
4.634
4.633
4.642
4.650
4.648
4.652
4.647
4.651
4.642
4.646
4.647
4.645
4.642
4.644
4.647
4.646
4.651
4.656
4.662
4.667
4.672
4.677
4.682
4.688
4.693
4.698
4.704
4.708
4.706
4.707
4.702
4.696
4.697
4.697
4.699
4.701
4.697
4.696
4.696
4.700
4.703
4.695
4.691
4.688
4.686
4.681
4.679
4.682
4.676
4.675
4.673
4.674
4.682
4.689
4.690
4.688
4.689
4.691
4.686
4.686
4.686
4.692
4.687
4.684
4.684
4.682
4.688
4.695
4.702
4.709
4.708
4.709
4.711
4.716
4.714
4.703
4.707
4.702
4.696
4.696
4.694
4.700
4.692
4.687
4.689
4.689
4.689
4.683
4.677
4.670
4.664
4.658
4.657
4.654
4.655
4.653
4.651
4.651
4.649
4.647
4.646
4.648
4.643
4.645
4.645
4.646
4.650
4.656
4.656
4.659
4.664
4.660
4.659
4.665
4.667
4.674
4.668
4.673
4.670
4.671
4.668
4.667
4.662
4.654
4.652
4.648
4.643
4.645
4.640
4.633
4.626
4.627
4.620
4.624
4.632
4.637
4.637
4.633
4.632
4.635
4.640
