2.992
3.332
3.511
3.632
3.724
3.797
3.837
3.882
3.921
3.964
3.995
4.007
4.047
4.081
4.078
4.076
4.102
4.125
4.146
4.169
4.187
4.208
4.226
4.241
4.245
4.207
4.177
4.194
4.203
4.208
4.221
4.225
4.240
4.241
4.255
4.268
4.270
4.277
4.281
4.288
4.299
4.309
4.308
4.317
4.325
4.334
4.330
4.337
4.344
4.355
4.362
4.351
4.360
4.366
4.376
4.381
4.392
4.378
4.384
4.392
4.398
4.403
4.407
4.413
4.420
4.414
4.414
4.421
4.421
4.424
4.436
4.440
4.444
4.451
4.456
4.454
4.459
4.446
4.451
4.455
4.455
4.462
4.466
4.474
4.475
4.476
4.478
4.490
4.492
4.493
4.495
4.498
4.502
4.506
4.491
4.492
4.499
4.495
4.500
4.504
4.510
4.512
4.510
4.518
4.516
4.520
4.518
4.525
4.529
4.536
4.533
4.542
4.540
4.540
4.543
4.547
4.547
4.555
4.558
4.564
4.562
4.555
4.544
4.542
4.543
4.545
4.541
4.547
4.547
4.551
4.557
4.561
4.563
4.562
4.569
4.575
4.563
4.566
4.571
4.566
4.574
4.578
4.577
4.583
4.587
4.588
4.587
4.588
4.590
4.597
4.603
4.591
4.593
4.597
4.598
4.595
4.599
4.602
4.607
4.605
4.610
4.618
4.614
4.619
4.617
4.624
4.623
4.630
4.631
4.625
4.629
4.627
4.628
4.630
4.634
4.622
4.614
4.602
4.599
4.603
4.601
4.608
4.610
4.616
4.617
4.611
4.621
4.618
4.628
4.619
4.620
4.622
4.626
4.629
4.629
4.632
4.632
4.638
4.634
4.627
4.626
4.636
4.628
4.633
4.629
4.632
4.631
4.638
4.634
4.638
4.639
4.638
4.642
4.636
4.647
4.649
4.648
4.655
4.653
4.657
4.658
4.658
4.658
4.652
4.659
4.651
4.662
4.665
4.658
4.673
4.669
4.666
4.675
4.668
4.673
4.665
4.661
4.669
4.664
4.666
4.673
4.668
4.669
4.666
4.666
4.671
4.675
4.671
4.675
4.677
4.672
4.676
4.675
4.676
4.677
4.688
4.683
4.685
4.691
4.693
4.692
4.693
4.697
4.695
4.694
4.701
4.700
4.692
4.695
4.698
4.692
4.696
4.705
4.704
4.705
4.701
4.710
4.709
4.708
4.704
4.719
4.720
4.711
4.710
4.722
4.718
4.724
4.715
4.716
4.709
4.703
4.710
4.710
4.714
4.708
4.714
4.725
4.723
4.718
4.710
4.721
4.721
4.714
4.712
4.719
4.717
4.716
4.714
4.716
4.726
4.722
4.725
4.724
4.723
4.732
4.736
4.732
4.736
4.729
4.739
4.738
4.739
4.732
4.737
4.744
4.747
4.743
4.740
4.738
4.742
4.736
4.731
4.724
4.720
4.714
4.709
4.708
4.710
4.714
4.714
4.711
4.712
4.705
4.709
4.707
4.710
4.708
4.706
4.713
4.718
4.721
4.717
4.714
4.714
4.716
4.728
4.729
4.725
4.714
4.712
4.716
4.721
4.724
4.728
4.724
4.723
4.721
4.726
4.730
4.729
4.725
4.729
4.730
4.725
4.733
4.742
4.746
4.742
4.740
4.744
4.738
4.737
4.730
4.725
4.719
4.717
4.718
4.728
4.732
4.729
4.725
4.731
4.730
4.721
4.727
4.728
4.727
4.718
4.713
4.712
4.713
4.723
4.730
4.723
4.727
4.728
4.727
4.717
4.718
4.726
4.732
4.729
4.722
4.725
4.724
4.723
4.722
4.729
4.740
4.736
4.735
4.736
4.735
4.732
4.733
4.737
4.738
4.747
4.746
4.739
4.744
4.740
4.741
4.740
4.738
4.740
4.751
4.747
4.746
4.737
4.735
4.739
4.736
4.736
4.743
4.751
4.758
4.753
4.754
4.750
4.744
4.744
4.746
4.742
4.749
4.759
4.758
4.758
4.755
4.759
4.755
4.759
4.758
4.756
4.754
4.762
4.771
4.770
4.766
4.769
4.765
4.759
4.752
4.755
4.751
4.759
4.762
4.762
4.766
4.759
4.755
4.759
4.755
4.753
4.755
4.755
4.763
4.759
4.758
4.756
4.754
4.756
4.754
4.751
4.752
4.751
4.755
4.764
4.771
4.778
4.774
4.770
4.769
4.770
4.763
4.767
4.768
4.762
4.769
4.767
4.774
4.781
4.781
4.780
4.779
4.777
4.766
4.766
4.763
4.761
4.766
4.767
4.774
4.781
4.787
4.784
4.784
4.786
4.782
4.784
4.784
4.781
4.779
4.780
4.777
4.778
4.785
4.792
4.801
4.807
4.803
4.803
4.799
4.794
4.790
4.784
4.793
4.792
4.782
4.784
4.788
4.795
4.796
4.797
4.799
4.799
4.798
4.795
4.793
4.791
4.793
4.788
4.782
4.778
4.785
4.781
4.777
4.773
4.774
4.775
4.771
4.775
4.771
4.778
4.774
4.772
4.768
4.772
4.777
4.784
4.782
4.786
4.788
4.786
4.785
4.778
4.773
4.769
4.762
4.762
4.757
4.758
4.766
4.772
4.779
4.777
4.779
4.777
4.779
4.777
4.782
4.778
4.776
4.775
4.773
4.769
4.768
4.766
4.766
4.772
4.777
4.783
4.788
4.786
4.787
4.788
4.788
4.786
4.782
4.781
4.782
4.786
4.787
4.786
4.788
4.788
4.784
4.781
4.781
4.788
4.795
4.794
4.795
4.797
4.792
4.786
4.785
4.784
4.785
4.781
4.782
4.783
4.782
4.783
4.784
4.780
4.777
4.783
4.790
4.797
4.793
4.788
4.787
4.781
4.779
4.784
4.788
4.784
4.781
4.780
4.782
4.780
4.781
4.781
4.777
4.777
4.779
4.786
4.793
4.799
4.806
4.808
4.804
4.800
4.801
4.800
4.798
4.799
4.795
4.795
4.796
4.797
4.799
4.795
4.795
4.799
4.799
4.799
4.795
4.794
4.801
4.807
4.810
4.811
4.810
4.807
4.810
4.810
4.807
4.807
4.806
4.810
4.807
4.802
4.795
4.794
4.792
4.794
4.796
4.795
4.793
4.792
4.798
4.805
4.810
4.816
4.815
4.818
4.815
4.813
4.812
4.810
4.810
4.811
4.815
4.816
4.821
4.814
4.814
4.807
4.809
4.807
4.814
4.810
4.809
4.808
4.806
4.805
4.812
4.819
4.825
4.830
4.837
4.836
4.837
4.833
4.834
4.830
4.825
4.825
4.825
4.822
4.825
4.824
4.823
4.827
4.825
4.822
4.818
4.816
4.814
4.816
4.815
4.814
4.815
4.821
4.826
4.829
4.828
4.825
4.823
4.819
4.815
4.811
4.809
4.805
4.803
4.803
4.801
4.803
4.799
4.802
4.803
4.802
4.803
4.802
4.804
4.805
4.803
4.805
4.806
4.813
4.817
4.822
4.829
4.833
4.834
4.827
4.825
4.824
4.821
4.814
4.809
4.808
4.806
4.810
4.807
4.808
4.812
4.811
4.809
4.803
4.799
4.797
4.799
4.797
4.798
4.795
4.798
4.803
4.810
4.814
4.820
4.825
4.823
4.829
4.834
4.835
4.836
4.833
4.829
4.827
4.828
4.829
4.829
4.827
4.831
4.827
4.825
4.827
4.825
4.819
4.817
4.818
4.820
4.816
4.817
4.816
4.812
4.813
4.807
4.807
4.812
4.818
4.823
4.827
4.832
4.836
4.834
4.833
4.832
4.836
4.834
4.832
4.836
4.833
4.836
4.836
4.839
4.836
4.837
4.836
4.834
4.835
4.834
4.838
4.836
4.835
4.836
4.836
4.832
4.829
4.826
4.824
4.818
4.824
4.825
4.819
4.825
4.827
4.832
4.838
4.842
4.847
4.853
4.852
4.856
4.854
4.851
4.851
4.848
4.846
4.847
4.844
4.847
4.851
4.851
4.851
4.847
4.847
4.850
4.852
4.858
4.855
4.856
4.855
4.851
4.846
4.845
4.844
4.847
4.843
4.840
4.836
4.839
4.840
4.837
4.841
4.840
4.841
4.845
4.851
4.856
4.860
4.862
4.860
4.862
4.868
4.864
4.860
4.861
4.862
4.859
4.858
4.856
4.852
4.853
4.857
4.861
4.857
4.853
4.849
4.845
4.841
4.837
4.833
4.831
4.835
4.832
4.830
4.832
4.832
4.832
4.830
4.831
4.835
4.832
4.833
4.834
4.838
4.842
4.847
4.851
4.857
4.862
4.862
4.859
4.862
4.859
4.858
4.855
4.854
4.856
4.851
4.848
4.851
4.855
4.854
4.858
4.852
4.855
4.855
4.853
4.847
4.847
4.849
4.847
4.846
4.845
4.844
