2.986
3.328
3.513
3.631
3.693
3.745
3.834
3.828
3.887
3.937
3.988
4.032
3.989
3.957
3.982
4.003
4.023
4.038
4.066
4.072
4.098
4.103
4.130
4.127
4.146
4.165
4.157
4.177
4.192
4.186
4.203
4.210
4.226
4.241
4.226
4.236
4.256
4.255
4.271
4.278
4.290
4.290
4.273
4.284
4.299
4.298
4.309
4.325
4.327
4.327
4.349
4.343
4.362
4.349
4.332
4.344
4.344
4.361
4.350
4.362
4.370
4.372
4.373
4.393
4.390
4.386
4.392
4.395
4.414
4.412
4.419
4.428
4.431
4.435
4.422
4.430
4.436
4.411
4.414
4.419
4.420
4.424
4.427
4.438
4.434
4.428
4.424
4.423
4.441
4.440
4.448
4.448
4.455
4.443
4.454
4.467
4.467
4.468
4.471
4.485
4.473
4.464
4.459
4.478
4.474
4.473
4.484
4.485
4.495
4.498
4.495
4.508
4.492
4.508
4.505
4.510
4.517
4.516
4.526
4.521
4.533
4.534
4.527
4.520
4.533
4.515
4.516
4.515
4.527
4.526
4.536
4.539
4.534
4.547
4.545
4.554
4.549
4.554
4.569
4.554
4.562
4.557
4.557
4.554
4.541
4.527
4.516
4.535
4.527
4.518
4.535
4.532
4.523
4.545
4.539
4.544
4.546
4.546
4.550
4.543
4.567
4.550
4.536
4.531
4.531
4.531
4.540
4.530
4.526
4.531
4.535
4.528
4.526
4.547
4.555
4.551
4.538
4.552
4.566
4.553
4.548
4.551
4.560
4.557
4.548
4.547
4.566
4.559
4.569
4.563
4.563
4.583
4.581
4.575
4.577
4.572
4.577
4.570
4.566
4.561
4.575
4.576
4.563
4.567
4.571
4.573
4.588
4.585
4.583
4.583
4.577
4.587
4.583
4.592
4.586
4.584
4.586
4.595
4.611
4.604
4.606
4.607
4.601
4.596
4.616
4.625
4.615
4.612
4.605
4.605
4.610
4.623
4.618
4.626
4.618
4.609
4.607
4.604
4.596
4.594
4.598
4.585
4.586
4.596
4.593
4.596
4.589
4.580
4.580
4.580
4.588
4.602
4.600
4.604
4.604
4.608
4.596
4.597
4.595
4.607
4.609
4.607
4.608
4.602
4.607
4.604
4.597
4.599
4.606
4.607
4.611
4.608
4.606
4.598
4.600
4.598
4.599
4.615
4.629
4.628
4.629
4.628
4.626
4.615
4.613
4.602
4.610
4.621
4.630
4.627
4.616
4.623
4.615
4.623
4.620
4.620
4.610
4.615
4.631
4.646
4.649
4.652
4.653
4.646
4.647
4.636
4.634
4.639
4.630
4.635
4.643
4.658
4.654
4.654
4.651
4.654
4.644
4.641
4.635
4.638
4.633
4.632
4.642
4.654
4.655
4.638
4.632
4.637
4.632
4.629
4.620
4.615
4.613
4.615
4.629
4.642
4.648
4.650
4.654
4.647
4.654
4.655
4.649
4.641
4.628
4.630
4.638
4.628
4.628
4.641
4.654
4.664
4.662
4.654
4.659
4.663
4.666
4.659
4.659
4.648
4.642
4.642
4.642
4.641
4.644
4.650
4.662
4.675
4.685
4.686
4.688
4.680
4.681
4.670
4.664
4.666
4.670
4.672
4.674
4.673
4.671
4.661
4.656
4.665
4.677
4.683
4.685
4.688
4.687
4.691
4.685
4.680
4.670
4.659
4.658
4.653
4.651
4.654
4.652
4.658
4.649
4.660
4.672
4.683
4.686
4.692
4.683
4.679
4.683
4.678
4.687
4.690
4.682
4.682
4.682
4.680
4.680
4.673
4.668
4.670
4.668
4.670
4.678
4.680
4.691
4.702
4.713
4.724
4.718
4.723
4.727
4.724
4.719
4.707
4.705
4.704
4.705
4.704
4.699
4.700
4.693
4.690
4.683
4.690
4.690
4.685
4.686
4.696
4.707
4.717
4.728
4.723
4.715
4.711
4.716
4.710
4.704
4.698
4.692
4.686
4.680
4.674
4.669
4.662
4.669
4.672
4.666
4.667
4.671
4.670
4.676
4.686
4.696
4.692
4.687
4.693
4.681
4.680
4.677
4.676
4.675
4.681
4.684
4.681
4.681
4.673
4.669
4.659
4.664
4.665
4.659
4.652
4.652
4.652
4.649
4.650
4.659
4.668
4.678
4.687
4.696
4.706
4.708
4.702
4.699
4.697
4.695
4.697
4.696
4.690
4.689
4.687
4.688
4.682
4.681
4.678
4.675
4.682
4.688
4.692
4.688
4.680
4.672
4.664
4.657
4.650
4.648
4.657
4.666
4.675
4.684
4.689
4.691
4.692
4.693
4.687
4.683
4.681
4.690
4.687
4.685
4.687
4.689
4.680
4.687
4.683
4.693
4.691
4.686
4.681
4.683
4.683
4.680
4.679
4.677
4.673
4.671
4.671
4.673
4.678
4.678
4.668
4.664
4.666
4.671
4.679
4.687
4.695
4.695
4.692
4.695
4.692
4.690
4.691
4.693
4.692
4.697
4.694
4.692
4.692
4.687
4.687
4.680
4.688
4.688
4.682
4.683
4.681
4.678
4.674
4.670
4.679
4.672
4.666
4.671
4.675
4.674
4.680
4.683
4.682
4.676
4.674
4.669
4.675
4.670
4.674
4.682
4.690
4.697
4.705
4.707
4.716
4.712
4.710
4.705
4.699
4.700
4.702
4.708
4.706
4.705
4.698
4.696
4.699
4.703
4.698
4.695
4.694
4.690
4.694
4.692
4.692
4.689
4.684
4.677
4.678
4.687
4.689
4.688
4.697
4.699
4.693
4.690
4.690
4.687
4.689
4.688
4.690
4.686
4.689
4.684
4.675
4.676
4.683
4.690
4.697
4.704
4.712
4.719
4.726
4.727
4.722
4.716
4.711
4.712
4.721
4.718
4.721
4.712
4.724
4.724
4.732
4.737
4.739
4.732
4.727
4.720
4.718
4.711
4.714
4.705
4.704
4.707
4.712
4.712
4.708
4.709
4.700
4.701
4.703
4.702
4.701
4.693
4.695
4.695
4.695
4.701
4.700
4.697
4.698
4.694
4.696
4.706
4.706
4.701
4.699
4.704
4.698
4.695
4.698
4.698
4.705
4.711
4.718
4.725
4.731
4.738
4.744
4.751
4.758
4.757
4.753
4.755
4.754
4.751
4.749
4.753
4.757
4.758
4.758
4.754
4.759
4.750
4.742
4.742
4.742
4.738
4.744
4.734
4.735
4.740
4.740
4.736
4.741
4.750
4.748
4.744
4.740
4.741
4.735
4.737
4.746
4.748
4.740
4.733
4.732
4.729
4.733
4.732
4.725
4.718
4.714
4.710
4.705
4.706
4.708
4.709
4.706
4.706
4.711
4.713
4.712
4.712
4.713
4.705
4.703
4.705
4.711
4.717
4.723
4.729
4.735
4.731
4.739
4.736
4.745
4.742
4.742
4.742
4.738
4.740
4.735
4.737
4.738
4.736
4.739
4.741
4.739
4.731
4.731
4.731
4.724
4.722
4.720
4.719
4.713
4.716
4.711
4.709
4.712
4.706
4.699
4.699
4.699
4.710
4.702
4.711
4.714
4.713
4.711
4.710
4.712
4.705
4.708
4.707
4.705
4.707
4.708
4.713
4.716
4.707
4.706
4.707
4.700
4.702
4.700
4.698
4.705
4.706
4.711
4.709
4.704
4.700
4.698
4.697
4.688
4.685
4.686
4.683
4.689
4.685
4.689
4.695
4.700
4.706
4.711
4.717
4.722
4.728
4.733
4.738
4.744
4.750
4.755
4.761
4.762
4.762
4.759
4.756
4.756
4.761
4.756
4.762
4.756
4.752
4.758
4.750
4.745
4.747
4.741
4.740
4.741
4.737
4.743
4.747
4.755
4.751
4.747
4.751
4.753
4.757
4.752
4.752
4.750
4.748
4.750
4.748
4.751
4.748
4.743
4.746
4.744
4.746
4.744
4.745
4.750
4.749
4.749
4.749
4.751
4.750
4.750
4.749
4.748
4.747
4.740
4.741
4.746
4.742
4.740
4.734
4.732
4.734
4.733
4.724
4.730
4.732
4.733
4.732
4.735
4.731
4.738
4.735
4.737
4.733
4.730
4.726
4.722
4.719
4.715
4.711
4.711
4.711
4.706
4.706
4.706
4.715
4.715
4.718
4.721
4.721
4.715
4.719
4.724
4.729
4.734
4.739
4.744
4.749
4.754
4.759
4.764
4.769
4.772
4.766
4.760
4.754
4.753
4.748
4.750
4.747
4.747
4.748
4.748
4.743
4.739
4.738
4.734
4.734
4.731
4.732
4.732
4.728
4.731
4.729
4.730
4.734
4.728
4.730
4.728
4.724
4.724
4.728
4.726
4.728
4.731
4.725
4.723
4.723
4.719
