2.989
3.333
3.506
3.613
3.723
3.793
3.823
3.900
3.876
3.931
3.980
4.011
4.054
4.008
3.987
4.003
4.024
4.054
4.064
4.078
4.093
4.112
4.113
4.134
4.153
4.151
4.169
4.184
4.182
4.199
4.213
4.226
4.217
4.231
4.242
4.260
4.263
4.254
4.261
4.272
4.278
4.294
4.298
4.306
4.319
4.300
4.301
4.316
4.320
4.319
4.334
4.343
4.348
4.344
4.363
4.373
4.369
4.383
4.362
4.357
4.368
4.363
4.380
4.385
4.378
4.387
4.392
4.402
4.403
4.411
4.417
4.412
4.415
4.419
4.428
4.439
4.436
4.440
4.455
4.450
4.450
4.452
4.462
4.452
4.430
4.433
4.443
4.440
4.443
4.445
4.454
4.463
4.453
4.454
4.449
4.457
4.453
4.455
4.470
4.467
4.478
4.479
4.461
4.479
4.491
4.489
4.493
4.500
4.493
4.486
4.493
4.494
4.485
4.500
4.501
4.492
4.505
4.503
4.517
4.512
4.523
4.523
4.524
4.530
4.526
4.531
4.522
4.545
4.539
4.550
4.541
4.552
4.551
4.550
4.545
4.550
4.551
4.546
4.533
4.540
4.546
4.542
4.563
4.562
4.552
4.566
4.559
4.570
4.571
4.566
4.585
4.585
4.576
4.589
4.583
4.577
4.571
4.559
4.547
4.538
4.551
4.552
4.545
4.556
4.545
4.545
4.557
4.557
4.555
4.555
4.578
4.569
4.565
4.570
4.574
4.578
4.569
4.562
4.556
4.546
4.569
4.555
4.546
4.550
4.559
4.545
4.547
4.553
4.562
4.563
4.555
4.567
4.576
4.569
4.568
4.570
4.570
4.581
4.571
4.567
4.566
4.583
4.582
4.584
4.570
4.572
4.591
4.597
4.594
4.589
4.586
4.594
4.608
4.602
4.604
4.588
4.591
4.592
4.595
4.591
4.585
4.584
4.599
4.600
4.595
4.592
4.590
4.592
4.612
4.613
4.609
4.604
4.606
4.594
4.614
4.614
4.617
4.610
4.610
4.609
4.609
4.628
4.636
4.630
4.627
4.623
4.618
4.618
4.636
4.637
4.630
4.637
4.631
4.633
4.626
4.636
4.645
4.641
4.630
4.620
4.609
4.612
4.629
4.626
4.611
4.618
4.622
4.609
4.598
4.615
4.620
4.616
4.610
4.610
4.607
4.608
4.603
4.611
4.628
4.633
4.630
4.626
4.627
4.611
4.608
4.614
4.615
4.631
4.637
4.637
4.637
4.626
4.613
4.608
4.599
4.610
4.625
4.639
4.636
4.638
4.631
4.625
4.625
4.624
4.626
4.628
4.626
4.641
4.650
4.653
4.640
4.643
4.637
4.640
4.638
4.638
4.631
4.631
4.645
4.660
4.653
4.648
4.649
4.645
4.651
4.650
4.643
4.648
4.637
4.639
4.653
4.667
4.672
4.674
4.671
4.664
4.668
4.662
4.656
4.661
4.649
4.651
4.654
4.662
4.675
4.675
4.667
4.665
4.674
4.670
4.665
4.655
4.646
4.639
4.643
4.645
4.658
4.668
4.673
4.667
4.656
4.652
4.645
4.648
4.646
4.636
4.638
4.641
4.643
4.640
4.653
4.665
4.677
4.676
4.681
4.676
4.669
4.660
4.653
4.657
4.650
4.647
4.653
4.659
4.647
4.646
4.658
4.670
4.682
4.691
4.692
4.684
4.684
4.681
4.672
4.674
4.672
4.672
4.669
4.673
4.662
4.666
4.669
4.671
4.674
4.682
4.693
4.705
4.703
4.705
4.697
4.700
4.694
4.699
4.697
4.690
4.696
4.689
4.694
4.687
4.695
4.690
4.681
4.676
4.687
4.698
4.708
4.708
4.704
4.696
4.697
4.692
4.680
4.683
4.684
4.682
4.677
4.674
4.675
4.682
4.675
4.682
4.679
4.679
4.683
4.694
4.704
4.712
4.712
4.708
4.707
4.710
4.708
4.707
4.711
4.710
4.699
4.703
4.702
4.705
4.703
4.703
4.703
4.699
4.700
4.700
4.694
4.700
4.702
4.710
4.719
4.730
4.739
4.749
4.745
4.739
4.735
4.733
4.727
4.716
4.723
4.717
4.718
4.724
4.725
4.724
4.722
4.713
4.709
4.714
4.713
4.710
4.709
4.709
4.711
4.720
4.730
4.732
4.726
4.721
4.715
4.710
4.704
4.701
4.699
4.698
4.695
4.691
4.690
4.693
4.697
4.691
4.687
4.691
4.695
4.693
4.698
4.693
4.694
4.693
4.696
4.705
4.714
4.711
4.715
4.714
4.712
4.707
4.702
4.702
4.693
4.693
4.702
4.702
4.700
4.696
4.695
4.694
4.685
4.684
4.674
4.680
4.678
4.670
4.665
4.676
4.674
4.671
4.672
4.681
4.690
4.698
4.707
4.715
4.723
4.731
4.729
4.728
4.721
4.711
4.712
4.709
4.705
4.711
4.716
4.715
4.715
4.709
4.708
4.706
4.706
4.698
4.692
4.690
4.684
4.681
4.677
4.678
4.684
4.675
4.665
4.664
4.669
4.677
4.685
4.693
4.701
4.709
4.714
4.708
4.711
4.707
4.702
4.701
4.707
4.717
4.714
4.707
4.716
4.713
4.709
4.714
4.711
4.715
4.723
4.716
4.712
4.710
4.708
4.699
4.698
4.692
4.695
4.691
4.689
4.691
4.686
4.693
4.694
4.689
4.693
4.687
4.688
4.684
4.691
4.698
4.706
4.714
4.721
4.723
4.724
4.717
4.719
4.716
4.715
4.712
4.715
4.719
4.717
4.714
4.708
4.702
4.701
4.702
4.709
4.710
4.706
4.708
4.710
4.706
4.696
4.697
4.696
4.700
4.704
4.700
4.695
4.701
4.704
4.702
4.707
4.707
4.699
4.695
4.692
4.693
4.690
4.683
4.685
4.692
4.700
4.706
4.713
4.720
4.727
4.732
4.726
4.726
4.730
4.731
4.731
4.729
4.726
4.734
4.730
4.733
4.725
4.726
4.725
4.724
4.719
4.711
4.715
4.717
4.715
4.712
4.713
4.716
4.713
4.707
4.708
4.706
4.705
4.709
4.713
4.709
4.720
4.723
4.719
4.717
4.713
4.705
4.709
4.707
4.706
4.702
4.701
4.693
4.684
4.685
4.688
4.694
4.701
4.707
4.714
4.720
4.727
4.733
4.740
4.746
4.747
4.741
4.736
4.738
4.738
4.749
4.751
4.749
4.744
4.748
4.750
4.749
4.754
4.752
4.746
4.743
4.741
4.739
4.739
4.735
4.732
4.736
4.733
4.727
4.731
4.736
4.731
4.728
4.720
4.716
4.713
4.723
4.722
4.727
4.726
4.726
4.727
4.729
4.725
4.734
4.729
4.721
4.719
4.716
4.716
4.720
4.725
4.724
4.725
4.723
4.720
4.720
4.724
4.722
4.719
4.720
4.722
4.728
4.734
4.740
4.746
4.752
4.758
4.764
4.770
4.775
4.775
4.777
4.785
4.786
4.786
4.781
4.780
4.778
4.769
4.770
4.770
4.773
4.773
4.773
4.773
4.770
4.763
4.763
4.761
4.759
4.761
4.762
4.768
4.760
4.753
4.755
4.756
4.756
4.754
4.753
4.759
4.758
4.761
4.764
4.760
4.754
4.748
4.745
4.744
4.752
4.743
4.734
4.729
4.729
4.728
4.731
4.732
4.732
4.732
4.732
4.733
4.732
4.734
4.732
4.727
4.723
4.718
4.713
4.708
4.707
4.712
4.718
4.723
4.729
4.734
4.740
4.745
4.751
4.752
4.757
4.755
4.763
4.771
4.769
4.775
4.769
4.765
4.764
4.757
4.755
4.753
4.754
4.756
4.757
4.761
4.754
4.750
4.744
4.743
4.741
4.742
4.742
4.744
4.740
4.736
4.731
4.732
4.734
4.728
4.726
4.730
4.730
4.729
4.736
4.733
4.731
4.733
4.732
4.731
4.724
4.726
4.722
4.721
4.724
4.727
4.728
4.723
4.725
4.731
4.737
4.736
4.734
4.729
4.731
4.730
4.730
4.730
4.729
4.729
4.728
4.723
4.725
4.719
4.715
4.714
4.710
4.711
4.707
4.706
4.706
4.710
4.710
4.707
4.714
4.716
4.713
4.713
4.720
4.723
4.728
4.733
4.738
4.743
4.748
4.753
4.758
4.762
4.767
4.772
4.777
4.782
4.782
4.776
4.778
4.784
4.784
4.783
4.778
4.773
4.775
4.776
4.768
4.771
4.772
4.772
4.765
4.762
4.757
4.758
4.760
4.763
4.770
4.777
4.779
4.778
4.781
4.781
4.782
4.775
4.774
4.771
4.767
4.764
4.765
4.772
4.766
4.767
4.768
4.767
4.764
4.765
4.773
4.773
4.775
