2.994
3.335
3.509
3.625
3.714
3.774
3.833
3.869
3.934
3.940
3.986
4.029
4.030
4.034
4.065
4.092
4.117
4.140
4.164
4.184
4.205
4.179
4.136
4.147
4.159
4.166
4.173
4.192
4.197
4.210
4.216
4.228
4.235
4.245
4.257
4.256
4.270
4.278
4.288
4.284
4.293
4.305
4.317
4.307
4.317
4.327
4.334
4.346
4.334
4.343
4.350
4.358
4.361
4.371
4.373
4.366
4.375
4.376
4.383
4.392
4.395
4.404
4.410
4.412
4.416
4.403
4.411
4.412
4.418
4.426
4.433
4.434
4.436
4.444
4.451
4.450
4.455
4.459
4.465
4.447
4.451
4.451
4.452
4.458
4.465
4.466
4.476
4.469
4.476
4.478
4.487
4.491
4.492
4.499
4.496
4.503
4.496
4.510
4.509
4.524
4.517
4.522
4.504
4.499
4.499
4.503
4.504
4.508
4.510
4.522
4.523
4.519
4.523
4.527
4.521
4.525
4.523
4.530
4.534
4.540
4.545
4.547
4.548
4.549
4.558
4.560
4.550
4.555
4.562
4.560
4.558
4.562
4.561
4.568
4.575
4.576
4.583
4.581
4.578
4.590
4.583
4.593
4.588
4.585
4.589
4.596
4.591
4.579
4.569
4.562
4.561
4.566
4.578
4.566
4.572
4.582
4.578
4.582
4.584
4.582
4.584
4.587
4.589
4.596
4.592
4.595
4.592
4.592
4.591
4.588
4.589
4.590
4.592
4.596
4.594
4.601
4.600
4.604
4.603
4.609
4.611
4.610
4.618
4.615
4.619
4.612
4.614
4.610
4.624
4.618
4.632
4.626
4.629
4.629
4.632
4.636
4.624
4.626
4.619
4.634
4.633
4.628
4.627
4.620
4.636
4.629
4.630
4.637
4.632
4.637
4.638
4.637
4.649
4.644
4.647
4.656
4.658
4.653
4.660
4.659
4.651
4.666
4.652
4.648
4.658
4.661
4.658
4.669
4.666
4.664
4.668
4.670
4.673
4.672
4.677
4.673
4.674
4.683
4.677
4.677
4.677
4.670
4.666
4.670
4.679
4.680
4.677
4.681
4.676
4.673
4.670
4.683
4.674
4.673
4.676
4.684
4.685
4.678
4.681
4.691
4.690
4.691
4.692
4.699
4.698
4.695
4.695
4.699
4.704
4.705
4.706
4.697
4.710
4.705
4.710
4.705
4.701
4.695
4.690
4.683
4.676
4.672
4.670
4.673
4.668
4.664
4.665
4.664
4.679
4.680
4.677
4.677
4.676
4.681
4.687
4.683
4.687
4.677
4.681
4.683
4.682
4.684
4.682
4.680
4.693
4.692
4.690
4.688
4.688
4.689
4.703
4.702
4.703
4.707
4.701
4.695
4.707
4.703
4.695
4.688
4.684
4.689
4.690
4.694
4.690
4.691
4.684
4.691
4.690
4.688
4.681
4.675
4.679
4.689
4.692
4.689
4.685
4.683
4.676
4.686
4.692
4.686
4.685
4.691
4.682
4.686
4.692
4.697
4.699
4.700
4.696
4.700
4.696
4.699
4.704
4.708
4.704
4.708
4.706
4.702
4.701
4.702
4.714
4.707
4.707
4.700
4.699
4.699
4.699
4.707
4.718
4.714
4.712
4.710
4.712
4.707
4.709
4.708
4.718
4.722
4.726
4.724
4.721
4.721
4.723
4.724
4.718
4.727
4.737
4.733
4.731
4.724
4.715
4.710
4.709
4.721
4.729
4.729
4.721
4.722
4.721
4.721
4.718
4.714
4.718
4.725
4.723
4.721
4.721
4.724
4.720
4.718
4.721
4.722
4.726
4.736
4.737
4.732
4.734
4.735
4.737
4.736
4.731
4.725
4.731
4.738
4.740
4.738
4.731
4.733
4.736
4.733
4.737
4.732
4.734
4.733
4.742
4.752
4.751
4.752
4.751
4.751
4.750
4.749
4.745
4.746
4.755
4.757
4.755
4.763
4.761
4.762
4.756
4.758
4.758
4.758
4.758
4.757
4.750
4.749
4.758
4.766
4.767
4.766
4.766
4.763
4.758
4.752
4.745
4.741
4.736
4.744
4.744
4.741
4.750
4.747
4.740
4.736
4.734
4.732
4.733
4.733
4.733
4.740
4.747
4.749
4.742
4.735
4.728
4.729
4.728
4.724
4.726
4.725
4.725
4.724
4.734
4.743
4.750
4.744
4.745
4.743
4.744
4.743
4.736
4.735
4.737
4.736
4.736
4.735
4.737
4.741
4.748
4.757
4.762
4.763
4.759
4.765
4.758
4.751
4.747
4.746
4.740
4.743
4.745
4.741
4.740
4.747
4.756
4.763
4.761
4.760
4.758
4.755
4.748
4.746
4.751
4.747
4.747
4.741
4.733
4.733
4.739
4.746
4.753
4.757
4.766
4.762
4.758
4.757
4.758
4.754
4.758
4.754
4.750
4.752
4.755
4.751
4.748
4.749
4.748
4.755
4.764
4.771
4.773
4.776
4.775
4.771
4.778
4.776
4.775
4.770
4.764
4.765
4.764
4.763
4.755
4.752
4.762
4.763
4.762
4.771
4.777
4.776
4.769
4.770
4.770
4.768
4.766
4.763
4.769
4.768
4.769
4.768
4.769
4.765
4.759
4.763
4.764
4.762
4.767
4.774
4.781
4.787
4.791
4.790
4.788
4.790
4.789
4.792
4.791
4.792
4.789
4.788
4.783
4.785
4.783
4.787
4.786
4.779
4.777
4.776
4.777
4.784
4.791
4.798
4.795
4.793
4.795
4.790
4.794
4.799
4.795
4.796
4.792
4.787
4.780
4.781
4.777
4.779
4.777
4.777
4.772
4.768
4.772
4.779
4.786
4.787
4.783
4.785
4.783
4.787
4.781
4.781
4.783
4.784
4.781
4.779
4.784
4.782
4.778
4.777
4.778
4.776
4.770
4.765
4.759
4.766
4.773
4.779
4.778
4.781
4.778
4.785
4.786
4.790
4.786
4.781
4.780
4.777
4.778
4.781
4.778
4.781
4.775
4.776
4.780
4.773
4.780
4.784
4.781
4.784
4.784
4.779
4.778
4.782
4.788
4.795
4.795
4.796
4.797
4.793
4.791
4.792
4.792
4.793
4.792
4.787
4.788
4.787
4.788
4.788
4.786
4.787
4.786
4.784
4.786
4.785
4.786
4.785
4.783
4.782
4.781
4.788
4.789
4.795
4.802
4.807
4.814
4.817
4.810
4.810
4.811
4.809
4.807
4.803
4.802
4.806
4.799
4.801
4.800
4.799
4.802
4.806
4.802
4.801
4.807
4.807
4.807
4.799
4.800
4.806
4.807
4.804
4.802
4.799
4.803
4.806
4.813
4.817
4.824
4.826
4.824
4.823
4.825
4.831
4.825
4.821
4.822
4.821
4.819
4.812
4.811
4.812
4.818
4.817
4.816
4.820
4.814
4.807
4.805
4.809
4.810
4.814
4.807
4.807
4.808
4.807
4.805
4.806
4.805
4.810
4.816
4.821
4.821
4.821
4.822
4.818
4.813
4.814
4.807
4.804
4.810
4.806
4.811
4.814
4.816
4.820
4.814
4.814
4.814
4.817
4.808
4.809
4.807
4.809
4.805
4.798
4.799
4.799
4.802
4.799
4.799
4.801
4.799
4.801
4.808
4.810
4.816
4.823
4.827
4.833
4.838
4.837
4.836
4.834
4.833
4.833
4.835
4.836
4.835
4.831
4.827
4.825
4.829
4.829
4.830
4.828
4.829
4.828
4.825
4.821
4.827
4.828
4.830
4.831
4.830
4.826
4.825
4.828
4.827
4.831
4.830
4.826
4.827
4.821
4.824
4.825
4.825
4.825
4.830
4.836
4.841
4.845
4.851
4.856
4.862
4.867
4.862
4.861
4.855
4.858
4.857
4.851
4.846
4.844
4.847
4.848
4.846
4.848
4.847
4.842
4.838
4.834
4.838
4.836
4.836
4.837
4.841
4.839
4.840
4.837
4.833
4.834
4.830
4.836
4.835
4.831
4.829
4.825
4.822
4.820
4.821
4.826
4.830
4.836
4.840
4.834
4.830
4.826
4.821
4.820
4.822
4.823
4.818
4.818
4.821
4.820
4.822
4.821
4.816
4.818
4.824
4.825
4.822
4.820
4.819
4.818
4.819
4.817
4.814
4.817
4.819
4.820
4.816
4.817
4.813
4.809
4.811
4.815
4.818
4.814
4.811
4.807
4.803
4.799
4.800
4.804
4.808
4.814
4.819
4.823
4.824
4.829
4.833
4.834
4.830
4.831
4.832
4.831
4.827
4.825
4.825
4.823
4.825
4.828
4.825
4.826
4.825
4.823
4.824
4.825
4.825
4.820
4.814
4.814
4.811
4.810
4.808
4.810
4.805
4.801
4.808
4.814
4.816
4.815
4.808
4.806
4.807
4.804
