2.994
3.335
3.509
3.637
3.725
3.784
3.840
3.876
3.943
3.945
3.993
4.038
4.009
4.040
4.064
4.095
4.117
4.145
4.171
4.188
4.166
4.120
4.127
4.147
4.158
4.166
4.182
4.188
4.203
4.208
4.221
4.224
4.239
4.241
4.253
4.263
4.275
4.271
4.280
4.288
4.299
4.295
4.302
4.315
4.321
4.328
4.322
4.328
4.340
4.345
4.354
4.362
4.351
4.361
4.363
4.370
4.374
4.381
4.390
4.399
4.403
4.394
4.393
4.392
4.403
4.411
4.415
4.417
4.423
4.427
4.434
4.435
4.442
4.449
4.450
4.433
4.440
4.440
4.445
4.447
4.453
4.455
4.456
4.463
4.467
4.471
4.473
4.479
4.486
4.484
4.489
4.487
4.500
4.499
4.503
4.509
4.502
4.490
4.484
4.488
4.488
4.493
4.499
4.507
4.503
4.509
4.514
4.510
4.514
4.515
4.516
4.515
4.519
4.528
4.529
4.532
4.538
4.543
4.547
4.540
4.540
4.548
4.544
4.543
4.552
4.558
4.558
4.561
4.563
4.561
4.566
4.578
4.571
4.577
4.579
4.572
4.577
4.586
4.579
4.570
4.558
4.553
4.552
4.556
4.563
4.561
4.558
4.569
4.571
4.562
4.571
4.575
4.571
4.578
4.577
4.583
4.584
4.575
4.576
4.578
4.574
4.577
4.579
4.581
4.587
4.584
4.592
4.588
4.598
4.595
4.601
4.595
4.610
4.605
4.607
4.597
4.599
4.602
4.614
4.610
4.615
4.621
4.615
4.622
4.615
4.616
4.609
4.613
4.612
4.624
4.617
4.619
4.614
4.614
4.623
4.621
4.628
4.625
4.620
4.633
4.628
4.632
4.639
4.638
4.642
4.643
4.640
4.647
4.647
4.644
4.643
4.640
4.643
4.651
4.653
4.649
4.661
4.654
4.653
4.665
4.667
4.657
4.666
4.669
4.672
4.665
4.677
4.665
4.659
4.660
4.659
4.662
4.675
4.669
4.666
4.668
4.669
4.663
4.661
4.665
4.669
4.663
4.669
4.676
4.672
4.671
4.675
4.690
4.688
4.680
4.680
4.688
4.689
4.687
4.689
4.698
4.697
4.690
4.688
4.698
4.700
4.692
4.684
4.679
4.672
4.665
4.667
4.662
4.658
4.649
4.664
4.662
4.662
4.662
4.661
4.673
4.670
4.671
4.670
4.663
4.672
4.666
4.662
4.666
4.667
4.679
4.675
4.679
4.672
4.671
4.680
4.687
4.684
4.688
4.686
4.685
4.691
4.696
4.692
4.690
4.688
4.680
4.673
4.673
4.670
4.671
4.675
4.682
4.673
4.673
4.675
4.673
4.672
4.674
4.673
4.671
4.670
4.671
4.675
4.684
4.673
4.674
4.669
4.665
4.672
4.685
4.684
4.684
4.677
4.685
4.678
4.679
4.692
4.701
4.694
4.690
4.686
4.688
4.688
4.695
4.697
4.695
4.694
4.690
4.683
4.680
4.692
4.704
4.706
4.701
4.697
4.693
4.692
4.695
4.700
4.707
4.710
4.709
4.706
4.706
4.705
4.709
4.706
4.715
4.721
4.714
4.721
4.718
4.719
4.712
4.705
4.714
4.714
4.715
4.711
4.703
4.710
4.707
4.700
4.709
4.717
4.714
4.711
4.707
4.702
4.701
4.706
4.703
4.710
4.720
4.722
4.723
4.717
4.717
4.722
4.717
4.714
4.714
4.717
4.728
4.740
4.737
4.725
4.720
4.717
4.717
4.717
4.714
4.719
4.731
4.735
4.739
4.738
4.736
4.735
4.736
4.730
4.731
4.733
4.736
4.740
4.748
4.755
4.747
4.751
4.748
4.743
4.740
4.738
4.740
4.743
4.743
4.751
4.751
4.749
4.753
4.747
4.750
4.747
4.754
4.747
4.742
4.736
4.731
4.727
4.732
4.733
4.729
4.729
4.720
4.722
4.723
4.717
4.725
4.735
4.743
4.740
4.743
4.735
4.728
4.722
4.715
4.711
4.710
4.708
4.718
4.727
4.734
4.736
4.737
4.730
4.728
4.729
4.723
4.722
4.728
4.727
4.723
4.717
4.725
4.733
4.739
4.740
4.743
4.743
4.747
4.747
4.743
4.744
4.742
4.736
4.728
4.727
4.732
4.732
4.740
4.744
4.743
4.743
4.740
4.743
4.737
4.741
4.743
4.738
4.731
4.729
4.728
4.725
4.731
4.740
4.742
4.744
4.745
4.744
4.740
4.740
4.736
4.740
4.742
4.741
4.739
4.738
4.737
4.735
4.736
4.741
4.748
4.757
4.761
4.754
4.754
4.754
4.762
4.760
4.758
4.757
4.758
4.760
4.753
4.744
4.742
4.744
4.747
4.749
4.758
4.765
4.772
4.765
4.758
4.758
4.751
4.755
4.754
4.755
4.751
4.754
4.753
4.746
4.742
4.749
4.750
4.749
4.754
4.762
4.770
4.774
4.775
4.777
4.775
4.774
4.775
4.776
4.773
4.769
4.770
4.771
4.770
4.769
4.773
4.776
4.777
4.771
4.762
4.766
4.775
4.782
4.789
4.790
4.788
4.779
4.775
4.784
4.780
4.782
4.784
4.779
4.777
4.774
4.775
4.771
4.764
4.760
4.762
4.768
4.767
4.771
4.772
4.771
4.769
4.768
4.769
4.769
4.767
4.768
4.766
4.760
4.766
4.769
4.769
4.768
4.769
4.771
4.762
4.758
4.754
4.755
4.761
4.769
4.773
4.774
4.767
4.769
4.770
4.769
4.770
4.768
4.770
4.762
4.766
4.763
4.764
4.762
4.759
4.763
4.761
4.766
4.766
4.765
4.767
4.768
4.767
4.768
4.777
4.782
4.784
4.787
4.783
4.780
4.780
4.777
4.777
4.774
4.781
4.780
4.780
4.776
4.770
4.768
4.770
4.771
4.772
4.771
4.770
4.769
4.770
4.765
4.764
4.769
4.773
4.780
4.788
4.793
4.800
4.804
4.803
4.798
4.800
4.798
4.792
4.788
4.788
4.788
4.783
4.788
4.788
4.788
4.791
4.792
4.789
4.788
4.786
4.785
4.786
4.785
4.789
4.787
4.783
4.784
4.784
4.792
4.799
4.804
4.810
4.817
4.814
4.812
4.813
4.817
4.813
4.817
4.819
4.815
4.811
4.806
4.799
4.798
4.800
4.799
4.800
4.801
4.800
4.801
4.802
4.801
4.797
4.796
4.795
4.798
4.795
4.795
4.795
4.798
4.805
4.807
4.806
4.807
4.803
4.804
4.802
4.804
4.805
4.803
4.797
4.792
4.797
4.796
4.799
4.803
4.800
4.801
4.802
4.803
4.797
4.798
4.792
4.790
4.788
4.788
4.791
4.788
4.784
4.784
4.791
4.790
4.792
4.798
4.805
4.810
4.816
4.821
4.827
4.825
4.822
4.823
4.821
4.817
4.817
4.823
4.824
4.823
4.817
4.812
4.817
4.812
4.810
4.809
4.813
4.814
4.814
4.815
4.816
4.817
4.816
4.814
4.811
4.810
4.813
4.810
4.813
4.812
4.814
4.814
4.813
4.814
4.811
4.815
4.821
4.826
4.832
4.837
4.843
4.848
4.849
4.847
4.843
4.843
4.843
4.850
4.849
4.847
4.849
4.843
4.836
4.831
4.833
4.836
4.832
4.828
4.829
4.828
4.822
4.818
4.822
4.821
4.824
4.823
4.821
4.821
4.817
4.823
4.829
4.832
4.827
4.820
4.819
4.818
4.819
4.820
4.825
4.831
4.830
4.828
4.821
4.820
4.819
4.818
4.813
4.809
4.806
4.807
4.805
4.807
4.811
4.804
4.810
4.810
4.808
4.807
4.806
4.803
4.799
4.799
4.800
4.804
4.805
4.806
4.805
4.803
4.800
4.798
4.802
4.798
4.797
4.796
4.797
4.801
4.799
4.798
4.799
4.803
4.806
4.809
4.808
4.815
4.819
4.821
4.817
4.818
4.819
4.814
4.811
4.810
4.810
4.809
4.811
4.814
4.811
4.814
4.811
4.809
4.810
4.812
4.810
4.814
4.810
4.809
4.805
4.799
4.795
4.793
4.792
4.798
4.797
4.798
4.799
4.799
4.794
4.799
4.795
4.796
4.794
4.788
4.783
4.785
4.786
4.785
4.788
4.793
4.797
4.803
4.806
4.810
4.816
4.821
4.822
4.821
4.819
4.821
4.821
4.815
4.814
4.814
4.816
4.818
4.817
4.821
4.821
4.825
4.827
4.825
4.827
4.829
4.825
4.821
4.817
4.814
4.811
4.810
4.811
4.812
4.811
4.807
4.803
4.806
4.805
4.801
4.800
4.806
4.808
4.806
4.803
4.799
4.795
4.793
4.788
4.790
4.788
4.792
4.799
