2.995
3.333
3.506
3.626
3.726
3.772
3.825
3.899
3.908
3.962
3.981
3.985
4.020
4.049
4.080
4.110
4.135
4.162
4.107
4.086
4.104
4.113
4.127
4.138
4.158
4.162
4.178
4.186
4.202
4.201
4.213
4.228
4.227
4.239
4.252
4.247
4.264
4.272
4.283
4.291
4.289
4.291
4.305
4.314
4.325
4.315
4.323
4.328
4.335
4.341
4.352
4.360
4.362
4.352
4.362
4.362
4.371
4.380
4.382
4.385
4.392
4.400
4.401
4.409
4.416
4.402
4.398
4.405
4.409
4.416
4.427
4.423
4.426
4.432
4.439
4.444
4.451
4.451
4.449
4.463
4.467
4.465
4.472
4.470
4.451
4.449
4.454
4.456
4.462
4.469
4.470
4.475
4.479
4.474
4.479
4.486
4.480
4.488
4.500
4.498
4.499
4.505
4.505
4.504
4.509
4.507
4.508
4.516
4.521
4.527
4.528
4.527
4.533
4.540
4.540
4.551
4.539
4.547
4.547
4.548
4.541
4.526
4.516
4.527
4.524
4.521
4.531
4.537
4.535
4.531
4.535
4.544
4.542
4.545
4.556
4.543
4.539
4.539
4.540
4.543
4.548
4.551
4.551
4.553
4.557
4.562
4.568
4.561
4.574
4.570
4.569
4.570
4.573
4.579
4.580
4.585
4.579
4.591
4.590
4.586
4.569
4.585
4.581
4.588
4.571
4.583
4.584
4.595
4.584
4.591
4.593
4.590
4.599
4.600
4.610
4.605
4.605
4.616
4.607
4.621
4.608
4.611
4.615
4.613
4.624
4.623
4.612
4.630
4.628
4.625
4.634
4.630
4.629
4.636
4.639
4.635
4.623
4.623
4.636
4.639
4.631
4.632
4.632
4.624
4.635
4.628
4.627
4.639
4.640
4.634
4.635
4.653
4.652
4.647
4.650
4.656
4.649
4.650
4.663
4.665
4.654
4.654
4.671
4.670
4.666
4.660
4.657
4.649
4.640
4.632
4.626
4.628
4.630
4.625
4.627
4.628
4.638
4.639
4.634
4.632
4.637
4.631
4.635
4.632
4.641
4.646
4.642
4.637
4.641
4.651
4.657
4.653
4.653
4.658
4.659
4.661
4.661
4.658
4.652
4.646
4.640
4.645
4.645
4.646
4.644
4.646
4.640
4.642
4.644
4.644
4.644
4.642
4.636
4.639
4.645
4.642
4.637
4.638
4.641
4.647
4.650
4.655
4.649
4.651
4.649
4.653
4.662
4.658
4.658
4.661
4.655
4.653
4.665
4.668
4.653
4.654
4.655
4.653
4.662
4.672
4.669
4.669
4.667
4.664
4.662
4.669
4.681
4.679
4.677
4.685
4.679
4.674
4.673
4.686
4.694
4.692
4.686
4.677
4.667
4.669
4.681
4.678
4.687
4.678
4.673
4.673
4.676
4.676
4.677
4.682
4.679
4.680
4.679
4.684
4.672
4.678
4.691
4.698
4.697
4.694
4.692
4.689
4.690
4.691
4.688
4.694
4.694
4.695
4.692
4.697
4.694
4.691
4.695
4.692
4.705
4.715
4.713
4.710
4.711
4.714
4.714
4.710
4.705
4.703
4.716
4.721
4.720
4.721
4.721
4.718
4.711
4.702
4.705
4.708
4.720
4.731
4.726
4.722
4.720
4.713
4.705
4.699
4.693
4.705
4.702
4.702
4.698
4.690
4.698
4.699
4.691
4.696
4.697
4.697
4.696
4.697
4.691
4.689
4.691
4.690
4.684
4.692
4.688
4.682
4.693
4.704
4.703
4.701
4.698
4.705
4.704
4.695
4.696
4.700
4.696
4.695
4.701
4.705
4.716
4.713
4.713
4.713
4.706
4.701
4.705
4.701
4.699
4.697
4.697
4.699
4.707
4.714
4.710
4.716
4.707
4.700
4.700
4.696
4.695
4.691
4.698
4.698
4.695
4.702
4.712
4.723
4.726
4.721
4.714
4.713
4.719
4.717
4.721
4.713
4.713
4.715
4.717
4.711
4.713
4.719
4.728
4.738
4.737
4.731
4.723
4.725
4.723
4.724
4.724
4.728
4.723
4.715
4.708
4.708
4.714
4.724
4.734
4.740
4.736
4.734
4.736
4.731
4.736
4.737
4.730
4.731
4.730
4.724
4.728
4.730
4.732
4.734
4.730
4.738
4.748
4.757
4.758
4.753
4.748
4.744
4.749
4.756
4.754
4.751
4.745
4.742
4.736
4.735
4.735
4.732
4.736
4.741
4.750
4.756
4.754
4.753
4.751
4.750
4.743
4.736
4.730
4.730
4.725
4.725
4.725
4.729
4.727
4.723
4.723
4.731
4.740
4.749
4.746
4.745
4.744
4.741
4.741
4.738
4.732
4.732
4.729
4.721
4.721
4.718
4.723
4.725
4.722
4.723
4.723
4.727
4.736
4.744
4.753
4.756
4.750
4.755
4.757
4.755
4.755
4.756
4.753
4.746
4.741
4.739
4.736
4.736
4.733
4.738
4.736
4.734
4.731
4.727
4.735
4.743
4.751
4.760
4.765
4.765
4.767
4.769
4.767
4.764
4.767
4.770
4.764
4.761
4.758
4.750
4.751
4.757
4.755
4.752
4.748
4.751
4.748
4.744
4.750
4.745
4.751
4.759
4.767
4.775
4.780
4.787
4.789
4.781
4.779
4.789
4.789
4.784
4.777
4.776
4.776
4.766
4.768
4.771
4.773
4.768
4.770
4.773
4.769
4.763
4.761
4.759
4.759
4.762
4.765
4.773
4.780
4.788
4.791
4.794
4.788
4.785
4.783
4.780
4.778
4.772
4.766
4.761
4.765
4.770
4.767
4.766
4.762
4.762
4.753
4.751
4.752
4.751
4.752
4.753
4.752
4.753
4.761
4.768
4.775
4.782
4.789
4.789
4.789
4.784
4.785
4.785
4.781
4.779
4.784
4.784
4.781
4.774
4.779
4.780
4.776
4.775
4.773
4.775
4.780
4.782
4.782
4.773
4.777
4.774
4.776
4.775
4.772
4.775
4.769
4.772
4.779
4.786
4.793
4.800
4.807
4.808
4.810
4.810
4.810
4.808
4.801
4.809
4.805
4.802
4.807
4.807
4.810
4.811
4.815
4.812
4.818
4.815
4.807
4.801
4.795
4.792
4.794
4.787
4.783
4.780
4.787
4.787
4.796
4.792
4.790
4.788
4.790
4.795
4.802
4.809
4.815
4.819
4.815
4.811
4.808
4.804
4.800
4.797
4.793
4.789
4.785
4.782
4.782
4.788
4.782
4.775
4.769
4.769
4.765
4.761
4.764
4.763
4.764
4.763
4.759
4.765
4.764
4.763
4.768
4.761
4.762
4.768
4.775
4.780
4.787
4.793
4.799
4.796
4.792
4.787
4.782
4.779
4.776
4.771
4.771
4.771
4.779
4.775
4.769
4.770
4.768
4.771
4.770
4.772
4.774
4.770
4.767
4.763
4.766
4.766
4.768
4.773
4.776
4.775
4.770
4.766
4.765
4.760
4.758
4.761
4.759
4.758
4.760
4.766
4.772
4.778
4.784
4.790
4.786
4.786
4.785
4.785
4.785
4.782
4.778
4.774
4.774
4.776
4.781
4.784
4.790
4.793
4.789
4.787
4.788
4.790
4.784
4.782
4.780
4.781
4.783
4.781
4.782
4.780
4.779
4.777
4.777
4.774
4.773
4.767
4.773
4.770
4.766
4.762
4.763
4.769
4.770
4.771
4.779
4.780
4.773
4.772
4.775
4.781
4.786
4.792
4.795
4.793
4.786
4.787
4.785
4.785
4.783
4.785
4.784
4.781
4.781
4.783
4.778
4.773
4.773
4.771
4.770
4.771
4.768
4.772
4.767
4.766
4.767
4.773
4.782
4.778
4.774
4.769
4.766
4.767
4.765
4.762
4.765
4.767
4.766
4.767
4.761
4.760
4.760
4.764
4.763
4.767
4.763
4.759
4.763
4.765
4.764
4.765
4.768
4.774
4.779
4.784
4.789
4.795
4.800
4.805
4.806
4.808
4.807
4.802
4.799
4.797
4.798
4.793
4.797
4.795
4.802
4.796
4.795
4.797
4.798
4.793
4.788
4.783
4.777
4.772
4.767
4.767
4.767
4.765
4.769
4.764
4.767
4.764
4.765
4.763
4.764
4.763
4.761
4.768
4.767
4.764
4.767
4.771
4.779
4.777
4.775
4.775
4.776
4.777
4.774
4.776
4.775
4.772
4.771
4.765
4.762
4.763
4.767
4.772
4.776
4.781
4.786
4.791
4.796
4.801
4.802
4.802
4.805
4.807
4.805
4.804
4.806
4.807
4.806
4.811
4.810
4.807
4.808
4.805
4.801
4.801
4.798
4.794
4.793
4.792
4.795
4.802
4.808
4.810
4.811
4.808
4.803
4.797
4.796
4.794
