2.992
3.326
3.505
3.633
3.709
3.795
3.852
3.889
3.901
3.954
4.002
3.976
4.010
4.044
4.071
4.097
4.131
4.151
4.175
4.138
4.103
4.114
4.126
4.140
4.156
4.163
4.181
4.185
4.202
4.203
4.222
4.222
4.233
4.244
4.249
4.259
4.266
4.278
4.273
4.284
4.295
4.303
4.310
4.305
4.314
4.325
4.329
4.340
4.345
4.336
4.344
4.347
4.359
4.363
4.373
4.381
4.383
4.374
4.377
4.382
4.384
4.393
4.399
4.398
4.411
4.415
4.418
4.420
4.429
4.434
4.414
4.418
4.421
4.426
4.438
4.439
4.444
4.442
4.447
4.453
4.459
4.461
4.465
4.462
4.466
4.475
4.481
4.491
4.493
4.494
4.477
4.470
4.468
4.473
4.476
4.484
4.485
4.488
4.495
4.497
4.493
4.496
4.495
4.500
4.506
4.516
4.518
4.513
4.514
4.521
4.523
4.522
4.528
4.530
4.528
4.532
4.537
4.544
4.547
4.549
4.548
4.549
4.555
4.552
4.561
4.557
4.558
4.570
4.562
4.563
4.551
4.536
4.537
4.536
4.540
4.544
4.550
4.547
4.551
4.554
4.551
4.554
4.562
4.559
4.564
4.570
4.561
4.557
4.561
4.562
4.558
4.565
4.566
4.571
4.569
4.571
4.577
4.579
4.586
4.579
4.594
4.592
4.584
4.582
4.589
4.588
4.596
4.595
4.607
4.599
4.611
4.604
4.602
4.587
4.600
4.599
4.607
4.595
4.603
4.598
4.603
4.609
4.600
4.610
4.603
4.614
4.616
4.614
4.627
4.625
4.621
4.629
4.627
4.631
4.633
4.622
4.629
4.633
4.629
4.640
4.633
4.636
4.643
4.639
4.643
4.647
4.647
4.645
4.655
4.647
4.649
4.651
4.640
4.645
4.654
4.650
4.649
4.658
4.644
4.642
4.655
4.647
4.638
4.655
4.657
4.655
4.651
4.659
4.665
4.662
4.663
4.669
4.673
4.669
4.668
4.678
4.676
4.678
4.674
4.684
4.684
4.678
4.682
4.680
4.671
4.664
4.657
4.650
4.641
4.644
4.643
4.639
4.638
4.651
4.652
4.650
4.647
4.647
4.660
4.661
4.654
4.639
4.654
4.662
4.659
4.653
4.651
4.661
4.663
4.666
4.663
4.662
4.665
4.680
4.681
4.673
4.671
4.670
4.681
4.673
4.663
4.655
4.660
4.669
4.671
4.664
4.654
4.655
4.665
4.661
4.649
4.648
4.649
4.661
4.666
4.656
4.659
4.655
4.649
4.662
4.668
4.667
4.660
4.661
4.659
4.664
4.677
4.678
4.679
4.680
4.673
4.664
4.674
4.686
4.679
4.684
4.674
4.669
4.666
4.680
4.682
4.680
4.682
4.680
4.679
4.675
4.682
4.691
4.690
4.688
4.682
4.681
4.685
4.683
4.695
4.707
4.703
4.699
4.703
4.692
4.695
4.694
4.701
4.697
4.688
4.689
4.690
4.692
4.684
4.691
4.703
4.702
4.701
4.700
4.690
4.684
4.684
4.688
4.699
4.703
4.704
4.705
4.701
4.702
4.699
4.694
4.693
4.705
4.717
4.714
4.715
4.713
4.714
4.710
4.701
4.692
4.706
4.716
4.715
4.721
4.717
4.718
4.717
4.713
4.710
4.708
4.715
4.724
4.734
4.733
4.734
4.735
4.733
4.729
4.728
4.721
4.718
4.724
4.734
4.746
4.737
4.735
4.726
4.727
4.729
4.725
4.731
4.730
4.729
4.735
4.728
4.722
4.717
4.710
4.703
4.708
4.707
4.705
4.715
4.721
4.720
4.719
4.722
4.716
4.723
4.719
4.709
4.708
4.701
4.707
4.710
4.719
4.715
4.716
4.714
4.711
4.709
4.700
4.710
4.708
4.706
4.705
4.715
4.721
4.720
4.729
4.720
4.724
4.725
4.719
4.725
4.725
4.723
4.718
4.717
4.719
4.723
4.733
4.731
4.730
4.723
4.721
4.718
4.724
4.725
4.724
4.720
4.721
4.722
4.716
4.725
4.724
4.726
4.733
4.723
4.716
4.717
4.716
4.720
4.721
4.717
4.722
4.726
4.721
4.718
4.729
4.736
4.744
4.739
4.733
4.736
4.738
4.740
4.740
4.742
4.740
4.736
4.736
4.736
4.735
4.731
4.733
4.739
4.747
4.751
4.754
4.751
4.749
4.748
4.744
4.736
4.738
4.737
4.735
4.733
4.725
4.726
4.730
4.733
4.741
4.748
4.757
4.755
4.759
4.759
4.754
4.755
4.757
4.753
4.754
4.750
4.747
4.747
4.749
4.755
4.757
4.758
4.751
4.750
4.759
4.766
4.771
4.775
4.770
4.772
4.768
4.769
4.768
4.761
4.765
4.756
4.757
4.755
4.760
4.755
4.755
4.756
4.754
4.756
4.762
4.767
4.760
4.755
4.747
4.753
4.749
4.748
4.749
4.744
4.749
4.748
4.743
4.747
4.752
4.753
4.749
4.745
4.744
4.748
4.755
4.758
4.754
4.758
4.760
4.761
4.754
4.750
4.746
4.744
4.741
4.748
4.746
4.742
4.740
4.742
4.743
4.748
4.746
4.745
4.746
4.747
4.754
4.761
4.768
4.777
4.774
4.777
4.774
4.767
4.765
4.762
4.763
4.759
4.757
4.761
4.757
4.759
4.759
4.753
4.747
4.747
4.751
4.751
4.751
4.745
4.752
4.761
4.768
4.773
4.782
4.786
4.788
4.796
4.793
4.791
4.784
4.777
4.773
4.772
4.771
4.766
4.768
4.767
4.776
4.775
4.773
4.769
4.770
4.767
4.766
4.764
4.766
4.767
4.768
4.773
4.781
4.786
4.793
4.800
4.807
4.805
4.798
4.799
4.799
4.799
4.796
4.794
4.796
4.796
4.790
4.786
4.793
4.789
4.784
4.781
4.777
4.780
4.779
4.783
4.787
4.781
4.784
4.778
4.779
4.783
4.790
4.796
4.803
4.802
4.796
4.792
4.785
4.786
4.781
4.780
4.779
4.781
4.787
4.784
4.779
4.780
4.777
4.778
4.784
4.783
4.781
4.777
4.774
4.770
4.770
4.769
4.771
4.769
4.773
4.775
4.782
4.786
4.793
4.800
4.806
4.811
4.807
4.808
4.806
4.803
4.799
4.799
4.803
4.805
4.801
4.797
4.796
4.802
4.799
4.796
4.792
4.796
4.790
4.797
4.801
4.802
4.801
4.799
4.792
4.791
4.792
4.789
4.790
4.796
4.790
4.791
4.793
4.799
4.806
4.811
4.817
4.822
4.829
4.830
4.833
4.829
4.823
4.822
4.826
4.832
4.826
4.832
4.833
4.835
4.834
4.833
4.828
4.825
4.820
4.813
4.807
4.805
4.801
4.808
4.807
4.805
4.798
4.797
4.799
4.807
4.810
4.818
4.814
4.811
4.807
4.810
4.807
4.813
4.818
4.818
4.814
4.810
4.807
4.803
4.799
4.799
4.804
4.799
4.799
4.800
4.796
4.792
4.792
4.792
4.796
4.791
4.788
4.783
4.782
4.781
4.779
4.784
4.784
4.786
4.787
4.788
4.785
4.786
4.784
4.783
4.781
4.780
4.779
4.778
4.785
4.791
4.796
4.799
4.795
4.796
4.799
4.799
4.799
4.799
4.801
4.800
4.793
4.794
4.790
4.792
4.792
4.791
4.793
4.792
4.790
4.791
4.792
4.792
4.793
4.791
4.792
4.786
4.785
4.791
4.787
4.784
4.784
4.784
4.781
4.780
4.781
4.781
4.781
4.781
4.781
4.777
4.777
4.778
4.777
4.778
4.784
4.788
4.793
4.799
4.804
4.808
4.804
4.800
4.799
4.797
4.803
4.800
4.796
4.797
4.798
4.799
4.803
4.802
4.809
4.813
4.810
4.807
4.809
4.807
4.806
4.802
4.799
4.799
4.803
4.802
4.799
4.796
4.790
4.786
4.785
4.783
4.782
4.786
4.785
4.788
4.792
4.791
4.788
4.788
4.785
4.789
4.784
4.781
4.777
4.772
4.774
4.780
4.785
4.791
4.793
4.799
4.804
4.808
4.807
4.803
4.806
4.802
4.796
4.794
4.796
4.799
4.796
4.802
4.801
4.802
4.798
4.796
4.792
4.791
4.792
4.791
4.787
4.791
4.787
4.786
4.785
4.784
4.790
4.789
4.788
4.789
4.788
4.786
4.790
4.789
4.785
4.786
4.784
4.786
4.787
4.786
4.785
4.786
4.784
4.784
4.785
4.786
4.785
4.786
4.781
4.788
4.788
4.784
4.787
4.786
4.784
4.789
4.795
4.799
4.803
4.807
4.812
4.816
4.814
4.811
4.809
4.807
4.812
4.818
4.820
