2.981
3.299
3.498
3.577
3.686
3.735
3.816
3.866
3.800
3.832
3.862
3.887
3.912
3.946
3.978
3.986
4.012
4.019
4.045
4.073
4.065
4.085
4.103
4.138
4.107
4.134
4.136
4.171
4.169
4.193
4.191
4.173
4.189
4.190
4.210
4.224
4.236
4.233
4.248
4.255
4.269
4.268
4.282
4.300
4.267
4.252
4.276
4.281
4.264
4.272
4.289
4.305
4.290
4.304
4.322
4.336
4.318
4.310
4.307
4.326
4.331
4.341
4.354
4.349
4.367
4.377
4.370
4.381
4.393
4.372
4.380
4.379
4.381
4.389
4.397
4.391
4.418
4.401
4.425
4.426
4.424
4.426
4.403
4.380
4.381
4.387
4.405
4.389
4.416
4.407
4.411
4.389
4.382
4.382
4.382
4.379
4.405
4.394
4.401
4.417
4.396
4.409
4.406
4.401
4.440
4.424
4.414
4.451
4.431
4.421
4.441
4.426
4.413
4.444
4.454
4.426
4.443
4.450
4.441
4.434
4.465
4.475
4.455
4.456
4.479
4.482
4.467
4.466
4.484
4.483
4.486
4.479
4.468
4.458
4.458
4.446
4.462
4.448
4.455
4.444
4.448
4.473
4.460
4.459
4.450
4.450
4.473
4.457
4.459
4.452
4.448
4.471
4.485
4.489
4.481
4.465
4.461
4.479
4.487
4.495
4.475
4.477
4.472
4.475
4.502
4.516
4.506
4.503
4.500
4.505
4.484
4.510
4.536
4.520
4.510
4.518
4.515
4.499
4.503
4.513
4.496
4.478
4.491
4.475
4.482
4.483
4.506
4.512
4.510
4.501
4.500
4.493
4.501
4.500
4.509
4.515
4.533
4.520
4.519
4.534
4.530
4.529
4.517
4.525
4.511
4.528
4.550
4.563
4.544
4.547
4.537
4.536
4.529
4.532
4.534
4.519
4.540
4.537
4.549
4.551
4.537
4.534
4.525
4.525
4.539
4.539
4.525
4.529
4.549
4.569
4.574
4.567
4.568
4.586
4.577
4.570
4.572
4.570
4.559
4.545
4.552
4.552
4.570
4.589
4.601
4.590
4.592
4.581
4.564
4.573
4.576
4.582
4.575
4.562
4.569
4.559
4.563
4.581
4.578
4.584
4.571
4.557
4.544
4.535
4.522
4.525
4.522
4.523
4.518
4.510
4.526
4.543
4.560
4.573
4.560
4.565
4.567
4.562
4.558
4.555
4.562
4.555
4.554
4.546
4.535
4.531
4.528
4.519
4.523
4.539
4.554
4.567
4.555
4.565
4.549
4.555
4.547
4.551
4.558
4.564
4.552
4.551
4.550
4.538
4.546
4.534
4.527
4.528
4.518
4.526
4.540
4.555
4.569
4.575
4.560
4.563
4.562
4.555
4.565
4.560
4.557
4.548
4.545
4.546
4.550
4.553
4.548
4.555
4.544
4.535
4.542
4.534
4.539
4.537
4.539
4.553
4.566
4.579
4.587
4.579
4.576
4.568
4.564
4.563
4.567
4.573
4.585
4.582
4.577
4.571
4.568
4.567
4.549
4.542
4.553
4.546
4.546
4.551
4.544
4.535
4.533
4.540
4.546
4.550
4.563
4.575
4.587
4.600
4.609
4.605
4.613
4.604
4.593
4.590
4.590
4.587
4.590
4.595
4.590
4.588
4.580
4.582
4.578
4.587
4.591
4.583
4.577
4.576
4.591
4.591
4.587
4.576
4.565
4.574
4.572
4.565
4.567
4.571
4.570
4.581
4.593
4.604
4.615
4.627
4.638
4.640
4.637
4.628
4.643
4.641
4.631
4.623
4.610
4.612
4.620
4.617
4.617
4.612
4.609
4.606
4.606
4.595
4.593
4.582
4.587
4.577
4.567
4.563
4.567
4.574
4.568
4.570
4.563
4.559
4.557
4.554
4.548
4.558
4.568
4.579
4.589
4.599
4.610
4.611
4.613
4.606
4.614
4.618
4.609
4.605
4.601
4.606
4.605
4.603
4.604
4.592
4.593
4.598
4.594
4.595
4.596
4.590
4.590
4.593
4.588
4.588
4.589
4.598
4.591
4.583
4.577
4.572
4.582
4.584
4.578
4.584
4.583
4.574
4.563
4.564
4.553
4.553
4.556
4.563
4.568
4.574
4.584
4.585
4.582
4.587
4.596
4.605
4.615
4.624
4.633
4.643
4.652
4.661
4.671
4.676
4.675
4.664
4.667
4.674
4.674
4.666
4.660
4.654
4.647
4.640
4.633
4.626
4.620
4.613
4.606
4.614
4.612
4.613
4.606
4.601
4.594
4.584
4.596
4.606
4.603
4.594
4.588
4.590
4.585
4.574
4.569
4.565
4.571
4.566
4.571
4.571
4.561
4.558
4.564
4.556
4.556
4.552
4.549
4.544
4.541
4.541
4.549
4.557
4.566
4.574
4.582
4.590
4.599
4.607
4.615
4.624
4.620
4.617
4.615
4.620
4.621
4.630
4.625
4.622
4.619
4.626
4.632
4.634
4.634
4.642
4.631
4.619
4.621
4.620
4.625
4.621
4.617
4.618
4.615
4.616
4.615
4.615
4.611
4.607
4.612
4.620
4.618
4.625
4.628
4.628
4.625
4.628
4.625
4.613
4.611
4.611
4.602
4.602
4.597
4.588
4.586
4.577
4.581
4.577
4.581
4.583
4.583
4.578
4.577
4.581
4.581
4.579
4.584
4.588
4.589
4.585
4.577
4.569
4.562
4.556
4.549
4.557
4.563
4.565
4.560
4.553
4.560
4.567
4.575
4.582
4.589
4.596
4.604
4.611
4.618
4.625
4.633
4.640
4.647
4.654
4.662
4.665
4.656
4.650
4.644
4.644
4.631
4.637
4.627
4.624
4.622
4.626
4.621
4.615
4.608
4.607
4.603
4.599
4.598
4.605
4.603
4.603
4.598
4.601
4.601
4.605
4.601
4.611
4.620
4.621
4.623
4.619
4.630
4.629
4.627
4.624
4.620
4.612
4.614
4.612
4.620
4.625
4.622
4.626
4.626
4.637
4.640
4.632
4.621
4.615
4.609
4.608
4.607
4.601
4.595
4.590
4.590
4.589
4.584
4.587
4.587
4.583
4.584
4.586
4.580
4.573
4.572
4.568
4.568
4.562
4.555
4.558
4.553
4.559
4.562
4.565
4.565
4.562
4.564
4.575
4.580
4.586
4.581
4.575
4.575
4.570
4.574
4.564
4.566
4.565
4.573
4.582
4.583
4.580
4.581
4.586
4.592
4.598
4.605
4.611
4.617
4.623
4.629
4.636
4.642
4.648
4.654
4.660
4.667
4.673
4.676
4.679
4.677
4.676
4.674
4.673
4.679
4.672
4.671
4.667
4.667
4.667
4.664
4.673
4.677
4.680
4.676
4.667
4.664
4.666
4.663
4.659
4.660
4.652
4.650
4.645
4.645
4.648
4.642
4.641
4.643
4.642
4.641
4.644
4.645
4.650
4.644
4.643
4.637
4.632
4.638
4.627
4.624
4.625
4.624
4.625
4.619
4.624
4.625
4.631
4.631
4.632
4.629
4.628
4.633
4.632
4.635
4.635
4.631
4.633
4.643
4.647
4.637
4.644
4.647
4.647
4.638
4.632
4.627
4.633
4.629
4.632
4.635
4.632
4.634
4.631
4.635
4.628
4.628
4.622
4.626
4.626
4.621
4.621
4.612
4.607
4.607
4.609
4.614
4.610
4.607
4.599
4.594
4.595
4.597
4.596
4.591
4.586
4.581
4.577
4.572
4.567
4.573
4.567
4.575
4.572
4.577
4.583
4.573
4.577
4.577
4.585
4.587
4.592
4.584
4.580
4.575
4.569
4.562
4.554
4.552
4.550
4.560
4.550
4.549
4.546
4.551
4.557
4.562
4.567
4.572
4.577
4.582
4.588
4.593
4.598
4.603
4.608
4.613
4.618
4.624
4.629
4.634
4.639
4.644
4.650
4.655
4.660
4.662
4.659
4.654
4.648
4.648
4.638
4.640
4.642
4.638
4.634
4.625
4.627
4.632
4.634
4.640
4.641
4.641
4.635
4.633
4.636
4.635
4.628
4.625
4.627
4.634
4.641
4.648
4.656
4.650
4.647
4.653
4.647
4.650
4.647
4.642
4.643
4.640
4.639
4.650
4.647
4.641
4.641
4.648
4.653
4.649
4.642
4.640
4.646
4.648
4.643
4.641
4.638
4.639
4.641
4.640
4.641
4.644
4.641
4.646
4.645
4.646
4.638
4.642
4.633
4.638
4.638
4.634
4.630
4.631
4.624
4.618
4.612
4.619
4.622
4.623
4.617
4.619
4.611
4.613
4.612
4.614
4.620
4.623
4.624
4.621
4.618
4.611
4.602
4.606
4.596
4.598
4.603
4.600
4.599
4.601
4.598
4.602
4.607
4.604
4.606
4.609
4.606
