2.994
3.330
3.494
3.610
3.684
3.717
3.797
3.862
3.931
3.862
3.867
3.901
3.933
3.959
3.983
3.998
4.011
4.038
4.046
4.065
4.094
4.094
4.115
4.132
4.119
4.139
4.158
4.166
4.188
4.182
4.184
4.193
4.210
4.216
4.225
4.241
4.254
4.254
4.236
4.244
4.253
4.249
4.266
4.280
4.292
4.286
4.289
4.305
4.320
4.328
4.339
4.318
4.348
4.339
4.319
4.309
4.325
4.343
4.334
4.336
4.328
4.334
4.336
4.348
4.355
4.368
4.375
4.381
4.385
4.378
4.371
4.387
4.384
4.380
4.393
4.403
4.405
4.409
4.401
4.411
4.428
4.426
4.428
4.444
4.441
4.420
4.424
4.432
4.419
4.441
4.440
4.445
4.457
4.448
4.471
4.462
4.479
4.468
4.483
4.476
4.467
4.448
4.429
4.441
4.438
4.443
4.457
4.450
4.465
4.461
4.463
4.466
4.447
4.450
4.437
4.443
4.426
4.442
4.448
4.451
4.452
4.464
4.454
4.457
4.466
4.459
4.457
4.472
4.470
4.468
4.486
4.488
4.482
4.483
4.500
4.479
4.468
4.491
4.477
4.480
4.469
4.498
4.503
4.488
4.485
4.504
4.508
4.499
4.492
4.501
4.526
4.520
4.520
4.509
4.519
4.542
4.530
4.527
4.523
4.530
4.532
4.537
4.533
4.524
4.509
4.509
4.512
4.509
4.499
4.513
4.507
4.497
4.505
4.500
4.512
4.523
4.511
4.514
4.498
4.506
4.514
4.528
4.514
4.512
4.501
4.507
4.506
4.530
4.534
4.539
4.524
4.523
4.530
4.520
4.535
4.548
4.541
4.531
4.522
4.525
4.525
4.528
4.550
4.564
4.560
4.551
4.557
4.557
4.545
4.541
4.553
4.573
4.570
4.571
4.562
4.571
4.556
4.549
4.549
4.563
4.560
4.558
4.548
4.549
4.542
4.530
4.518
4.537
4.557
4.568
4.559
4.567
4.561
4.558
4.551
4.538
4.534
4.537
4.556
4.575
4.587
4.586
4.576
4.579
4.564
4.554
4.562
4.558
4.561
4.557
4.575
4.593
4.595
4.590
4.603
4.597
4.597
4.588
4.589
4.590
4.579
4.578
4.576
4.591
4.609
4.608
4.611
4.597
4.582
4.580
4.571
4.574
4.569
4.573
4.570
4.570
4.586
4.603
4.615
4.614
4.615
4.605
4.600
4.597
4.592
4.593
4.604
4.612
4.599
4.599
4.586
4.594
4.607
4.623
4.638
4.639
4.633
4.629
4.622
4.626
4.621
4.619
4.614
4.604
4.615
4.611
4.612
4.605
4.610
4.615
4.630
4.645
4.641
4.632
4.624
4.615
4.606
4.601
4.610
4.600
4.592
4.600
4.593
4.595
4.592
4.590
4.596
4.610
4.607
4.607
4.617
4.600
4.591
4.593
4.584
4.584
4.583
4.582
4.574
4.581
4.578
4.584
4.577
4.577
4.574
4.584
4.589
4.602
4.615
4.628
4.628
4.627
4.623
4.612
4.615
4.605
4.594
4.588
4.578
4.578
4.578
4.569
4.570
4.565
4.560
4.564
4.573
4.567
4.576
4.585
4.597
4.610
4.622
4.634
4.630
4.618
4.619
4.614
4.609
4.604
4.610
4.600
4.598
4.600
4.599
4.602
4.597
4.600
4.588
4.577
4.577
4.582
4.578
4.580
4.581
4.578
4.590
4.601
4.613
4.624
4.614
4.619
4.624
4.632
4.630
4.630
4.628
4.628
4.627
4.616
4.607
4.605
4.604
4.601
4.599
4.601
4.602
4.591
4.585
4.581
4.590
4.593
4.588
4.592
4.589
4.587
4.584
4.593
4.603
4.614
4.625
4.635
4.646
4.638
4.633
4.634
4.632
4.624
4.633
4.626
4.625
4.627
4.627
4.626
4.625
4.630
4.620
4.613
4.611
4.598
4.609
4.607
4.600
4.601
4.611
4.615
4.619
4.614
4.608
4.598
4.595
4.607
4.602
4.608
4.604
4.614
4.624
4.634
4.644
4.653
4.663
4.671
4.668
4.666
4.664
4.662
4.664
4.655
4.650
4.657
4.653
4.647
4.654
4.646
4.641
4.645
4.640
4.635
4.642
4.643
4.641
4.641
4.648
4.647
4.646
4.656
4.655
4.641
4.644
4.638
4.635
4.628
4.627
4.631
4.634
4.633
4.630
4.631
4.633
4.640
4.636
4.645
4.654
4.663
4.669
4.672
4.669
4.669
4.676
4.689
4.690
4.692
4.684
4.676
4.668
4.660
4.658
4.647
4.636
4.632
4.624
4.623
4.622
4.616
4.610
4.606
4.607
4.612
4.625
4.624
4.624
4.617
4.626
4.620
4.618
4.620
4.621
4.622
4.619
4.606
4.606
4.600
4.601
4.606
4.613
4.615
4.605
4.604
4.609
4.617
4.625
4.633
4.641
4.650
4.658
4.666
4.674
4.672
4.669
4.667
4.669
4.659
4.658
4.656
4.658
4.661
4.661
4.658
4.654
4.645
4.649
4.650
4.653
4.659
4.654
4.653
4.653
4.651
4.650
4.647
4.644
4.650
4.651
4.645
4.649
4.651
4.647
4.647
4.648
4.637
4.639
4.642
4.639
4.640
4.642
4.641
4.638
4.635
4.628
4.628
4.624
4.627
4.620
4.621
4.625
4.628
4.639
4.637
4.634
4.639
4.649
4.645
4.637
4.638
4.636
4.643
4.650
4.658
4.665
4.673
4.680
4.687
4.695
4.695
4.695
4.694
4.697
4.701
4.703
4.696
4.687
4.687
4.685
4.684
4.679
4.680
4.671
4.667
4.668
4.657
4.653
4.648
4.648
4.650
4.657
4.646
4.655
4.652
4.648
4.640
4.639
4.633
4.630
4.633
4.643
4.646
4.641
4.634
4.635
4.633
4.625
4.623
4.620
4.618
4.627
4.629
4.628
4.626
4.621
4.626
4.629
4.628
4.623
4.623
4.624
4.613
4.615
4.618
4.611
4.602
4.607
4.608
4.606
4.598
4.591
4.593
4.593
4.600
4.606
4.613
4.619
4.626
4.633
4.639
4.646
4.652
4.659
4.666
4.672
4.679
4.682
4.685
4.684
4.689
4.690
4.686
4.688
4.687
4.685
4.679
4.686
4.695
4.703
4.709
4.701
4.692
4.689
4.692
4.691
4.692
4.689
4.688
4.685
4.690
4.687
4.688
4.685
4.684
4.687
4.680
4.674
4.671
4.671
4.666
4.665
4.668
4.668
4.663
4.661
4.665
4.672
4.667
4.663
4.653
4.659
4.659
4.663
4.651
4.644
4.643
4.642
4.639
4.637
4.628
4.626
4.637
4.634
4.633
4.628
4.622
4.616
4.610
4.614
4.618
4.619
4.619
4.619
4.625
4.623
4.620
4.614
4.609
4.607
4.608
4.606
4.602
4.611
4.610
4.607
4.607
4.613
4.623
4.626
4.625
4.626
4.623
4.622
4.618
4.621
4.620
4.619
4.623
4.628
4.634
4.640
4.646
4.651
4.657
4.663
4.669
4.674
4.680
4.686
4.692
4.694
4.688
4.684
4.685
4.686
4.679
4.681
4.684
4.673
4.676
4.671
4.675
4.678
4.681
4.676
4.675
4.671
4.666
4.663
4.659
4.654
4.650
4.649
4.660
4.670
4.668
4.661
4.665
4.667
4.664
4.669
4.670
4.674
4.667
4.658
4.665
4.672
4.680
4.687
4.684
4.680
4.689
4.698
4.693
4.695
4.691
4.698
4.689
4.683
4.679
4.683
4.683
4.683
4.677
4.680
4.676
4.671
4.669
4.660
4.656
4.659
4.652
4.650
4.647
4.641
4.634
4.627
4.621
4.620
4.619
4.626
4.622
4.624
4.632
4.628
4.631
4.637
4.635
4.636
4.639
4.643
4.649
4.640
4.642
4.638
4.641
4.636
4.636
4.638
4.637
4.640
4.636
4.630
4.628
4.630
4.626
4.626
4.621
4.611
4.616
4.615
4.614
4.610
4.612
4.613
4.612
4.617
4.613
4.611
4.614
4.623
4.620
4.622
4.632
4.629
4.627
4.634
4.641
4.648
4.651
4.650
4.652
4.648
4.646
4.646
4.642
4.647
4.652
4.657
4.662
4.667
4.672
4.677
4.682
4.686
4.691
4.696
4.701
4.706
4.711
4.716
4.721
4.726
4.731
4.736
4.741
4.737
4.731
4.726
4.727
4.723
4.720
4.710
4.716
4.709
4.709
4.712
4.715
4.716
4.714
4.714
4.719
4.722
4.723
4.727
4.727
4.731
4.723
4.718
4.714
4.716
4.714
4.711
4.704
4.703
4.698
4.689
4.689
4.691
4.683
4.685
4.687
4.684
4.680
4.686
4.694
