2.992
3.334
3.506
3.627
3.714
3.775
3.833
3.870
3.935
3.940
3.985
4.032
4.026
4.032
4.062
4.092
4.119
4.140
4.166
4.183
4.204
4.175
4.130
4.140
4.157
4.167
4.174
4.191
4.198
4.210
4.217
4.229
4.231
4.246
4.256
4.257
4.269
4.279
4.281
4.285
4.294
4.301
4.314
4.309
4.318
4.328
4.333
4.342
4.333
4.344
4.347
4.358
4.365
4.373
4.374
4.367
4.371
4.378
4.387
4.394
4.396
4.400
4.410
4.413
4.409
4.407
4.414
4.414
4.420
4.427
4.431
4.436
4.437
4.446
4.450
4.451
4.453
4.458
4.456
4.443
4.451
4.455
4.456
4.462
4.472
4.470
4.475
4.471
4.475
4.485
4.491
4.488
4.495
4.498
4.499
4.496
4.503
4.509
4.514
4.517
4.521
4.514
4.503
4.498
4.500
4.499
4.508
4.514
4.511
4.515
4.518
4.525
4.527
4.520
4.529
4.525
4.530
4.531
4.533
4.540
4.541
4.542
4.546
4.550
4.555
4.558
4.549
4.550
4.558
4.555
4.554
4.564
4.566
4.572
4.574
4.575
4.573
4.580
4.585
4.588
4.587
4.592
4.584
4.588
4.596
4.589
4.584
4.572
4.560
4.561
4.565
4.570
4.573
4.570
4.576
4.580
4.584
4.578
4.579
4.583
4.579
4.588
4.590
4.591
4.599
4.584
4.590
4.589
4.584
4.589
4.584
4.592
4.592
4.599
4.596
4.599
4.599
4.602
4.604
4.611
4.607
4.614
4.614
4.616
4.610
4.614
4.609
4.621
4.620
4.629
4.626
4.627
4.629
4.630
4.636
4.625
4.623
4.618
4.631
4.633
4.626
4.624
4.620
4.638
4.629
4.630
4.637
4.630
4.637
4.638
4.634
4.647
4.644
4.646
4.655
4.655
4.653
4.658
4.658
4.649
4.666
4.654
4.650
4.657
4.659
4.658
4.670
4.666
4.664
4.670
4.670
4.671
4.670
4.677
4.672
4.673
4.683
4.677
4.675
4.679
4.669
4.663
4.672
4.677
4.680
4.674
4.681
4.674
4.673
4.673
4.680
4.673
4.672
4.677
4.683
4.684
4.677
4.684
4.688
4.688
4.689
4.688
4.700
4.695
4.692
4.693
4.702
4.704
4.703
4.703
4.700
4.709
4.703
4.706
4.705
4.699
4.692
4.687
4.681
4.674
4.669
4.665
4.675
4.665
4.664
4.663
4.669
4.679
4.683
4.677
4.673
4.673
4.686
4.685
4.686
4.684
4.673
4.684
4.684
4.682
4.684
4.682
4.683
4.690
4.691
4.685
4.686
4.685
4.692
4.701
4.702
4.703
4.703
4.698
4.700
4.707
4.699
4.690
4.683
4.688
4.688
4.688
4.689
4.690
4.686
4.688
4.691
4.687
4.684
4.676
4.673
4.685
4.692
4.693
4.688
4.684
4.680
4.682
4.692
4.690
4.684
4.687
4.684
4.682
4.686
4.698
4.695
4.696
4.695
4.699
4.695
4.696
4.700
4.704
4.705
4.703
4.707
4.699
4.700
4.699
4.708
4.706
4.703
4.701
4.700
4.696
4.695
4.706
4.714
4.714
4.711
4.709
4.710
4.706
4.708
4.704
4.714
4.718
4.724
4.723
4.722
4.720
4.722
4.723
4.716
4.725
4.735
4.733
4.733
4.726
4.718
4.712
4.707
4.718
4.729
4.726
4.721
4.721
4.719
4.718
4.719
4.712
4.718
4.723
4.725
4.720
4.719
4.720
4.719
4.717
4.719
4.720
4.724
4.734
4.738
4.729
4.732
4.733
4.736
4.734
4.729
4.725
4.729
4.737
4.741
4.736
4.730
4.733
4.735
4.733
4.735
4.731
4.733
4.733
4.743
4.751
4.751
4.751
4.749
4.747
4.749
4.747
4.743
4.745
4.754
4.755
4.755
4.764
4.758
4.761
4.757
4.756
4.757
4.758
4.757
4.756
4.749
4.750
4.758
4.764
4.765
4.767
4.762
4.762
4.757
4.751
4.744
4.740
4.736
4.744
4.741
4.742
4.746
4.747
4.738
4.736
4.733
4.733
4.732
4.733
4.730
4.740
4.749
4.747
4.740
4.734
4.730
4.728
4.725
4.725
4.724
4.725
4.722
4.726
4.736
4.745
4.747
4.745
4.744
4.744
4.741
4.742
4.735
4.736
4.735
4.734
4.733
4.736
4.735
4.742
4.752
4.756
4.760
4.761
4.760
4.762
4.754
4.750
4.747
4.744
4.741
4.740
4.744
4.739
4.743
4.750
4.758
4.761
4.760
4.755
4.758
4.753
4.747
4.748
4.747
4.745
4.743
4.736
4.732
4.734
4.743
4.750
4.752
4.759
4.760
4.761
4.755
4.753
4.752
4.753
4.757
4.751
4.749
4.755
4.752
4.748
4.747
4.747
4.752
4.761
4.768
4.773
4.773
4.772
4.771
4.772
4.774
4.775
4.774
4.766
4.762
4.761
4.760
4.759
4.751
4.758
4.760
4.759
4.768
4.773
4.779
4.770
4.768
4.770
4.768
4.766
4.763
4.766
4.768
4.766
4.770
4.767
4.763
4.759
4.760
4.764
4.762
4.764
4.773
4.778
4.787
4.788
4.792
4.788
4.788
4.789
4.788
4.791
4.788
4.789
4.788
4.781
4.782
4.783
4.787
4.783
4.781
4.775
4.774
4.777
4.782
4.789
4.796
4.795
4.793
4.794
4.792
4.792
4.798
4.795
4.796
4.792
4.787
4.781
4.781
4.775
4.777
4.777
4.776
4.772
4.766
4.772
4.779
4.786
4.785
4.783
4.784
4.783
4.785
4.781
4.779
4.780
4.782
4.780
4.779
4.784
4.781
4.778
4.776
4.778
4.776
4.770
4.765
4.759
4.766
4.773
4.779
4.778
4.781
4.778
4.784
4.786
4.787
4.786
4.779
4.778
4.776
4.777
4.779
4.778
4.779
4.775
4.776
4.777
4.773
4.780
4.781
4.780
4.782
4.783
4.777
4.778
4.782
4.788
4.793
4.795
4.795
4.795
4.790
4.789
4.790
4.792
4.792
4.791
4.785
4.786
4.784
4.784
4.785
4.788
4.787
4.784
4.782
4.783
4.782
4.786
4.784
4.780
4.781
4.784
4.787
4.791
4.798
4.803
4.809
4.814
4.815
4.808
4.810
4.811
4.807
4.803
4.801
4.803
4.801
4.800
4.799
4.799
4.799
4.803
4.804
4.802
4.801
4.805
4.804
4.802
4.798
4.800
4.804
4.807
4.804
4.799
4.801
4.803
4.809
4.813
4.820
4.825
4.826
4.821
4.825
4.830
4.828
4.824
4.821
4.821
4.818
4.813
4.809
4.808
4.814
4.818
4.814
4.816
4.817
4.811
4.807
4.805
4.807
4.811
4.810
4.805
4.809
4.807
4.806
4.803
4.804
4.807
4.814
4.819
4.817
4.818
4.821
4.821
4.814
4.811
4.807
4.802
4.806
4.808
4.807
4.811
4.812
4.818
4.815
4.811
4.810
4.816
4.809
4.808
4.807
4.805
4.806
4.799
4.798
4.797
4.801
4.800
4.798
4.800
4.798
4.799
4.806
4.810
4.815
4.821
4.825
4.832
4.837
4.836
4.833
4.835
4.834
4.830
4.833
4.836
4.834
4.832
4.826
4.824
4.826
4.827
4.829
4.829
4.828
4.829
4.823
4.819
4.825
4.827
4.828
4.830
4.829
4.825
4.825
4.827
4.826
4.830
4.828
4.825
4.828
4.822
4.823
4.822
4.825
4.824
4.829
4.835
4.839
4.844
4.850
4.855
4.861
4.863
4.861
4.862
4.856
4.857
4.856
4.852
4.845
4.843
4.847
4.847
4.844
4.847
4.847
4.841
4.837
4.833
4.834
4.835
4.834
4.838
4.840
4.840
4.837
4.835
4.833
4.833
4.829
4.835
4.834
4.832
4.828
4.825
4.821
4.819
4.821
4.825
4.831
4.836
4.839
4.833
4.829
4.825
4.820
4.819
4.821
4.821
4.815
4.816
4.821
4.818
4.821
4.819
4.815
4.818
4.823
4.824
4.820
4.819
4.818
4.816
4.817
4.814
4.814
4.818
4.818
4.816
4.817
4.816
4.810
4.808
4.812
4.814
4.817
4.811
4.809
4.807
4.803
4.799
4.803
4.805
4.810
4.816
4.820
4.822
4.825
4.832
4.834
4.832
4.829
4.830
4.829
4.829
4.825
4.825
4.825
4.822
4.826
4.825
4.826
4.825
4.826
4.822
4.823
4.825
4.821
4.818
4.812
4.811
4.809
4.808
4.809
4.807
4.804
4.805
4.810
4.818
4.815
4.810
4.806
4.807
4.804
4.800
4.798
4.799
4.799
4.797
