2.988
3.334
3.510
3.622
3.706
3.763
3.846
3.869
3.935
3.911
3.959
4.001
4.036
4.071
4.102
4.074
4.025
4.049
4.063
4.081
4.103
4.115
4.122
4.139
4.144
4.160
4.179
4.182
4.197
4.202
4.207
4.220
4.238
4.230
4.242
4.249
4.264
4.275
4.266
4.275
4.288
4.293
4.306
4.312
4.304
4.306
4.316
4.325
4.325
4.340
4.345
4.353
4.359
4.365
4.352
4.350
4.359
4.367
4.376
4.374
4.382
4.384
4.398
4.396
4.396
4.406
4.415
4.422
4.427
4.421
4.402
4.402
4.406
4.423
4.420
4.430
4.429
4.432
4.430
4.438
4.442
4.448
4.449
4.456
4.465
4.457
4.461
4.464
4.469
4.474
4.479
4.479
4.488
4.492
4.500
4.503
4.493
4.498
4.494
4.500
4.488
4.475
4.472
4.483
4.487
4.485
4.487
4.485
4.493
4.496
4.509
4.498
4.494
4.496
4.494
4.504
4.505
4.503
4.509
4.517
4.512
4.522
4.529
4.514
4.519
4.531
4.527
4.540
4.532
4.545
4.548
4.542
4.531
4.539
4.540
4.536
4.536
4.549
4.537
4.544
4.540
4.554
4.552
4.567
4.559
4.572
4.559
4.573
4.561
4.571
4.569
4.575
4.576
4.572
4.588
4.586
4.590
4.589
4.586
4.597
4.592
4.587
4.581
4.593
4.594
4.589
4.587
4.584
4.592
4.588
4.584
4.597
4.598
4.599
4.609
4.611
4.603
4.614
4.618
4.620
4.616
4.623
4.619
4.621
4.630
4.624
4.619
4.617
4.607
4.597
4.587
4.579
4.593
4.585
4.587
4.591
4.603
4.588
4.579
4.602
4.602
4.598
4.587
4.607
4.602
4.607
4.604
4.613
4.618
4.611
4.611
4.614
4.619
4.607
4.595
4.610
4.599
4.597
4.598
4.602
4.598
4.598
4.592
4.596
4.601
4.595
4.594
4.592
4.603
4.610
4.609
4.607
4.608
4.607
4.614
4.620
4.611
4.612
4.614
4.622
4.619
4.613
4.609
4.612
4.621
4.625
4.621
4.622
4.619
4.614
4.630
4.637
4.640
4.639
4.632
4.636
4.635
4.648
4.644
4.644
4.637
4.624
4.634
4.642
4.635
4.636
4.632
4.635
4.629
4.640
4.643
4.639
4.641
4.633
4.634
4.635
4.652
4.657
4.653
4.657
4.651
4.647
4.638
4.652
4.658
4.658
4.651
4.655
4.651
4.648
4.647
4.662
4.671
4.682
4.676
4.676
4.664
4.669
4.661
4.667
4.682
4.686
4.678
4.671
4.669
4.665
4.666
4.672
4.679
4.684
4.685
4.679
4.670
4.662
4.653
4.655
4.659
4.660
4.662
4.663
4.663
4.650
4.649
4.652
4.653
4.658
4.654
4.652
4.654
4.652
4.644
4.643
4.646
4.645
4.658
4.669
4.668
4.670
4.667
4.665
4.665
4.665
4.664
4.658
4.656
4.669
4.672
4.667
4.670
4.669
4.665
4.665
4.666
4.671
4.661
4.658
4.670
4.665
4.671
4.666
4.658
4.666
4.672
4.671
4.665
4.659
4.659
4.663
4.676
4.686
4.692
4.691
4.689
4.681
4.685
4.682
4.680
4.680
4.676
4.671
4.671
4.683
4.696
4.700
4.688
4.683
4.678
4.681
4.677
4.674
4.678
4.671
4.679
4.672
4.681
4.692
4.704
4.704
4.703
4.704
4.701
4.699
4.707
4.706
4.703
4.703
4.697
4.692
4.693
4.690
4.701
4.712
4.721
4.712
4.712
4.713
4.711
4.711
4.707
4.707
4.706
4.696
4.695
4.696
4.698
4.698
4.700
4.699
4.697
4.698
4.707
4.706
4.703
4.702
4.696
4.688
4.686
4.686
4.685
4.684
4.682
4.693
4.703
4.708
4.695
4.694
4.694
4.703
4.698
4.697
4.700
4.701
4.697
4.701
4.696
4.701
4.697
4.701
4.696
4.695
4.705
4.712
4.717
4.714
4.709
4.710
4.712
4.709
4.706
4.703
4.698
4.702
4.703
4.708
4.717
4.713
4.710
4.709
4.708
4.702
4.712
4.722
4.731
4.727
4.726
4.732
4.722
4.725
4.729
4.728
4.729
4.725
4.729
4.729
4.726
4.726
4.732
4.727
4.723
4.719
4.722
4.716
4.721
4.731
4.740
4.749
4.749
4.745
4.746
4.745
4.744
4.742
4.739
4.733
4.734
4.732
4.737
4.735
4.728
4.728
4.726
4.722
4.724
4.717
4.713
4.721
4.730
4.738
4.745
4.746
4.745
4.743
4.737
4.738
4.736
4.733
4.730
4.733
4.731
4.733
4.727
4.726
4.725
4.730
4.730
4.729
4.723
4.724
4.722
4.720
4.721
4.729
4.737
4.746
4.754
4.763
4.757
4.756
4.755
4.756
4.757
4.754
4.762
4.760
4.759
4.760
4.759
4.758
4.756
4.755
4.755
4.752
4.745
4.747
4.747
4.751
4.750
4.754
4.752
4.756
4.759
4.753
4.755
4.763
4.772
4.776
4.777
4.780
4.778
4.776
4.771
4.766
4.767
4.766
4.761
4.765
4.765
4.769
4.772
4.772
4.769
4.769
4.767
4.763
4.758
4.754
4.749
4.745
4.740
4.736
4.733
4.741
4.749
4.757
4.755
4.749
4.755
4.754
4.756
4.752
4.754
4.756
4.752
4.751
4.752
4.752
4.747
4.746
4.745
4.746
4.741
4.735
4.729
4.724
4.719
4.715
4.720
4.721
4.721
4.719
4.717
4.717
4.720
4.726
4.733
4.740
4.748
4.754
4.757
4.756
4.748
4.743
4.740
4.739
4.740
4.737
4.730
4.738
4.744
4.747
4.746
4.736
4.733
4.731
4.728
4.731
4.729
4.726
4.731
4.725
4.726
4.724
4.718
4.723
4.724
4.731
4.729
4.720
4.721
4.725
4.732
4.737
4.738
4.739
4.746
4.753
4.760
4.767
4.769
4.762
4.762
4.755
4.750
4.744
4.741
4.742
4.750
4.748
4.740
4.732
4.732
4.725
4.730
4.726
4.725
4.728
4.727
4.727
4.726
4.725
4.722
4.718
4.724
4.719
4.724
4.723
4.719
4.719
4.715
4.719
4.716
4.708
4.714
4.721
4.727
4.734
4.740
4.746
4.753
4.760
4.760
4.761
4.763
4.762
4.759
4.761
4.763
4.772
4.770
4.769
4.768
4.760
4.761
4.762
4.761
4.761
4.757
4.749
4.741
4.742
4.741
4.736
4.733
4.732
4.735
4.736
4.734
4.730
4.725
4.726
4.729
4.722
4.725
4.720
4.725
4.726
4.725
4.725
4.724
4.723
4.726
4.719
4.724
4.730
4.736
4.742
4.748
4.754
4.761
4.765
4.759
4.761
4.757
4.761
4.754
4.752
4.758
4.759
4.761
4.760
4.756
4.752
4.749
4.749
4.746
4.749
4.750
4.756
4.759
4.760
4.764
4.764
4.761
4.753
4.752
4.750
4.746
4.751
4.747
4.745
4.743
4.744
4.745
4.746
4.748
4.745
4.748
4.738
4.740
4.734
4.728
4.721
4.716
4.717
4.719
4.714
4.716
4.722
4.728
4.733
4.739
4.745
4.750
4.756
4.762
4.767
4.773
4.779
4.784
4.783
4.779
4.782
4.776
4.777
4.781
4.775
4.768
4.767
4.764
4.769
4.772
4.768
4.764
4.760
4.763
4.762
4.764
4.759
4.765
4.768
4.765
4.763
4.762
4.760
4.762
4.760
4.754
4.754
4.750
4.750
4.757
4.751
4.749
4.746
4.747
4.745
4.740
4.740
4.741
4.745
4.743
4.750
4.751
4.751
4.754
4.755
4.749
4.751
4.748
4.742
4.734
4.734
4.730
4.734
4.739
4.744
4.749
4.754
4.760
4.765
4.770
4.775
4.781
4.786
4.791
4.790
4.785
4.786
4.790
4.785
4.784
4.784
4.785
4.791
4.788
4.787
4.790
4.788
4.789
4.787
4.792
4.790
4.791
4.784
4.783
4.778
4.777
4.774
4.772
4.775
4.774
4.775
4.777
4.776
4.777
4.776
4.772
4.772
4.772
4.771
4.771
4.773
4.779
4.778
4.779
4.778
4.772
4.773
4.769
4.773
4.768
4.766
4.767
4.768
4.767
4.768
4.765
4.766
4.762
4.769
4.772
4.772
4.772
4.765
4.758
4.764
4.765
4.766
4.766
4.771
4.767
4.767
4.769
4.763
4.764
4.769
4.774
4.779
4.784
4.788
4.793
4.798
4.803
4.808
4.813
4.817
4.822
4.823
4.826
4.826
4.824
4.823
4.825
4.823
4.819
4.814
4.813
4.812
4.808
4.804
