2.986
3.326
3.497
3.619
3.691
3.777
3.828
3.871
3.881
3.932
3.978
4.024
4.052
3.975
3.986
4.007
4.024
4.043
4.055
4.080
4.090
4.113
4.115
4.143
4.137
4.160
4.174
4.177
4.188
4.204
4.219
4.209
4.220
4.229
4.251
4.257
4.245
4.256
4.263
4.275
4.286
4.292
4.303
4.311
4.289
4.295
4.308
4.315
4.320
4.330
4.331
4.338
4.351
4.363
4.362
4.379
4.365
4.342
4.351
4.360
4.364
4.377
4.371
4.370
4.389
4.393
4.393
4.405
4.407
4.404
4.412
4.416
4.419
4.434
4.433
4.434
4.450
4.443
4.441
4.449
4.458
4.435
4.418
4.426
4.436
4.435
4.434
4.440
4.454
4.447
4.438
4.438
4.448
4.455
4.452
4.454
4.455
4.466
4.479
4.466
4.468
4.476
4.487
4.489
4.484
4.497
4.485
4.488
4.471
4.490
4.493
4.481
4.497
4.493
4.512
4.509
4.509
4.522
4.512
4.516
4.514
4.521
4.518
4.531
4.531
4.541
4.532
4.545
4.542
4.544
4.532
4.540
4.540
4.537
4.526
4.542
4.533
4.551
4.552
4.546
4.558
4.549
4.566
4.568
4.555
4.577
4.567
4.569
4.582
4.577
4.581
4.571
4.558
4.546
4.538
4.541
4.540
4.542
4.542
4.538
4.542
4.549
4.546
4.545
4.568
4.563
4.557
4.562
4.564
4.565
4.568
4.558
4.546
4.541
4.556
4.554
4.539
4.548
4.550
4.545
4.535
4.556
4.555
4.552
4.545
4.559
4.570
4.560
4.559
4.557
4.578
4.568
4.560
4.555
4.574
4.573
4.571
4.569
4.563
4.586
4.583
4.586
4.585
4.580
4.593
4.601
4.598
4.591
4.589
4.590
4.588
4.584
4.578
4.581
4.590
4.586
4.586
4.585
4.580
4.581
4.602
4.604
4.604
4.595
4.597
4.589
4.604
4.607
4.606
4.602
4.598
4.604
4.607
4.626
4.628
4.622
4.625
4.615
4.602
4.619
4.638
4.632
4.619
4.622
4.626
4.618
4.624
4.643
4.633
4.633
4.627
4.615
4.605
4.622
4.617
4.611
4.611
4.606
4.602
4.600
4.611
4.609
4.605
4.602
4.599
4.599
4.597
4.596
4.613
4.627
4.623
4.624
4.619
4.620
4.609
4.604
4.605
4.621
4.625
4.628
4.630
4.618
4.621
4.606
4.593
4.605
4.621
4.620
4.629
4.630
4.623
4.612
4.614
4.620
4.616
4.618
4.626
4.642
4.645
4.643
4.639
4.632
4.629
4.628
4.627
4.621
4.628
4.636
4.647
4.645
4.640
4.640
4.631
4.644
4.638
4.636
4.636
4.630
4.635
4.650
4.664
4.668
4.673
4.663
4.654
4.655
4.653
4.648
4.655
4.648
4.646
4.651
4.665
4.679
4.672
4.660
4.663
4.664
4.662
4.660
4.651
4.641
4.635
4.639
4.653
4.658
4.664
4.658
4.650
4.648
4.635
4.640
4.639
4.630
4.626
4.630
4.628
4.641
4.654
4.667
4.665
4.672
4.670
4.668
4.665
4.655
4.649
4.638
4.643
4.644
4.647
4.644
4.641
4.653
4.666
4.676
4.682
4.683
4.678
4.682
4.679
4.667
4.666
4.665
4.660
4.657
4.657
4.658
4.657
4.660
4.661
4.673
4.685
4.696
4.699
4.696
4.696
4.690
4.690
4.687
4.690
4.685
4.685
4.685
4.682
4.679
4.683
4.683
4.676
4.674
4.685
4.695
4.698
4.702
4.705
4.695
4.688
4.678
4.678
4.674
4.676
4.677
4.666
4.665
4.672
4.672
4.670
4.664
4.667
4.678
4.688
4.699
4.705
4.701
4.701
4.696
4.701
4.700
4.701
4.704
4.695
4.697
4.697
4.693
4.695
4.693
4.694
4.687
4.688
4.691
4.692
4.694
4.692
4.702
4.713
4.723
4.733
4.744
4.746
4.738
4.733
4.722
4.718
4.716
4.712
4.714
4.707
4.719
4.712
4.716
4.712
4.708
4.699
4.700
4.703
4.701
4.700
4.702
4.712
4.722
4.732
4.730
4.725
4.719
4.714
4.708
4.703
4.697
4.695
4.690
4.683
4.681
4.683
4.687
4.683
4.678
4.687
4.687
4.683
4.684
4.690
4.689
4.687
4.696
4.705
4.706
4.701
4.707
4.704
4.694
4.698
4.693
4.695
4.688
4.693
4.696
4.699
4.687
4.682
4.685
4.683
4.676
4.672
4.668
4.669
4.662
4.662
4.660
4.669
4.663
4.671
4.680
4.689
4.697
4.706
4.715
4.724
4.720
4.716
4.716
4.714
4.709
4.701
4.695
4.702
4.707
4.708
4.704
4.699
4.697
4.697
4.695
4.699
4.695
4.688
4.680
4.673
4.671
4.670
4.674
4.668
4.660
4.660
4.668
4.677
4.685
4.693
4.702
4.709
4.707
4.702
4.697
4.693
4.698
4.700
4.704
4.706
4.701
4.706
4.698
4.700
4.707
4.702
4.708
4.712
4.706
4.703
4.700
4.698
4.697
4.688
4.687
4.685
4.687
4.681
4.684
4.684
4.684
4.682
4.687
4.682
4.682
4.678
4.686
4.693
4.701
4.709
4.711
4.709
4.716
4.711
4.707
4.708
4.711
4.703
4.705
4.715
4.714
4.705
4.698
4.693
4.692
4.698
4.700
4.700
4.698
4.700
4.701
4.698
4.690
4.683
4.693
4.692
4.686
4.689
4.693
4.692
4.697
4.699
4.697
4.694
4.690
4.685
4.682
4.680
4.678
4.684
4.691
4.698
4.705
4.708
4.719
4.725
4.720
4.719
4.720
4.721
4.720
4.720
4.723
4.722
4.722
4.718
4.718
4.714
4.720
4.718
4.711
4.704
4.707
4.705
4.707
4.708
4.703
4.703
4.701
4.701
4.694
4.695
4.699
4.708
4.708
4.709
4.710
4.707
4.714
4.708
4.703
4.702
4.699
4.703
4.698
4.699
4.696
4.689
4.682
4.684
4.691
4.697
4.704
4.711
4.717
4.724
4.731
4.738
4.739
4.736
4.733
4.730
4.726
4.737
4.737
4.739
4.736
4.739
4.745
4.741
4.750
4.746
4.739
4.736
4.738
4.729
4.726
4.726
4.725
4.722
4.723
4.724
4.724
4.723
4.719
4.724
4.716
4.712
4.711
4.715
4.716
4.714
4.711
4.716
4.716
4.717
4.722
4.722
4.720
4.716
4.710
4.706
4.713
4.723
4.721
4.715
4.716
4.714
4.709
4.714
4.716
4.713
4.713
4.720
4.726
4.732
4.738
4.744
4.750
4.757
4.763
4.768
4.764
4.767
4.775
4.773
4.772
4.772
4.777
4.772
4.774
4.768
4.760
4.765
4.762
4.762
4.765
4.762
4.760
4.754
4.750
4.751
4.752
4.755
4.759
4.755
4.753
4.758
4.752
4.746
4.741
4.747
4.747
4.752
4.754
4.762
4.757
4.751
4.748
4.741
4.740
4.737
4.738
4.729
4.722
4.722
4.718
4.719
4.724
4.727
4.721
4.720
4.720
4.724
4.730
4.730
4.725
4.720
4.715
4.710
4.706
4.712
4.717
4.723
4.728
4.734
4.740
4.744
4.745
4.747
4.748
4.756
4.761
4.761
4.759
4.761
4.758
4.756
4.753
4.753
4.747
4.747
4.750
4.753
4.748
4.749
4.743
4.740
4.734
4.732
4.733
4.732
4.730
4.731
4.732
4.722
4.719
4.716
4.720
4.719
4.717
4.721
4.725
4.721
4.724
4.732
4.724
4.718
4.719
4.718
4.716
4.717
4.717
4.715
4.718
4.714
4.721
4.729
4.725
4.725
4.724
4.721
4.718
4.720
4.717
4.719
4.722
4.723
4.722
4.721
4.713
4.708
4.707
4.702
4.701
4.696
4.703
4.698
4.699
4.702
4.702
4.701
4.705
4.706
4.711
4.716
4.721
4.726
4.731
4.737
4.742
4.747
4.752
4.757
4.762
4.767
4.773
4.774
4.773
4.773
4.771
4.772
4.773
4.777
4.778
4.772
4.768
4.761
4.761
4.758
4.760
4.762
4.762
4.758
4.750
4.754
4.754
4.762
4.769
4.768
4.770
4.775
4.770
4.774
4.773
4.773
4.766
4.757
4.757
4.758
4.764
4.767
4.762
4.756
4.754
4.756
4.760
4.767
4.768
4.767
4.761
4.762
4.764
4.766
4.764
4.763
4.763
4.762
4.762
4.759
4.758
4.760
4.755
4.753
4.750
4.748
4.751
4.751
4.749
4.744
4.747
4.752
4.754
4.751
4.747
4.741
4.740
4.737
4.733
4.730
4.726
4.723
4.719
