2.985
3.330
3.490
3.604
3.683
3.723
3.784
3.865
3.928
3.868
3.862
3.905
3.935
3.959
3.984
3.997
4.008
4.042
4.044
4.066
4.091
4.090
4.112
4.131
4.129
4.138
4.158
4.171
4.185
4.194
4.186
4.206
4.211
4.217
4.218
4.240
4.252
4.259
4.230
4.240
4.261
4.250
4.273
4.271
4.278
4.288
4.292
4.304
4.313
4.320
4.339
4.332
4.330
4.345
4.332
4.319
4.323
4.320
4.343
4.328
4.330
4.344
4.350
4.355
4.366
4.351
4.363
4.375
4.372
4.393
4.371
4.368
4.371
4.377
4.399
4.402
4.398
4.414
4.411
4.411
4.413
4.421
4.435
4.431
4.452
4.433
4.440
4.423
4.429
4.439
4.445
4.456
4.449
4.468
4.457
4.476
4.461
4.487
4.463
4.484
4.475
4.461
4.445
4.426
4.444
4.434
4.455
4.453
4.446
4.464
4.462
4.473
4.462
4.456
4.452
4.436
4.442
4.432
4.450
4.450
4.448
4.459
4.467
4.459
4.463
4.467
4.458
4.462
4.470
4.474
4.469
4.490
4.493
4.487
4.483
4.502
4.476
4.469
4.494
4.480
4.480
4.476
4.500
4.507
4.487
4.488
4.505
4.509
4.499
4.492
4.500
4.527
4.526
4.520
4.510
4.518
4.545
4.533
4.525
4.522
4.528
4.532
4.540
4.530
4.525
4.518
4.513
4.517
4.513
4.496
4.515
4.510
4.496
4.502
4.504
4.508
4.526
4.518
4.517
4.502
4.503
4.509
4.531
4.518
4.507
4.509
4.506
4.504
4.524
4.536
4.539
4.534
4.529
4.530
4.527
4.528
4.550
4.544
4.538
4.529
4.528
4.522
4.525
4.543
4.561
4.570
4.555
4.558
4.565
4.552
4.539
4.544
4.566
4.574
4.570
4.568
4.566
4.563
4.557
4.551
4.554
4.566
4.555
4.552
4.548
4.549
4.540
4.521
4.527
4.547
4.567
4.565
4.564
4.569
4.555
4.554
4.546
4.536
4.542
4.545
4.564
4.583
4.595
4.585
4.578
4.576
4.557
4.558
4.563
4.557
4.565
4.564
4.581
4.599
4.597
4.588
4.605
4.597
4.591
4.591
4.592
4.586
4.580
4.579
4.579
4.596
4.613
4.606
4.609
4.594
4.579
4.582
4.575
4.575
4.569
4.574
4.575
4.573
4.589
4.604
4.618
4.618
4.617
4.604
4.603
4.603
4.594
4.594
4.610
4.609
4.597
4.596
4.590
4.595
4.608
4.623
4.639
4.643
4.632
4.630
4.624
4.628
4.624
4.621
4.614
4.604
4.613
4.617
4.615
4.612
4.613
4.615
4.630
4.644
4.642
4.633
4.624
4.616
4.607
4.602
4.611
4.602
4.599
4.607
4.597
4.595
4.595
4.590
4.594
4.608
4.610
4.608
4.616
4.606
4.597
4.597
4.589
4.582
4.586
4.590
4.579
4.576
4.581
4.584
4.582
4.584
4.580
4.585
4.586
4.598
4.611
4.624
4.626
4.635
4.632
4.618
4.608
4.609
4.597
4.589
4.581
4.583
4.586
4.573
4.571
4.566
4.564
4.566
4.569
4.574
4.574
4.579
4.592
4.604
4.616
4.629
4.640
4.629
4.622
4.619
4.610
4.606
4.608
4.605
4.600
4.599
4.598
4.603
4.603
4.603
4.594
4.582
4.577
4.582
4.583
4.582
4.581
4.577
4.582
4.594
4.605
4.617
4.618
4.618
4.624
4.629
4.636
4.633
4.631
4.628
4.630
4.629
4.614
4.604
4.605
4.603
4.604
4.602
4.605
4.599
4.588
4.584
4.583
4.591
4.594
4.592
4.594
4.587
4.591
4.585
4.595
4.605
4.616
4.626
4.637
4.647
4.639
4.639
4.637
4.635
4.628
4.635
4.625
4.626
4.625
4.626
4.627
4.627
4.632
4.623
4.616
4.615
4.601
4.611
4.613
4.604
4.601
4.611
4.618
4.621
4.615
4.607
4.602
4.598
4.607
4.604
4.610
4.608
4.613
4.623
4.633
4.643
4.652
4.662
4.670
4.672
4.668
4.667
4.660
4.666
4.656
4.653
4.654
4.657
4.648
4.654
4.647
4.643
4.646
4.642
4.634
4.639
4.648
4.645
4.642
4.645
4.652
4.646
4.656
4.654
4.648
4.644
4.643
4.638
4.635
4.629
4.631
4.637
4.634
4.634
4.634
4.630
4.641
4.633
4.642
4.651
4.660
4.668
4.670
4.673
4.670
4.675
4.683
4.691
4.693
4.687
4.679
4.671
4.663
4.657
4.652
4.641
4.637
4.629
4.624
4.629
4.624
4.614
4.610
4.610
4.611
4.618
4.631
4.625
4.623
4.623
4.626
4.615
4.622
4.621
4.622
4.618
4.615
4.607
4.610
4.599
4.606
4.612
4.614
4.612
4.606
4.603
4.611
4.619
4.627
4.635
4.644
4.652
4.660
4.668
4.676
4.674
4.672
4.670
4.671
4.660
4.661
4.658
4.658
4.665
4.665
4.657
4.656
4.645
4.651
4.651
4.653
4.661
4.656
4.655
4.653
4.655
4.653
4.645
4.645
4.651
4.653
4.650
4.650
4.653
4.648
4.651
4.647
4.641
4.640
4.646
4.642
4.642
4.646
4.643
4.640
4.637
4.629
4.628
4.624
4.627
4.620
4.625
4.627
4.627
4.637
4.638
4.635
4.638
4.648
4.651
4.642
4.637
4.634
4.642
4.651
4.657
4.664
4.671
4.679
4.686
4.693
4.695
4.700
4.699
4.698
4.703
4.704
4.697
4.691
4.688
4.690
4.687
4.681
4.682
4.672
4.668
4.669
4.659
4.653
4.654
4.649
4.645
4.657
4.649
4.650
4.655
4.648
4.643
4.638
4.638
4.631
4.630
4.639
4.647
4.644
4.642
4.634
4.638
4.631
4.624
4.625
4.620
4.623
4.633
4.631
4.627
4.628
4.624
4.629
4.635
4.627
4.622
4.630
4.620
4.615
4.614
4.619
4.608
4.607
4.611
4.609
4.602
4.595
4.590
4.590
4.596
4.602
4.609
4.616
4.622
4.629
4.635
4.642
4.648
4.655
4.661
4.668
4.674
4.681
4.684
4.686
4.685
4.691
4.692
4.691
4.689
4.691
4.686
4.682
4.688
4.697
4.705
4.709
4.702
4.693
4.692
4.692
4.695
4.694
4.691
4.691
4.689
4.691
4.690
4.691
4.689
4.685
4.689
4.681
4.673
4.671
4.671
4.668
4.671
4.669
4.667
4.665
4.664
4.667
4.675
4.668
4.665
4.657
4.661
4.661
4.663
4.653
4.646
4.647
4.642
4.644
4.638
4.630
4.630
4.636
4.635
4.634
4.628
4.622
4.616
4.610
4.613
4.621
4.619
4.621
4.618
4.625
4.626
4.621
4.612
4.612
4.612
4.608
4.608
4.600
4.611
4.612
4.609
4.605
4.611
4.621
4.627
4.631
4.630
4.626
4.625
4.620
4.623
4.624
4.622
4.621
4.627
4.632
4.638
4.644
4.650
4.655
4.661
4.667
4.672
4.678
4.684
4.689
4.695
4.692
4.688
4.683
4.690
4.681
4.681
4.683
4.677
4.677
4.678
4.673
4.679
4.680
4.684
4.678
4.673
4.672
4.665
4.663
4.658
4.652
4.649
4.654
4.665
4.669
4.668
4.661
4.670
4.663
4.669
4.671
4.674
4.673
4.663
4.660
4.668
4.676
4.683
4.688
4.689
4.684
4.692
4.699
4.698
4.695
4.692
4.696
4.690
4.683
4.679
4.684
4.684
4.683
4.678
4.678
4.676
4.669
4.669
4.661
4.660
4.658
4.656
4.651
4.646
4.639
4.632
4.626
4.621
4.622
4.621
4.628
4.626
4.626
4.634
4.629
4.631
4.640
4.636
4.639
4.641
4.648
4.648
4.641
4.644
4.640
4.644
4.641
4.639
4.640
4.640
4.642
4.639
4.632
4.631
4.632
4.627
4.626
4.621
4.616
4.617
4.615
4.616
4.610
4.612
4.617
4.615
4.617
4.614
4.610
4.615
4.625
4.621
4.624
4.630
4.632
4.628
4.633
4.640
4.647
4.654
4.651
4.654
4.650
4.650
4.649
4.642
4.646
4.651
4.656
4.661
4.666
4.671
4.676
4.680
4.685
4.690
4.695
4.700
4.705
4.710
4.714
4.719
4.724
4.729
4.734
4.739
4.744
4.734
4.730
4.726
4.725
4.723
4.714
4.715
4.709
4.708
4.715
4.714
4.721
4.717
4.714
4.718
4.719
4.727
4.729
4.731
4.734
4.726
4.721
4.718
4.717
4.719
4.713
4.708
4.701
4.702
4.693
4.689
4.691
4.686
