2.994
3.331
3.518
3.631
3.714
3.787
3.854
3.892
3.937
3.955
4.003
4.004
4.040
4.073
4.109
4.083
4.096
4.119
4.140
4.166
4.181
4.203
4.222
4.234
4.251
4.272
4.236
4.203
4.200
4.215
4.222
4.229
4.240
4.244
4.257
4.261
4.270
4.281
4.282
4.294
4.306
4.302
4.312
4.319
4.320
4.324
4.336
4.343
4.353
4.347
4.353
4.360
4.372
4.373
4.370
4.374
4.383
4.387
4.394
4.401
4.408
4.396
4.403
4.410
4.416
4.421
4.421
4.429
4.436
4.436
4.427
4.433
4.441
4.440
4.447
4.455
4.452
4.462
4.466
4.473
4.471
4.478
4.462
4.467
4.470
4.470
4.477
4.478
4.485
4.488
4.490
4.494
4.493
4.502
4.509
4.513
4.509
4.514
4.517
4.521
4.504
4.513
4.510
4.507
4.514
4.514
4.520
4.522
4.528
4.525
4.533
4.535
4.533
4.536
4.539
4.544
4.548
4.552
4.550
4.559
4.551
4.557
4.562
4.559
4.564
4.573
4.570
4.574
4.577
4.566
4.556
4.560
4.553
4.560
4.564
4.559
4.566
4.566
4.569
4.571
4.577
4.573
4.575
4.579
4.584
4.574
4.580
4.584
4.586
4.584
4.589
4.592
4.596
4.598
4.597
4.601
4.602
4.604
4.608
4.610
4.613
4.609
4.605
4.609
4.614
4.614
4.611
4.617
4.618
4.618
4.622
4.628
4.629
4.633
4.635
4.634
4.630
4.639
4.640
4.645
4.646
4.644
4.638
4.644
4.641
4.645
4.641
4.633
4.622
4.612
4.613
4.620
4.616
4.625
4.619
4.631
4.630
4.629
4.627
4.636
4.630
4.642
4.633
4.633
4.638
4.640
4.638
4.642
4.643
4.645
4.646
4.651
4.643
4.639
4.643
4.650
4.643
4.645
4.644
4.644
4.646
4.655
4.647
4.653
4.654
4.650
4.657
4.653
4.660
4.661
4.659
4.666
4.666
4.667
4.670
4.670
4.673
4.669
4.670
4.670
4.668
4.673
4.671
4.675
4.682
4.680
4.679
4.691
4.688
4.684
4.688
4.678
4.676
4.680
4.676
4.684
4.681
4.681
4.685
4.680
4.677
4.686
4.684
4.683
4.687
4.691
4.690
4.686
4.693
4.691
4.684
4.697
4.696
4.696
4.695
4.707
4.704
4.702
4.706
4.713
4.712
4.703
4.714
4.711
4.709
4.708
4.709
4.708
4.706
4.711
4.720
4.716
4.714
4.718
4.721
4.722
4.720
4.721
4.728
4.724
4.728
4.727
4.731
4.729
4.728
4.727
4.737
4.733
4.726
4.719
4.723
4.725
4.723
4.718
4.731
4.733
4.733
4.730
4.731
4.729
4.728
4.727
4.723
4.733
4.729
4.724
4.728
4.727
4.734
4.736
4.737
4.736
4.731
4.744
4.744
4.741
4.740
4.740
4.745
4.759
4.748
4.746
4.747
4.746
4.756
4.757
4.756
4.752
4.753
4.757
4.759
4.754
4.748
4.743
4.739
4.733
4.728
4.722
4.731
4.729
4.731
4.722
4.718
4.725
4.733
4.724
4.715
4.713
4.715
4.725
4.728
4.727
4.726
4.725
4.723
4.727
4.737
4.735
4.733
4.732
4.731
4.732
4.737
4.736
4.731
4.727
4.729
4.729
4.733
4.743
4.745
4.744
4.737
4.736
4.734
4.736
4.747
4.747
4.748
4.747
4.747
4.743
4.742
4.751
4.761
4.765
4.758
4.751
4.744
4.736
4.739
4.740
4.736
4.736
4.733
4.732
4.733
4.743
4.750
4.747
4.739
4.740
4.739
4.735
4.736
4.733
4.734
4.730
4.733
4.730
4.729
4.730
4.737
4.747
4.745
4.740
4.740
4.736
4.731
4.727
4.736
4.744
4.745
4.743
4.742
4.743
4.745
4.743
4.740
4.741
4.750
4.752
4.758
4.755
4.755
4.752
4.755
4.754
4.751
4.752
4.761
4.757
4.759
4.762
4.761
4.752
4.748
4.746
4.750
4.759
4.756
4.759
4.758
4.752
4.755
4.755
4.758
4.755
4.756
4.762
4.770
4.766
4.769
4.768
4.759
4.759
4.758
4.763
4.761
4.763
4.770
4.777
4.778
4.773
4.775
4.777
4.777
4.781
4.777
4.770
4.772
4.776
4.783
4.777
4.772
4.768
4.770
4.768
4.762
4.762
4.759
4.768
4.777
4.774
4.777
4.777
4.775
4.774
4.777
4.768
4.767
4.768
4.764
4.773
4.778
4.776
4.770
4.768
4.772
4.776
4.775
4.774
4.772
4.770
4.772
4.774
4.781
4.790
4.791
4.787
4.781
4.785
4.783
4.782
4.786
4.785
4.781
4.779
4.780
4.787
4.794
4.793
4.788
4.787
4.788
4.782
4.781
4.784
4.783
4.781
4.786
4.785
4.786
4.793
4.800
4.803
4.800
4.803
4.796
4.796
4.800
4.799
4.799
4.798
4.797
4.795
4.797
4.796
4.803
4.812
4.819
4.812
4.810
4.810
4.810
4.809
4.802
4.803
4.808
4.807
4.805
4.799
4.800
4.806
4.814
4.810
4.813
4.812
4.807
4.803
4.797
4.795
4.791
4.785
4.781
4.782
4.788
4.796
4.796
4.798
4.794
4.788
4.791
4.788
4.791
4.792
4.789
4.785
4.783
4.785
4.783
4.782
4.789
4.795
4.799
4.796
4.791
4.785
4.780
4.776
4.778
4.777
4.775
4.776
4.777
4.774
4.773
4.774
4.783
4.788
4.796
4.799
4.799
4.796
4.794
4.792
4.791
4.790
4.786
4.792
4.789
4.787
4.784
4.787
4.783
4.784
4.784
4.792
4.797
4.804
4.807
4.806
4.803
4.804
4.799
4.799
4.800
4.798
4.802
4.806
4.807
4.801
4.796
4.792
4.786
4.788
4.792
4.799
4.805
4.807
4.802
4.804
4.800
4.804
4.802
4.804
4.802
4.804
4.800
4.798
4.796
4.790
4.791
4.787
4.788
4.792
4.792
4.799
4.805
4.804
4.800
4.804
4.803
4.799
4.797
4.799
4.803
4.801
4.799
4.799
4.802
4.798
4.799
4.799
4.792
4.793
4.796
4.795
4.799
4.804
4.810
4.815
4.822
4.823
4.818
4.814
4.813
4.812
4.816
4.817
4.814
4.810
4.813
4.812
4.819
4.814
4.813
4.815
4.813
4.815
4.811
4.809
4.807
4.814
4.818
4.823
4.822
4.825
4.819
4.828
4.827
4.823
4.818
4.815
4.818
4.814
4.814
4.810
4.807
4.806
4.803
4.809
4.813
4.812
4.808
4.807
4.810
4.814
4.819
4.825
4.830
4.834
4.829
4.829
4.827
4.829
4.830
4.828
4.832
4.828
4.833
4.833
4.830
4.829
4.825
4.826
4.822
4.823
4.830
4.828
4.827
4.823
4.822
4.821
4.824
4.828
4.833
4.839
4.844
4.850
4.846
4.844
4.846
4.845
4.847
4.845
4.841
4.844
4.840
4.840
4.836
4.831
4.833
4.837
4.835
4.833
4.836
4.831
4.830
4.833
4.832
4.828
4.824
4.829
4.833
4.831
4.827
4.823
4.824
4.826
4.825
4.828
4.827
4.821
4.821
4.817
4.818
4.818
4.821
4.820
4.819
4.821
4.818
4.818
4.818
4.820
4.819
4.821
4.821
4.818
4.818
4.821
4.827
4.833
4.836
4.840
4.835
4.831
4.833
4.828
4.830
4.828
4.824
4.823
4.821
4.821
4.827
4.823
4.818
4.820
4.821
4.823
4.821
4.817
4.814
4.815
4.816
4.815
4.816
4.814
4.810
4.812
4.818
4.823
4.827
4.833
4.838
4.840
4.844
4.851
4.851
4.850
4.847
4.847
4.844
4.845
4.846
4.844
4.846
4.842
4.835
4.833
4.835
4.833
4.833
4.829
4.827
4.829
4.830
4.833
4.833
4.829
4.825
4.826
4.824
4.823
4.822
4.825
4.829
4.833
4.836
4.842
4.847
4.853
4.852
4.851
4.852
4.853
4.849
4.850
4.846
4.848
4.854
4.855
4.855
4.858
4.854
4.850
4.849
4.850
4.851
4.851
4.847
4.850
4.849
4.845
4.843
4.839
4.840
4.839
4.833
4.834
4.835
4.839
4.836
4.839
4.838
4.844
4.844
4.848
4.852
4.858
4.862
4.867
4.873
4.870
4.866
4.866
4.865
4.866
4.870
4.864
4.863
4.862
4.866
4.870
4.870
4.869
4.865
4.869
4.866
4.867
4.866
4.864
4.863
4.862
4.860
4.859
4.859
4.858
4.857
4.858
4.854
4.853
4.855
4.851
4.849
4.848
4.844
4.848
