2.932
3.294
3.491
3.411
3.507
3.596
3.665
3.729
3.742
3.792
3.783
3.834
3.883
3.905
3.905
3.918
3.927
3.921
3.969
3.980
4.012
4.026
4.018
4.063
4.106
4.042
4.052
3.991
4.034
4.028
4.067
4.049
4.030
4.051
4.104
4.095
4.118
4.108
4.125
4.115
4.062
4.116
4.063
4.130
4.111
4.140
4.145
4.127
4.190
4.143
4.139
4.142
4.124
4.138
4.182
4.172
4.157
4.189
4.192
4.192
4.175
4.205
4.220
4.200
4.204
4.188
4.231
4.264
4.245
4.222
4.217
4.254
4.266
4.228
4.191
4.161
4.216
4.228
4.195
4.197
4.166
4.141
4.186
4.231
4.249
4.224
4.180
4.167
4.197
4.165
4.198
4.244
4.216
4.217
4.231
4.213
4.213
4.176
4.160
4.203
4.227
4.268
4.294
4.248
4.272
4.256
4.250
4.242
4.247
4.243
4.240
4.222
4.247
4.284
4.282
4.322
4.287
4.252
4.223
4.231
4.213
4.208
4.231
4.209
4.185
4.201
4.234
4.267
4.300
4.322
4.295
4.303
4.287
4.320
4.312
4.307
4.298
4.290
4.288
4.296
4.273
4.253
4.242
4.247
4.224
4.250
4.279
4.308
4.308
4.290
4.277
4.276
4.247
4.256
4.266
4.246
4.249
4.282
4.284
4.286
4.253
4.243
4.236
4.225
4.201
4.208
4.202
4.219
4.208
4.233
4.257
4.282
4.307
4.306
4.314
4.329
4.332
4.297
4.293
4.304
4.298
4.287
4.302
4.295
4.270
4.255
4.261
4.238
4.242
4.229
4.241
4.238
4.256
4.264
4.250
4.228
4.220
4.220
4.219
4.203
4.194
4.204
4.222
4.224
4.245
4.265
4.286
4.307
4.327
4.348
4.369
4.389
4.380
4.372
4.359
4.337
4.349
4.346
4.321
4.341
4.353
4.323
4.324
4.313
4.308
4.326
4.350
4.329
4.316
4.321
4.303
4.286
4.268
4.251
4.233
4.236
4.199
4.210
4.189
4.179
4.200
4.180
4.204
4.204
4.192
4.180
4.204
4.229
4.223
4.248
4.229
4.225
4.227
4.209
4.215
4.232
4.248
4.265
4.281
4.297
4.314
4.331
4.347
4.364
4.380
4.397
4.380
4.368
4.388
4.377
4.358
4.344
4.356
4.370
4.361
4.333
4.312
4.325
4.310
4.305
4.301
4.291
4.300
4.291
4.274
4.274
4.264
4.263
4.272
4.273
4.254
4.275
4.276
4.295
4.283
4.278
4.300
4.281
4.265
4.264
4.289
4.286
4.275
4.263
4.275
4.293
4.292
4.266
4.283
4.267
4.253
4.266
4.277
4.260
4.250
4.244
4.245
4.251
4.247
4.245
4.238
4.260
4.253
4.234
4.221
4.217
4.213
4.213
4.212
4.225
4.226
4.228
4.249
4.264
4.254
4.240
4.226
4.212
4.204
4.206
4.219
4.231
4.243
4.256
4.268
4.281
4.293
4.305
4.318
4.330
4.342
4.355
4.367
4.368
4.370
4.375
4.390
4.400
4.413
4.410
4.420
4.431
4.412
4.391
4.369
4.353
4.349
4.340
4.346
4.344
4.336
4.341
4.343
4.328
4.321
4.307
4.295
4.294
4.314
4.313
4.317
4.313
4.307
4.314
4.319
4.320
4.325
4.323
4.306
4.327
4.312
4.323
4.324
4.332
4.341
4.340
4.351
4.343
4.344
4.335
4.327
4.307
4.312
4.306
4.303
4.311
4.302
4.300
4.301
4.287
4.279
4.279
4.270
4.254
4.244
4.240
4.261
4.253
4.258
4.241
4.222
4.222
4.221
4.229
4.236
4.220
4.219
4.222
4.217
4.217
4.237
4.217
4.215
4.220
4.211
4.225
4.239
4.253
4.267
4.281
4.279
4.276
4.281
4.279
4.269
4.257
4.253
4.261
4.264
4.262
4.242
4.260
4.272
4.274
4.274
4.279
4.301
4.294
4.288
4.290
4.274
4.271
4.272
4.263
4.259
4.279
4.277
4.272
4.258
4.249
4.234
4.244
4.224
4.217
4.226
4.228
4.235
4.221
4.225
4.232
4.222
4.218
4.205
4.203
4.193
4.208
4.196
4.191
4.192
4.197
4.182
4.181
4.179
4.175
4.180
4.168
4.178
4.165
4.187
4.178
4.183
4.202
4.205
4.204
4.220
4.201
4.197
4.202
4.198
4.198
4.206
4.214
4.222
4.231
4.239
4.247
4.255
4.263
4.272
4.280
4.288
4.296
4.305
4.313
4.321
4.329
4.337
4.346
4.354
4.362
4.370
4.379
4.387
4.395
4.403
4.411
4.420
4.428
4.423
4.423
4.427
4.420
4.406
4.398
4.392
4.399
4.402
4.400
4.396
4.386
4.387
4.393
4.387
4.377
4.378
4.386
4.376
4.362
4.353
4.356
4.358
4.347
4.348
4.340
4.341
4.350
4.337
4.330
4.339
4.326
4.331
4.335
4.348
4.353
4.355
4.349
4.363
4.356
4.355
4.349
4.344
4.331
4.316
4.317
4.316
4.325
4.325
4.329
4.312
4.326
4.337
4.334
4.338
4.349
4.359
4.359
4.371
4.370
4.366
4.353
4.353
4.358
4.369
4.373
4.366
4.380
4.372
4.359
4.348
4.342
4.347
4.335
4.329
4.327
4.321
4.337
4.331
4.335
4.337
4.334
4.330
4.318
4.313
4.311
4.299
4.283
4.287
4.286
4.288
4.290
4.301
4.292
4.281
4.283
4.282
4.277
4.285
4.294
4.296
4.288
4.280
4.282
4.296
4.286
4.296
4.301
4.293
4.286
4.283
4.273
4.272
4.284
4.271
4.270
4.261
4.271
4.265
4.264
4.265
4.271
4.265
4.255
4.261
4.277
4.273
4.268
4.260
4.270
4.272
4.281
4.283
4.283
4.280
4.283
4.291
4.291
4.277
4.264
4.278
4.264
4.271
4.283
4.295
4.305
4.290
4.284
4.271
4.281
4.281
4.275
4.266
4.257
4.248
4.239
4.230
4.225
4.223
4.220
4.223
4.216
4.221
4.235
4.224
4.225
4.215
4.219
4.223
4.235
4.222
4.231
4.233
4.227
4.231
4.227
4.231
4.244
4.245
4.257
4.252
4.236
4.231
4.223
4.230
4.236
4.232
4.225
4.211
4.216
4.217
4.215
4.217
4.205
4.217
4.209
4.216
4.211
4.197
4.193
4.201
4.198
4.200
4.181
4.188
4.196
4.207
4.195
4.201
4.204
4.210
4.203
4.209
4.219
4.229
4.235
4.236
4.243
4.250
4.231
4.240
4.254
4.247
4.241
4.237
4.244
4.237
4.237
4.245
4.245
4.246
4.256
4.258
4.251
4.243
4.250
4.239
4.227
4.243
4.250
4.244
4.233
4.224
4.234
4.224
4.234
4.245
4.255
4.261
4.272
4.258
4.261
4.266
4.269
4.262
4.259
4.246
4.246
4.243
4.236
4.236
4.236
4.237
4.240
4.249
4.254
4.251
4.244
4.240
4.244
4.243
4.249
4.231
4.220
4.224
4.210
4.215
4.221
4.218
4.230
4.233
4.234
4.236
4.237
4.239
4.245
4.247
4.234
4.233
4.221
4.217
4.211
4.203
4.195
4.188
4.179
4.191
4.205
4.216
4.217
4.212
4.196
4.200
4.204
4.212
4.212
4.206
4.202
4.208
4.197
4.186
4.184
4.180
4.177
4.186
4.183
4.176
4.177
4.189
4.201
4.211
4.210
4.196
4.190
4.179
4.174
4.165
4.174
4.182
4.187
4.200
4.189
4.196
4.203
4.210
4.217
4.224
4.231
4.238
4.245
4.252
4.259
4.266
4.266
4.260
4.254
4.258
4.262
4.271
4.282
4.288
4.288
4.299
4.293
4.291
4.289
4.278
4.274
4.267
4.276
4.264
4.271
4.258
4.255
4.256
4.263
4.267
4.265
4.264
4.268
4.270
4.279
4.286
4.295
4.304
4.313
4.305
4.296
4.294
4.293
4.290
4.288
4.296
4.295
4.302
4.293
4.288
4.296
4.292
4.292
4.281
4.290
4.287
4.285
4.275
4.276
4.267
4.273
4.271
4.277
4.276
4.277
4.278
4.269
4.265
4.268
4.264
4.266
4.260
4.257
4.269
4.252
4.244
4.262
4.255
4.259
4.253
4.255
4.251
4.254
4.258
4.260
4.257
4.255
4.248
4.241
4.233
4.226
4.229
4.233
4.239
4.234
4.220
4.209
4.213
4.213
4.218
4.200
4.208
4.203
4.212
4.212
4.219
4.229
4.240
4.227
4.224
4.227
4.236
4.243
4.221
4.223
4.221
4.217
4.220
4.207
4.216
4.211
4.207
4.206
4.199
4.206
