2.992
3.335
3.510
3.637
3.713
3.780
3.834
3.890
3.902
3.956
4.004
3.980
4.015
4.044
4.077
4.104
4.127
4.155
4.171
4.121
4.105
4.118
4.130
4.139
4.157
4.167
4.173
4.189
4.195
4.206
4.221
4.222
4.237
4.249
4.245
4.258
4.267
4.266
4.277
4.287
4.297
4.307
4.299
4.307
4.316
4.323
4.336
4.339
4.330
4.342
4.344
4.353
4.357
4.366
4.374
4.378
4.371
4.372
4.377
4.381
4.387
4.392
4.396
4.406
4.414
4.416
4.418
4.424
4.426
4.411
4.412
4.418
4.426
4.432
4.431
4.436
4.444
4.446
4.456
4.457
4.464
4.460
4.467
4.466
4.473
4.477
4.484
4.488
4.483
4.463
4.459
4.468
4.469
4.479
4.484
4.484
4.489
4.492
4.489
4.492
4.489
4.499
4.500
4.504
4.511
4.509
4.513
4.520
4.525
4.517
4.519
4.525
4.521
4.526
4.530
4.537
4.541
4.540
4.543
4.548
4.558
4.558
4.558
4.555
4.552
4.559
4.554
4.556
4.543
4.529
4.530
4.539
4.540
4.537
4.544
4.548
4.549
4.547
4.549
4.556
4.551
4.558
4.568
4.558
4.557
4.553
4.557
4.550
4.562
4.561
4.562
4.567
4.565
4.575
4.573
4.581
4.574
4.588
4.582
4.583
4.581
4.577
4.587
4.589
4.592
4.599
4.593
4.603
4.595
4.597
4.593
4.592
4.595
4.599
4.592
4.597
4.590
4.606
4.601
4.606
4.601
4.603
4.609
4.606
4.618
4.619
4.620
4.627
4.621
4.624
4.628
4.627
4.620
4.624
4.623
4.635
4.629
4.632
4.639
4.632
4.639
4.647
4.642
4.643
4.656
4.643
4.647
4.652
4.640
4.644
4.644
4.643
4.647
4.657
4.642
4.644
4.647
4.636
4.640
4.654
4.650
4.643
4.653
4.655
4.656
4.658
4.666
4.662
4.664
4.660
4.673
4.671
4.675
4.671
4.675
4.677
4.675
4.677
4.683
4.676
4.667
4.660
4.653
4.644
4.647
4.636
4.634
4.633
4.648
4.647
4.644
4.641
4.645
4.657
4.656
4.652
4.640
4.654
4.653
4.657
4.650
4.649
4.661
4.658
4.659
4.657
4.653
4.666
4.677
4.677
4.667
4.666
4.669
4.676
4.670
4.660
4.653
4.663
4.662
4.662
4.661
4.647
4.661
4.663
4.655
4.643
4.644
4.654
4.661
4.655
4.648
4.652
4.645
4.658
4.661
4.658
4.661
4.655
4.656
4.658
4.672
4.673
4.673
4.676
4.669
4.663
4.672
4.682
4.678
4.679
4.675
4.663
4.667
4.679
4.675
4.671
4.677
4.677
4.673
4.671
4.684
4.685
4.684
4.681
4.677
4.674
4.680
4.685
4.697
4.701
4.695
4.698
4.694
4.687
4.688
4.695
4.702
4.693
4.683
4.682
4.689
4.687
4.684
4.696
4.695
4.698
4.697
4.692
4.683
4.681
4.684
4.696
4.697
4.698
4.695
4.699
4.699
4.695
4.688
4.692
4.703
4.717
4.713
4.707
4.708
4.710
4.703
4.699
4.694
4.706
4.713
4.710
4.718
4.710
4.710
4.712
4.706
4.709
4.708
4.715
4.727
4.728
4.725
4.729
4.732
4.728
4.722
4.723
4.716
4.718
4.729
4.740
4.740
4.731
4.725
4.720
4.724
4.723
4.724
4.723
4.727
4.736
4.730
4.723
4.718
4.712
4.705
4.704
4.705
4.704
4.714
4.718
4.714
4.714
4.716
4.712
4.714
4.715
4.708
4.706
4.700
4.709
4.706
4.714
4.713
4.710
4.708
4.706
4.702
4.701
4.703
4.704
4.699
4.709
4.718
4.712
4.719
4.721
4.718
4.717
4.714
4.715
4.719
4.717
4.714
4.712
4.714
4.720
4.730
4.731
4.725
4.725
4.716
4.714
4.718
4.720
4.718
4.718
4.714
4.714
4.714
4.723
4.724
4.721
4.725
4.721
4.716
4.712
4.711
4.715
4.713
4.717
4.716
4.715
4.713
4.720
4.729
4.737
4.738
4.731
4.729
4.729
4.736
4.732
4.736
4.734
4.735
4.732
4.729
4.729
4.730
4.731
4.735
4.742
4.743
4.747
4.747
4.742
4.744
4.740
4.740
4.736
4.729
4.731
4.727
4.723
4.721
4.726
4.730
4.739
4.747
4.750
4.749
4.753
4.755
4.755
4.747
4.755
4.749
4.748
4.746
4.744
4.744
4.748
4.751
4.753
4.751
4.747
4.751
4.761
4.768
4.770
4.768
4.764
4.765
4.766
4.771
4.764
4.758
4.756
4.752
4.753
4.752
4.755
4.747
4.750
4.751
4.751
4.758
4.767
4.762
4.756
4.751
4.745
4.744
4.744
4.744
4.740
4.743
4.742
4.740
4.739
4.744
4.748
4.744
4.739
4.740
4.748
4.755
4.758
4.751
4.751
4.752
4.755
4.752
4.745
4.740
4.737
4.740
4.740
4.744
4.736
4.735
4.737
4.743
4.742
4.740
4.744
4.741
4.748
4.755
4.762
4.771
4.769
4.771
4.772
4.769
4.761
4.760
4.758
4.758
4.753
4.754
4.755
4.752
4.755
4.754
4.750
4.743
4.744
4.744
4.747
4.743
4.751
4.758
4.766
4.773
4.780
4.779
4.784
4.787
4.789
4.785
4.784
4.774
4.767
4.768
4.764
4.762
4.762
4.766
4.773
4.769
4.766
4.765
4.766
4.762
4.759
4.762
4.759
4.760
4.769
4.776
4.781
4.788
4.797
4.804
4.802
4.799
4.795
4.796
4.795
4.793
4.791
4.790
4.788
4.787
4.783
4.787
4.789
4.785
4.780
4.773
4.773
4.774
4.780
4.781
4.777
4.781
4.778
4.776
4.783
4.790
4.795
4.803
4.803
4.796
4.791
4.787
4.780
4.776
4.773
4.774
4.780
4.781
4.781
4.777
4.772
4.774
4.777
4.781
4.775
4.774
4.773
4.766
4.764
4.766
4.767
4.763
4.767
4.771
4.778
4.784
4.789
4.796
4.803
4.807
4.803
4.803
4.802
4.801
4.795
4.796
4.797
4.799
4.797
4.790
4.792
4.796
4.794
4.793
4.788
4.790
4.789
4.793
4.794
4.795
4.797
4.795
4.788
4.785
4.786
4.784
4.789
4.787
4.786
4.787
4.794
4.801
4.806
4.812
4.818
4.825
4.825
4.826
4.825
4.820
4.818
4.820
4.825
4.825
4.824
4.828
4.825
4.829
4.830
4.825
4.825
4.818
4.814
4.810
4.805
4.798
4.802
4.804
4.803
4.799
4.792
4.796
4.799
4.807
4.813
4.809
4.803
4.806
4.800
4.806
4.813
4.818
4.818
4.814
4.811
4.807
4.803
4.799
4.797
4.796
4.794
4.798
4.799
4.795
4.789
4.787
4.788
4.793
4.788
4.785
4.780
4.774
4.775
4.779
4.778
4.781
4.781
4.781
4.780
4.781
4.781
4.777
4.777
4.776
4.775
4.776
4.783
4.788
4.794
4.798
4.795
4.793
4.792
4.795
4.794
4.793
4.794
4.795
4.792
4.790
4.786
4.790
4.788
4.785
4.788
4.788
4.784
4.790
4.791
4.790
4.784
4.785
4.784
4.782
4.783
4.781
4.781
4.785
4.781
4.779
4.775
4.776
4.778
4.773
4.777
4.776
4.773
4.773
4.773
4.773
4.775
4.781
4.784
4.790
4.795
4.801
4.802
4.803
4.797
4.795
4.792
4.793
4.795
4.793
4.792
4.795
4.795
4.798
4.800
4.807
4.808
4.804
4.803
4.804
4.800
4.796
4.797
4.795
4.797
4.796
4.799
4.799
4.794
4.790
4.783
4.777
4.780
4.781
4.783
4.782
4.786
4.784
4.783
4.784
4.781
4.784
4.786
4.784
4.780
4.776
4.772
4.777
4.783
4.787
4.791
4.796
4.802
4.803
4.802
4.799
4.803
4.803
4.795
4.790
4.791
4.792
4.794
4.798
4.797
4.793
4.792
4.792
4.788
4.785
4.786
4.788
4.784
4.784
4.781
4.781
4.781
4.784
4.788
4.785
4.786
4.784
4.781
4.782
4.788
4.784
4.783
4.782
4.780
4.784
4.781
4.779
4.778
4.781
4.780
4.779
4.781
4.781
4.778
4.779
4.780
4.785
4.781
4.781
4.780
4.782
4.788
4.792
4.797
4.803
4.805
4.810
4.814
4.814
4.808
4.804
4.805
4.810
4.816
4.812
4.811
4.810
4.811
4.810
4.805
4.801
4.799
4.796
4.791
4.792
4.784
4.785
4.786
4.785
4.783
4.785
4.783
4.781
4.781
