2.964
3.307
3.496
3.580
3.648
3.605
3.677
3.730
3.759
3.800
3.850
3.863
3.909
3.898
3.937
3.962
4.011
3.990
4.011
4.030
4.054
4.092
4.085
4.099
4.079
4.056
4.070
4.084
4.117
4.137
4.130
4.138
4.154
4.175
4.178
4.197
4.173
4.199
4.217
4.212
4.238
4.248
4.250
4.238
4.209
4.227
4.228
4.205
4.177
4.211
4.229
4.193
4.214
4.226
4.261
4.252
4.231
4.249
4.244
4.266
4.252
4.277
4.278
4.268
4.309
4.272
4.309
4.318
4.291
4.261
4.247
4.293
4.263
4.258
4.289
4.266
4.262
4.310
4.295
4.280
4.292
4.325
4.298
4.320
4.312
4.330
4.319
4.331
4.325
4.362
4.328
4.301
4.298
4.338
4.333
4.318
4.321
4.314
4.352
4.337
4.357
4.345
4.327
4.341
4.380
4.370
4.359
4.361
4.352
4.343
4.375
4.381
4.386
4.354
4.372
4.370
4.358
4.395
4.421
4.408
4.389
4.384
4.395
4.377
4.387
4.412
4.437
4.437
4.441
4.428
4.407
4.386
4.365
4.379
4.384
4.381
4.361
4.356
4.365
4.383
4.357
4.349
4.372
4.402
4.374
4.378
4.373
4.365
4.373
4.361
4.347
4.349
4.356
4.367
4.395
4.408
4.387
4.368
4.351
4.373
4.375
4.386
4.382
4.356
4.342
4.340
4.366
4.392
4.415
4.414
4.404
4.403
4.421
4.393
4.384
4.372
4.371
4.377
4.371
4.364
4.375
4.381
4.381
4.405
4.429
4.424
4.422
4.432
4.435
4.440
4.435
4.418
4.433
4.429
4.401
4.400
4.402
4.403
4.393
4.418
4.425
4.417
4.413
4.435
4.457
4.474
4.468
4.456
4.472
4.458
4.430
4.429
4.434
4.422
4.406
4.399
4.399
4.379
4.368
4.384
4.376
4.373
4.359
4.378
4.398
4.417
4.437
4.456
4.476
4.471
4.459
4.456
4.449
4.450
4.455
4.440
4.425
4.423
4.420
4.410
4.427
4.422
4.426
4.436
4.447
4.431
4.418
4.437
4.423
4.421
4.433
4.437
4.445
4.414
4.425
4.443
4.460
4.477
4.470
4.461
4.464
4.448
4.448
4.452
4.448
4.440
4.437
4.418
4.418
4.418
4.410
4.400
4.403
4.412
4.419
4.413
4.394
4.379
4.379
4.380
4.367
4.364
4.386
4.394
4.392
4.381
4.388
4.391
4.400
4.399
4.414
4.429
4.444
4.459
4.474
4.490
4.502
4.495
4.481
4.483
4.477
4.464
4.460
4.462
4.454
4.455
4.439
4.424
4.414
4.407
4.427
4.438
4.433
4.440
4.451
4.455
4.444
4.445
4.441
4.436
4.430
4.433
4.416
4.398
4.378
4.367
4.385
4.370
4.371
4.372
4.385
4.370
4.363
4.360
4.372
4.383
4.394
4.390
4.403
4.416
4.429
4.442
4.455
4.468
4.481
4.494
4.507
4.519
4.513
4.510
4.501
4.498
4.500
4.504
4.490
4.477
4.467
4.465
4.451
4.453
4.465
4.465
4.469
4.465
4.448
4.450
4.453
4.459
4.448
4.445
4.435
4.430
4.432
4.425
4.429
4.433
4.446
4.443
4.445
4.449
4.442
4.447
4.457
4.453
4.456
4.454
4.457
4.445
4.429
4.425
4.431
4.418
4.404
4.409
4.423
4.418
4.400
4.410
4.412
4.425
4.433
4.434
4.426
4.423
4.434
4.442
4.437
4.445
4.442
4.438
4.443
4.454
4.465
4.476
4.486
4.497
4.508
4.507
4.502
4.494
4.492
4.491
4.484
4.469
4.480
4.471
4.463
4.441
4.445
4.446
4.460
4.475
4.484
4.479
4.462
4.471
4.465
4.459
4.449
4.452
4.462
4.465
4.470
4.465
4.466
4.465
4.458
4.449
4.448
4.445
4.442
4.436
4.426
4.442
4.416
4.420
4.430
4.433
4.427
4.416
4.415
4.412
4.412
4.402
4.406
4.398
4.412
4.405
4.402
4.400
4.388
4.386
4.394
4.402
4.387
4.391
4.384
4.400
4.406
4.387
4.382
4.379
4.380
4.390
4.382
4.375
4.393
4.398
4.407
4.420
4.433
4.446
4.441
4.443
4.436
4.424
4.422
4.428
4.424
4.417
4.426
4.433
4.413
4.405
4.413
4.426
4.426
4.429
4.426
4.424
4.427
4.424
4.432
4.441
4.449
4.458
4.467
4.475
4.484
4.492
4.501
4.510
4.518
4.527
4.521
4.518
4.506
4.500
4.509
4.509
4.498
4.493
4.504
4.509
4.513
4.520
4.517
4.498
4.492
4.484
4.477
4.482
4.475
4.480
4.483
4.494
4.478
4.475
4.472
4.464
4.458
4.459
4.462
4.472
4.474
4.487
4.485
4.499
4.496
4.492
4.490
4.486
4.476
4.471
4.473
4.485
4.498
4.498
4.481
4.471
4.471
4.457
4.458
4.468
4.480
4.474
4.474
4.485
4.496
4.502
4.500
4.493
4.482
4.489
4.483
4.473
4.472
4.464
4.456
4.470
4.481
4.479
4.471
4.467
4.463
4.458
4.463
4.471
4.463
4.460
4.458
4.443
4.447
4.434
4.434
4.440
4.429
4.429
4.423
4.437
4.438
4.436
4.429
4.421
4.414
4.406
4.407
4.408
4.414
4.424
4.415
4.410
4.411
4.420
4.409
4.409
4.405
4.400
4.404
4.416
4.428
4.428
4.427
4.429
4.424
4.417
4.406
4.406
4.401
4.404
4.402
4.400
4.399
4.401
4.396
4.386
4.379
4.385
4.393
4.383
4.385
4.379
4.376
4.371
4.369
4.366
4.377
4.387
4.379
4.366
4.367
4.364
4.355
4.360
4.352
4.355
4.355
4.348
4.359
4.355
4.354
4.353
4.365
4.368
4.376
4.378
4.382
4.389
4.395
4.401
4.408
4.414
4.421
4.427
4.434
4.440
4.446
4.453
4.459
4.466
4.472
4.479
4.485
4.492
4.498
4.505
4.511
4.518
4.524
4.531
4.537
4.544
4.550
4.556
4.563
4.570
4.576
4.582
4.582
4.585
4.580
4.585
4.578
4.572
4.575
4.565
4.554
4.548
4.542
4.543
4.550
4.540
4.541
4.540
4.532
4.522
4.518
4.521
4.512
4.512
4.507
4.509
4.507
4.498
4.500
4.489
4.494
4.493
4.495
4.495
4.494
4.499
4.499
4.502
4.512
4.522
4.522
4.514
4.525
4.521
4.520
4.509
4.509
4.512
4.514
4.505
4.502
4.498
4.490
4.488
4.485
4.495
4.506
4.515
4.513
4.501
4.500
4.504
4.502
4.513
4.505
4.510
4.511
4.508
4.502
4.506
4.506
4.505
4.501
4.502
4.486
4.481
4.479
4.480
4.480
4.482
4.489
4.477
4.474
4.476
4.477
4.472
4.468
4.471
4.466
4.466
4.456
4.451
4.446
4.444
4.440
4.445
4.458
4.446
4.446
4.441
4.435
4.440
4.438
4.442
4.439
4.439
4.452
4.438
4.442
4.444
4.432
4.434
4.435
4.431
4.424
4.418
4.412
4.405
4.399
4.392
4.389
4.385
4.380
4.380
4.383
4.395
4.385
4.387
4.383
4.388
4.398
4.400
4.393
4.390
4.393
4.388
4.392
4.390
4.396
4.387
4.385
4.383
4.381
4.389
4.394
4.389
4.389
4.385
4.388
4.391
4.398
4.406
4.413
4.421
4.428
4.435
4.443
4.450
4.458
4.446
4.446
4.445
4.444
4.450
4.446
4.440
4.441
4.443
4.453
4.448
4.447
4.445
4.432
4.434
4.431
4.427
4.431
4.440
4.439
4.442
4.450
4.460
4.463
4.468
4.460
4.452
4.444
4.436
4.445
4.436
4.434
4.427
4.421
4.419
4.423
4.415
4.420
4.425
4.424
4.433
4.430
4.427
4.423
4.418
4.416
4.416
4.412
4.415
4.409
4.407
4.409
4.411
4.414
4.400
4.409
4.402
4.411
4.406
4.404
4.407
4.410
4.403
4.411
4.406
4.418
4.420
4.422
4.419
4.418
4.415
4.413
4.399
4.403
4.399
4.402
4.402
4.397
4.408
4.394
4.406
4.409
4.409
4.409
4.405
4.400
4.410
4.410
4.409
4.405
4.402
4.405
4.395
4.395
4.397
4.390
4.385
4.382
4.383
4.380
4.386
4.376
4.375
4.381
4.378
4.381
4.387
4.383
4.374
4.370
4.380
4.376
4.375
4.382
4.392
4.398
4.385
4.382
4.388
4.386
4.379
4.380
4.387
4.390
4.384
4.375
4.374
4.381
4.383
4.376
4.379
4.382
4.386
4.377
4.381
