2.989
3.329
3.516
3.630
3.714
3.759
3.852
3.868
3.933
3.917
3.957
3.994
4.036
4.070
4.099
4.083
4.029
4.045
4.062
4.088
4.099
4.111
4.130
4.135
4.153
4.159
4.178
4.176
4.196
4.209
4.209
4.223
4.234
4.227
4.240
4.257
4.263
4.272
4.265
4.273
4.285
4.288
4.299
4.312
4.320
4.309
4.312
4.324
4.330
4.334
4.350
4.345
4.358
4.370
4.356
4.351
4.358
4.365
4.375
4.375
4.379
4.393
4.391
4.401
4.402
4.403
4.411
4.422
4.422
4.430
4.410
4.399
4.410
4.421
4.420
4.426
4.436
4.427
4.427
4.436
4.441
4.445
4.450
4.453
4.463
4.467
4.457
4.460
4.465
4.469
4.475
4.480
4.488
4.497
4.493
4.501
4.498
4.497
4.496
4.497
4.502
4.485
4.480
4.478
4.487
4.491
4.488
4.486
4.490
4.499
4.500
4.510
4.503
4.495
4.497
4.497
4.503
4.505
4.503
4.511
4.518
4.513
4.528
4.526
4.517
4.522
4.530
4.531
4.543
4.533
4.549
4.543
4.544
4.536
4.534
4.543
4.544
4.538
4.549
4.538
4.548
4.544
4.558
4.555
4.568
4.561
4.570
4.564
4.570
4.567
4.568
4.570
4.571
4.580
4.570
4.590
4.589
4.584
4.597
4.588
4.599
4.592
4.593
4.585
4.585
4.599
4.588
4.595
4.590
4.580
4.596
4.591
4.589
4.603
4.603
4.601
4.608
4.607
4.604
4.619
4.619
4.616
4.621
4.619
4.625
4.626
4.630
4.628
4.623
4.613
4.603
4.593
4.583
4.586
4.594
4.589
4.589
4.598
4.598
4.586
4.585
4.600
4.603
4.596
4.592
4.612
4.605
4.609
4.608
4.617
4.623
4.611
4.616
4.617
4.617
4.604
4.599
4.612
4.596
4.597
4.597
4.600
4.601
4.599
4.595
4.597
4.600
4.594
4.595
4.596
4.604
4.611
4.609
4.609
4.609
4.607
4.616
4.624
4.614
4.616
4.616
4.624
4.624
4.613
4.614
4.615
4.619
4.629
4.627
4.627
4.624
4.617
4.627
4.641
4.643
4.642
4.636
4.637
4.631
4.649
4.649
4.648
4.640
4.627
4.629
4.647
4.639
4.637
4.637
4.637
4.630
4.640
4.641
4.644
4.646
4.636
4.638
4.635
4.645
4.658
4.656
4.655
4.657
4.650
4.643
4.645
4.657
4.667
4.658
4.652
4.663
4.654
4.647
4.655
4.670
4.678
4.682
4.676
4.672
4.668
4.663
4.660
4.673
4.688
4.685
4.677
4.673
4.668
4.666
4.671
4.675
4.684
4.688
4.685
4.676
4.667
4.659
4.650
4.659
4.664
4.665
4.665
4.665
4.662
4.653
4.653
4.654
4.656
4.660
4.656
4.656
4.657
4.653
4.648
4.645
4.648
4.647
4.660
4.672
4.668
4.672
4.670
4.667
4.666
4.668
4.667
4.664
4.656
4.669
4.674
4.667
4.670
4.674
4.669
4.668
4.667
4.671
4.661
4.657
4.670
4.669
4.671
4.669
4.661
4.670
4.673
4.671
4.667
4.665
4.663
4.661
4.674
4.685
4.692
4.698
4.689
4.687
4.688
4.685
4.680
4.682
4.675
4.678
4.668
4.680
4.692
4.703
4.691
4.690
4.683
4.681
4.682
4.678
4.683
4.676
4.677
4.678
4.681
4.688
4.699
4.706
4.705
4.706
4.705
4.701
4.707
4.706
4.710
4.708
4.704
4.698
4.693
4.692
4.695
4.706
4.718
4.715
4.717
4.714
4.709
4.714
4.711
4.710
4.711
4.702
4.695
4.696
4.701
4.699
4.701
4.702
4.703
4.694
4.703
4.707
4.706
4.708
4.701
4.694
4.692
4.688
4.688
4.685
4.681
4.684
4.695
4.705
4.707
4.700
4.699
4.697
4.702
4.701
4.698
4.703
4.705
4.701
4.704
4.700
4.703
4.698
4.701
4.698
4.696
4.706
4.716
4.717
4.715
4.711
4.715
4.714
4.713
4.706
4.707
4.702
4.705
4.706
4.707
4.717
4.721
4.715
4.711
4.711
4.706
4.711
4.720
4.730
4.730
4.725
4.734
4.729
4.729
4.729
4.733
4.732
4.730
4.730
4.733
4.726
4.730
4.735
4.728
4.726
4.721
4.724
4.720
4.718
4.728
4.737
4.746
4.747
4.750
4.750
4.745
4.746
4.749
4.743
4.737
4.732
4.738
4.732
4.740
4.729
4.728
4.729
4.725
4.726
4.722
4.715
4.717
4.726
4.735
4.741
4.745
4.745
4.745
4.744
4.739
4.736
4.737
4.731
4.733
4.736
4.735
4.730
4.727
4.731
4.722
4.734
4.733
4.731
4.727
4.728
4.720
4.723
4.726
4.732
4.739
4.748
4.756
4.763
4.758
4.759
4.754
4.757
4.758
4.758
4.765
4.764
4.763
4.762
4.761
4.761
4.756
4.759
4.758
4.753
4.747
4.750
4.748
4.756
4.754
4.756
4.753
4.759
4.759
4.753
4.755
4.764
4.771
4.779
4.777
4.785
4.781
4.779
4.776
4.767
4.772
4.769
4.763
4.766
4.766
4.771
4.770
4.773
4.774
4.771
4.768
4.763
4.759
4.754
4.750
4.745
4.741
4.736
4.732
4.739
4.747
4.755
4.758
4.752
4.753
4.755
4.759
4.756
4.758
4.758
4.755
4.752
4.751
4.756
4.748
4.748
4.751
4.748
4.743
4.737
4.731
4.726
4.723
4.720
4.719
4.723
4.721
4.724
4.723
4.718
4.722
4.723
4.729
4.737
4.744
4.751
4.754
4.758
4.754
4.749
4.744
4.742
4.744
4.741
4.735
4.731
4.741
4.746
4.751
4.743
4.733
4.734
4.733
4.730
4.732
4.730
4.730
4.733
4.727
4.727
4.723
4.719
4.726
4.726
4.735
4.727
4.722
4.724
4.728
4.733
4.738
4.738
4.740
4.747
4.754
4.761
4.768
4.770
4.766
4.761
4.755
4.749
4.743
4.746
4.745
4.752
4.748
4.741
4.735
4.731
4.729
4.730
4.729
4.725
4.728
4.726
4.730
4.731
4.725
4.725
4.722
4.726
4.720
4.723
4.727
4.721
4.724
4.720
4.718
4.717
4.711
4.713
4.719
4.726
4.732
4.739
4.745
4.751
4.758
4.763
4.765
4.763
4.765
4.763
4.763
4.760
4.769
4.773
4.772
4.766
4.763
4.762
4.763
4.759
4.763
4.759
4.752
4.744
4.744
4.745
4.741
4.735
4.737
4.737
4.736
4.739
4.735
4.729
4.729
4.730
4.725
4.726
4.724
4.724
4.730
4.730
4.724
4.728
4.728
4.724
4.726
4.722
4.727
4.732
4.739
4.744
4.751
4.757
4.762
4.763
4.761
4.760
4.759
4.759
4.757
4.758
4.757
4.762
4.763
4.760
4.758
4.753
4.750
4.749
4.749
4.750
4.752
4.758
4.763
4.762
4.766
4.767
4.760
4.759
4.754
4.751
4.747
4.752
4.751
4.748
4.746
4.748
4.746
4.746
4.749
4.748
4.748
4.743
4.740
4.734
4.727
4.723
4.720
4.719
4.721
4.717
4.716
4.721
4.727
4.733
4.738
4.744
4.750
4.755
4.761
4.767
4.772
4.778
4.783
4.787
4.783
4.784
4.778
4.777
4.779
4.778
4.771
4.771
4.769
4.768
4.774
4.773
4.768
4.763
4.766
4.765
4.766
4.763
4.765
4.767
4.767
4.767
4.768
4.763
4.764
4.763
4.756
4.755
4.754
4.749
4.754
4.753
4.753
4.747
4.751
4.747
4.745
4.743
4.744
4.743
4.745
4.747
4.752
4.753
4.755
4.757
4.754
4.752
4.752
4.746
4.739
4.740
4.735
4.732
4.737
4.740
4.745
4.751
4.756
4.761
4.767
4.772
4.777
4.782
4.787
4.793
4.792
4.786
4.788
4.790
4.786
4.786
4.786
4.787
4.791
4.791
4.786
4.791
4.793
4.793
4.791
4.793
4.791
4.790
4.789
4.784
4.779
4.778
4.776
4.772
4.775
4.777
4.777
4.780
4.780
4.779
4.779
4.775
4.776
4.775
4.775
4.772
4.775
4.780
4.782
4.779
4.780
4.773
4.775
4.772
4.774
4.771
4.771
4.770
4.771
4.769
4.770
4.768
4.765
4.762
4.767
4.773
4.772
4.773
4.766
4.760
4.762
4.767
4.767
4.770
4.772
4.770
4.771
4.771
4.768
4.764
4.767
4.772
4.777
4.782
4.787
4.791
4.796
4.801
4.806
4.810
4.815
4.820
4.825
4.826
4.829
4.829
4.824
