2.904
3.233
3.215
3.401
3.488
3.535
3.624
3.656
3.699
3.687
3.731
3.729
3.800
3.827
3.843
3.910
3.913
3.856
3.875
3.922
3.896
3.937
3.943
3.929
3.981
3.945
3.945
3.904
3.953
3.956
4.021
3.970
3.979
3.946
4.017
4.020
4.011
4.090
3.995
4.032
4.133
4.060
4.015
4.103
4.161
4.110
4.067
4.100
4.047
3.993
3.998
4.073
4.031
4.057
3.995
3.976
4.044
4.115
4.084
4.077
4.054
4.017
4.009
4.072
4.118
4.140
4.148
4.153
4.115
4.085
4.099
4.058
4.114
4.120
4.116
4.089
4.098
4.077
4.033
4.059
4.059
4.045
4.078
4.127
4.176
4.225
4.228
4.162
4.154
4.102
4.123
4.086
4.067
4.053
4.031
4.029
4.071
4.113
4.154
4.173
4.166
4.216
4.163
4.155
4.110
4.127
4.132
4.091
4.069
4.031
4.061
4.113
4.080
4.090
4.036
4.042
4.077
4.112
4.147
4.181
4.206
4.245
4.203
4.185
4.147
4.157
4.165
4.158
4.147
4.143
4.166
4.162
4.172
4.152
4.115
4.156
4.121
4.110
4.113
4.073
4.069
4.059
4.055
4.097
4.118
4.103
4.084
4.111
4.139
4.167
4.195
4.222
4.225
4.207
4.179
4.169
4.188
4.176
4.171
4.177
4.129
4.130
4.128
4.136
4.147
4.153
4.151
4.166
4.146
4.151
4.143
4.142
4.162
4.113
4.130
4.097
4.077
4.097
4.060
4.030
4.065
4.033
4.033
4.054
4.042
4.061
4.084
4.055
4.078
4.041
4.070
4.049
4.070
4.074
4.060
4.071
4.090
4.111
4.132
4.153
4.173
4.194
4.215
4.235
4.253
4.257
4.229
4.252
4.263
4.234
4.263
4.241
4.226
4.206
4.170
4.147
4.142
4.147
4.151
4.155
4.164
4.163
4.152
4.142
4.134
4.124
4.143
4.136
4.173
4.173
4.157
4.160
4.131
4.127
4.107
4.106
4.122
4.118
4.110
4.100
4.063
4.051
4.064
4.051
4.066
4.070
4.052
4.053
4.062
4.073
4.084
4.061
4.066
4.090
4.114
4.131
4.110
4.109
4.102
4.092
4.096
4.114
4.112
4.120
4.142
4.141
4.136
4.154
4.128
4.115
4.117
4.093
4.125
4.128
4.106
4.101
4.083
4.065
4.046
4.051
4.048
4.050
4.032
4.029
4.047
4.042
4.065
4.053
4.055
4.024
4.014
4.028
4.042
4.055
4.069
4.083
4.097
4.111
4.124
4.138
4.152
4.165
4.179
4.193
4.207
4.221
4.234
4.248
4.262
4.276
4.265
4.283
4.256
4.239
4.235
4.255
4.233
4.227
4.252
4.254
4.250
4.239
4.250
4.276
4.267
4.245
4.241
4.228
4.229
4.210
4.214
4.230
4.218
4.230
4.209
4.231
4.235
4.236
4.239
4.244
4.232
4.204
4.197
4.182
4.185
4.203
4.216
4.207
4.203
4.207
4.207
4.188
4.189
4.185
4.183
4.192
4.165
4.160
4.147
4.142
4.131
4.154
4.149
4.134
4.144
4.153
4.137
4.127
4.140
4.163
4.160
4.140
4.133
4.131
4.131
4.140
4.135
4.158
4.157
4.149
4.138
4.113
4.117
4.107
4.099
4.087
4.073
4.070
4.065
4.059
4.085
4.068
4.067
4.072
4.087
4.094
4.097
4.113
4.133
4.125
4.098
4.114
4.114
4.106
4.106
4.099
4.090
4.080
4.086
4.087
4.108
4.098
4.087
4.090
4.090
4.081
4.098
4.092
4.080
4.081
4.098
4.119
4.118
4.110
4.114
4.099
4.085
4.070
4.056
4.066
4.051
4.050
4.031
4.019
4.015
4.017
4.033
4.049
4.065
4.071
4.061
4.064
4.050
4.071
4.056
4.057
4.060
4.049
4.061
4.041
4.059
4.050
4.046
4.063
4.058
4.061
4.077
4.057
4.075
4.083
4.090
4.098
4.101
4.106
4.094
4.100
4.101
4.110
4.089
4.083
4.086
4.082
4.072
4.080
4.086
4.081
4.071
4.058
4.055
4.054
4.053
4.063
4.047
4.049
4.024
4.026
4.015
4.023
4.023
4.024
4.043
4.052
4.046
4.033
4.038
4.047
4.027
4.032
4.030
4.038
4.022
4.036
4.039
4.050
4.045
4.048
4.042
4.054
4.066
4.078
4.090
4.101
4.113
4.125
4.137
4.120
4.098
4.087
4.084
4.095
4.113
4.113
4.101
4.101
4.088
4.092
4.090
4.089
4.100
4.082
4.098
4.112
4.127
4.125
4.130
4.139
4.151
4.143
4.130
4.135
4.125
4.122
4.110
4.109
4.101
4.090
4.104
4.092
4.083
4.095
4.115
4.130
4.111
4.097
4.108
4.095
4.085
4.092
4.092
4.073
4.080
4.084
4.090
4.112
4.094
4.108
4.088
4.090
4.098
4.102
4.094
4.078
4.061
4.064
4.056
4.064
4.081
4.092
4.098
4.089
4.091
4.100
4.089
4.070
4.077
4.075
4.061
4.045
4.053
4.057
4.062
4.074
4.076
4.083
4.090
4.096
4.103
4.110
4.117
4.124
4.131
4.137
4.144
4.151
4.158
4.165
4.172
4.179
4.186
4.193
4.199
4.206
4.213
4.220
4.227
4.234
4.240
4.247
4.254
4.261
4.268
4.275
4.282
4.289
4.295
4.302
4.307
4.313
4.301
4.312
4.326
4.340
4.331
4.343
4.348
4.346
4.333
4.326
4.329
4.320
4.305
4.319
4.319
4.325
4.307
4.300
4.313
4.322
4.323
4.342
4.332
4.322
4.318
4.302
4.299
4.290
4.281
4.283
4.268
4.257
4.267
4.256
4.245
4.233
4.222
4.210
4.207
4.211
4.214
4.223
4.227
4.225
4.221
4.213
4.224
4.234
4.245
4.256
4.246
4.234
4.245
4.230
4.233
4.226
4.233
4.243
4.244
4.243
4.225
4.245
4.242
4.246
4.247
4.248
4.225
4.219
4.226
4.237
4.230
4.229
4.217
4.211
4.206
4.221
4.234
4.247
4.260
4.250
4.248
4.228
4.246
4.228
4.233
4.216
4.207
4.210
4.196
4.191
4.191
4.185
4.199
4.184
4.190
4.202
4.202
4.204
4.211
4.201
4.196
4.189
4.174
4.166
4.163
4.161
4.160
4.164
4.163
4.160
4.170
4.176
4.197
4.196
4.188
4.180
4.173
4.175
4.162
4.178
4.193
4.193
4.190
4.196
4.187
4.182
4.175
4.162
4.160
4.156
4.150
4.144
4.134
4.124
4.135
4.143
4.135
4.137
4.132
4.118
4.106
4.096
4.091
4.094
4.107
4.120
4.133
4.134
4.127
4.123
4.124
4.111
4.120
4.129
4.132
4.123
4.118
4.123
4.118
4.120
4.114
4.108
4.115
4.113
4.112
4.096
4.086
4.101
4.116
4.123
4.121
4.121
4.131
4.132
4.142
4.153
4.163
4.172
4.183
4.181
4.174
4.181
4.184
4.189
4.188
4.166
4.152
4.147
4.134
4.124
4.127
4.140
4.153
4.142
4.120
4.120
4.112
4.132
4.121
4.127
4.118
4.127
4.115
4.125
4.127
4.122
4.120
4.115
4.109
4.110
4.104
4.116
4.111
4.100
4.110
4.110
4.115
4.100
4.113
4.106
4.119
4.131
4.143
4.144
4.126
4.118
4.118
4.103
4.099
4.097
4.110
4.109
4.113
4.120
4.120
4.135
4.121
4.106
4.102
4.104
4.102
4.082
4.098
4.085
4.072
4.060
4.072
4.067
4.068
4.081
4.093
4.087
4.088
4.084
4.083
4.057
4.071
4.057
4.048
4.045
4.047
4.063
4.052
4.066
4.064
4.070
4.064
4.070
4.066
4.078
4.092
4.100
4.107
4.102
4.098
4.082
4.067
4.069
4.055
4.043
4.061
4.058
4.051
4.050
4.055
4.050
4.055
4.071
4.060
4.066
4.078
4.090
4.102
4.103
4.096
4.101
4.100
4.110
4.119
4.129
4.138
4.137
4.130
4.126
4.133
4.130
4.110
4.117
4.120
4.123
4.108
4.095
4.086
4.094
4.096
4.095
4.106
4.096
4.091
4.091
4.082
4.094
4.095
4.083
4.079
4.093
4.094
4.098
4.080
4.093
4.099
4.094
4.088
4.072
4.067
4.068
4.075
4.072
4.079
4.095
4.093
4.070
4.079
4.077
4.077
4.073
4.079
4.087
4.075
4.063
4.051
4.047
4.032
4.027
4.041
4.046
4.035
4.033
4.043
4.046
4.058
4.069
4.062
4.073
4.063
4.072
4.079
4.070
4.068
4.068
4.076
4.086
