2.995
3.330
3.500
3.625
3.715
3.793
3.842
3.861
3.926
3.948
3.953
3.993
4.025
4.058
4.090
4.123
4.088
4.044
4.061
4.086
4.103
4.116
4.123
4.145
4.150
4.166
4.170
4.187
4.192
4.200
4.215
4.222
4.231
4.243
4.254
4.245
4.257
4.270
4.276
4.290
4.285
4.290
4.299
4.308
4.313
4.326
4.329
4.325
4.331
4.332
4.342
4.342
4.354
4.363
4.370
4.369
4.382
4.383
4.374
4.372
4.374
4.384
4.391
4.388
4.399
4.410
4.407
4.415
4.420
4.420
4.431
4.439
4.442
4.445
4.435
4.415
4.420
4.429
4.433
4.433
4.444
4.448
4.446
4.443
4.453
4.450
4.464
4.468
4.465
4.476
4.477
4.467
4.478
4.479
4.486
4.489
4.492
4.495
4.495
4.502
4.505
4.510
4.516
4.516
4.518
4.519
4.521
4.505
4.488
4.493
4.496
4.501
4.508
4.504
4.502
4.501
4.509
4.519
4.516
4.517
4.506
4.518
4.515
4.511
4.515
4.523
4.522
4.525
4.534
4.532
4.541
4.545
4.537
4.534
4.543
4.544
4.555
4.554
4.560
4.558
4.562
4.552
4.547
4.556
4.554
4.553
4.548
4.564
4.552
4.561
4.555
4.568
4.566
4.580
4.576
4.582
4.582
4.582
4.590
4.578
4.583
4.579
4.595
4.588
4.593
4.602
4.595
4.603
4.599
4.601
4.609
4.610
4.615
4.600
4.601
4.609
4.603
4.611
4.603
4.594
4.600
4.604
4.602
4.612
4.611
4.609
4.626
4.626
4.617
4.629
4.629
4.622
4.628
4.636
4.628
4.625
4.647
4.640
4.639
4.642
4.636
4.626
4.617
4.607
4.600
4.604
4.601
4.598
4.609
4.610
4.608
4.606
4.611
4.609
4.608
4.601
4.619
4.616
4.614
4.610
4.619
4.632
4.633
4.629
4.620
4.637
4.638
4.626
4.629
4.620
4.621
4.616
4.610
4.621
4.619
4.616
4.609
4.609
4.620
4.618
4.608
4.609
4.613
4.617
4.621
4.613
4.613
4.613
4.631
4.632
4.630
4.633
4.624
4.627
4.638
4.641
4.636
4.631
4.624
4.637
4.634
4.638
4.637
4.630
4.630
4.642
4.646
4.641
4.639
4.639
4.640
4.643
4.660
4.659
4.659
4.649
4.654
4.653
4.656
4.659
4.652
4.650
4.642
4.640
4.647
4.663
4.658
4.658
4.646
4.643
4.643
4.649
4.663
4.663
4.659
4.654
4.652
4.658
4.654
4.662
4.675
4.677
4.673
4.663
4.655
4.650
4.654
4.669
4.682
4.677
4.672
4.671
4.674
4.670
4.672
4.669
4.684
4.697
4.692
4.696
4.686
4.680
4.683
4.681
4.685
4.693
4.691
4.686
4.692
4.696
4.693
4.688
4.687
4.682
4.694
4.686
4.678
4.670
4.666
4.660
4.657
4.662
4.675
4.685
4.685
4.678
4.673
4.675
4.665
4.655
4.655
4.664
4.677
4.676
4.665
4.671
4.674
4.667
4.663
4.665
4.658
4.660
4.672
4.684
4.696
4.690
4.691
4.687
4.682
4.679
4.678
4.675
4.669
4.671
4.683
4.687
4.690
4.689
4.698
4.692
4.685
4.674
4.670
4.664
4.664
4.673
4.686
4.690
4.693
4.687
4.686
4.687
4.685
4.686
4.681
4.678
4.676
4.672
4.679
4.691
4.702
4.711
4.709
4.712
4.708
4.702
4.694
4.692
4.695
4.688
4.692
4.686
4.686
4.698
4.707
4.703
4.700
4.700
4.699
4.700
4.706
4.701
4.697
4.691
4.693
4.700
4.695
4.699
4.705
4.715
4.725
4.727
4.725
4.726
4.719
4.723
4.725
4.725
4.721
4.714
4.708
4.712
4.715
4.706
4.711
4.721
4.732
4.736
4.734
4.735
4.729
4.729
4.720
4.715
4.713
4.716
4.714
4.713
4.708
4.701
4.705
4.715
4.720
4.722
4.718
4.719
4.728
4.721
4.717
4.712
4.705
4.710
4.704
4.694
4.693
4.699
4.691
4.697
4.707
4.716
4.725
4.721
4.720
4.718
4.724
4.719
4.718
4.715
4.726
4.722
4.715
4.719
4.720
4.721
4.713
4.703
4.697
4.704
4.714
4.723
4.726
4.730
4.733
4.730
4.729
4.731
4.727
4.732
4.729
4.723
4.721
4.723
4.727
4.731
4.739
4.730
4.725
4.719
4.715
4.715
4.724
4.733
4.742
4.746
4.744
4.746
4.747
4.743
4.747
4.750
4.752
4.754
4.752
4.752
4.751
4.743
4.743
4.741
4.739
4.735
4.730
4.741
4.737
4.735
4.737
4.743
4.752
4.761
4.768
4.769
4.767
4.757
4.760
4.755
4.752
4.748
4.745
4.751
4.745
4.754
4.746
4.747
4.740
4.733
4.725
4.725
4.721
4.722
4.727
4.736
4.744
4.752
4.760
4.761
4.765
4.764
4.756
4.751
4.751
4.748
4.751
4.747
4.749
4.745
4.748
4.747
4.745
4.741
4.744
4.748
4.748
4.748
4.746
4.749
4.743
4.741
4.741
4.745
4.750
4.757
4.765
4.773
4.776
4.781
4.776
4.776
4.779
4.779
4.778
4.781
4.776
4.774
4.776
4.776
4.775
4.774
4.775
4.775
4.775
4.771
4.772
4.770
4.772
4.781
4.775
4.770
4.766
4.767
4.770
4.761
4.764
4.772
4.779
4.787
4.794
4.799
4.799
4.794
4.795
4.785
4.778
4.781
4.787
4.787
4.787
4.783
4.785
4.781
4.777
4.772
4.768
4.764
4.760
4.756
4.751
4.747
4.743
4.739
4.734
4.733
4.740
4.747
4.754
4.762
4.769
4.770
4.767
4.770
4.771
4.777
4.777
4.777
4.776
4.773
4.766
4.766
4.763
4.758
4.753
4.747
4.743
4.739
4.737
4.730
4.730
4.731
4.737
4.741
4.739
4.738
4.737
4.738
4.740
4.738
4.741
4.737
4.738
4.741
4.748
4.755
4.761
4.768
4.770
4.767
4.763
4.757
4.751
4.751
4.746
4.744
4.744
4.752
4.758
4.758
4.758
4.756
4.752
4.755
4.753
4.748
4.750
4.748
4.748
4.747
4.747
4.746
4.744
4.743
4.740
4.741
4.742
4.751
4.750
4.742
4.741
4.742
4.743
4.745
4.742
4.746
4.753
4.759
4.765
4.772
4.768
4.765
4.762
4.762
4.767
4.766
4.761
4.760
4.758
4.761
4.758
4.756
4.755
4.751
4.747
4.742
4.738
4.736
4.733
4.739
4.743
4.745
4.744
4.746
4.743
4.740
4.740
4.742
4.739
4.741
4.744
4.737
4.729
4.725
4.729
4.730
4.730
4.730
4.726
4.733
4.738
4.744
4.750
4.756
4.762
4.768
4.774
4.780
4.782
4.782
4.782
4.782
4.781
4.779
4.781
4.780
4.776
4.780
4.779
4.775
4.768
4.765
4.768
4.768
4.768
4.761
4.757
4.757
4.759
4.756
4.757
4.753
4.746
4.749
4.744
4.739
4.733
4.733
4.732
4.730
4.736
4.742
4.742
4.745
4.746
4.744
4.744
4.747
4.746
4.742
4.744
4.743
4.735
4.741
4.746
4.752
4.758
4.763
4.769
4.775
4.778
4.773
4.773
4.775
4.773
4.776
4.774
4.775
4.774
4.779
4.777
4.772
4.771
4.768
4.769
4.769
4.766
4.770
4.772
4.772
4.779
4.777
4.778
4.771
4.769
4.767
4.766
4.764
4.766
4.768
4.771
4.768
4.762
4.760
4.757
4.760
4.761
4.755
4.751
4.749
4.742
4.745
4.742
4.743
4.743
4.739
4.738
4.734
4.727
4.725
4.725
4.730
4.736
4.743
4.750
4.751
4.757
4.762
4.767
4.772
4.777
4.783
4.788
4.793
4.799
4.798
4.796
4.793
4.789
4.791
4.793
4.792
4.788
4.788
4.786
4.787
4.792
4.789
4.784
4.777
4.776
4.779
4.777
4.782
4.780
4.784
4.786
4.789
4.786
4.780
4.776
4.776
4.771
4.769
4.766
4.760
4.758
4.761
4.762
4.766
4.766
4.767
4.768
4.768
4.762
4.760
4.764
4.762
4.765
4.767
4.772
4.771
4.774
4.771
4.767
4.761
4.762
4.756
4.754
4.754
4.752
4.752
4.749
4.752
4.754
4.754
4.759
4.764
4.769
4.774
4.779
4.783
4.788
4.793
4.798
4.802
4.797
4.799
4.802
4.807
4.805
4.803
4.800
4.799
4.800
4.799
4.802
4.802
4.807
4.813
4.810
4.806
4.809
4.802
4.798
4.796
