2.982
3.325
3.515
3.585
3.628
3.731
3.829
3.804
3.794
3.830
3.870
3.905
3.924
3.951
3.951
4.001
3.996
4.031
4.051
4.053
4.076
4.094
4.119
4.103
4.106
4.126
4.142
4.159
4.180
4.168
4.164
4.177
4.184
4.196
4.219
4.206
4.231
4.248
4.266
4.241
4.267
4.282
4.236
4.247
4.264
4.251
4.260
4.259
4.288
4.272
4.280
4.301
4.320
4.298
4.294
4.298
4.313
4.313
4.324
4.328
4.329
4.353
4.359
4.374
4.372
4.361
4.349
4.347
4.377
4.379
4.378
4.394
4.395
4.406
4.408
4.401
4.417
4.403
4.378
4.355
4.380
4.368
4.391
4.388
4.404
4.390
4.375
4.376
4.358
4.371
4.383
4.374
4.392
4.394
4.394
4.387
4.389
4.408
4.402
4.397
4.426
4.422
4.411
4.412
4.404
4.415
4.411
4.406
4.421
4.433
4.421
4.409
4.447
4.451
4.437
4.436
4.466
4.465
4.462
4.448
4.472
4.451
4.457
4.454
4.467
4.446
4.433
4.444
4.430
4.426
4.415
4.440
4.459
4.445
4.445
4.429
4.452
4.459
4.447
4.431
4.438
4.453
4.459
4.472
4.459
4.450
4.448
4.473
4.467
4.468
4.463
4.459
4.450
4.479
4.492
4.494
4.497
4.479
4.482
4.472
4.500
4.509
4.507
4.507
4.485
4.486
4.489
4.504
4.489
4.487
4.471
4.455
4.455
4.469
4.495
4.500
4.501
4.484
4.483
4.467
4.478
4.474
4.494
4.518
4.506
4.497
4.513
4.503
4.498
4.501
4.503
4.502
4.521
4.544
4.549
4.546
4.526
4.525
4.514
4.506
4.512
4.508
4.526
4.521
4.530
4.524
4.523
4.515
4.500
4.507
4.513
4.509
4.512
4.530
4.552
4.562
4.558
4.544
4.555
4.561
4.556
4.552
4.548
4.543
4.543
4.533
4.550
4.570
4.583
4.580
4.574
4.562
4.556
4.561
4.558
4.552
4.548
4.549
4.547
4.542
4.558
4.562
4.569
4.576
4.564
4.559
4.544
4.531
4.516
4.506
4.505
4.501
4.503
4.521
4.538
4.554
4.541
4.542
4.544
4.545
4.551
4.547
4.538
4.527
4.535
4.538
4.523
4.512
4.510
4.513
4.519
4.536
4.553
4.559
4.547
4.528
4.533
4.524
4.529
4.542
4.544
4.536
4.542
4.528
4.528
4.523
4.515
4.515
4.507
4.511
4.527
4.542
4.549
4.557
4.546
4.554
4.551
4.535
4.543
4.542
4.538
4.532
4.523
4.524
4.531
4.530
4.533
4.529
4.531
4.526
4.517
4.519
4.519
4.533
4.548
4.562
4.574
4.575
4.558
4.549
4.547
4.549
4.547
4.553
4.563
4.570
4.569
4.562
4.546
4.533
4.534
4.539
4.528
4.530
4.536
4.533
4.526
4.518
4.526
4.528
4.542
4.555
4.568
4.581
4.595
4.583
4.584
4.591
4.601
4.589
4.580
4.563
4.570
4.564
4.569
4.579
4.566
4.558
4.563
4.580
4.571
4.567
4.563
4.569
4.571
4.574
4.573
4.561
4.550
4.541
4.545
4.556
4.551
4.564
4.576
4.588
4.600
4.612
4.625
4.621
4.619
4.617
4.630
4.621
4.617
4.621
4.603
4.602
4.598
4.598
4.592
4.584
4.588
4.582
4.585
4.575
4.569
4.580
4.572
4.567
4.558
4.558
4.547
4.547
4.548
4.533
4.535
4.538
4.549
4.546
4.557
4.568
4.579
4.590
4.601
4.602
4.603
4.597
4.601
4.595
4.591
4.585
4.579
4.582
4.583
4.593
4.578
4.580
4.584
4.579
4.577
4.574
4.570
4.573
4.573
4.574
4.571
4.577
4.572
4.569
4.570
4.560
4.559
4.558
4.556
4.562
4.558
4.555
4.557
4.555
4.540
4.544
4.540
4.545
4.556
4.568
4.570
4.569
4.577
4.587
4.597
4.607
4.617
4.627
4.637
4.647
4.652
4.655
4.657
4.660
4.653
4.653
4.655
4.648
4.646
4.643
4.643
4.637
4.639
4.632
4.625
4.618
4.611
4.604
4.598
4.595
4.596
4.591
4.587
4.584
4.590
4.586
4.589
4.576
4.572
4.568
4.570
4.566
4.560
4.550
4.551
4.556
4.549
4.550
4.547
4.531
4.537
4.529
4.528
4.532
4.530
4.536
4.545
4.554
4.563
4.571
4.580
4.589
4.598
4.607
4.611
4.598
4.600
4.598
4.603
4.609
4.608
4.606
4.605
4.610
4.614
4.616
4.616
4.619
4.612
4.602
4.606
4.606
4.603
4.596
4.601
4.594
4.597
4.597
4.598
4.592
4.583
4.591
4.596
4.599
4.613
4.606
4.601
4.614
4.618
4.616
4.606
4.605
4.595
4.588
4.589
4.580
4.576
4.574
4.563
4.560
4.563
4.562
4.567
4.559
4.570
4.569
4.563
4.563
4.572
4.566
4.570
4.572
4.566
4.563
4.557
4.556
4.548
4.545
4.549
4.552
4.548
4.556
4.564
4.571
4.579
4.587
4.594
4.602
4.610
4.617
4.625
4.633
4.641
4.649
4.656
4.651
4.654
4.645
4.642
4.634
4.627
4.625
4.616
4.612
4.609
4.610
4.605
4.600
4.587
4.586
4.582
4.587
4.599
4.585
4.578
4.582
4.581
4.584
4.589
4.600
4.602
4.597
4.597
4.609
4.613
4.609
4.599
4.603
4.601
4.601
4.595
4.598
4.597
4.601
4.602
4.605
4.613
4.610
4.613
4.606
4.609
4.599
4.598
4.590
4.586
4.578
4.575
4.571
4.571
4.579
4.577
4.569
4.573
4.565
4.570
4.576
4.569
4.563
4.554
4.546
4.540
4.537
4.540
4.540
4.541
4.536
4.543
4.555
4.554
4.558
4.554
4.558
4.563
4.565
4.561
4.553
4.556
4.554
4.562
4.571
4.566
4.566
4.573
4.580
4.586
4.593
4.600
4.606
4.613
4.619
4.626
4.633
4.639
4.646
4.653
4.659
4.666
4.663
4.665
4.655
4.665
4.658
4.665
4.662
4.652
4.651
4.652
4.651
4.646
4.651
4.654
4.656
4.660
4.662
4.666
4.661
4.651
4.645
4.647
4.636
4.629
4.626
4.627
4.620
4.622
4.618
4.615
4.616
4.618
4.623
4.624
4.634
4.645
4.637
4.626
4.619
4.613
4.617
4.612
4.603
4.599
4.604
4.607
4.603
4.607
4.605
4.610
4.621
4.620
4.620
4.622
4.618
4.617
4.621
4.624
4.616
4.626
4.631
4.622
4.623
4.621
4.619
4.627
4.632
4.625
4.618
4.611
4.607
4.604
4.602
4.609
4.609
4.613
4.606
4.600
4.598
4.603
4.598
4.599
4.595
4.593
4.590
4.594
4.588
4.584
4.578
4.574
4.584
4.588
4.583
4.576
4.578
4.573
4.567
4.562
4.557
4.552
4.551
4.558
4.567
4.565
4.567
4.569
4.565
4.563
4.567
4.571
4.564
4.558
4.553
4.549
4.546
4.539
4.533
4.539
4.544
4.549
4.555
4.561
4.566
4.572
4.577
4.583
4.588
4.594
4.599
4.605
4.610
4.616
4.621
4.627
4.632
4.638
4.643
4.649
4.643
4.646
4.649
4.656
4.646
4.638
4.635
4.630
4.622
4.613
4.610
4.611
4.617
4.619
4.622
4.618
4.617
4.616
4.623
4.624
4.618
4.608
4.615
4.623
4.631
4.638
4.644
4.632
4.636
4.646
4.636
4.640
4.640
4.626
4.621
4.626
4.627
4.623
4.629
4.627
4.635
4.628
4.625
4.634
4.631
4.639
4.630
4.626
4.623
4.623
4.625
4.621
4.623
4.626
4.621
4.621
4.625
4.629
4.623
4.626
4.616
4.620
4.616
4.611
4.605
4.609
4.608
4.609
4.604
4.608
4.604
4.607
4.602
4.602
4.594
4.595
4.592
4.601
4.605
4.601
4.607
4.598
4.594
4.593
4.587
4.592
4.583
4.580
4.575
4.575
4.584
4.591
4.585
4.592
4.588
4.582
4.588
4.584
4.585
4.592
4.586
4.585
4.592
4.588
4.580
4.580
4.578
4.576
4.574
4.575
4.578
4.579
4.579
4.578
4.578
4.583
4.588
4.586
4.576
4.578
4.578
4.583
4.583
4.581
4.584
4.590
4.590
4.584
4.579
4.577
4.583
4.579
4.575
4.568
4.566
4.568
4.576
4.584
4.584
4.591
4.591
4.583
4.589
4.596
4.602
4.601
4.602
4.596
4.590
4.584
4.578
4.572
4.578
4.578
4.573
4.564
4.569
4.571
4.566
