2.993
3.328
3.510
3.609
3.713
3.762
3.818
3.838
3.897
3.952
3.998
3.940
3.930
3.966
3.987
4.012
4.022
4.041
4.058
4.075
4.086
4.104
4.123
4.121
4.137
4.157
4.160
4.176
4.185
4.195
4.206
4.196
4.222
4.228
4.241
4.252
4.266
4.238
4.256
4.263
4.263
4.280
4.293
4.286
4.301
4.316
4.325
4.325
4.300
4.319
4.321
4.325
4.325
4.334
4.339
4.342
4.349
4.356
4.349
4.368
4.373
4.383
4.379
4.397
4.402
4.399
4.397
4.411
4.394
4.382
4.386
4.380
4.386
4.396
4.406
4.394
4.390
4.395
4.399
4.410
4.415
4.428
4.422
4.430
4.430
4.436
4.445
4.441
4.447
4.446
4.439
4.439
4.438
4.449
4.451
4.458
4.469
4.463
4.470
4.471
4.467
4.473
4.487
4.488
4.494
4.489
4.498
4.501
4.495
4.501
4.498
4.492
4.480
4.493
4.491
4.515
4.503
4.514
4.512
4.523
4.521
4.521
4.529
4.524
4.543
4.534
4.539
4.526
4.511
4.496
4.500
4.492
4.495
4.500
4.502
4.508
4.521
4.512
4.517
4.525
4.514
4.523
4.530
4.511
4.509
4.506
4.508
4.504
4.499
4.491
4.513
4.503
4.502
4.507
4.522
4.513
4.514
4.522
4.530
4.516
4.504
4.532
4.523
4.530
4.516
4.537
4.545
4.542
4.539
4.537
4.556
4.558
4.553
4.544
4.546
4.539
4.541
4.538
4.546
4.556
4.546
4.537
4.540
4.555
4.568
4.562
4.547
4.547
4.557
4.568
4.565
4.564
4.566
4.560
4.577
4.592
4.585
4.572
4.577
4.573
4.589
4.584
4.589
4.587
4.580
4.574
4.593
4.593
4.591
4.580
4.567
4.568
4.568
4.577
4.575
4.567
4.551
4.558
4.567
4.562
4.567
4.562
4.559
4.559
4.560
4.580
4.591
4.575
4.569
4.570
4.562
4.561
4.573
4.593
4.584
4.568
4.561
4.557
4.564
4.566
4.576
4.591
4.584
4.583
4.592
4.583
4.584
4.583
4.576
4.587
4.606
4.610
4.599
4.598
4.583
4.586
4.581
4.582
4.587
4.605
4.611
4.614
4.614
4.608
4.605
4.606
4.607
4.611
4.605
4.610
4.627
4.632
4.622
4.616
4.619
4.617
4.622
4.613
4.614
4.607
4.618
4.633
4.621
4.609
4.603
4.608
4.607
4.600
4.592
4.595
4.597
4.612
4.602
4.609
4.610
4.604
4.610
4.612
4.607
4.599
4.601
4.610
4.606
4.609
4.624
4.623
4.620
4.618
4.614
4.626
4.619
4.620
4.622
4.621
4.621
4.617
4.609
4.619
4.633
4.648
4.638
4.643
4.646
4.644
4.641
4.642
4.644
4.643
4.641
4.635
4.631
4.635
4.629
4.639
4.653
4.661
4.665
4.663
4.653
4.652
4.648
4.637
4.641
4.647
4.644
4.638
4.637
4.625
4.626
4.639
4.652
4.659
4.659
4.654
4.653
4.651
4.645
4.650
4.646
4.644
4.646
4.648
4.649
4.641
4.640
4.634
4.631
4.644
4.656
4.669
4.681
4.692
4.686
4.680
4.678
4.677
4.679
4.671
4.676
4.680
4.676
4.683
4.677
4.669
4.671
4.662
4.661
4.652
4.662
4.674
4.686
4.696
4.694
4.689
4.696
4.697
4.700
4.692
4.687
4.675
4.672
4.670
4.672
4.677
4.669
4.664
4.658
4.651
4.644
4.653
4.665
4.676
4.687
4.679
4.678
4.681
4.676
4.668
4.659
4.651
4.653
4.660
4.653
4.644
4.648
4.639
4.637
4.631
4.620
4.621
4.629
4.629
4.640
4.650
4.658
4.670
4.673
4.674
4.663
4.660
4.655
4.658
4.665
4.653
4.661
4.661
4.665
4.660
4.652
4.651
4.650
4.650
4.654
4.650
4.650
4.648
4.649
4.656
4.651
4.640
4.648
4.658
4.660
4.654
4.659
4.653
4.653
4.647
4.659
4.659
4.657
4.659
4.652
4.644
4.650
4.649
4.651
4.647
4.644
4.645
4.637
4.642
4.638
4.638
4.642
4.645
4.646
4.654
4.648
4.645
4.647
4.649
4.658
4.668
4.677
4.677
4.676
4.676
4.670
4.669
4.660
4.652
4.663
4.661
4.659
4.656
4.653
4.654
4.659
4.660
4.657
4.656
4.656
4.646
4.640
4.643
4.640
4.635
4.638
4.637
4.643
4.642
4.640
4.632
4.631
4.637
4.646
4.655
4.664
4.673
4.681
4.684
4.689
4.694
4.690
4.686
4.686
4.676
4.679
4.679
4.671
4.660
4.654
4.659
4.663
4.658
4.659
4.656
4.663
4.660
4.664
4.657
4.650
4.648
4.660
4.658
4.659
4.658
4.659
4.659
4.655
4.651
4.654
4.662
4.661
4.654
4.659
4.652
4.657
4.665
4.673
4.681
4.687
4.682
4.689
4.686
4.690
4.688
4.687
4.690
4.695
4.685
4.680
4.688
4.698
4.697
4.699
4.693
4.694
4.694
4.693
4.691
4.695
4.685
4.677
4.677
4.678
4.674
4.670
4.663
4.670
4.677
4.677
4.682
4.675
4.667
4.667
4.664
4.658
4.654
4.662
4.665
4.674
4.672
4.667
4.671
4.668
4.667
4.675
4.682
4.690
4.697
4.705
4.712
4.720
4.727
4.730
4.723
4.721
4.720
4.723
4.723
4.722
4.719
4.717
4.713
4.709
4.718
4.719
4.716
4.721
4.716
4.710
4.709
4.706
4.705
4.702
4.711
4.715
4.709
4.716
4.711
4.712
4.717
4.718
4.723
4.718
4.713
4.711
4.709
4.705
4.699
4.694
4.684
4.686
4.686
4.688
4.695
4.696
4.690
4.682
4.674
4.675
4.675
4.673
4.678
4.685
4.692
4.699
4.706
4.713
4.710
4.711
4.710
4.718
4.713
4.715
4.717
4.709
4.707
4.705
4.703
4.699
4.703
4.706
4.707
4.710
4.708
4.701
4.698
4.701
4.698
4.696
4.689
4.692
4.683
4.675
4.672
4.668
4.670
4.674
4.681
4.675
4.671
4.668
4.675
4.668
4.674
4.677
4.679
4.686
4.686
4.686
4.687
4.680
4.678
4.676
4.666
4.663
4.667
4.661
4.675
4.665
4.664
4.661
4.658
4.661
4.656
4.659
4.663
4.661
4.667
4.673
4.679
4.686
4.692
4.698
4.704
4.711
4.717
4.723
4.729
4.736
4.738
4.728
4.724
4.726
4.722
4.728
4.726
4.724
4.733
4.720
4.721
4.712
4.711
4.711
4.705
4.704
4.709
4.718
4.725
4.724
4.723
4.722
4.727
4.723
4.717
4.713
4.712
4.705
4.712
4.721
4.718
4.714
4.715
4.716
4.719
4.718
4.714
4.710
4.714
4.715
4.708
4.713
4.710
4.712
4.711
4.710
4.707
4.709
4.706
4.701
4.703
4.704
4.699
4.693
4.703
4.701
4.692
4.691
4.693
4.697
4.700
4.704
4.711
4.709
4.708
4.708
4.702
4.705
4.713
4.711
4.710
4.707
4.702
4.698
4.694
4.691
4.697
4.702
4.708
4.714
4.719
4.725
4.731
4.736
4.742
4.747
4.751
4.748
4.752
4.748
4.743
4.739
4.736
4.734
4.734
4.726
4.723
4.719
4.718
4.712
4.710
4.713
4.712
4.704
4.704
4.703
4.696
4.692
4.695
4.703
4.694
4.697
4.702
4.703
4.701
4.702
4.693
4.690
4.690
4.690
4.696
4.692
4.694
4.695
4.690
4.698
4.700
4.698
4.697
4.696
4.698
4.698
4.695
4.693
4.692
4.690
4.686
4.689
4.693
4.687
4.681
4.675
4.674
4.675
4.678
4.677
4.676
4.668
4.668
4.675
4.670
4.665
4.662
4.661
4.660
4.656
4.658
4.657
4.659
4.658
4.656
4.650
4.651
4.653
4.647
4.651
4.657
4.659
4.663
4.666
4.664
4.658
4.656
4.661
4.666
4.671
4.676
4.681
4.686
4.692
4.697
4.702
4.707
4.711
4.717
4.721
4.726
4.731
4.737
4.742
4.747
4.752
4.757
4.762
4.762
4.759
4.753
4.757
4.755
4.760
4.762
4.757
4.763
4.770
4.767
4.764
4.761
4.758
4.754
4.753
4.748
4.747
4.745
4.748
4.740
4.733
4.735
4.729
4.730
4.729
4.727
4.723
4.720
4.723
4.725
4.725
4.723
4.723
4.724
4.717
4.711
4.718
4.716
4.718
4.716
4.711
4.706
4.701
4.697
4.692
4.691
4.690
4.692
4.695
4.690
4.687
4.689
