2.994
3.335
3.516
3.625
3.726
3.787
3.839
3.884
3.912
3.966
3.984
4.010
4.047
4.084
4.066
4.078
4.105
4.127
4.148
4.171
4.189
4.209
4.227
4.246
4.233
4.194
4.179
4.194
4.203
4.209
4.222
4.227
4.241
4.245
4.257
4.257
4.269
4.281
4.282
4.294
4.301
4.297
4.307
4.316
4.329
4.324
4.331
4.339
4.348
4.355
4.349
4.355
4.364
4.369
4.376
4.382
4.383
4.379
4.387
4.391
4.400
4.405
4.409
4.420
4.419
4.407
4.417
4.421
4.427
4.429
4.439
4.438
4.444
4.454
4.453
4.456
4.442
4.448
4.449
4.453
4.457
4.464
4.469
4.475
4.471
4.478
4.485
4.487
4.494
4.490
4.494
4.500
4.502
4.487
4.491
4.495
4.496
4.498
4.501
4.501
4.510
4.512
4.516
4.512
4.518
4.519
4.523
4.528
4.532
4.533
4.537
4.531
4.542
4.546
4.543
4.550
4.553
4.555
4.561
4.561
4.546
4.542
4.532
4.538
4.543
4.542
4.546
4.550
4.554
4.555
4.561
4.558
4.561
4.566
4.564
4.566
4.567
4.569
4.572
4.571
4.573
4.580
4.581
4.583
4.586
4.582
4.589
4.591
4.600
4.594
4.592
4.593
4.595
4.594
4.598
4.598
4.603
4.604
4.606
4.616
4.612
4.615
4.617
4.621
4.620
4.626
4.630
4.624
4.630
4.624
4.628
4.626
4.633
4.621
4.612
4.601
4.597
4.598
4.603
4.604
4.611
4.610
4.611
4.610
4.616
4.618
4.622
4.621
4.619
4.624
4.620
4.626
4.624
4.629
4.625
4.634
4.628
4.623
4.628
4.629
4.628
4.627
4.628
4.631
4.630
4.632
4.631
4.640
4.633
4.640
4.641
4.645
4.642
4.642
4.652
4.646
4.655
4.654
4.652
4.654
4.649
4.656
4.650
4.657
4.658
4.659
4.668
4.665
4.661
4.675
4.669
4.668
4.666
4.656
4.664
4.661
4.663
4.668
4.668
4.670
4.663
4.662
4.669
4.670
4.666
4.675
4.672
4.670
4.675
4.675
4.671
4.676
4.682
4.681
4.680
4.692
4.690
4.687
4.693
4.694
4.690
4.690
4.699
4.697
4.690
4.695
4.693
4.689
4.694
4.701
4.701
4.701
4.702
4.709
4.704
4.703
4.709
4.714
4.715
4.706
4.713
4.717
4.715
4.717
4.718
4.712
4.704
4.705
4.712
4.709
4.707
4.706
4.720
4.717
4.721
4.711
4.716
4.714
4.712
4.709
4.715
4.716
4.715
4.709
4.712
4.725
4.720
4.720
4.720
4.719
4.727
4.731
4.731
4.731
4.729
4.736
4.734
4.735
4.729
4.733
4.742
4.744
4.742
4.738
4.735
4.742
4.737
4.731
4.724
4.720
4.715
4.709
4.705
4.712
4.712
4.711
4.707
4.708
4.707
4.705
4.704
4.705
4.704
4.705
4.715
4.714
4.718
4.717
4.710
4.712
4.718
4.728
4.723
4.722
4.716
4.708
4.720
4.717
4.723
4.722
4.721
4.719
4.720
4.731
4.727
4.725
4.724
4.727
4.726
4.728
4.735
4.742
4.740
4.738
4.738
4.736
4.735
4.733
4.727
4.720
4.716
4.712
4.723
4.730
4.726
4.722
4.726
4.727
4.724
4.724
4.731
4.727
4.721
4.714
4.710
4.709
4.720
4.725
4.721
4.724
4.726
4.724
4.716
4.716
4.726
4.728
4.726
4.720
4.720
4.720
4.720
4.720
4.727
4.736
4.734
4.730
4.732
4.731
4.732
4.731
4.731
4.739
4.748
4.744
4.735
4.742
4.737
4.738
4.738
4.735
4.743
4.749
4.746
4.742
4.735
4.738
4.735
4.731
4.735
4.744
4.751
4.753
4.748
4.749
4.745
4.741
4.742
4.742
4.743
4.753
4.756
4.757
4.751
4.755
4.754
4.757
4.754
4.753
4.749
4.758
4.767
4.772
4.765
4.763
4.762
4.760
4.754
4.750
4.749
4.757
4.756
4.760
4.762
4.761
4.753
4.757
4.753
4.750
4.754
4.753
4.762
4.757
4.756
4.755
4.753
4.758
4.751
4.747
4.749
4.749
4.754
4.761
4.768
4.774
4.770
4.768
4.767
4.766
4.762
4.764
4.765
4.760
4.764
4.768
4.775
4.777
4.776
4.779
4.778
4.774
4.764
4.763
4.762
4.760
4.764
4.768
4.775
4.783
4.783
4.780
4.781
4.780
4.779
4.782
4.779
4.779
4.778
4.777
4.775
4.779
4.787
4.796
4.798
4.801
4.801
4.799
4.795
4.790
4.786
4.787
4.792
4.787
4.781
4.785
4.794
4.796
4.795
4.796
4.798
4.793
4.792
4.791
4.786
4.790
4.789
4.783
4.779
4.783
4.783
4.777
4.772
4.771
4.772
4.769
4.772
4.768
4.773
4.771
4.770
4.768
4.770
4.777
4.781
4.779
4.784
4.787
4.784
4.785
4.779
4.772
4.768
4.763
4.761
4.753
4.759
4.764
4.773
4.774
4.776
4.774
4.775
4.774
4.775
4.779
4.775
4.771
4.772
4.768
4.764
4.766
4.762
4.764
4.772
4.779
4.784
4.785
4.783
4.785
4.784
4.785
4.783
4.779
4.778
4.782
4.786
4.785
4.784
4.785
4.783
4.780
4.778
4.783
4.790
4.793
4.790
4.794
4.790
4.788
4.783
4.780
4.783
4.780
4.778
4.777
4.779
4.780
4.781
4.782
4.776
4.780
4.787
4.796
4.795
4.788
4.786
4.779
4.778
4.783
4.786
4.783
4.778
4.779
4.778
4.777
4.776
4.775
4.775
4.774
4.779
4.787
4.794
4.799
4.805
4.804
4.801
4.798
4.797
4.798
4.797
4.793
4.790
4.790
4.794
4.798
4.794
4.791
4.794
4.794
4.797
4.794
4.792
4.796
4.801
4.807
4.808
4.807
4.809
4.807
4.806
4.805
4.803
4.802
4.805
4.807
4.805
4.798
4.792
4.790
4.787
4.793
4.794
4.790
4.790
4.794
4.801
4.807
4.814
4.815
4.814
4.810
4.812
4.809
4.811
4.805
4.806
4.810
4.812
4.816
4.814
4.810
4.805
4.805
4.803
4.809
4.808
4.807
4.803
4.802
4.805
4.810
4.817
4.823
4.828
4.835
4.835
4.835
4.831
4.834
4.828
4.824
4.820
4.821
4.819
4.821
4.820
4.821
4.822
4.826
4.820
4.816
4.814
4.812
4.812
4.813
4.811
4.815
4.822
4.824
4.827
4.823
4.822
4.823
4.819
4.815
4.809
4.805
4.803
4.799
4.800
4.802
4.798
4.799
4.797
4.798
4.798
4.798
4.801
4.802
4.805
4.801
4.803
4.809
4.814
4.820
4.825
4.831
4.830
4.829
4.825
4.820
4.820
4.818
4.811
4.805
4.805
4.804
4.805
4.804
4.806
4.810
4.809
4.804
4.800
4.793
4.797
4.796
4.794
4.793
4.797
4.802
4.809
4.813
4.819
4.824
4.822
4.826
4.830
4.831
4.831
4.827
4.827
4.824
4.825
4.824
4.827
4.824
4.828
4.823
4.820
4.823
4.824
4.818
4.816
4.816
4.817
4.816
4.814
4.812
4.809
4.809
4.803
4.807
4.812
4.818
4.822
4.827
4.833
4.834
4.830
4.829
4.830
4.835
4.830
4.831
4.830
4.832
4.831
4.835
4.833
4.834
4.833
4.832
4.830
4.834
4.833
4.832
4.835
4.832
4.831
4.834
4.828
4.824
4.824
4.820
4.820
4.826
4.820
4.820
4.825
4.831
4.836
4.840
4.846
4.849
4.850
4.851
4.849
4.851
4.847
4.846
4.844
4.842
4.839
4.840
4.846
4.849
4.847
4.843
4.846
4.846
4.850
4.856
4.853
4.853
4.850
4.851
4.846
4.842
4.841
4.842
4.841
4.838
4.836
4.837
4.836
4.837
4.836
4.837
4.842
4.846
4.850
4.856
4.860
4.859
4.858
4.862
4.866
4.862
4.858
4.857
4.857
4.854
4.855
4.853
4.849
4.853
4.857
4.857
4.853
4.853
4.847
4.843
4.841
4.835
4.831
4.831
4.830
4.829
4.828
4.827
4.830
4.829
4.827
4.829
4.831
4.829
4.831
4.837
4.839
4.845
4.850
4.856
4.860
4.857
4.857
4.857
4.860
4.856
4.852
4.851
4.852
4.851
4.844
4.849
4.853
4.851
4.853
4.851
4.850
4.851
4.853
4.848
4.844
4.845
4.844
4.843
4.842
4.840
4.841
4.842
4.841
4.840
4.844
4.842
4.842
4.840
4.842
4.840
4.839
4.842
