2.994
3.334
3.515
3.628
3.712
3.787
3.851
3.889
3.937
3.955
4.005
4.003
4.040
4.075
4.106
4.080
4.096
4.122
4.142
4.165
4.184
4.204
4.219
4.233
4.251
4.269
4.235
4.199
4.200
4.212
4.221
4.228
4.243
4.245
4.259
4.261
4.271
4.281
4.284
4.296
4.304
4.303
4.312
4.322
4.320
4.325
4.336
4.344
4.348
4.346
4.355
4.362
4.369
4.374
4.370
4.376
4.383
4.388
4.394
4.401
4.402
4.398
4.403
4.409
4.413
4.421
4.422
4.429
4.440
4.431
4.427
4.437
4.440
4.442
4.449
4.455
4.454
4.459
4.466
4.472
4.470
4.472
4.462
4.467
4.470
4.472
4.476
4.480
4.487
4.491
4.487
4.496
4.496
4.503
4.507
4.510
4.510
4.514
4.518
4.516
4.507
4.510
4.510
4.510
4.510
4.513
4.518
4.524
4.529
4.530
4.534
4.529
4.536
4.535
4.539
4.543
4.553
4.547
4.556
4.557
4.555
4.557
4.558
4.560
4.567
4.570
4.573
4.577
4.575
4.562
4.553
4.555
4.558
4.560
4.558
4.559
4.561
4.566
4.570
4.573
4.577
4.577
4.580
4.582
4.584
4.579
4.583
4.587
4.583
4.587
4.586
4.588
4.592
4.599
4.605
4.607
4.602
4.603
4.605
4.612
4.616
4.606
4.610
4.609
4.614
4.614
4.619
4.614
4.618
4.625
4.622
4.628
4.632
4.633
4.635
4.633
4.638
4.637
4.644
4.644
4.638
4.644
4.644
4.642
4.646
4.645
4.636
4.628
4.618
4.615
4.614
4.617
4.619
4.623
4.625
4.626
4.630
4.623
4.632
4.631
4.640
4.637
4.636
4.633
4.641
4.636
4.644
4.640
4.646
4.644
4.655
4.645
4.641
4.639
4.651
4.640
4.644
4.642
4.644
4.642
4.647
4.650
4.646
4.655
4.651
4.661
4.654
4.656
4.660
4.656
4.668
4.664
4.663
4.667
4.666
4.673
4.668
4.666
4.671
4.669
4.671
4.672
4.674
4.680
4.682
4.681
4.685
4.686
4.682
4.691
4.681
4.677
4.676
4.675
4.681
4.680
4.681
4.683
4.682
4.675
4.682
4.681
4.679
4.684
4.692
4.689
4.684
4.692
4.692
4.688
4.695
4.696
4.695
4.692
4.704
4.703
4.703
4.703
4.712
4.713
4.706
4.711
4.709
4.708
4.707
4.708
4.706
4.708
4.710
4.718
4.715
4.713
4.717
4.719
4.723
4.718
4.720
4.727
4.725
4.725
4.726
4.730
4.729
4.725
4.728
4.736
4.733
4.727
4.720
4.722
4.725
4.724
4.717
4.730
4.733
4.732
4.729
4.730
4.729
4.727
4.726
4.722
4.733
4.730
4.721
4.729
4.726
4.733
4.736
4.736
4.736
4.732
4.744
4.743
4.740
4.738
4.739
4.746
4.758
4.747
4.745
4.744
4.747
4.754
4.755
4.755
4.751
4.752
4.758
4.759
4.753
4.747
4.742
4.738
4.734
4.729
4.723
4.732
4.728
4.730
4.721
4.718
4.726
4.730
4.723
4.714
4.712
4.716
4.728
4.727
4.726
4.727
4.725
4.724
4.729
4.735
4.733
4.733
4.731
4.730
4.729
4.736
4.734
4.732
4.726
4.727
4.728
4.735
4.744
4.744
4.744
4.735
4.737
4.733
4.739
4.747
4.748
4.747
4.747
4.747
4.744
4.743
4.751
4.763
4.762
4.755
4.750
4.743
4.739
4.740
4.737
4.738
4.736
4.733
4.729
4.736
4.745
4.749
4.745
4.736
4.739
4.736
4.733
4.735
4.733
4.733
4.728
4.730
4.728
4.729
4.731
4.740
4.748
4.744
4.740
4.740
4.736
4.729
4.729
4.740
4.747
4.743
4.739
4.744
4.740
4.743
4.739
4.738
4.745
4.752
4.751
4.757
4.755
4.752
4.751
4.752
4.756
4.747
4.755
4.762
4.753
4.760
4.764
4.757
4.750
4.746
4.747
4.754
4.759
4.755
4.759
4.755
4.753
4.755
4.758
4.755
4.755
4.759
4.767
4.765
4.766
4.765
4.764
4.757
4.758
4.760
4.761
4.759
4.766
4.776
4.778
4.773
4.772
4.777
4.775
4.777
4.775
4.773
4.769
4.773
4.781
4.779
4.773
4.768
4.767
4.771
4.764
4.760
4.759
4.765
4.772
4.777
4.773
4.781
4.775
4.773
4.775
4.773
4.766
4.770
4.764
4.770
4.778
4.777
4.773
4.766
4.769
4.774
4.773
4.774
4.769
4.766
4.770
4.771
4.778
4.787
4.791
4.787
4.783
4.784
4.784
4.781
4.783
4.787
4.781
4.781
4.778
4.784
4.791
4.793
4.788
4.785
4.786
4.785
4.781
4.782
4.781
4.781
4.783
4.784
4.783
4.792
4.799
4.803
4.802
4.799
4.799
4.796
4.800
4.799
4.797
4.798
4.796
4.795
4.797
4.795
4.802
4.809
4.818
4.814
4.810
4.809
4.808
4.809
4.802
4.799
4.807
4.806
4.803
4.799
4.799
4.806
4.813
4.810
4.813
4.812
4.808
4.803
4.799
4.793
4.791
4.787
4.781
4.782
4.788
4.795
4.796
4.795
4.792
4.788
4.791
4.788
4.789
4.793
4.789
4.785
4.783
4.785
4.783
4.781
4.788
4.795
4.797
4.796
4.792
4.787
4.781
4.776
4.777
4.776
4.773
4.774
4.775
4.773
4.772
4.774
4.781
4.788
4.796
4.798
4.797
4.795
4.792
4.792
4.791
4.788
4.786
4.792
4.788
4.785
4.784
4.785
4.783
4.784
4.784
4.792
4.797
4.804
4.807
4.806
4.803
4.804
4.800
4.798
4.800
4.798
4.802
4.806
4.807
4.801
4.794
4.792
4.786
4.787
4.792
4.799
4.805
4.806
4.800
4.804
4.799
4.803
4.802
4.804
4.802
4.803
4.800
4.798
4.794
4.788
4.789
4.785
4.786
4.790
4.792
4.799
4.805
4.801
4.800
4.803
4.803
4.799
4.796
4.799
4.802
4.801
4.799
4.799
4.800
4.798
4.797
4.798
4.792
4.792
4.796
4.795
4.800
4.806
4.811
4.817
4.822
4.821
4.816
4.810
4.810
4.812
4.816
4.815
4.814
4.812
4.814
4.814
4.816
4.812
4.813
4.814
4.811
4.815
4.810
4.809
4.808
4.815
4.821
4.821
4.821
4.821
4.822
4.826
4.827
4.821
4.816
4.815
4.816
4.812
4.811
4.810
4.807
4.806
4.805
4.810
4.814
4.809
4.807
4.809
4.808
4.815
4.819
4.826
4.832
4.833
4.825
4.826
4.827
4.831
4.829
4.828
4.830
4.829
4.833
4.831
4.829
4.826
4.825
4.825
4.822
4.826
4.827
4.828
4.824
4.821
4.822
4.823
4.824
4.829
4.835
4.840
4.846
4.847
4.844
4.844
4.847
4.844
4.844
4.844
4.843
4.840
4.840
4.837
4.833
4.833
4.835
4.836
4.833
4.836
4.833
4.828
4.832
4.831
4.830
4.826
4.827
4.831
4.833
4.829
4.824
4.825
4.824
4.826
4.825
4.823
4.824
4.821
4.818
4.817
4.818
4.821
4.818
4.817
4.821
4.818
4.816
4.818
4.819
4.817
4.821
4.817
4.818
4.817
4.819
4.825
4.830
4.836
4.840
4.837
4.833
4.831
4.830
4.828
4.825
4.825
4.821
4.821
4.822
4.825
4.825
4.820
4.821
4.818
4.824
4.821
4.814
4.815
4.814
4.815
4.814
4.815
4.814
4.812
4.813
4.815
4.821
4.826
4.830
4.836
4.838
4.842
4.849
4.853
4.849
4.847
4.847
4.844
4.843
4.845
4.844
4.845
4.843
4.837
4.833
4.834
4.832
4.831
4.830
4.828
4.829
4.831
4.832
4.833
4.830
4.825
4.825
4.825
4.822
4.821
4.824
4.826
4.832
4.836
4.841
4.847
4.852
4.851
4.849
4.851
4.854
4.850
4.849
4.847
4.847
4.851
4.852
4.855
4.857
4.855
4.851
4.848
4.847
4.851
4.852
4.848
4.849
4.848
4.844
4.844
4.840
4.839
4.840
4.834
4.833
4.834
4.840
4.836
4.838
4.839
4.843
4.844
4.849
4.851
4.857
4.862
4.866
4.870
4.870
4.866
4.865
4.866
4.865
4.869
4.865
4.864
4.862
4.866
4.870
4.869
4.870
4.866
4.868
4.866
4.868
4.867
4.865
4.864
4.863
4.859
4.859
4.858
4.859
4.856
4.857
4.853
4.852
4.856
4.851
4.848
4.847
4.844
4.849
4.853
4.859
4.861
