2.988
3.333
3.505
3.618
3.697
3.766
3.805
3.876
3.940
3.916
3.962
4.001
4.043
4.073
4.099
4.033
4.035
4.053
4.068
4.083
4.092
4.117
4.120
4.138
4.148
4.171
4.172
4.184
4.189
4.195
4.213
4.225
4.224
4.236
4.244
4.260
4.259
4.257
4.273
4.281
4.291
4.300
4.311
4.297
4.297
4.309
4.317
4.325
4.337
4.339
4.349
4.359
4.345
4.342
4.347
4.356
4.364
4.361
4.379
4.378
4.391
4.388
4.392
4.404
4.408
4.415
4.418
4.397
4.393
4.399
4.404
4.403
4.419
4.423
4.416
4.420
4.430
4.434
4.439
4.437
4.447
4.458
4.446
4.452
4.455
4.457
4.463
4.473
4.474
4.483
4.482
4.492
4.478
4.485
4.490
4.495
4.486
4.466
4.460
4.468
4.474
4.473
4.479
4.483
4.493
4.494
4.494
4.484
4.477
4.485
4.488
4.493
4.492
4.491
4.504
4.508
4.509
4.520
4.513
4.506
4.515
4.524
4.522
4.529
4.528
4.533
4.534
4.525
4.527
4.529
4.519
4.536
4.530
4.534
4.535
4.537
4.542
4.550
4.548
4.557
4.554
4.562
4.554
4.557
4.554
4.563
4.559
4.570
4.572
4.580
4.573
4.575
4.585
4.578
4.594
4.577
4.584
4.578
4.577
4.580
4.570
4.579
4.579
4.578
4.588
4.580
4.590
4.603
4.588
4.598
4.605
4.601
4.605
4.606
4.604
4.608
4.617
4.614
4.612
4.621
4.610
4.599
4.589
4.578
4.578
4.580
4.573
4.587
4.589
4.581
4.585
4.586
4.582
4.578
4.596
4.593
4.592
4.590
4.604
4.607
4.603
4.598
4.609
4.610
4.610
4.597
4.602
4.592
4.583
4.586
4.597
4.586
4.580
4.583
4.590
4.593
4.582
4.576
4.593
4.597
4.593
4.596
4.588
4.601
4.613
4.600
4.601
4.605
4.605
4.619
4.609
4.607
4.593
4.604
4.624
4.616
4.609
4.614
4.604
4.618
4.623
4.624
4.629
4.622
4.623
4.628
4.638
4.635
4.637
4.629
4.629
4.632
4.628
4.626
4.624
4.620
4.617
4.629
4.630
4.626
4.625
4.624
4.626
4.625
4.642
4.645
4.640
4.647
4.640
4.637
4.632
4.647
4.646
4.640
4.641
4.646
4.643
4.634
4.647
4.664
4.666
4.665
4.663
4.660
4.657
4.656
4.657
4.673
4.675
4.672
4.670
4.663
4.652
4.656
4.663
4.675
4.671
4.672
4.675
4.672
4.663
4.654
4.654
4.646
4.653
4.652
4.648
4.646
4.643
4.643
4.645
4.643
4.645
4.641
4.646
4.643
4.634
4.636
4.630
4.642
4.653
4.662
4.651
4.653
4.655
4.653
4.655
4.655
4.653
4.647
4.659
4.663
4.659
4.657
4.657
4.652
4.651
4.652
4.654
4.659
4.653
4.659
4.658
4.653
4.650
4.654
4.654
4.653
4.657
4.652
4.650
4.652
4.666
4.676
4.678
4.676
4.676
4.674
4.673
4.671
4.673
4.671
4.672
4.659
4.668
4.680
4.691
4.688
4.684
4.678
4.668
4.668
4.667
4.663
4.659
4.667
4.669
4.672
4.684
4.696
4.696
4.691
4.695
4.687
4.689
4.695
4.697
4.692
4.693
4.684
4.687
4.683
4.689
4.700
4.712
4.714
4.703
4.699
4.701
4.699
4.697
4.696
4.698
4.696
4.694
4.685
4.684
4.693
4.698
4.689
4.683
4.689
4.693
4.692
4.692
4.685
4.684
4.686
4.674
4.678
4.682
4.675
4.684
4.690
4.696
4.691
4.686
4.685
4.689
4.683
4.686
4.688
4.688
4.683
4.687
4.688
4.685
4.687
4.684
4.688
4.695
4.705
4.704
4.704
4.706
4.706
4.698
4.694
4.697
4.694
4.685
4.686
4.689
4.701
4.701
4.699
4.697
4.698
4.699
4.700
4.710
4.720
4.715
4.713
4.718
4.718
4.720
4.718
4.714
4.714
4.721
4.716
4.710
4.717
4.716
4.714
4.718
4.717
4.714
4.713
4.709
4.719
4.728
4.738
4.746
4.742
4.736
4.732
4.730
4.732
4.730
4.731
4.729
4.726
4.727
4.725
4.718
4.719
4.717
4.710
4.708
4.707
4.709
4.718
4.728
4.727
4.732
4.735
4.733
4.734
4.728
4.723
4.723
4.722
4.721
4.717
4.720
4.721
4.720
4.710
4.723
4.719
4.721
4.715
4.712
4.709
4.709
4.717
4.726
4.735
4.744
4.753
4.753
4.752
4.746
4.745
4.742
4.743
4.750
4.746
4.745
4.749
4.751
4.752
4.748
4.746
4.744
4.742
4.737
4.735
4.733
4.739
4.738
4.738
4.747
4.751
4.753
4.747
4.756
4.764
4.772
4.767
4.768
4.765
4.768
4.760
4.757
4.756
4.762
4.759
4.756
4.755
4.757
4.762
4.763
4.756
4.756
4.751
4.750
4.754
4.754
4.748
4.740
4.738
4.733
4.735
4.740
4.742
4.741
4.739
4.747
4.745
4.743
4.744
4.741
4.739
4.738
4.737
4.745
4.739
4.738
4.733
4.737
4.735
4.741
4.736
4.730
4.724
4.719
4.713
4.707
4.712
4.714
4.708
4.707
4.714
4.722
4.730
4.737
4.745
4.744
4.745
4.740
4.736
4.733
4.731
4.730
4.727
4.726
4.729
4.730
4.732
4.731
4.730
4.727
4.723
4.715
4.715
4.718
4.719
4.718
4.718
4.716
4.710
4.712
4.710
4.717
4.718
4.715
4.710
4.712
4.722
4.727
4.726
4.733
4.740
4.748
4.755
4.758
4.757
4.754
4.756
4.747
4.754
4.747
4.741
4.739
4.738
4.737
4.735
4.727
4.722
4.717
4.714
4.717
4.719
4.717
4.719
4.714
4.714
4.717
4.709
4.712
4.711
4.716
4.714
4.707
4.705
4.704
4.707
4.705
4.707
4.712
4.719
4.726
4.733
4.739
4.746
4.753
4.751
4.748
4.751
4.749
4.751
4.749
4.756
4.760
4.756
4.757
4.757
4.757
4.755
4.749
4.754
4.754
4.751
4.745
4.739
4.736
4.728
4.728
4.726
4.720
4.724
4.726
4.722
4.721
4.718
4.718
4.720
4.721
4.715
4.711
4.717
4.710
4.715
4.712
4.708
4.710
4.717
4.723
4.729
4.736
4.742
4.748
4.755
4.761
4.756
4.753
4.746
4.749
4.747
4.747
4.743
4.751
4.748
4.747
4.743
4.742
4.740
4.738
4.735
4.738
4.746
4.748
4.746
4.751
4.754
4.752
4.746
4.745
4.744
4.739
4.743
4.738
4.732
4.732
4.732
4.739
4.739
4.739
4.736
4.735
4.730
4.731
4.729
4.729
4.724
4.717
4.710
4.704
4.710
4.716
4.722
4.728
4.734
4.740
4.746
4.752
4.758
4.764
4.770
4.776
4.776
4.778
4.774
4.770
4.767
4.770
4.769
4.764
4.761
4.758
4.757
4.760
4.757
4.754
4.751
4.750
4.749
4.754
4.753
4.758
4.753
4.754
4.755
4.747
4.749
4.747
4.745
4.748
4.743
4.740
4.748
4.751
4.751
4.745
4.741
4.735
4.731
4.729
4.727
4.732
4.735
4.739
4.734
4.740
4.742
4.741
4.737
4.737
4.735
4.731
4.733
4.729
4.726
4.732
4.737
4.743
4.748
4.754
4.759
4.765
4.770
4.776
4.780
4.782
4.779
4.779
4.782
4.783
4.779
4.777
4.773
4.780
4.775
4.780
4.781
4.784
4.778
4.775
4.778
4.778
4.777
4.778
4.774
4.774
4.771
4.766
4.762
4.765
4.763
4.766
4.765
4.765
4.763
4.761
4.759
4.760
4.759
4.758
4.766
4.772
4.771
4.767
4.766
4.765
4.767
4.764
4.763
4.759
4.758
4.756
4.752
4.752
4.754
4.754
4.760
4.758
4.760
4.763
4.762
4.757
4.756
4.754
4.754
4.751
4.753
4.757
4.756
4.762
4.760
4.756
4.759
4.765
4.769
4.775
4.780
4.785
4.790
4.795
4.800
4.805
4.810
4.815
4.815
4.811
4.816
4.809
4.814
4.819
4.812
4.810
4.815
4.812
4.810
4.805
4.800
4.800
4.794
4.789
4.786
4.781
4.782
4.783
4.781
4.788
4.785
4.785
4.785
4.785
4.789
4.787
4.784
4.781
4.782
4.784
4.783
4.790
4.790
4.790
4.787
4.781
4.779
4.777
4.778
4.783
4.783
4.779
4.774
4.770
4.766
4.762
4.758
4.754
4.750
4.749
4.752
4.749
4.746
