2.990
3.310
3.496
3.617
3.691
3.713
3.801
3.875
3.938
3.841
3.872
3.897
3.924
3.946
3.981
4.002
4.016
4.041
4.050
4.077
4.076
4.103
4.117
4.138
4.121
4.134
4.154
4.168
4.196
4.175
4.189
4.190
4.213
4.213
4.236
4.253
4.243
4.227
4.237
4.249
4.249
4.258
4.267
4.284
4.281
4.281
4.297
4.307
4.323
4.332
4.325
4.330
4.350
4.315
4.314
4.314
4.329
4.339
4.323
4.327
4.335
4.339
4.356
4.339
4.352
4.365
4.364
4.383
4.363
4.362
4.363
4.376
4.390
4.401
4.401
4.393
4.398
4.401
4.426
4.411
4.419
4.436
4.438
4.424
4.434
4.427
4.413
4.435
4.436
4.434
4.455
4.453
4.470
4.456
4.476
4.467
4.475
4.468
4.466
4.447
4.428
4.434
4.425
4.453
4.448
4.446
4.456
4.452
4.468
4.460
4.442
4.440
4.440
4.437
4.426
4.444
4.444
4.438
4.457
4.447
4.446
4.461
4.450
4.447
4.472
4.462
4.456
4.476
4.477
4.472
4.475
4.499
4.485
4.459
4.487
4.482
4.473
4.467
4.496
4.493
4.486
4.482
4.497
4.501
4.487
4.489
4.504
4.521
4.516
4.513
4.502
4.526
4.533
4.513
4.520
4.512
4.539
4.527
4.528
4.522
4.518
4.501
4.508
4.507
4.495
4.503
4.501
4.497
4.493
4.496
4.502
4.520
4.519
4.507
4.503
4.497
4.508
4.524
4.514
4.506
4.492
4.501
4.503
4.523
4.527
4.532
4.522
4.517
4.524
4.517
4.536
4.535
4.536
4.531
4.517
4.520
4.520
4.533
4.554
4.556
4.545
4.548
4.552
4.551
4.534
4.539
4.561
4.568
4.561
4.554
4.554
4.555
4.547
4.537
4.554
4.558
4.549
4.543
4.544
4.540
4.538
4.518
4.532
4.552
4.560
4.557
4.556
4.557
4.556
4.544
4.537
4.528
4.536
4.555
4.575
4.579
4.581
4.575
4.570
4.560
4.552
4.550
4.557
4.546
4.560
4.579
4.597
4.586
4.586
4.593
4.593
4.586
4.579
4.585
4.584
4.576
4.569
4.582
4.600
4.601
4.598
4.603
4.590
4.575
4.572
4.564
4.566
4.563
4.561
4.565
4.582
4.598
4.610
4.609
4.612
4.601
4.596
4.587
4.586
4.588
4.596
4.606
4.594
4.589
4.579
4.592
4.608
4.624
4.640
4.632
4.630
4.625
4.619
4.618
4.614
4.613
4.610
4.598
4.608
4.602
4.615
4.598
4.607
4.622
4.637
4.644
4.638
4.628
4.620
4.611
4.602
4.599
4.601
4.587
4.588
4.595
4.587
4.586
4.583
4.593
4.607
4.603
4.602
4.606
4.597
4.583
4.590
4.581
4.580
4.573
4.574
4.565
4.577
4.571
4.579
4.577
4.571
4.577
4.577
4.591
4.604
4.615
4.623
4.619
4.625
4.615
4.605
4.611
4.602
4.590
4.578
4.571
4.575
4.563
4.563
4.555
4.559
4.553
4.565
4.564
4.570
4.581
4.593
4.606
4.618
4.631
4.630
4.617
4.612
4.605
4.601
4.600
4.604
4.595
4.589
4.596
4.593
4.594
4.594
4.593
4.588
4.576
4.568
4.574
4.571
4.579
4.568
4.580
4.592
4.604
4.615
4.616
4.609
4.620
4.625
4.625
4.623
4.625
4.621
4.628
4.617
4.605
4.601
4.598
4.592
4.591
4.597
4.597
4.591
4.587
4.576
4.584
4.585
4.588
4.586
4.578
4.583
4.580
4.591
4.602
4.613
4.624
4.635
4.640
4.636
4.626
4.632
4.624
4.620
4.623
4.622
4.625
4.626
4.619
4.619
4.614
4.617
4.617
4.606
4.604
4.600
4.603
4.595
4.592
4.600
4.608
4.607
4.614
4.605
4.601
4.588
4.601
4.598
4.598
4.600
4.610
4.620
4.630
4.640
4.650
4.657
4.664
4.665
4.660
4.657
4.657
4.659
4.652
4.647
4.650
4.649
4.642
4.646
4.640
4.635
4.633
4.632
4.632
4.643
4.642
4.628
4.633
4.641
4.646
4.648
4.648
4.647
4.638
4.631
4.636
4.627
4.621
4.623
4.623
4.631
4.628
4.622
4.628
4.630
4.632
4.641
4.650
4.659
4.668
4.661
4.663
4.662
4.672
4.685
4.681
4.681
4.683
4.674
4.667
4.662
4.657
4.646
4.638
4.630
4.622
4.616
4.622
4.611
4.604
4.599
4.602
4.614
4.617
4.618
4.615
4.615
4.619
4.619
4.615
4.615
4.617
4.610
4.607
4.599
4.596
4.595
4.596
4.607
4.604
4.601
4.599
4.605
4.613
4.621
4.629
4.638
4.646
4.655
4.663
4.672
4.667
4.665
4.664
4.660
4.658
4.649
4.650
4.654
4.651
4.660
4.650
4.648
4.639
4.638
4.650
4.654
4.649
4.653
4.651
4.646
4.648
4.645
4.641
4.642
4.643
4.644
4.640
4.653
4.649
4.640
4.641
4.633
4.636
4.636
4.634
4.634
4.639
4.637
4.635
4.630
4.623
4.625
4.620
4.622
4.619
4.614
4.621
4.624
4.632
4.628
4.625
4.636
4.645
4.641
4.636
4.627
4.635
4.642
4.650
4.657
4.665
4.672
4.680
4.687
4.693
4.691
4.694
4.687
4.693
4.697
4.695
4.692
4.679
4.677
4.683
4.674
4.675
4.667
4.669
4.664
4.661
4.653
4.645
4.645
4.643
4.650
4.646
4.647
4.645
4.646
4.639
4.636
4.629
4.624
4.630
4.636
4.635
4.636
4.628
4.632
4.628
4.625
4.615
4.612
4.614
4.626
4.621
4.628
4.624
4.618
4.620
4.626
4.620
4.615
4.623
4.619
4.610
4.606
4.607
4.601
4.601
4.603
4.598
4.597
4.595
4.589
4.589
4.596
4.602
4.609
4.616
4.623
4.629
4.636
4.643
4.649
4.656
4.663
4.669
4.674
4.675
4.681
4.675
4.684
4.686
4.681
4.683
4.678
4.673
4.676
4.685
4.693
4.697
4.699
4.695
4.687
4.682
4.686
4.688
4.690
4.682
4.682
4.683
4.681
4.680
4.680
4.676
4.680
4.682
4.678
4.670
4.669
4.667
4.661
4.663
4.667
4.665
4.655
4.662
4.663
4.666
4.659
4.654
4.653
4.653
4.656
4.651
4.645
4.639
4.635
4.631
4.634
4.627
4.621
4.626
4.632
4.627
4.630
4.624
4.617
4.611
4.613
4.611
4.610
4.612
4.616
4.615
4.619
4.620
4.612
4.605
4.598
4.601
4.599
4.601
4.604
4.603
4.598
4.606
4.616
4.619
4.617
4.622
4.619
4.617
4.611
4.614
4.617
4.614
4.620
4.626
4.632
4.637
4.643
4.649
4.655
4.661
4.667
4.672
4.678
4.684
4.690
4.691
4.686
4.677
4.679
4.678
4.674
4.676
4.682
4.674
4.669
4.672
4.670
4.674
4.675
4.671
4.664
4.663
4.658
4.659
4.657
4.648
4.642
4.652
4.661
4.661
4.657
4.657
4.659
4.659
4.661
4.663
4.666
4.663
4.661
4.661
4.669
4.677
4.681
4.679
4.676
4.685
4.687
4.690
4.685
4.685
4.689
4.689
4.680
4.675
4.679
4.675
4.676
4.675
4.672
4.678
4.668
4.661
4.658
4.650
4.648
4.646
4.648
4.647
4.641
4.634
4.627
4.620
4.614
4.617
4.616
4.617
4.627
4.628
4.621
4.630
4.628
4.627
4.633
4.636
4.642
4.639
4.635
4.629
4.633
4.630
4.629
4.628
4.629
4.631
4.629
4.630
4.625
4.626
4.621
4.617
4.620
4.611
4.615
4.610
4.605
4.605
4.610
4.608
4.608
4.614
4.606
4.605
4.615
4.614
4.615
4.621
4.623
4.620
4.628
4.635
4.642
4.643
4.641
4.645
4.645
4.644
4.642
4.641
4.644
4.649
4.654
4.659
4.664
4.669
4.674
4.679
4.684
4.689
4.694
4.699
4.704
4.709
4.714
4.719
4.724
4.729
4.732
4.733
4.728
4.728
4.723
4.720
4.718
4.714
4.707
4.709
4.707
4.707
4.704
4.712
4.708
4.709
4.711
4.713
4.714
4.720
4.720
4.724
4.727
4.722
4.714
4.705
4.708
4.712
4.705
4.698
4.695
4.691
4.686
4.684
4.680
4.679
4.680
4.677
4.677
4.683
4.691
4.691
4.691
4.688
4.698
4.700
4.700
4.701
4.693
4.687
4.680
4.688
4.684
4.682
4.681
4.681
4.679
4.680
4.681
4.682
4.676
4.682
