2.994
3.331
3.515
3.631
3.725
3.792
3.844
3.899
3.924
3.973
3.979
4.021
4.059
4.029
4.058
4.087
4.113
4.132
4.154
4.178
4.199
4.222
4.209
4.167
4.155
4.166
4.181
4.191
4.196
4.211
4.218
4.230
4.234
4.247
4.258
4.260
4.269
4.281
4.280
4.290
4.299
4.298
4.305
4.314
4.322
4.334
4.327
4.334
4.341
4.348
4.358
4.351
4.357
4.366
4.371
4.380
4.382
4.394
4.395
4.384
4.393
4.392
4.399
4.408
4.412
4.416
4.428
4.427
4.434
4.418
4.428
4.432
4.431
4.433
4.444
4.449
4.451
4.451
4.462
4.462
4.470
4.470
4.473
4.481
4.469
4.463
4.470
4.468
4.472
4.477
4.484
4.487
4.491
4.487
4.492
4.495
4.500
4.507
4.508
4.515
4.516
4.512
4.522
4.518
4.529
4.528
4.536
4.534
4.536
4.521
4.516
4.518
4.516
4.517
4.524
4.526
4.530
4.536
4.535
4.539
4.546
4.542
4.536
4.544
4.540
4.545
4.549
4.551
4.555
4.558
4.558
4.561
4.563
4.569
4.573
4.566
4.566
4.572
4.574
4.573
4.576
4.581
4.582
4.588
4.595
4.595
4.596
4.591
4.596
4.607
4.604
4.602
4.604
4.602
4.607
4.603
4.609
4.597
4.587
4.575
4.579
4.577
4.584
4.589
4.587
4.588
4.592
4.594
4.603
4.591
4.598
4.599
4.599
4.605
4.604
4.613
4.607
4.608
4.606
4.607
4.606
4.602
4.607
4.602
4.609
4.605
4.615
4.610
4.621
4.616
4.623
4.619
4.628
4.627
4.628
4.630
4.631
4.633
4.629
4.633
4.626
4.633
4.637
4.638
4.645
4.643
4.653
4.649
4.647
4.649
4.639
4.641
4.632
4.646
4.647
4.644
4.644
4.638
4.644
4.649
4.644
4.657
4.650
4.644
4.656
4.646
4.651
4.660
4.658
4.655
4.669
4.666
4.666
4.676
4.670
4.671
4.677
4.677
4.670
4.676
4.666
4.671
4.675
4.681
4.678
4.677
4.688
4.685
4.681
4.685
4.699
4.688
4.686
4.696
4.697
4.698
4.689
4.696
4.686
4.679
4.691
4.687
4.686
4.690
4.702
4.698
4.691
4.690
4.695
4.693
4.689
4.690
4.694
4.692
4.697
4.693
4.702
4.703
4.697
4.696
4.707
4.712
4.714
4.709
4.703
4.718
4.713
4.712
4.711
4.714
4.724
4.721
4.724
4.715
4.722
4.718
4.711
4.704
4.700
4.693
4.688
4.684
4.694
4.690
4.689
4.679
4.684
4.692
4.686
4.687
4.688
4.685
4.699
4.696
4.695
4.690
4.697
4.696
4.702
4.695
4.691
4.685
4.689
4.703
4.708
4.703
4.700
4.701
4.695
4.707
4.710
4.710
4.708
4.704
4.711
4.712
4.724
4.723
4.718
4.712
4.710
4.710
4.702
4.698
4.695
4.695
4.694
4.706
4.713
4.710
4.702
4.701
4.695
4.701
4.697
4.690
4.699
4.693
4.694
4.692
4.703
4.709
4.702
4.698
4.699
4.693
4.694
4.703
4.708
4.707
4.708
4.707
4.702
4.703
4.702
4.712
4.718
4.718
4.716
4.721
4.721
4.710
4.707
4.718
4.729
4.726
4.725
4.718
4.714
4.717
4.710
4.720
4.722
4.721
4.722
4.721
4.724
4.723
4.716
4.718
4.729
4.731
4.729
4.728
4.729
4.728
4.725
4.721
4.724
4.734
4.743
4.747
4.747
4.742
4.740
4.740
4.736
4.732
4.735
4.744
4.740
4.737
4.729
4.726
4.730
4.729
4.729
4.731
4.741
4.748
4.741
4.739
4.736
4.739
4.730
4.725
4.724
4.732
4.743
4.744
4.746
4.740
4.740
4.740
4.740
4.740
4.741
4.736
4.741
4.751
4.755
4.756
4.752
4.755
4.751
4.751
4.747
4.751
4.747
4.744
4.754
4.758
4.755
4.753
4.754
4.753
4.757
4.756
4.751
4.750
4.751
4.751
4.760
4.770
4.771
4.772
4.770
4.769
4.770
4.769
4.766
4.769
4.771
4.764
4.765
4.770
4.776
4.775
4.776
4.778
4.779
4.772
4.768
4.766
4.765
4.761
4.763
4.767
4.776
4.775
4.771
4.766
4.760
4.755
4.749
4.747
4.743
4.740
4.747
4.755
4.763
4.761
4.762
4.762
4.760
4.753
4.752
4.748
4.752
4.755
4.755
4.750
4.752
4.750
4.749
4.751
4.746
4.745
4.747
4.748
4.747
4.747
4.749
4.750
4.746
4.744
4.744
4.751
4.760
4.764
4.766
4.762
4.763
4.759
4.751
4.748
4.749
4.756
4.762
4.756
4.754
4.751
4.749
4.758
4.765
4.773
4.781
4.773
4.768
4.769
4.765
4.764
4.766
4.767
4.758
4.755
4.754
4.755
4.752
4.755
4.763
4.769
4.774
4.769
4.762
4.766
4.763
4.762
4.766
4.762
4.752
4.755
4.755
4.751
4.752
4.745
4.752
4.759
4.766
4.773
4.782
4.778
4.779
4.778
4.774
4.770
4.768
4.773
4.770
4.767
4.770
4.770
4.765
4.762
4.768
4.769
4.766
4.772
4.779
4.786
4.790
4.789
4.790
4.791
4.793
4.783
4.785
4.781
4.781
4.780
4.773
4.770
4.773
4.772
4.771
4.781
4.774
4.773
4.781
4.788
4.795
4.791
4.785
4.784
4.785
4.784
4.784
4.783
4.787
4.789
4.787
4.783
4.781
4.781
4.779
4.783
4.785
4.784
4.779
4.781
4.788
4.794
4.803
4.807
4.809
4.808
4.807
4.808
4.814
4.811
4.809
4.805
4.806
4.802
4.796
4.795
4.798
4.799
4.803
4.795
4.798
4.797
4.796
4.794
4.799
4.805
4.812
4.811
4.814
4.810
4.809
4.807
4.803
4.802
4.804
4.800
4.798
4.795
4.792
4.786
4.784
4.778
4.773
4.775
4.774
4.777
4.784
4.791
4.796
4.803
4.804
4.800
4.798
4.800
4.803
4.803
4.803
4.805
4.803
4.797
4.793
4.794
4.792
4.789
4.785
4.783
4.777
4.778
4.779
4.778
4.776
4.778
4.784
4.789
4.796
4.802
4.799
4.800
4.801
4.805
4.804
4.803
4.799
4.797
4.796
4.799
4.799
4.797
4.799
4.794
4.793
4.799
4.795
4.795
4.798
4.800
4.799
4.802
4.798
4.791
4.787
4.792
4.796
4.803
4.809
4.810
4.812
4.813
4.814
4.807
4.806
4.805
4.801
4.805
4.804
4.808
4.807
4.810
4.806
4.802
4.804
4.803
4.806
4.802
4.806
4.808
4.806
4.803
4.801
4.800
4.799
4.805
4.809
4.803
4.809
4.814
4.820
4.825
4.829
4.829
4.828
4.830
4.826
4.825
4.820
4.818
4.817
4.814
4.818
4.821
4.818
4.814
4.820
4.824
4.829
4.822
4.825
4.822
4.825
4.825
4.825
4.824
4.826
4.822
4.823
4.821
4.815
4.813
4.817
4.822
4.828
4.832
4.839
4.841
4.836
4.835
4.839
4.838
4.839
4.838
4.837
4.836
4.836
4.835
4.831
4.830
4.831
4.830
4.828
4.827
4.828
4.832
4.829
4.827
4.825
4.822
4.826
4.822
4.821
4.816
4.812
4.808
4.806
4.813
4.818
4.822
4.828
4.833
4.832
4.832
4.829
4.827
4.829
4.833
4.829
4.825
4.828
4.830
4.826
4.827
4.828
4.830
4.836
4.827
4.829
4.830
4.832
4.827
4.826
4.822
4.818
4.821
4.817
4.818
4.814
4.814
4.817
4.814
4.815
4.818
4.817
4.816
4.818
4.825
4.823
4.829
4.834
4.838
4.844
4.849
4.855
4.855
4.851
4.849
4.847
4.846
4.851
4.852
4.850
4.846
4.848
4.847
4.847
4.847
4.844
4.841
4.842
4.843
4.840
4.840
4.840
4.844
4.847
4.849
4.853
4.847
4.848
4.846
4.847
4.844
4.842
4.841
4.839
4.846
4.842
4.840
4.840
4.843
4.839
4.838
4.840
4.846
4.850
4.855
4.861
4.865
4.869
4.874
4.872
4.866
4.864
4.863
4.861
4.862
4.862
4.862
4.861
4.862
4.859
4.858
4.859
4.863
4.861
4.858
4.858
4.855
4.858
4.858
4.856
4.855
4.853
4.851
4.847
4.844
4.842
4.840
4.836
4.835
4.832
4.829
4.826
4.824
4.820
4.819
4.825
4.830
4.834
4.840
4.842
4.846
4.845
4.843
4.837
4.836
4.834
4.833
4.837
4.838
4.834
4.835
