2.968
3.315
3.488
3.567
3.653
3.608
3.667
3.737
3.759
3.809
3.853
3.861
3.908
3.909
3.945
3.977
4.004
3.997
4.010
4.037
4.055
4.077
4.085
4.098
4.060
4.063
4.088
4.085
4.130
4.139
4.111
4.146
4.157
4.178
4.187
4.212
4.190
4.205
4.229
4.231
4.250
4.255
4.255
4.247
4.224
4.227
4.210
4.211
4.181
4.207
4.210
4.211
4.228
4.226
4.249
4.233
4.239
4.250
4.238
4.259
4.250
4.259
4.279
4.266
4.314
4.280
4.296
4.328
4.302
4.275
4.250
4.288
4.282
4.266
4.296
4.284
4.254
4.292
4.308
4.300
4.283
4.310
4.310
4.303
4.308
4.343
4.348
4.336
4.323
4.343
4.342
4.313
4.279
4.325
4.344
4.308
4.307
4.309
4.333
4.362
4.354
4.361
4.337
4.352
4.361
4.389
4.364
4.378
4.346
4.347
4.363
4.379
4.383
4.362
4.347
4.372
4.355
4.376
4.413
4.420
4.408
4.386
4.386
4.369
4.386
4.393
4.427
4.441
4.435
4.438
4.418
4.397
4.377
4.375
4.385
4.376
4.376
4.366
4.366
4.369
4.371
4.355
4.353
4.383
4.392
4.378
4.370
4.365
4.374
4.377
4.363
4.343
4.362
4.352
4.376
4.404
4.402
4.386
4.365
4.362
4.375
4.389
4.387
4.375
4.353
4.343
4.351
4.373
4.399
4.415
4.423
4.409
4.403
4.411
4.392
4.388
4.380
4.375
4.379
4.360
4.366
4.382
4.375
4.386
4.410
4.433
4.428
4.428
4.437
4.440
4.438
4.438
4.414
4.439
4.423
4.406
4.407
4.400
4.408
4.397
4.416
4.431
4.412
4.416
4.437
4.459
4.475
4.467
4.452
4.474
4.455
4.428
4.430
4.436
4.420
4.409
4.395
4.397
4.387
4.368
4.386
4.382
4.372
4.359
4.379
4.398
4.417
4.437
4.456
4.476
4.470
4.459
4.454
4.447
4.445
4.454
4.440
4.425
4.430
4.422
4.418
4.427
4.420
4.424
4.435
4.446
4.434
4.421
4.435
4.426
4.425
4.434
4.438
4.445
4.417
4.427
4.441
4.458
4.475
4.468
4.463
4.464
4.455
4.446
4.457
4.448
4.446
4.441
4.426
4.422
4.413
4.415
4.401
4.400
4.415
4.419
4.417
4.397
4.383
4.382
4.377
4.364
4.370
4.381
4.394
4.401
4.385
4.395
4.394
4.402
4.396
4.410
4.425
4.440
4.455
4.470
4.485
4.500
4.494
4.483
4.481
4.484
4.475
4.462
4.468
4.463
4.458
4.444
4.429
4.421
4.409
4.420
4.431
4.434
4.444
4.453
4.459
4.449
4.446
4.448
4.444
4.434
4.424
4.423
4.405
4.386
4.370
4.382
4.374
4.366
4.374
4.381
4.380
4.368
4.365
4.374
4.373
4.395
4.388
4.397
4.410
4.422
4.435
4.448
4.461
4.474
4.487
4.500
4.513
4.526
4.520
4.503
4.504
4.506
4.500
4.495
4.487
4.477
4.461
4.462
4.454
4.461
4.470
4.462
4.475
4.459
4.452
4.454
4.451
4.453
4.449
4.445
4.436
4.430
4.431
4.431
4.432
4.439
4.449
4.444
4.442
4.451
4.440
4.453
4.462
4.452
4.452
4.457
4.462
4.444
4.433
4.431
4.426
4.410
4.412
4.414
4.427
4.413
4.401
4.409
4.411
4.430
4.432
4.434
4.428
4.425
4.435
4.446
4.444
4.451
4.441
4.444
4.446
4.457
4.467
4.478
4.489
4.499
4.507
4.507
4.506
4.499
4.487
4.496
4.481
4.471
4.483
4.468
4.455
4.442
4.446
4.450
4.462
4.476
4.484
4.479
4.463
4.472
4.465
4.457
4.449
4.454
4.464
4.466
4.471
4.466
4.470
4.469
4.458
4.448
4.449
4.447
4.448
4.436
4.425
4.439
4.418
4.423
4.430
4.438
4.428
4.415
4.413
4.417
4.408
4.407
4.401
4.399
4.413
4.408
4.402
4.402
4.388
4.387
4.396
4.406
4.390
4.390
4.387
4.399
4.409
4.391
4.382
4.382
4.384
4.390
4.387
4.375
4.390
4.397
4.410
4.419
4.432
4.444
4.439
4.440
4.442
4.429
4.422
4.433
4.427
4.416
4.425
4.436
4.417
4.409
4.412
4.425
4.423
4.430
4.427
4.419
4.433
4.422
4.430
4.439
4.447
4.456
4.465
4.473
4.482
4.490
4.499
4.508
4.516
4.525
4.528
4.513
4.510
4.505
4.507
4.516
4.506
4.489
4.504
4.507
4.515
4.516
4.520
4.504
4.495
4.486
4.483
4.486
4.480
4.478
4.489
4.487
4.486
4.472
4.475
4.470
4.462
4.460
4.463
4.465
4.474
4.482
4.484
4.494
4.502
4.497
4.492
4.493
4.475
4.474
4.475
4.478
4.492
4.508
4.491
4.480
4.472
4.467
4.463
4.460
4.477
4.475
4.475
4.480
4.491
4.501
4.502
4.499
4.492
4.481
4.487
4.479
4.476
4.472
4.461
4.463
4.477
4.487
4.476
4.467
4.467
4.457
4.464
4.466
4.472
4.466
4.459
4.451
4.444
4.447
4.442
4.439
4.432
4.433
4.428
4.427
4.439
4.441
4.434
4.426
4.418
4.411
4.403
4.410
4.411
4.421
4.418
4.410
4.406
4.415
4.415
4.407
4.410
4.407
4.399
4.407
4.419
4.428
4.432
4.430
4.431
4.423
4.417
4.407
4.401
4.405
4.409
4.397
4.403
4.400
4.402
4.394
4.384
4.382
4.390
4.396
4.387
4.388
4.380
4.383
4.372
4.373
4.368
4.379
4.388
4.377
4.366
4.363
4.368
4.357
4.360
4.354
4.358
4.356
4.348
4.356
4.356
4.355
4.353
4.366
4.368
4.380
4.377
4.382
4.389
4.395
4.402
4.408
4.415
4.421
4.428
4.434
4.440
4.447
4.453
4.460
4.466
4.473
4.479
4.485
4.492
4.498
4.505
4.511
4.518
4.524
4.531
4.537
4.543
4.550
4.556
4.563
4.569
4.576
4.582
4.584
4.587
4.581
4.583
4.576
4.574
4.578
4.566
4.554
4.546
4.541
4.545
4.546
4.545
4.549
4.540
4.530
4.524
4.521
4.523
4.511
4.516
4.508
4.505
4.505
4.500
4.505
4.489
4.498
4.492
4.496
4.495
4.495
4.495
4.502
4.501
4.510
4.520
4.524
4.517
4.522
4.524
4.520
4.514
4.509
4.514
4.516
4.507
4.509
4.500
4.492
4.487
4.492
4.492
4.503
4.511
4.508
4.507
4.498
4.509
4.503
4.510
4.509
4.508
4.510
4.513
4.505
4.507
4.504
4.505
4.504
4.500
4.491
4.486
4.477
4.481
4.482
4.487
4.485
4.482
4.472
4.476
4.477
4.476
4.470
4.467
4.468
4.467
4.464
4.454
4.450
4.447
4.444
4.438
4.453
4.451
4.446
4.442
4.438
4.438
4.441
4.443
4.442
4.440
4.446
4.444
4.439
4.448
4.438
4.436
4.437
4.434
4.428
4.421
4.415
4.409
4.402
4.396
4.390
4.388
4.382
4.386
4.385
4.388
4.389
4.383
4.385
4.384
4.393
4.403
4.396
4.395
4.390
4.389
4.391
4.388
4.395
4.393
4.387
4.389
4.377
4.381
4.394
4.392
4.393
4.382
4.390
4.391
4.394
4.400
4.408
4.415
4.423
4.430
4.438
4.445
4.452
4.456
4.450
4.450
4.446
4.446
4.448
4.446
4.440
4.442
4.445
4.456
4.451
4.453
4.441
4.433
4.435
4.434
4.427
4.432
4.442
4.441
4.446
4.451
4.463
4.464
4.467
4.459
4.451
4.443
4.435
4.446
4.439
4.437
4.428
4.422
4.422
4.430
4.417
4.421
4.422
4.425
4.437
4.430
4.434
4.428
4.418
4.418
4.415
4.414
4.416
4.412
4.414
4.409
4.413
4.414
4.402
4.410
4.405
4.412
4.406
4.406
4.407
4.411
4.407
4.411
4.407
4.419
4.421
4.427
4.420
4.420
4.419
4.412
4.405
4.401
4.401
4.401
4.405
4.401
4.409
4.398
4.405
4.416
4.412
4.411
4.403
4.400
4.409
4.409
4.408
4.415
4.404
4.405
4.398
4.395
4.399
4.392
4.386
4.390
4.383
4.384
4.391
4.381
4.377
4.379
4.380
4.380
4.388
4.385
4.376
4.372
4.377
4.385
4.377
4.380
4.390
4.399
4.389
4.382
4.387
4.392
4.379
4.382
4.386
4.393
4.389
4.379
4.373
4.384
4.388
4.379
4.377
