2.992
3.331
3.518
3.633
3.727
3.794
3.837
3.899
3.925
3.965
3.977
4.022
4.060
4.031
4.059
4.088
4.114
4.138
4.157
4.181
4.202
4.223
4.201
4.159
4.158
4.167
4.177
4.192
4.201
4.214
4.216
4.231
4.235
4.247
4.246
4.260
4.273
4.271
4.281
4.290
4.300
4.297
4.308
4.316
4.325
4.321
4.327
4.335
4.345
4.351
4.361
4.351
4.358
4.362
4.369
4.375
4.385
4.392
4.385
4.384
4.393
4.398
4.402
4.406
4.412
4.419
4.423
4.430
4.427
4.420
4.423
4.425
4.432
4.438
4.445
4.445
4.449
4.457
4.462
4.464
4.468
4.468
4.475
4.474
4.465
4.468
4.464
4.469
4.473
4.477
4.483
4.486
4.486
4.486
4.490
4.497
4.500
4.507
4.512
4.512
4.511
4.520
4.514
4.524
4.528
4.534
4.531
4.537
4.522
4.516
4.516
4.515
4.516
4.523
4.523
4.527
4.533
4.534
4.538
4.542
4.542
4.537
4.539
4.540
4.545
4.549
4.553
4.556
4.560
4.560
4.563
4.564
4.566
4.570
4.564
4.565
4.568
4.570
4.571
4.571
4.580
4.584
4.582
4.590
4.593
4.595
4.596
4.594
4.604
4.598
4.607
4.600
4.597
4.603
4.610
4.603
4.594
4.583
4.571
4.576
4.580
4.581
4.590
4.586
4.585
4.594
4.594
4.598
4.597
4.595
4.599
4.598
4.602
4.605
4.610
4.611
4.602
4.606
4.602
4.600
4.605
4.597
4.607
4.606
4.613
4.611
4.616
4.612
4.618
4.617
4.620
4.622
4.621
4.627
4.627
4.638
4.626
4.630
4.627
4.634
4.631
4.631
4.640
4.639
4.646
4.645
4.642
4.650
4.642
4.636
4.634
4.642
4.645
4.639
4.645
4.636
4.643
4.647
4.638
4.653
4.649
4.644
4.654
4.644
4.648
4.658
4.656
4.653
4.668
4.664
4.662
4.674
4.668
4.669
4.676
4.677
4.670
4.674
4.665
4.668
4.676
4.679
4.676
4.675
4.687
4.682
4.676
4.686
4.695
4.686
4.681
4.696
4.695
4.694
4.692
4.694
4.686
4.682
4.687
4.683
4.684
4.688
4.697
4.696
4.689
4.693
4.690
4.690
4.686
4.694
4.692
4.688
4.694
4.696
4.700
4.701
4.697
4.696
4.712
4.712
4.709
4.704
4.709
4.718
4.712
4.713
4.709
4.720
4.720
4.718
4.719
4.713
4.722
4.715
4.708
4.704
4.697
4.691
4.684
4.691
4.689
4.690
4.684
4.677
4.690
4.685
4.684
4.686
4.681
4.693
4.697
4.691
4.694
4.693
4.692
4.704
4.695
4.688
4.684
4.685
4.698
4.707
4.703
4.697
4.697
4.693
4.705
4.707
4.712
4.707
4.703
4.708
4.709
4.721
4.725
4.718
4.714
4.707
4.709
4.704
4.695
4.696
4.694
4.693
4.705
4.712
4.711
4.701
4.698
4.693
4.700
4.697
4.689
4.696
4.690
4.691
4.692
4.704
4.709
4.701
4.695
4.697
4.690
4.693
4.705
4.704
4.706
4.705
4.706
4.699
4.700
4.704
4.714
4.718
4.717
4.715
4.722
4.718
4.708
4.710
4.720
4.727
4.722
4.721
4.714
4.715
4.714
4.712
4.722
4.718
4.720
4.720
4.719
4.720
4.720
4.718
4.722
4.732
4.727
4.726
4.722
4.727
4.723
4.723
4.720
4.729
4.736
4.745
4.745
4.743
4.742
4.735
4.739
4.732
4.733
4.742
4.739
4.737
4.733
4.726
4.727
4.726
4.725
4.727
4.736
4.745
4.744
4.737
4.733
4.735
4.733
4.724
4.722
4.731
4.739
4.740
4.745
4.740
4.736
4.738
4.738
4.738
4.738
4.735
4.739
4.748
4.753
4.751
4.752
4.754
4.750
4.748
4.747
4.748
4.747
4.743
4.752
4.756
4.753
4.753
4.750
4.751
4.753
4.754
4.749
4.748
4.747
4.751
4.760
4.768
4.771
4.770
4.768
4.768
4.768
4.765
4.764
4.768
4.769
4.760
4.763
4.771
4.775
4.771
4.775
4.778
4.775
4.770
4.766
4.764
4.761
4.757
4.760
4.768
4.777
4.775
4.769
4.765
4.760
4.754
4.749
4.745
4.741
4.740
4.750
4.757
4.760
4.757
4.758
4.760
4.757
4.749
4.747
4.748
4.752
4.751
4.750
4.748
4.752
4.748
4.747
4.749
4.742
4.742
4.745
4.743
4.742
4.746
4.744
4.746
4.742
4.738
4.749
4.756
4.764
4.762
4.764
4.760
4.758
4.754
4.747
4.746
4.752
4.757
4.758
4.749
4.753
4.746
4.753
4.760
4.769
4.778
4.774
4.768
4.766
4.760
4.763
4.762
4.764
4.760
4.752
4.754
4.752
4.749
4.752
4.760
4.768
4.776
4.771
4.764
4.763
4.762
4.761
4.765
4.763
4.754
4.753
4.753
4.750
4.753
4.745
4.751
4.758
4.765
4.774
4.781
4.777
4.776
4.777
4.773
4.769
4.767
4.772
4.770
4.766
4.768
4.769
4.765
4.760
4.765
4.768
4.765
4.772
4.779
4.786
4.790
4.786
4.787
4.788
4.789
4.782
4.783
4.780
4.779
4.775
4.770
4.768
4.770
4.771
4.775
4.780
4.773
4.775
4.783
4.790
4.792
4.786
4.786
4.780
4.783
4.782
4.779
4.780
4.789
4.786
4.783
4.780
4.776
4.777
4.778
4.783
4.781
4.780
4.778
4.785
4.790
4.797
4.805
4.810
4.805
4.804
4.808
4.808
4.811
4.808
4.805
4.801
4.805
4.797
4.795
4.794
4.797
4.799
4.798
4.793
4.795
4.796
4.790
4.796
4.801
4.808
4.808
4.810
4.809
4.808
4.808
4.804
4.800
4.804
4.801
4.797
4.795
4.793
4.789
4.783
4.779
4.774
4.775
4.772
4.776
4.783
4.790
4.794
4.801
4.802
4.801
4.796
4.798
4.801
4.801
4.801
4.803
4.801
4.797
4.793
4.794
4.790
4.790
4.785
4.779
4.777
4.776
4.775
4.778
4.775
4.778
4.783
4.790
4.796
4.798
4.797
4.800
4.802
4.801
4.801
4.801
4.796
4.797
4.794
4.797
4.797
4.797
4.796
4.790
4.791
4.798
4.793
4.794
4.799
4.798
4.799
4.801
4.794
4.789
4.786
4.794
4.799
4.805
4.807
4.806
4.812
4.812
4.810
4.805
4.804
4.798
4.804
4.805
4.805
4.806
4.802
4.806
4.802
4.801
4.802
4.803
4.804
4.805
4.805
4.805
4.802
4.800
4.797
4.798
4.801
4.808
4.805
4.806
4.812
4.817
4.823
4.828
4.827
4.827
4.826
4.825
4.824
4.820
4.816
4.814
4.812
4.816
4.816
4.819
4.813
4.817
4.821
4.825
4.824
4.822
4.821
4.820
4.821
4.822
4.821
4.823
4.821
4.820
4.818
4.816
4.812
4.816
4.821
4.827
4.831
4.838
4.840
4.836
4.834
4.836
4.837
4.834
4.837
4.834
4.834
4.833
4.832
4.830
4.827
4.831
4.826
4.827
4.826
4.827
4.829
4.828
4.826
4.822
4.821
4.823
4.820
4.820
4.816
4.811
4.807
4.808
4.813
4.819
4.823
4.828
4.832
4.831
4.831
4.828
4.824
4.828
4.831
4.825
4.824
4.827
4.826
4.825
4.829
4.827
4.831
4.831
4.826
4.828
4.829
4.830
4.823
4.823
4.820
4.817
4.816
4.814
4.818
4.812
4.815
4.811
4.810
4.816
4.816
4.812
4.815
4.820
4.824
4.825
4.831
4.836
4.840
4.845
4.851
4.853
4.853
4.849
4.845
4.845
4.848
4.849
4.846
4.844
4.845
4.845
4.843
4.849
4.845
4.841
4.838
4.841
4.842
4.836
4.838
4.841
4.845
4.847
4.849
4.845
4.845
4.845
4.848
4.844
4.840
4.838
4.837
4.842
4.842
4.839
4.837
4.841
4.837
4.836
4.838
4.844
4.849
4.855
4.860
4.863
4.868
4.874
4.871
4.868
4.862
4.863
4.859
4.860
4.862
4.861
4.859
4.861
4.857
4.857
4.859
4.860
4.857
4.855
4.857
4.855
4.856
4.855
4.856
4.855
4.853
4.850
4.848
4.844
4.842
4.839
4.835
4.834
4.832
4.828
4.826
4.823
4.820
4.820
4.826
4.830
4.835
4.839
4.843
4.844
4.840
4.839
4.835
4.833
4.832
4.836
4.837
4.836
4.832
4.833
4.835
4.833
4.837
4.836
4.831
4.831
4.835
4.841
