2.993
3.299
3.494
3.626
3.664
3.763
3.714
3.738
3.786
3.839
3.871
3.895
3.919
3.928
3.970
3.993
3.984
4.025
4.048
4.042
4.055
4.071
4.092
4.110
4.098
4.115
4.126
4.147
4.144
4.162
4.179
4.197
4.198
4.223
4.193
4.194
4.197
4.192
4.200
4.227
4.213
4.243
4.249
4.243
4.235
4.243
4.264
4.264
4.276
4.287
4.296
4.301
4.320
4.299
4.300
4.303
4.311
4.339
4.346
4.331
4.342
4.365
4.359
4.339
4.309
4.324
4.336
4.328
4.345
4.330
4.310
4.308
4.302
4.326
4.319
4.353
4.323
4.351
4.337
4.350
4.352
4.364
4.364
4.346
4.366
4.346
4.348
4.372
4.358
4.366
4.385
4.385
4.376
4.408
4.389
4.397
4.411
4.394
4.394
4.414
4.419
4.392
4.396
4.377
4.372
4.370
4.400
4.390
4.372
4.376
4.405
4.389
4.387
4.370
4.408
4.410
4.407
4.402
4.389
4.424
4.426
4.415
4.397
4.403
4.430
4.450
4.432
4.427
4.425
4.420
4.454
4.452
4.448
4.447
4.434
4.428
4.431
4.420
4.415
4.418
4.423
4.419
4.450
4.435
4.427
4.443
4.438
4.428
4.424
4.452
4.472
4.478
4.469
4.461
4.460
4.454
4.455
4.464
4.478
4.486
4.484
4.480
4.459
4.453
4.444
4.452
4.479
4.477
4.487
4.481
4.472
4.476
4.474
4.474
4.460
4.477
4.494
4.519
4.525
4.517
4.499
4.492
4.495
4.499
4.500
4.480
4.481
4.505
4.527
4.538
4.535
4.537
4.525
4.511
4.497
4.483
4.487
4.484
4.485
4.490
4.479
4.477
4.461
4.472
4.461
4.466
4.466
4.470
4.460
4.452
4.455
4.476
4.497
4.513
4.509
4.502
4.483
4.464
4.465
4.461
4.465
4.456
4.454
4.450
4.450
4.459
4.470
4.490
4.509
4.497
4.490
4.496
4.496
4.498
4.491
4.474
4.474
4.457
4.449
4.447
4.464
4.454
4.450
4.458
4.477
4.495
4.513
4.520
4.519
4.511
4.498
4.494
4.481
4.498
4.498
4.490
4.482
4.474
4.468
4.468
4.475
4.481
4.477
4.459
4.466
4.483
4.500
4.517
4.533
4.525
4.521
4.517
4.534
4.535
4.523
4.506
4.508
4.502
4.508
4.510
4.505
4.494
4.492
4.497
4.507
4.506
4.505
4.496
4.495
4.477
4.493
4.508
4.524
4.539
4.554
4.570
4.567
4.552
4.553
4.570
4.568
4.564
4.568
4.555
4.561
4.568
4.563
4.548
4.545
4.529
4.514
4.525
4.517
4.505
4.516
4.531
4.536
4.525
4.521
4.506
4.502
4.516
4.530
4.544
4.557
4.538
4.529
4.539
4.544
4.532
4.530
4.528
4.532
4.527
4.518
4.520
4.512
4.508
4.510
4.513
4.513
4.521
4.512
4.507
4.501
4.505
4.494
4.501
4.494
4.493
4.489
4.490
4.480
4.475
4.478
4.491
4.505
4.516
4.529
4.541
4.554
4.566
4.579
4.581
4.589
4.591
4.584
4.582
4.581
4.583
4.588
4.570
4.563
4.560
4.569
4.568
4.570
4.558
4.554
4.561
4.564
4.570
4.573
4.563
4.568
4.573
4.572
4.563
4.554
4.545
4.536
4.527
4.518
4.513
4.511
4.496
4.502
4.491
4.487
4.482
4.493
4.504
4.515
4.527
4.538
4.549
4.560
4.565
4.577
4.559
4.553
4.558
4.561
4.549
4.549
4.555
4.547
4.548
4.548
4.538
4.527
4.537
4.527
4.527
4.520
4.528
4.521
4.519
4.508
4.517
4.534
4.540
4.533
4.539
4.533
4.539
4.532
4.534
4.531
4.530
4.532
4.526
4.529
4.519
4.524
4.524
4.523
4.522
4.525
4.519
4.510
4.510
4.507
4.513
4.507
4.501
4.513
4.501
4.506
4.507
4.517
4.526
4.536
4.546
4.556
4.565
4.575
4.573
4.575
4.572
4.576
4.571
4.570
4.562
4.564
4.563
4.565
4.567
4.564
4.565
4.574
4.575
4.573
4.563
4.562
4.550
4.546
4.533
4.524
4.535
4.543
4.548
4.540
4.548
4.548
4.535
4.532
4.535
4.527
4.533
4.532
4.520
4.529
4.528
4.540
4.533
4.526
4.525
4.530
4.527
4.515
4.514
4.507
4.517
4.522
4.537
4.529
4.525
4.515
4.519
4.522
4.510
4.506
4.505
4.495
4.497
4.489
4.486
4.500
4.500
4.496
4.500
4.489
4.481
4.490
4.498
4.507
4.519
4.524
4.536
4.540
4.548
4.557
4.565
4.573
4.582
4.590
4.598
4.607
4.614
4.612
4.607
4.592
4.598
4.607
4.615
4.606
4.614
4.596
4.594
4.589
4.586
4.592
4.581
4.587
4.584
4.600
4.593
4.588
4.596
4.587
4.579
4.581
4.588
4.585
4.577
4.567
4.564
4.575
4.569
4.558
4.552
4.554
4.553
4.551
4.548
4.555
4.554
4.558
4.555
4.553
4.559
4.549
4.549
4.544
4.553
4.555
4.553
4.550
4.561
4.564
4.561
4.572
4.578
4.568
4.566
4.575
4.572
4.576
4.566
4.564
4.559
4.559
4.555
4.551
4.551
4.544
4.551
4.555
4.546
4.538
4.529
4.521
4.525
4.526
4.529
4.527
4.526
4.538
4.531
4.530
4.528
4.530
4.538
4.537
4.538
4.536
4.533
4.530
4.527
4.520
4.514
4.508
4.501
4.507
4.514
4.521
4.528
4.535
4.542
4.549
4.556
4.563
4.570
4.577
4.584
4.591
4.598
4.599
4.590
4.589
4.586
4.587
4.582
4.590
4.583
4.576
4.571
4.564
4.561
4.566
4.567
4.569
4.572
4.568
4.564
4.563
4.564
4.574
4.568
4.571
4.573
4.571
4.578
4.578
4.575
4.571
4.573
4.563
4.565
4.578
4.571
4.583
4.583
4.578
4.580
4.575
4.569
4.574
4.562
4.573
4.572
4.567
4.567
4.561
4.569
4.569
4.565
4.558
4.556
4.550
4.538
4.539
4.534
4.535
4.537
4.550
4.543
4.546
4.532
4.538
4.537
4.545
4.542
4.546
4.543
4.533
4.528
4.519
4.522
4.517
4.521
4.524
4.522
4.529
4.527
4.525
4.518
4.514
4.526
4.517
4.522
4.526
4.515
4.516
4.517
4.512
4.512
4.522
4.514
4.522
4.531
4.522
4.518
4.511
4.511
4.513
4.510
4.519
4.520
4.508
4.511
4.511
4.514
4.519
4.520
4.519
4.522
4.532
4.534
4.543
4.542
4.544
4.553
4.549
4.549
4.558
4.546
4.538
4.546
4.544
4.551
4.541
4.534
4.533
4.528
4.531
4.524
4.529
4.521
4.518
4.522
4.525
4.519
4.511
4.504
4.503
4.503
4.501
4.511
4.504
4.495
4.486
4.492
4.497
4.503
4.508
4.514
4.520
4.525
4.531
4.537
4.542
4.548
4.553
4.559
4.564
4.570
4.575
4.581
4.586
4.592
4.598
4.603
4.609
4.615
4.616
4.626
4.631
4.624
4.622
4.615
4.623
4.614
4.617
4.620
4.630
4.635
4.629
4.640
4.630
4.620
4.620
4.622
4.616
4.607
4.606
4.607
4.612
4.612
4.612
4.617
4.610
4.608
4.610
4.609
4.606
4.600
4.599
4.596
4.593
4.592
4.594
4.596
4.595
4.599
4.609
4.610
4.601
4.598
4.588
4.589
4.598
4.607
4.616
4.625
4.629
4.621
4.613
4.611
4.608
4.600
4.602
4.598
4.598
4.601
4.602
4.597
4.589
4.585
4.583
4.584
4.579
4.579
4.571
4.575
4.568
4.569
4.570
4.573
4.574
4.578
4.572
4.568
4.565
4.571
4.578
4.585
4.593
4.599
4.591
4.586
4.583
4.580
4.579
4.574
4.572
4.567
4.562
4.557
4.551
4.547
4.550
4.551
4.544
4.544
4.546
4.550
4.544
4.549
4.551
4.558
4.560
4.563
4.563
4.561
4.555
4.546
4.546
4.542
4.542
4.544
4.535
4.532
4.532
4.534
4.532
4.525
4.532
4.531
4.531
4.526
4.522
4.531
4.539
4.545
4.544
4.541
4.542
4.545
4.543
4.545
4.544
4.552
4.549
4.551
4.546
4.546
4.550
4.546
4.540
4.536
4.528
4.526
4.519
4.517
4.507
4.503
4.500
4.495
4.491
4.482
4.479
4.487
4.495
4.501
4.499
4.499
4.505
4.503
4.507
4.502
4.495
4.499
4.499
4.491
4.498
4.496
4.500
4.503
