2.995
3.332
3.508
3.636
3.720
3.796
3.827
3.900
3.928
3.952
3.983
4.023
4.062
4.031
4.058
4.086
4.110
4.133
4.161
4.184
4.200
4.218
4.184
4.143
4.159
4.171
4.180
4.195
4.199
4.204
4.221
4.228
4.236
4.251
4.251
4.259
4.273
4.270
4.284
4.294
4.292
4.299
4.307
4.319
4.329
4.322
4.329
4.336
4.342
4.355
4.345
4.352
4.356
4.368
4.375
4.379
4.384
4.388
4.378
4.387
4.394
4.399
4.405
4.409
4.416
4.421
4.427
4.428
4.418
4.423
4.422
4.429
4.438
4.442
4.441
4.445
4.454
4.458
4.462
4.464
4.468
4.473
4.468
4.461
4.468
4.461
4.465
4.469
4.476
4.477
4.484
4.480
4.490
4.491
4.498
4.500
4.501
4.508
4.507
4.508
4.514
4.511
4.523
4.522
4.534
4.532
4.528
4.511
4.507
4.514
4.509
4.516
4.523
4.524
4.525
4.530
4.532
4.538
4.542
4.532
4.532
4.538
4.542
4.547
4.548
4.554
4.558
4.558
4.559
4.563
4.566
4.568
4.564
4.566
4.567
4.568
4.566
4.568
4.577
4.579
4.586
4.584
4.588
4.590
4.589
4.596
4.599
4.593
4.603
4.598
4.600
4.598
4.608
4.599
4.589
4.579
4.572
4.571
4.575
4.585
4.584
4.581
4.588
4.588
4.595
4.590
4.592
4.599
4.591
4.599
4.597
4.601
4.603
4.607
4.599
4.596
4.600
4.599
4.602
4.604
4.602
4.609
4.606
4.610
4.613
4.614
4.614
4.617
4.619
4.618
4.622
4.621
4.632
4.623
4.625
4.626
4.629
4.626
4.632
4.637
4.635
4.645
4.644
4.643
4.647
4.640
4.633
4.629
4.638
4.639
4.641
4.642
4.633
4.639
4.640
4.642
4.649
4.643
4.649
4.651
4.641
4.656
4.655
4.650
4.662
4.658
4.660
4.667
4.668
4.662
4.668
4.667
4.669
4.669
4.666
4.662
4.669
4.673
4.671
4.670
4.681
4.681
4.676
4.681
4.690
4.688
4.679
4.694
4.687
4.689
4.688
4.692
4.685
4.678
4.682
4.681
4.679
4.688
4.695
4.692
4.688
4.691
4.687
4.688
4.684
4.689
4.687
4.684
4.688
4.697
4.696
4.694
4.693
4.699
4.706
4.706
4.706
4.699
4.714
4.710
4.706
4.706
4.710
4.719
4.715
4.713
4.714
4.719
4.718
4.713
4.706
4.700
4.695
4.688
4.684
4.688
4.687
4.683
4.676
4.683
4.682
4.681
4.681
4.680
4.687
4.692
4.688
4.688
4.687
4.688
4.701
4.697
4.690
4.680
4.682
4.695
4.703
4.700
4.695
4.692
4.693
4.703
4.704
4.708
4.701
4.700
4.701
4.710
4.718
4.721
4.715
4.711
4.703
4.710
4.703
4.694
4.695
4.689
4.695
4.702
4.706
4.708
4.698
4.692
4.692
4.703
4.695
4.688
4.690
4.686
4.684
4.695
4.706
4.703
4.695
4.691
4.693
4.686
4.698
4.700
4.699
4.700
4.703
4.697
4.696
4.699
4.710
4.714
4.714
4.711
4.718
4.714
4.709
4.706
4.717
4.722
4.721
4.718
4.714
4.711
4.710
4.710
4.717
4.714
4.718
4.714
4.715
4.714
4.717
4.718
4.721
4.727
4.723
4.724
4.720
4.724
4.721
4.716
4.718
4.729
4.736
4.741
4.739
4.738
4.734
4.735
4.736
4.729
4.732
4.743
4.737
4.733
4.728
4.722
4.723
4.719
4.723
4.730
4.739
4.741
4.737
4.732
4.732
4.733
4.728
4.721
4.725
4.733
4.734
4.738
4.740
4.733
4.736
4.735
4.732
4.735
4.729
4.736
4.745
4.751
4.745
4.747
4.748
4.749
4.743
4.741
4.742
4.744
4.743
4.751
4.748
4.747
4.748
4.747
4.745
4.747
4.750
4.744
4.745
4.744
4.751
4.760
4.764
4.763
4.764
4.763
4.766
4.763
4.761
4.758
4.767
4.768
4.756
4.766
4.775
4.771
4.769
4.769
4.775
4.773
4.767
4.760
4.761
4.758
4.759
4.763
4.772
4.777
4.772
4.766
4.762
4.757
4.751
4.746
4.740
4.736
4.747
4.754
4.759
4.754
4.753
4.757
4.753
4.751
4.742
4.744
4.747
4.747
4.748
4.743
4.751
4.747
4.743
4.743
4.740
4.740
4.742
4.740
4.737
4.741
4.742
4.743
4.739
4.740
4.747
4.755
4.758
4.760
4.758
4.755
4.755
4.752
4.743
4.744
4.751
4.752
4.755
4.747
4.747
4.747
4.756
4.763
4.772
4.777
4.772
4.765
4.759
4.758
4.759
4.760
4.759
4.757
4.750
4.751
4.747
4.747
4.756
4.763
4.772
4.773
4.766
4.760
4.756
4.755
4.761
4.763
4.756
4.747
4.748
4.746
4.748
4.746
4.748
4.755
4.764
4.771
4.777
4.774
4.773
4.771
4.772
4.765
4.766
4.768
4.766
4.760
4.767
4.763
4.759
4.758
4.759
4.763
4.766
4.773
4.780
4.787
4.784
4.784
4.783
4.787
4.784
4.781
4.777
4.776
4.778
4.771
4.766
4.765
4.764
4.766
4.777
4.774
4.772
4.777
4.786
4.787
4.784
4.782
4.780
4.777
4.781
4.777
4.777
4.781
4.781
4.784
4.777
4.773
4.772
4.774
4.777
4.779
4.778
4.774
4.783
4.788
4.795
4.799
4.808
4.803
4.799
4.804
4.805
4.806
4.805
4.803
4.797
4.799
4.799
4.792
4.794
4.790
4.795
4.793
4.789
4.790
4.792
4.790
4.797
4.803
4.810
4.806
4.805
4.804
4.806
4.806
4.802
4.796
4.797
4.793
4.794
4.790
4.792
4.787
4.781
4.777
4.773
4.771
4.772
4.779
4.786
4.792
4.799
4.798
4.795
4.796
4.794
4.795
4.797
4.795
4.799
4.798
4.794
4.790
4.789
4.787
4.786
4.787
4.781
4.774
4.770
4.769
4.775
4.771
4.777
4.782
4.789
4.793
4.794
4.793
4.799
4.799
4.797
4.798
4.794
4.795
4.789
4.792
4.795
4.792
4.792
4.790
4.786
4.790
4.791
4.788
4.794
4.795
4.797
4.796
4.799
4.793
4.788
4.788
4.794
4.799
4.806
4.804
4.806
4.807
4.806
4.807
4.802
4.798
4.800
4.799
4.799
4.801
4.803
4.799
4.803
4.798
4.797
4.799
4.799
4.799
4.802
4.799
4.802
4.795
4.792
4.795
4.797
4.804
4.803
4.804
4.810
4.815
4.822
4.825
4.822
4.821
4.822
4.820
4.821
4.817
4.814
4.814
4.806
4.812
4.814
4.817
4.811
4.814
4.819
4.820
4.819
4.818
4.814
4.818
4.816
4.817
4.819
4.818
4.816
4.817
4.814
4.814
4.811
4.817
4.822
4.826
4.833
4.839
4.840
4.834
4.833
4.832
4.835
4.832
4.832
4.831
4.829
4.828
4.827
4.825
4.829
4.828
4.822
4.823
4.821
4.825
4.825
4.823
4.821
4.818
4.821
4.817
4.819
4.815
4.813
4.809
4.805
4.812
4.816
4.821
4.827
4.832
4.827
4.829
4.824
4.821
4.822
4.823
4.822
4.818
4.822
4.821
4.822
4.826
4.825
4.828
4.829
4.823
4.822
4.828
4.825
4.821
4.819
4.815
4.811
4.812
4.811
4.814
4.811
4.809
4.808
4.810
4.814
4.814
4.810
4.817
4.819
4.823
4.829
4.834
4.838
4.843
4.849
4.851
4.851
4.848
4.843
4.840
4.844
4.843
4.843
4.839
4.840
4.840
4.840
4.845
4.843
4.839
4.838
4.837
4.836
4.834
4.833
4.839
4.843
4.842
4.844
4.842
4.840
4.840
4.843
4.840
4.840
4.834
4.835
4.839
4.836
4.837
4.835
4.837
4.833
4.834
4.840
4.845
4.851
4.855
4.858
4.864
4.869
4.875
4.871
4.864
4.860
4.859
4.857
4.858
4.857
4.855
4.858
4.859
4.854
4.856
4.855
4.853
4.852
4.850
4.851
4.850
4.851
4.850
4.852
4.851
4.851
4.848
4.846
4.843
4.840
4.837
4.835
4.831
4.830
4.828
4.824
4.821
4.819
4.825
4.829
4.834
4.838
4.840
4.840
4.836
4.836
4.836
4.830
4.829
4.830
4.832
4.833
4.829
4.829
4.832
4.832
4.831
4.830
4.828
4.829
4.834
4.838
4.836
4.833
4.829
4.833
4.829
4.829
4.826
4.827
4.829
4.830
4.825
4.827
4.828
4.825
4.823
