2.989
3.302
3.501
3.568
3.674
3.729
3.825
3.854
3.784
3.837
3.854
3.890
3.924
3.942
3.973
3.990
4.022
4.021
4.047
4.079
4.068
4.094
4.107
4.133
4.117
4.126
4.149
4.155
4.178
4.194
4.200
4.176
4.199
4.193
4.205
4.217
4.227
4.234
4.250
4.253
4.279
4.259
4.279
4.287
4.251
4.257
4.278
4.268
4.268
4.269
4.292
4.295
4.292
4.299
4.316
4.331
4.308
4.309
4.316
4.337
4.347
4.355
4.353
4.361
4.368
4.361
4.372
4.394
4.379
4.365
4.374
4.372
4.393
4.394
4.395
4.418
4.401
4.418
4.424
4.415
4.426
4.403
4.379
4.377
4.388
4.393
4.395
4.408
4.399
4.407
4.397
4.377
4.379
4.374
4.382
4.400
4.384
4.412
4.408
4.393
4.415
4.393
4.412
4.425
4.425
4.424
4.441
4.429
4.430
4.427
4.413
4.430
4.428
4.440
4.429
4.447
4.436
4.434
4.448
4.470
4.458
4.450
4.463
4.483
4.465
4.457
4.471
4.471
4.474
4.476
4.470
4.464
4.455
4.446
4.453
4.447
4.448
4.443
4.447
4.473
4.458
4.451
4.446
4.445
4.470
4.455
4.454
4.453
4.439
4.468
4.487
4.483
4.479
4.468
4.455
4.479
4.488
4.480
4.471
4.475
4.471
4.476
4.504
4.519
4.505
4.497
4.491
4.495
4.488
4.514
4.526
4.517
4.499
4.507
4.508
4.499
4.510
4.502
4.490
4.478
4.488
4.478
4.476
4.491
4.515
4.515
4.498
4.504
4.491
4.486
4.495
4.500
4.503
4.522
4.526
4.514
4.531
4.527
4.527
4.519
4.513
4.512
4.519
4.541
4.563
4.549
4.547
4.537
4.526
4.529
4.529
4.527
4.522
4.534
4.536
4.548
4.545
4.538
4.529
4.527
4.520
4.535
4.541
4.521
4.526
4.546
4.567
4.571
4.567
4.561
4.582
4.576
4.568
4.563
4.560
4.559
4.546
4.546
4.553
4.572
4.591
4.600
4.586
4.586
4.580
4.565
4.567
4.574
4.568
4.565
4.557
4.569
4.554
4.567
4.583
4.581
4.581
4.568
4.554
4.541
4.530
4.515
4.517
4.514
4.524
4.512
4.516
4.533
4.550
4.563
4.559
4.557
4.559
4.562
4.559
4.553
4.555
4.555
4.548
4.553
4.538
4.532
4.521
4.520
4.521
4.533
4.548
4.564
4.558
4.563
4.552
4.546
4.544
4.544
4.551
4.560
4.549
4.544
4.544
4.536
4.539
4.529
4.523
4.527
4.511
4.524
4.539
4.553
4.568
4.566
4.558
4.562
4.556
4.552
4.552
4.557
4.552
4.543
4.541
4.547
4.539
4.552
4.544
4.547
4.542
4.531
4.538
4.531
4.535
4.529
4.541
4.555
4.569
4.583
4.583
4.578
4.568
4.569
4.565
4.568
4.565
4.573
4.581
4.584
4.575
4.566
4.557
4.550
4.542
4.553
4.548
4.541
4.550
4.544
4.532
4.533
4.531
4.547
4.544
4.557
4.570
4.582
4.595
4.603
4.599
4.610
4.607
4.599
4.593
4.589
4.580
4.584
4.586
4.589
4.587
4.581
4.578
4.571
4.582
4.589
4.579
4.575
4.573
4.587
4.594
4.582
4.572
4.563
4.568
4.561
4.560
4.567
4.568
4.570
4.581
4.593
4.604
4.616
4.627
4.639
4.639
4.636
4.630
4.640
4.640
4.629
4.619
4.608
4.611
4.619
4.611
4.611
4.608
4.604
4.598
4.603
4.591
4.589
4.584
4.584
4.574
4.564
4.564
4.563
4.567
4.564
4.563
4.555
4.556
4.556
4.550
4.552
4.563
4.573
4.584
4.594
4.605
4.615
4.604
4.606
4.616
4.613
4.607
4.601
4.599
4.597
4.605
4.599
4.599
4.590
4.589
4.599
4.590
4.589
4.594
4.589
4.586
4.587
4.585
4.588
4.587
4.587
4.590
4.579
4.577
4.570
4.575
4.577
4.574
4.575
4.574
4.576
4.560
4.563
4.553
4.552
4.550
4.564
4.567
4.571
4.585
4.576
4.578
4.588
4.597
4.607
4.616
4.625
4.635
4.644
4.654
4.663
4.673
4.672
4.668
4.665
4.664
4.672
4.671
4.662
4.659
4.652
4.645
4.638
4.631
4.624
4.617
4.610
4.608
4.613
4.610
4.608
4.601
4.598
4.588
4.590
4.603
4.600
4.594
4.585
4.586
4.586
4.579
4.568
4.560
4.565
4.565
4.565
4.575
4.563
4.555
4.559
4.549
4.554
4.549
4.544
4.544
4.537
4.539
4.547
4.556
4.564
4.573
4.581
4.590
4.598
4.606
4.615
4.621
4.615
4.611
4.611
4.617
4.621
4.627
4.620
4.618
4.615
4.626
4.628
4.633
4.630
4.630
4.626
4.614
4.617
4.623
4.617
4.613
4.614
4.611
4.614
4.609
4.610
4.610
4.605
4.603
4.608
4.613
4.621
4.626
4.622
4.621
4.628
4.627
4.618
4.606
4.607
4.608
4.596
4.598
4.588
4.581
4.578
4.571
4.578
4.579
4.578
4.581
4.575
4.573
4.578
4.574
4.578
4.579
4.578
4.583
4.583
4.580
4.572
4.564
4.557
4.549
4.554
4.559
4.561
4.560
4.551
4.559
4.566
4.574
4.581
4.588
4.596
4.603
4.610
4.618
4.625
4.632
4.640
4.647
4.654
4.662
4.666
4.656
4.646
4.645
4.638
4.632
4.633
4.627
4.623
4.619
4.626
4.616
4.610
4.604
4.601
4.600
4.598
4.597
4.599
4.598
4.593
4.598
4.594
4.597
4.602
4.604
4.614
4.617
4.616
4.614
4.623
4.624
4.625
4.615
4.620
4.619
4.609
4.605
4.619
4.619
4.618
4.618
4.624
4.630
4.634
4.631
4.623
4.614
4.605
4.605
4.600
4.597
4.596
4.584
4.586
4.585
4.582
4.585
4.581
4.579
4.584
4.580
4.582
4.574
4.565
4.563
4.563
4.560
4.551
4.554
4.548
4.558
4.559
4.562
4.559
4.562
4.564
4.575
4.576
4.577
4.579
4.572
4.570
4.568
4.567
4.564
4.563
4.565
4.574
4.583
4.578
4.577
4.581
4.587
4.593
4.600
4.606
4.612
4.618
4.625
4.631
4.637
4.643
4.650
4.656
4.662
4.669
4.674
4.673
4.673
4.670
4.679
4.670
4.674
4.670
4.666
4.667
4.663
4.666
4.657
4.667
4.673
4.675
4.678
4.672
4.663
4.664
4.662
4.655
4.656
4.652
4.644
4.641
4.639
4.643
4.639
4.639
4.637
4.635
4.637
4.638
4.642
4.644
4.644
4.642
4.634
4.630
4.633
4.629
4.624
4.619
4.616
4.622
4.614
4.617
4.618
4.625
4.626
4.632
4.628
4.629
4.628
4.631
4.634
4.633
4.625
4.634
4.638
4.641
4.636
4.639
4.641
4.643
4.634
4.626
4.627
4.630
4.627
4.629
4.630
4.625
4.622
4.629
4.628
4.627
4.622
4.618
4.622
4.619
4.616
4.618
4.609
4.602
4.602
4.608
4.616
4.605
4.596
4.592
4.590
4.594
4.594
4.594
4.589
4.584
4.579
4.574
4.569
4.569
4.563
4.569
4.569
4.569
4.581
4.573
4.576
4.574
4.582
4.583
4.583
4.585
4.582
4.573
4.567
4.563
4.556
4.549
4.544
4.554
4.548
4.545
4.546
4.551
4.556
4.561
4.567
4.572
4.577
4.582
4.588
4.593
4.598
4.603
4.608
4.614
4.619
4.624
4.629
4.635
4.640
4.645
4.650
4.656
4.661
4.659
4.655
4.653
4.645
4.642
4.635
4.638
4.633
4.633
4.631
4.621
4.625
4.632
4.637
4.638
4.634
4.633
4.632
4.629
4.630
4.632
4.622
4.623
4.630
4.638
4.645
4.652
4.651
4.645
4.653
4.647
4.643
4.645
4.639
4.640
4.639
4.635
4.644
4.647
4.640
4.638
4.647
4.643
4.647
4.644
4.638
4.647
4.639
4.640
4.639
4.634
4.641
4.635
4.640
4.635
4.641
4.634
4.637
4.644
4.638
4.635
4.637
4.634
4.632
4.637
4.629
4.630
4.623
4.627
4.618
4.614
4.616
4.620
4.619
4.611
4.610
4.607
4.610
4.605
4.614
4.617
4.618
4.621
4.616
4.617
4.606
4.600
4.594
4.593
4.597
4.596
4.597
4.595
4.594
4.597
4.606
4.599
4.604
4.605
4.602
4.601
4.606
4.598
4.598
4.603
4.594
4.597
4.608
4.596
4.593
4.593
4.588
4.589
