2.992
3.335
3.511
3.634
3.726
3.795
3.829
3.902
3.926
3.957
3.980
4.020
4.060
4.031
4.062
4.084
4.110
4.140
4.158
4.182
4.199
4.217
4.192
4.151
4.159
4.168
4.177
4.193
4.199
4.212
4.219
4.234
4.236
4.248
4.249
4.261
4.273
4.272
4.284
4.294
4.301
4.299
4.307
4.318
4.326
4.319
4.329
4.336
4.347
4.351
4.356
4.349
4.361
4.362
4.373
4.379
4.386
4.387
4.380
4.388
4.391
4.396
4.405
4.407
4.410
4.425
4.422
4.429
4.413
4.423
4.425
4.428
4.432
4.440
4.446
4.450
4.451
4.458
4.462
4.459
4.466
4.470
4.476
4.459
4.465
4.464
4.466
4.472
4.474
4.483
4.482
4.491
4.487
4.489
4.495
4.495
4.503
4.508
4.510
4.505
4.515
4.513
4.520
4.524
4.531
4.529
4.536
4.522
4.514
4.513
4.512
4.514
4.521
4.521
4.523
4.529
4.534
4.533
4.540
4.541
4.534
4.540
4.539
4.544
4.548
4.552
4.556
4.560
4.561
4.560
4.562
4.569
4.572
4.566
4.569
4.571
4.569
4.568
4.570
4.579
4.580
4.588
4.586
4.588
4.591
4.592
4.599
4.599
4.594
4.606
4.599
4.599
4.600
4.609
4.600
4.590
4.578
4.573
4.575
4.577
4.584
4.587
4.583
4.587
4.591
4.598
4.591
4.593
4.597
4.593
4.602
4.598
4.605
4.601
4.608
4.603
4.600
4.604
4.597
4.604
4.600
4.607
4.605
4.610
4.608
4.615
4.610
4.617
4.611
4.621
4.621
4.628
4.622
4.632
4.627
4.631
4.629
4.628
4.630
4.632
4.640
4.639
4.641
4.645
4.638
4.651
4.643
4.634
4.632
4.639
4.640
4.636
4.646
4.632
4.643
4.642
4.638
4.653
4.649
4.643
4.652
4.643
4.647
4.655
4.655
4.653
4.666
4.664
4.658
4.672
4.666
4.664
4.671
4.673
4.668
4.669
4.663
4.664
4.676
4.677
4.673
4.675
4.684
4.678
4.673
4.689
4.692
4.684
4.684
4.695
4.693
4.692
4.695
4.692
4.684
4.684
4.682
4.683
4.682
4.692
4.696
4.692
4.687
4.691
4.688
4.684
4.685
4.691
4.688
4.689
4.687
4.695
4.698
4.694
4.693
4.702
4.707
4.711
4.709
4.700
4.715
4.713
4.709
4.708
4.714
4.722
4.715
4.716
4.712
4.721
4.718
4.711
4.704
4.700
4.693
4.686
4.685
4.688
4.688
4.684
4.677
4.686
4.685
4.681
4.682
4.681
4.688
4.694
4.690
4.689
4.687
4.689
4.699
4.697
4.690
4.683
4.682
4.695
4.704
4.702
4.696
4.694
4.695
4.702
4.704
4.708
4.704
4.702
4.706
4.708
4.720
4.725
4.718
4.713
4.703
4.708
4.704
4.695
4.695
4.691
4.693
4.705
4.710
4.710
4.699
4.695
4.692
4.700
4.698
4.688
4.693
4.688
4.688
4.694
4.704
4.706
4.698
4.692
4.696
4.688
4.695
4.705
4.703
4.705
4.704
4.703
4.696
4.702
4.706
4.718
4.715
4.713
4.714
4.719
4.714
4.708
4.712
4.721
4.725
4.721
4.718
4.711
4.710
4.710
4.715
4.718
4.715
4.719
4.718
4.718
4.717
4.714
4.715
4.725
4.728
4.729
4.723
4.725
4.723
4.722
4.718
4.722
4.732
4.741
4.743
4.740
4.739
4.735
4.736
4.733
4.728
4.736
4.743
4.736
4.734
4.727
4.721
4.725
4.721
4.725
4.732
4.741
4.743
4.736
4.731
4.735
4.736
4.727
4.721
4.727
4.736
4.736
4.740
4.741
4.734
4.738
4.736
4.735
4.736
4.733
4.737
4.746
4.753
4.749
4.748
4.752
4.748
4.746
4.742
4.744
4.748
4.743
4.751
4.752
4.750
4.749
4.747
4.747
4.751
4.751
4.747
4.746
4.747
4.752
4.761
4.766
4.767
4.768
4.764
4.766
4.764
4.762
4.761
4.768
4.769
4.757
4.766
4.773
4.773
4.769
4.772
4.777
4.773
4.769
4.762
4.763
4.761
4.757
4.762
4.769
4.778
4.773
4.767
4.763
4.758
4.752
4.747
4.741
4.736
4.744
4.751
4.760
4.756
4.757
4.758
4.755
4.751
4.747
4.745
4.749
4.748
4.752
4.745
4.747
4.750
4.744
4.745
4.741
4.739
4.744
4.745
4.738
4.742
4.741
4.745
4.738
4.737
4.744
4.751
4.762
4.759
4.760
4.761
4.757
4.755
4.746
4.745
4.747
4.753
4.755
4.750
4.749
4.743
4.752
4.759
4.768
4.777
4.777
4.769
4.765
4.758
4.760
4.759
4.763
4.761
4.752
4.751
4.751
4.747
4.751
4.759
4.766
4.775
4.769
4.764
4.760
4.758
4.758
4.762
4.762
4.755
4.751
4.748
4.749
4.751
4.744
4.751
4.757
4.766
4.773
4.780
4.773
4.773
4.774
4.772
4.766
4.769
4.769
4.766
4.762
4.769
4.766
4.761
4.762
4.762
4.766
4.766
4.774
4.780
4.788
4.786
4.787
4.784
4.788
4.786
4.781
4.780
4.777
4.778
4.773
4.767
4.766
4.767
4.766
4.777
4.777
4.772
4.777
4.784
4.790
4.786
4.784
4.783
4.779
4.781
4.781
4.778
4.784
4.786
4.785
4.777
4.776
4.773
4.776
4.778
4.782
4.780
4.774
4.781
4.787
4.795
4.801
4.806
4.806
4.802
4.807
4.805
4.809
4.806
4.804
4.799
4.803
4.799
4.793
4.792
4.793
4.795
4.796
4.791
4.792
4.794
4.792
4.795
4.801
4.808
4.807
4.808
4.806
4.806
4.809
4.803
4.799
4.800
4.798
4.794
4.793
4.792
4.788
4.784
4.779
4.775
4.773
4.769
4.776
4.783
4.788
4.795
4.801
4.797
4.801
4.794
4.796
4.797
4.798
4.799
4.799
4.799
4.795
4.792
4.790
4.789
4.787
4.784
4.777
4.773
4.773
4.773
4.774
4.773
4.779
4.784
4.792
4.797
4.795
4.794
4.799
4.797
4.799
4.799
4.796
4.794
4.793
4.792
4.796
4.792
4.793
4.792
4.787
4.794
4.792
4.789
4.796
4.795
4.795
4.797
4.799
4.791
4.785
4.789
4.795
4.802
4.807
4.805
4.809
4.810
4.809
4.806
4.804
4.800
4.801
4.800
4.799
4.803
4.804
4.803
4.804
4.799
4.799
4.800
4.801
4.802
4.801
4.802
4.804
4.795
4.795
4.797
4.798
4.805
4.804
4.805
4.809
4.816
4.821
4.829
4.826
4.824
4.825
4.822
4.823
4.819
4.817
4.814
4.807
4.814
4.815
4.818
4.812
4.814
4.820
4.822
4.821
4.821
4.818
4.819
4.818
4.818
4.820
4.819
4.818
4.819
4.815
4.816
4.810
4.816
4.821
4.825
4.831
4.838
4.840
4.836
4.834
4.833
4.837
4.833
4.834
4.833
4.831
4.830
4.829
4.827
4.826
4.830
4.825
4.824
4.825
4.825
4.825
4.825
4.823
4.819
4.821
4.819
4.818
4.819
4.815
4.810
4.806
4.808
4.815
4.819
4.825
4.830
4.831
4.829
4.828
4.822
4.825
4.827
4.826
4.821
4.823
4.825
4.821
4.825
4.828
4.827
4.831
4.827
4.825
4.825
4.829
4.825
4.820
4.818
4.815
4.814
4.814
4.813
4.814
4.811
4.810
4.810
4.814
4.816
4.812
4.813
4.818
4.822
4.825
4.830
4.834
4.840
4.843
4.849
4.850
4.852
4.848
4.844
4.842
4.844
4.847
4.846
4.840
4.841
4.843
4.841
4.847
4.843
4.839
4.838
4.839
4.838
4.836
4.835
4.840
4.844
4.843
4.846
4.843
4.841
4.842
4.846
4.842
4.840
4.837
4.836
4.840
4.840
4.837
4.836
4.839
4.835
4.836
4.840
4.845
4.851
4.855
4.858
4.864
4.869
4.875
4.871
4.866
4.860
4.861
4.857
4.859
4.858
4.856
4.858
4.861
4.855
4.856
4.857
4.855
4.854
4.853
4.854
4.851
4.852
4.851
4.852
4.855
4.852
4.850
4.846
4.843
4.841
4.837
4.836
4.834
4.830
4.828
4.825
4.821
4.819
4.823
4.827
4.832
4.836
4.840
4.841
4.840
4.838
4.837
4.832
4.831
4.832
4.834
4.836
4.831
4.830
4.832
4.830
4.834
4.835
4.831
4.830
4.832
4.838
4.839
4.836
4.834
4.835
4.832
4.830
4.828
4.827
4.828
