2.994
3.335
3.512
3.634
3.728
3.795
3.830
3.902
3.923
3.959
3.979
4.022
4.064
4.028
4.060
4.085
4.111
4.138
4.156
4.181
4.201
4.217
4.194
4.153
4.160
4.167
4.177
4.193
4.197
4.217
4.216
4.234
4.235
4.250
4.249
4.261
4.273
4.272
4.282
4.293
4.303
4.296
4.308
4.319
4.325
4.321
4.330
4.335
4.342
4.351
4.360
4.349
4.358
4.364
4.372
4.375
4.388
4.390
4.379
4.387
4.390
4.395
4.405
4.405
4.412
4.422
4.427
4.428
4.416
4.425
4.430
4.430
4.432
4.442
4.445
4.444
4.449
4.456
4.460
4.464
4.467
4.472
4.478
4.463
4.459
4.464
4.470
4.474
4.476
4.482
4.486
4.488
4.487
4.491
4.490
4.499
4.503
4.502
4.514
4.508
4.509
4.513
4.517
4.527
4.527
4.532
4.534
4.526
4.516
4.510
4.516
4.508
4.517
4.526
4.525
4.529
4.530
4.532
4.539
4.543
4.536
4.537
4.538
4.542
4.545
4.548
4.552
4.556
4.560
4.559
4.561
4.562
4.569
4.565
4.563
4.567
4.571
4.571
4.569
4.579
4.582
4.581
4.590
4.590
4.596
4.595
4.591
4.601
4.599
4.606
4.601
4.595
4.602
4.611
4.602
4.593
4.583
4.571
4.575
4.579
4.579
4.589
4.583
4.582
4.591
4.592
4.596
4.593
4.591
4.593
4.597
4.600
4.607
4.608
4.613
4.600
4.605
4.605
4.597
4.606
4.599
4.605
4.604
4.611
4.608
4.617
4.610
4.619
4.613
4.625
4.624
4.625
4.626
4.627
4.632
4.627
4.627
4.622
4.630
4.630
4.637
4.638
4.637
4.647
4.643
4.649
4.645
4.639
4.637
4.634
4.640
4.642
4.646
4.639
4.635
4.639
4.643
4.644
4.653
4.645
4.651
4.650
4.645
4.656
4.657
4.652
4.662
4.661
4.662
4.667
4.670
4.663
4.668
4.671
4.670
4.667
4.667
4.664
4.668
4.677
4.675
4.672
4.682
4.683
4.679
4.680
4.693
4.690
4.681
4.693
4.690
4.694
4.689
4.697
4.689
4.677
4.686
4.683
4.682
4.685
4.695
4.696
4.692
4.688
4.690
4.690
4.684
4.691
4.689
4.688
4.690
4.694
4.698
4.696
4.693
4.694
4.709
4.710
4.709
4.704
4.708
4.715
4.708
4.712
4.708
4.718
4.722
4.716
4.719
4.713
4.722
4.715
4.709
4.704
4.697
4.691
4.684
4.691
4.689
4.686
4.684
4.679
4.687
4.683
4.684
4.683
4.679
4.693
4.697
4.691
4.690
4.691
4.692
4.702
4.693
4.686
4.684
4.688
4.700
4.705
4.700
4.697
4.695
4.694
4.705
4.708
4.711
4.704
4.701
4.702
4.711
4.721
4.722
4.715
4.711
4.705
4.709
4.701
4.693
4.696
4.692
4.697
4.705
4.705
4.708
4.697
4.695
4.691
4.703
4.694
4.689
4.693
4.687
4.686
4.697
4.707
4.703
4.696
4.695
4.696
4.689
4.697
4.701
4.702
4.705
4.707
4.700
4.696
4.698
4.708
4.719
4.715
4.711
4.716
4.719
4.713
4.706
4.715
4.723
4.726
4.722
4.718
4.711
4.712
4.709
4.718
4.719
4.716
4.719
4.716
4.717
4.718
4.716
4.718
4.728
4.727
4.727
4.723
4.725
4.721
4.722
4.718
4.725
4.735
4.742
4.743
4.741
4.740
4.736
4.737
4.731
4.730
4.739
4.742
4.736
4.734
4.725
4.723
4.725
4.721
4.725
4.734
4.742
4.743
4.736
4.730
4.736
4.734
4.727
4.723
4.728
4.737
4.738
4.743
4.738
4.734
4.738
4.734
4.736
4.735
4.733
4.738
4.749
4.754
4.750
4.749
4.753
4.746
4.745
4.745
4.744
4.746
4.744
4.753
4.752
4.751
4.750
4.748
4.749
4.751
4.752
4.748
4.747
4.748
4.752
4.760
4.767
4.768
4.769
4.765
4.767
4.765
4.763
4.762
4.769
4.768
4.756
4.765
4.774
4.773
4.771
4.771
4.779
4.775
4.769
4.762
4.763
4.760
4.758
4.762
4.771
4.779
4.774
4.767
4.763
4.757
4.752
4.746
4.741
4.737
4.744
4.751
4.761
4.757
4.756
4.759
4.756
4.754
4.747
4.746
4.749
4.749
4.752
4.746
4.747
4.749
4.744
4.745
4.742
4.740
4.745
4.745
4.739
4.743
4.744
4.746
4.739
4.738
4.744
4.751
4.760
4.759
4.761
4.760
4.756
4.756
4.747
4.745
4.749
4.754
4.756
4.751
4.750
4.745
4.752
4.759
4.767
4.775
4.777
4.768
4.766
4.759
4.760
4.760
4.764
4.762
4.753
4.753
4.750
4.749
4.750
4.759
4.766
4.775
4.771
4.765
4.761
4.760
4.760
4.762
4.763
4.756
4.750
4.749
4.749
4.751
4.745
4.749
4.758
4.765
4.772
4.779
4.775
4.775
4.775
4.771
4.769
4.767
4.771
4.768
4.764
4.768
4.767
4.762
4.760
4.762
4.767
4.765
4.772
4.779
4.786
4.789
4.785
4.786
4.788
4.787
4.780
4.779
4.779
4.779
4.774
4.768
4.767
4.767
4.769
4.775
4.779
4.771
4.777
4.784
4.791
4.789
4.786
4.784
4.779
4.781
4.780
4.779
4.782
4.786
4.785
4.779
4.777
4.776
4.775
4.776
4.782
4.781
4.777
4.779
4.786
4.792
4.799
4.805
4.807
4.800
4.804
4.806
4.808
4.808
4.805
4.801
4.802
4.798
4.794
4.792
4.794
4.793
4.797
4.793
4.791
4.793
4.794
4.792
4.799
4.806
4.810
4.806
4.805
4.806
4.807
4.808
4.801
4.798
4.799
4.797
4.793
4.790
4.791
4.786
4.782
4.776
4.772
4.771
4.774
4.781
4.786
4.792
4.799
4.800
4.801
4.795
4.797
4.797
4.801
4.798
4.801
4.800
4.796
4.792
4.793
4.789
4.788
4.786
4.780
4.775
4.774
4.773
4.777
4.773
4.777
4.782
4.788
4.793
4.796
4.795
4.799
4.800
4.799
4.798
4.797
4.797
4.793
4.793
4.796
4.795
4.794
4.792
4.790
4.790
4.794
4.792
4.791
4.798
4.797
4.797
4.802
4.795
4.790
4.787
4.793
4.798
4.805
4.806
4.805
4.809
4.808
4.809
4.804
4.801
4.797
4.803
4.799
4.801
4.807
4.801
4.802
4.800
4.799
4.801
4.801
4.801
4.801
4.803
4.802
4.800
4.796
4.797
4.796
4.800
4.808
4.803
4.807
4.812
4.818
4.825
4.826
4.827
4.826
4.825
4.823
4.822
4.818
4.816
4.812
4.809
4.813
4.817
4.815
4.814
4.816
4.823
4.823
4.820
4.819
4.817
4.819
4.817
4.821
4.820
4.823
4.819
4.818
4.816
4.813
4.812
4.818
4.823
4.827
4.834
4.840
4.838
4.834
4.836
4.834
4.836
4.837
4.833
4.834
4.831
4.830
4.830
4.824
4.828
4.829
4.825
4.826
4.822
4.826
4.827
4.824
4.820
4.821
4.823
4.821
4.819
4.816
4.812
4.808
4.805
4.810
4.817
4.821
4.827
4.832
4.828
4.830
4.827
4.823
4.827
4.829
4.825
4.821
4.823
4.824
4.823
4.827
4.827
4.827
4.831
4.824
4.825
4.827
4.830
4.824
4.820
4.818
4.814
4.815
4.812
4.815
4.812
4.812
4.811
4.808
4.812
4.818
4.811
4.813
4.820
4.823
4.825
4.830
4.834
4.840
4.845
4.851
4.850
4.853
4.847
4.843
4.844
4.845
4.849
4.846
4.842
4.843
4.844
4.843
4.845
4.843
4.839
4.835
4.839
4.838
4.836
4.837
4.841
4.845
4.845
4.848
4.844
4.842
4.844
4.846
4.842
4.840
4.838
4.837
4.841
4.838
4.839
4.837
4.839
4.835
4.834
4.840
4.845
4.851
4.856
4.860
4.864
4.870
4.875
4.870
4.866
4.860
4.860
4.857
4.861
4.860
4.858
4.860
4.861
4.856
4.856
4.857
4.855
4.856
4.852
4.854
4.852
4.853
4.852
4.853
4.855
4.851
4.849
4.846
4.842
4.840
4.838
4.837
4.833
4.830
4.828
4.824
4.822
4.819
4.823
4.827
4.833
4.837
4.841
4.842
4.839
4.838
4.838
4.832
4.833
4.832
4.834
4.835
4.831
4.830
4.833
4.830
4.834
4.835
4.831
4.829
4.833
4.838
4.839
4.837
4.834
4.835
4.833
4.832
4.828
