2.976
3.296
3.442
3.539
3.667
3.715
3.678
3.738
3.768
3.813
3.836
3.891
3.912
3.943
3.957
3.984
3.989
3.995
4.038
4.055
4.065
4.049
4.052
4.078
4.109
4.115
4.126
4.152
4.149
4.176
4.139
4.153
4.154
4.159
4.163
4.187
4.197
4.198
4.194
4.222
4.223
4.225
4.238
4.251
4.267
4.267
4.245
4.275
4.285
4.291
4.285
4.298
4.315
4.322
4.316
4.281
4.282
4.277
4.306
4.295
4.264
4.255
4.287
4.275
4.301
4.275
4.296
4.282
4.315
4.301
4.333
4.313
4.325
4.302
4.316
4.324
4.307
4.348
4.345
4.333
4.364
4.366
4.351
4.361
4.359
4.354
4.378
4.347
4.350
4.334
4.330
4.338
4.355
4.353
4.331
4.353
4.354
4.333
4.342
4.370
4.374
4.368
4.350
4.367
4.379
4.380
4.374
4.375
4.390
4.407
4.393
4.391
4.395
4.396
4.418
4.401
4.373
4.364
4.386
4.413
4.391
4.397
4.378
4.359
4.394
4.429
4.411
4.412
4.394
4.415
4.404
4.415
4.448
4.446
4.444
4.431
4.401
4.424
4.417
4.440
4.423
4.436
4.417
4.421
4.420
4.410
4.418
4.448
4.475
4.475
4.480
4.464
4.448
4.468
4.442
4.430
4.452
4.481
4.490
4.490
4.471
4.460
4.466
4.468
4.461
4.467
4.469
4.480
4.475
4.464
4.444
4.430
4.418
4.402
4.403
4.397
4.422
4.446
4.471
4.475
4.469
4.461
4.443
4.444
4.425
4.439
4.417
4.395
4.403
4.426
4.449
4.473
4.466
4.452
4.451
4.453
4.446
4.438
4.428
4.426
4.438
4.428
4.421
4.409
4.431
4.452
4.474
4.486
4.485
4.473
4.455
4.450
4.457
4.460
4.446
4.440
4.416
4.417
4.413
4.420
4.418
4.425
4.446
4.465
4.485
4.494
4.485
4.472
4.477
4.475
4.463
4.455
4.460
4.467
4.457
4.453
4.452
4.449
4.454
4.454
4.447
4.433
4.437
4.455
4.473
4.491
4.510
4.520
4.525
4.508
4.509
4.525
4.530
4.515
4.498
4.513
4.509
4.504
4.505
4.491
4.481
4.478
4.500
4.492
4.486
4.493
4.486
4.467
4.461
4.478
4.494
4.511
4.514
4.499
4.495
4.513
4.517
4.495
4.480
4.470
4.468
4.486
4.481
4.479
4.479
4.471
4.458
4.467
4.462
4.457
4.456
4.457
4.457
4.452
4.434
4.426
4.429
4.444
4.459
4.474
4.489
4.504
4.519
4.534
4.536
4.529
4.535
4.545
4.540
4.532
4.530
4.527
4.520
4.514
4.510
4.519
4.508
4.496
4.501
4.516
4.516
4.510
4.516
4.516
4.536
4.540
4.524
4.520
4.522
4.523
4.525
4.523
4.507
4.507
4.498
4.488
4.477
4.477
4.490
4.503
4.516
4.518
4.519
4.534
4.508
4.511
4.512
4.522
4.517
4.530
4.529
4.522
4.518
4.503
4.491
4.475
4.472
4.467
4.471
4.468
4.463
4.479
4.487
4.476
4.477
4.481
4.475
4.478
4.470
4.467
4.470
4.462
4.466
4.461
4.463
4.472
4.490
4.494
4.484
4.485
4.484
4.476
4.469
4.468
4.460
4.470
4.481
4.493
4.505
4.516
4.528
4.539
4.543
4.534
4.535
4.532
4.517
4.513
4.504
4.507
4.509
4.508
4.499
4.506
4.514
4.506
4.496
4.497
4.505
4.516
4.517
4.512
4.515
4.527
4.514
4.515
4.505
4.495
4.486
4.478
4.482
4.480
4.475
4.476
4.486
4.481
4.472
4.464
4.456
4.454
4.452
4.458
4.471
4.475
4.471
4.465
4.470
4.480
4.481
4.484
4.470
4.457
4.460
4.452
4.460
4.461
4.451
4.453
4.453
4.463
4.473
4.483
4.493
4.503
4.513
4.522
4.532
4.542
4.552
4.562
4.572
4.563
4.559
4.552
4.554
4.545
4.563
4.551
4.555
4.549
4.542
4.538
4.538
4.554
4.556
4.547
4.548
4.554
4.542
4.538
4.535
4.526
4.528
4.530
4.522
4.517
4.527
4.542
4.542
4.534
4.524
4.519
4.520
4.510
4.510
4.506
4.501
4.503
4.505
4.509
4.521
4.519
4.521
4.514
4.511
4.519
4.529
4.525
4.515
4.518
4.529
4.526
4.512
4.509
4.504
4.507
4.504
4.506
4.510
4.507
4.505
4.501
4.489
4.492
4.492
4.495
4.494
4.502
4.495
4.500
4.491
4.495
4.494
4.499
4.497
4.505
4.493
4.482
4.488
4.495
4.488
4.489
4.484
4.492
4.500
4.509
4.517
4.525
4.533
4.542
4.550
4.558
4.553
4.548
4.547
4.548
4.545
4.545
4.548
4.546
4.550
4.536
4.530
4.533
4.529
4.523
4.525
4.522
4.517
4.523
4.534
4.545
4.541
4.536
4.535
4.541
4.532
4.532
4.523
4.516
4.516
4.526
4.534
4.532
4.530
4.538
4.543
4.533
4.532
4.534
4.536
4.537
4.527
4.515
4.524
4.506
4.516
4.506
4.512
4.502
4.496
4.503
4.504
4.505
4.498
4.502
4.488
4.491
4.487
4.496
4.487
4.489
4.471
4.475
4.472
4.474
4.489
4.486
4.492
4.478
4.471
4.469
4.464
4.472
4.476
4.477
4.475
4.465
4.469
4.463
4.468
4.477
4.474
4.467
4.474
4.469
4.463
4.469
4.473
4.471
4.468
4.466
4.456
4.466
4.469
4.478
4.490
4.484
4.493
4.503
4.513
4.522
4.523
4.531
4.528
4.514
4.506
4.514
4.509
4.499
4.500
4.491
4.491
4.493
4.485
4.477
4.486
4.492
4.491
4.485
4.481
4.484
4.485
4.487
4.480
4.479
4.469
4.475
4.482
4.489
4.495
4.502
4.508
4.515
4.521
4.528
4.535
4.541
4.548
4.554
4.561
4.568
4.574
4.581
4.587
4.583
4.577
4.583
4.580
4.569
4.572
4.567
4.568
4.580
4.588
4.584
4.596
4.596
4.579
4.580
4.575
4.564
4.558
4.559
4.565
4.559
4.558
4.566
4.568
4.560
4.562
4.550
4.556
4.557
4.549
4.548
4.548
4.546
4.550
4.545
4.550
4.544
4.539
4.549
4.559
4.570
4.578
4.577
4.578
4.565
4.563
4.561
4.565
4.567
4.574
4.572
4.580
4.575
4.568
4.557
4.560
4.549
4.539
4.529
4.535
4.523
4.534
4.529
4.533
4.537
4.534
4.530
4.539
4.548
4.556
4.565
4.558
4.546
4.543
4.537
4.530
4.524
4.530
4.535
4.529
4.524
4.527
4.528
4.539
4.541
4.537
4.536
4.531
4.529
4.523
4.517
4.516
4.511
4.510
4.500
4.498
4.492
4.496
4.491
4.487
4.479
4.480
4.478
4.478
4.476
4.478
4.472
4.483
4.484
4.494
4.485
4.484
4.489
4.491
4.488
4.485
4.493
4.496
4.494
4.498
4.503
4.512
4.515
4.510
4.508
4.502
4.498
4.494
4.494
4.484
4.477
4.483
4.469
4.465
4.475
4.472
4.474
4.467
4.463
4.456
4.457
4.455
4.447
4.448
4.440
4.451
4.448
4.450
4.448
4.441
4.448
4.451
4.457
4.451
4.451
4.458
4.461
4.454
4.455
4.466
4.460
4.464
4.460
4.458
4.452
4.448
4.451
4.448
4.442
4.451
4.441
4.442
4.452
4.462
4.466
4.459
4.461
4.471
4.460
4.459
4.461
4.449
4.450
4.446
4.438
4.437
4.435
4.432
4.430
4.433
4.428
4.423
4.433
4.437
4.437
4.435
4.433
4.438
4.433
4.435
4.434
4.437
4.442
4.447
4.452
4.457
4.462
4.467
4.472
4.477
4.482
4.487
4.491
4.496
4.501
4.506
4.511
4.516
4.521
4.526
4.531
4.536
4.541
4.546
4.551
4.556
4.561
4.566
4.571
4.576
4.580
4.585
4.590
4.595
4.600
4.605
4.610
4.615
4.620
4.625
4.630
4.635
4.640
4.644
4.637
4.638
4.633
4.627
4.627
4.623
4.625
4.616
4.612
4.607
4.604
4.602
4.596
4.607
4.598
4.596
4.593
4.598
4.594
4.603
4.597
4.599
4.598
4.593
4.596
4.593
4.601
4.600
4.595
4.589
4.584
4.579
4.582
4.581
4.584
4.579
4.573
4.566
4.578
4.573
4.568
4.561
4.565
4.571
4.568
4.574
4.578
4.579
4.582
4.582
4.581
4.577
4.572
4.574
4.567
4.561
4.558
4.555
4.559
4.569
4.561
