2.987
3.325
3.495
3.615
3.712
3.798
3.820
3.892
3.877
3.927
3.976
4.016
4.057
3.997
3.979
4.004
4.024
4.044
4.066
4.081
4.087
4.111
4.117
4.137
4.150
4.157
4.173
4.180
4.180
4.199
4.213
4.211
4.219
4.232
4.245
4.254
4.267
4.253
4.259
4.275
4.284
4.292
4.292
4.312
4.317
4.301
4.307
4.315
4.316
4.320
4.337
4.346
4.343
4.352
4.360
4.372
4.385
4.373
4.352
4.360
4.367
4.371
4.376
4.374
4.379
4.387
4.398
4.391
4.410
4.407
4.412
4.412
4.413
4.421
4.433
4.429
4.436
4.450
4.453
4.446
4.450
4.456
4.453
4.430
4.431
4.437
4.431
4.434
4.438
4.448
4.458
4.451
4.449
4.444
4.451
4.459
4.454
4.465
4.464
4.481
4.478
4.469
4.474
4.486
4.489
4.484
4.494
4.504
4.488
4.488
4.481
4.494
4.493
4.495
4.494
4.502
4.511
4.509
4.520
4.512
4.520
4.513
4.517
4.521
4.527
4.528
4.538
4.533
4.544
4.536
4.549
4.550
4.540
4.536
4.542
4.539
4.542
4.531
4.548
4.541
4.552
4.556
4.555
4.566
4.555
4.562
4.575
4.563
4.578
4.579
4.574
4.584
4.586
4.572
4.574
4.562
4.550
4.537
4.549
4.549
4.539
4.550
4.542
4.546
4.554
4.556
4.550
4.551
4.574
4.567
4.565
4.571
4.572
4.573
4.569
4.556
4.552
4.546
4.566
4.554
4.543
4.554
4.558
4.541
4.541
4.557
4.560
4.559
4.554
4.559
4.577
4.565
4.567
4.561
4.577
4.576
4.564
4.566
4.568
4.581
4.578
4.579
4.568
4.578
4.595
4.591
4.596
4.587
4.582
4.604
4.606
4.598
4.597
4.581
4.595
4.592
4.587
4.586
4.586
4.594
4.593
4.597
4.593
4.591
4.585
4.605
4.616
4.614
4.600
4.599
4.593
4.608
4.617
4.618
4.611
4.607
4.603
4.607
4.624
4.635
4.632
4.628
4.622
4.616
4.615
4.633
4.639
4.630
4.630
4.629
4.628
4.625
4.635
4.641
4.642
4.631
4.620
4.609
4.612
4.627
4.624
4.612
4.617
4.614
4.608
4.600
4.616
4.615
4.610
4.607
4.602
4.604
4.603
4.598
4.615
4.632
4.632
4.627
4.627
4.622
4.607
4.605
4.611
4.620
4.633
4.630
4.635
4.628
4.622
4.608
4.599
4.601
4.617
4.632
4.635
4.635
4.632
4.624
4.619
4.618
4.621
4.622
4.621
4.634
4.649
4.649
4.645
4.645
4.634
4.634
4.639
4.631
4.630
4.632
4.641
4.653
4.652
4.646
4.644
4.640
4.647
4.644
4.639
4.644
4.634
4.638
4.650
4.664
4.669
4.678
4.666
4.661
4.665
4.662
4.654
4.660
4.651
4.648
4.651
4.661
4.675
4.675
4.663
4.666
4.672
4.667
4.665
4.655
4.645
4.635
4.641
4.646
4.659
4.665
4.671
4.661
4.655
4.647
4.639
4.641
4.642
4.633
4.633
4.640
4.638
4.644
4.656
4.669
4.675
4.676
4.675
4.672
4.665
4.653
4.651
4.648
4.644
4.650
4.653
4.656
4.642
4.652
4.664
4.676
4.683
4.691
4.684
4.685
4.685
4.675
4.672
4.669
4.669
4.664
4.668
4.664
4.658
4.669
4.668
4.668
4.678
4.690
4.701
4.705
4.701
4.695
4.697
4.692
4.692
4.696
4.690
4.695
4.691
4.690
4.682
4.691
4.691
4.682
4.675
4.686
4.697
4.704
4.705
4.705
4.696
4.693
4.688
4.679
4.680
4.680
4.677
4.672
4.672
4.676
4.680
4.676
4.674
4.671
4.674
4.685
4.695
4.706
4.714
4.707
4.705
4.705
4.707
4.702
4.708
4.705
4.708
4.699
4.702
4.697
4.703
4.699
4.699
4.696
4.697
4.697
4.697
4.697
4.694
4.704
4.714
4.724
4.734
4.744
4.745
4.740
4.734
4.730
4.725
4.721
4.715
4.720
4.714
4.718
4.719
4.719
4.718
4.715
4.708
4.706
4.707
4.709
4.704
4.704
4.708
4.718
4.727
4.733
4.728
4.722
4.717
4.711
4.706
4.700
4.695
4.698
4.691
4.689
4.689
4.687
4.694
4.690
4.683
4.690
4.691
4.690
4.696
4.692
4.692
4.689
4.696
4.705
4.712
4.709
4.713
4.710
4.707
4.706
4.699
4.701
4.692
4.695
4.700
4.702
4.695
4.691
4.695
4.689
4.682
4.678
4.674
4.677
4.671
4.665
4.667
4.669
4.671
4.667
4.675
4.684
4.692
4.701
4.709
4.718
4.727
4.727
4.722
4.721
4.717
4.709
4.705
4.704
4.705
4.713
4.713
4.711
4.706
4.704
4.703
4.704
4.702
4.695
4.689
4.686
4.680
4.675
4.674
4.680
4.674
4.668
4.661
4.666
4.674
4.683
4.691
4.699
4.707
4.711
4.704
4.707
4.701
4.702
4.698
4.706
4.711
4.712
4.703
4.712
4.706
4.706
4.712
4.706
4.713
4.716
4.715
4.707
4.706
4.705
4.698
4.697
4.689
4.692
4.691
4.685
4.689
4.687
4.687
4.691
4.691
4.689
4.686
4.686
4.685
4.693
4.700
4.708
4.715
4.717
4.719
4.720
4.711
4.717
4.714
4.712
4.709
4.716
4.721
4.713
4.710
4.701
4.696
4.699
4.703
4.707
4.703
4.704
4.705
4.708
4.699
4.692
4.691
4.697
4.699
4.696
4.693
4.696
4.702
4.700
4.702
4.702
4.700
4.694
4.690
4.688
4.691
4.681
4.683
4.690
4.698
4.704
4.711
4.719
4.725
4.729
4.721
4.725
4.728
4.728
4.727
4.730
4.725
4.731
4.726
4.727
4.722
4.724
4.724
4.721
4.715
4.711
4.709
4.713
4.711
4.707
4.710
4.709
4.708
4.703
4.701
4.703
4.704
4.710
4.708
4.711
4.718
4.718
4.717
4.714
4.709
4.703
4.706
4.708
4.705
4.699
4.699
4.691
4.682
4.683
4.690
4.696
4.703
4.709
4.716
4.722
4.729
4.736
4.742
4.747
4.740
4.734
4.733
4.733
4.743
4.746
4.747
4.742
4.746
4.744
4.746
4.753
4.749
4.745
4.743
4.739
4.736
4.734
4.732
4.728
4.731
4.729
4.730
4.727
4.733
4.728
4.728
4.721
4.713
4.711
4.721
4.717
4.723
4.719
4.722
4.721
4.724
4.723
4.730
4.730
4.719
4.718
4.709
4.712
4.720
4.727
4.718
4.721
4.721
4.716
4.717
4.720
4.721
4.717
4.716
4.722
4.728
4.735
4.741
4.747
4.752
4.759
4.765
4.771
4.772
4.771
4.779
4.781
4.782
4.782
4.779
4.774
4.776
4.766
4.768
4.769
4.771
4.769
4.770
4.768
4.766
4.757
4.760
4.756
4.759
4.759
4.763
4.764
4.756
4.757
4.753
4.754
4.749
4.747
4.755
4.756
4.758
4.760
4.764
4.757
4.751
4.744
4.741
4.746
4.746
4.737
4.729
4.725
4.722
4.726
4.727
4.728
4.730
4.730
4.727
4.728
4.730
4.734
4.729
4.724
4.719
4.714
4.709
4.706
4.712
4.717
4.723
4.728
4.734
4.739
4.745
4.748
4.752
4.752
4.755
4.763
4.766
4.766
4.770
4.765
4.763
4.759
4.757
4.753
4.750
4.751
4.756
4.753
4.756
4.754
4.746
4.739
4.738
4.738
4.738
4.740
4.739
4.737
4.730
4.724
4.727
4.727
4.727
4.721
4.726
4.726
4.729
4.729
4.728
4.731
4.726
4.727
4.725
4.725
4.722
4.719
4.719
4.718
4.725
4.723
4.720
4.728
4.734
4.735
4.732
4.728
4.724
4.729
4.726
4.724
4.726
4.727
4.727
4.724
4.718
4.718
4.713
4.710
4.708
4.706
4.707
4.703
4.703
4.703
4.707
4.707
4.708
4.712
4.710
4.712
4.717
4.722
4.727
4.732
4.737
4.742
4.747
4.752
4.757
4.762
4.767
4.772
4.778
4.779
4.779
4.773
4.776
4.781
4.781
4.783
4.778
4.769
4.772
4.770
4.766
4.765
4.767
4.769
4.762
4.759
4.753
4.758
4.759
4.765
4.772
4.774
4.777
4.777
4.777
4.781
4.780
4.772
4.770
4.766
4.762
4.762
4.768
4.769
4.762
4.766
4.764
4.760
4.761
4.769
4.773
4.773
4.769
4.767
4.768
4.771
4.772
4.771
4.771
4.772
4.772
4.766
4.760
4.763
