2.990
3.325
3.500
3.636
3.675
3.777
3.780
3.852
3.910
3.959
3.923
3.908
3.926
3.957
3.974
3.998
4.027
4.042
4.065
4.075
4.088
4.093
4.119
4.135
4.129
4.144
4.169
4.188
4.167
4.189
4.198
4.212
4.225
4.241
4.214
4.237
4.239
4.247
4.256
4.259
4.282
4.288
4.293
4.289
4.283
4.280
4.293
4.294
4.304
4.311
4.317
4.330
4.327
4.327
4.349
4.349
4.356
4.371
4.378
4.366
4.370
4.384
4.365
4.354
4.364
4.359
4.369
4.374
4.370
4.369
4.373
4.375
4.388
4.391
4.400
4.397
4.409
4.415
4.421
4.422
4.415
4.411
4.406
4.410
4.420
4.435
4.429
4.438
4.452
4.445
4.439
4.448
4.456
4.461
4.469
4.463
4.475
4.481
4.467
4.480
4.470
4.460
4.471
4.473
4.492
4.474
4.493
4.496
4.502
4.499
4.509
4.503
4.508
4.509
4.504
4.510
4.493
4.477
4.482
4.466
4.476
4.479
4.475
4.497
4.486
4.485
4.504
4.501
4.496
4.499
4.478
4.494
4.486
4.472
4.485
4.471
4.473
4.490
4.485
4.486
4.502
4.500
4.495
4.494
4.499
4.494
4.492
4.512
4.503
4.498
4.504
4.525
4.522
4.521
4.512
4.532
4.532
4.514
4.505
4.526
4.524
4.505
4.520
4.528
4.531
4.531
4.532
4.518
4.545
4.529
4.532
4.530
4.529
4.555
4.564
4.555
4.552
4.545
4.557
4.569
4.564
4.565
4.551
4.553
4.572
4.572
4.564
4.559
4.554
4.561
4.550
4.546
4.531
4.541
4.546
4.539
4.531
4.533
4.526
4.523
4.542
4.565
4.557
4.552
4.544
4.548
4.534
4.552
4.561
4.565
4.563
4.554
4.539
4.531
4.552
4.565
4.558
4.554
4.554
4.547
4.551
4.549
4.563
4.583
4.582
4.571
4.567
4.565
4.571
4.556
4.562
4.578
4.581
4.582
4.577
4.576
4.575
4.567
4.579
4.569
4.587
4.606
4.602
4.597
4.593
4.600
4.587
4.580
4.577
4.581
4.599
4.608
4.604
4.604
4.596
4.597
4.584
4.571
4.567
4.579
4.597
4.590
4.583
4.573
4.578
4.578
4.572
4.562
4.576
4.580
4.581
4.597
4.607
4.590
4.596
4.585
4.596
4.583
4.586
4.586
4.581
4.579
4.582
4.599
4.615
4.619
4.615
4.610
4.614
4.608
4.606
4.605
4.614
4.610
4.617
4.602
4.607
4.614
4.629
4.636
4.638
4.641
4.641
4.640
4.628
4.624
4.613
4.615
4.602
4.613
4.612
4.616
4.624
4.633
4.621
4.629
4.622
4.621
4.618
4.627
4.622
4.611
4.614
4.613
4.609
4.610
4.603
4.613
4.627
4.641
4.653
4.656
4.662
4.659
4.654
4.654
4.640
4.634
4.636
4.645
4.654
4.664
4.652
4.649
4.637
4.643
4.638
4.648
4.661
4.674
4.669
4.669
4.671
4.664
4.666
4.664
4.665
4.666
4.659
4.651
4.653
4.640
4.637
4.652
4.639
4.644
4.643
4.655
4.656
4.649
4.649
4.654
4.645
4.635
4.638
4.643
4.651
4.644
4.635
4.626
4.617
4.608
4.612
4.603
4.604
4.610
4.622
4.634
4.642
4.643
4.645
4.634
4.631
4.629
4.627
4.630
4.623
4.633
4.631
4.631
4.619
4.618
4.625
4.630
4.631
4.632
4.625
4.612
4.621
4.622
4.618
4.629
4.641
4.647
4.637
4.639
4.632
4.627
4.629
4.627
4.629
4.628
4.627
4.619
4.626
4.624
4.621
4.608
4.610
4.603
4.605
4.605
4.604
4.610
4.617
4.624
4.626
4.619
4.626
4.633
4.644
4.654
4.659
4.650
4.649
4.648
4.640
4.639
4.640
4.644
4.650
4.639
4.629
4.628
4.632
4.633
4.631
4.637
4.634
4.621
4.617
4.619
4.617
4.615
4.609
4.612
4.613
4.607
4.608
4.618
4.627
4.637
4.647
4.657
4.664
4.664
4.666
4.675
4.668
4.664
4.662
4.656
4.662
4.655
4.655
4.646
4.636
4.629
4.629
4.625
4.629
4.628
4.630
4.624
4.623
4.634
4.633
4.633
4.633
4.631
4.635
4.629
4.621
4.628
4.625
4.622
4.631
4.633
4.642
4.651
4.660
4.669
4.676
4.667
4.669
4.663
4.651
4.654
4.658
4.665
4.661
4.664
4.674
4.668
4.670
4.664
4.665
4.662
4.654
4.649
4.653
4.654
4.654
4.666
4.662
4.651
4.640
4.648
4.646
4.644
4.640
4.638
4.644
4.652
4.650
4.645
4.643
4.640
4.637
4.630
4.637
4.645
4.654
4.662
4.670
4.679
4.687
4.696
4.701
4.709
4.708
4.707
4.700
4.702
4.695
4.692
4.690
4.693
4.687
4.691
4.692
4.688
4.682
4.677
4.675
4.674
4.675
4.686
4.682
4.694
4.687
4.680
4.684
4.684
4.685
4.691
4.694
4.695
4.694
4.691
4.683
4.686
4.678
4.670
4.672
4.676
4.674
4.670
4.662
4.655
4.665
4.671
4.663
4.663
4.665
4.673
4.681
4.688
4.696
4.704
4.707
4.701
4.700
4.700
4.697
4.691
4.684
4.676
4.678
4.678
4.681
4.683
4.679
4.674
4.669
4.667
4.669
4.668
4.670
4.663
4.668
4.664
4.661
4.659
4.661
4.651
4.657
4.652
4.650
4.640
4.647
4.645
4.647
4.647
4.656
4.666
4.667
4.666
4.666
4.664
4.655
4.657
4.647
4.640
4.647
4.640
4.635
4.633
4.626
4.630
4.632
4.639
4.646
4.653
4.660
4.667
4.674
4.681
4.688
4.695
4.702
4.708
4.712
4.714
4.712
4.706
4.701
4.703
4.700
4.703
4.696
4.699
4.694
4.692
4.689
4.687
4.683
4.682
4.690
4.695
4.691
4.699
4.698
4.693
4.696
4.698
4.690
4.690
4.686
4.691
4.691
4.681
4.680
4.691
4.687
4.685
4.688
4.690
4.687
4.692
4.691
4.682
4.685
4.684
4.682
4.677
4.679
4.678
4.677
4.671
4.669
4.666
4.670
4.673
4.669
4.670
4.667
4.673
4.676
4.677
4.671
4.670
4.672
4.680
4.689
4.691
4.689
4.687
4.679
4.678
4.688
4.684
4.689
4.692
4.697
4.703
4.710
4.716
4.722
4.728
4.735
4.731
4.730
4.726
4.727
4.727
4.720
4.711
4.709
4.709
4.700
4.705
4.694
4.696
4.697
4.694
4.692
4.692
4.689
4.682
4.675
4.678
4.679
4.673
4.676
4.669
4.671
4.667
4.665
4.665
4.674
4.674
4.671
4.667
4.666
4.674
4.679
4.680
4.674
4.676
4.678
4.671
4.664
4.666
4.662
4.658
4.662
4.667
4.666
4.669
4.668
4.663
4.664
4.669
4.667
4.660
4.654
4.647
4.641
4.636
4.636
4.634
4.632
4.628
4.630
4.629
4.626
4.629
4.623
4.622
4.625
4.625
4.630
4.629
4.633
4.633
4.634
4.639
4.644
4.650
4.656
4.661
4.667
4.672
4.678
4.683
4.689
4.695
4.700
4.706
4.711
4.717
4.723
4.728
4.733
4.732
4.735
4.736
4.730
4.723
4.725
4.727
4.725
4.735
4.739
4.746
4.743
4.738
4.736
4.740
4.740
4.737
4.740
4.732
4.731
4.726
4.722
4.720
4.714
4.714
4.711
4.714
4.708
4.700
4.695
4.696
4.700
4.696
4.696
4.700
4.696
4.700
4.702
4.704
4.699
4.702
4.698
4.693
4.694
4.690
4.691
4.690
4.685
4.680
4.674
4.669
4.664
4.659
4.655
4.648
4.648
4.644
4.651
4.651
4.649
4.650
4.653
4.656
4.654
4.644
4.640
4.641
4.641
4.648
4.647
4.646
4.650
4.657
4.655
4.657
4.664
4.660
4.659
4.657
4.653
4.653
4.655
4.648
4.646
4.651
4.655
4.656
4.654
4.655
4.658
4.664
4.666
4.671
4.677
4.675
4.672
4.666
4.666
4.671
4.671
4.670
4.669
4.673
4.670
4.666
4.660
4.665
4.670
4.675
4.680
4.685
4.690
4.694
4.699
4.704
4.709
4.714
4.719
4.718
4.720
4.723
4.718
4.720
4.715
4.716
4.722
4.718
4.719
4.712
4.711
4.715
4.716
4.715
4.717
4.712
4.710
4.704
4.705
4.703
4.701
4.703
4.700
4.697
4.695
4.700
4.704
4.707
4.704
4.706
4.707
4.707
4.710
4.707
4.712
4.716
