2.987
3.329
3.517
3.627
3.706
3.775
3.806
3.880
3.898
3.920
3.970
4.005
4.045
4.079
4.056
4.008
4.028
4.045
4.060
4.077
4.099
4.109
4.131
4.132
4.153
4.158
4.171
4.176
4.187
4.200
4.214
4.215
4.229
4.238
4.251
4.240
4.250
4.264
4.273
4.291
4.296
4.279
4.286
4.300
4.304
4.310
4.323
4.329
4.334
4.344
4.329
4.332
4.346
4.349
4.352
4.351
4.369
4.370
4.381
4.378
4.390
4.403
4.401
4.414
4.402
4.374
4.387
4.395
4.394
4.408
4.408
4.403
4.413
4.417
4.424
4.429
4.430
4.436
4.445
4.438
4.439
4.443
4.449
4.463
4.467
4.463
4.467
4.475
4.480
4.481
4.474
4.484
4.484
4.463
4.454
4.460
4.469
4.466
4.472
4.477
4.475
4.475
4.490
4.470
4.475
4.476
4.485
4.486
4.483
4.488
4.495
4.498
4.498
4.510
4.500
4.502
4.508
4.521
4.514
4.525
4.525
4.524
4.517
4.524
4.517
4.516
4.517
4.525
4.527
4.526
4.538
4.534
4.547
4.544
4.554
4.546
4.554
4.539
4.552
4.555
4.563
4.556
4.563
4.572
4.560
4.571
4.570
4.579
4.579
4.570
4.570
4.572
4.577
4.562
4.569
4.563
4.579
4.571
4.568
4.588
4.585
4.582
4.598
4.587
4.588
4.607
4.589
4.595
4.610
4.600
4.601
4.613
4.610
4.601
4.592
4.581
4.570
4.565
4.570
4.579
4.569
4.568
4.574
4.577
4.568
4.580
4.580
4.585
4.573
4.593
4.600
4.595
4.591
4.602
4.600
4.598
4.595
4.588
4.581
4.577
4.586
4.586
4.587
4.571
4.584
4.580
4.578
4.574
4.579
4.589
4.580
4.580
4.580
4.592
4.604
4.599
4.587
4.590
4.600
4.611
4.605
4.593
4.589
4.604
4.609
4.603
4.600
4.595
4.604
4.613
4.611
4.613
4.607
4.612
4.618
4.622
4.624
4.623
4.619
4.619
4.627
4.617
4.616
4.614
4.611
4.613
4.627
4.614
4.614
4.609
4.614
4.613
4.630
4.630
4.630
4.631
4.629
4.626
4.623
4.641
4.637
4.625
4.626
4.636
4.623
4.628
4.646
4.649
4.655
4.647
4.650
4.645
4.646
4.644
4.661
4.661
4.656
4.662
4.661
4.654
4.644
4.653
4.669
4.669
4.662
4.655
4.663
4.664
4.656
4.647
4.638
4.635
4.636
4.636
4.631
4.635
4.634
4.649
4.642
4.630
4.635
4.628
4.627
4.626
4.621
4.636
4.647
4.649
4.643
4.638
4.634
4.638
4.643
4.644
4.639
4.646
4.653
4.652
4.651
4.653
4.642
4.636
4.639
4.639
4.645
4.647
4.651
4.650
4.647
4.639
4.645
4.641
4.643
4.639
4.640
4.641
4.652
4.659
4.667
4.667
4.660
4.660
4.660
4.660
4.662
4.665
4.659
4.655
4.662
4.671
4.675
4.675
4.678
4.672
4.671
4.657
4.651
4.651
4.652
4.658
4.660
4.673
4.686
4.682
4.678
4.680
4.676
4.677
4.682
4.683
4.683
4.676
4.673
4.675
4.674
4.685
4.698
4.707
4.698
4.698
4.691
4.686
4.685
4.684
4.688
4.685
4.682
4.686
4.682
4.685
4.697
4.695
4.687
4.683
4.682
4.679
4.679
4.675
4.672
4.673
4.671
4.667
4.667
4.673
4.684
4.690
4.679
4.677
4.675
4.675
4.668
4.673
4.677
4.679
4.672
4.670
4.675
4.675
4.672
4.670
4.681
4.692
4.692
4.693
4.692
4.694
4.696
4.690
4.686
4.683
4.679
4.674
4.676
4.689
4.692
4.685
4.681
4.683
4.685
4.695
4.706
4.715
4.706
4.706
4.710
4.704
4.706
4.710
4.706
4.701
4.702
4.703
4.700
4.701
4.704
4.703
4.704
4.706
4.704
4.703
4.714
4.724
4.732
4.733
4.739
4.732
4.727
4.720
4.717
4.719
4.714
4.725
4.720
4.715
4.713
4.711
4.715
4.705
4.700
4.694
4.703
4.713
4.723
4.723
4.725
4.724
4.724
4.720
4.712
4.712
4.710
4.714
4.714
4.711
4.704
4.704
4.705
4.712
4.709
4.710
4.710
4.704
4.698
4.703
4.712
4.721
4.731
4.740
4.740
4.738
4.737
4.741
4.736
4.732
4.738
4.736
4.734
4.732
4.738
4.744
4.740
4.739
4.736
4.732
4.726
4.721
4.724
4.723
4.726
4.731
4.732
4.739
4.748
4.745
4.753
4.762
4.760
4.759
4.759
4.752
4.748
4.747
4.743
4.748
4.748
4.748
4.748
4.749
4.748
4.753
4.748
4.745
4.737
4.737
4.746
4.748
4.743
4.741
4.735
4.727
4.732
4.730
4.728
4.728
4.736
4.735
4.736
4.734
4.733
4.732
4.724
4.729
4.732
4.728
4.725
4.724
4.728
4.727
4.727
4.723
4.724
4.720
4.720
4.714
4.708
4.702
4.698
4.700
4.708
4.716
4.724
4.732
4.740
4.741
4.734
4.727
4.727
4.725
4.721
4.720
4.714
4.715
4.726
4.726
4.716
4.712
4.710
4.716
4.714
4.709
4.704
4.704
4.709
4.705
4.701
4.701
4.704
4.704
4.706
4.703
4.698
4.701
4.708
4.711
4.717
4.725
4.732
4.739
4.747
4.747
4.746
4.742
4.744
4.738
4.744
4.740
4.738
4.740
4.734
4.727
4.722
4.717
4.719
4.712
4.710
4.706
4.716
4.714
4.710
4.711
4.701
4.696
4.704
4.698
4.703
4.703
4.697
4.695
4.691
4.693
4.695
4.701
4.708
4.715
4.723
4.730
4.737
4.740
4.743
4.740
4.735
4.737
4.736
4.738
4.747
4.745
4.743
4.746
4.745
4.746
4.747
4.745
4.744
4.746
4.741
4.737
4.734
4.731
4.723
4.724
4.716
4.711
4.709
4.712
4.712
4.709
4.713
4.713
4.717
4.721
4.715
4.709
4.702
4.703
4.699
4.699
4.706
4.713
4.719
4.726
4.733
4.739
4.746
4.748
4.746
4.748
4.746
4.743
4.738
4.739
4.740
4.743
4.738
4.737
4.733
4.732
4.728
4.728
4.727
4.733
4.734
4.734
4.739
4.741
4.739
4.736
4.734
4.730
4.731
4.735
4.732
4.729
4.727
4.723
4.727
4.728
4.730
4.733
4.728
4.721
4.722
4.720
4.714
4.716
4.713
4.708
4.704
4.708
4.714
4.721
4.727
4.733
4.739
4.745
4.752
4.758
4.759
4.764
4.763
4.765
4.763
4.766
4.760
4.762
4.760
4.755
4.751
4.748
4.753
4.746
4.745
4.740
4.742
4.742
4.744
4.742
4.746
4.748
4.747
4.744
4.736
4.739
4.734
4.734
4.735
4.733
4.735
4.743
4.742
4.746
4.742
4.741
4.735
4.728
4.721
4.720
4.723
4.726
4.724
4.728
4.727
4.727
4.723
4.723
4.723
4.721
4.723
4.721
4.723
4.729
4.734
4.740
4.745
4.751
4.757
4.763
4.769
4.774
4.774
4.773
4.767
4.771
4.777
4.776
4.769
4.768
4.771
4.766
4.770
4.775
4.780
4.774
4.771
4.768
4.764
4.761
4.760
4.760
4.761
4.765
4.759
4.754
4.755
4.757
4.754
4.751
4.751
4.747
4.745
4.746
4.747
4.750
4.757
4.760
4.765
4.760
4.759
4.753
4.755
4.756
4.757
4.755
4.748
4.744
4.742
4.741
4.741
4.744
4.751
4.757
4.754
4.754
4.747
4.747
4.745
4.748
4.747
4.746
4.741
4.743
4.752
4.749
4.752
4.757
4.763
4.768
4.774
4.779
4.784
4.789
4.795
4.800
4.804
4.805
4.804
4.801
4.801
4.799
4.806
4.804
4.803
4.805
4.799
4.804
4.803
4.802
4.801
4.798
4.793
4.787
4.782
4.777
4.772
4.773
4.776
4.773
4.770
4.770
4.777
4.784
4.791
4.785
4.779
4.775
4.769
4.777
4.777
4.781
4.783
4.779
4.771
4.769
4.764
4.766
4.771
4.770
4.769
4.765
4.758
4.760
4.761
4.757
4.753
4.749
4.745
4.741
4.736
4.735
4.738
4.744
4.737
4.739
4.735
4.730
4.724
4.717
4.717
4.721
4.726
4.731
4.736
4.740
4.745
4.750
4.755
4.760
4.765
4.770
4.774
4.779
4.784
4.785
4.790
4.792
4.791
4.787
4.784
4.777
4.781
4.780
4.781
4.778
4.775
4.782
4.782
4.782
4.778
4.781
4.775
4.775
