2.992
3.325
3.515
3.630
3.710
3.777
3.825
3.890
3.910
3.969
3.959
3.985
4.019
4.054
4.085
4.113
4.142
4.139
4.084
4.085
4.096
4.108
4.130
4.142
4.149
4.163
4.171
4.184
4.200
4.205
4.218
4.217
4.228
4.241
4.256
4.254
4.262
4.276
4.285
4.278
4.287
4.300
4.307
4.317
4.313
4.318
4.321
4.328
4.334
4.345
4.354
4.359
4.351
4.354
4.355
4.367
4.373
4.372
4.383
4.394
4.394
4.397
4.408
4.403
4.393
4.393
4.403
4.412
4.414
4.420
4.419
4.425
4.435
4.437
4.441
4.441
4.444
4.453
4.459
4.462
4.467
4.473
4.450
4.444
4.446
4.453
4.454
4.469
4.461
4.474
4.477
4.474
4.470
4.475
4.481
4.489
4.491
4.491
4.498
4.503
4.501
4.495
4.503
4.506
4.511
4.511
4.522
4.522
4.526
4.528
4.536
4.531
4.542
4.539
4.538
4.542
4.540
4.538
4.530
4.513
4.517
4.520
4.515
4.523
4.530
4.525
4.528
4.529
4.535
4.542
4.534
4.546
4.535
4.535
4.531
4.533
4.542
4.542
4.542
4.553
4.545
4.554
4.553
4.559
4.564
4.567
4.567
4.559
4.562
4.565
4.570
4.573
4.581
4.580
4.584
4.586
4.575
4.578
4.574
4.583
4.573
4.581
4.573
4.590
4.577
4.590
4.583
4.589
4.593
4.592
4.602
4.603
4.606
4.607
4.599
4.612
4.606
4.607
4.608
4.606
4.614
4.612
4.619
4.621
4.622
4.627
4.625
4.629
4.634
4.631
4.628
4.631
4.617
4.629
4.632
4.628
4.632
4.624
4.626
4.630
4.622
4.621
4.633
4.634
4.627
4.631
4.645
4.647
4.643
4.649
4.652
4.647
4.645
4.660
4.659
4.649
4.654
4.663
4.665
4.659
4.664
4.656
4.647
4.639
4.630
4.622
4.622
4.621
4.625
4.617
4.632
4.631
4.629
4.628
4.636
4.629
4.626
4.624
4.633
4.641
4.637
4.633
4.633
4.646
4.647
4.647
4.643
4.650
4.656
4.656
4.655
4.649
4.650
4.648
4.637
4.636
4.632
4.647
4.639
4.631
4.632
4.637
4.634
4.633
4.638
4.636
4.630
4.641
4.640
4.638
4.632
4.634
4.637
4.648
4.646
4.647
4.645
4.641
4.646
4.660
4.652
4.649
4.655
4.653
4.647
4.659
4.659
4.656
4.650
4.647
4.648
4.660
4.664
4.665
4.659
4.659
4.653
4.655
4.669
4.672
4.673
4.671
4.676
4.670
4.671
4.674
4.686
4.687
4.683
4.681
4.675
4.664
4.673
4.677
4.677
4.676
4.671
4.667
4.667
4.669
4.677
4.672
4.676
4.673
4.671
4.673
4.673
4.673
4.687
4.692
4.687
4.687
4.684
4.687
4.682
4.687
4.686
4.690
4.688
4.692
4.684
4.686
4.689
4.680
4.682
4.693
4.707
4.705
4.702
4.704
4.706
4.705
4.708
4.704
4.699
4.707
4.717
4.713
4.713
4.717
4.709
4.714
4.705
4.697
4.702
4.714
4.724
4.722
4.720
4.718
4.713
4.708
4.701
4.694
4.703
4.700
4.697
4.693
4.687
4.690
4.694
4.689
4.688
4.688
4.697
4.696
4.687
4.685
4.686
4.682
4.686
4.679
4.684
4.682
4.684
4.696
4.701
4.695
4.698
4.697
4.694
4.696
4.690
4.693
4.691
4.686
4.694
4.699
4.711
4.716
4.707
4.705
4.701
4.703
4.698
4.700
4.694
4.691
4.689
4.695
4.705
4.716
4.707
4.713
4.706
4.696
4.691
4.693
4.693
4.690
4.693
4.692
4.692
4.703
4.714
4.720
4.717
4.714
4.710
4.711
4.711
4.712
4.708
4.706
4.707
4.707
4.707
4.706
4.713
4.723
4.734
4.728
4.731
4.723
4.717
4.716
4.718
4.720
4.723
4.720
4.716
4.706
4.706
4.712
4.722
4.732
4.729
4.730
4.730
4.728
4.728
4.731
4.730
4.727
4.722
4.721
4.719
4.728
4.725
4.727
4.723
4.731
4.741
4.751
4.755
4.756
4.746
4.744
4.742
4.746
4.746
4.748
4.742
4.736
4.735
4.730
4.728
4.726
4.732
4.738
4.747
4.750
4.747
4.747
4.745
4.746
4.744
4.738
4.731
4.724
4.720
4.716
4.721
4.724
4.721
4.714
4.723
4.732
4.741
4.747
4.738
4.739
4.742
4.739
4.734
4.729
4.725
4.724
4.725
4.717
4.713
4.714
4.719
4.720
4.714
4.716
4.723
4.732
4.741
4.750
4.749
4.744
4.749
4.750
4.749
4.747
4.748
4.748
4.746
4.737
4.734
4.730
4.733
4.728
4.727
4.728
4.732
4.724
4.727
4.735
4.744
4.752
4.761
4.759
4.760
4.765
4.763
4.760
4.761
4.761
4.758
4.755
4.756
4.753
4.746
4.751
4.749
4.745
4.743
4.744
4.744
4.739
4.743
4.744
4.748
4.756
4.764
4.772
4.774
4.779
4.777
4.777
4.776
4.784
4.783
4.780
4.775
4.772
4.765
4.764
4.762
4.765
4.767
4.764
4.766
4.765
4.764
4.762
4.755
4.753
4.754
4.760
4.767
4.775
4.783
4.786
4.786
4.782
4.780
4.779
4.777
4.775
4.770
4.769
4.763
4.760
4.763
4.761
4.761
4.761
4.757
4.750
4.745
4.745
4.743
4.744
4.749
4.746
4.753
4.760
4.768
4.775
4.779
4.788
4.790
4.781
4.778
4.778
4.777
4.776
4.776
4.779
4.779
4.774
4.772
4.772
4.769
4.767
4.765
4.768
4.774
4.777
4.776
4.774
4.769
4.766
4.769
4.767
4.769
4.768
4.765
4.770
4.777
4.784
4.791
4.798
4.805
4.806
4.806
4.805
4.804
4.801
4.799
4.804
4.801
4.796
4.801
4.799
4.804
4.803
4.806
4.807
4.812
4.809
4.804
4.798
4.791
4.789
4.787
4.785
4.778
4.781
4.783
4.785
4.788
4.783
4.782
4.785
4.792
4.799
4.806
4.812
4.819
4.817
4.813
4.809
4.805
4.801
4.798
4.794
4.790
4.786
4.782
4.781
4.784
4.783
4.776
4.770
4.763
4.758
4.760
4.757
4.757
4.758
4.757
4.757
4.756
4.757
4.758
4.757
4.757
4.764
4.770
4.776
4.783
4.789
4.793
4.794
4.794
4.790
4.785
4.780
4.776
4.771
4.766
4.768
4.774
4.772
4.765
4.765
4.762
4.765
4.763
4.770
4.768
4.763
4.761
4.757
4.761
4.759
4.768
4.767
4.768
4.769
4.764
4.763
4.760
4.756
4.754
4.758
4.754
4.756
4.762
4.768
4.774
4.780
4.786
4.782
4.779
4.778
4.777
4.779
4.779
4.776
4.769
4.769
4.770
4.777
4.779
4.787
4.789
4.782
4.780
4.782
4.782
4.779
4.775
4.772
4.777
4.774
4.778
4.776
4.773
4.771
4.772
4.769
4.768
4.770
4.767
4.764
4.762
4.759
4.758
4.759
4.761
4.767
4.773
4.775
4.770
4.771
4.772
4.777
4.783
4.789
4.795
4.791
4.787
4.782
4.784
4.777
4.775
4.777
4.781
4.780
4.776
4.774
4.775
4.767
4.767
4.764
4.764
4.765
4.763
4.765
4.761
4.759
4.767
4.772
4.772
4.769
4.774
4.767
4.760
4.762
4.758
4.758
4.761
4.762
4.760
4.758
4.756
4.752
4.757
4.757
4.758
4.760
4.757
4.758
4.759
4.757
4.761
4.766
4.771
4.777
4.782
4.788
4.793
4.798
4.804
4.803
4.802
4.800
4.796
4.797
4.795
4.788
4.792
4.789
4.791
4.790
4.793
4.791
4.792
4.791
4.793
4.788
4.782
4.777
4.772
4.767
4.761
4.759
4.761
4.756
4.761
4.761
4.756
4.759
4.757
4.757
4.757
4.763
4.760
4.758
4.761
4.768
4.775
4.776
4.773
4.766
4.770
4.772
4.769
4.766
4.765
4.765
4.762
4.761
4.757
4.761
4.766
4.771
4.776
4.781
4.786
4.791
4.796
4.801
4.797
4.797
4.798
4.799
4.796
4.799
4.802
4.800
4.805
4.802
4.801
4.801
4.800
4.800
4.799
4.792
4.792
4.790
4.785
4.792
4.797
4.801
4.804
4.803
4.801
4.798
4.796
4.790
4.789
4.790
4.785
4.779
4.774
4.772
4.768
4.768
4.775
4.773
4.774
4.775
4.778
4.776
4.769
4.764
4.763
4.762
4.765
4.759
4.759
4.757
4.760
4.757
