2.994
3.334
3.509
3.638
3.723
3.796
3.835
3.881
3.929
3.963
4.005
4.009
4.044
4.083
4.088
4.078
4.101
4.122
4.150
4.168
4.189
4.204
4.224
4.240
4.255
4.217
4.186
4.192
4.199
4.215
4.221
4.231
4.238
4.251
4.254
4.266
4.266
4.280
4.292
4.289
4.299
4.311
4.306
4.313
4.323
4.333
4.328
4.336
4.343
4.354
4.361
4.355
4.359
4.368
4.372
4.382
4.386
4.392
4.384
4.393
4.395
4.401
4.410
4.410
4.419
4.425
4.414
4.418
4.422
4.426
4.433
4.442
4.438
4.445
4.454
4.456
4.460
4.459
4.451
4.456
4.460
4.458
4.466
4.470
4.473
4.477
4.480
4.481
4.492
4.497
4.498
4.497
4.504
4.508
4.506
4.494
4.496
4.502
4.499
4.503
4.507
4.508
4.512
4.514
4.521
4.517
4.520
4.522
4.525
4.533
4.537
4.535
4.540
4.543
4.542
4.546
4.545
4.552
4.556
4.555
4.564
4.565
4.558
4.543
4.548
4.543
4.545
4.546
4.551
4.554
4.555
4.560
4.561
4.563
4.561
4.566
4.570
4.565
4.567
4.568
4.570
4.571
4.575
4.576
4.581
4.585
4.591
4.593
4.589
4.596
4.594
4.598
4.600
4.592
4.595
4.603
4.603
4.599
4.600
4.606
4.613
4.609
4.614
4.623
4.619
4.621
4.621
4.628
4.625
4.634
4.633
4.629
4.629
4.631
4.630
4.636
4.632
4.623
4.613
4.603
4.603
4.607
4.606
4.609
4.611
4.618
4.617
4.615
4.622
4.620
4.630
4.620
4.624
4.623
4.629
4.626
4.633
4.631
4.635
4.636
4.635
4.632
4.630
4.636
4.633
4.636
4.633
4.636
4.633
4.636
4.636
4.637
4.644
4.640
4.647
4.645
4.647
4.651
4.649
4.658
4.655
4.658
4.663
4.659
4.660
4.656
4.662
4.656
4.655
4.667
4.665
4.664
4.674
4.672
4.674
4.677
4.674
4.670
4.658
4.667
4.666
4.664
4.673
4.677
4.674
4.670
4.671
4.666
4.679
4.675
4.674
4.680
4.680
4.675
4.680
4.677
4.679
4.681
4.690
4.684
4.685
4.694
4.696
4.692
4.695
4.697
4.698
4.692
4.703
4.703
4.692
4.697
4.699
4.699
4.698
4.705
4.707
4.706
4.704
4.713
4.710
4.710
4.707
4.717
4.721
4.714
4.714
4.722
4.723
4.725
4.717
4.717
4.710
4.706
4.710
4.714
4.717
4.713
4.715
4.724
4.726
4.721
4.710
4.719
4.723
4.717
4.715
4.716
4.720
4.721
4.718
4.719
4.725
4.725
4.725
4.727
4.721
4.730
4.740
4.738
4.739
4.733
4.736
4.743
4.740
4.738
4.737
4.738
4.750
4.747
4.745
4.746
4.743
4.740
4.734
4.729
4.723
4.717
4.715
4.711
4.712
4.716
4.718
4.716
4.715
4.710
4.709
4.711
4.714
4.713
4.710
4.710
4.715
4.724
4.723
4.719
4.718
4.716
4.718
4.730
4.731
4.724
4.717
4.713
4.718
4.727
4.725
4.730
4.728
4.725
4.721
4.727
4.734
4.732
4.729
4.733
4.732
4.730
4.734
4.744
4.748
4.746
4.747
4.744
4.740
4.738
4.732
4.725
4.723
4.719
4.718
4.727
4.732
4.733
4.731
4.730
4.732
4.724
4.725
4.733
4.729
4.722
4.717
4.714
4.715
4.719
4.729
4.732
4.731
4.732
4.731
4.724
4.718
4.724
4.732
4.733
4.728
4.727
4.725
4.727
4.725
4.730
4.734
4.743
4.737
4.738
4.739
4.738
4.736
4.736
4.737
4.741
4.751
4.741
4.743
4.746
4.743
4.744
4.743
4.740
4.743
4.754
4.750
4.744
4.737
4.740
4.740
4.743
4.739
4.744
4.753
4.760
4.755
4.754
4.751
4.749
4.747
4.746
4.747
4.751
4.759
4.760
4.761
4.758
4.761
4.760
4.762
4.762
4.758
4.757
4.762
4.771
4.775
4.769
4.772
4.765
4.759
4.755
4.756
4.752
4.758
4.765
4.764
4.766
4.762
4.760
4.762
4.758
4.756
4.757
4.753
4.762
4.766
4.762
4.762
4.757
4.759
4.757
4.758
4.755
4.759
4.754
4.759
4.768
4.777
4.776
4.773
4.774
4.772
4.768
4.766
4.773
4.767
4.766
4.769
4.771
4.778
4.784
4.784
4.784
4.781
4.774
4.767
4.769
4.764
4.765
4.772
4.769
4.777
4.784
4.788
4.787
4.786
4.790
4.784
4.785
4.784
4.784
4.781
4.782
4.781
4.780
4.786
4.793
4.802
4.809
4.808
4.803
4.800
4.798
4.791
4.787
4.795
4.793
4.786
4.790
4.789
4.796
4.802
4.803
4.802
4.801
4.799
4.796
4.795
4.795
4.792
4.788
4.783
4.779
4.784
4.784
4.781
4.779
4.777
4.779
4.775
4.777
4.775
4.779
4.778
4.774
4.772
4.769
4.778
4.784
4.786
4.787
4.791
4.790
4.786
4.780
4.775
4.769
4.766
4.765
4.761
4.760
4.762
4.769
4.777
4.779
4.781
4.780
4.781
4.780
4.780
4.785
4.778
4.777
4.775
4.774
4.772
4.771
4.767
4.771
4.773
4.780
4.786
4.792
4.791
4.792
4.791
4.793
4.786
4.782
4.784
4.785
4.789
4.790
4.791
4.790
4.789
4.787
4.783
4.782
4.788
4.796
4.799
4.798
4.799
4.792
4.786
4.785
4.788
4.787
4.786
4.784
4.784
4.787
4.784
4.785
4.780
4.777
4.784
4.790
4.797
4.796
4.791
4.790
4.784
4.782
4.784
4.790
4.788
4.784
4.783
4.785
4.781
4.784
4.784
4.780
4.778
4.779
4.784
4.792
4.799
4.804
4.811
4.807
4.805
4.804
4.805
4.798
4.800
4.799
4.799
4.798
4.800
4.801
4.800
4.798
4.800
4.804
4.800
4.801
4.797
4.796
4.803
4.809
4.813
4.815
4.810
4.810
4.814
4.809
4.811
4.812
4.810
4.810
4.805
4.798
4.799
4.795
4.797
4.793
4.800
4.798
4.799
4.795
4.800
4.806
4.811
4.818
4.819
4.820
4.817
4.817
4.813
4.812
4.813
4.815
4.816
4.818
4.821
4.818
4.814
4.809
4.811
4.810
4.814
4.815
4.811
4.810
4.810
4.806
4.811
4.818
4.825
4.831
4.836
4.840
4.836
4.839
4.836
4.831
4.829
4.829
4.829
4.828
4.827
4.823
4.827
4.828
4.827
4.823
4.821
4.820
4.816
4.820
4.821
4.815
4.816
4.820
4.824
4.829
4.832
4.828
4.824
4.820
4.816
4.812
4.813
4.809
4.808
4.807
4.805
4.806
4.802
4.803
4.806
4.806
4.802
4.806
4.806
4.806
4.806
4.807
4.808
4.809
4.814
4.820
4.825
4.831
4.836
4.832
4.827
4.828
4.822
4.818
4.814
4.810
4.810
4.809
4.813
4.810
4.811
4.815
4.811
4.810
4.805
4.801
4.802
4.801
4.802
4.799
4.799
4.799
4.805
4.810
4.814
4.820
4.825
4.826
4.829
4.836
4.836
4.839
4.836
4.834
4.829
4.828
4.832
4.831
4.832
4.832
4.830
4.829
4.829
4.825
4.821
4.818
4.817
4.821
4.819
4.818
4.819
4.817
4.816
4.812
4.808
4.810
4.816
4.821
4.825
4.831
4.836
4.837
4.836
4.836
4.835
4.839
4.838
4.836
4.833
4.836
4.838
4.839
4.840
4.840
4.843
4.837
4.836
4.837
4.836
4.840
4.838
4.839
4.840
4.836
4.833
4.831
4.827
4.823
4.822
4.826
4.822
4.821
4.825
4.829
4.833
4.839
4.843
4.848
4.854
4.858
4.860
4.856
4.855
4.851
4.849
4.848
4.849
4.847
4.849
4.853
4.854
4.851
4.849
4.850
4.854
4.855
4.858
4.858
4.858
4.856
4.851
4.848
4.847
4.847
4.849
4.843
4.843
4.840
4.840
4.842
4.841
4.843
4.843
4.840
4.846
4.850
4.855
4.859
4.863
4.862
4.862
4.869
4.865
4.864
4.863
4.866
4.863
4.862
4.858
4.856
4.855
4.858
4.862
4.859
4.855
4.850
4.847
4.843
4.838
4.834
4.832
4.834
4.836
4.829
4.833
4.836
4.836
4.834
4.833
4.834
4.835
4.836
4.833
4.836
4.841
4.845
4.849
4.855
4.860
4.864
4.865
4.862
4.865
4.861
4.858
4.855
4.858
4.856
4.852
4.850
4.852
4.855
4.857
4.856
