2.994
3.327
3.514
3.630
3.717
3.765
3.820
3.893
3.903
3.957
4.007
3.978
4.012
4.049
4.071
4.107
4.131
4.159
4.157
4.105
4.097
4.115
4.131
4.143
4.150
4.168
4.174
4.190
4.194
4.209
4.212
4.225
4.237
4.236
4.249
4.263
4.273
4.264
4.279
4.291
4.300
4.294
4.300
4.309
4.319
4.326
4.336
4.327
4.330
4.337
4.347
4.349
4.361
4.367
4.372
4.375
4.364
4.373
4.371
4.384
4.393
4.389
4.402
4.408
4.409
4.414
4.421
4.425
4.413
4.409
4.415
4.419
4.427
4.434
4.429
4.436
4.442
4.447
4.451
4.457
4.457
4.463
4.462
4.474
4.479
4.477
4.484
4.477
4.457
4.463
4.464
4.469
4.473
4.480
4.476
4.488
4.490
4.486
4.487
4.488
4.494
4.501
4.506
4.505
4.506
4.510
4.517
4.523
4.512
4.518
4.519
4.520
4.523
4.531
4.536
4.540
4.541
4.543
4.555
4.549
4.555
4.553
4.550
4.554
4.549
4.554
4.542
4.529
4.523
4.534
4.531
4.540
4.536
4.545
4.542
4.545
4.542
4.548
4.555
4.554
4.563
4.554
4.550
4.548
4.560
4.551
4.553
4.562
4.557
4.567
4.560
4.567
4.571
4.573
4.580
4.581
4.585
4.573
4.577
4.575
4.586
4.583
4.596
4.594
4.599
4.595
4.604
4.587
4.585
4.586
4.596
4.594
4.588
4.589
4.602
4.603
4.602
4.600
4.599
4.606
4.602
4.616
4.612
4.611
4.626
4.614
4.623
4.625
4.618
4.617
4.620
4.623
4.629
4.625
4.632
4.634
4.627
4.641
4.645
4.636
4.646
4.650
4.638
4.650
4.649
4.636
4.640
4.639
4.637
4.649
4.648
4.638
4.649
4.646
4.631
4.647
4.645
4.649
4.643
4.652
4.649
4.652
4.657
4.664
4.656
4.655
4.667
4.671
4.668
4.668
4.675
4.669
4.671
4.669
4.681
4.677
4.670
4.663
4.654
4.647
4.643
4.638
4.629
4.628
4.645
4.644
4.640
4.639
4.642
4.653
4.649
4.647
4.640
4.647
4.646
4.650
4.645
4.647
4.659
4.650
4.656
4.652
4.653
4.668
4.670
4.674
4.664
4.661
4.671
4.672
4.668
4.658
4.654
4.657
4.657
4.658
4.656
4.652
4.656
4.658
4.649
4.639
4.646
4.658
4.659
4.652
4.648
4.644
4.651
4.655
4.653
4.652
4.656
4.649
4.656
4.669
4.668
4.668
4.668
4.668
4.665
4.668
4.676
4.672
4.673
4.674
4.665
4.664
4.675
4.674
4.670
4.669
4.675
4.666
4.670
4.682
4.679
4.679
4.678
4.674
4.675
4.674
4.686
4.697
4.695
4.691
4.694
4.690
4.684
4.683
4.697
4.701
4.692
4.680
4.681
4.683
4.679
4.688
4.697
4.693
4.692
4.690
4.689
4.679
4.676
4.690
4.694
4.696
4.690
4.697
4.694
4.690
4.684
4.686
4.698
4.712
4.711
4.705
4.701
4.705
4.703
4.701
4.692
4.702
4.708
4.705
4.712
4.709
4.705
4.705
4.701
4.704
4.703
4.715
4.725
4.724
4.722
4.726
4.730
4.723
4.717
4.718
4.712
4.718
4.730
4.735
4.736
4.731
4.720
4.718
4.720
4.716
4.720
4.716
4.728
4.734
4.730
4.723
4.716
4.710
4.703
4.697
4.703
4.707
4.716
4.712
4.708
4.712
4.708
4.710
4.716
4.709
4.701
4.699
4.703
4.701
4.708
4.707
4.706
4.709
4.703
4.699
4.697
4.697
4.698
4.694
4.706
4.715
4.709
4.715
4.716
4.716
4.714
4.707
4.714
4.715
4.714
4.712
4.709
4.713
4.719
4.726
4.728
4.723
4.716
4.715
4.708
4.712
4.716
4.713
4.712
4.709
4.712
4.716
4.725
4.720
4.717
4.720
4.717
4.712
4.706
4.710
4.712
4.709
4.712
4.712
4.708
4.713
4.722
4.732
4.736
4.731
4.727
4.723
4.733
4.731
4.731
4.729
4.730
4.729
4.727
4.721
4.723
4.727
4.731
4.740
4.741
4.740
4.742
4.738
4.739
4.738
4.738
4.734
4.731
4.726
4.727
4.721
4.717
4.724
4.728
4.737
4.746
4.746
4.747
4.751
4.752
4.746
4.747
4.746
4.747
4.742
4.741
4.738
4.741
4.743
4.746
4.748
4.746
4.743
4.753
4.760
4.764
4.762
4.761
4.759
4.760
4.764
4.766
4.759
4.753
4.749
4.747
4.749
4.747
4.751
4.742
4.746
4.753
4.754
4.763
4.765
4.758
4.753
4.747
4.742
4.739
4.740
4.738
4.742
4.738
4.737
4.736
4.740
4.744
4.742
4.738
4.738
4.746
4.753
4.757
4.751
4.749
4.751
4.750
4.751
4.746
4.737
4.733
4.737
4.734
4.737
4.731
4.731
4.734
4.737
4.736
4.737
4.739
4.742
4.750
4.756
4.764
4.768
4.766
4.767
4.771
4.767
4.760
4.756
4.757
4.753
4.749
4.749
4.747
4.746
4.752
4.753
4.746
4.738
4.741
4.740
4.739
4.746
4.755
4.760
4.769
4.776
4.777
4.779
4.785
4.781
4.782
4.783
4.777
4.768
4.763
4.762
4.763
4.757
4.764
4.768
4.766
4.762
4.763
4.762
4.760
4.756
4.760
4.753
4.760
4.768
4.774
4.781
4.788
4.797
4.799
4.795
4.793
4.795
4.790
4.790
4.790
4.787
4.785
4.781
4.780
4.783
4.785
4.786
4.783
4.778
4.769
4.765
4.774
4.775
4.772
4.773
4.775
4.775
4.779
4.786
4.791
4.798
4.801
4.794
4.793
4.789
4.782
4.778
4.771
4.768
4.777
4.778
4.777
4.779
4.771
4.771
4.771
4.773
4.771
4.770
4.769
4.765
4.763
4.764
4.763
4.757
4.764
4.770
4.777
4.783
4.790
4.797
4.802
4.805
4.799
4.797
4.797
4.798
4.793
4.794
4.794
4.794
4.790
4.787
4.791
4.789
4.791
4.790
4.786
4.786
4.790
4.790
4.793
4.789
4.794
4.789
4.785
4.781
4.782
4.781
4.783
4.783
4.783
4.790
4.796
4.803
4.809
4.814
4.821
4.820
4.823
4.822
4.820
4.814
4.816
4.817
4.820
4.820
4.823
4.823
4.826
4.830
4.826
4.823
4.820
4.811
4.809
4.805
4.799
4.800
4.797
4.801
4.797
4.794
4.794
4.798
4.805
4.811
4.804
4.800
4.804
4.800
4.805
4.812
4.816
4.817
4.815
4.811
4.807
4.803
4.799
4.797
4.793
4.792
4.794
4.795
4.793
4.789
4.785
4.784
4.785
4.784
4.779
4.773
4.771
4.773
4.777
4.776
4.777
4.776
4.775
4.776
4.779
4.776
4.772
4.770
4.771
4.775
4.780
4.786
4.791
4.797
4.797
4.794
4.793
4.790
4.790
4.789
4.791
4.787
4.788
4.787
4.783
4.786
4.783
4.781
4.783
4.783
4.783
4.784
4.783
4.786
4.780
4.779
4.780
4.779
4.779
4.775
4.779
4.784
4.780
4.773
4.774
4.775
4.775
4.771
4.772
4.771
4.772
4.768
4.766
4.770
4.777
4.783
4.786
4.792
4.797
4.801
4.801
4.797
4.794
4.789
4.793
4.790
4.788
4.789
4.790
4.794
4.794
4.797
4.804
4.803
4.802
4.798
4.799
4.798
4.794
4.794
4.791
4.794
4.791
4.794
4.796
4.795
4.790
4.784
4.779
4.775
4.777
4.779
4.780
4.779
4.779
4.778
4.780
4.778
4.777
4.783
4.783
4.779
4.775
4.771
4.777
4.783
4.788
4.792
4.797
4.803
4.799
4.795
4.796
4.800
4.801
4.794
4.788
4.789
4.788
4.794
4.794
4.794
4.786
4.786
4.785
4.781
4.782
4.784
4.782
4.781
4.777
4.776
4.777
4.781
4.788
4.781
4.782
4.779
4.779
4.776
4.782
4.781
4.779
4.779
4.777
4.778
4.779
4.775
4.772
4.775
4.779
4.776
4.777
4.778
4.774
4.773
4.777
4.779
4.779
4.776
4.777
4.781
4.786
4.792
4.797
4.801
4.805
4.811
4.815
4.809
4.807
4.801
4.805
4.808
4.812
4.806
4.807
4.808
4.809
4.806
4.804
4.801
4.796
4.795
4.786
4.786
4.782
4.783
4.782
4.781
4.779
4.781
4.779
4.778
4.774
4.779
4.779
4.779
4.777
4.778
4.775
4.775
4.775
4.779
4.783
4.779
4.779
4.781
4.785
4.790
