2.994
3.335
3.514
3.628
3.723
3.790
3.853
3.899
3.923
3.978
3.977
4.019
4.056
4.038
4.056
4.083
4.111
4.132
4.157
4.176
4.197
4.217
4.218
4.176
4.157
4.167
4.182
4.189
4.197
4.212
4.216
4.231
4.231
4.245
4.260
4.258
4.270
4.279
4.281
4.288
4.301
4.305
4.308
4.313
4.328
4.331
4.327
4.335
4.339
4.349
4.357
4.367
4.355
4.365
4.372
4.378
4.383
4.387
4.399
4.386
4.390
4.397
4.402
4.408
4.412
4.417
4.423
4.431
4.431
4.434
4.424
4.427
4.429
4.434
4.443
4.449
4.449
4.453
4.457
4.463
4.471
4.466
4.476
4.477
4.482
4.464
4.470
4.469
4.473
4.475
4.481
4.486
4.489
4.494
4.492
4.494
4.495
4.505
4.509
4.507
4.519
4.515
4.516
4.523
4.517
4.531
4.530
4.537
4.538
4.537
4.522
4.516
4.519
4.519
4.519
4.523
4.530
4.531
4.539
4.535
4.534
4.542
4.547
4.542
4.549
4.543
4.545
4.549
4.552
4.557
4.563
4.565
4.563
4.567
4.572
4.579
4.571
4.570
4.577
4.579
4.577
4.575
4.580
4.586
4.591
4.592
4.591
4.594
4.594
4.603
4.601
4.605
4.607
4.612
4.605
4.605
4.608
4.616
4.604
4.594
4.582
4.573
4.585
4.586
4.586
4.594
4.586
4.595
4.601
4.600
4.601
4.598
4.601
4.603
4.602
4.608
4.605
4.616
4.608
4.605
4.612
4.608
4.607
4.606
4.605
4.605
4.612
4.606
4.618
4.612
4.621
4.617
4.624
4.622
4.631
4.631
4.629
4.633
4.635
4.634
4.631
4.639
4.629
4.638
4.638
4.638
4.646
4.644
4.653
4.649
4.646
4.652
4.640
4.642
4.638
4.647
4.649
4.644
4.645
4.641
4.646
4.652
4.645
4.655
4.653
4.650
4.660
4.652
4.653
4.664
4.664
4.660
4.668
4.671
4.670
4.672
4.671
4.674
4.673
4.677
4.673
4.671
4.671
4.674
4.673
4.682
4.684
4.680
4.682
4.685
4.684
4.682
4.695
4.694
4.690
4.690
4.701
4.701
4.694
4.697
4.692
4.682
4.687
4.694
4.690
4.690
4.694
4.704
4.698
4.686
4.695
4.696
4.695
4.685
4.697
4.696
4.694
4.694
4.697
4.704
4.703
4.699
4.701
4.710
4.717
4.715
4.711
4.708
4.722
4.716
4.716
4.716
4.717
4.724
4.723
4.724
4.717
4.723
4.717
4.710
4.705
4.699
4.692
4.686
4.686
4.694
4.690
4.690
4.679
4.685
4.695
4.688
4.689
4.690
4.684
4.697
4.700
4.697
4.694
4.699
4.697
4.704
4.695
4.694
4.689
4.691
4.703
4.712
4.706
4.701
4.705
4.696
4.706
4.712
4.714
4.712
4.706
4.712
4.709
4.721
4.727
4.721
4.716
4.713
4.711
4.704
4.705
4.699
4.700
4.696
4.703
4.713
4.712
4.705
4.703
4.697
4.697
4.701
4.698
4.697
4.695
4.696
4.695
4.699
4.711
4.708
4.701
4.701
4.700
4.699
4.698
4.710
4.712
4.710
4.711
4.707
4.705
4.704
4.706
4.718
4.723
4.723
4.720
4.726
4.719
4.712
4.711
4.721
4.733
4.726
4.723
4.715
4.717
4.716
4.712
4.723
4.722
4.723
4.725
4.723
4.728
4.724
4.719
4.721
4.730
4.735
4.731
4.729
4.730
4.731
4.730
4.726
4.725
4.734
4.745
4.748
4.752
4.743
4.742
4.743
4.741
4.737
4.736
4.743
4.742
4.738
4.734
4.729
4.731
4.734
4.730
4.731
4.739
4.751
4.744
4.742
4.739
4.740
4.731
4.727
4.728
4.732
4.741
4.743
4.749
4.745
4.744
4.742
4.744
4.740
4.742
4.740
4.739
4.748
4.758
4.760
4.757
4.757
4.755
4.754
4.750
4.753
4.750
4.745
4.750
4.759
4.760
4.757
4.752
4.757
4.755
4.754
4.757
4.754
4.753
4.753
4.757
4.765
4.772
4.775
4.772
4.775
4.772
4.770
4.772
4.770
4.771
4.770
4.768
4.767
4.774
4.778
4.777
4.779
4.780
4.776
4.769
4.770
4.768
4.764
4.763
4.765
4.769
4.778
4.774
4.770
4.764
4.759
4.753
4.748
4.749
4.746
4.744
4.748
4.757
4.764
4.760
4.764
4.766
4.759
4.758
4.754
4.750
4.754
4.757
4.756
4.757
4.753
4.753
4.753
4.755
4.748
4.749
4.748
4.749
4.749
4.749
4.751
4.750
4.749
4.744
4.743
4.750
4.759
4.768
4.768
4.766
4.765
4.760
4.757
4.753
4.751
4.757
4.762
4.760
4.754
4.757
4.753
4.755
4.764
4.771
4.779
4.775
4.768
4.772
4.767
4.764
4.770
4.768
4.764
4.758
4.756
4.755
4.756
4.755
4.759
4.768
4.773
4.772
4.765
4.766
4.768
4.766
4.762
4.766
4.759
4.757
4.756
4.758
4.757
4.750
4.746
4.755
4.762
4.769
4.778
4.785
4.782
4.783
4.778
4.777
4.773
4.772
4.776
4.772
4.771
4.771
4.771
4.764
4.765
4.769
4.770
4.771
4.773
4.782
4.787
4.793
4.794
4.794
4.790
4.793
4.786
4.790
4.787
4.780
4.779
4.775
4.775
4.777
4.776
4.772
4.782
4.775
4.775
4.780
4.787
4.796
4.792
4.788
4.789
4.786
4.784
4.786
4.784
4.786
4.792
4.786
4.784
4.783
4.782
4.782
4.782
4.786
4.787
4.782
4.781
4.786
4.794
4.801
4.808
4.813
4.812
4.812
4.811
4.813
4.816
4.812
4.808
4.808
4.806
4.801
4.798
4.796
4.801
4.802
4.800
4.801
4.800
4.799
4.798
4.796
4.803
4.808
4.814
4.815
4.814
4.810
4.809
4.805
4.803
4.807
4.806
4.801
4.800
4.794
4.790
4.786
4.781
4.775
4.771
4.779
4.778
4.780
4.787
4.793
4.798
4.805
4.806
4.802
4.801
4.804
4.805
4.808
4.805
4.807
4.805
4.797
4.794
4.797
4.792
4.790
4.786
4.785
4.782
4.783
4.782
4.780
4.778
4.779
4.784
4.790
4.797
4.804
4.803
4.801
4.803
4.807
4.808
4.807
4.801
4.802
4.800
4.799
4.805
4.799
4.801
4.797
4.795
4.799
4.798
4.797
4.798
4.804
4.803
4.804
4.798
4.793
4.790
4.791
4.797
4.802
4.808
4.812
4.814
4.816
4.814
4.810
4.808
4.808
4.803
4.807
4.809
4.810
4.809
4.808
4.808
4.807
4.805
4.805
4.809
4.807
4.809
4.810
4.808
4.808
4.805
4.804
4.805
4.805
4.809
4.807
4.806
4.812
4.817
4.823
4.828
4.831
4.831
4.831
4.833
4.831
4.827
4.821
4.819
4.819
4.817
4.819
4.820
4.819
4.817
4.823
4.827
4.829
4.825
4.827
4.825
4.827
4.828
4.824
4.825
4.827
4.827
4.824
4.820
4.815
4.816
4.818
4.823
4.829
4.833
4.838
4.841
4.837
4.836
4.842
4.839
4.842
4.841
4.838
4.839
4.838
4.838
4.835
4.833
4.832
4.834
4.831
4.830
4.831
4.834
4.832
4.827
4.827
4.825
4.826
4.823
4.821
4.816
4.813
4.808
4.805
4.811
4.816
4.822
4.826
4.831
4.837
4.833
4.834
4.828
4.829
4.834
4.831
4.830
4.829
4.831
4.832
4.828
4.831
4.830
4.835
4.831
4.829
4.831
4.834
4.831
4.829
4.825
4.821
4.823
4.819
4.820
4.816
4.814
4.818
4.817
4.818
4.819
4.821
4.819
4.821
4.822
4.826
4.827
4.831
4.836
4.840
4.845
4.851
4.857
4.856
4.852
4.851
4.847
4.848
4.853
4.853
4.850
4.851
4.850
4.851
4.849
4.848
4.847
4.842
4.844
4.845
4.842
4.843
4.842
4.845
4.849
4.851
4.853
4.851
4.850
4.851
4.849
4.845
4.845
4.845
4.842
4.846
4.845
4.842
4.842
4.845
4.842
4.840
4.842
4.845
4.850
4.856
4.861
4.865
4.869
4.875
4.872
4.868
4.866
4.864
4.864
4.864
4.866
4.864
4.864
4.864
4.864
4.862
4.860
4.865
4.863
4.862
4.861
4.859
4.861
4.860
4.858
4.857
4.853
4.851
4.849
4.845
4.842
4.840
4.836
4.835
4.833
4.831
4.827
4.824
4.822
4.819
4.823
4.827
4.833
4.837
4.841
4.845
4.847
