2.992
3.332
3.514
3.625
3.712
3.774
3.830
3.869
3.931
3.938
3.986
4.028
4.036
4.036
4.060
4.091
4.115
4.136
4.164
4.188
4.203
4.185
4.142
4.146
4.158
4.168
4.181
4.192
4.194
4.212
4.213
4.229
4.240
4.244
4.255
4.259
4.266
4.277
4.285
4.284
4.295
4.307
4.314
4.305
4.320
4.322
4.334
4.344
4.337
4.341
4.345
4.354
4.361
4.368
4.378
4.373
4.375
4.379
4.383
4.392
4.396
4.399
4.411
4.412
4.416
4.406
4.410
4.410
4.414
4.423
4.429
4.428
4.435
4.444
4.447
4.453
4.455
4.456
4.462
4.456
4.449
4.453
4.457
4.462
4.466
4.473
4.474
4.477
4.476
4.481
4.485
4.489
4.493
4.499
4.501
4.497
4.503
4.508
4.514
4.518
4.517
4.525
4.517
4.502
4.499
4.502
4.504
4.505
4.510
4.519
4.522
4.516
4.522
4.529
4.523
4.525
4.526
4.529
4.536
4.540
4.544
4.547
4.551
4.552
4.550
4.560
4.561
4.551
4.555
4.565
4.561
4.560
4.564
4.566
4.569
4.581
4.578
4.584
4.580
4.579
4.591
4.587
4.596
4.590
4.586
4.592
4.600
4.593
4.580
4.570
4.564
4.563
4.570
4.576
4.569
4.574
4.580
4.582
4.584
4.582
4.583
4.585
4.583
4.593
4.592
4.595
4.599
4.587
4.592
4.590
4.589
4.590
4.588
4.596
4.596
4.603
4.597
4.603
4.599
4.607
4.603
4.617
4.611
4.620
4.618
4.618
4.613
4.618
4.611
4.625
4.622
4.623
4.632
4.629
4.636
4.634
4.636
4.629
4.627
4.623
4.625
4.636
4.629
4.631
4.629
4.631
4.635
4.634
4.640
4.637
4.636
4.640
4.641
4.639
4.651
4.647
4.646
4.658
4.657
4.653
4.663
4.656
4.655
4.661
4.654
4.656
4.663
4.659
4.660
4.670
4.668
4.666
4.674
4.672
4.677
4.673
4.682
4.678
4.676
4.688
4.682
4.680
4.676
4.670
4.668
4.675
4.681
4.681
4.679
4.684
4.677
4.675
4.674
4.680
4.676
4.673
4.679
4.686
4.684
4.678
4.682
4.691
4.693
4.692
4.692
4.700
4.696
4.697
4.698
4.700
4.707
4.710
4.707
4.699
4.712
4.707
4.710
4.708
4.701
4.696
4.688
4.683
4.676
4.672
4.673
4.673
4.668
4.667
4.670
4.667
4.677
4.678
4.681
4.678
4.677
4.681
4.690
4.684
4.688
4.678
4.679
4.686
4.685
4.684
4.685
4.683
4.690
4.691
4.692
4.691
4.688
4.692
4.698
4.703
4.704
4.707
4.704
4.696
4.704
4.705
4.696
4.689
4.682
4.691
4.693
4.692
4.690
4.696
4.687
4.691
4.693
4.692
4.684
4.673
4.676
4.688
4.695
4.697
4.692
4.684
4.679
4.681
4.695
4.689
4.687
4.688
4.687
4.686
4.687
4.697
4.699
4.700
4.696
4.702
4.699
4.699
4.699
4.705
4.707
4.705
4.710
4.703
4.704
4.703
4.707
4.710
4.704
4.707
4.704
4.700
4.701
4.705
4.710
4.718
4.714
4.716
4.709
4.711
4.710
4.707
4.712
4.722
4.726
4.727
4.723
4.724
4.723
4.725
4.722
4.722
4.729
4.735
4.736
4.730
4.722
4.716
4.709
4.711
4.722
4.729
4.728
4.725
4.725
4.724
4.723
4.721
4.717
4.719
4.728
4.724
4.723
4.724
4.725
4.721
4.720
4.724
4.723
4.727
4.736
4.738
4.734
4.733
4.737
4.740
4.739
4.733
4.728
4.732
4.737
4.741
4.740
4.733
4.734
4.738
4.734
4.736
4.734
4.736
4.733
4.743
4.751
4.752
4.755
4.754
4.753
4.752
4.751
4.749
4.748
4.754
4.759
4.752
4.761
4.760
4.764
4.760
4.759
4.759
4.758
4.759
4.758
4.752
4.750
4.755
4.764
4.770
4.769
4.770
4.766
4.759
4.755
4.747
4.744
4.738
4.742
4.747
4.745
4.747
4.750
4.743
4.740
4.738
4.736
4.740
4.736
4.735
4.736
4.744
4.751
4.744
4.739
4.732
4.733
4.732
4.729
4.727
4.726
4.729
4.725
4.729
4.737
4.746
4.748
4.749
4.745
4.747
4.745
4.741
4.739
4.736
4.739
4.738
4.737
4.738
4.737
4.744
4.751
4.759
4.766
4.763
4.761
4.766
4.756
4.749
4.748
4.746
4.744
4.743
4.745
4.741
4.742
4.749
4.758
4.765
4.762
4.762
4.761
4.755
4.748
4.747
4.751
4.749
4.747
4.740
4.736
4.735
4.740
4.747
4.756
4.759
4.767
4.763
4.761
4.759
4.758
4.757
4.759
4.757
4.753
4.752
4.755
4.754
4.750
4.749
4.748
4.755
4.764
4.771
4.775
4.777
4.775
4.771
4.777
4.779
4.778
4.771
4.764
4.766
4.766
4.765
4.756
4.752
4.761
4.763
4.761
4.770
4.777
4.779
4.772
4.770
4.773
4.770
4.769
4.766
4.769
4.771
4.769
4.774
4.770
4.766
4.761
4.763
4.767
4.766
4.767
4.773
4.778
4.787
4.789
4.793
4.791
4.790
4.792
4.795
4.792
4.792
4.791
4.788
4.786
4.784
4.788
4.787
4.783
4.784
4.780
4.777
4.780
4.781
4.788
4.795
4.800
4.796
4.799
4.793
4.792
4.796
4.799
4.799
4.796
4.788
4.783
4.781
4.781
4.779
4.781
4.777
4.775
4.771
4.769
4.774
4.783
4.790
4.788
4.785
4.784
4.787
4.788
4.784
4.781
4.785
4.784
4.784
4.781
4.787
4.781
4.777
4.780
4.782
4.777
4.770
4.762
4.762
4.769
4.776
4.780
4.781
4.781
4.781
4.786
4.788
4.789
4.787
4.781
4.781
4.780
4.781
4.783
4.781
4.781
4.777
4.777
4.781
4.775
4.781
4.784
4.784
4.784
4.788
4.781
4.781
4.781
4.787
4.794
4.796
4.797
4.798
4.794
4.793
4.794
4.795
4.797
4.793
4.789
4.788
4.788
4.790
4.789
4.785
4.788
4.788
4.789
4.787
4.788
4.788
4.791
4.787
4.783
4.782
4.789
4.790
4.794
4.801
4.807
4.812
4.819
4.812
4.813
4.812
4.814
4.807
4.805
4.803
4.807
4.803
4.803
4.801
4.803
4.804
4.807
4.806
4.805
4.804
4.810
4.807
4.803
4.801
4.805
4.809
4.808
4.806
4.802
4.804
4.807
4.809
4.816
4.820
4.827
4.826
4.825
4.829
4.830
4.828
4.822
4.823
4.822
4.820
4.816
4.814
4.811
4.815
4.821
4.818
4.818
4.817
4.811
4.809
4.808
4.809
4.811
4.812
4.808
4.810
4.808
4.809
4.805
4.806
4.807
4.812
4.818
4.825
4.822
4.823
4.822
4.817
4.814
4.810
4.807
4.807
4.810
4.807
4.813
4.815
4.818
4.820
4.814
4.814
4.818
4.815
4.811
4.810
4.810
4.809
4.803
4.801
4.802
4.801
4.805
4.803
4.799
4.803
4.800
4.801
4.808
4.812
4.818
4.823
4.827
4.833
4.838
4.837
4.836
4.839
4.836
4.834
4.836
4.836
4.836
4.831
4.829
4.826
4.829
4.833
4.830
4.833
4.829
4.828
4.827
4.822
4.827
4.829
4.833
4.833
4.833
4.828
4.827
4.831
4.829
4.833
4.832
4.829
4.829
4.825
4.825
4.826
4.829
4.823
4.829
4.834
4.840
4.844
4.849
4.855
4.860
4.866
4.865
4.862
4.859
4.858
4.859
4.853
4.849
4.844
4.847
4.848
4.847
4.848
4.849
4.845
4.841
4.837
4.838
4.837
4.840
4.837
4.843
4.842
4.843
4.840
4.836
4.836
4.833
4.834
4.835
4.833
4.830
4.826
4.824
4.820
4.819
4.823
4.827
4.833
4.838
4.837
4.832
4.828
4.822
4.822
4.819
4.822
4.821
4.818
4.819
4.823
4.819
4.823
4.821
4.818
4.821
4.825
4.825
4.822
4.822
4.823
4.822
4.818
4.816
4.817
4.819
4.820
4.821
4.818
4.818
4.812
4.810
4.814
4.818
4.817
4.813
4.809
4.807
4.804
4.800
4.801
4.805
4.809
4.814
4.820
4.824
4.825
4.830
4.836
4.833
4.831
4.833
4.834
4.832
4.828
4.827
4.826
4.825
4.828
4.830
4.828
4.829
4.828
4.824
4.826
4.825
4.825
4.819
4.817
4.816
4.814
4.810
4.810
4.811
4.806
4.803
4.807
