2.994
3.334
3.506
3.635
3.721
3.796
3.825
3.901
3.927
3.953
3.981
4.023
4.061
4.029
4.061
4.086
4.110
4.134
4.160
4.185
4.198
4.218
4.187
4.145
4.159
4.169
4.178
4.194
4.198
4.205
4.220
4.229
4.236
4.251
4.249
4.262
4.272
4.273
4.285
4.293
4.294
4.298
4.307
4.320
4.329
4.319
4.331
4.336
4.345
4.352
4.349
4.352
4.360
4.363
4.373
4.377
4.389
4.390
4.381
4.388
4.389
4.397
4.406
4.412
4.414
4.421
4.423
4.431
4.416
4.418
4.422
4.427
4.434
4.438
4.439
4.449
4.450
4.459
4.463
4.462
4.466
4.478
4.472
4.460
4.464
4.465
4.466
4.470
4.479
4.481
4.486
4.484
4.490
4.492
4.493
4.503
4.505
4.506
4.512
4.511
4.513
4.512
4.519
4.525
4.529
4.531
4.532
4.516
4.508
4.512
4.513
4.514
4.518
4.527
4.527
4.531
4.526
4.533
4.540
4.533
4.535
4.538
4.537
4.541
4.543
4.547
4.554
4.555
4.554
4.558
4.560
4.569
4.567
4.558
4.564
4.572
4.571
4.569
4.578
4.580
4.578
4.586
4.587
4.593
4.593
4.590
4.598
4.597
4.605
4.601
4.593
4.599
4.608
4.602
4.593
4.582
4.571
4.574
4.578
4.577
4.587
4.582
4.579
4.588
4.593
4.593
4.592
4.591
4.592
4.601
4.597
4.605
4.603
4.610
4.601
4.601
4.603
4.596
4.603
4.596
4.605
4.601
4.611
4.605
4.616
4.607
4.614
4.610
4.622
4.618
4.628
4.621
4.630
4.629
4.628
4.624
4.625
4.629
4.631
4.638
4.638
4.640
4.645
4.637
4.650
4.642
4.634
4.634
4.638
4.638
4.636
4.646
4.634
4.642
4.642
4.638
4.650
4.649
4.642
4.651
4.642
4.648
4.653
4.654
4.653
4.665
4.663
4.657
4.671
4.664
4.663
4.670
4.671
4.668
4.668
4.664
4.663
4.678
4.674
4.673
4.677
4.681
4.675
4.675
4.690
4.690
4.683
4.686
4.693
4.692
4.691
4.695
4.691
4.681
4.686
4.681
4.682
4.682
4.694
4.698
4.690
4.684
4.688
4.687
4.682
4.687
4.688
4.686
4.688
4.690
4.693
4.697
4.691
4.692
4.707
4.708
4.707
4.706
4.705
4.714
4.710
4.709
4.705
4.716
4.723
4.714
4.716
4.711
4.723
4.716
4.710
4.703
4.697
4.692
4.685
4.689
4.686
4.684
4.683
4.678
4.686
4.679
4.682
4.681
4.680
4.693
4.694
4.690
4.688
4.687
4.693
4.698
4.693
4.684
4.682
4.689
4.702
4.703
4.697
4.697
4.694
4.695
4.702
4.706
4.707
4.701
4.702
4.700
4.713
4.719
4.719
4.714
4.708
4.703
4.708
4.700
4.691
4.692
4.688
4.698
4.704
4.708
4.705
4.695
4.693
4.695
4.701
4.692
4.691
4.690
4.688
4.687
4.699
4.709
4.699
4.695
4.693
4.692
4.690
4.701
4.699
4.703
4.701
4.705
4.697
4.698
4.702
4.712
4.716
4.712
4.712
4.719
4.715
4.708
4.710
4.720
4.723
4.719
4.718
4.714
4.710
4.712
4.713
4.717
4.716
4.720
4.716
4.714
4.715
4.716
4.716
4.723
4.727
4.728
4.719
4.722
4.723
4.722
4.718
4.720
4.731
4.738
4.742
4.739
4.737
4.734
4.732
4.733
4.727
4.734
4.743
4.736
4.735
4.727
4.719
4.725
4.719
4.723
4.732
4.739
4.740
4.736
4.729
4.733
4.735
4.728
4.719
4.727
4.734
4.736
4.740
4.739
4.734
4.736
4.734
4.734
4.734
4.731
4.737
4.747
4.753
4.747
4.746
4.752
4.748
4.744
4.740
4.742
4.745
4.742
4.751
4.750
4.748
4.747
4.746
4.747
4.749
4.750
4.746
4.747
4.746
4.752
4.760
4.763
4.765
4.766
4.764
4.766
4.764
4.761
4.759
4.768
4.767
4.756
4.767
4.775
4.771
4.769
4.770
4.775
4.773
4.768
4.760
4.761
4.759
4.760
4.764
4.772
4.778
4.772
4.767
4.763
4.757
4.752
4.746
4.741
4.737
4.745
4.754
4.760
4.754
4.755
4.757
4.755
4.751
4.742
4.745
4.747
4.748
4.749
4.743
4.750
4.748
4.744
4.743
4.739
4.740
4.741
4.740
4.738
4.743
4.741
4.743
4.739
4.738
4.747
4.756
4.758
4.762
4.758
4.757
4.755
4.753
4.744
4.745
4.752
4.753
4.755
4.748
4.747
4.746
4.756
4.764
4.772
4.778
4.772
4.765
4.760
4.759
4.760
4.760
4.761
4.756
4.749
4.751
4.747
4.748
4.756
4.762
4.771
4.773
4.768
4.760
4.756
4.756
4.760
4.762
4.758
4.749
4.749
4.746
4.749
4.748
4.747
4.756
4.763
4.770
4.775
4.775
4.774
4.771
4.772
4.768
4.764
4.768
4.766
4.762
4.766
4.765
4.760
4.757
4.760
4.764
4.763
4.771
4.779
4.786
4.786
4.784
4.783
4.787
4.786
4.781
4.777
4.776
4.779
4.771
4.768
4.765
4.764
4.765
4.774
4.775
4.772
4.776
4.783
4.787
4.788
4.784
4.782
4.778
4.780
4.779
4.779
4.781
4.783
4.784
4.777
4.776
4.772
4.776
4.775
4.781
4.777
4.775
4.780
4.787
4.794
4.798
4.805
4.805
4.799
4.806
4.805
4.808
4.805
4.803
4.799
4.801
4.796
4.793
4.791
4.792
4.794
4.793
4.790
4.790
4.793
4.790
4.794
4.800
4.808
4.808
4.805
4.803
4.805
4.806
4.804
4.798
4.799
4.797
4.793
4.792
4.791
4.789
4.783
4.778
4.775
4.771
4.769
4.776
4.783
4.789
4.796
4.800
4.796
4.800
4.794
4.797
4.796
4.795
4.799
4.798
4.796
4.792
4.791
4.789
4.786
4.787
4.783
4.776
4.772
4.771
4.774
4.773
4.774
4.779
4.786
4.790
4.796
4.792
4.796
4.798
4.799
4.800
4.796
4.797
4.791
4.792
4.793
4.793
4.794
4.790
4.790
4.787
4.794
4.790
4.790
4.797
4.794
4.795
4.799
4.797
4.790
4.786
4.793
4.797
4.804
4.806
4.804
4.808
4.807
4.805
4.804
4.801
4.797
4.803
4.799
4.801
4.805
4.801
4.801
4.800
4.797
4.800
4.799
4.800
4.797
4.800
4.802
4.798
4.794
4.797
4.794
4.800
4.805
4.801
4.807
4.812
4.818
4.825
4.824
4.823
4.821
4.823
4.821
4.820
4.818
4.814
4.810
4.809
4.812
4.816
4.813
4.812
4.816
4.820
4.821
4.819
4.818
4.817
4.816
4.816
4.819
4.819
4.819
4.817
4.818
4.814
4.812
4.812
4.819
4.823
4.829
4.836
4.838
4.836
4.832
4.833
4.835
4.831
4.835
4.831
4.831
4.828
4.827
4.827
4.824
4.831
4.826
4.823
4.824
4.823
4.824
4.827
4.823
4.819
4.819
4.820
4.816
4.819
4.816
4.811
4.807
4.808
4.813
4.817
4.823
4.828
4.832
4.827
4.829
4.823
4.823
4.825
4.826
4.820
4.821
4.823
4.819
4.825
4.827
4.827
4.829
4.828
4.824
4.825
4.829
4.825
4.819
4.819
4.815
4.812
4.813
4.811
4.813
4.811
4.808
4.808
4.812
4.814
4.812
4.811
4.818
4.820
4.824
4.830
4.834
4.839
4.845
4.850
4.849
4.850
4.849
4.842
4.843
4.844
4.846
4.844
4.840
4.839
4.843
4.841
4.846
4.844
4.838
4.836
4.838
4.836
4.834
4.834
4.840
4.842
4.843
4.844
4.843
4.841
4.842
4.845
4.842
4.839
4.835
4.838
4.838
4.838
4.838
4.836
4.837
4.833
4.835
4.841
4.846
4.850
4.856
4.860
4.865
4.871
4.875
4.869
4.865
4.860
4.859
4.856
4.857
4.858
4.857
4.860
4.859
4.853
4.856
4.855
4.853
4.853
4.851
4.852
4.849
4.852
4.849
4.852
4.853
4.852
4.848
4.845
4.843
4.839
4.837
4.834
4.832
4.830
4.827
4.823
4.821
4.819
4.824
4.830
4.834
4.838
4.840
4.841
4.837
4.838
4.835
4.830
4.831
4.831
4.834
4.833
4.829
4.828
4.832
4.831
4.832
4.830
4.829
4.828
4.834
4.838
4.835
4.834
4.831
4.833
4.829
4.828
4.827
4.828
4.831
4.830
4.824
4.828
4.827
