2.994
3.337
3.509
3.636
3.724
3.796
3.827
3.903
3.926
3.956
3.981
4.021
4.060
4.029
4.061
4.086
4.110
4.138
4.159
4.182
4.197
4.218
4.190
4.149
4.159
4.167
4.178
4.194
4.201
4.212
4.219
4.232
4.236
4.249
4.252
4.264
4.274
4.271
4.283
4.295
4.297
4.298
4.307
4.319
4.326
4.317
4.332
4.334
4.346
4.352
4.354
4.350
4.359
4.364
4.373
4.377
4.389
4.391
4.378
4.388
4.390
4.396
4.403
4.407
4.416
4.423
4.423
4.427
4.416
4.421
4.423
4.427
4.436
4.440
4.444
4.448
4.450
4.456
4.464
4.462
4.469
4.471
4.477
4.464
4.464
4.460
4.466
4.471
4.475
4.484
4.480
4.486
4.485
4.489
4.496
4.500
4.502
4.508
4.513
4.506
4.516
4.516
4.519
4.523
4.527
4.528
4.535
4.520
4.515
4.511
4.512
4.516
4.518
4.517
4.524
4.533
4.534
4.531
4.538
4.536
4.538
4.542
4.538
4.542
4.543
4.549
4.553
4.558
4.559
4.561
4.562
4.571
4.571
4.560
4.567
4.574
4.573
4.571
4.573
4.575
4.578
4.586
4.590
4.590
4.584
4.591
4.598
4.601
4.595
4.604
4.598
4.602
4.601
4.607
4.598
4.586
4.575
4.572
4.576
4.577
4.586
4.583
4.582
4.591
4.589
4.596
4.592
4.591
4.600
4.594
4.600
4.599
4.605
4.607
4.605
4.601
4.600
4.597
4.601
4.599
4.605
4.604
4.611
4.608
4.611
4.613
4.616
4.615
4.619
4.619
4.620
4.623
4.623
4.632
4.622
4.627
4.625
4.629
4.628
4.634
4.638
4.635
4.647
4.645
4.644
4.648
4.641
4.632
4.630
4.638
4.642
4.642
4.642
4.635
4.641
4.642
4.641
4.651
4.644
4.648
4.653
4.645
4.653
4.656
4.652
4.659
4.660
4.664
4.664
4.670
4.663
4.667
4.667
4.670
4.666
4.667
4.664
4.667
4.677
4.675
4.674
4.682
4.682
4.678
4.680
4.690
4.690
4.681
4.691
4.692
4.693
4.689
4.697
4.687
4.679
4.686
4.683
4.682
4.683
4.693
4.696
4.690
4.688
4.690
4.690
4.682
4.691
4.689
4.686
4.690
4.693
4.697
4.696
4.693
4.694
4.708
4.708
4.709
4.704
4.708
4.715
4.708
4.712
4.706
4.719
4.720
4.715
4.717
4.715
4.722
4.715
4.708
4.704
4.697
4.690
4.684
4.691
4.684
4.685
4.682
4.680
4.684
4.682
4.682
4.683
4.682
4.694
4.695
4.691
4.689
4.686
4.695
4.701
4.693
4.683
4.681
4.690
4.701
4.704
4.698
4.697
4.695
4.697
4.703
4.707
4.706
4.701
4.703
4.702
4.714
4.721
4.719
4.715
4.708
4.705
4.708
4.699
4.692
4.693
4.689
4.699
4.706
4.708
4.705
4.694
4.692
4.696
4.701
4.691
4.692
4.691
4.689
4.688
4.700
4.710
4.700
4.696
4.693
4.691
4.690
4.702
4.700
4.704
4.701
4.704
4.698
4.697
4.701
4.713
4.716
4.713
4.712
4.719
4.716
4.708
4.709
4.719
4.723
4.719
4.719
4.715
4.712
4.713
4.712
4.719
4.717
4.721
4.716
4.716
4.717
4.718
4.717
4.723
4.728
4.726
4.722
4.721
4.725
4.723
4.720
4.719
4.730
4.737
4.741
4.740
4.739
4.737
4.734
4.735
4.730
4.734
4.744
4.737
4.736
4.729
4.722
4.724
4.722
4.726
4.731
4.740
4.742
4.738
4.733
4.732
4.734
4.729
4.720
4.724
4.733
4.735
4.738
4.742
4.734
4.735
4.734
4.734
4.736
4.732
4.734
4.745
4.752
4.746
4.749
4.749
4.750
4.746
4.742
4.745
4.747
4.745
4.749
4.749
4.750
4.749
4.749
4.748
4.750
4.753
4.744
4.745
4.744
4.749
4.758
4.764
4.767
4.767
4.764
4.765
4.764
4.762
4.761
4.768
4.769
4.760
4.763
4.771
4.774
4.768
4.772
4.776
4.774
4.768
4.763
4.764
4.761
4.757
4.761
4.770
4.779
4.775
4.769
4.765
4.758
4.753
4.747
4.742
4.736
4.743
4.750
4.760
4.758
4.757
4.758
4.754
4.753
4.745
4.744
4.748
4.747
4.751
4.747
4.746
4.752
4.743
4.745
4.743
4.738
4.743
4.744
4.737
4.741
4.743
4.744
4.740
4.738
4.743
4.752
4.760
4.758
4.760
4.760
4.756
4.755
4.748
4.744
4.748
4.753
4.754
4.750
4.749
4.744
4.751
4.758
4.767
4.775
4.776
4.769
4.764
4.758
4.760
4.758
4.764
4.761
4.754
4.752
4.749
4.747
4.751
4.760
4.767
4.775
4.770
4.763
4.759
4.758
4.757
4.761
4.762
4.753
4.751
4.747
4.749
4.750
4.743
4.752
4.757
4.766
4.773
4.780
4.773
4.774
4.775
4.772
4.767
4.767
4.768
4.764
4.762
4.769
4.767
4.760
4.760
4.761
4.767
4.766
4.775
4.780
4.789
4.786
4.784
4.785
4.787
4.785
4.779
4.780
4.778
4.779
4.773
4.766
4.765
4.764
4.768
4.777
4.776
4.772
4.778
4.786
4.789
4.785
4.782
4.780
4.779
4.782
4.779
4.777
4.784
4.785
4.784
4.779
4.775
4.774
4.776
4.779
4.781
4.780
4.775
4.782
4.789
4.796
4.801
4.807
4.805
4.799
4.805
4.805
4.808
4.807
4.803
4.797
4.801
4.797
4.792
4.794
4.792
4.796
4.795
4.790
4.790
4.794
4.790
4.796
4.801
4.808
4.806
4.807
4.806
4.807
4.806
4.804
4.798
4.799
4.797
4.794
4.792
4.793
4.787
4.783
4.779
4.774
4.773
4.771
4.778
4.783
4.789
4.796
4.800
4.797
4.798
4.796
4.798
4.797
4.797
4.799
4.798
4.797
4.793
4.791
4.790
4.788
4.789
4.783
4.776
4.772
4.771
4.774
4.773
4.774
4.779
4.786
4.790
4.796
4.793
4.796
4.798
4.799
4.801
4.797
4.797
4.791
4.793
4.794
4.792
4.794
4.790
4.791
4.787
4.794
4.792
4.790
4.797
4.796
4.795
4.799
4.797
4.790
4.786
4.791
4.797
4.804
4.806
4.805
4.809
4.808
4.806
4.805
4.801
4.797
4.801
4.799
4.801
4.804
4.801
4.802
4.800
4.799
4.801
4.799
4.800
4.799
4.801
4.802
4.800
4.796
4.795
4.794
4.798
4.807
4.803
4.807
4.811
4.818
4.823
4.826
4.825
4.823
4.823
4.823
4.820
4.818
4.814
4.812
4.809
4.813
4.816
4.815
4.812
4.816
4.822
4.823
4.820
4.819
4.816
4.818
4.817
4.819
4.819
4.821
4.817
4.818
4.814
4.813
4.812
4.818
4.823
4.827
4.834
4.840
4.838
4.834
4.834
4.834
4.834
4.835
4.831
4.832
4.830
4.829
4.828
4.824
4.830
4.827
4.823
4.824
4.822
4.824
4.825
4.823
4.820
4.819
4.822
4.818
4.819
4.816
4.812
4.808
4.806
4.812
4.817
4.821
4.827
4.832
4.827
4.830
4.827
4.821
4.825
4.826
4.823
4.819
4.823
4.823
4.822
4.827
4.825
4.829
4.830
4.824
4.823
4.829
4.827
4.823
4.820
4.818
4.812
4.815
4.811
4.815
4.811
4.812
4.809
4.810
4.814
4.815
4.811
4.816
4.820
4.821
4.827
4.832
4.836
4.842
4.847
4.851
4.850
4.849
4.844
4.842
4.844
4.845
4.844
4.842
4.839
4.842
4.842
4.845
4.844
4.842
4.838
4.835
4.839
4.837
4.834
4.838
4.844
4.843
4.847
4.845
4.842
4.842
4.844
4.843
4.842
4.837
4.836
4.840
4.839
4.837
4.836
4.837
4.834
4.834
4.838
4.843
4.849
4.853
4.858
4.862
4.867
4.873
4.872
4.867
4.863
4.862
4.858
4.859
4.860
4.856
4.856
4.862
4.858
4.854
4.856
4.856
4.855
4.851
4.853
4.853
4.852
4.853
4.853
4.856
4.852
4.849
4.847
4.845
4.841
4.838
4.836
4.834
4.831
4.829
4.825
4.823
4.820
4.821
4.827
4.830
4.834
4.840
4.841
4.842
4.838
4.838
4.833
4.829
4.830
4.832
4.836
4.830
4.830
4.830
4.831
4.834
4.833
4.832
4.828
4.830
4.836
4.840
4.836
4.835
4.833
4.834
4.830
4.829
4.827
4.829
4.831
4.829
