2.994
3.337
3.515
3.625
3.728
3.787
3.838
3.883
3.911
3.968
3.986
4.011
4.046
4.083
4.068
4.078
4.104
4.127
4.147
4.171
4.188
4.207
4.227
4.245
4.233
4.196
4.180
4.195
4.202
4.207
4.224
4.228
4.240
4.245
4.257
4.256
4.268
4.281
4.279
4.291
4.299
4.299
4.307
4.314
4.325
4.322
4.329
4.340
4.347
4.354
4.351
4.354
4.362
4.366
4.378
4.384
4.383
4.382
4.388
4.392
4.399
4.406
4.408
4.418
4.421
4.411
4.419
4.423
4.425
4.429
4.436
4.437
4.443
4.451
4.455
4.458
4.444
4.450
4.452
4.455
4.459
4.459
4.471
4.472
4.473
4.478
4.485
4.491
4.492
4.491
4.496
4.499
4.503
4.486
4.488
4.492
4.493
4.496
4.499
4.503
4.509
4.511
4.512
4.513
4.517
4.522
4.522
4.529
4.529
4.533
4.536
4.535
4.539
4.546
4.542
4.549
4.555
4.555
4.561
4.562
4.548
4.540
4.536
4.540
4.539
4.544
4.547
4.552
4.555
4.555
4.562
4.557
4.558
4.563
4.566
4.566
4.567
4.571
4.570
4.573
4.574
4.576
4.578
4.585
4.588
4.581
4.592
4.592
4.599
4.596
4.592
4.590
4.592
4.598
4.599
4.599
4.599
4.606
4.608
4.614
4.614
4.617
4.621
4.618
4.619
4.626
4.627
4.622
4.630
4.625
4.625
4.629
4.635
4.623
4.613
4.603
4.596
4.599
4.600
4.604
4.610
4.612
4.613
4.606
4.618
4.615
4.624
4.618
4.618
4.623
4.624
4.626
4.625
4.633
4.629
4.637
4.632
4.625
4.624
4.633
4.625
4.631
4.625
4.628
4.625
4.636
4.632
4.639
4.635
4.642
4.640
4.640
4.644
4.644
4.651
4.648
4.652
4.655
4.655
4.653
4.652
4.655
4.651
4.653
4.659
4.661
4.663
4.666
4.666
4.674
4.671
4.669
4.668
4.658
4.666
4.659
4.660
4.666
4.670
4.667
4.663
4.664
4.666
4.670
4.668
4.670
4.676
4.672
4.673
4.678
4.671
4.674
4.685
4.681
4.681
4.688
4.690
4.686
4.690
4.699
4.693
4.691
4.699
4.699
4.693
4.694
4.696
4.688
4.692
4.705
4.701
4.700
4.698
4.708
4.707
4.705
4.704
4.714
4.717
4.707
4.711
4.721
4.715
4.718
4.714
4.716
4.707
4.699
4.714
4.708
4.709
4.705
4.715
4.721
4.722
4.716
4.712
4.718
4.715
4.713
4.711
4.718
4.715
4.711
4.711
4.721
4.723
4.718
4.720
4.716
4.728
4.733
4.729
4.730
4.731
4.733
4.736
4.736
4.733
4.730
4.739
4.744
4.744
4.738
4.737
4.741
4.739
4.733
4.726
4.722
4.717
4.711
4.706
4.708
4.714
4.710
4.709
4.710
4.704
4.707
4.704
4.707
4.706
4.702
4.711
4.718
4.717
4.714
4.714
4.710
4.714
4.725
4.726
4.721
4.715
4.710
4.714
4.719
4.720
4.722
4.722
4.721
4.718
4.725
4.728
4.727
4.725
4.725
4.725
4.724
4.734
4.741
4.740
4.738
4.737
4.741
4.736
4.736
4.729
4.724
4.717
4.713
4.720
4.725
4.728
4.725
4.722
4.727
4.726
4.719
4.731
4.725
4.725
4.716
4.709
4.708
4.717
4.727
4.725
4.725
4.726
4.725
4.722
4.714
4.722
4.729
4.725
4.725
4.722
4.722
4.720
4.721
4.725
4.733
4.734
4.733
4.733
4.732
4.731
4.729
4.734
4.733
4.744
4.748
4.737
4.740
4.737
4.736
4.737
4.738
4.739
4.748
4.747
4.746
4.739
4.732
4.736
4.733
4.734
4.741
4.750
4.755
4.753
4.749
4.747
4.741
4.740
4.744
4.739
4.749
4.758
4.757
4.755
4.751
4.758
4.752
4.753
4.752
4.753
4.752
4.762
4.771
4.767
4.763
4.762
4.762
4.758
4.751
4.751
4.751
4.758
4.759
4.759
4.763
4.756
4.754
4.756
4.751
4.751
4.754
4.758
4.762
4.756
4.759
4.753
4.755
4.753
4.749
4.748
4.749
4.748
4.757
4.766
4.773
4.772
4.770
4.767
4.770
4.762
4.760
4.767
4.763
4.762
4.763
4.772
4.779
4.778
4.777
4.781
4.777
4.770
4.762
4.762
4.759
4.764
4.765
4.770
4.779
4.785
4.781
4.780
4.784
4.780
4.782
4.781
4.776
4.777
4.776
4.775
4.776
4.783
4.790
4.799
4.803
4.799
4.801
4.797
4.793
4.789
4.784
4.791
4.790
4.783
4.782
4.789
4.796
4.796
4.796
4.796
4.796
4.796
4.793
4.791
4.787
4.791
4.787
4.781
4.779
4.786
4.781
4.774
4.770
4.774
4.771
4.772
4.770
4.772
4.773
4.772
4.770
4.767
4.774
4.780
4.781
4.783
4.785
4.783
4.784
4.783
4.776
4.770
4.766
4.764
4.759
4.755
4.762
4.767
4.774
4.775
4.774
4.772
4.776
4.775
4.779
4.778
4.773
4.772
4.771
4.767
4.763
4.764
4.763
4.767
4.774
4.781
4.784
4.785
4.784
4.785
4.785
4.785
4.781
4.777
4.781
4.783
4.785
4.783
4.785
4.785
4.781
4.781
4.779
4.786
4.793
4.792
4.792
4.796
4.790
4.786
4.782
4.780
4.782
4.778
4.779
4.778
4.777
4.783
4.782
4.780
4.777
4.783
4.790
4.797
4.792
4.788
4.782
4.778
4.777
4.786
4.788
4.781
4.777
4.777
4.777
4.777
4.776
4.775
4.774
4.774
4.781
4.788
4.795
4.800
4.806
4.805
4.801
4.799
4.796
4.796
4.796
4.794
4.792
4.791
4.793
4.797
4.793
4.792
4.795
4.796
4.798
4.794
4.792
4.797
4.803
4.810
4.809
4.808
4.807
4.808
4.806
4.805
4.804
4.803
4.806
4.807
4.803
4.797
4.792
4.789
4.788
4.794
4.793
4.789
4.790
4.796
4.803
4.808
4.815
4.814
4.814
4.810
4.814
4.810
4.809
4.807
4.807
4.813
4.814
4.816
4.814
4.810
4.806
4.807
4.806
4.810
4.807
4.808
4.804
4.802
4.806
4.813
4.818
4.824
4.831
4.836
4.833
4.836
4.831
4.832
4.829
4.824
4.820
4.821
4.817
4.821
4.820
4.821
4.823
4.824
4.818
4.816
4.814
4.813
4.814
4.814
4.811
4.816
4.823
4.827
4.825
4.822
4.823
4.821
4.818
4.813
4.809
4.805
4.803
4.799
4.799
4.802
4.798
4.799
4.798
4.797
4.799
4.797
4.801
4.803
4.803
4.802
4.804
4.810
4.814
4.821
4.826
4.832
4.831
4.829
4.823
4.821
4.822
4.818
4.811
4.805
4.804
4.805
4.804
4.805
4.809
4.810
4.809
4.802
4.799
4.794
4.796
4.796
4.793
4.792
4.798
4.803
4.809
4.813
4.820
4.824
4.822
4.827
4.831
4.830
4.831
4.829
4.826
4.824
4.825
4.825
4.828
4.824
4.826
4.824
4.822
4.824
4.823
4.818
4.815
4.818
4.818
4.816
4.814
4.811
4.809
4.810
4.803
4.808
4.814
4.819
4.823
4.829
4.833
4.835
4.831
4.829
4.831
4.836
4.831
4.832
4.829
4.833
4.831
4.835
4.833
4.833
4.833
4.832
4.831
4.833
4.834
4.833
4.834
4.833
4.833
4.833
4.828
4.824
4.823
4.819
4.820
4.825
4.820
4.821
4.825
4.830
4.836
4.840
4.845
4.851
4.850
4.852
4.850
4.851
4.848
4.846
4.844
4.841
4.840
4.841
4.847
4.851
4.848
4.843
4.847
4.846
4.851
4.855
4.853
4.854
4.851
4.851
4.845
4.841
4.842
4.841
4.840
4.838
4.836
4.836
4.836
4.838
4.836
4.836
4.842
4.846
4.851
4.855
4.859
4.859
4.858
4.863
4.866
4.862
4.858
4.859
4.858
4.855
4.856
4.852
4.850
4.852
4.858
4.857
4.855
4.852
4.848
4.843
4.840
4.836
4.831
4.830
4.829
4.827
4.829
4.827
4.831
4.830
4.826
4.830
4.831
4.830
4.833
4.836
4.840
4.844
4.850
4.855
4.859
4.859
4.858
4.859
4.861
4.857
4.851
4.851
4.853
4.851
4.845
4.849
4.853
4.851
4.855
4.852
4.851
4.851
4.855
4.848
4.844
4.846
4.844
4.843
4.842
4.841
4.842
4.841
4.840
4.840
4.845
4.841
4.842
4.841
4.844
4.841
4.839
