2.992
3.336
3.507
3.631
3.709
3.794
3.852
3.887
3.901
3.951
4.000
3.987
4.011
4.044
4.075
4.104
4.127
4.154
4.173
4.151
4.101
4.116
4.124
4.147
4.156
4.162
4.180
4.185
4.200
4.205
4.218
4.229
4.235
4.248
4.259
4.255
4.265
4.275
4.274
4.285
4.293
4.302
4.310
4.301
4.316
4.321
4.333
4.336
4.346
4.337
4.341
4.350
4.356
4.364
4.369
4.378
4.384
4.388
4.375
4.386
4.383
4.395
4.400
4.398
4.404
4.416
4.419
4.425
4.427
4.431
4.430
4.419
4.421
4.421
4.432
4.443
4.440
4.445
4.443
4.449
4.454
4.460
4.465
4.472
4.467
4.473
4.482
4.480
4.492
4.495
4.496
4.479
4.470
4.471
4.476
4.481
4.479
4.492
4.485
4.493
4.502
4.492
4.499
4.498
4.506
4.503
4.508
4.515
4.518
4.523
4.528
4.532
4.525
4.520
4.529
4.525
4.529
4.534
4.540
4.548
4.551
4.550
4.554
4.561
4.558
4.563
4.567
4.556
4.564
4.568
4.562
4.558
4.544
4.532
4.541
4.546
4.537
4.547
4.557
4.551
4.546
4.558
4.559
4.555
4.561
4.565
4.566
4.566
4.567
4.553
4.561
4.565
4.562
4.573
4.563
4.576
4.570
4.576
4.580
4.581
4.588
4.582
4.595
4.592
4.587
4.582
4.592
4.591
4.598
4.599
4.610
4.602
4.611
4.607
4.603
4.593
4.606
4.605
4.606
4.599
4.602
4.603
4.602
4.614
4.605
4.612
4.609
4.608
4.618
4.618
4.622
4.628
4.626
4.631
4.632
4.626
4.636
4.629
4.633
4.632
4.630
4.641
4.639
4.639
4.646
4.647
4.648
4.652
4.649
4.646
4.654
4.651
4.655
4.655
4.646
4.640
4.654
4.653
4.656
4.651
4.653
4.646
4.647
4.651
4.648
4.643
4.661
4.657
4.656
4.652
4.664
4.668
4.666
4.667
4.670
4.672
4.669
4.669
4.682
4.681
4.676
4.675
4.687
4.686
4.686
4.686
4.680
4.672
4.664
4.657
4.649
4.641
4.645
4.646
4.644
4.642
4.650
4.656
4.653
4.652
4.647
4.661
4.662
4.656
4.645
4.651
4.663
4.663
4.660
4.652
4.657
4.670
4.668
4.667
4.666
4.663
4.675
4.689
4.680
4.674
4.671
4.674
4.677
4.668
4.658
4.655
4.670
4.672
4.666
4.659
4.655
4.662
4.665
4.656
4.651
4.654
4.652
4.668
4.661
4.662
4.659
4.654
4.654
4.669
4.670
4.669
4.662
4.666
4.658
4.668
4.679
4.683
4.686
4.682
4.669
4.668
4.677
4.690
4.683
4.685
4.678
4.673
4.673
4.681
4.687
4.682
4.688
4.682
4.680
4.678
4.682
4.691
4.691
4.692
4.685
4.687
4.686
4.690
4.693
4.707
4.708
4.701
4.705
4.697
4.695
4.698
4.699
4.701
4.696
4.689
4.690
4.696
4.688
4.686
4.699
4.701
4.707
4.705
4.693
4.688
4.687
4.685
4.695
4.707
4.706
4.710
4.701
4.703
4.703
4.700
4.695
4.699
4.712
4.720
4.717
4.717
4.718
4.714
4.707
4.699
4.698
4.710
4.721
4.722
4.724
4.718
4.721
4.719
4.715
4.711
4.714
4.718
4.726
4.738
4.739
4.741
4.739
4.733
4.732
4.727
4.722
4.721
4.725
4.737
4.744
4.737
4.733
4.728
4.729
4.732
4.731
4.732
4.734
4.730
4.735
4.729
4.722
4.716
4.711
4.706
4.709
4.708
4.705
4.715
4.723
4.724
4.722
4.725
4.718
4.721
4.720
4.713
4.711
4.703
4.706
4.715
4.716
4.723
4.721
4.716
4.716
4.711
4.705
4.707
4.710
4.711
4.704
4.711
4.721
4.725
4.723
4.725
4.724
4.726
4.725
4.726
4.728
4.729
4.723
4.720
4.722
4.719
4.729
4.735
4.733
4.728
4.721
4.726
4.720
4.724
4.728
4.727
4.724
4.724
4.719
4.718
4.728
4.726
4.730
4.734
4.725
4.721
4.721
4.719
4.725
4.722
4.718
4.726
4.728
4.723
4.719
4.728
4.737
4.747
4.743
4.736
4.739
4.739
4.744
4.741
4.746
4.743
4.737
4.738
4.741
4.739
4.734
4.733
4.738
4.747
4.752
4.755
4.755
4.750
4.750
4.746
4.738
4.738
4.742
4.738
4.738
4.731
4.731
4.731
4.730
4.738
4.746
4.755
4.760
4.756
4.764
4.759
4.756
4.757
4.758
4.757
4.754
4.752
4.751
4.750
4.755
4.759
4.760
4.757
4.755
4.753
4.762
4.770
4.778
4.773
4.774
4.774
4.771
4.772
4.764
4.767
4.765
4.759
4.759
4.760
4.760
4.759
4.758
4.759
4.753
4.756
4.765
4.764
4.758
4.752
4.751
4.755
4.752
4.751
4.751
4.748
4.751
4.748
4.747
4.749
4.753
4.757
4.754
4.747
4.747
4.748
4.756
4.758
4.754
4.761
4.760
4.761
4.755
4.754
4.748
4.748
4.744
4.752
4.749
4.744
4.742
4.746
4.746
4.751
4.751
4.749
4.750
4.750
4.751
4.759
4.766
4.774
4.777
4.778
4.776
4.770
4.770
4.762
4.762
4.764
4.763
4.759
4.762
4.762
4.761
4.759
4.754
4.750
4.751
4.755
4.755
4.753
4.747
4.755
4.762
4.770
4.777
4.785
4.789
4.790
4.800
4.794
4.788
4.785
4.779
4.778
4.774
4.770
4.769
4.772
4.770
4.777
4.778
4.774
4.773
4.772
4.771
4.770
4.765
4.771
4.772
4.771
4.773
4.780
4.787
4.794
4.801
4.808
4.807
4.799
4.799
4.804
4.800
4.800
4.798
4.799
4.799
4.795
4.790
4.795
4.790
4.787
4.781
4.783
4.782
4.780
4.782
4.790
4.786
4.783
4.780
4.782
4.781
4.787
4.794
4.801
4.805
4.799
4.793
4.787
4.786
4.783
4.784
4.784
4.783
4.785
4.788
4.782
4.784
4.783
4.783
4.784
4.789
4.784
4.783
4.778
4.774
4.774
4.771
4.773
4.775
4.771
4.775
4.776
4.783
4.789
4.796
4.802
4.809
4.815
4.812
4.812
4.809
4.808
4.803
4.803
4.805
4.806
4.803
4.800
4.800
4.805
4.803
4.797
4.797
4.796
4.794
4.798
4.803
4.804
4.805
4.801
4.793
4.794
4.795
4.795
4.795
4.798
4.795
4.795
4.795
4.798
4.804
4.810
4.816
4.823
4.829
4.832
4.835
4.830
4.828
4.825
4.825
4.833
4.833
4.832
4.837
4.839
4.836
4.834
4.833
4.825
4.823
4.816
4.810
4.809
4.807
4.807
4.814
4.808
4.803
4.801
4.802
4.802
4.810
4.815
4.820
4.817
4.813
4.812
4.810
4.808
4.814
4.819
4.815
4.812
4.810
4.807
4.806
4.801
4.802
4.807
4.803
4.805
4.800
4.796
4.793
4.795
4.798
4.797
4.794
4.790
4.787
4.784
4.783
4.783
4.786
4.786
4.789
4.789
4.792
4.787
4.786
4.787
4.784
4.784
4.782
4.780
4.781
4.784
4.789
4.795
4.798
4.795
4.798
4.800
4.800
4.804
4.801
4.804
4.803
4.800
4.796
4.796
4.793
4.796
4.796
4.795
4.795
4.796
4.794
4.796
4.794
4.796
4.796
4.795
4.789
4.788
4.791
4.790
4.786
4.786
4.788
4.785
4.784
4.783
4.780
4.786
4.784
4.784
4.780
4.780
4.779
4.779
4.775
4.779
4.785
4.790
4.795
4.801
4.806
4.808
4.806
4.804
4.804
4.801
4.804
4.802
4.799
4.801
4.801
4.803
4.805
4.805
4.810
4.815
4.813
4.811
4.810
4.811
4.806
4.807
4.804
4.802
4.804
4.805
4.800
4.795
4.792
4.790
4.790
4.787
4.787
4.789
4.787
4.788
4.795
4.793
4.790
4.789
4.788
4.790
4.786
4.781
4.780
4.775
4.774
4.778
4.783
4.788
4.793
4.798
4.803
4.808
4.813
4.809
4.807
4.805
4.800
4.798
4.797
4.799
4.801
4.800
4.804
4.804
4.804
4.799
4.799
4.796
4.794
4.793
4.790
4.790
4.793
4.790
4.790
4.787
4.787
4.794
4.792
4.791
4.791
4.792
4.792
4.793
4.793
4.787
4.787
4.787
4.788
4.790
4.790
4.789
4.788
4.785
4.789
4.790
4.788
4.791
4.787
4.784
4.788
4.790
4.790
4.791
4.790
4.788
4.789
4.793
