2.994
3.332
3.516
3.635
3.720
3.795
3.834
3.880
3.942
3.964
4.012
4.005
4.045
4.079
4.100
4.074
4.101
4.124
4.147
4.164
4.186
4.208
4.226
4.241
4.259
4.228
4.191
4.190
4.199
4.214
4.219
4.231
4.237
4.249
4.253
4.266
4.265
4.279
4.287
4.286
4.298
4.305
4.316
4.315
4.325
4.331
4.339
4.337
4.344
4.351
4.360
4.365
4.360
4.367
4.371
4.381
4.385
4.392
4.385
4.390
4.396
4.400
4.407
4.414
4.416
4.427
4.429
4.417
4.426
4.428
4.431
4.439
4.442
4.445
4.449
4.455
4.460
4.461
4.459
4.452
4.462
4.466
4.465
4.466
4.475
4.475
4.479
4.483
4.484
4.493
4.495
4.502
4.500
4.504
4.505
4.508
4.494
4.497
4.503
4.497
4.503
4.507
4.511
4.516
4.516
4.524
4.523
4.521
4.525
4.531
4.533
4.540
4.541
4.546
4.549
4.545
4.549
4.551
4.550
4.557
4.561
4.567
4.566
4.565
4.552
4.548
4.541
4.545
4.550
4.549
4.555
4.556
4.558
4.560
4.568
4.565
4.564
4.567
4.575
4.570
4.572
4.575
4.574
4.576
4.579
4.578
4.582
4.589
4.594
4.595
4.596
4.597
4.596
4.605
4.601
4.597
4.602
4.606
4.602
4.603
4.604
4.611
4.612
4.611
4.619
4.623
4.618
4.625
4.624
4.625
4.627
4.636
4.632
4.634
4.632
4.634
4.631
4.638
4.635
4.625
4.615
4.605
4.607
4.606
4.608
4.616
4.613
4.623
4.616
4.619
4.618
4.625
4.626
4.627
4.627
4.628
4.632
4.628
4.637
4.633
4.640
4.641
4.642
4.630
4.635
4.636
4.638
4.630
4.638
4.628
4.640
4.638
4.640
4.642
4.640
4.645
4.646
4.650
4.649
4.650
4.654
4.650
4.660
4.658
4.660
4.666
4.657
4.663
4.659
4.664
4.659
4.658
4.673
4.666
4.665
4.679
4.676
4.675
4.676
4.677
4.670
4.661
4.667
4.669
4.668
4.672
4.679
4.677
4.673
4.674
4.668
4.675
4.679
4.679
4.678
4.683
4.678
4.679
4.681
4.682
4.682
4.691
4.690
4.691
4.690
4.702
4.700
4.696
4.701
4.701
4.698
4.697
4.708
4.696
4.694
4.702
4.701
4.701
4.703
4.713
4.709
4.707
4.706
4.718
4.712
4.713
4.709
4.724
4.720
4.716
4.716
4.727
4.725
4.727
4.717
4.716
4.706
4.710
4.714
4.716
4.719
4.716
4.719
4.726
4.730
4.719
4.714
4.721
4.725
4.719
4.716
4.718
4.723
4.724
4.720
4.723
4.725
4.729
4.730
4.731
4.728
4.731
4.741
4.743
4.742
4.735
4.734
4.746
4.742
4.742
4.741
4.740
4.749
4.751
4.747
4.748
4.747
4.740
4.734
4.729
4.725
4.719
4.714
4.718
4.717
4.712
4.723
4.721
4.717
4.713
4.705
4.713
4.712
4.715
4.714
4.712
4.714
4.721
4.727
4.724
4.722
4.723
4.717
4.724
4.734
4.729
4.723
4.719
4.717
4.723
4.730
4.729
4.734
4.731
4.728
4.726
4.731
4.738
4.733
4.734
4.736
4.734
4.733
4.737
4.747
4.751
4.750
4.749
4.744
4.742
4.738
4.732
4.725
4.729
4.722
4.723
4.727
4.735
4.736
4.734
4.733
4.732
4.727
4.724
4.733
4.731
4.723
4.721
4.717
4.718
4.719
4.727
4.734
4.731
4.734
4.734
4.727
4.723
4.720
4.731
4.739
4.731
4.730
4.729
4.731
4.731
4.730
4.731
4.739
4.740
4.741
4.743
4.745
4.738
4.739
4.742
4.744
4.746
4.747
4.743
4.747
4.749
4.749
4.748
4.745
4.738
4.747
4.756
4.750
4.743
4.741
4.743
4.741
4.743
4.742
4.748
4.757
4.757
4.761
4.756
4.755
4.751
4.750
4.749
4.750
4.753
4.761
4.764
4.764
4.762
4.764
4.762
4.764
4.765
4.764
4.762
4.763
4.770
4.777
4.773
4.772
4.765
4.760
4.760
4.760
4.751
4.758
4.767
4.768
4.770
4.764
4.765
4.763
4.765
4.761
4.759
4.757
4.759
4.768
4.765
4.764
4.762
4.761
4.762
4.761
4.759
4.760
4.760
4.758
4.765
4.772
4.781
4.780
4.779
4.774
4.773
4.768
4.773
4.774
4.771
4.771
4.771
4.775
4.782
4.790
4.787
4.785
4.779
4.774
4.771
4.769
4.768
4.769
4.776
4.771
4.779
4.786
4.790
4.791
4.790
4.794
4.787
4.788
4.790
4.786
4.786
4.783
4.786
4.783
4.787
4.796
4.803
4.812
4.811
4.805
4.803
4.799
4.797
4.791
4.797
4.794
4.790
4.793
4.790
4.796
4.805
4.805
4.806
4.802
4.803
4.802
4.798
4.797
4.794
4.788
4.784
4.780
4.782
4.788
4.781
4.783
4.781
4.780
4.779
4.777
4.782
4.777
4.784
4.777
4.776
4.769
4.775
4.780
4.789
4.788
4.792
4.794
4.789
4.785
4.778
4.772
4.771
4.768
4.764
4.764
4.764
4.766
4.773
4.780
4.779
4.786
4.784
4.783
4.786
4.783
4.784
4.782
4.778
4.777
4.778
4.775
4.773
4.772
4.775
4.775
4.781
4.788
4.794
4.793
4.794
4.794
4.795
4.790
4.787
4.786
4.787
4.790
4.794
4.794
4.795
4.793
4.790
4.783
4.782
4.790
4.795
4.802
4.801
4.797
4.794
4.790
4.789
4.793
4.789
4.791
4.787
4.786
4.790
4.786
4.787
4.782
4.776
4.782
4.789
4.794
4.801
4.794
4.794
4.790
4.786
4.786
4.790
4.793
4.789
4.786
4.787
4.788
4.784
4.786
4.787
4.782
4.782
4.782
4.787
4.794
4.801
4.807
4.811
4.808
4.808
4.808
4.803
4.801
4.805
4.804
4.803
4.801
4.801
4.804
4.805
4.801
4.805
4.804
4.801
4.804
4.801
4.801
4.805
4.810
4.817
4.815
4.812
4.812
4.816
4.812
4.814
4.815
4.812
4.812
4.805
4.801
4.800
4.799
4.798
4.794
4.800
4.802
4.800
4.799
4.800
4.805
4.811
4.816
4.822
4.821
4.820
4.819
4.816
4.816
4.816
4.816
4.816
4.821
4.823
4.823
4.819
4.815
4.814
4.816
4.814
4.818
4.814
4.815
4.814
4.810
4.809
4.815
4.822
4.827
4.833
4.838
4.841
4.842
4.839
4.835
4.831
4.834
4.831
4.831
4.831
4.829
4.827
4.832
4.828
4.826
4.827
4.826
4.822
4.819
4.823
4.819
4.819
4.821
4.820
4.824
4.831
4.832
4.828
4.823
4.820
4.818
4.814
4.815
4.814
4.810
4.809
4.808
4.806
4.807
4.806
4.808
4.809
4.805
4.809
4.807
4.806
4.808
4.809
4.812
4.808
4.813
4.820
4.824
4.830
4.835
4.833
4.831
4.830
4.824
4.820
4.818
4.816
4.812
4.808
4.813
4.816
4.816
4.816
4.813
4.814
4.808
4.805
4.805
4.803
4.805
4.801
4.804
4.800
4.802
4.808
4.813
4.819
4.823
4.828
4.831
4.833
4.838
4.841
4.842
4.836
4.835
4.833
4.832
4.834
4.834
4.834
4.835
4.833
4.832
4.828
4.824
4.825
4.821
4.819
4.823
4.820
4.821
4.822
4.819
4.817
4.815
4.809
4.812
4.816
4.821
4.827
4.831
4.836
4.842
4.841
4.840
4.839
4.842
4.842
4.840
4.838
4.837
4.842
4.840
4.844
4.843
4.844
4.843
4.841
4.838
4.841
4.843
4.842
4.842
4.841
4.837
4.838
4.834
4.830
4.826
4.827
4.829
4.828
4.826
4.827
4.829
4.831
4.837
4.842
4.848
4.852
4.857
4.860
4.860
4.860
4.857
4.853
4.851
4.852
4.853
4.852
4.853
4.853
4.856
4.855
4.853
4.853
4.857
4.858
4.860
4.861
4.860
4.855
4.854
4.850
4.849
4.850
4.851
4.847
4.843
4.842
4.842
4.844
4.843
4.847
4.845
4.841
4.846
4.850
4.856
4.860
4.865
4.866
4.865
4.869
4.867
4.866
4.867
4.868
4.865
4.866
4.862
4.860
4.860
4.863
4.862
4.860
4.856
4.852
4.848
4.844
4.842
4.836
4.835
4.836
4.837
4.834
4.835
4.841
4.838
4.836
4.837
4.838
4.838
4.839
4.835
4.834
4.838
4.844
4.848
4.852
4.857
4.861
4.867
4.868
