2.994
3.332
3.514
3.634
3.715
3.785
3.849
3.892
3.920
3.976
3.975
4.017
4.057
4.070
4.057
4.081
4.109
4.132
4.151
4.174
4.195
4.215
4.233
4.209
4.169
4.170
4.178
4.190
4.202
4.207
4.222
4.226
4.240
4.240
4.252
4.267
4.268
4.277
4.288
4.288
4.298
4.307
4.314
4.310
4.321
4.329
4.337
4.335
4.336
4.347
4.355
4.362
4.370
4.363
4.364
4.374
4.377
4.388
4.391
4.398
4.405
4.390
4.402
4.407
4.410
4.417
4.422
4.425
4.432
4.436
4.438
4.445
4.432
4.439
4.440
4.445
4.447
4.451
4.458
4.458
4.460
4.470
4.474
4.480
4.479
4.481
4.488
4.483
4.479
4.478
4.473
4.480
4.485
4.488
4.495
4.497
4.504
4.499
4.503
4.505
4.512
4.516
4.518
4.524
4.526
4.525
4.526
4.530
4.531
4.538
4.542
4.544
4.550
4.535
4.526
4.521
4.523
4.527
4.533
4.533
4.536
4.536
4.544
4.547
4.550
4.554
4.550
4.547
4.551
4.549
4.553
4.557
4.558
4.560
4.570
4.570
4.564
4.574
4.577
4.582
4.583
4.576
4.581
4.585
4.581
4.581
4.581
4.592
4.594
4.596
4.599
4.601
4.608
4.606
4.605
4.610
4.616
4.614
4.616
4.609
4.616
4.614
4.621
4.609
4.597
4.587
4.586
4.585
4.589
4.595
4.597
4.596
4.594
4.601
4.605
4.607
4.603
4.604
4.613
4.606
4.613
4.614
4.618
4.618
4.621
4.612
4.613
4.615
4.610
4.617
4.611
4.615
4.616
4.621
4.619
4.625
4.625
4.631
4.627
4.633
4.632
4.636
4.638
4.634
4.644
4.642
4.643
4.636
4.641
4.639
4.641
4.650
4.647
4.655
4.655
4.655
4.658
4.659
4.655
4.644
4.651
4.650
4.644
4.658
4.657
4.650
4.652
4.648
4.654
4.658
4.655
4.659
4.662
4.661
4.662
4.662
4.662
4.667
4.671
4.673
4.670
4.683
4.681
4.677
4.684
4.681
4.677
4.684
4.681
4.677
4.681
4.684
4.685
4.680
4.693
4.692
4.690
4.691
4.695
4.695
4.692
4.700
4.701
4.699
4.696
4.707
4.707
4.699
4.699
4.692
4.695
4.686
4.701
4.699
4.703
4.699
4.706
4.702
4.696
4.695
4.706
4.702
4.698
4.694
4.704
4.707
4.704
4.705
4.704
4.714
4.712
4.708
4.712
4.714
4.726
4.722
4.718
4.714
4.723
4.727
4.725
4.729
4.725
4.729
4.737
4.727
4.726
4.724
4.718
4.713
4.707
4.703
4.703
4.694
4.693
4.692
4.704
4.695
4.685
4.683
4.690
4.703
4.699
4.699
4.698
4.695
4.701
4.708
4.704
4.707
4.703
4.702
4.706
4.700
4.704
4.700
4.701
4.700
4.710
4.714
4.712
4.711
4.707
4.703
4.714
4.722
4.723
4.719
4.718
4.719
4.720
4.725
4.731
4.725
4.725
4.716
4.710
4.711
4.712
4.707
4.707
4.708
4.704
4.713
4.717
4.716
4.710
4.703
4.704
4.703
4.709
4.708
4.704
4.705
4.706
4.705
4.704
4.714
4.714
4.713
4.706
4.707
4.706
4.702
4.712
4.721
4.720
4.719
4.718
4.716
4.709
4.713
4.717
4.729
4.734
4.732
4.731
4.727
4.718
4.718
4.718
4.730
4.737
4.729
4.728
4.725
4.725
4.722
4.715
4.725
4.733
4.733
4.737
4.736
4.737
4.729
4.725
4.727
4.733
4.740
4.739
4.740
4.736
4.738
4.733
4.738
4.736
4.733
4.744
4.752
4.758
4.755
4.751
4.751
4.747
4.749
4.747
4.746
4.748
4.744
4.742
4.741
4.740
4.740
4.742
4.736
4.737
4.741
4.750
4.754
4.751
4.749
4.740
4.741
4.737
4.735
4.733
4.740
4.748
4.754
4.756
4.755
4.753
4.752
4.751
4.747
4.751
4.747
4.742
4.752
4.761
4.770
4.764
4.760
4.761
4.765
4.764
4.762
4.753
4.747
4.750
4.758
4.769
4.768
4.764
4.763
4.767
4.762
4.764
4.765
4.766
4.763
4.761
4.762
4.770
4.779
4.781
4.784
4.781
4.779
4.783
4.785
4.780
4.774
4.780
4.773
4.770
4.776
4.784
4.787
4.789
4.784
4.781
4.779
4.781
4.774
4.772
4.774
4.769
4.776
4.775
4.777
4.772
4.768
4.764
4.758
4.758
4.755
4.756
4.754
4.751
4.752
4.759
4.766
4.769
4.766
4.770
4.768
4.767
4.763
4.759
4.763
4.766
4.758
4.759
4.752
4.755
4.760
4.759
4.760
4.756
4.757
4.755
4.758
4.759
4.758
4.761
4.758
4.756
4.754
4.750
4.754
4.762
4.770
4.775
4.773
4.770
4.765
4.766
4.763
4.761
4.763
4.767
4.768
4.767
4.765
4.767
4.762
4.762
4.770
4.777
4.781
4.777
4.776
4.780
4.773
4.777
4.777
4.772
4.770
4.762
4.760
4.761
4.766
4.766
4.765
4.767
4.776
4.777
4.777
4.775
4.777
4.777
4.773
4.769
4.770
4.766
4.768
4.767
4.763
4.761
4.757
4.756
4.758
4.767
4.773
4.780
4.788
4.792
4.790
4.786
4.782
4.783
4.781
4.783
4.784
4.778
4.776
4.778
4.779
4.778
4.777
4.777
4.779
4.778
4.779
4.788
4.793
4.800
4.799
4.797
4.795
4.797
4.796
4.794
4.788
4.786
4.788
4.786
4.785
4.784
4.784
4.783
4.782
4.778
4.779
4.783
4.790
4.795
4.801
4.795
4.798
4.794
4.796
4.794
4.795
4.795
4.793
4.795
4.796
4.797
4.795
4.791
4.793
4.791
4.793
4.792
4.792
4.791
4.790
4.797
4.803
4.810
4.817
4.824
4.820
4.819
4.821
4.821
4.818
4.821
4.814
4.810
4.806
4.803
4.803
4.803
4.810
4.808
4.812
4.811
4.804
4.803
4.798
4.800
4.806
4.811
4.818
4.824
4.818
4.813
4.809
4.811
4.817
4.813
4.809
4.803
4.798
4.795
4.790
4.786
4.784
4.780
4.779
4.780
4.788
4.784
4.787
4.791
4.798
4.803
4.809
4.810
4.810
4.811
4.812
4.816
4.817
4.813
4.810
4.803
4.801
4.799
4.799
4.794
4.792
4.792
4.795
4.795
4.793
4.789
4.787
4.784
4.777
4.784
4.790
4.795
4.801
4.808
4.809
4.807
4.810
4.814
4.815
4.816
4.810
4.811
4.806
4.810
4.809
4.808
4.809
4.808
4.806
4.803
4.809
4.807
4.804
4.808
4.809
4.803
4.804
4.799
4.799
4.794
4.796
4.802
4.806
4.813
4.818
4.822
4.821
4.818
4.814
4.814
4.815
4.811
4.814
4.818
4.815
4.819
4.818
4.816
4.817
4.811
4.814
4.816
4.818
4.819
4.818
4.814
4.817
4.818
4.815
4.811
4.815
4.813
4.814
4.808
4.810
4.816
4.821
4.827
4.833
4.838
4.839
4.840
4.842
4.833
4.829
4.827
4.826
4.830
4.826
4.825
4.826
4.830
4.831
4.829
4.834
4.833
4.834
4.833
4.839
4.836
4.837
4.835
4.833
4.833
4.836
4.830
4.823
4.821
4.823
4.822
4.825
4.825
4.831
4.836
4.840
4.844
4.844
4.844
4.844
4.847
4.850
4.847
4.850
4.851
4.850
4.846
4.840
4.836
4.833
4.841
4.837
4.838
4.840
4.843
4.839
4.836
4.833
4.833
4.833
4.827
4.823
4.819
4.815
4.813
4.812
4.814
4.815
4.818
4.823
4.829
4.833
4.838
4.840
4.841
4.842
4.841
4.839
4.843
4.840
4.840
4.839
4.840
4.837
4.832
4.837
4.840
4.839
4.841
4.839
4.838
4.837
4.840
4.833
4.832
4.834
4.830
4.828
4.824
4.823
4.825
4.825
4.829
4.826
4.822
4.826
4.830
4.828
4.830
4.829
4.833
4.833
4.835
4.840
4.846
4.850
4.854
4.859
4.862
4.858
4.854
4.853
4.855
4.861
4.862
4.866
4.858
4.858
4.857
4.855
4.855
4.853
4.854
4.851
4.851
4.855
4.851
4.851
4.851
4.851
4.857
4.861
4.865
4.861
4.857
4.853
4.851
4.853
4.857
4.853
4.852
4.851
4.851
4.850
4.852
4.848
4.851
4.847
4.847
4.848
4.852
4.856
4.862
4.866
4.870
4.875
4.879
4.875
4.870
4.866
4.868
4.872
4.874
4.875
4.870
4.866
