2.994
3.329
3.516
3.627
3.728
3.779
3.838
3.883
3.912
3.965
3.977
4.008
4.049
4.082
4.059
4.080
4.106
4.131
4.150
4.168
4.190
4.211
4.231
4.249
4.226
4.187
4.179
4.187
4.205
4.209
4.224
4.228
4.242
4.245
4.257
4.258
4.271
4.283
4.283
4.293
4.305
4.299
4.308
4.318
4.327
4.324
4.331
4.338
4.347
4.354
4.350
4.354
4.360
4.371
4.375
4.386
4.375
4.381
4.388
4.392
4.404
4.405
4.412
4.417
4.408
4.408
4.416
4.416
4.424
4.431
4.431
4.438
4.446
4.453
4.451
4.452
4.442
4.452
4.454
4.457
4.460
4.466
4.470
4.469
4.476
4.477
4.486
4.490
4.489
4.496
4.498
4.504
4.490
4.490
4.490
4.486
4.492
4.494
4.500
4.508
4.508
4.512
4.509
4.515
4.517
4.518
4.527
4.531
4.531
4.537
4.536
4.537
4.542
4.540
4.545
4.553
4.552
4.560
4.558
4.548
4.539
4.535
4.536
4.540
4.541
4.545
4.547
4.551
4.553
4.559
4.557
4.559
4.564
4.564
4.563
4.564
4.566
4.567
4.571
4.571
4.579
4.581
4.583
4.583
4.580
4.586
4.588
4.595
4.591
4.589
4.594
4.594
4.591
4.597
4.596
4.603
4.602
4.605
4.613
4.614
4.612
4.616
4.616
4.620
4.621
4.627
4.629
4.627
4.621
4.627
4.626
4.630
4.620
4.608
4.597
4.600
4.596
4.605
4.599
4.608
4.608
4.606
4.612
4.611
4.618
4.617
4.615
4.617
4.621
4.622
4.624
4.627
4.626
4.631
4.632
4.625
4.621
4.631
4.623
4.627
4.626
4.625
4.623
4.634
4.629
4.636
4.634
4.638
4.637
4.636
4.643
4.642
4.648
4.649
4.649
4.652
4.653
4.652
4.653
4.653
4.649
4.650
4.656
4.658
4.662
4.663
4.664
4.672
4.668
4.666
4.670
4.658
4.662
4.660
4.659
4.664
4.667
4.664
4.660
4.658
4.667
4.668
4.667
4.671
4.675
4.669
4.673
4.677
4.668
4.675
4.678
4.680
4.675
4.690
4.687
4.683
4.690
4.696
4.689
4.688
4.698
4.696
4.690
4.693
4.694
4.686
4.694
4.702
4.700
4.699
4.701
4.707
4.703
4.701
4.709
4.713
4.714
4.705
4.714
4.715
4.714
4.713
4.719
4.712
4.703
4.705
4.709
4.705
4.705
4.707
4.722
4.716
4.719
4.710
4.714
4.710
4.709
4.707
4.716
4.712
4.711
4.708
4.714
4.724
4.714
4.720
4.717
4.723
4.730
4.731
4.728
4.732
4.728
4.735
4.734
4.734
4.725
4.734
4.742
4.742
4.741
4.734
4.736
4.740
4.734
4.729
4.722
4.718
4.712
4.707
4.705
4.715
4.708
4.708
4.708
4.705
4.705
4.702
4.703
4.704
4.700
4.708
4.717
4.715
4.712
4.712
4.708
4.713
4.723
4.723
4.719
4.715
4.711
4.715
4.717
4.718
4.722
4.716
4.719
4.718
4.727
4.726
4.725
4.723
4.723
4.724
4.725
4.734
4.741
4.737
4.736
4.738
4.739
4.734
4.736
4.727
4.722
4.715
4.709
4.721
4.727
4.726
4.723
4.723
4.725
4.723
4.722
4.731
4.725
4.723
4.714
4.708
4.708
4.720
4.722
4.718
4.722
4.723
4.723
4.718
4.716
4.724
4.727
4.723
4.720
4.718
4.719
4.716
4.720
4.727
4.734
4.732
4.730
4.729
4.728
4.731
4.728
4.731
4.739
4.746
4.741
4.734
4.738
4.734
4.736
4.738
4.734
4.743
4.745
4.745
4.739
4.732
4.734
4.735
4.731
4.737
4.747
4.753
4.752
4.746
4.745
4.743
4.739
4.742
4.739
4.746
4.755
4.756
4.753
4.748
4.755
4.751
4.752
4.749
4.752
4.751
4.761
4.770
4.768
4.762
4.758
4.760
4.758
4.751
4.749
4.751
4.757
4.756
4.758
4.759
4.757
4.751
4.755
4.748
4.750
4.751
4.758
4.762
4.753
4.754
4.750
4.754
4.752
4.746
4.745
4.746
4.749
4.757
4.768
4.773
4.772
4.767
4.763
4.765
4.761
4.760
4.764
4.759
4.761
4.764
4.772
4.775
4.775
4.775
4.780
4.775
4.766
4.759
4.760
4.757
4.763
4.765
4.772
4.781
4.782
4.778
4.779
4.779
4.777
4.781
4.777
4.776
4.775
4.775
4.772
4.778
4.785
4.795
4.797
4.798
4.801
4.800
4.793
4.789
4.785
4.784
4.791
4.784
4.780
4.786
4.793
4.794
4.791
4.795
4.797
4.790
4.791
4.789
4.785
4.789
4.790
4.784
4.779
4.783
4.782
4.776
4.769
4.770
4.769
4.770
4.769
4.768
4.769
4.770
4.769
4.764
4.771
4.779
4.779
4.779
4.785
4.783
4.782
4.783
4.777
4.771
4.768
4.760
4.758
4.753
4.761
4.767
4.772
4.771
4.774
4.770
4.772
4.771
4.777
4.776
4.772
4.771
4.769
4.765
4.763
4.762
4.761
4.767
4.775
4.781
4.783
4.781
4.782
4.781
4.783
4.783
4.777
4.776
4.779
4.784
4.783
4.781
4.783
4.781
4.777
4.778
4.782
4.787
4.791
4.790
4.790
4.794
4.786
4.784
4.780
4.779
4.780
4.776
4.775
4.779
4.777
4.781
4.779
4.778
4.779
4.786
4.793
4.795
4.788
4.786
4.779
4.776
4.780
4.784
4.783
4.776
4.777
4.776
4.774
4.776
4.775
4.773
4.774
4.778
4.785
4.792
4.797
4.803
4.802
4.798
4.796
4.794
4.796
4.795
4.793
4.790
4.788
4.790
4.796
4.790
4.790
4.792
4.793
4.795
4.794
4.790
4.794
4.801
4.807
4.808
4.804
4.809
4.807
4.805
4.804
4.801
4.801
4.803
4.805
4.801
4.797
4.792
4.788
4.786
4.793
4.790
4.788
4.789
4.796
4.801
4.807
4.811
4.813
4.812
4.808
4.809
4.808
4.808
4.804
4.805
4.812
4.812
4.813
4.812
4.807
4.805
4.804
4.805
4.807
4.806
4.805
4.801
4.799
4.806
4.813
4.817
4.824
4.831
4.837
4.831
4.834
4.831
4.829
4.827
4.821
4.820
4.818
4.819
4.818
4.817
4.821
4.823
4.821
4.817
4.812
4.811
4.810
4.811
4.813
4.812
4.818
4.823
4.824
4.822
4.820
4.823
4.820
4.817
4.812
4.808
4.802
4.800
4.797
4.798
4.797
4.797
4.796
4.794
4.796
4.795
4.799
4.803
4.801
4.800
4.801
4.806
4.812
4.817
4.824
4.830
4.827
4.827
4.826
4.822
4.820
4.817
4.813
4.808
4.802
4.805
4.802
4.803
4.804
4.808
4.810
4.805
4.797
4.794
4.794
4.794
4.791
4.790
4.796
4.801
4.808
4.812
4.818
4.822
4.821
4.825
4.829
4.830
4.829
4.825
4.826
4.820
4.821
4.823
4.826
4.823
4.824
4.822
4.820
4.820
4.823
4.817
4.813
4.816
4.815
4.816
4.812
4.808
4.807
4.808
4.802
4.808
4.813
4.819
4.823
4.828
4.832
4.833
4.829
4.827
4.831
4.833
4.829
4.830
4.829
4.831
4.831
4.833
4.832
4.833
4.829
4.828
4.831
4.831
4.831
4.830
4.832
4.831
4.832
4.831
4.826
4.820
4.821
4.817
4.821
4.823
4.818
4.822
4.827
4.833
4.837
4.842
4.848
4.847
4.849
4.849
4.846
4.847
4.845
4.844
4.843
4.838
4.840
4.842
4.846
4.847
4.843
4.844
4.843
4.847
4.853
4.852
4.853
4.850
4.851
4.847
4.843
4.841
4.842
4.839
4.837
4.834
4.834
4.834
4.835
4.834
4.835
4.841
4.843
4.849
4.854
4.857
4.857
4.855
4.860
4.863
4.864
4.860
4.856
4.853
4.854
4.852
4.851
4.847
4.849
4.855
4.859
4.852
4.853
4.849
4.845
4.841
4.837
4.833
4.831
4.828
4.826
4.827
4.826
4.827
4.829
4.827
4.827
4.828
4.829
4.831
4.837
4.839
4.845
4.850
4.856
4.858
4.854
4.853
4.857
4.858
4.853
4.850
4.849
4.852
4.849
4.842
4.848
4.850
4.849
4.852
4.851
4.849
4.849
4.852
4.846
4.841
4.843
4.841
4.840
4.839
4.840
4.842
4.840
4.836
4.842
4.841
4.840
4.841
4.840
4.839
4.840
4.838
4.843
4.847
4.843
4.844
4.849
4.853
4.859
4.863
