2.992
3.323
3.515
3.628
3.692
3.742
3.833
3.825
3.888
3.938
3.985
4.031
3.995
3.964
3.978
4.006
4.020
4.049
4.064
4.075
4.099
4.105
4.126
4.131
4.144
4.161
4.161
4.177
4.194
4.189
4.198
4.211
4.225
4.237
4.233
4.235
4.252
4.254
4.268
4.277
4.289
4.301
4.274
4.286
4.299
4.304
4.312
4.320
4.329
4.328
4.337
4.347
4.364
4.359
4.335
4.338
4.346
4.355
4.366
4.355
4.362
4.376
4.376
4.383
4.398
4.392
4.385
4.402
4.407
4.413
4.420
4.417
4.433
4.427
4.425
4.436
4.447
4.423
4.403
4.414
4.411
4.411
4.420
4.425
4.439
4.427
4.430
4.430
4.430
4.429
4.445
4.443
4.459
4.463
4.456
4.455
4.462
4.473
4.475
4.469
4.476
4.471
4.471
4.465
4.480
4.481
4.474
4.486
4.492
4.494
4.511
4.499
4.509
4.503
4.509
4.511
4.515
4.527
4.513
4.527
4.522
4.531
4.536
4.530
4.518
4.535
4.514
4.520
4.519
4.532
4.526
4.542
4.539
4.537
4.548
4.549
4.553
4.555
4.553
4.566
4.556
4.566
4.558
4.559
4.552
4.539
4.526
4.517
4.538
4.526
4.520
4.538
4.535
4.526
4.548
4.541
4.547
4.547
4.550
4.550
4.546
4.567
4.550
4.536
4.534
4.535
4.534
4.540
4.531
4.527
4.537
4.535
4.531
4.527
4.546
4.555
4.550
4.539
4.549
4.567
4.556
4.550
4.549
4.560
4.562
4.552
4.553
4.568
4.562
4.566
4.566
4.562
4.581
4.584
4.576
4.581
4.572
4.580
4.575
4.568
4.562
4.570
4.580
4.570
4.570
4.569
4.567
4.587
4.587
4.591
4.586
4.586
4.581
4.591
4.592
4.589
4.585
4.578
4.588
4.609
4.610
4.610
4.609
4.605
4.598
4.609
4.629
4.619
4.616
4.611
4.606
4.605
4.622
4.619
4.627
4.620
4.612
4.605
4.606
4.600
4.595
4.597
4.593
4.583
4.591
4.595
4.596
4.589
4.586
4.579
4.585
4.581
4.596
4.606
4.605
4.607
4.610
4.606
4.594
4.599
4.597
4.614
4.603
4.608
4.607
4.607
4.606
4.605
4.594
4.605
4.607
4.609
4.613
4.609
4.606
4.603
4.602
4.603
4.604
4.620
4.629
4.632
4.628
4.628
4.622
4.619
4.609
4.604
4.614
4.625
4.629
4.627
4.619
4.626
4.619
4.625
4.622
4.619
4.614
4.618
4.633
4.649
4.649
4.656
4.651
4.645
4.644
4.636
4.640
4.640
4.631
4.635
4.645
4.660
4.655
4.657
4.653
4.653
4.646
4.642
4.638
4.641
4.633
4.631
4.643
4.657
4.653
4.640
4.632
4.639
4.633
4.628
4.622
4.615
4.614
4.614
4.628
4.642
4.648
4.652
4.655
4.649
4.655
4.658
4.650
4.643
4.631
4.630
4.637
4.629
4.626
4.639
4.652
4.665
4.665
4.660
4.658
4.665
4.667
4.662
4.663
4.651
4.643
4.646
4.640
4.640
4.647
4.647
4.659
4.672
4.684
4.683
4.688
4.686
4.685
4.673
4.666
4.668
4.675
4.677
4.674
4.678
4.672
4.667
4.657
4.661
4.673
4.685
4.687
4.684
4.693
4.690
4.690
4.684
4.674
4.664
4.662
4.658
4.655
4.657
4.656
4.657
4.655
4.655
4.667
4.678
4.690
4.692
4.688
4.681
4.681
4.680
4.683
4.690
4.685
4.680
4.682
4.687
4.680
4.675
4.674
4.668
4.667
4.669
4.677
4.685
4.685
4.696
4.706
4.717
4.726
4.723
4.723
4.730
4.723
4.714
4.708
4.706
4.708
4.701
4.709
4.697
4.698
4.693
4.690
4.688
4.692
4.695
4.689
4.689
4.699
4.710
4.720
4.730
4.721
4.719
4.715
4.714
4.708
4.702
4.696
4.691
4.685
4.679
4.673
4.670
4.661
4.671
4.675
4.668
4.669
4.674
4.673
4.678
4.688
4.697
4.691
4.691
4.691
4.683
4.682
4.680
4.680
4.677
4.682
4.685
4.683
4.682
4.672
4.669
4.662
4.666
4.668
4.661
4.657
4.656
4.652
4.650
4.650
4.659
4.668
4.677
4.687
4.696
4.705
4.712
4.706
4.698
4.699
4.696
4.699
4.701
4.693
4.690
4.692
4.689
4.685
4.682
4.679
4.679
4.681
4.692
4.690
4.689
4.681
4.673
4.666
4.658
4.652
4.647
4.656
4.664
4.673
4.682
4.690
4.691
4.697
4.691
4.692
4.685
4.678
4.690
4.689
4.687
4.688
4.693
4.684
4.685
4.689
4.689
4.695
4.688
4.683
4.683
4.686
4.681
4.683
4.678
4.677
4.675
4.671
4.672
4.680
4.680
4.671
4.667
4.669
4.667
4.676
4.684
4.692
4.697
4.695
4.695
4.697
4.689
4.693
4.690
4.692
4.694
4.697
4.695
4.693
4.693
4.689
4.683
4.685
4.689
4.688
4.685
4.685
4.688
4.680
4.673
4.672
4.678
4.673
4.670
4.676
4.676
4.677
4.682
4.682
4.679
4.678
4.675
4.673
4.674
4.669
4.677
4.685
4.692
4.700
4.707
4.710
4.719
4.710
4.708
4.705
4.700
4.701
4.705
4.711
4.708
4.705
4.698
4.698
4.701
4.703
4.700
4.696
4.696
4.693
4.695
4.695
4.695
4.691
4.682
4.680
4.681
4.688
4.690
4.690
4.699
4.702
4.693
4.691
4.691
4.689
4.688
4.691
4.689
4.688
4.691
4.683
4.676
4.676
4.683
4.691
4.697
4.705
4.712
4.719
4.726
4.727
4.723
4.720
4.715
4.712
4.720
4.722
4.721
4.714
4.724
4.728
4.732
4.738
4.739
4.737
4.729
4.721
4.720
4.712
4.715
4.707
4.707
4.709
4.711
4.716
4.711
4.710
4.701
4.701
4.701
4.704
4.703
4.696
4.697
4.694
4.699
4.702
4.701
4.700
4.700
4.697
4.697
4.703
4.710
4.705
4.701
4.703
4.699
4.696
4.698
4.696
4.703
4.710
4.716
4.723
4.729
4.736
4.742
4.749
4.755
4.760
4.757
4.757
4.755
4.756
4.754
4.754
4.754
4.759
4.761
4.754
4.758
4.755
4.745
4.746
4.741
4.744
4.743
4.740
4.735
4.734
4.742
4.738
4.736
4.745
4.751
4.747
4.744
4.738
4.738
4.732
4.742
4.749
4.746
4.738
4.735
4.733
4.732
4.736
4.729
4.722
4.715
4.712
4.711
4.704
4.707
4.711
4.711
4.706
4.707
4.714
4.714
4.716
4.716
4.709
4.706
4.703
4.707
4.713
4.719
4.725
4.731
4.733
4.733
4.737
4.738
4.745
4.745
4.745
4.744
4.740
4.741
4.737
4.741
4.741
4.738
4.742
4.739
4.737
4.732
4.735
4.731
4.727
4.723
4.723
4.718
4.717
4.717
4.712
4.711
4.713
4.706
4.701
4.701
4.705
4.711
4.703
4.712
4.716
4.715
4.712
4.711
4.712
4.704
4.708
4.709
4.708
4.707
4.708
4.716
4.717
4.710
4.709
4.708
4.703
4.704
4.700
4.698
4.705
4.707
4.712
4.710
4.708
4.701
4.700
4.697
4.689
4.685
4.685
4.686
4.688
4.686
4.688
4.694
4.699
4.705
4.710
4.716
4.721
4.727
4.732
4.737
4.743
4.748
4.754
4.759
4.765
4.761
4.760
4.758
4.757
4.759
4.759
4.760
4.760
4.755
4.758
4.754
4.749
4.748
4.743
4.743
4.740
4.741
4.743
4.746
4.752
4.753
4.751
4.751
4.753
4.756
4.757
4.756
4.752
4.753
4.750
4.748
4.748
4.751
4.744
4.749
4.748
4.746
4.747
4.749
4.751
4.753
4.749
4.749
4.751
4.748
4.755
4.750
4.751
4.753
4.745
4.742
4.746
4.749
4.741
4.738
4.734
4.735
4.733
4.730
4.726
4.734
4.735
4.736
4.737
4.738
4.732
4.740
4.735
4.736
4.732
4.728
4.725
4.721
4.717
4.714
4.713
4.714
4.711
4.710
4.708
4.708
4.717
4.717
4.719
4.721
4.719
4.716
4.720
4.725
4.730
4.735
4.740
4.745
4.750
4.755
4.760
4.765
4.769
4.771
4.765
4.759
4.753
4.755
4.749
4.751
4.749
4.750
4.750
4.749
4.744
4.740
4.740
4.734
4.735
4.732
4.735
4.737
4.731
4.730
4.733
4.730
4.737
4.729
4.731
4.729
4.727
4.724
4.730
4.727
