2.996
3.306
3.505
3.581
3.659
3.728
3.820
3.839
3.785
3.821
3.867
3.895
3.922
3.943
3.981
3.984
4.021
4.026
4.046
4.067
4.078
4.093
4.115
4.128
4.122
4.128
4.152
4.159
4.174
4.184
4.172
4.176
4.187
4.194
4.206
4.221
4.217
4.229
4.248
4.262
4.268
4.276
4.277
4.259
4.261
4.257
4.282
4.267
4.258
4.273
4.300
4.290
4.301
4.303
4.320
4.319
4.316
4.308
4.328
4.340
4.339
4.348
4.349
4.367
4.361
4.369
4.382
4.375
4.358
4.369
4.369
4.384
4.401
4.391
4.406
4.411
4.421
4.418
4.407
4.420
4.398
4.381
4.364
4.403
4.396
4.404
4.398
4.414
4.398
4.387
4.366
4.378
4.370
4.401
4.390
4.388
4.413
4.391
4.402
4.405
4.392
4.420
4.417
4.410
4.440
4.431
4.418
4.433
4.416
4.417
4.419
4.424
4.421
4.442
4.436
4.432
4.440
4.465
4.459
4.456
4.458
4.473
4.471
4.449
4.467
4.468
4.471
4.467
4.468
4.457
4.447
4.442
4.446
4.446
4.440
4.437
4.444
4.474
4.447
4.450
4.444
4.450
4.463
4.448
4.441
4.450
4.445
4.475
4.476
4.475
4.469
4.461
4.462
4.488
4.480
4.469
4.469
4.459
4.460
4.488
4.503
4.509
4.498
4.490
4.490
4.491
4.502
4.524
4.521
4.505
4.509
4.501
4.488
4.500
4.500
4.496
4.475
4.478
4.473
4.470
4.484
4.508
4.512
4.498
4.495
4.485
4.480
4.488
4.491
4.500
4.523
4.519
4.506
4.529
4.520
4.514
4.517
4.513
4.513
4.519
4.541
4.564
4.547
4.543
4.529
4.525
4.517
4.526
4.524
4.519
4.528
4.536
4.541
4.544
4.526
4.519
4.511
4.524
4.529
4.536
4.514
4.533
4.554
4.574
4.570
4.557
4.568
4.574
4.573
4.566
4.560
4.549
4.554
4.540
4.544
4.563
4.582
4.593
4.589
4.584
4.573
4.569
4.571
4.569
4.568
4.568
4.557
4.564
4.552
4.563
4.576
4.576
4.580
4.571
4.557
4.544
4.535
4.516
4.514
4.509
4.519
4.515
4.515
4.532
4.549
4.566
4.556
4.553
4.560
4.556
4.561
4.548
4.552
4.548
4.545
4.548
4.529
4.527
4.514
4.517
4.520
4.536
4.552
4.562
4.551
4.553
4.546
4.538
4.538
4.536
4.556
4.550
4.542
4.541
4.541
4.535
4.533
4.524
4.515
4.518
4.517
4.532
4.547
4.562
4.566
4.558
4.562
4.555
4.555
4.549
4.552
4.553
4.540
4.539
4.538
4.534
4.545
4.542
4.541
4.543
4.533
4.534
4.528
4.530
4.526
4.540
4.554
4.568
4.582
4.582
4.567
4.561
4.565
4.561
4.561
4.563
4.574
4.580
4.574
4.569
4.563
4.557
4.545
4.539
4.545
4.542
4.538
4.539
4.537
4.527
4.526
4.537
4.537
4.548
4.561
4.574
4.587
4.600
4.593
4.597
4.604
4.602
4.588
4.584
4.575
4.576
4.583
4.579
4.589
4.575
4.574
4.565
4.578
4.587
4.577
4.568
4.575
4.577
4.586
4.584
4.569
4.560
4.561
4.556
4.560
4.563
4.564
4.567
4.579
4.591
4.603
4.614
4.626
4.633
4.636
4.632
4.629
4.636
4.632
4.627
4.616
4.609
4.608
4.612
4.605
4.600
4.600
4.599
4.598
4.594
4.579
4.582
4.586
4.579
4.570
4.563
4.557
4.557
4.563
4.555
4.553
4.549
4.545
4.549
4.546
4.556
4.567
4.577
4.588
4.599
4.610
4.612
4.603
4.608
4.606
4.602
4.604
4.589
4.598
4.595
4.594
4.598
4.589
4.584
4.592
4.587
4.589
4.586
4.582
4.585
4.586
4.581
4.581
4.582
4.588
4.586
4.577
4.576
4.567
4.569
4.576
4.570
4.573
4.570
4.569
4.561
4.551
4.551
4.542
4.547
4.560
4.568
4.572
4.583
4.576
4.579
4.589
4.599
4.608
4.618
4.627
4.637
4.647
4.656
4.666
4.669
4.669
4.662
4.660
4.664
4.670
4.660
4.655
4.656
4.649
4.642
4.635
4.628
4.621
4.614
4.607
4.611
4.603
4.605
4.600
4.595
4.590
4.585
4.598
4.602
4.592
4.586
4.584
4.584
4.572
4.572
4.561
4.561
4.562
4.562
4.566
4.560
4.552
4.551
4.543
4.550
4.542
4.535
4.542
4.533
4.539
4.547
4.556
4.564
4.573
4.581
4.590
4.598
4.607
4.615
4.619
4.611
4.613
4.609
4.613
4.621
4.623
4.615
4.612
4.618
4.629
4.625
4.624
4.634
4.620
4.615
4.610
4.611
4.617
4.612
4.608
4.608
4.605
4.606
4.607
4.604
4.602
4.601
4.602
4.607
4.615
4.624
4.619
4.614
4.625
4.625
4.617
4.610
4.602
4.605
4.597
4.592
4.593
4.581
4.576
4.568
4.575
4.572
4.573
4.579
4.568
4.572
4.579
4.569
4.569
4.578
4.574
4.579
4.582
4.579
4.573
4.565
4.557
4.549
4.555
4.558
4.555
4.560
4.552
4.560
4.567
4.575
4.582
4.590
4.597
4.604
4.612
4.619
4.627
4.634
4.642
4.649
4.657
4.664
4.660
4.653
4.643
4.640
4.637
4.629
4.626
4.621
4.617
4.619
4.620
4.607
4.601
4.596
4.597
4.592
4.596
4.592
4.597
4.593
4.596
4.592
4.594
4.596
4.601
4.611
4.608
4.613
4.609
4.620
4.617
4.618
4.611
4.612
4.613
4.610
4.604
4.610
4.615
4.614
4.615
4.618
4.624
4.628
4.627
4.620
4.611
4.606
4.603
4.596
4.592
4.594
4.580
4.583
4.584
4.580
4.578
4.576
4.581
4.582
4.578
4.581
4.572
4.564
4.560
4.555
4.553
4.548
4.540
4.550
4.553
4.557
4.553
4.555
4.558
4.569
4.567
4.573
4.572
4.574
4.570
4.567
4.562
4.559
4.566
4.562
4.571
4.578
4.574
4.577
4.579
4.585
4.591
4.598
4.604
4.611
4.617
4.623
4.630
4.636
4.642
4.649
4.655
4.662
4.668
4.672
4.670
4.669
4.667
4.674
4.672
4.670
4.661
4.662
4.663
4.663
4.656
4.655
4.659
4.664
4.672
4.670
4.671
4.662
4.662
4.657
4.653
4.652
4.651
4.637
4.631
4.635
4.639
4.636
4.634
4.628
4.632
4.629
4.632
4.640
4.638
4.644
4.636
4.627
4.628
4.628
4.624
4.619
4.611
4.616
4.617
4.612
4.614
4.616
4.619
4.623
4.622
4.626
4.626
4.627
4.633
4.624
4.623
4.630
4.633
4.634
4.637
4.635
4.639
4.636
4.633
4.622
4.626
4.631
4.625
4.626
4.622
4.623
4.617
4.620
4.617
4.625
4.619
4.619
4.616
4.611
4.613
4.611
4.608
4.599
4.600
4.608
4.609
4.604
4.592
4.592
4.587
4.585
4.588
4.592
4.588
4.583
4.578
4.573
4.568
4.563
4.564
4.560
4.563
4.570
4.572
4.575
4.570
4.576
4.576
4.579
4.575
4.579
4.572
4.565
4.565
4.559
4.552
4.544
4.542
4.545
4.539
4.544
4.549
4.555
4.560
4.565
4.571
4.576
4.581
4.587
4.592
4.597
4.603
4.608
4.613
4.619
4.624
4.629
4.635
4.640
4.645
4.651
4.656
4.654
4.661
4.654
4.650
4.645
4.636
4.633
4.628
4.624
4.622
4.631
4.618
4.624
4.630
4.636
4.631
4.627
4.632
4.632
4.625
4.624
4.621
4.619
4.626
4.634
4.641
4.647
4.650
4.643
4.645
4.648
4.643
4.637
4.636
4.634
4.632
4.632
4.637
4.638
4.645
4.635
4.640
4.642
4.640
4.642
4.636
4.641
4.642
4.635
4.637
4.628
4.633
4.631
4.632
4.638
4.632
4.632
4.632
4.642
4.634
4.631
4.629
4.625
4.627
4.623
4.624
4.618
4.621
4.622
4.615
4.608
4.615
4.617
4.613
4.610
4.604
4.607
4.603
4.609
4.609
4.616
4.616
4.611
4.617
4.605
4.601
4.598
4.589
4.594
4.590
4.589
4.592
4.588
4.592
4.601
4.597
4.597
4.601
4.595
4.598
4.601
4.595
4.594
4.596
4.598
4.593
4.599
4.591
4.588
4.593
4.585
4.584
4.585
4.589
4.594
4.587
4.589
4.589
4.587
4.593
4.594
4.600
4.593
4.588
4.585
4.594
4.594
