2.991
3.327
3.512
3.621
3.696
3.716
3.797
3.878
3.902
3.830
3.865
3.901
3.932
3.950
3.971
3.986
4.020
4.020
4.052
4.079
4.078
4.101
4.117
4.107
4.124
4.150
4.163
4.177
4.166
4.183
4.179
4.207
4.212
4.225
4.241
4.237
4.222
4.235
4.239
4.242
4.259
4.267
4.267
4.271
4.284
4.296
4.310
4.322
4.314
4.323
4.331
4.296
4.291
4.306
4.326
4.311
4.313
4.312
4.318
4.336
4.337
4.348
4.359
4.358
4.377
4.349
4.356
4.352
4.368
4.383
4.386
4.381
4.390
4.386
4.398
4.411
4.398
4.409
4.436
4.421
4.417
4.404
4.413
4.408
4.429
4.431
4.447
4.449
4.444
4.456
4.456
4.459
4.451
4.467
4.450
4.430
4.415
4.415
4.427
4.429
4.445
4.435
4.451
4.456
4.442
4.428
4.427
4.422
4.413
4.425
4.424
4.428
4.447
4.432
4.442
4.452
4.431
4.449
4.454
4.440
4.452
4.477
4.465
4.458
4.485
4.477
4.464
4.476
4.471
4.466
4.461
4.483
4.469
4.479
4.474
4.477
4.472
4.473
4.480
4.499
4.503
4.501
4.490
4.510
4.512
4.507
4.503
4.501
4.531
4.519
4.503
4.507
4.515
4.504
4.487
4.488
4.490
4.488
4.477
4.484
4.471
4.486
4.509
4.503
4.505
4.487
4.486
4.500
4.514
4.506
4.505
4.481
4.478
4.504
4.510
4.510
4.499
4.504
4.509
4.499
4.521
4.517
4.529
4.516
4.508
4.497
4.505
4.526
4.531
4.537
4.528
4.534
4.532
4.530
4.526
4.542
4.562
4.551
4.541
4.541
4.539
4.545
4.537
4.544
4.566
4.551
4.534
4.531
4.517
4.514
4.523
4.531
4.552
4.535
4.537
4.531
4.546
4.537
4.533
4.524
4.525
4.545
4.555
4.563
4.554
4.560
4.557
4.547
4.548
4.530
4.539
4.541
4.560
4.580
4.579
4.577
4.587
4.572
4.566
4.562
4.565
4.568
4.568
4.559
4.576
4.586
4.581
4.589
4.582
4.587
4.579
4.563
4.551
4.549
4.546
4.551
4.569
4.583
4.595
4.594
4.594
4.582
4.588
4.575
4.564
4.576
4.590
4.589
4.583
4.575
4.575
4.592
4.609
4.626
4.621
4.617
4.621
4.613
4.601
4.600
4.599
4.593
4.590
4.585
4.590
4.594
4.598
4.604
4.620
4.636
4.625
4.625
4.624
4.618
4.611
4.601
4.592
4.583
4.574
4.565
4.576
4.567
4.573
4.588
4.600
4.599
4.597
4.585
4.573
4.575
4.568
4.575
4.568
4.559
4.548
4.562
4.560
4.562
4.562
4.558
4.560
4.572
4.586
4.600
4.602
4.600
4.602
4.602
4.607
4.603
4.600
4.596
4.591
4.579
4.567
4.554
4.548
4.540
4.538
4.540
4.558
4.559
4.563
4.577
4.590
4.603
4.613
4.624
4.613
4.609
4.600
4.589
4.590
4.597
4.592
4.587
4.581
4.586
4.578
4.577
4.579
4.566
4.573
4.570
4.557
4.558
4.560
4.567
4.580
4.592
4.604
4.597
4.596
4.604
4.606
4.610
4.606
4.609
4.609
4.612
4.607
4.602
4.596
4.581
4.585
4.583
4.579
4.581
4.576
4.584
4.575
4.561
4.564
4.567
4.562
4.570
4.573
4.585
4.596
4.608
4.619
4.624
4.621
4.619
4.623
4.615
4.612
4.610
4.613
4.613
4.613
4.615
4.613
4.600
4.593
4.591
4.595
4.593
4.590
4.590
4.578
4.585
4.587
4.589
4.590
4.588
4.594
4.592
4.587
4.581
4.590
4.592
4.603
4.613
4.623
4.634
4.636
4.640
4.646
4.649
4.653
4.647
4.642
4.639
4.639
4.637
4.630
4.628
4.639
4.630
4.623
4.619
4.613
4.620
4.635
4.626
4.621
4.620
4.622
4.629
4.638
4.639
4.632
4.627
4.619
4.617
4.614
4.610
4.603
4.613
4.616
4.613
4.613
4.619
4.626
4.636
4.645
4.655
4.665
4.663
4.651
4.657
4.668
4.669
4.667
4.668
4.664
4.662
4.662
4.662
4.654
4.645
4.637
4.628
4.620
4.612
4.604
4.597
4.587
4.594
4.602
4.605
4.597
4.597
4.601
4.602
4.610
4.610
4.603
4.596
4.592
4.586
4.586
4.583
4.587
4.588
4.581
4.584
4.593
4.602
4.611
4.619
4.628
4.637
4.646
4.649
4.657
4.657
4.660
4.663
4.652
4.642
4.638
4.641
4.639
4.641
4.637
4.631
4.629
4.630
4.636
4.641
4.643
4.638
4.634
4.634
4.634
4.631
4.632
4.629
4.628
4.624
4.632
4.635
4.629
4.630
4.632
4.625
4.625
4.622
4.617
4.622
4.622
4.616
4.614
4.610
4.611
4.606
4.609
4.607
4.603
4.603
4.611
4.619
4.609
4.621
4.632
4.638
4.626
4.619
4.626
4.634
4.641
4.649
4.657
4.665
4.673
4.681
4.689
4.692
4.687
4.681
4.675
4.681
4.682
4.679
4.673
4.668
4.658
4.659
4.656
4.657
4.660
4.659
4.651
4.641
4.642
4.632
4.636
4.628
4.635
4.635
4.629
4.626
4.634
4.631
4.623
4.627
4.624
4.617
4.610
4.621
4.615
4.613
4.608
4.612
4.603
4.609
4.603
4.612
4.608
4.609
4.609
4.609
4.603
4.603
4.602
4.595
4.597
4.599
4.589
4.587
4.593
4.584
4.582
4.579
4.581
4.589
4.591
4.598
4.605
4.612
4.619
4.626
4.633
4.640
4.647
4.654
4.661
4.659
4.659
4.666
4.664
4.672
4.669
4.667
4.669
4.667
4.660
4.669
4.680
4.681
4.685
4.676
4.672
4.669
4.671
4.670
4.675
4.668
4.668
4.669
4.665
4.666
4.666
4.662
4.664
4.663
4.664
4.662
4.662
4.659
4.657
4.654
4.658
4.658
4.648
4.652
4.656
4.647
4.642
4.644
4.637
4.638
4.638
4.635
4.642
4.631
4.627
4.618
4.609
4.616
4.612
4.611
4.617
4.623
4.612
4.610
4.604
4.607
4.600
4.597
4.601
4.606
4.601
4.605
4.608
4.604
4.596
4.592
4.589
4.589
4.586
4.583
4.594
4.600
4.603
4.606
4.606
4.603
4.598
4.600
4.599
4.603
4.609
4.615
4.621
4.628
4.634
4.640
4.646
4.652
4.658
4.665
4.671
4.677
4.683
4.682
4.680
4.672
4.675
4.666
4.662
4.667
4.664
4.663
4.666
4.659
4.656
4.663
4.655
4.656
4.650
4.645
4.643
4.643
4.639
4.636
4.642
4.645
4.645
4.644
4.646
4.643
4.644
4.647
4.651
4.650
4.646
4.649
4.657
4.662
4.661
4.661
4.665
4.673
4.670
4.667
4.666
4.671
4.671
4.673
4.667
4.672
4.673
4.668
4.663
4.662
4.665
4.665
4.661
4.658
4.653
4.647
4.637
4.635
4.635
4.634
4.627
4.631
4.623
4.619
4.614
4.607
4.611
4.615
4.609
4.613
4.615
4.612
4.616
4.619
4.626
4.621
4.622
4.621
4.623
4.617
4.612
4.610
4.612
4.611
4.609
4.609
4.618
4.620
4.614
4.610
4.605
4.606
4.612
4.608
4.604
4.598
4.595
4.594
4.594
4.588
4.593
4.597
4.601
4.602
4.611
4.608
4.616
4.623
4.629
4.626
4.621
4.621
4.625
4.624
4.627
4.633
4.638
4.643
4.648
4.654
4.659
4.664
4.670
4.675
4.680
4.686
4.691
4.696
4.701
4.707
4.712
4.713
4.717
4.723
4.729
4.727
4.719
4.712
4.714
4.710
4.704
4.697
4.702
4.698
4.699
4.697
4.694
4.691
4.695
4.699
4.702
4.701
4.702
4.704
4.706
4.704
4.706
4.702
4.703
4.699
4.692
4.692
4.689
4.681
4.675
4.674
4.672
4.667
4.663
4.664
4.672
4.679
4.676
4.673
4.672
4.678
4.680
4.681
4.687
4.680
4.682
4.672
4.672
4.672
4.673
4.670
4.663
4.665
4.663
4.663
4.662
4.671
4.675
4.680
4.683
4.681
4.676
4.670
4.665
4.659
4.660
4.666
4.659
4.657
4.657
4.653
4.650
4.647
4.654
4.661
4.668
4.675
4.680
4.679
4.671
4.665
4.664
4.660
4.659
4.658
4.658
4.653
4.649
4.645
4.641
4.637
4.632
4.628
4.624
4.620
4.616
4.612
4.610
4.610
4.604
4.604
4.605
4.599
4.604
4.603
4.595
4.598
