2.993
3.334
3.509
3.630
3.706
3.775
3.809
3.881
3.887
3.925
3.962
4.011
4.048
4.081
4.044
4.010
4.030
4.047
4.068
4.075
4.100
4.112
4.118
4.139
4.152
4.154
4.173
4.176
4.194
4.205
4.208
4.211
4.232
4.239
4.250
4.246
4.256
4.260
4.275
4.284
4.298
4.289
4.285
4.299
4.304
4.312
4.329
4.328
4.345
4.340
4.323
4.334
4.343
4.350
4.351
4.355
4.371
4.371
4.377
4.379
4.386
4.397
4.407
4.407
4.381
4.381
4.387
4.399
4.398
4.406
4.400
4.406
4.409
4.422
4.423
4.426
4.432
4.445
4.435
4.438
4.439
4.448
4.459
4.463
4.459
4.462
4.473
4.480
4.475
4.469
4.475
4.483
4.462
4.451
4.458
4.463
4.461
4.466
4.472
4.477
4.481
4.480
4.472
4.469
4.466
4.479
4.486
4.489
4.480
4.488
4.501
4.499
4.502
4.491
4.506
4.506
4.516
4.520
4.522
4.524
4.518
4.510
4.519
4.518
4.512
4.523
4.512
4.525
4.523
4.535
4.532
4.542
4.540
4.541
4.546
4.546
4.549
4.553
4.552
4.551
4.552
4.567
4.557
4.571
4.563
4.577
4.572
4.572
4.564
4.565
4.570
4.564
4.570
4.557
4.575
4.569
4.564
4.583
4.586
4.577
4.591
4.585
4.586
4.604
4.591
4.594
4.607
4.601
4.599
4.612
4.608
4.601
4.592
4.581
4.570
4.559
4.573
4.573
4.568
4.568
4.568
4.569
4.565
4.584
4.573
4.580
4.574
4.593
4.595
4.588
4.586
4.600
4.597
4.590
4.596
4.584
4.579
4.576
4.578
4.585
4.582
4.570
4.579
4.575
4.575
4.567
4.583
4.586
4.576
4.576
4.581
4.598
4.600
4.591
4.586
4.591
4.609
4.603
4.597
4.585
4.596
4.610
4.602
4.597
4.594
4.597
4.610
4.607
4.611
4.603
4.609
4.613
4.627
4.617
4.626
4.616
4.618
4.624
4.617
4.611
4.613
4.606
4.610
4.622
4.618
4.611
4.604
4.610
4.610
4.629
4.628
4.621
4.629
4.624
4.625
4.623
4.639
4.633
4.624
4.623
4.628
4.622
4.630
4.646
4.647
4.648
4.642
4.647
4.645
4.643
4.647
4.658
4.655
4.654
4.658
4.655
4.647
4.641
4.657
4.667
4.667
4.658
4.650
4.656
4.658
4.653
4.644
4.636
4.632
4.633
4.630
4.628
4.633
4.641
4.648
4.637
4.629
4.630
4.626
4.624
4.621
4.630
4.639
4.645
4.637
4.642
4.634
4.635
4.639
4.640
4.637
4.641
4.656
4.649
4.652
4.649
4.645
4.633
4.634
4.637
4.639
4.644
4.654
4.649
4.644
4.634
4.640
4.640
4.639
4.634
4.635
4.637
4.651
4.658
4.663
4.664
4.656
4.655
4.654
4.657
4.658
4.663
4.656
4.651
4.662
4.672
4.672
4.673
4.673
4.672
4.667
4.656
4.648
4.646
4.650
4.651
4.663
4.676
4.686
4.678
4.678
4.675
4.674
4.681
4.677
4.675
4.682
4.672
4.671
4.674
4.677
4.690
4.699
4.702
4.696
4.691
4.686
4.686
4.682
4.678
4.684
4.678
4.681
4.684
4.679
4.691
4.700
4.691
4.682
4.678
4.672
4.675
4.673
4.669
4.670
4.671
4.665
4.666
4.669
4.680
4.685
4.682
4.671
4.667
4.677
4.665
4.671
4.675
4.673
4.669
4.668
4.672
4.671
4.672
4.668
4.680
4.691
4.695
4.689
4.687
4.691
4.694
4.686
4.684
4.674
4.672
4.673
4.676
4.685
4.689
4.683
4.679
4.677
4.686
4.697
4.707
4.710
4.700
4.705
4.706
4.705
4.702
4.708
4.701
4.695
4.699
4.699
4.695
4.699
4.700
4.702
4.697
4.706
4.700
4.707
4.717
4.727
4.728
4.736
4.733
4.727
4.723
4.714
4.713
4.714
4.718
4.725
4.718
4.711
4.710
4.706
4.704
4.699
4.692
4.699
4.709
4.718
4.719
4.720
4.716
4.723
4.722
4.716
4.711
4.710
4.708
4.710
4.707
4.704
4.702
4.702
4.709
4.705
4.710
4.704
4.704
4.696
4.701
4.711
4.720
4.730
4.739
4.739
4.734
4.735
4.734
4.733
4.728
4.734
4.731
4.729
4.728
4.737
4.736
4.738
4.736
4.735
4.726
4.720
4.719
4.725
4.719
4.722
4.728
4.732
4.738
4.745
4.746
4.755
4.761
4.752
4.759
4.757
4.747
4.743
4.744
4.744
4.744
4.746
4.748
4.745
4.744
4.746
4.747
4.746
4.737
4.732
4.739
4.741
4.744
4.738
4.740
4.732
4.730
4.730
4.726
4.722
4.733
4.731
4.738
4.734
4.729
4.728
4.725
4.724
4.728
4.725
4.722
4.721
4.725
4.724
4.722
4.717
4.720
4.719
4.722
4.716
4.710
4.704
4.698
4.698
4.706
4.714
4.722
4.730
4.738
4.739
4.735
4.725
4.722
4.721
4.718
4.717
4.711
4.715
4.726
4.726
4.717
4.709
4.710
4.712
4.711
4.707
4.703
4.701
4.705
4.704
4.696
4.696
4.698
4.704
4.704
4.696
4.693
4.700
4.710
4.711
4.719
4.726
4.734
4.742
4.745
4.741
4.744
4.740
4.742
4.741
4.739
4.737
4.737
4.738
4.732
4.725
4.719
4.714
4.712
4.709
4.706
4.711
4.708
4.711
4.706
4.707
4.697
4.697
4.699
4.698
4.698
4.694
4.691
4.691
4.691
4.692
4.699
4.706
4.713
4.720
4.727
4.734
4.739
4.738
4.736
4.733
4.732
4.733
4.735
4.743
4.743
4.738
4.742
4.741
4.742
4.743
4.746
4.742
4.743
4.739
4.731
4.730
4.727
4.722
4.721
4.717
4.709
4.708
4.705
4.706
4.707
4.710
4.708
4.714
4.719
4.715
4.708
4.702
4.698
4.695
4.700
4.707
4.714
4.721
4.727
4.734
4.741
4.745
4.741
4.743
4.746
4.743
4.740
4.735
4.737
4.737
4.740
4.735
4.733
4.728
4.727
4.726
4.723
4.727
4.735
4.731
4.734
4.735
4.736
4.732
4.730
4.729
4.726
4.729
4.733
4.726
4.721
4.724
4.721
4.723
4.726
4.731
4.727
4.720
4.719
4.717
4.713
4.709
4.710
4.708
4.702
4.707
4.713
4.719
4.725
4.732
4.738
4.744
4.750
4.757
4.753
4.759
4.760
4.760
4.762
4.761
4.758
4.759
4.754
4.753
4.749
4.745
4.751
4.746
4.739
4.733
4.736
4.735
4.743
4.736
4.744
4.744
4.747
4.743
4.734
4.734
4.731
4.729
4.732
4.731
4.737
4.738
4.739
4.745
4.740
4.735
4.732
4.727
4.719
4.716
4.718
4.722
4.721
4.725
4.722
4.719
4.717
4.719
4.716
4.720
4.719
4.719
4.725
4.731
4.737
4.743
4.748
4.754
4.760
4.766
4.772
4.771
4.770
4.766
4.767
4.774
4.773
4.769
4.765
4.770
4.765
4.765
4.773
4.778
4.773
4.770
4.770
4.763
4.757
4.753
4.754
4.759
4.762
4.757
4.753
4.754
4.754
4.751
4.747
4.746
4.743
4.744
4.743
4.744
4.747
4.757
4.760
4.760
4.759
4.754
4.753
4.748
4.754
4.753
4.750
4.746
4.738
4.738
4.741
4.740
4.744
4.752
4.753
4.750
4.747
4.744
4.744
4.744
4.747
4.745
4.745
4.737
4.745
4.746
4.748
4.754
4.759
4.765
4.770
4.775
4.781
4.786
4.791
4.797
4.802
4.806
4.800
4.798
4.800
4.794
4.800
4.802
4.801
4.800
4.801
4.800
4.799
4.798
4.800
4.799
4.795
4.789
4.784
4.779
4.774
4.770
4.773
4.770
4.766
4.767
4.775
4.782
4.787
4.787
4.781
4.775
4.771
4.772
4.775
4.779
4.781
4.781
4.771
4.765
4.764
4.764
4.766
4.768
4.765
4.762
4.756
4.758
4.756
4.758
4.754
4.749
4.745
4.740
4.736
4.733
4.735
4.742
4.737
4.735
4.735
4.729
4.723
4.717
4.717
4.722
4.727
4.732
4.737
4.742
4.747
4.751
4.756
4.761
4.766
4.771
4.776
4.781
4.785
4.787
4.789
4.786
4.786
4.783
4.781
4.775
4.777
4.783
4.777
4.774
4.776
4.777
4.780
4.774
4.777
4.776
4.771
4.767
4.763
4.765
4.768
4.769
4.764
4.764
4.767
4.766
4.760
4.760
4.759
