2.994
3.318
3.505
3.611
3.713
3.763
3.832
3.841
3.900
3.950
3.992
3.954
3.934
3.964
3.985
4.002
4.024
4.038
4.067
4.072
4.098
4.103
4.124
4.124
4.141
4.159
4.158
4.172
4.182
4.200
4.211
4.200
4.215
4.223
4.235
4.246
4.259
4.259
4.249
4.260
4.269
4.284
4.287
4.301
4.300
4.316
4.317
4.322
4.312
4.307
4.312
4.321
4.326
4.333
4.344
4.353
4.354
4.357
4.358
4.360
4.375
4.379
4.385
4.389
4.404
4.398
4.396
4.398
4.412
4.394
4.387
4.394
4.383
4.393
4.399
4.405
4.402
4.395
4.403
4.407
4.420
4.424
4.425
4.425
4.421
4.428
4.439
4.449
4.451
4.451
4.437
4.437
4.445
4.449
4.448
4.450
4.468
4.461
4.472
4.475
4.472
4.474
4.482
4.478
4.493
4.483
4.496
4.498
4.506
4.509
4.487
4.511
4.488
4.489
4.494
4.494
4.496
4.516
4.504
4.523
4.519
4.524
4.527
4.527
4.533
4.528
4.538
4.533
4.539
4.524
4.509
4.495
4.506
4.491
4.496
4.509
4.505
4.508
4.526
4.519
4.516
4.526
4.517
4.524
4.531
4.513
4.512
4.515
4.511
4.511
4.510
4.495
4.510
4.509
4.513
4.506
4.526
4.520
4.514
4.521
4.538
4.525
4.516
4.522
4.535
4.529
4.524
4.525
4.551
4.548
4.543
4.538
4.550
4.559
4.559
4.552
4.543
4.547
4.545
4.547
4.539
4.556
4.555
4.549
4.543
4.546
4.563
4.566
4.567
4.553
4.542
4.563
4.571
4.565
4.567
4.569
4.566
4.580
4.596
4.584
4.577
4.582
4.576
4.590
4.597
4.596
4.593
4.583
4.581
4.593
4.604
4.593
4.580
4.567
4.566
4.576
4.581
4.577
4.568
4.557
4.554
4.575
4.570
4.565
4.564
4.567
4.564
4.564
4.574
4.594
4.580
4.577
4.568
4.569
4.567
4.566
4.585
4.587
4.573
4.564
4.565
4.563
4.573
4.567
4.585
4.597
4.586
4.589
4.595
4.592
4.593
4.585
4.580
4.594
4.612
4.616
4.607
4.599
4.590
4.585
4.585
4.587
4.591
4.609
4.614
4.620
4.617
4.615
4.610
4.614
4.607
4.616
4.608
4.611
4.628
4.636
4.621
4.618
4.624
4.621
4.623
4.614
4.617
4.608
4.617
4.633
4.622
4.614
4.604
4.617
4.607
4.603
4.596
4.597
4.598
4.609
4.610
4.616
4.621
4.609
4.618
4.615
4.614
4.611
4.602
4.613
4.612
4.606
4.618
4.630
4.623
4.629
4.619
4.622
4.632
4.621
4.631
4.626
4.623
4.621
4.617
4.610
4.624
4.639
4.647
4.646
4.648
4.653
4.651
4.645
4.651
4.644
4.648
4.639
4.641
4.630
4.641
4.631
4.641
4.655
4.664
4.669
4.664
4.659
4.658
4.649
4.642
4.643
4.648
4.654
4.643
4.637
4.626
4.625
4.638
4.651
4.659
4.657
4.666
4.656
4.650
4.646
4.656
4.652
4.646
4.647
4.652
4.653
4.649
4.648
4.641
4.635
4.640
4.652
4.664
4.677
4.689
4.694
4.688
4.683
4.685
4.684
4.675
4.676
4.683
4.686
4.681
4.684
4.677
4.673
4.669
4.662
4.655
4.658
4.666
4.678
4.689
4.700
4.694
4.691
4.701
4.699
4.703
4.696
4.684
4.679
4.674
4.672
4.678
4.677
4.670
4.663
4.657
4.650
4.643
4.654
4.665
4.676
4.687
4.686
4.681
4.684
4.676
4.668
4.659
4.652
4.657
4.661
4.656
4.652
4.650
4.640
4.639
4.639
4.628
4.621
4.630
4.627
4.637
4.647
4.658
4.665
4.678
4.679
4.672
4.668
4.663
4.660
4.665
4.660
4.657
4.668
4.666
4.668
4.657
4.656
4.655
4.654
4.652
4.653
4.656
4.654
4.651
4.656
4.657
4.649
4.641
4.651
4.661
4.663
4.662
4.664
4.658
4.655
4.649
4.661
4.663
4.661
4.661
4.654
4.646
4.652
4.652
4.656
4.654
4.645
4.646
4.642
4.643
4.643
4.644
4.646
4.644
4.647
4.658
4.654
4.645
4.651
4.648
4.657
4.666
4.675
4.684
4.681
4.679
4.680
4.671
4.662
4.656
4.660
4.666
4.662
4.661
4.657
4.656
4.662
4.666
4.665
4.658
4.657
4.653
4.648
4.643
4.643
4.641
4.642
4.643
4.642
4.642
4.649
4.639
4.640
4.638
4.641
4.649
4.658
4.667
4.675
4.684
4.682
4.692
4.701
4.692
4.690
4.683
4.673
4.681
4.682
4.670
4.663
4.658
4.665
4.666
4.662
4.663
4.662
4.664
4.667
4.666
4.663
4.654
4.650
4.659
4.663
4.658
4.662
4.662
4.661
4.659
4.660
4.654
4.665
4.662
4.657
4.662
4.658
4.655
4.663
4.671
4.679
4.687
4.690
4.687
4.692
4.694
4.696
4.694
4.690
4.696
4.690
4.687
4.688
4.694
4.702
4.700
4.702
4.697
4.698
4.699
4.700
4.699
4.689
4.686
4.676
4.682
4.685
4.677
4.673
4.666
4.674
4.681
4.683
4.682
4.672
4.669
4.670
4.669
4.660
4.656
4.663
4.670
4.676
4.676
4.672
4.678
4.672
4.668
4.675
4.683
4.690
4.697
4.705
4.712
4.720
4.727
4.732
4.733
4.726
4.726
4.727
4.728
4.730
4.721
4.723
4.715
4.716
4.720
4.725
4.724
4.725
4.720
4.718
4.713
4.708
4.706
4.707
4.708
4.717
4.716
4.712
4.720
4.715
4.717
4.722
4.721
4.724
4.721
4.716
4.714
4.708
4.704
4.704
4.692
4.690
4.689
4.692
4.694
4.699
4.695
4.687
4.679
4.677
4.679
4.680
4.673
4.680
4.687
4.693
4.700
4.707
4.714
4.718
4.710
4.713
4.719
4.718
4.719
4.722
4.713
4.714
4.706
4.706
4.705
4.708
4.714
4.715
4.715
4.712
4.706
4.705
4.706
4.705
4.697
4.690
4.696
4.685
4.679
4.674
4.671
4.670
4.676
4.680
4.680
4.678
4.676
4.675
4.678
4.677
4.680
4.679
4.687
4.687
4.691
4.693
4.686
4.684
4.681
4.672
4.669
4.670
4.666
4.670
4.675
4.671
4.671
4.662
4.665
4.666
4.660
4.663
4.667
4.665
4.668
4.675
4.681
4.687
4.693
4.699
4.705
4.712
4.718
4.724
4.730
4.736
4.737
4.729
4.726
4.730
4.726
4.729
4.729
4.727
4.734
4.727
4.723
4.720
4.715
4.713
4.713
4.709
4.711
4.717
4.725
4.727
4.727
4.728
4.728
4.724
4.724
4.717
4.719
4.711
4.713
4.718
4.723
4.718
4.721
4.722
4.722
4.722
4.717
4.719
4.715
4.716
4.714
4.715
4.715
4.715
4.718
4.711
4.713
4.709
4.714
4.710
4.709
4.706
4.708
4.704
4.700
4.706
4.700
4.696
4.697
4.695
4.703
4.703
4.707
4.716
4.714
4.710
4.711
4.703
4.706
4.714
4.714
4.710
4.706
4.702
4.698
4.694
4.691
4.697
4.702
4.708
4.713
4.719
4.725
4.730
4.736
4.741
4.747
4.751
4.749
4.751
4.750
4.746
4.742
4.741
4.740
4.737
4.728
4.725
4.724
4.720
4.713
4.713
4.718
4.716
4.712
4.705
4.708
4.701
4.696
4.694
4.701
4.703
4.697
4.703
4.708
4.705
4.707
4.698
4.691
4.694
4.693
4.695
4.699
4.696
4.700
4.698
4.695
4.700
4.706
4.704
4.698
4.702
4.703
4.702
4.699
4.697
4.693
4.691
4.692
4.692
4.692
4.686
4.680
4.677
4.676
4.679
4.681
4.685
4.678
4.671
4.675
4.677
4.673
4.670
4.664
4.663
4.669
4.661
4.660
4.659
4.660
4.667
4.661
4.654
4.653
4.654
4.652
4.649
4.657
4.664
4.662
4.665
4.671
4.662
4.657
4.659
4.664
4.669
4.674
4.679
4.684
4.689
4.694
4.699
4.704
4.709
4.714
4.719
4.724
4.729
4.734
4.738
4.743
4.748
4.753
4.758
4.763
4.767
4.761
4.756
4.760
4.761
4.762
4.767
4.764
4.764
4.771
4.770
4.766
4.761
4.757
4.758
4.754
4.752
4.754
4.752
4.747
4.742
4.736
4.739
4.734
4.732
4.730
4.731
4.729
4.728
4.726
4.728
4.726
4.726
4.728
4.725
4.720
4.716
4.717
4.721
