2.992
3.329
3.516
3.623
3.711
3.774
3.829
3.869
3.931
3.938
3.983
4.028
4.049
4.033
4.062
4.088
4.112
4.141
4.161
4.184
4.207
4.198
4.155
4.144
4.156
4.163
4.183
4.188
4.205
4.209
4.222
4.225
4.241
4.240
4.252
4.264
4.263
4.275
4.285
4.285
4.293
4.302
4.309
4.316
4.315
4.321
4.334
4.341
4.350
4.340
4.348
4.354
4.364
4.368
4.375
4.379
4.370
4.381
4.380
4.388
4.396
4.396
4.408
4.414
4.414
4.423
4.410
4.414
4.414
4.420
4.429
4.433
4.432
4.436
4.448
4.448
4.459
4.456
4.463
4.466
4.455
4.456
4.454
4.456
4.462
4.469
4.473
4.477
4.479
4.480
4.481
4.488
4.496
4.497
4.498
4.503
4.503
4.507
4.506
4.516
4.518
4.525
4.526
4.521
4.506
4.500
4.504
4.502
4.511
4.513
4.515
4.522
4.525
4.527
4.531
4.529
4.528
4.535
4.531
4.536
4.537
4.541
4.550
4.551
4.545
4.551
4.558
4.562
4.559
4.554
4.559
4.562
4.562
4.565
4.573
4.571
4.577
4.577
4.583
4.579
4.589
4.585
4.592
4.593
4.600
4.592
4.589
4.595
4.599
4.592
4.580
4.566
4.570
4.565
4.575
4.577
4.567
4.581
4.583
4.585
4.585
4.584
4.588
4.590
4.588
4.595
4.592
4.596
4.600
4.588
4.597
4.592
4.596
4.595
4.589
4.603
4.599
4.604
4.600
4.609
4.602
4.614
4.611
4.618
4.618
4.620
4.625
4.622
4.618
4.620
4.618
4.618
4.627
4.626
4.636
4.633
4.633
4.639
4.636
4.634
4.622
4.631
4.627
4.636
4.638
4.629
4.632
4.626
4.638
4.637
4.640
4.640
4.641
4.637
4.644
4.644
4.646
4.653
4.654
4.651
4.665
4.658
4.657
4.662
4.657
4.659
4.659
4.655
4.660
4.669
4.663
4.662
4.673
4.672
4.670
4.678
4.679
4.680
4.676
4.683
4.679
4.683
4.688
4.685
4.684
4.678
4.671
4.673
4.674
4.686
4.684
4.685
4.684
4.681
4.679
4.677
4.682
4.678
4.676
4.675
4.690
4.688
4.685
4.685
4.695
4.696
4.698
4.699
4.696
4.703
4.701
4.703
4.696
4.710
4.714
4.711
4.703
4.707
4.715
4.713
4.711
4.703
4.699
4.692
4.685
4.681
4.679
4.677
4.670
4.675
4.670
4.672
4.671
4.669
4.684
4.686
4.681
4.678
4.679
4.686
4.693
4.688
4.687
4.675
4.682
4.689
4.688
4.691
4.688
4.686
4.693
4.694
4.696
4.696
4.690
4.694
4.701
4.708
4.709
4.711
4.706
4.699
4.706
4.705
4.698
4.689
4.684
4.692
4.693
4.699
4.695
4.696
4.687
4.691
4.696
4.694
4.685
4.678
4.677
4.685
4.693
4.700
4.696
4.686
4.685
4.683
4.692
4.692
4.690
4.691
4.692
4.689
4.688
4.694
4.706
4.707
4.704
4.702
4.707
4.705
4.704
4.705
4.711
4.711
4.711
4.710
4.704
4.707
4.699
4.711
4.709
4.708
4.706
4.705
4.703
4.703
4.711
4.714
4.720
4.716
4.717
4.714
4.714
4.713
4.711
4.714
4.726
4.730
4.733
4.729
4.728
4.727
4.729
4.725
4.725
4.732
4.739
4.736
4.729
4.721
4.718
4.711
4.714
4.724
4.734
4.732
4.728
4.729
4.725
4.727
4.723
4.721
4.722
4.727
4.728
4.729
4.728
4.729
4.723
4.722
4.728
4.730
4.725
4.735
4.742
4.743
4.737
4.740
4.742
4.743
4.736
4.732
4.734
4.741
4.744
4.744
4.739
4.738
4.740
4.736
4.739
4.741
4.740
4.736
4.737
4.748
4.756
4.757
4.755
4.755
4.755
4.754
4.755
4.749
4.753
4.762
4.759
4.757
4.766
4.766
4.764
4.760
4.766
4.763
4.762
4.763
4.758
4.754
4.753
4.759
4.767
4.776
4.773
4.770
4.764
4.759
4.753
4.748
4.742
4.736
4.744
4.749
4.750
4.749
4.751
4.744
4.745
4.743
4.736
4.740
4.737
4.740
4.739
4.744
4.751
4.746
4.739
4.732
4.733
4.733
4.731
4.729
4.733
4.733
4.729
4.732
4.737
4.744
4.751
4.749
4.748
4.749
4.750
4.744
4.742
4.740
4.740
4.743
4.742
4.740
4.742
4.741
4.748
4.757
4.764
4.768
4.764
4.766
4.761
4.754
4.751
4.752
4.750
4.749
4.747
4.746
4.745
4.746
4.753
4.762
4.766
4.766
4.762
4.760
4.753
4.749
4.753
4.757
4.751
4.746
4.737
4.736
4.739
4.743
4.750
4.759
4.761
4.771
4.766
4.765
4.761
4.762
4.761
4.760
4.761
4.757
4.756
4.759
4.758
4.751
4.751
4.754
4.756
4.765
4.770
4.779
4.781
4.777
4.773
4.777
4.785
4.779
4.773
4.766
4.770
4.770
4.766
4.759
4.753
4.759
4.769
4.765
4.767
4.774
4.780
4.777
4.773
4.777
4.773
4.771
4.770
4.770
4.772
4.773
4.772
4.777
4.772
4.763
4.762
4.768
4.769
4.770
4.769
4.776
4.783
4.790
4.792
4.796
4.796
4.793
4.791
4.798
4.797
4.796
4.796
4.792
4.788
4.790
4.789
4.790
4.788
4.784
4.781
4.782
4.781
4.782
4.789
4.796
4.799
4.798
4.802
4.793
4.797
4.799
4.802
4.799
4.794
4.788
4.785
4.784
4.785
4.784
4.785
4.779
4.775
4.771
4.769
4.776
4.781
4.790
4.791
4.790
4.789
4.787
4.789
4.787
4.785
4.787
4.789
4.787
4.785
4.788
4.785
4.779
4.780
4.785
4.778
4.771
4.766
4.765
4.766
4.773
4.778
4.784
4.785
4.787
4.786
4.788
4.792
4.790
4.788
4.785
4.783
4.784
4.785
4.785
4.786
4.782
4.781
4.781
4.781
4.779
4.785
4.787
4.789
4.787
4.789
4.784
4.783
4.784
4.789
4.796
4.800
4.799
4.799
4.798
4.797
4.796
4.800
4.795
4.796
4.792
4.791
4.793
4.792
4.793
4.789
4.793
4.791
4.792
4.789
4.792
4.791
4.793
4.791
4.788
4.783
4.792
4.794
4.795
4.800
4.806
4.811
4.818
4.813
4.817
4.816
4.815
4.811
4.809
4.808
4.809
4.807
4.803
4.802
4.807
4.805
4.807
4.810
4.809
4.808
4.812
4.813
4.809
4.805
4.806
4.810
4.814
4.807
4.807
4.803
4.809
4.810
4.814
4.819
4.825
4.830
4.829
4.829
4.833
4.832
4.826
4.825
4.828
4.825
4.822
4.819
4.815
4.816
4.818
4.822
4.822
4.821
4.815
4.814
4.812
4.811
4.815
4.814
4.815
4.810
4.814
4.811
4.809
4.808
4.806
4.807
4.814
4.819
4.825
4.827
4.825
4.824
4.815
4.818
4.814
4.813
4.811
4.811
4.812
4.814
4.818
4.819
4.823
4.818
4.815
4.819
4.818
4.818
4.814
4.813
4.811
4.807
4.804
4.803
4.804
4.807
4.806
4.800
4.804
4.805
4.803
4.808
4.811
4.816
4.822
4.827
4.831
4.836
4.842
4.841
4.840
4.840
4.837
4.838
4.839
4.840
4.836
4.832
4.829
4.830
4.833
4.836
4.834
4.835
4.833
4.830
4.826
4.827
4.829
4.830
4.836
4.838
4.833
4.832
4.831
4.833
4.833
4.838
4.833
4.829
4.828
4.829
4.829
4.830
4.831
4.824
4.829
4.835
4.840
4.846
4.850
4.855
4.861
4.866
4.867
4.863
4.861
4.860
4.858
4.854
4.850
4.848
4.848
4.854
4.851
4.849
4.850
4.849
4.845
4.841
4.842
4.841
4.844
4.840
4.844
4.848
4.844
4.843
4.840
4.840
4.837
4.835
4.836
4.833
4.831
4.827
4.825
4.821
4.820
4.822
4.828
4.830
4.836
4.840
4.836
4.830
4.828
4.825
4.823
4.824
4.825
4.824
4.822
4.824
4.825
4.824
4.825
4.822
4.820
4.824
4.828
4.827
4.826
4.827
4.825
4.825
4.820
4.819
4.820
4.819
4.823
4.824
4.822
4.819
4.817
4.814
4.815
4.819
4.817
4.813
4.809
4.805
4.803
4.800
4.801
4.807
4.811
4.814
4.820
4.825
4.825
4.832
4.837
4.838
4.836
4.835
4.837
4.833
4.831
4.832
4.833
4.830
4.829
4.830
4.831
4.833
4.831
4.827
4.829
