2.984
3.323
3.512
3.591
3.670
3.784
3.779
3.853
3.914
3.974
3.875
3.902
3.932
3.960
3.982
4.004
4.016
4.045
4.053
4.083
4.078
4.102
4.126
4.117
4.136
4.149
4.170
4.161
4.178
4.191
4.204
4.212
4.210
4.214
4.224
4.224
4.247
4.249
4.262
4.272
4.288
4.284
4.270
4.266
4.289
4.279
4.291
4.305
4.316
4.324
4.316
4.327
4.330
4.339
4.351
4.353
4.356
4.366
4.373
4.366
4.351
4.341
4.350
4.362
4.369
4.353
4.363
4.368
4.366
4.375
4.395
4.383
4.386
4.403
4.408
4.411
4.415
4.404
4.406
4.400
4.397
4.416
4.426
4.426
4.427
4.443
4.444
4.432
4.444
4.458
4.446
4.455
4.469
4.475
4.455
4.466
4.446
4.459
4.454
4.473
4.466
4.474
4.476
4.488
4.482
4.504
4.486
4.505
4.487
4.510
4.499
4.484
4.467
4.461
4.468
4.467
4.459
4.476
4.476
4.482
4.483
4.482
4.500
4.497
4.477
4.474
4.465
4.466
4.462
4.460
4.469
4.468
4.473
4.493
4.485
4.480
4.492
4.488
4.482
4.485
4.496
4.493
4.488
4.504
4.510
4.509
4.501
4.517
4.525
4.518
4.504
4.508
4.511
4.504
4.497
4.515
4.517
4.507
4.510
4.521
4.523
4.522
4.514
4.510
4.537
4.546
4.534
4.539
4.535
4.547
4.554
4.554
4.545
4.541
4.549
4.566
4.552
4.552
4.542
4.544
4.561
4.547
4.531
4.522
4.531
4.548
4.529
4.521
4.507
4.511
4.534
4.545
4.541
4.542
4.535
4.533
4.534
4.549
4.541
4.551
4.541
4.535
4.530
4.537
4.549
4.539
4.542
4.544
4.532
4.535
4.535
4.556
4.572
4.574
4.561
4.555
4.555
4.552
4.550
4.563
4.564
4.571
4.563
4.560
4.554
4.554
4.563
4.559
4.578
4.598
4.598
4.580
4.585
4.583
4.580
4.574
4.562
4.581
4.600
4.603
4.590
4.583
4.585
4.585
4.582
4.568
4.569
4.585
4.584
4.583
4.570
4.560
4.558
4.558
4.550
4.556
4.566
4.580
4.598
4.595
4.590
4.578
4.580
4.577
4.576
4.568
4.567
4.563
4.575
4.592
4.609
4.608
4.593
4.603
4.598
4.595
4.584
4.596
4.593
4.599
4.597
4.600
4.602
4.618
4.623
4.624
4.627
4.637
4.621
4.617
4.613
4.609
4.598
4.598
4.595
4.598
4.608
4.624
4.615
4.617
4.609
4.602
4.606
4.608
4.606
4.601
4.602
4.602
4.594
4.590
4.594
4.609
4.623
4.638
4.638
4.641
4.641
4.638
4.642
4.645
4.630
4.624
4.632
4.639
4.638
4.637
4.637
4.626
4.626
4.634
4.643
4.657
4.656
4.653
4.651
4.658
4.657
4.651
4.647
4.649
4.649
4.644
4.642
4.646
4.632
4.631
4.629
4.632
4.636
4.644
4.638
4.636
4.635
4.631
4.625
4.627
4.625
4.635
4.644
4.640
4.635
4.626
4.616
4.607
4.597
4.592
4.603
4.615
4.628
4.631
4.638
4.635
4.627
4.615
4.610
4.617
4.614
4.617
4.616
4.614
4.606
4.605
4.613
4.615
4.615
4.615
4.617
4.611
4.609
4.605
4.614
4.626
4.637
4.649
4.641
4.631
4.623
4.616
4.615
4.612
4.619
4.612
4.604
4.613
4.609
4.614
4.604
4.603
4.588
4.589
4.590
4.595
4.599
4.608
4.607
4.609
4.611
4.622
4.633
4.644
4.655
4.655
4.644
4.634
4.630
4.627
4.631
4.635
4.629
4.628
4.626
4.624
4.618
4.617
4.616
4.617
4.617
4.607
4.608
4.610
4.608
4.601
4.601
4.604
4.594
4.601
4.612
4.622
4.632
4.643
4.649
4.652
4.655
4.663
4.655
4.655
4.656
4.647
4.652
4.650
4.640
4.634
4.638
4.635
4.623
4.616
4.615
4.611
4.612
4.605
4.616
4.622
4.621
4.625
4.620
4.619
4.618
4.611
4.614
4.609
4.608
4.616
4.626
4.635
4.645
4.654
4.664
4.666
4.662
4.657
4.656
4.646
4.646
4.647
4.639
4.648
4.662
4.666
4.662
4.656
4.648
4.646
4.642
4.638
4.636
4.630
4.642
4.643
4.645
4.644
4.639
4.635
4.636
4.635
4.632
4.627
4.631
4.626
4.629
4.636
4.636
4.632
4.622
4.630
4.639
4.648
4.657
4.666
4.674
4.683
4.692
4.690
4.691
4.690
4.687
4.698
4.688
4.682
4.680
4.680
4.680
4.680
4.679
4.680
4.671
4.669
4.664
4.655
4.665
4.672
4.678
4.678
4.676
4.677
4.673
4.671
4.677
4.680
4.679
4.676
4.674
4.671
4.675
4.668
4.661
4.662
4.656
4.657
4.668
4.660
4.659
4.651
4.652
4.656
4.656
4.664
4.672
4.680
4.688
4.696
4.704
4.702
4.700
4.694
4.687
4.687
4.686
4.676
4.666
4.666
4.670
4.673
4.668
4.668
4.655
4.653
4.651
4.653
4.651
4.655
4.644
4.644
4.646
4.643
4.646
4.651
4.646
4.637
4.634
4.629
4.635
4.639
4.643
4.652
4.651
4.651
4.648
4.643
4.640
4.643
4.637
4.640
4.638
4.633
4.626
4.624
4.614
4.621
4.629
4.636
4.643
4.651
4.658
4.665
4.673
4.680
4.687
4.688
4.699
4.700
4.694
4.697
4.693
4.691
4.688
4.690
4.693
4.690
4.693
4.682
4.675
4.669
4.674
4.671
4.679
4.682
4.680
4.687
4.679
4.680
4.681
4.682
4.682
4.680
4.675
4.679
4.683
4.674
4.675
4.673
4.667
4.674
4.675
4.672
4.676
4.681
4.682
4.679
4.672
4.671
4.668
4.668
4.658
4.653
4.657
4.661
4.656
4.654
4.656
4.652
4.654
4.659
4.662
4.673
4.665
4.654
4.661
4.670
4.675
4.676
4.672
4.674
4.670
4.670
4.671
4.676
4.681
4.687
4.694
4.700
4.707
4.713
4.720
4.727
4.718
4.724
4.726
4.723
4.717
4.708
4.709
4.703
4.700
4.692
4.688
4.687
4.689
4.689
4.683
4.687
4.679
4.676
4.673
4.678
4.671
4.662
4.665
4.664
4.660
4.658
4.653
4.656
4.658
4.661
4.659
4.662
4.660
4.667
4.660
4.662
4.658
4.663
4.660
4.658
4.657
4.654
4.645
4.649
4.657
4.652
4.657
4.659
4.652
4.655
4.655
4.657
4.652
4.650
4.652
4.645
4.639
4.632
4.625
4.618
4.618
4.616
4.620
4.618
4.608
4.607
4.611
4.617
4.615
4.621
4.622
4.625
4.630
4.635
4.641
4.647
4.653
4.659
4.665
4.670
4.676
4.682
4.688
4.694
4.700
4.706
4.712
4.710
4.720
4.724
4.721
4.721
4.715
4.714
4.708
4.717
4.713
4.721
4.729
4.737
4.729
4.724
4.720
4.726
4.725
4.724
4.724
4.721
4.724
4.719
4.720
4.713
4.708
4.702
4.700
4.702
4.696
4.693
4.691
4.687
4.689
4.687
4.687
4.682
4.691
4.692
4.687
4.686
4.695
4.692
4.686
4.679
4.675
4.680
4.676
4.681
4.675
4.672
4.672
4.667
4.661
4.656
4.650
4.644
4.639
4.639
4.639
4.641
4.642
4.637
4.636
4.632
4.632
4.629
4.637
4.644
4.637
4.636
4.643
4.641
4.646
4.647
4.641
4.646
4.647
4.640
4.638
4.639
4.635
4.635
4.642
4.639
4.642
4.643
4.644
4.646
4.655
4.661
4.658
4.657
4.656
4.656
4.652
4.656
4.657
4.653
4.655
4.652
4.657
4.659
4.657
4.662
4.667
4.672
4.677
4.682
4.687
4.692
4.697
4.703
4.708
4.713
4.713
4.704
4.708
4.709
4.705
4.699
4.708
4.710
4.705
4.708
4.706
4.708
4.702
4.705
4.702
4.698
4.693
4.694
4.690
4.688
4.688
4.689
4.686
4.680
4.681
4.690
4.698
4.703
4.696
4.695
4.692
4.692
4.694
4.698
4.699
4.699
4.696
4.695
4.692
4.698
4.698
4.705
4.712
4.719
4.722
4.718
4.721
4.715
4.716
4.710
4.708
4.706
4.705
4.699
4.699
4.701
4.698
4.694
4.695
4.689
4.683
4.677
4.674
4.670
4.669
4.669
4.659
4.660
4.665
4.664
4.660
4.659
4.661
4.657
4.656
4.655
4.648
4.656
4.655
4.657
4.656
4.660
4.668
4.667
