2.994
3.335
3.512
3.633
3.709
3.785
3.829
3.880
3.931
3.936
3.984
4.025
4.060
4.033
4.062
4.091
4.117
4.138
4.158
4.181
4.203
4.209
4.166
4.144
4.153
4.170
4.183
4.188
4.202
4.207
4.222
4.226
4.238
4.239
4.252
4.266
4.263
4.277
4.285
4.295
4.292
4.300
4.312
4.319
4.315
4.324
4.331
4.340
4.347
4.343
4.348
4.352
4.361
4.368
4.370
4.382
4.381
4.377
4.384
4.387
4.394
4.401
4.403
4.412
4.416
4.421
4.418
4.414
4.421
4.423
4.424
4.436
4.438
4.439
4.440
4.451
4.454
4.455
4.462
4.464
4.471
4.455
4.460
4.456
4.458
4.464
4.470
4.473
4.476
4.478
4.479
4.483
4.490
4.499
4.498
4.500
4.506
4.507
4.507
4.510
4.515
4.524
4.528
4.530
4.523
4.508
4.504
4.507
4.506
4.507
4.514
4.521
4.525
4.524
4.525
4.533
4.536
4.529
4.534
4.530
4.536
4.540
4.544
4.549
4.551
4.554
4.556
4.558
4.562
4.563
4.556
4.562
4.562
4.562
4.559
4.570
4.573
4.581
4.583
4.581
4.586
4.582
4.591
4.596
4.589
4.596
4.594
4.595
4.599
4.599
4.591
4.587
4.575
4.563
4.573
4.570
4.577
4.584
4.573
4.582
4.588
4.585
4.584
4.587
4.589
4.593
4.588
4.596
4.597
4.601
4.599
4.593
4.597
4.593
4.597
4.599
4.595
4.604
4.602
4.604
4.603
4.610
4.608
4.615
4.614
4.618
4.619
4.618
4.627
4.621
4.621
4.620
4.622
4.621
4.630
4.629
4.633
4.636
4.636
4.644
4.640
4.636
4.624
4.634
4.629
4.631
4.643
4.634
4.636
4.633
4.632
4.640
4.641
4.642
4.646
4.640
4.649
4.648
4.646
4.656
4.654
4.656
4.662
4.664
4.658
4.666
4.663
4.661
4.665
4.659
4.654
4.669
4.668
4.664
4.670
4.677
4.674
4.667
4.681
4.681
4.682
4.680
4.688
4.683
4.684
4.688
4.687
4.683
4.684
4.675
4.676
4.678
4.688
4.689
4.684
4.684
4.684
4.680
4.679
4.686
4.684
4.678
4.677
4.694
4.690
4.686
4.687
4.695
4.699
4.702
4.703
4.695
4.706
4.705
4.703
4.700
4.709
4.714
4.715
4.708
4.709
4.719
4.717
4.711
4.706
4.700
4.693
4.686
4.684
4.681
4.679
4.677
4.676
4.677
4.674
4.677
4.674
4.680
4.688
4.688
4.682
4.680
4.681
4.694
4.693
4.689
4.681
4.678
4.692
4.695
4.695
4.691
4.688
4.688
4.701
4.697
4.699
4.697
4.695
4.694
4.707
4.711
4.714
4.711
4.703
4.700
4.709
4.702
4.695
4.691
4.684
4.697
4.699
4.702
4.698
4.695
4.688
4.694
4.701
4.691
4.682
4.683
4.679
4.689
4.698
4.702
4.695
4.688
4.690
4.688
4.693
4.695
4.693
4.697
4.696
4.695
4.690
4.695
4.707
4.708
4.706
4.703
4.710
4.708
4.706
4.705
4.714
4.714
4.714
4.714
4.707
4.708
4.703
4.710
4.710
4.710
4.712
4.708
4.709
4.707
4.709
4.713
4.725
4.718
4.720
4.718
4.715
4.716
4.715
4.711
4.721
4.729
4.733
4.735
4.729
4.733
4.728
4.730
4.726
4.729
4.739
4.740
4.733
4.725
4.721
4.716
4.714
4.718
4.728
4.733
4.734
4.730
4.728
4.727
4.729
4.727
4.720
4.724
4.729
4.730
4.729
4.732
4.728
4.729
4.725
4.733
4.729
4.727
4.737
4.743
4.745
4.738
4.745
4.744
4.745
4.733
4.737
4.738
4.744
4.744
4.747
4.740
4.742
4.743
4.737
4.743
4.747
4.743
4.740
4.740
4.748
4.757
4.759
4.760
4.758
4.758
4.759
4.757
4.753
4.755
4.762
4.762
4.756
4.765
4.767
4.766
4.762
4.768
4.766
4.766
4.766
4.758
4.756
4.751
4.756
4.765
4.775
4.774
4.770
4.765
4.761
4.755
4.748
4.744
4.739
4.741
4.750
4.752
4.751
4.755
4.748
4.746
4.750
4.741
4.740
4.741
4.742
4.746
4.740
4.749
4.748
4.741
4.737
4.738
4.736
4.738
4.734
4.732
4.736
4.736
4.734
4.733
4.740
4.747
4.755
4.752
4.751
4.754
4.753
4.749
4.744
4.740
4.744
4.746
4.745
4.744
4.742
4.743
4.751
4.758
4.767
4.770
4.769
4.768
4.761
4.752
4.755
4.754
4.753
4.751
4.750
4.746
4.745
4.746
4.755
4.762
4.769
4.771
4.767
4.760
4.753
4.749
4.756
4.760
4.755
4.747
4.744
4.741
4.740
4.741
4.748
4.757
4.762
4.770
4.769
4.770
4.762
4.763
4.766
4.762
4.762
4.760
4.761
4.762
4.761
4.755
4.753
4.752
4.758
4.762
4.769
4.776
4.784
4.782
4.780
4.779
4.783
4.784
4.778
4.773
4.770
4.773
4.772
4.763
4.758
4.757
4.764
4.770
4.766
4.771
4.777
4.784
4.781
4.779
4.778
4.773
4.772
4.774
4.772
4.774
4.775
4.777
4.780
4.771
4.767
4.768
4.770
4.773
4.773
4.770
4.778
4.784
4.791
4.796
4.799
4.798
4.795
4.795
4.800
4.799
4.800
4.798
4.792
4.790
4.794
4.792
4.791
4.788
4.789
4.785
4.784
4.785
4.788
4.788
4.795
4.803
4.803
4.804
4.795
4.799
4.802
4.806
4.802
4.796
4.791
4.788
4.788
4.787
4.786
4.785
4.781
4.776
4.772
4.766
4.773
4.781
4.786
4.793
4.794
4.792
4.789
4.793
4.789
4.788
4.789
4.792
4.792
4.790
4.786
4.788
4.783
4.784
4.783
4.782
4.775
4.770
4.764
4.766
4.769
4.776
4.781
4.785
4.789
4.787
4.788
4.792
4.794
4.793
4.792
4.787
4.786
4.785
4.788
4.788
4.788
4.785
4.783
4.782
4.786
4.784
4.786
4.792
4.789
4.790
4.792
4.788
4.788
4.785
4.792
4.796
4.802
4.801
4.802
4.801
4.800
4.798
4.803
4.796
4.795
4.795
4.792
4.795
4.795
4.795
4.794
4.796
4.794
4.793
4.791
4.793
4.794
4.795
4.795
4.790
4.789
4.788
4.797
4.796
4.799
4.806
4.810
4.817
4.819
4.820
4.818
4.818
4.818
4.814
4.813
4.812
4.811
4.807
4.805
4.809
4.810
4.809
4.810
4.814
4.813
4.812
4.818
4.810
4.813
4.807
4.810
4.815
4.814
4.810
4.810
4.807
4.810
4.809
4.816
4.821
4.827
4.831
4.832
4.833
4.833
4.829
4.829
4.828
4.827
4.829
4.825
4.821
4.819
4.818
4.821
4.826
4.825
4.821
4.818
4.817
4.816
4.815
4.818
4.815
4.819
4.815
4.814
4.812
4.810
4.810
4.805
4.809
4.813
4.818
4.825
4.829
4.827
4.825
4.819
4.818
4.816
4.817
4.818
4.814
4.816
4.814
4.821
4.823
4.822
4.821
4.819
4.823
4.819
4.821
4.818
4.817
4.814
4.810
4.808
4.806
4.808
4.806
4.810
4.803
4.803
4.807
4.808
4.807
4.811
4.815
4.819
4.825
4.830
4.834
4.840
4.845
4.844
4.845
4.843
4.842
4.838
4.842
4.840
4.837
4.833
4.833
4.833
4.837
4.836
4.839
4.838
4.833
4.832
4.831
4.827
4.833
4.836
4.840
4.838
4.836
4.833
4.836
4.836
4.836
4.840
4.834
4.832
4.834
4.832
4.831
4.832
4.831
4.827
4.831
4.836
4.842
4.847
4.851
4.855
4.861
4.866
4.869
4.865
4.866
4.862
4.861
4.855
4.853
4.852
4.850
4.854
4.856
4.854
4.850
4.852
4.847
4.844
4.847
4.844
4.847
4.841
4.844
4.851
4.847
4.847
4.844
4.843
4.840
4.840
4.836
4.833
4.831
4.829
4.825
4.824
4.821
4.821
4.825
4.830
4.834
4.840
4.837
4.832
4.829
4.830
4.829
4.825
4.828
4.829
4.826
4.827
4.825
4.829
4.828
4.827
4.823
4.822
4.825
4.832
4.831
4.829
4.828
4.830
4.825
4.824
4.823
4.821
4.823
4.825
4.828
4.822
4.821
4.819
4.818
4.818
4.818
4.816
4.812
4.808
4.806
4.802
4.799
4.802
4.807
4.811
4.815
4.821
4.825
4.825
4.833
4.838
4.840
4.840
4.839
4.840
4.834
