2.994
3.331
3.511
3.638
3.723
3.798
3.838
3.880
3.926
3.963
4.000
4.009
4.046
4.078
4.084
4.078
4.099
4.124
4.148
4.168
4.191
4.204
4.225
4.242
4.249
4.212
4.183
4.192
4.200
4.214
4.221
4.228
4.238
4.244
4.255
4.266
4.268
4.280
4.288
4.289
4.299
4.310
4.309
4.314
4.325
4.332
4.331
4.336
4.344
4.355
4.359
4.354
4.361
4.366
4.373
4.379
4.386
4.382
4.384
4.393
4.395
4.403
4.408
4.412
4.422
4.423
4.413
4.421
4.429
4.429
4.432
4.440
4.441
4.445
4.454
4.459
4.462
4.450
4.452
4.458
4.458
4.461
4.465
4.473
4.474
4.475
4.482
4.486
4.492
4.494
4.495
4.503
4.503
4.508
4.496
4.497
4.495
4.491
4.496
4.500
4.503
4.511
4.517
4.514
4.518
4.519
4.525
4.525
4.526
4.536
4.536
4.541
4.540
4.536
4.544
4.546
4.545
4.555
4.556
4.560
4.564
4.562
4.548
4.541
4.542
4.544
4.545
4.543
4.548
4.554
4.559
4.562
4.570
4.565
4.564
4.569
4.569
4.563
4.567
4.571
4.567
4.573
4.575
4.579
4.586
4.592
4.594
4.588
4.592
4.590
4.597
4.603
4.591
4.593
4.600
4.599
4.595
4.601
4.605
4.610
4.607
4.615
4.621
4.618
4.621
4.620
4.625
4.623
4.632
4.631
4.627
4.628
4.630
4.629
4.633
4.632
4.624
4.612
4.602
4.601
4.605
4.603
4.607
4.612
4.618
4.617
4.613
4.623
4.619
4.628
4.619
4.621
4.624
4.626
4.627
4.631
4.633
4.632
4.636
4.634
4.629
4.628
4.638
4.629
4.633
4.631
4.635
4.631
4.638
4.634
4.638
4.642
4.641
4.645
4.640
4.651
4.649
4.648
4.657
4.653
4.660
4.661
4.655
4.659
4.654
4.659
4.654
4.659
4.663
4.662
4.669
4.670
4.668
4.678
4.671
4.673
4.666
4.656
4.668
4.664
4.662
4.672
4.671
4.670
4.666
4.667
4.668
4.677
4.669
4.670
4.676
4.677
4.676
4.681
4.676
4.677
4.687
4.686
4.685
4.686
4.693
4.692
4.692
4.700
4.696
4.697
4.695
4.703
4.696
4.691
4.699
4.694
4.695
4.699
4.707
4.705
4.699
4.707
4.715
4.707
4.707
4.711
4.721
4.714
4.710
4.716
4.723
4.722
4.721
4.718
4.714
4.703
4.706
4.716
4.715
4.711
4.709
4.719
4.725
4.724
4.714
4.714
4.721
4.718
4.714
4.713
4.720
4.719
4.714
4.718
4.721
4.724
4.723
4.724
4.723
4.727
4.737
4.738
4.734
4.736
4.732
4.741
4.740
4.736
4.737
4.736
4.748
4.749
4.742
4.743
4.742
4.740
4.734
4.729
4.723
4.719
4.714
4.710
4.710
4.714
4.717
4.716
4.712
4.710
4.709
4.708
4.710
4.711
4.709
4.708
4.715
4.721
4.721
4.719
4.717
4.716
4.718
4.730
4.731
4.722
4.717
4.713
4.718
4.724
4.725
4.729
4.726
4.724
4.721
4.729
4.732
4.730
4.726
4.730
4.731
4.727
4.734
4.743
4.747
4.744
4.744
4.743
4.739
4.736
4.731
4.724
4.721
4.718
4.718
4.727
4.732
4.730
4.728
4.732
4.731
4.722
4.726
4.729
4.728
4.719
4.715
4.714
4.712
4.721
4.731
4.727
4.729
4.730
4.728
4.719
4.715
4.725
4.734
4.732
4.725
4.725
4.728
4.725
4.725
4.727
4.737
4.740
4.736
4.738
4.737
4.735
4.734
4.738
4.736
4.746
4.747
4.738
4.742
4.743
4.744
4.743
4.740
4.738
4.748
4.752
4.748
4.740
4.736
4.743
4.739
4.738
4.739
4.747
4.758
4.754
4.755
4.751
4.747
4.746
4.744
4.744
4.745
4.755
4.759
4.762
4.756
4.758
4.759
4.758
4.759
4.758
4.756
4.758
4.767
4.774
4.769
4.766
4.769
4.760
4.755
4.754
4.751
4.754
4.762
4.763
4.764
4.765
4.759
4.758
4.758
4.755
4.755
4.755
4.759
4.765
4.761
4.762
4.758
4.758
4.758
4.754
4.753
4.755
4.756
4.757
4.766
4.774
4.777
4.774
4.772
4.771
4.769
4.763
4.770
4.769
4.764
4.768
4.770
4.777
4.783
4.784
4.781
4.781
4.775
4.766
4.769
4.763
4.764
4.771
4.769
4.776
4.784
4.785
4.786
4.785
4.788
4.782
4.786
4.784
4.783
4.781
4.781
4.779
4.780
4.787
4.794
4.803
4.808
4.804
4.802
4.798
4.795
4.790
4.786
4.795
4.792
4.785
4.786
4.790
4.797
4.799
4.800
4.801
4.799
4.798
4.795
4.793
4.792
4.792
4.788
4.782
4.778
4.787
4.781
4.781
4.777
4.776
4.777
4.773
4.775
4.773
4.780
4.777
4.773
4.769
4.772
4.779
4.786
4.784
4.788
4.790
4.788
4.785
4.778
4.773
4.769
4.763
4.762
4.758
4.758
4.765
4.772
4.779
4.778
4.781
4.777
4.779
4.780
4.782
4.780
4.776
4.775
4.773
4.770
4.768
4.767
4.768
4.770
4.776
4.783
4.787
4.788
4.788
4.791
4.788
4.789
4.784
4.781
4.782
4.784
4.790
4.789
4.788
4.791
4.785
4.784
4.779
4.786
4.793
4.797
4.796
4.795
4.796
4.789
4.785
4.784
4.787
4.784
4.784
4.780
4.785
4.781
4.788
4.781
4.777
4.781
4.787
4.794
4.796
4.791
4.788
4.784
4.784
4.783
4.790
4.788
4.782
4.781
4.782
4.780
4.782
4.781
4.781
4.777
4.779
4.783
4.790
4.797
4.803
4.810
4.806
4.803
4.803
4.802
4.798
4.799
4.798
4.797
4.795
4.797
4.801
4.799
4.798
4.799
4.801
4.799
4.799
4.795
4.796
4.803
4.809
4.811
4.814
4.810
4.809
4.813
4.807
4.808
4.809
4.810
4.810
4.805
4.799
4.797
4.793
4.794
4.793
4.800
4.795
4.797
4.795
4.800
4.806
4.811
4.818
4.816
4.818
4.816
4.815
4.813
4.810
4.811
4.814
4.816
4.818
4.821
4.817
4.811
4.807
4.810
4.809
4.814
4.810
4.810
4.809
4.807
4.807
4.813
4.820
4.825
4.831
4.838
4.837
4.838
4.836
4.835
4.829
4.825
4.826
4.827
4.825
4.825
4.825
4.824
4.826
4.825
4.825
4.821
4.817
4.814
4.818
4.818
4.815
4.814
4.821
4.825
4.829
4.829
4.826
4.822
4.820
4.816
4.810
4.810
4.807
4.805
4.806
4.805
4.804
4.800
4.803
4.803
4.803
4.803
4.803
4.803
4.807
4.805
4.806
4.805
4.812
4.816
4.821
4.829
4.834
4.835
4.829
4.827
4.826
4.822
4.817
4.811
4.810
4.807
4.810
4.810
4.810
4.813
4.814
4.811
4.806
4.800
4.799
4.800
4.798
4.799
4.798
4.797
4.803
4.808
4.814
4.818
4.825
4.827
4.826
4.832
4.834
4.836
4.836
4.832
4.829
4.825
4.829
4.832
4.829
4.830
4.829
4.827
4.826
4.825
4.821
4.819
4.817
4.821
4.820
4.816
4.820
4.814
4.815
4.811
4.807
4.810
4.815
4.821
4.825
4.830
4.836
4.836
4.836
4.835
4.834
4.838
4.836
4.835
4.832
4.835
4.837
4.836
4.837
4.838
4.840
4.836
4.836
4.836
4.836
4.838
4.836
4.838
4.839
4.835
4.832
4.829
4.826
4.822
4.821
4.827
4.821
4.821
4.825
4.829
4.834
4.840
4.844
4.849
4.855
4.855
4.856
4.855
4.853
4.851
4.848
4.847
4.847
4.844
4.847
4.852
4.853
4.849
4.848
4.849
4.851
4.854
4.858
4.857
4.858
4.855
4.850
4.847
4.845
4.846
4.848
4.843
4.842
4.838
4.840
4.840
4.840
4.843
4.842
4.843
4.845
4.851
4.856
4.862
4.864
4.860
4.862
4.868
4.864
4.862
4.862
4.862
4.861
4.860
4.858
4.854
4.856
4.860
4.861
4.857
4.853
4.849
4.847
4.841
4.837
4.833
4.831
4.835
4.834
4.830
4.834
4.832
4.834
4.830
4.831
4.835
4.834
4.833
4.834
4.838
4.842
4.847
4.851
4.857
4.862
4.865
4.861
4.862
4.861
4.860
4.855
4.855
4.858
4.852
4.850
4.851
4.855
4.855
4.858
4.855
4.855
4.857
4.855
4.851
4.850
