2.994
3.331
3.517
3.638
3.723
3.781
3.840
3.875
3.938
3.945
3.993
4.033
4.004
4.036
4.068
4.096
4.123
4.143
4.169
4.194
4.179
4.132
4.133
4.145
4.155
4.162
4.180
4.189
4.202
4.205
4.219
4.222
4.234
4.249
4.248
4.261
4.270
4.268
4.281
4.291
4.300
4.294
4.306
4.315
4.319
4.332
4.323
4.331
4.334
4.346
4.352
4.362
4.366
4.356
4.364
4.365
4.379
4.378
4.385
4.398
4.399
4.403
4.394
4.397
4.402
4.406
4.415
4.422
4.424
4.428
4.434
4.438
4.442
4.445
4.449
4.449
4.438
4.439
4.445
4.447
4.456
4.456
4.462
4.458
4.467
4.464
4.473
4.480
4.484
4.488
4.486
4.493
4.490
4.497
4.503
4.507
4.509
4.505
4.494
4.493
4.489
4.494
4.500
4.497
4.508
4.508
4.508
4.513
4.517
4.510
4.512
4.518
4.523
4.526
4.531
4.535
4.534
4.538
4.539
4.548
4.549
4.537
4.544
4.545
4.545
4.549
4.553
4.560
4.569
4.568
4.569
4.567
4.569
4.578
4.579
4.587
4.577
4.576
4.579
4.581
4.580
4.567
4.555
4.553
4.558
4.560
4.560
4.567
4.560
4.573
4.574
4.567
4.575
4.578
4.574
4.582
4.580
4.586
4.583
4.576
4.580
4.582
4.579
4.578
4.579
4.587
4.586
4.592
4.593
4.589
4.597
4.600
4.602
4.601
4.607
4.608
4.608
4.605
4.607
4.605
4.610
4.612
4.613
4.625
4.618
4.628
4.619
4.620
4.608
4.616
4.619
4.620
4.621
4.612
4.618
4.617
4.627
4.630
4.619
4.630
4.621
4.630
4.634
4.633
4.642
4.645
4.640
4.650
4.645
4.644
4.654
4.647
4.643
4.644
4.645
4.647
4.656
4.655
4.649
4.663
4.656
4.655
4.670
4.666
4.660
4.669
4.675
4.668
4.667
4.674
4.664
4.663
4.664
4.664
4.665
4.677
4.673
4.666
4.668
4.669
4.668
4.661
4.668
4.672
4.668
4.669
4.679
4.677
4.673
4.674
4.690
4.693
4.681
4.682
4.692
4.694
4.690
4.688
4.697
4.704
4.695
4.693
4.695
4.701
4.694
4.686
4.681
4.674
4.667
4.666
4.668
4.661
4.649
4.658
4.668
4.671
4.665
4.660
4.667
4.677
4.671
4.674
4.668
4.671
4.670
4.666
4.668
4.669
4.671
4.683
4.682
4.677
4.671
4.677
4.684
4.686
4.689
4.686
4.690
4.690
4.695
4.694
4.695
4.690
4.684
4.680
4.678
4.679
4.673
4.674
4.678
4.685
4.679
4.675
4.678
4.672
4.676
4.679
4.678
4.674
4.676
4.672
4.675
4.683
4.676
4.677
4.671
4.668
4.673
4.683
4.689
4.686
4.679
4.688
4.681
4.682
4.690
4.702
4.695
4.691
4.689
4.688
4.690
4.691
4.701
4.699
4.697
4.693
4.687
4.685
4.689
4.701
4.711
4.702
4.703
4.699
4.697
4.697
4.695
4.707
4.708
4.712
4.711
4.707
4.706
4.710
4.712
4.710
4.720
4.721
4.719
4.723
4.722
4.718
4.709
4.705
4.716
4.719
4.717
4.712
4.708
4.712
4.709
4.702
4.712
4.715
4.716
4.712
4.708
4.707
4.708
4.708
4.709
4.712
4.722
4.726
4.727
4.721
4.720
4.726
4.725
4.718
4.717
4.719
4.730
4.740
4.738
4.726
4.722
4.721
4.720
4.723
4.717
4.719
4.731
4.740
4.741
4.743
4.739
4.737
4.738
4.737
4.733
4.735
4.739
4.737
4.749
4.757
4.752
4.753
4.750
4.748
4.742
4.743
4.742
4.742
4.744
4.748
4.756
4.754
4.752
4.754
4.749
4.754
4.753
4.751
4.744
4.738
4.734
4.729
4.731
4.735
4.736
4.734
4.727
4.721
4.728
4.724
4.719
4.729
4.738
4.743
4.742
4.740
4.733
4.727
4.720
4.713
4.716
4.712
4.711
4.721
4.730
4.738
4.741
4.738
4.730
4.731
4.730
4.727
4.725
4.729
4.730
4.724
4.719
4.726
4.734
4.743
4.741
4.748
4.747
4.749
4.750
4.746
4.745
4.743
4.736
4.731
4.728
4.734
4.733
4.738
4.747
4.748
4.747
4.748
4.745
4.745
4.744
4.746
4.741
4.732
4.731
4.734
4.730
4.729
4.736
4.746
4.742
4.749
4.749
4.746
4.745
4.742
4.739
4.743
4.747
4.746
4.744
4.743
4.739
4.738
4.738
4.745
4.752
4.760
4.760
4.760
4.760
4.759
4.766
4.760
4.763
4.764
4.763
4.759
4.750
4.748
4.745
4.748
4.745
4.751
4.760
4.767
4.771
4.765
4.761
4.759
4.755
4.760
4.756
4.757
4.756
4.756
4.755
4.751
4.749
4.753
4.753
4.751
4.755
4.764
4.771
4.775
4.775
4.781
4.779
4.776
4.775
4.779
4.779
4.778
4.775
4.775
4.772
4.773
4.774
4.781
4.779
4.773
4.766
4.765
4.774
4.779
4.788
4.795
4.790
4.782
4.780
4.782
4.785
4.786
4.785
4.786
4.780
4.778
4.779
4.773
4.768
4.764
4.764
4.767
4.769
4.770
4.775
4.775
4.772
4.773
4.771
4.775
4.771
4.771
4.771
4.768
4.764
4.770
4.774
4.770
4.771
4.771
4.769
4.764
4.760
4.756
4.758
4.764
4.771
4.776
4.774
4.768
4.772
4.775
4.772
4.775
4.772
4.770
4.766
4.767
4.766
4.768
4.766
4.764
4.766
4.765
4.768
4.768
4.768
4.770
4.772
4.771
4.768
4.775
4.783
4.787
4.788
4.784
4.785
4.786
4.780
4.778
4.780
4.781
4.786
4.782
4.777
4.775
4.771
4.773
4.772
4.776
4.775
4.775
4.772
4.771
4.769
4.767
4.769
4.776
4.779
4.786
4.793
4.798
4.804
4.808
4.801
4.805
4.801
4.797
4.794
4.790
4.790
4.792
4.788
4.792
4.791
4.789
4.793
4.794
4.794
4.790
4.790
4.789
4.793
4.790
4.791
4.790
4.788
4.787
4.790
4.794
4.799
4.806
4.812
4.817
4.815
4.814
4.815
4.819
4.816
4.822
4.819
4.816
4.812
4.805
4.804
4.800
4.802
4.805
4.804
4.805
4.804
4.805
4.807
4.800
4.797
4.801
4.799
4.801
4.797
4.795
4.796
4.797
4.804
4.808
4.812
4.809
4.807
4.809
4.808
4.806
4.808
4.805
4.799
4.795
4.797
4.801
4.797
4.805
4.807
4.805
4.805
4.805
4.802
4.803
4.796
4.795
4.794
4.790
4.791
4.789
4.790
4.787
4.786
4.795
4.791
4.795
4.801
4.808
4.813
4.817
4.824
4.830
4.827
4.825
4.824
4.823
4.818
4.820
4.826
4.828
4.824
4.819
4.816
4.817
4.813
4.816
4.813
4.816
4.816
4.817
4.815
4.817
4.819
4.819
4.815
4.816
4.813
4.816
4.813
4.817
4.813
4.817
4.819
4.816
4.815
4.812
4.815
4.820
4.827
4.831
4.837
4.842
4.848
4.852
4.853
4.849
4.849
4.849
4.849
4.852
4.851
4.850
4.845
4.839
4.835
4.833
4.837
4.838
4.834
4.831
4.831
4.823
4.819
4.823
4.829
4.827
4.827
4.827
4.824
4.822
4.821
4.827
4.834
4.830
4.826
4.820
4.823
4.822
4.818
4.822
4.827
4.833
4.831
4.825
4.824
4.822
4.821
4.816
4.815
4.811
4.810
4.809
4.808
4.811
4.810
4.806
4.812
4.812
4.813
4.809
4.810
4.806
4.802
4.805
4.804
4.805
4.807
4.809
4.805
4.806
4.804
4.801
4.802
4.800
4.802
4.801
4.802
4.801
4.804
4.801
4.799
4.801
4.807
4.812
4.810
4.814
4.819
4.822
4.823
4.823
4.821
4.820
4.816
4.814
4.815
4.812
4.810
4.816
4.815
4.817
4.815
4.811
4.813
4.814
4.812
4.814
4.815
4.812
4.808
4.803
4.799
4.798
4.796
4.795
4.801
4.801
4.802
4.803
4.802
4.798
4.801
4.800
4.797
4.792
4.788
4.787
4.790
4.787
4.786
4.789
4.794
4.798
4.804
4.808
4.812
4.817
4.823
4.823
4.824
4.823
4.823
4.820
4.819
4.817
4.818
4.817
4.823
4.820
4.823
4.822
4.826
4.830
4.829
4.830
4.831
4.828
4.823
4.819
4.813
4.812
4.815
4.814
4.813
4.814
4.812
4.808
4.812
4.808
4.805
4.805
