2.992
3.333
3.503
3.636
3.702
3.779
3.831
3.863
3.915
3.972
3.951
3.983
4.018
4.052
4.082
4.113
4.140
4.112
4.069
4.087
4.097
4.114
4.124
4.143
4.151
4.169
4.176
4.188
4.192
4.207
4.217
4.221
4.236
4.246
4.245
4.254
4.267
4.280
4.271
4.278
4.290
4.298
4.313
4.305
4.312
4.315
4.325
4.326
4.342
4.346
4.353
4.338
4.345
4.355
4.359
4.364
4.367
4.377
4.387
4.394
4.399
4.404
4.384
4.384
4.395
4.399
4.405
4.413
4.413
4.414
4.425
4.428
4.435
4.433
4.438
4.442
4.447
4.459
4.461
4.468
4.445
4.433
4.438
4.448
4.449
4.460
4.456
4.467
4.464
4.465
4.462
4.470
4.478
4.482
4.483
4.490
4.495
4.499
4.490
4.495
4.496
4.499
4.507
4.515
4.516
4.518
4.515
4.528
4.525
4.535
4.537
4.527
4.538
4.530
4.535
4.526
4.510
4.506
4.509
4.514
4.523
4.518
4.514
4.522
4.529
4.529
4.531
4.537
4.544
4.533
4.521
4.534
4.532
4.529
4.536
4.546
4.537
4.546
4.548
4.552
4.558
4.557
4.564
4.557
4.552
4.568
4.562
4.574
4.569
4.578
4.573
4.583
4.572
4.565
4.573
4.575
4.573
4.568
4.578
4.582
4.578
4.577
4.577
4.585
4.582
4.593
4.591
4.598
4.597
4.593
4.602
4.604
4.598
4.598
4.603
4.609
4.603
4.616
4.609
4.612
4.626
4.614
4.619
4.624
4.618
4.628
4.629
4.614
4.623
4.622
4.620
4.631
4.617
4.621
4.622
4.614
4.623
4.630
4.621
4.622
4.636
4.638
4.634
4.642
4.643
4.641
4.637
4.651
4.654
4.644
4.652
4.657
4.656
4.655
4.664
4.656
4.647
4.639
4.630
4.621
4.617
4.610
4.614
4.622
4.629
4.622
4.620
4.624
4.636
4.624
4.614
4.623
4.637
4.630
4.633
4.622
4.639
4.643
4.637
4.634
4.638
4.651
4.648
4.648
4.642
4.643
4.650
4.638
4.627
4.629
4.642
4.637
4.624
4.625
4.632
4.628
4.628
4.626
4.627
4.631
4.638
4.631
4.625
4.623
4.627
4.642
4.641
4.636
4.639
4.633
4.636
4.653
4.653
4.642
4.646
4.645
4.641
4.658
4.653
4.644
4.647
4.637
4.642
4.658
4.660
4.658
4.652
4.647
4.651
4.655
4.664
4.665
4.661
4.669
4.663
4.663
4.663
4.676
4.678
4.684
4.675
4.673
4.669
4.665
4.673
4.670
4.668
4.667
4.663
4.660
4.664
4.672
4.670
4.663
4.669
4.665
4.662
4.660
4.671
4.682
4.682
4.680
4.679
4.679
4.682
4.676
4.674
4.688
4.686
4.682
4.680
4.678
4.680
4.678
4.676
4.685
4.698
4.697
4.694
4.695
4.701
4.696
4.695
4.701
4.694
4.703
4.713
4.710
4.701
4.708
4.704
4.706
4.706
4.697
4.701
4.714
4.714
4.715
4.718
4.708
4.707
4.699
4.701
4.693
4.697
4.693
4.686
4.684
4.685
4.682
4.682
4.683
4.681
4.690
4.700
4.693
4.684
4.676
4.672
4.673
4.673
4.678
4.675
4.681
4.693
4.694
4.688
4.691
4.694
4.685
4.682
4.688
4.684
4.680
4.678
4.690
4.700
4.712
4.709
4.705
4.695
4.697
4.691
4.689
4.694
4.685
4.683
4.687
4.699
4.710
4.710
4.704
4.703
4.696
4.690
4.685
4.688
4.685
4.681
4.683
4.689
4.700
4.711
4.718
4.710
4.705
4.705
4.708
4.704
4.705
4.701
4.700
4.699
4.696
4.698
4.704
4.715
4.725
4.729
4.722
4.723
4.716
4.710
4.713
4.711
4.716
4.714
4.717
4.709
4.702
4.708
4.718
4.725
4.720
4.724
4.726
4.724
4.719
4.722
4.723
4.721
4.715
4.714
4.717
4.716
4.720
4.718
4.722
4.732
4.742
4.748
4.749
4.745
4.741
4.737
4.739
4.738
4.737
4.740
4.735
4.730
4.732
4.725
4.718
4.725
4.733
4.743
4.753
4.746
4.738
4.739
4.739
4.738
4.734
4.733
4.726
4.720
4.712
4.712
4.715
4.714
4.714
4.723
4.732
4.742
4.743
4.737
4.736
4.737
4.734
4.730
4.722
4.717
4.718
4.714
4.713
4.708
4.711
4.715
4.711
4.710
4.719
4.728
4.737
4.744
4.742
4.736
4.741
4.745
4.741
4.738
4.738
4.744
4.742
4.739
4.731
4.724
4.720
4.724
4.718
4.720
4.725
4.719
4.728
4.737
4.745
4.752
4.751
4.749
4.758
4.757
4.756
4.753
4.755
4.750
4.747
4.748
4.748
4.748
4.746
4.748
4.741
4.735
4.739
4.736
4.733
4.737
4.738
4.747
4.755
4.763
4.767
4.770
4.770
4.766
4.769
4.774
4.775
4.776
4.776
4.770
4.764
4.760
4.760
4.756
4.756
4.758
4.760
4.756
4.756
4.762
4.759
4.752
4.748
4.756
4.764
4.772
4.780
4.784
4.781
4.776
4.774
4.772
4.772
4.769
4.763
4.762
4.764
4.757
4.755
4.749
4.751
4.756
4.753
4.748
4.739
4.736
4.736
4.743
4.744
4.747
4.755
4.762
4.770
4.773
4.781
4.782
4.782
4.777
4.769
4.771
4.767
4.771
4.771
4.773
4.766
4.768
4.766
4.764
4.762
4.759
4.763
4.771
4.770
4.768
4.766
4.765
4.760
4.758
4.762
4.764
4.761
4.764
4.771
4.778
4.786
4.793
4.800
4.798
4.802
4.799
4.797
4.793
4.794
4.796
4.795
4.791
4.795
4.795
4.797
4.797
4.798
4.800
4.801
4.799
4.798
4.796
4.792
4.786
4.782
4.782
4.775
4.778
4.779
4.785
4.776
4.775
4.780
4.787
4.794
4.800
4.807
4.810
4.809
4.808
4.808
4.805
4.804
4.800
4.796
4.792
4.788
4.785
4.781
4.777
4.777
4.777
4.771
4.766
4.759
4.755
4.755
4.752
4.747
4.747
4.753
4.748
4.746
4.747
4.751
4.757
4.764
4.771
4.777
4.784
4.788
4.789
4.788
4.794
4.789
4.784
4.779
4.774
4.770
4.765
4.762
4.761
4.760
4.759
4.756
4.757
4.756
4.762
4.757
4.757
4.753
4.753
4.753
4.757
4.761
4.761
4.760
4.760
4.760
4.760
4.755
4.753
4.748
4.746
4.750
4.756
4.763
4.769
4.775
4.780
4.780
4.774
4.770
4.767
4.769
4.772
4.772
4.769
4.763
4.765
4.773
4.775
4.779
4.783
4.777
4.774
4.775
4.773
4.769
4.768
4.767
4.768
4.769
4.772
4.771
4.765
4.762
4.761
4.762
4.763
4.764
4.766
4.760
4.754
4.756
4.753
4.753
4.760
4.768
4.768
4.760
4.763
4.769
4.774
4.780
4.786
4.786
4.789
4.784
4.779
4.776
4.774
4.771
4.770
4.772
4.777
4.775
4.767
4.761
4.766
4.758
4.757
4.759
4.756
4.759
4.753
4.752
4.761
4.765
4.766
4.761
4.766
4.765
4.762
4.759
4.753
4.752
4.756
4.751
4.754
4.752
4.750
4.750
4.748
4.751
4.751
4.748
4.749
4.753
4.751
4.754
4.760
4.765
4.771
4.776
4.782
4.787
4.793
4.798
4.800
4.798
4.796
4.792
4.793
4.798
4.792
4.786
4.784
4.783
4.784
4.786
4.786
4.784
4.786
4.786
4.785
4.784
4.780
4.774
4.769
4.764
4.759
4.753
4.752
4.754
4.753
4.752
4.750
4.750
4.747
4.756
4.756
4.752
4.754
4.761
4.769
4.767
4.770
4.767
4.766
4.762
4.762
4.762
4.759
4.754
4.755
4.755
4.755
4.758
4.763
4.769
4.773
4.779
4.784
4.789
4.794
4.796
4.792
4.793
4.792
4.792
4.792
4.793
4.792
4.799
4.798
4.796
4.791
4.791
4.791
4.795
4.792
4.790
4.788
4.789
4.786
4.790
4.793
4.797
4.797
4.793
4.791
4.789
4.788
4.785
4.785
4.782
4.782
4.777
4.772
4.766
4.764
4.769
4.769
4.771
4.768
4.766
4.767
4.767
4.764
4.758
4.756
4.755
4.752
4.749
4.751
4.753
4.749
4.746
4.748
4.750
4.757
4.758
4.764
4.765
4.765
4.770
4.775
4.780
4.785
4.790
4.794
4.799
4.804
4.809
4.814
4.814
4.813
4.814
4.809
4.812
4.813
4.811
4.809
4.802
