2.992
3.332
3.508
3.631
3.709
3.779
3.843
3.888
3.912
3.970
3.972
4.012
4.048
4.088
4.056
4.079
4.105
4.127
4.149
4.173
4.194
4.209
4.227
4.246
4.207
4.173
4.182
4.192
4.197
4.212
4.216
4.231
4.234
4.249
4.253
4.261
4.273
4.272
4.283
4.293
4.292
4.304
4.311
4.321
4.317
4.324
4.330
4.343
4.347
4.346
4.350
4.356
4.364
4.370
4.380
4.370
4.377
4.386
4.385
4.397
4.401
4.408
4.415
4.400
4.404
4.414
4.413
4.423
4.424
4.430
4.434
4.444
4.449
4.450
4.442
4.442
4.442
4.447
4.451
4.460
4.462
4.469
4.470
4.469
4.478
4.485
4.486
4.488
4.489
4.497
4.492
4.483
4.483
4.485
4.487
4.490
4.490
4.504
4.503
4.510
4.508
4.507
4.511
4.515
4.519
4.527
4.525
4.534
4.531
4.532
4.538
4.537
4.541
4.549
4.549
4.553
4.558
4.543
4.531
4.531
4.534
4.534
4.538
4.543
4.544
4.546
4.550
4.551
4.550
4.556
4.560
4.557
4.560
4.564
4.560
4.565
4.569
4.571
4.579
4.579
4.580
4.578
4.580
4.581
4.588
4.592
4.583
4.589
4.593
4.592
4.590
4.589
4.599
4.601
4.601
4.606
4.607
4.616
4.610
4.611
4.616
4.622
4.618
4.623
4.621
4.620
4.623
4.625
4.626
4.614
4.602
4.592
4.591
4.597
4.594
4.603
4.601
4.608
4.607
4.606
4.615
4.614
4.613
4.612
4.615
4.619
4.618
4.623
4.624
4.628
4.624
4.625
4.616
4.627
4.621
4.619
4.621
4.620
4.621
4.628
4.621
4.633
4.627
4.638
4.631
4.639
4.635
4.639
4.642
4.642
4.646
4.644
4.651
4.646
4.646
4.649
4.643
4.652
4.649
4.653
4.657
4.658
4.664
4.668
4.662
4.672
4.662
4.655
4.654
4.653
4.657
4.658
4.660
4.663
4.653
4.663
4.660
4.664
4.670
4.671
4.664
4.672
4.670
4.663
4.675
4.675
4.675
4.677
4.683
4.682
4.681
4.693
4.689
4.682
4.690
4.690
4.689
4.688
4.689
4.685
4.683
4.697
4.694
4.693
4.694
4.704
4.697
4.697
4.701
4.704
4.705
4.705
4.708
4.710
4.709
4.707
4.714
4.712
4.705
4.701
4.706
4.702
4.698
4.705
4.714
4.713
4.712
4.708
4.709
4.708
4.705
4.705
4.706
4.708
4.705
4.702
4.714
4.718
4.711
4.713
4.711
4.721
4.723
4.721
4.722
4.724
4.730
4.729
4.728
4.726
4.725
4.738
4.734
4.734
4.733
4.729
4.742
4.737
4.731
4.726
4.720
4.715
4.709
4.702
4.709
4.707
4.701
4.702
4.701
4.702
4.697
4.697
4.695
4.696
4.708
4.713
4.706
4.710
4.709
4.704
4.712
4.718
4.719
4.718
4.712
4.705
4.714
4.710
4.714
4.712
4.712
4.713
4.717
4.724
4.720
4.718
4.714
4.718
4.717
4.729
4.731
4.732
4.730
4.729
4.736
4.731
4.736
4.732
4.723
4.718
4.711
4.716
4.722
4.720
4.716
4.718
4.719
4.716
4.720
4.724
4.723
4.713
4.716
4.708
4.708
4.718
4.717
4.715
4.719
4.718
4.719
4.715
4.714
4.723
4.717
4.716
4.716
4.716
4.709
4.710
4.720
4.731
4.728
4.727
4.723
4.721
4.720
4.724
4.723
4.734
4.744
4.742
4.734
4.734
4.730
4.729
4.730
4.731
4.739
4.738
4.739
4.738
4.731
4.727
4.730
4.727
4.733
4.745
4.744
4.748
4.746
4.742
4.736
4.734
4.739
4.737
4.746
4.748
4.750
4.748
4.746
4.748
4.747
4.746
4.744
4.743
4.753
4.762
4.768
4.764
4.757
4.753
4.758
4.756
4.749
4.745
4.750
4.751
4.750
4.754
4.753
4.749
4.750
4.748
4.746
4.746
4.752
4.762
4.755
4.748
4.747
4.749
4.750
4.743
4.741
4.738
4.747
4.756
4.763
4.765
4.766
4.762
4.760
4.762
4.757
4.759
4.755
4.753
4.755
4.765
4.774
4.771
4.768
4.775
4.775
4.771
4.763
4.754
4.757
4.754
4.758
4.767
4.775
4.776
4.775
4.771
4.775
4.771
4.775
4.775
4.772
4.770
4.771
4.767
4.774
4.783
4.791
4.792
4.791
4.794
4.796
4.792
4.786
4.778
4.782
4.784
4.782
4.778
4.783
4.792
4.793
4.789
4.788
4.792
4.790
4.787
4.783
4.781
4.782
4.783
4.782
4.779
4.775
4.776
4.774
4.765
4.768
4.764
4.766
4.762
4.766
4.764
4.764
4.762
4.768
4.775
4.779
4.775
4.780
4.778
4.775
4.775
4.774
4.771
4.769
4.762
4.758
4.753
4.758
4.765
4.769
4.767
4.771
4.764
4.766
4.767
4.772
4.771
4.769
4.767
4.768
4.762
4.758
4.757
4.760
4.767
4.775
4.783
4.775
4.776
4.775
4.775
4.777
4.775
4.774
4.773
4.777
4.776
4.777
4.776
4.777
4.773
4.772
4.776
4.783
4.790
4.785
4.784
4.790
4.786
4.783
4.781
4.775
4.773
4.772
4.768
4.774
4.773
4.777
4.773
4.772
4.776
4.783
4.792
4.790
4.786
4.783
4.776
4.771
4.775
4.780
4.778
4.775
4.770
4.769
4.770
4.769
4.765
4.768
4.771
4.779
4.784
4.791
4.800
4.799
4.795
4.794
4.794
4.788
4.789
4.791
4.787
4.783
4.784
4.791
4.790
4.783
4.786
4.788
4.789
4.793
4.786
4.793
4.798
4.805
4.806
4.801
4.803
4.804
4.801
4.801
4.798
4.794
4.800
4.799
4.798
4.796
4.792
4.786
4.784
4.793
4.784
4.782
4.789
4.796
4.801
4.808
4.805
4.805
4.805
4.805
4.803
4.805
4.801
4.799
4.805
4.805
4.809
4.805
4.805
4.799
4.800
4.799
4.803
4.802
4.801
4.799
4.797
4.804
4.809
4.815
4.822
4.829
4.831
4.829
4.828
4.829
4.825
4.824
4.819
4.815
4.812
4.813
4.816
4.815
4.816
4.823
4.819
4.816
4.811
4.807
4.806
4.804
4.808
4.813
4.819
4.824
4.820
4.815
4.817
4.820
4.819
4.815
4.811
4.807
4.801
4.797
4.792
4.796
4.792
4.791
4.790
4.790
4.792
4.791
4.798
4.796
4.797
4.797
4.805
4.808
4.816
4.821
4.823
4.823
4.822
4.824
4.820
4.815
4.816
4.813
4.808
4.802
4.803
4.796
4.798
4.801
4.805
4.807
4.803
4.796
4.790
4.790
4.787
4.786
4.790
4.797
4.803
4.807
4.814
4.818
4.812
4.820
4.823
4.826
4.825
4.820
4.820
4.818
4.817
4.818
4.819
4.818
4.819
4.818
4.816
4.815
4.819
4.815
4.814
4.813
4.811
4.812
4.811
4.802
4.803
4.799
4.800
4.807
4.812
4.816
4.822
4.827
4.827
4.827
4.823
4.821
4.827
4.826
4.823
4.823
4.828
4.827
4.828
4.826
4.825
4.826
4.822
4.824
4.827
4.829
4.823
4.826
4.827
4.826
4.827
4.826
4.822
4.818
4.816
4.818
4.816
4.815
4.819
4.824
4.830
4.834
4.839
4.845
4.847
4.843
4.842
4.842
4.841
4.840
4.838
4.840
4.834
4.834
4.838
4.843
4.844
4.838
4.839
4.840
4.847
4.846
4.849
4.848
4.844
4.843
4.844
4.840
4.838
4.834
4.833
4.832
4.828
4.831
4.830
4.832
4.831
4.837
4.842
4.846
4.852
4.851
4.852
4.851
4.855
4.857
4.858
4.860
4.855
4.851
4.847
4.846
4.846
4.845
4.844
4.853
4.852
4.851
4.847
4.845
4.842
4.842
4.836
4.832
4.828
4.824
4.823
4.824
4.822
4.821
4.823
4.824
4.822
4.823
4.827
4.832
4.836
4.840
4.846
4.851
4.855
4.851
4.847
4.851
4.853
4.853
4.849
4.846
4.846
4.842
4.844
4.845
4.846
4.848
4.847
4.846
4.847
4.845
4.847
4.846
4.842
4.837
4.836
4.835
4.833
4.834
4.836
4.835
4.834
4.837
4.834
4.837
4.836
4.838
4.834
4.835
4.836
4.842
4.844
4.840
4.844
4.849
4.855
4.857
4.863
4.867
4.866
4.865
4.864
4.864
4.868
4.873
4.874
4.871
4.868
4.865
4.863
4.859
4.863
4.862
4.861
4.862
4.861
4.864
4.861
