2.995
3.316
3.474
3.607
3.716
3.730
3.810
3.889
3.814
3.836
3.863
3.895
3.929
3.950
3.968
4.003
4.009
4.038
4.039
4.063
4.090
4.081
4.099
4.123
4.141
4.147
4.143
4.149
4.165
4.179
4.194
4.210
4.218
4.193
4.204
4.219
4.220
4.225
4.239
4.249
4.256
4.268
4.272
4.291
4.286
4.308
4.308
4.281
4.273
4.285
4.299
4.288
4.302
4.298
4.302
4.317
4.317
4.335
4.333
4.348
4.328
4.330
4.329
4.337
4.351
4.366
4.372
4.372
4.381
4.379
4.379
4.388
4.415
4.398
4.385
4.380
4.391
4.401
4.409
4.428
4.414
4.432
4.430
4.438
4.443
4.431
4.451
4.429
4.408
4.396
4.396
4.421
4.407
4.426
4.420
4.444
4.425
4.417
4.405
4.406
4.392
4.410
4.414
4.412
4.424
4.417
4.420
4.425
4.421
4.429
4.435
4.431
4.436
4.451
4.457
4.442
4.457
4.436
4.437
4.455
4.439
4.435
4.460
4.461
4.448
4.444
4.472
4.469
4.464
4.467
4.489
4.486
4.475
4.474
4.492
4.491
4.491
4.479
4.487
4.514
4.506
4.487
4.473
4.494
4.474
4.453
4.453
4.480
4.476
4.480
4.469
4.463
4.483
4.485
4.482
4.484
4.465
4.473
4.483
4.490
4.474
4.472
4.476
4.480
4.507
4.501
4.499
4.494
4.489
4.484
4.502
4.501
4.505
4.497
4.504
4.499
4.490
4.511
4.530
4.533
4.526
4.521
4.511
4.515
4.508
4.530
4.537
4.541
4.540
4.527
4.509
4.491
4.511
4.518
4.509
4.507
4.505
4.520
4.505
4.509
4.502
4.522
4.525
4.531
4.516
4.527
4.524
4.518
4.528
4.522
4.516
4.537
4.556
4.544
4.545
4.568
4.557
4.547
4.535
4.539
4.533
4.537
4.553
4.574
4.570
4.566
4.549
4.557
4.562
4.560
4.550
4.542
4.529
4.548
4.564
4.571
4.566
4.565
4.559
4.562
4.551
4.555
4.557
4.549
4.547
4.550
4.559
4.577
4.595
4.602
4.607
4.595
4.598
4.595
4.590
4.586
4.566
4.566
4.572
4.572
4.561
4.579
4.596
4.614
4.609
4.597
4.606
4.593
4.582
4.595
4.602
4.592
4.582
4.572
4.562
4.553
4.570
4.586
4.590
4.580
4.578
4.565
4.554
4.541
4.554
4.542
4.541
4.541
4.527
4.535
4.531
4.532
4.547
4.563
4.578
4.587
4.590
4.586
4.576
4.564
4.583
4.583
4.581
4.572
4.564
4.569
4.564
4.546
4.537
4.524
4.536
4.537
4.552
4.566
4.581
4.583
4.588
4.583
4.578
4.578
4.575
4.573
4.575
4.573
4.564
4.563
4.571
4.554
4.559
4.547
4.541
4.542
4.547
4.543
4.547
4.558
4.572
4.585
4.580
4.572
4.579
4.582
4.581
4.582
4.572
4.584
4.580
4.579
4.572
4.574
4.570
4.569
4.560
4.555
4.560
4.555
4.562
4.561
4.561
4.546
4.545
4.558
4.571
4.583
4.596
4.608
4.600
4.595
4.589
4.588
4.591
4.596
4.591
4.595
4.597
4.597
4.597
4.581
4.577
4.576
4.572
4.563
4.575
4.566
4.564
4.564
4.558
4.555
4.556
4.561
4.563
4.580
4.572
4.577
4.589
4.600
4.612
4.623
4.620
4.617
4.616
4.617
4.615
4.619
4.619
4.620
4.610
4.609
4.608
4.614
4.603
4.604
4.593
4.599
4.609
4.605
4.598
4.606
4.597
4.603
4.602
4.607
4.597
4.597
4.599
4.597
4.588
4.586
4.589
4.584
4.587
4.598
4.609
4.619
4.630
4.641
4.651
4.648
4.644
4.645
4.646
4.634
4.639
4.634
4.633
4.633
4.639
4.646
4.641
4.632
4.631
4.624
4.619
4.610
4.605
4.595
4.586
4.578
4.569
4.570
4.576
4.583
4.587
4.596
4.598
4.598
4.582
4.572
4.559
4.561
4.565
4.565
4.575
4.584
4.594
4.603
4.613
4.623
4.629
4.624
4.629
4.636
4.637
4.638
4.636
4.630
4.624
4.627
4.613
4.617
4.609
4.599
4.610
4.621
4.615
4.616
4.619
4.612
4.612
4.619
4.604
4.611
4.607
4.606
4.609
4.603
4.602
4.600
4.596
4.605
4.611
4.603
4.602
4.597
4.589
4.578
4.573
4.578
4.584
4.580
4.583
4.581
4.592
4.594
4.595
4.606
4.602
4.594
4.602
4.611
4.620
4.628
4.637
4.646
4.654
4.663
4.672
4.680
4.688
4.692
4.687
4.681
4.675
4.668
4.662
4.655
4.649
4.643
4.636
4.631
4.635
4.633
4.629
4.634
4.626
4.626
4.620
4.617
4.610
4.604
4.611
4.615
4.606
4.611
4.622
4.614
4.603
4.598
4.592
4.581
4.583
4.584
4.589
4.588
4.591
4.579
4.588
4.590
4.586
4.583
4.586
4.575
4.574
4.571
4.565
4.561
4.573
4.564
4.560
4.561
4.568
4.576
4.584
4.591
4.599
4.607
4.614
4.622
4.630
4.638
4.639
4.636
4.636
4.643
4.641
4.649
4.648
4.641
4.644
4.641
4.647
4.654
4.653
4.658
4.652
4.653
4.640
4.644
4.643
4.646
4.643
4.638
4.638
4.639
4.642
4.636
4.636
4.636
4.632
4.632
4.634
4.641
4.639
4.642
4.643
4.641
4.635
4.639
4.639
4.628
4.626
4.618
4.619
4.613
4.611
4.611
4.606
4.602
4.602
4.597
4.595
4.599
4.593
4.596
4.583
4.585
4.595
4.601
4.599
4.598
4.594
4.588
4.581
4.581
4.579
4.573
4.571
4.578
4.576
4.572
4.573
4.578
4.577
4.583
4.575
4.571
4.577
4.583
4.590
4.597
4.604
4.610
4.617
4.624
4.631
4.637
4.644
4.651
4.658
4.664
4.671
4.670
4.665
4.659
4.657
4.651
4.645
4.648
4.646
4.644
4.636
4.638
4.646
4.641
4.634
4.630
4.622
4.616
4.614
4.610
4.619
4.627
4.625
4.629
4.623
4.612
4.618
4.618
4.622
4.622
4.631
4.641
4.639
4.642
4.643
4.645
4.641
4.636
4.636
4.642
4.638
4.641
4.635
4.641
4.649
4.651
4.652
4.651
4.649
4.647
4.643
4.633
4.629
4.626
4.621
4.623
4.623
4.617
4.610
4.600
4.598
4.597
4.600
4.601
4.603
4.596
4.588
4.589
4.593
4.597
4.592
4.591
4.588
4.589
4.586
4.585
4.583
4.588
4.581
4.582
4.589
4.588
4.588
4.587
4.593
4.588
4.596
4.597
4.592
4.588
4.592
4.581
4.585
4.577
4.575
4.574
4.577
4.586
4.594
4.603
4.610
4.606
4.603
4.600
4.604
4.610
4.616
4.622
4.628
4.633
4.639
4.645
4.651
4.656
4.662
4.668
4.674
4.679
4.685
4.691
4.691
4.690
4.692
4.694
4.695
4.698
4.694
4.692
4.694
4.699
4.700
4.695
4.690
4.683
4.681
4.682
4.679
4.675
4.680
4.678
4.675
4.675
4.679
4.675
4.671
4.669
4.664
4.668
4.670
4.671
4.676
4.671
4.667
4.667
4.657
4.655
4.645
4.653
4.655
4.651
4.646
4.649
4.653
4.650
4.649
4.644
4.643
4.644
4.652
4.652
4.654
4.656
4.650
4.645
4.641
4.640
4.648
4.645
4.652
4.656
4.661
4.658
4.653
4.658
4.668
4.666
4.660
4.654
4.648
4.642
4.636
4.632
4.639
4.647
4.649
4.656
4.659
4.663
4.660
4.651
4.648
4.643
4.647
4.645
4.637
4.637
4.630
4.633
4.632
4.639
4.635
4.625
4.626
4.623
4.618
4.613
4.609
4.604
4.600
4.595
4.591
4.588
4.582
4.577
4.573
4.573
4.581
4.585
4.588
4.598
4.602
4.599
4.592
4.595
4.596
4.592
4.600
4.603
4.599
4.592
4.585
4.578
4.574
4.579
4.576
4.583
4.586
4.579
4.573
4.565
4.561
4.567
4.570
4.570
4.573
4.569
4.568
4.573
4.578
4.583
4.588
4.592
4.597
4.602
4.607
4.612
4.617
4.621
4.626
4.631
4.636
4.641
4.645
4.650
4.655
4.660
4.665
4.664
4.671
4.665
4.672
4.671
4.670
4.666
4.659
4.661
4.659
4.659
4.651
4.651
4.653
4.656
4.654
4.657
4.652
4.657
4.649
4.655
4.658
4.657
4.654
4.652
4.654
4.646
4.648
4.654
4.661
4.668
4.658
4.662
