2.989
3.329
3.500
3.637
3.717
3.782
3.814
3.886
3.871
3.923
3.966
4.015
4.050
4.074
4.004
4.005
4.023
4.043
4.072
4.082
4.094
4.116
4.121
4.143
4.145
4.165
4.166
4.180
4.197
4.194
4.204
4.219
4.235
4.241
4.235
4.250
4.255
4.270
4.277
4.271
4.269
4.285
4.291
4.303
4.312
4.314
4.329
4.336
4.313
4.320
4.334
4.340
4.342
4.350
4.356
4.369
4.364
4.374
4.380
4.386
4.397
4.393
4.369
4.378
4.385
4.389
4.390
4.399
4.397
4.397
4.405
4.415
4.418
4.421
4.429
4.423
4.433
4.431
4.434
4.448
4.455
4.456
4.455
4.464
4.465
4.467
4.465
4.467
4.468
4.447
4.438
4.449
4.453
4.451
4.452
4.463
4.467
4.480
4.463
4.466
4.467
4.471
4.468
4.468
4.479
4.487
4.483
4.496
4.486
4.491
4.491
4.505
4.512
4.503
4.512
4.521
4.504
4.504
4.507
4.503
4.514
4.516
4.507
4.518
4.517
4.530
4.524
4.537
4.531
4.540
4.536
4.537
4.541
4.542
4.544
4.553
4.554
4.557
4.556
4.566
4.560
4.573
4.554
4.565
4.562
4.563
4.551
4.554
4.562
4.553
4.566
4.569
4.565
4.578
4.574
4.576
4.586
4.588
4.587
4.586
4.593
4.596
4.597
4.595
4.600
4.593
4.581
4.570
4.558
4.561
4.555
4.555
4.573
4.559
4.553
4.571
4.568
4.561
4.564
4.578
4.579
4.579
4.579
4.586
4.588
4.577
4.589
4.586
4.572
4.572
4.571
4.569
4.569
4.576
4.571
4.564
4.558
4.573
4.573
4.569
4.565
4.572
4.582
4.586
4.579
4.582
4.586
4.594
4.591
4.589
4.582
4.593
4.589
4.588
4.587
4.580
4.601
4.602
4.596
4.587
4.593
4.601
4.619
4.612
4.608
4.609
4.602
4.617
4.616
4.603
4.597
4.601
4.607
4.613
4.618
4.602
4.594
4.598
4.612
4.615
4.613
4.613
4.610
4.612
4.612
4.631
4.630
4.620
4.613
4.612
4.613
4.624
4.637
4.638
4.633
4.634
4.623
4.638
4.630
4.647
4.650
4.639
4.646
4.645
4.643
4.634
4.646
4.655
4.656
4.650
4.650
4.641
4.643
4.647
4.649
4.639
4.629
4.620
4.616
4.618
4.623
4.639
4.636
4.634
4.626
4.615
4.611
4.613
4.618
4.632
4.633
4.631
4.628
4.629
4.618
4.623
4.626
4.625
4.636
4.651
4.648
4.642
4.640
4.632
4.631
4.622
4.629
4.629
4.644
4.654
4.642
4.631
4.628
4.626
4.629
4.623
4.619
4.629
4.644
4.650
4.653
4.648
4.647
4.640
4.639
4.644
4.648
4.643
4.648
4.648
4.662
4.664
4.660
4.662
4.658
4.656
4.664
4.653
4.641
4.640
4.642
4.656
4.669
4.669
4.668
4.664
4.662
4.659
4.669
4.666
4.665
4.662
4.662
4.658
4.665
4.678
4.686
4.691
4.690
4.683
4.677
4.683
4.670
4.670
4.673
4.671
4.668
4.674
4.674
4.687
4.688
4.686
4.683
4.677
4.667
4.660
4.657
4.663
4.656
4.657
4.663
4.659
4.671
4.679
4.678
4.667
4.665
4.666
4.661
4.661
4.663
4.663
4.658
4.657
4.657
4.659
4.656
4.666
4.677
4.689
4.692
4.684
4.675
4.681
4.682
4.679
4.673
4.666
4.659
4.666
4.674
4.674
4.672
4.669
4.670
4.681
4.692
4.703
4.706
4.693
4.692
4.691
4.697
4.693
4.694
4.693
4.686
4.681
4.686
4.687
4.683
4.692
4.687
4.695
4.697
4.700
4.711
4.717
4.718
4.722
4.719
4.720
4.712
4.713
4.707
4.704
4.709
4.705
4.718
4.707
4.699
4.695
4.688
4.687
4.691
4.701
4.711
4.709
4.716
4.714
4.705
4.708
4.703
4.702
4.699
4.699
4.698
4.699
4.696
4.693
4.694
4.697
4.699
4.695
4.692
4.687
4.693
4.703
4.712
4.722
4.732
4.729
4.723
4.727
4.721
4.723
4.724
4.725
4.719
4.714
4.719
4.724
4.723
4.728
4.726
4.725
4.716
4.711
4.709
4.709
4.712
4.714
4.721
4.722
4.731
4.740
4.749
4.753
4.753
4.748
4.744
4.742
4.738
4.732
4.739
4.734
4.733
4.734
4.740
4.737
4.733
4.731
4.733
4.727
4.727
4.728
4.731
4.728
4.732
4.728
4.730
4.733
4.729
4.724
4.719
4.720
4.721
4.727
4.723
4.715
4.711
4.717
4.709
4.709
4.712
4.712
4.711
4.715
4.707
4.704
4.706
4.718
4.711
4.711
4.709
4.702
4.696
4.702
4.711
4.719
4.728
4.733
4.735
4.732
4.723
4.717
4.707
4.713
4.705
4.704
4.715
4.721
4.721
4.716
4.706
4.699
4.693
4.698
4.698
4.694
4.690
4.690
4.691
4.686
4.689
4.692
4.693
4.688
4.687
4.696
4.703
4.711
4.719
4.726
4.734
4.735
4.730
4.731
4.727
4.730
4.729
4.729
4.728
4.723
4.731
4.735
4.729
4.722
4.715
4.709
4.702
4.701
4.699
4.700
4.700
4.698
4.694
4.693
4.687
4.693
4.691
4.681
4.679
4.679
4.681
4.687
4.695
4.702
4.709
4.717
4.724
4.731
4.726
4.725
4.720
4.727
4.722
4.724
4.733
4.734
4.726
4.732
4.729
4.729
4.733
4.738
4.734
4.738
4.731
4.722
4.724
4.720
4.712
4.716
4.710
4.707
4.704
4.700
4.694
4.699
4.702
4.707
4.708
4.703
4.709
4.705
4.702
4.695
4.695
4.702
4.709
4.716
4.723
4.730
4.737
4.738
4.733
4.733
4.730
4.730
4.734
4.729
4.729
4.729
4.729
4.727
4.720
4.714
4.715
4.715
4.719
4.728
4.723
4.722
4.723
4.727
4.721
4.715
4.716
4.716
4.721
4.724
4.717
4.716
4.714
4.719
4.715
4.718
4.716
4.718
4.715
4.710
4.704
4.706
4.700
4.694
4.698
4.702
4.708
4.715
4.721
4.728
4.734
4.741
4.747
4.747
4.749
4.747
4.747
4.746
4.749
4.748
4.752
4.751
4.746
4.739
4.737
4.738
4.739
4.737
4.732
4.726
4.727
4.728
4.729
4.730
4.731
4.732
4.731
4.726
4.729
4.722
4.720
4.718
4.727
4.732
4.731
4.734
4.734
4.734
4.732
4.722
4.719
4.718
4.712
4.708
4.711
4.713
4.710
4.709
4.704
4.704
4.707
4.705
4.711
4.717
4.723
4.730
4.736
4.742
4.748
4.754
4.760
4.757
4.756
4.758
4.756
4.759
4.764
4.763
4.764
4.759
4.761
4.756
4.761
4.766
4.764
4.761
4.759
4.758
4.756
4.758
4.751
4.743
4.747
4.746
4.747
4.750
4.747
4.743
4.738
4.738
4.732
4.730
4.729
4.734
4.742
4.744
4.746
4.744
4.746
4.747
4.747
4.743
4.742
4.742
4.738
4.736
4.733
4.731
4.732
4.736
4.744
4.740
4.741
4.744
4.735
4.733
4.737
4.739
4.732
4.736
4.732
4.735
4.741
4.746
4.752
4.758
4.763
4.769
4.774
4.780
4.785
4.791
4.797
4.800
4.801
4.792
4.787
4.784
4.791
4.788
4.789
4.792
4.789
4.794
4.788
4.786
4.788
4.787
4.786
4.781
4.783
4.779
4.773
4.770
4.765
4.760
4.760
4.768
4.771
4.778
4.781
4.773
4.769
4.774
4.769
4.766
4.774
4.768
4.766
4.769
4.762
4.755
4.758
4.752
4.750
4.748
4.749
4.749
4.748
4.748
4.747
4.747
4.747
4.745
4.740
4.736
4.731
4.730
4.727
4.727
4.727
4.719
4.719
4.715
4.715
4.720
4.725
4.730
4.735
4.740
4.745
4.751
4.756
4.761
4.766
4.771
4.771
4.776
4.782
4.780
4.775
4.773
4.773
4.771
4.769
4.769
4.766
4.769
4.769
4.770
4.767
4.765
4.770
4.764
4.762
4.759
4.763
4.759
4.756
4.751
4.753
4.755
4.756
4.749
4.750
4.752
4.747
4.743
4.748
4.748
4.742
4.742
4.742
4.742
4.748
4.746
4.739
4.733
4.736
4.734
4.737
4.736
4.742
4.746
4.741
4.738
4.740
4.741
4.747
4.754
4.754
4.754
4.753
4.749
4.749
4.742
4.735
4.738
4.738
4.736
4.739
4.737
4.733
4.731
4.725
4.727
4.726
4.722
