2.989
3.333
3.513
3.628
3.704
3.771
3.810
3.883
3.891
3.922
3.960
4.007
4.047
4.079
4.048
4.006
4.030
4.046
4.063
4.075
4.100
4.108
4.125
4.136
4.159
4.156
4.176
4.176
4.192
4.205
4.215
4.216
4.230
4.239
4.249
4.243
4.254
4.264
4.276
4.282
4.294
4.285
4.288
4.301
4.307
4.317
4.325
4.326
4.337
4.348
4.322
4.328
4.340
4.353
4.352
4.358
4.364
4.374
4.371
4.381
4.389
4.400
4.400
4.404
4.388
4.377
4.385
4.398
4.398
4.409
4.405
4.402
4.406
4.416
4.427
4.428
4.436
4.434
4.436
4.436
4.443
4.445
4.454
4.458
4.464
4.468
4.472
4.481
4.473
4.481
4.477
4.483
4.469
4.453
4.459
4.465
4.467
4.467
4.467
4.466
4.470
4.486
4.476
4.473
4.473
4.482
4.479
4.481
4.486
4.495
4.492
4.499
4.510
4.500
4.496
4.505
4.518
4.514
4.522
4.523
4.521
4.515
4.522
4.514
4.516
4.516
4.521
4.527
4.523
4.534
4.531
4.546
4.541
4.551
4.542
4.550
4.538
4.549
4.552
4.561
4.551
4.565
4.568
4.564
4.573
4.562
4.577
4.574
4.570
4.565
4.575
4.572
4.567
4.565
4.556
4.575
4.571
4.572
4.583
4.585
4.585
4.590
4.584
4.595
4.607
4.589
4.602
4.607
4.603
4.607
4.609
4.607
4.599
4.588
4.577
4.566
4.560
4.573
4.573
4.570
4.574
4.570
4.571
4.566
4.587
4.573
4.574
4.579
4.597
4.596
4.589
4.589
4.601
4.595
4.590
4.595
4.587
4.578
4.575
4.585
4.585
4.579
4.574
4.579
4.578
4.574
4.570
4.585
4.584
4.577
4.575
4.584
4.599
4.601
4.593
4.587
4.593
4.611
4.602
4.594
4.589
4.598
4.611
4.603
4.599
4.594
4.599
4.610
4.609
4.611
4.606
4.611
4.614
4.626
4.618
4.625
4.618
4.620
4.624
4.618
4.612
4.613
4.607
4.610
4.626
4.617
4.614
4.605
4.611
4.611
4.628
4.628
4.623
4.630
4.628
4.626
4.623
4.640
4.633
4.623
4.623
4.629
4.624
4.629
4.645
4.646
4.650
4.644
4.648
4.645
4.646
4.646
4.661
4.656
4.653
4.662
4.656
4.648
4.643
4.655
4.670
4.668
4.660
4.653
4.659
4.660
4.655
4.646
4.636
4.634
4.632
4.630
4.625
4.635
4.637
4.651
4.639
4.630
4.634
4.623
4.624
4.622
4.626
4.640
4.647
4.640
4.645
4.636
4.633
4.640
4.641
4.639
4.638
4.652
4.653
4.647
4.650
4.650
4.635
4.634
4.637
4.643
4.641
4.654
4.649
4.647
4.640
4.636
4.640
4.638
4.637
4.638
4.638
4.646
4.660
4.662
4.664
4.660
4.660
4.655
4.655
4.658
4.665
4.657
4.656
4.657
4.670
4.675
4.673
4.673
4.671
4.672
4.662
4.651
4.649
4.647
4.654
4.657
4.670
4.683
4.683
4.678
4.681
4.673
4.675
4.678
4.680
4.679
4.674
4.668
4.675
4.675
4.683
4.695
4.706
4.699
4.696
4.692
4.684
4.682
4.685
4.683
4.682
4.680
4.685
4.683
4.685
4.697
4.696
4.687
4.678
4.682
4.675
4.676
4.673
4.671
4.670
4.669
4.665
4.667
4.673
4.685
4.688
4.676
4.670
4.673
4.671
4.666
4.675
4.678
4.677
4.670
4.668
4.673
4.673
4.668
4.672
4.683
4.694
4.690
4.691
4.688
4.696
4.693
4.685
4.683
4.678
4.676
4.676
4.679
4.689
4.691
4.683
4.682
4.681
4.688
4.699
4.710
4.708
4.698
4.702
4.707
4.708
4.705
4.705
4.700
4.698
4.701
4.696
4.695
4.702
4.701
4.702
4.699
4.708
4.701
4.708
4.718
4.729
4.731
4.738
4.731
4.728
4.722
4.713
4.716
4.715
4.719
4.726
4.718
4.711
4.707
4.709
4.704
4.698
4.692
4.700
4.709
4.719
4.718
4.721
4.718
4.723
4.724
4.718
4.712
4.711
4.710
4.711
4.708
4.703
4.702
4.702
4.709
4.705
4.710
4.705
4.705
4.698
4.701
4.711
4.720
4.729
4.739
4.739
4.734
4.736
4.737
4.735
4.731
4.736
4.733
4.730
4.730
4.737
4.739
4.739
4.737
4.736
4.729
4.722
4.721
4.723
4.719
4.722
4.729
4.732
4.739
4.744
4.745
4.754
4.762
4.756
4.760
4.758
4.748
4.745
4.745
4.742
4.746
4.747
4.750
4.747
4.746
4.745
4.749
4.745
4.741
4.734
4.737
4.740
4.745
4.741
4.738
4.733
4.728
4.731
4.729
4.725
4.731
4.734
4.737
4.735
4.731
4.731
4.725
4.721
4.725
4.727
4.723
4.723
4.722
4.723
4.727
4.720
4.718
4.722
4.722
4.718
4.712
4.706
4.700
4.695
4.703
4.712
4.720
4.727
4.735
4.743
4.739
4.728
4.721
4.724
4.720
4.721
4.716
4.712
4.722
4.730
4.722
4.711
4.708
4.713
4.714
4.709
4.705
4.701
4.705
4.706
4.700
4.698
4.700
4.700
4.705
4.700
4.699
4.697
4.705
4.708
4.715
4.722
4.730
4.738
4.745
4.744
4.746
4.744
4.742
4.738
4.746
4.737
4.738
4.739
4.735
4.729
4.722
4.716
4.715
4.712
4.708
4.705
4.713
4.713
4.711
4.712
4.702
4.693
4.699
4.697
4.702
4.701
4.694
4.694
4.691
4.690
4.694
4.701
4.708
4.715
4.723
4.730
4.737
4.739
4.739
4.736
4.735
4.735
4.733
4.738
4.744
4.742
4.741
4.746
4.743
4.744
4.743
4.744
4.742
4.744
4.739
4.734
4.732
4.730
4.720
4.723
4.715
4.711
4.707
4.708
4.710
4.710
4.713
4.710
4.714
4.717
4.714
4.707
4.700
4.700
4.697
4.702
4.708
4.715
4.722
4.728
4.735
4.742
4.748
4.742
4.745
4.745
4.741
4.739
4.736
4.738
4.738
4.739
4.734
4.733
4.728
4.725
4.728
4.724
4.729
4.736
4.733
4.735
4.736
4.736
4.734
4.733
4.732
4.727
4.730
4.734
4.726
4.723
4.726
4.723
4.723
4.729
4.731
4.727
4.721
4.719
4.717
4.714
4.712
4.713
4.708
4.703
4.706
4.713
4.719
4.725
4.731
4.738
4.744
4.750
4.756
4.756
4.760
4.760
4.761
4.762
4.765
4.758
4.760
4.758
4.753
4.750
4.747
4.751
4.747
4.739
4.737
4.738
4.739
4.744
4.739
4.746
4.746
4.746
4.744
4.736
4.735
4.733
4.731
4.733
4.732
4.736
4.740
4.741
4.745
4.741
4.739
4.735
4.728
4.721
4.718
4.719
4.725
4.722
4.724
4.723
4.722
4.721
4.719
4.718
4.722
4.719
4.718
4.724
4.729
4.735
4.741
4.747
4.752
4.758
4.764
4.770
4.775
4.771
4.772
4.766
4.771
4.776
4.773
4.765
4.766
4.769
4.764
4.770
4.778
4.776
4.772
4.767
4.765
4.759
4.759
4.759
4.758
4.761
4.759
4.756
4.756
4.752
4.756
4.749
4.750
4.747
4.743
4.743
4.743
4.746
4.752
4.760
4.762
4.759
4.759
4.753
4.754
4.754
4.754
4.752
4.750
4.743
4.740
4.741
4.737
4.745
4.748
4.756
4.754
4.751
4.747
4.747
4.746
4.746
4.745
4.743
4.741
4.739
4.749
4.747
4.751
4.756
4.761
4.767
4.772
4.777
4.783
4.788
4.794
4.799
4.804
4.804
4.802
4.798
4.798
4.796
4.804
4.800
4.800
4.804
4.798
4.803
4.802
4.800
4.799
4.798
4.793
4.788
4.783
4.777
4.772
4.773
4.773
4.771
4.768
4.770
4.777
4.784
4.789
4.785
4.779
4.774
4.769
4.775
4.776
4.781
4.779
4.778
4.768
4.766
4.761
4.766
4.769
4.770
4.767
4.763
4.758
4.758
4.759
4.757
4.752
4.748
4.744
4.739
4.735
4.735
4.737
4.741
4.735
4.737
4.734
4.728
4.722
4.716
4.717
4.722
4.727
4.732
4.737
4.742
4.747
4.752
4.757
4.762
4.767
4.771
4.776
4.781
4.786
4.788
4.789
4.787
4.786
4.785
4.780
4.776
4.778
4.783
4.778
4.774
4.779
4.778
4.780
4.777
4.779
4.778
4.772
4.767
4.766
4.766
4.768
4.772
4.766
4.764
4.769
