2.995
3.323
3.493
3.613
3.710
3.796
3.823
3.890
3.880
3.929
3.973
4.017
4.055
3.994
3.978
4.002
4.023
4.042
4.069
4.080
4.087
4.107
4.116
4.133
4.146
4.152
4.170
4.176
4.184
4.196
4.212
4.208
4.215
4.236
4.244
4.253
4.264
4.250
4.265
4.273
4.278
4.289
4.292
4.315
4.313
4.294
4.301
4.313
4.320
4.325
4.335
4.344
4.352
4.349
4.365
4.369
4.383
4.369
4.354
4.356
4.369
4.377
4.383
4.382
4.381
4.386
4.396
4.400
4.410
4.416
4.409
4.412
4.412
4.430
4.432
4.430
4.442
4.451
4.448
4.447
4.444
4.453
4.449
4.426
4.429
4.436
4.429
4.432
4.440
4.447
4.462
4.446
4.444
4.442
4.444
4.463
4.463
4.459
4.463
4.477
4.475
4.477
4.471
4.483
4.489
4.488
4.492
4.500
4.493
4.483
4.480
4.498
4.488
4.494
4.503
4.504
4.518
4.510
4.520
4.510
4.518
4.519
4.521
4.530
4.520
4.537
4.543
4.542
4.537
4.545
4.546
4.549
4.537
4.545
4.545
4.542
4.536
4.537
4.541
4.538
4.558
4.553
4.553
4.563
4.558
4.571
4.570
4.562
4.584
4.571
4.570
4.584
4.582
4.581
4.570
4.558
4.546
4.536
4.547
4.546
4.540
4.550
4.540
4.537
4.554
4.552
4.549
4.561
4.569
4.567
4.557
4.575
4.573
4.573
4.564
4.556
4.548
4.555
4.559
4.547
4.538
4.557
4.554
4.539
4.543
4.560
4.554
4.552
4.555
4.567
4.566
4.567
4.563
4.563
4.579
4.571
4.564
4.567
4.577
4.574
4.575
4.571
4.568
4.587
4.590
4.589
4.588
4.585
4.591
4.604
4.601
4.596
4.590
4.591
4.590
4.591
4.588
4.586
4.585
4.595
4.596
4.593
4.584
4.588
4.594
4.614
4.611
4.605
4.600
4.599
4.598
4.617
4.609
4.611
4.606
4.602
4.613
4.615
4.634
4.631
4.624
4.626
4.616
4.609
4.624
4.643
4.631
4.623
4.630
4.631
4.624
4.627
4.645
4.644
4.636
4.625
4.615
4.604
4.622
4.623
4.616
4.611
4.616
4.614
4.601
4.610
4.615
4.616
4.610
4.606
4.600
4.604
4.598
4.608
4.624
4.627
4.628
4.625
4.630
4.614
4.609
4.608
4.614
4.630
4.633
4.634
4.632
4.621
4.614
4.604
4.600
4.610
4.626
4.629
4.636
4.634
4.625
4.618
4.620
4.622
4.622
4.624
4.629
4.644
4.648
4.651
4.645
4.640
4.633
4.637
4.632
4.627
4.629
4.635
4.648
4.654
4.647
4.643
4.642
4.641
4.642
4.645
4.642
4.639
4.634
4.645
4.659
4.672
4.678
4.669
4.664
4.661
4.664
4.653
4.658
4.656
4.646
4.651
4.657
4.671
4.679
4.667
4.661
4.670
4.665
4.668
4.658
4.648
4.638
4.639
4.642
4.655
4.668
4.671
4.663
4.655
4.648
4.644
4.643
4.642
4.635
4.635
4.637
4.637
4.640
4.653
4.666
4.674
4.672
4.678
4.674
4.667
4.657
4.651
4.650
4.647
4.648
4.654
4.652
4.644
4.649
4.661
4.673
4.685
4.693
4.684
4.683
4.684
4.675
4.671
4.667
4.668
4.668
4.664
4.664
4.656
4.665
4.665
4.666
4.676
4.688
4.699
4.706
4.697
4.696
4.699
4.693
4.692
4.694
4.690
4.694
4.693
4.688
4.683
4.688
4.692
4.679
4.673
4.684
4.695
4.704
4.702
4.706
4.696
4.695
4.687
4.681
4.680
4.680
4.679
4.673
4.672
4.674
4.677
4.675
4.674
4.671
4.673
4.683
4.694
4.705
4.712
4.706
4.704
4.704
4.706
4.700
4.707
4.706
4.706
4.697
4.701
4.695
4.702
4.700
4.700
4.695
4.696
4.696
4.697
4.697
4.694
4.703
4.713
4.723
4.733
4.744
4.745
4.739
4.733
4.729
4.723
4.722
4.715
4.720
4.712
4.718
4.718
4.720
4.717
4.716
4.706
4.704
4.706
4.709
4.704
4.704
4.708
4.718
4.727
4.733
4.728
4.722
4.717
4.711
4.706
4.700
4.695
4.698
4.690
4.689
4.688
4.687
4.693
4.688
4.683
4.691
4.690
4.689
4.695
4.692
4.691
4.688
4.697
4.706
4.710
4.710
4.712
4.708
4.706
4.702
4.698
4.701
4.691
4.696
4.699
4.701
4.695
4.690
4.694
4.687
4.682
4.680
4.675
4.676
4.670
4.666
4.668
4.668
4.670
4.667
4.676
4.685
4.693
4.702
4.710
4.719
4.728
4.726
4.722
4.720
4.716
4.708
4.704
4.703
4.707
4.712
4.713
4.710
4.704
4.705
4.701
4.703
4.701
4.693
4.687
4.684
4.678
4.674
4.671
4.678
4.672
4.667
4.662
4.668
4.676
4.684
4.692
4.700
4.708
4.708
4.704
4.705
4.701
4.702
4.697
4.708
4.714
4.709
4.705
4.713
4.707
4.709
4.709
4.707
4.716
4.716
4.712
4.705
4.707
4.702
4.696
4.695
4.689
4.691
4.688
4.684
4.688
4.690
4.690
4.687
4.689
4.689
4.683
4.683
4.687
4.694
4.702
4.710
4.717
4.716
4.719
4.716
4.715
4.714
4.711
4.711
4.710
4.715
4.718
4.710
4.708
4.702
4.699
4.698
4.705
4.706
4.701
4.707
4.706
4.706
4.697
4.690
4.691
4.698
4.699
4.693
4.692
4.700
4.699
4.700
4.704
4.702
4.699
4.690
4.687
4.690
4.689
4.681
4.686
4.693
4.700
4.707
4.714
4.721
4.728
4.724
4.725
4.727
4.729
4.725
4.725
4.727
4.729
4.728
4.727
4.726
4.724
4.722
4.720
4.716
4.715
4.709
4.712
4.710
4.712
4.711
4.711
4.710
4.706
4.704
4.700
4.701
4.705
4.712
4.711
4.714
4.716
4.715
4.715
4.709
4.706
4.705
4.705
4.703
4.704
4.702
4.696
4.687
4.681
4.686
4.693
4.699
4.706
4.712
4.719
4.725
4.732
4.739
4.745
4.743
4.740
4.732
4.733
4.738
4.745
4.745
4.741
4.739
4.745
4.744
4.749
4.750
4.748
4.745
4.739
4.736
4.737
4.729
4.730
4.731
4.728
4.730
4.726
4.732
4.729
4.727
4.725
4.716
4.713
4.716
4.718
4.723
4.719
4.719
4.723
4.721
4.724
4.727
4.729
4.723
4.717
4.712
4.712
4.716
4.724
4.721
4.719
4.721
4.715
4.715
4.719
4.719
4.715
4.718
4.720
4.726
4.732
4.738
4.744
4.750
4.756
4.762
4.768
4.771
4.770
4.775
4.781
4.781
4.781
4.780
4.776
4.779
4.770
4.765
4.768
4.769
4.770
4.771
4.767
4.767
4.761
4.759
4.756
4.755
4.758
4.760
4.764
4.758
4.754
4.755
4.754
4.750
4.749
4.754
4.754
4.757
4.757
4.766
4.759
4.753
4.747
4.741
4.741
4.748
4.739
4.731
4.724
4.724
4.723
4.727
4.728
4.728
4.728
4.726
4.728
4.727
4.733
4.730
4.725
4.720
4.715
4.711
4.706
4.710
4.716
4.721
4.727
4.732
4.738
4.743
4.749
4.749
4.752
4.753
4.760
4.768
4.765
4.769
4.767
4.763
4.762
4.758
4.751
4.752
4.750
4.754
4.755
4.757
4.751
4.748
4.742
4.736
4.741
4.737
4.740
4.737
4.739
4.731
4.726
4.727
4.726
4.725
4.722
4.726
4.727
4.727
4.728
4.730
4.732
4.728
4.727
4.724
4.723
4.722
4.719
4.719
4.720
4.725
4.721
4.719
4.726
4.732
4.732
4.730
4.728
4.724
4.728
4.724
4.723
4.728
4.726
4.726
4.725
4.719
4.717
4.712
4.710
4.708
4.704
4.704
4.704
4.702
4.705
4.707
4.706
4.707
4.712
4.710
4.711
4.716
4.722
4.727
4.732
4.737
4.742
4.747
4.752
4.757
4.762
4.767
4.772
4.777
4.779
4.779
4.773
4.776
4.780
4.780
4.782
4.779
4.770
4.770
4.769
4.767
4.765
4.766
4.768
4.762
4.759
4.753
4.757
4.759
4.765
4.771
4.774
4.776
4.776
4.776
4.780
4.779
4.772
4.767
4.765
4.762
4.761
4.768
4.768
4.762
4.766
4.761
4.759
4.761
4.769
4.770
4.772
4.768
4.765
4.768
4.771
4.772
4.770
4.769
4.770
4.771
4.765
4.760
4.763
4.762
4.758
