2.988
3.322
3.503
3.604
3.711
3.761
3.850
3.833
3.892
3.947
3.999
3.971
3.933
3.958
3.984
4.008
4.022
4.034
4.062
4.069
4.097
4.099
4.118
4.131
4.143
4.154
4.176
4.164
4.189
4.196
4.207
4.205
4.211
4.231
4.236
4.251
4.257
4.269
4.249
4.263
4.272
4.269
4.280
4.290
4.300
4.305
4.321
4.328
4.332
4.307
4.320
4.313
4.324
4.333
4.330
4.346
4.351
4.357
4.367
4.370
4.369
4.372
4.386
4.382
4.397
4.400
4.405
4.400
4.411
4.424
4.400
4.383
4.386
4.396
4.400
4.408
4.420
4.403
4.401
4.403
4.408
4.408
4.420
4.425
4.443
4.424
4.440
4.438
4.441
4.446
4.460
4.453
4.453
4.441
4.449
4.449
4.459
4.457
4.469
4.470
4.470
4.479
4.473
4.478
4.484
4.487
4.497
4.489
4.498
4.499
4.513
4.507
4.498
4.516
4.489
4.499
4.497
4.502
4.501
4.521
4.519
4.527
4.530
4.524
4.535
4.529
4.539
4.536
4.543
4.536
4.534
4.528
4.514
4.499
4.500
4.503
4.498
4.514
4.507
4.503
4.524
4.528
4.521
4.529
4.533
4.529
4.532
4.524
4.505
4.519
4.519
4.503
4.513
4.512
4.496
4.516
4.516
4.514
4.515
4.532
4.527
4.521
4.526
4.543
4.533
4.527
4.523
4.542
4.536
4.528
4.524
4.550
4.555
4.547
4.543
4.547
4.572
4.563
4.559
4.542
4.555
4.550
4.554
4.545
4.548
4.560
4.556
4.551
4.558
4.553
4.575
4.568
4.561
4.550
4.555
4.575
4.577
4.570
4.578
4.575
4.570
4.590
4.598
4.584
4.585
4.589
4.578
4.597
4.600
4.599
4.596
4.587
4.585
4.597
4.603
4.590
4.578
4.565
4.568
4.586
4.588
4.582
4.567
4.559
4.555
4.574
4.579
4.572
4.569
4.573
4.571
4.568
4.575
4.591
4.587
4.583
4.578
4.573
4.572
4.572
4.579
4.594
4.577
4.578
4.574
4.569
4.571
4.575
4.577
4.596
4.595
4.598
4.599
4.598
4.598
4.593
4.590
4.586
4.601
4.616
4.618
4.603
4.602
4.592
4.589
4.588
4.591
4.595
4.612
4.620
4.621
4.622
4.621
4.615
4.620
4.612
4.622
4.607
4.612
4.628
4.638
4.627
4.624
4.630
4.629
4.625
4.620
4.623
4.609
4.615
4.630
4.623
4.623
4.616
4.619
4.609
4.610
4.605
4.604
4.603
4.604
4.619
4.616
4.618
4.618
4.615
4.621
4.623
4.615
4.613
4.612
4.610
4.613
4.609
4.624
4.633
4.630
4.630
4.624
4.628
4.636
4.629
4.638
4.633
4.630
4.626
4.623
4.613
4.627
4.641
4.655
4.654
4.651
4.660
4.653
4.654
4.654
4.647
4.651
4.641
4.646
4.640
4.645
4.642
4.639
4.653
4.666
4.671
4.663
4.667
4.666
4.654
4.649
4.650
4.653
4.659
4.648
4.640
4.629
4.631
4.633
4.645
4.658
4.664
4.667
4.666
4.656
4.659
4.654
4.659
4.659
4.650
4.654
4.659
4.653
4.655
4.652
4.642
4.638
4.643
4.655
4.667
4.679
4.692
4.696
4.692
4.690
4.691
4.690
4.687
4.686
4.687
4.687
4.681
4.685
4.682
4.680
4.671
4.662
4.660
4.663
4.665
4.676
4.688
4.699
4.699
4.704
4.701
4.708
4.707
4.698
4.686
4.680
4.684
4.684
4.685
4.679
4.672
4.666
4.659
4.653
4.646
4.648
4.659
4.670
4.681
4.690
4.688
4.688
4.680
4.672
4.664
4.656
4.656
4.661
4.666
4.661
4.657
4.651
4.649
4.637
4.636
4.630
4.628
4.632
4.629
4.638
4.648
4.658
4.669
4.679
4.680
4.679
4.675
4.669
4.666
4.671
4.671
4.664
4.669
4.670
4.674
4.668
4.662
4.656
4.654
4.661
4.658
4.660
4.659
4.661
4.657
4.658
4.659
4.649
4.647
4.656
4.666
4.669
4.665
4.666
4.667
4.656
4.658
4.666
4.668
4.665
4.661
4.658
4.652
4.657
4.657
4.662
4.655
4.651
4.651
4.651
4.647
4.648
4.650
4.651
4.646
4.657
4.660
4.655
4.652
4.655
4.648
4.657
4.666
4.675
4.684
4.685
4.684
4.681
4.671
4.662
4.662
4.661
4.671
4.670
4.666
4.665
4.661
4.660
4.669
4.672
4.664
4.665
4.659
4.656
4.646
4.648
4.649
4.645
4.649
4.650
4.646
4.653
4.648
4.643
4.648
4.642
4.646
4.653
4.661
4.670
4.678
4.687
4.686
4.695
4.703
4.699
4.690
4.680
4.682
4.683
4.680
4.672
4.668
4.667
4.671
4.675
4.668
4.663
4.670
4.668
4.674
4.670
4.666
4.662
4.657
4.658
4.666
4.663
4.667
4.668
4.666
4.667
4.667
4.663
4.666
4.665
4.665
4.663
4.665
4.656
4.660
4.668
4.676
4.683
4.691
4.697
4.694
4.699
4.700
4.704
4.697
4.695
4.697
4.692
4.693
4.692
4.697
4.708
4.705
4.711
4.707
4.703
4.705
4.708
4.698
4.694
4.686
4.679
4.684
4.688
4.678
4.680
4.675
4.674
4.684
4.690
4.682
4.677
4.677
4.674
4.669
4.668
4.660
4.663
4.672
4.677
4.687
4.681
4.681
4.678
4.672
4.673
4.680
4.688
4.695
4.702
4.710
4.716
4.724
4.731
4.738
4.733
4.723
4.732
4.734
4.737
4.728
4.725
4.723
4.722
4.722
4.725
4.731
4.731
4.727
4.725
4.725
4.718
4.711
4.708
4.713
4.716
4.718
4.719
4.719
4.726
4.720
4.720
4.724
4.722
4.727
4.729
4.722
4.715
4.708
4.709
4.706
4.698
4.694
4.696
4.698
4.700
4.700
4.696
4.688
4.681
4.681
4.686
4.686
4.681
4.677
4.684
4.691
4.698
4.704
4.711
4.718
4.713
4.713
4.715
4.723
4.722
4.724
4.723
4.719
4.715
4.708
4.711
4.708
4.712
4.714
4.722
4.719
4.715
4.713
4.713
4.708
4.703
4.700
4.698
4.695
4.687
4.685
4.680
4.676
4.675
4.680
4.686
4.683
4.683
4.687
4.679
4.681
4.683
4.680
4.687
4.691
4.692
4.689
4.698
4.693
4.689
4.685
4.675
4.675
4.675
4.669
4.674
4.675
4.678
4.676
4.669
4.672
4.671
4.672
4.667
4.668
4.670
4.665
4.671
4.677
4.683
4.690
4.696
4.702
4.708
4.714
4.720
4.726
4.732
4.738
4.738
4.735
4.734
4.733
4.735
4.732
4.733
4.736
4.736
4.733
4.727
4.727
4.722
4.717
4.718
4.719
4.715
4.716
4.725
4.730
4.734
4.733
4.731
4.728
4.729
4.720
4.720
4.720
4.716
4.720
4.726
4.726
4.722
4.726
4.722
4.725
4.721
4.725
4.728
4.721
4.717
4.720
4.721
4.722
4.725
4.720
4.714
4.718
4.717
4.719
4.717
4.717
4.712
4.711
4.709
4.706
4.705
4.704
4.704
4.701
4.700
4.704
4.707
4.716
4.717
4.716
4.716
4.711
4.711
4.706
4.714
4.714
4.710
4.706
4.702
4.698
4.694
4.695
4.696
4.702
4.707
4.712
4.718
4.723
4.729
4.734
4.740
4.745
4.751
4.756
4.754
4.752
4.754
4.750
4.746
4.748
4.740
4.736
4.732
4.730
4.723
4.716
4.712
4.720
4.723
4.716
4.717
4.712
4.708
4.701
4.701
4.701
4.703
4.708
4.705
4.707
4.710
4.711
4.705
4.703
4.699
4.695
4.694
4.702
4.702
4.704
4.706
4.702
4.700
4.700
4.707
4.709
4.702
4.709
4.706
4.710
4.703
4.702
4.702
4.696
4.695
4.697
4.693
4.687
4.684
4.685
4.682
4.680
4.685
4.686
4.684
4.677
4.678
4.682
4.683
4.677
4.669
4.668
4.670
4.674
4.666
4.664
4.665
4.667
4.667
4.663
4.660
4.658
4.658
4.659
4.657
4.659
4.666
4.667
4.671
4.674
4.667
4.663
4.666
4.665
4.670
4.675
4.679
4.684
4.689
4.694
4.699
4.704
4.709
4.713
4.718
4.723
4.728
4.733
4.738
4.742
4.747
4.752
4.757
4.762
4.767
4.768
4.765
4.760
4.767
4.765
4.768
4.772
4.765
4.768
4.775
4.771
4.763
4.762
4.762
4.759
4.757
4.758
4.759
4.752
4.747
4.740
