2.992
3.329
3.516
3.623
3.711
3.774
3.829
3.869
3.933
3.938
3.983
4.026
4.048
4.034
4.062
4.088
4.112
4.140
4.161
4.184
4.207
4.198
4.155
4.146
4.158
4.163
4.181
4.188
4.205
4.209
4.224
4.226
4.243
4.242
4.252
4.266
4.262
4.275
4.284
4.285
4.295
4.302
4.309
4.314
4.317
4.322
4.334
4.340
4.350
4.341
4.347
4.355
4.366
4.370
4.377
4.379
4.370
4.381
4.381
4.388
4.396
4.398
4.407
4.415
4.414
4.423
4.410
4.412
4.416
4.422
4.429
4.433
4.433
4.436
4.448
4.448
4.457
4.459
4.462
4.464
4.454
4.455
4.452
4.458
4.463
4.469
4.474
4.477
4.477
4.481
4.482
4.486
4.495
4.497
4.499
4.502
4.499
4.508
4.504
4.516
4.517
4.524
4.526
4.521
4.506
4.503
4.506
4.502
4.512
4.510
4.514
4.521
4.525
4.525
4.531
4.529
4.529
4.533
4.533
4.535
4.537
4.541
4.548
4.552
4.545
4.551
4.555
4.560
4.558
4.554
4.561
4.560
4.564
4.565
4.572
4.573
4.573
4.576
4.583
4.579
4.588
4.587
4.592
4.592
4.599
4.593
4.591
4.595
4.597
4.590
4.578
4.566
4.569
4.565
4.575
4.581
4.570
4.581
4.585
4.584
4.583
4.584
4.586
4.592
4.586
4.593
4.594
4.598
4.597
4.587
4.597
4.593
4.592
4.595
4.589
4.601
4.597
4.604
4.602
4.607
4.602
4.612
4.610
4.618
4.614
4.622
4.624
4.622
4.618
4.622
4.614
4.620
4.629
4.623
4.638
4.634
4.635
4.639
4.636
4.634
4.624
4.631
4.625
4.637
4.638
4.629
4.630
4.625
4.640
4.637
4.640
4.640
4.640
4.639
4.646
4.644
4.648
4.655
4.652
4.655
4.665
4.658
4.659
4.661
4.659
4.662
4.660
4.653
4.662
4.667
4.662
4.664
4.674
4.672
4.666
4.680
4.677
4.681
4.676
4.683
4.681
4.680
4.687
4.683
4.684
4.680
4.673
4.672
4.677
4.686
4.687
4.685
4.684
4.678
4.679
4.677
4.682
4.678
4.674
4.678
4.690
4.686
4.682
4.685
4.696
4.696
4.695
4.697
4.698
4.702
4.703
4.700
4.696
4.710
4.714
4.711
4.704
4.710
4.714
4.714
4.711
4.703
4.698
4.691
4.684
4.678
4.677
4.677
4.670
4.675
4.671
4.672
4.671
4.672
4.684
4.688
4.682
4.678
4.677
4.688
4.693
4.688
4.685
4.673
4.685
4.689
4.688
4.691
4.687
4.683
4.695
4.694
4.698
4.694
4.690
4.691
4.703
4.708
4.709
4.710
4.706
4.700
4.707
4.703
4.695
4.688
4.682
4.694
4.695
4.699
4.693
4.696
4.685
4.692
4.698
4.692
4.684
4.678
4.676
4.688
4.696
4.699
4.693
4.686
4.684
4.683
4.693
4.692
4.693
4.691
4.692
4.691
4.688
4.697
4.704
4.707
4.703
4.702
4.706
4.703
4.704
4.707
4.714
4.713
4.714
4.710
4.706
4.703
4.703
4.714
4.707
4.710
4.707
4.705
4.704
4.703
4.712
4.718
4.722
4.718
4.715
4.714
4.712
4.713
4.711
4.716
4.728
4.732
4.731
4.730
4.729
4.725
4.729
4.725
4.725
4.735
4.739
4.735
4.728
4.719
4.715
4.711
4.714
4.725
4.733
4.730
4.728
4.729
4.723
4.727
4.722
4.721
4.722
4.730
4.728
4.727
4.728
4.727
4.723
4.724
4.728
4.730
4.728
4.736
4.739
4.740
4.737
4.740
4.742
4.743
4.734
4.732
4.731
4.741
4.744
4.744
4.737
4.738
4.740
4.738
4.737
4.741
4.740
4.736
4.740
4.749
4.755
4.759
4.758
4.757
4.755
4.754
4.751
4.748
4.755
4.763
4.756
4.759
4.766
4.766
4.764
4.760
4.764
4.765
4.764
4.763
4.755
4.754
4.751
4.762
4.770
4.773
4.770
4.768
4.762
4.757
4.751
4.746
4.740
4.736
4.745
4.749
4.750
4.752
4.750
4.744
4.744
4.741
4.736
4.740
4.739
4.738
4.737
4.746
4.750
4.743
4.736
4.732
4.736
4.735
4.733
4.730
4.731
4.732
4.729
4.732
4.739
4.748
4.751
4.751
4.748
4.751
4.750
4.746
4.742
4.738
4.740
4.743
4.742
4.743
4.739
4.743
4.751
4.760
4.766
4.768
4.766
4.768
4.758
4.751
4.751
4.749
4.748
4.748
4.747
4.744
4.744
4.748
4.756
4.765
4.766
4.766
4.762
4.757
4.751
4.751
4.755
4.754
4.750
4.743
4.737
4.736
4.737
4.744
4.751
4.759
4.764
4.770
4.764
4.763
4.761
4.763
4.761
4.760
4.758
4.755
4.758
4.759
4.756
4.751
4.753
4.754
4.758
4.766
4.773
4.779
4.781
4.776
4.775
4.779
4.783
4.777
4.772
4.768
4.769
4.768
4.764
4.755
4.755
4.762
4.767
4.763
4.770
4.776
4.780
4.777
4.775
4.777
4.772
4.771
4.769
4.771
4.775
4.773
4.775
4.776
4.769
4.763
4.766
4.770
4.767
4.771
4.772
4.779
4.785
4.790
4.794
4.796
4.794
4.793
4.792
4.798
4.796
4.798
4.794
4.792
4.786
4.790
4.788
4.788
4.788
4.784
4.781
4.781
4.783
4.785
4.792
4.798
4.799
4.799
4.799
4.795
4.797
4.801
4.803
4.798
4.794
4.787
4.783
4.784
4.785
4.782
4.783
4.777
4.772
4.768
4.772
4.777
4.785
4.792
4.791
4.790
4.786
4.790
4.786
4.787
4.786
4.788
4.791
4.785
4.783
4.788
4.783
4.781
4.781
4.782
4.775
4.770
4.762
4.763
4.769
4.776
4.781
4.782
4.786
4.784
4.788
4.792
4.792
4.792
4.786
4.784
4.781
4.782
4.788
4.784
4.785
4.784
4.778
4.784
4.781
4.781
4.788
4.785
4.786
4.790
4.788
4.784
4.785
4.787
4.792
4.799
4.800
4.798
4.797
4.798
4.796
4.796
4.800
4.793
4.794
4.788
4.791
4.793
4.792
4.793
4.791
4.790
4.789
4.792
4.791
4.792
4.791
4.792
4.789
4.785
4.786
4.793
4.794
4.796
4.803
4.807
4.814
4.817
4.816
4.815
4.814
4.812
4.811
4.807
4.808
4.809
4.805
4.804
4.805
4.807
4.805
4.807
4.810
4.809
4.810
4.814
4.808
4.807
4.805
4.807
4.811
4.814
4.808
4.807
4.807
4.809
4.810
4.815
4.821
4.826
4.830
4.828
4.830
4.833
4.829
4.826
4.825
4.826
4.827
4.820
4.818
4.815
4.816
4.820
4.824
4.822
4.819
4.815
4.813
4.812
4.813
4.815
4.814
4.814
4.810
4.814
4.811
4.809
4.808
4.806
4.810
4.815
4.822
4.825
4.827
4.826
4.821
4.815
4.814
4.812
4.813
4.814
4.813
4.811
4.818
4.820
4.821
4.822
4.816
4.820
4.818
4.818
4.816
4.812
4.814
4.809
4.803
4.801
4.805
4.801
4.808
4.803
4.800
4.806
4.805
4.804
4.808
4.812
4.818
4.823
4.829
4.834
4.840
4.840
4.841
4.840
4.840
4.836
4.836
4.839
4.838
4.833
4.832
4.831
4.830
4.836
4.832
4.834
4.833
4.831
4.830
4.828
4.827
4.833
4.835
4.834
4.836
4.831
4.830
4.833
4.832
4.834
4.838
4.833
4.830
4.829
4.827
4.829
4.830
4.826
4.827
4.833
4.838
4.844
4.848
4.853
4.859
4.864
4.870
4.866
4.863
4.861
4.860
4.858
4.852
4.850
4.846
4.851
4.852
4.853
4.851
4.850
4.846
4.840
4.841
4.840
4.841
4.840
4.840
4.847
4.846
4.845
4.843
4.839
4.838
4.836
4.836
4.834
4.832
4.829
4.825
4.823
4.821
4.820
4.824
4.829
4.833
4.839
4.838
4.833
4.827
4.825
4.825
4.825
4.824
4.825
4.824
4.823
4.824
4.823
4.827
4.825
4.822
4.822
4.825
4.829
4.825
4.825
4.825
4.826
4.822
4.822
4.821
4.820
4.822
4.823
4.822
4.820
4.818
4.815
4.814
4.818
4.818
4.814
4.811
4.807
4.805
4.801
4.799
4.804
4.808
4.812
4.818
4.823
4.827
4.828
4.833
4.837
4.835
4.834
4.836
4.836
4.833
4.831
4.832
4.829
4.829
4.828
4.832
4.831
4.832
4.828
4.827
4.829
