2.990
3.328
3.517
3.612
3.724
3.792
3.820
3.896
3.878
3.930
3.974
4.018
4.060
4.019
3.990
4.012
4.030
4.048
4.069
4.077
4.102
4.106
4.126
4.135
4.151
4.153
4.172
4.189
4.181
4.198
4.214
4.221
4.216
4.225
4.240
4.253
4.262
4.264
4.258
4.274
4.279
4.292
4.300
4.304
4.318
4.317
4.301
4.309
4.317
4.324
4.328
4.338
4.348
4.351
4.356
4.363
4.377
4.386
4.377
4.355
4.363
4.369
4.373
4.381
4.375
4.379
4.387
4.398
4.401
4.413
4.408
4.413
4.414
4.421
4.423
4.437
4.441
4.443
4.447
4.460
4.446
4.447
4.456
4.466
4.450
4.429
4.440
4.445
4.440
4.443
4.451
4.459
4.462
4.453
4.457
4.456
4.453
4.458
4.457
4.474
4.475
4.473
4.483
4.469
4.484
4.484
4.489
4.498
4.499
4.497
4.491
4.497
4.492
4.491
4.504
4.491
4.501
4.507
4.511
4.522
4.518
4.531
4.517
4.531
4.519
4.531
4.526
4.532
4.536
4.546
4.535
4.549
4.544
4.558
4.556
4.546
4.538
4.556
4.541
4.546
4.539
4.553
4.551
4.544
4.570
4.562
4.564
4.569
4.563
4.581
4.572
4.567
4.590
4.583
4.576
4.591
4.577
4.580
4.568
4.556
4.545
4.542
4.556
4.555
4.544
4.558
4.549
4.548
4.561
4.564
4.561
4.561
4.580
4.573
4.563
4.572
4.581
4.581
4.568
4.566
4.555
4.553
4.568
4.555
4.550
4.549
4.565
4.553
4.547
4.551
4.568
4.566
4.563
4.567
4.572
4.577
4.576
4.572
4.567
4.584
4.574
4.570
4.574
4.577
4.585
4.587
4.579
4.576
4.584
4.603
4.597
4.598
4.593
4.587
4.608
4.609
4.603
4.594
4.586
4.600
4.599
4.597
4.592
4.587
4.595
4.605
4.601
4.598
4.596
4.592
4.602
4.621
4.621
4.611
4.606
4.597
4.602
4.621
4.618
4.620
4.613
4.612
4.616
4.615
4.634
4.639
4.633
4.630
4.625
4.621
4.625
4.640
4.638
4.636
4.639
4.636
4.635
4.622
4.639
4.648
4.639
4.629
4.618
4.608
4.614
4.631
4.624
4.617
4.619
4.620
4.608
4.599
4.616
4.621
4.621
4.617
4.609
4.607
4.610
4.608
4.610
4.626
4.640
4.633
4.634
4.629
4.613
4.612
4.615
4.612
4.628
4.644
4.641
4.638
4.629
4.615
4.614
4.604
4.606
4.621
4.636
4.641
4.640
4.634
4.631
4.627
4.625
4.630
4.636
4.629
4.635
4.650
4.658
4.648
4.650
4.642
4.641
4.646
4.640
4.640
4.635
4.638
4.652
4.662
4.655
4.649
4.651
4.644
4.653
4.648
4.650
4.644
4.642
4.647
4.658
4.671
4.679
4.674
4.672
4.668
4.671
4.664
4.664
4.660
4.652
4.654
4.658
4.664
4.677
4.672
4.669
4.668
4.675
4.673
4.664
4.654
4.644
4.643
4.644
4.647
4.658
4.671
4.674
4.668
4.656
4.654
4.647
4.651
4.648
4.639
4.640
4.644
4.644
4.639
4.652
4.664
4.676
4.681
4.682
4.678
4.673
4.664
4.659
4.663
4.654
4.648
4.655
4.663
4.654
4.648
4.655
4.667
4.678
4.690
4.696
4.689
4.688
4.682
4.679
4.677
4.678
4.677
4.673
4.673
4.663
4.667
4.669
4.668
4.677
4.677
4.688
4.699
4.708
4.705
4.706
4.704
4.698
4.697
4.701
4.695
4.696
4.694
4.694
4.695
4.693
4.697
4.689
4.678
4.679
4.690
4.701
4.712
4.710
4.700
4.703
4.700
4.688
4.685
4.683
4.686
4.682
4.681
4.679
4.677
4.685
4.679
4.685
4.681
4.683
4.684
4.695
4.705
4.714
4.714
4.714
4.714
4.715
4.710
4.710
4.715
4.714
4.704
4.702
4.708
4.709
4.707
4.706
4.709
4.702
4.701
4.702
4.695
4.704
4.700
4.708
4.718
4.728
4.737
4.747
4.750
4.740
4.741
4.736
4.729
4.721
4.725
4.722
4.722
4.721
4.731
4.726
4.727
4.719
4.713
4.708
4.717
4.712
4.713
4.717
4.716
4.716
4.725
4.734
4.728
4.723
4.718
4.712
4.707
4.705
4.707
4.704
4.703
4.697
4.696
4.694
4.696
4.701
4.693
4.688
4.696
4.698
4.699
4.702
4.696
4.697
4.697
4.698
4.707
4.716
4.716
4.715
4.718
4.713
4.710
4.705
4.703
4.696
4.695
4.704
4.705
4.704
4.702
4.700
4.695
4.685
4.683
4.680
4.685
4.677
4.675
4.673
4.676
4.674
4.675
4.673
4.681
4.689
4.697
4.706
4.714
4.722
4.731
4.732
4.727
4.722
4.712
4.714
4.715
4.712
4.713
4.720
4.717
4.720
4.715
4.713
4.711
4.707
4.700
4.693
4.694
4.688
4.687
4.682
4.679
4.680
4.680
4.669
4.671
4.666
4.673
4.681
4.689
4.697
4.705
4.711
4.714
4.711
4.713
4.709
4.709
4.705
4.712
4.719
4.715
4.712
4.721
4.712
4.714
4.719
4.716
4.719
4.728
4.716
4.717
4.711
4.705
4.705
4.697
4.698
4.698
4.691
4.693
4.688
4.688
4.697
4.697
4.692
4.696
4.690
4.692
4.687
4.692
4.699
4.707
4.714
4.722
4.725
4.725
4.721
4.724
4.715
4.716
4.717
4.719
4.722
4.718
4.715
4.713
4.707
4.704
4.704
4.708
4.712
4.711
4.709
4.714
4.712
4.702
4.699
4.700
4.701
4.707
4.704
4.698
4.699
4.709
4.704
4.709
4.709
4.701
4.696
4.693
4.698
4.695
4.688
4.685
4.690
4.697
4.704
4.710
4.717
4.724
4.731
4.733
4.732
4.733
4.737
4.734
4.733
4.732
4.732
4.737
4.736
4.732
4.731
4.726
4.727
4.728
4.719
4.715
4.720
4.718
4.713
4.716
4.716
4.718
4.712
4.712
4.709
4.709
4.709
4.712
4.715
4.711
4.722
4.726
4.718
4.717
4.714
4.708
4.712
4.707
4.710
4.707
4.700
4.692
4.689
4.689
4.688
4.695
4.701
4.708
4.714
4.720
4.727
4.733
4.739
4.746
4.751
4.742
4.740
4.742
4.737
4.748
4.752
4.753
4.750
4.746
4.754
4.750
4.756
4.754
4.751
4.742
4.746
4.744
4.743
4.737
4.738
4.740
4.736
4.729
4.732
4.739
4.735
4.732
4.725
4.719
4.715
4.719
4.725
4.728
4.732
4.726
4.729
4.725
4.732
4.733
4.734
4.728
4.723
4.721
4.718
4.716
4.724
4.730
4.726
4.723
4.728
4.724
4.724
4.724
4.723
4.720
4.722
4.724
4.730
4.736
4.742
4.748
4.754
4.760
4.765
4.771
4.777
4.778
4.780
4.789
4.791
4.790
4.783
4.782
4.779
4.773
4.772
4.773
4.774
4.780
4.775
4.776
4.772
4.770
4.765
4.764
4.763
4.763
4.769
4.768
4.759
4.755
4.755
4.757
4.761
4.756
4.755
4.761
4.760
4.761
4.765
4.761
4.755
4.750
4.749
4.743
4.752
4.744
4.739
4.734
4.730
4.730
4.733
4.737
4.733
4.731
4.734
4.738
4.736
4.734
4.734
4.729
4.724
4.719
4.715
4.710
4.706
4.710
4.716
4.721
4.726
4.732
4.737
4.742
4.748
4.753
4.756
4.758
4.758
4.766
4.774
4.774
4.774
4.770
4.768
4.761
4.756
4.758
4.756
4.758
4.759
4.761
4.760
4.755
4.748
4.749
4.747
4.745
4.743
4.746
4.747
4.737
4.738
4.736
4.736
4.736
4.731
4.729
4.731
4.729
4.732
4.737
4.738
4.732
4.736
4.736
4.731
4.726
4.729
4.726
4.721
4.725
4.727
4.731
4.725
4.727
4.731
4.738
4.739
4.736
4.734
4.736
4.734
4.733
4.732
4.732
4.730
4.729
4.728
4.727
4.722
4.717
4.718
4.714
4.717
4.710
4.707
4.708
4.712
4.712
4.712
4.715
4.717
4.719
4.714
4.717
4.721
4.726
4.731
4.736
4.741
4.746
4.750
4.755
4.760
4.765
4.770
4.775
4.780
4.785
4.781
4.781
4.783
4.786
4.786
4.784
4.779
4.779
4.780
4.775
4.773
4.773
4.774
4.770
4.767
4.764
4.761
4.762
4.761
4.765
4.772
4.779
4.780
4.781
4.785
4.786
4.783
4.778
4.775
4.774
4.767
4.767
