2.995
3.334
3.509
3.633
3.725
3.765
3.847
3.864
3.926
3.913
3.954
3.996
4.027
4.062
4.099
4.112
4.050
4.048
4.069
4.082
4.094
4.115
4.127
4.134
4.155
4.156
4.173
4.186
4.190
4.205
4.210
4.218
4.235
4.244
4.240
4.247
4.262
4.274
4.284
4.273
4.281
4.292
4.298
4.312
4.319
4.330
4.314
4.318
4.325
4.338
4.340
4.351
4.362
4.356
4.369
4.375
4.362
4.358
4.370
4.375
4.379
4.387
4.387
4.400
4.402
4.411
4.413
4.417
4.424
4.427
4.434
4.437
4.412
4.412
4.415
4.423
4.431
4.428
4.441
4.438
4.437
4.444
4.447
4.452
4.460
4.454
4.468
4.472
4.461
4.472
4.471
4.477
4.480
4.482
4.489
4.496
4.502
4.506
4.511
4.499
4.509
4.504
4.507
4.504
4.485
4.488
4.486
4.485
4.493
4.489
4.498
4.501
4.508
4.502
4.515
4.504
4.500
4.513
4.505
4.507
4.512
4.517
4.510
4.524
4.528
4.524
4.536
4.534
4.522
4.536
4.535
4.544
4.550
4.545
4.552
4.549
4.543
4.547
4.543
4.545
4.539
4.550
4.549
4.552
4.551
4.555
4.554
4.566
4.563
4.573
4.570
4.577
4.575
4.576
4.571
4.581
4.585
4.578
4.584
4.583
4.598
4.591
4.590
4.598
4.596
4.608
4.606
4.596
4.592
4.595
4.606
4.597
4.594
4.594
4.585
4.602
4.596
4.593
4.609
4.609
4.608
4.613
4.617
4.611
4.615
4.629
4.624
4.615
4.634
4.633
4.628
4.636
4.639
4.629
4.619
4.609
4.600
4.595
4.590
4.589
4.603
4.597
4.597
4.599
4.599
4.595
4.598
4.606
4.607
4.603
4.597
4.610
4.619
4.618
4.622
4.614
4.630
4.626
4.622
4.616
4.622
4.609
4.605
4.605
4.605
4.606
4.608
4.604
4.606
4.612
4.603
4.595
4.601
4.608
4.609
4.604
4.602
4.605
4.623
4.620
4.615
4.626
4.614
4.624
4.629
4.627
4.628
4.626
4.619
4.628
4.623
4.628
4.626
4.619
4.629
4.636
4.635
4.629
4.631
4.626
4.634
4.650
4.651
4.649
4.642
4.640
4.643
4.652
4.657
4.650
4.638
4.636
4.633
4.647
4.649
4.646
4.642
4.644
4.631
4.637
4.651
4.655
4.655
4.645
4.643
4.646
4.642
4.655
4.667
4.663
4.669
4.657
4.654
4.645
4.651
4.667
4.672
4.665
4.662
4.668
4.659
4.658
4.658
4.672
4.688
4.688
4.683
4.683
4.676
4.676
4.667
4.672
4.686
4.691
4.677
4.681
4.681
4.682
4.674
4.682
4.679
4.693
4.687
4.679
4.671
4.662
4.654
4.651
4.665
4.672
4.672
4.676
4.672
4.661
4.663
4.657
4.651
4.659
4.668
4.665
4.662
4.658
4.660
4.659
4.652
4.654
4.652
4.658
4.672
4.680
4.677
4.682
4.680
4.672
4.673
4.672
4.669
4.662
4.663
4.676
4.676
4.677
4.679
4.682
4.679
4.677
4.673
4.668
4.660
4.660
4.672
4.675
4.681
4.679
4.672
4.672
4.680
4.678
4.675
4.673
4.667
4.665
4.672
4.684
4.696
4.707
4.700
4.697
4.698
4.691
4.690
4.686
4.686
4.683
4.679
4.674
4.685
4.697
4.699
4.696
4.693
4.692
4.691
4.692
4.693
4.689
4.687
4.681
4.690
4.687
4.688
4.699
4.711
4.714
4.713
4.717
4.710
4.713
4.714
4.717
4.714
4.715
4.703
4.697
4.700
4.700
4.702
4.713
4.724
4.725
4.727
4.719
4.719
4.720
4.720
4.717
4.708
4.705
4.700
4.705
4.709
4.704
4.702
4.710
4.705
4.709
4.710
4.717
4.717
4.714
4.710
4.700
4.697
4.700
4.698
4.693
4.690
4.684
4.691
4.701
4.711
4.713
4.710
4.706
4.705
4.711
4.705
4.708
4.710
4.714
4.713
4.709
4.709
4.707
4.712
4.710
4.702
4.697
4.706
4.716
4.724
4.723
4.719
4.720
4.725
4.722
4.717
4.717
4.714
4.712
4.714
4.708
4.716
4.727
4.724
4.722
4.719
4.715
4.706
4.715
4.725
4.734
4.737
4.735
4.737
4.736
4.733
4.739
4.742
4.738
4.740
4.742
4.740
4.736
4.737
4.738
4.731
4.733
4.726
4.727
4.728
4.729
4.726
4.735
4.744
4.753
4.756
4.756
4.760
4.755
4.754
4.748
4.746
4.740
4.738
4.745
4.739
4.741
4.737
4.735
4.739
4.736
4.728
4.721
4.713
4.718
4.727
4.735
4.744
4.752
4.751
4.754
4.752
4.752
4.746
4.742
4.738
4.739
4.744
4.743
4.736
4.738
4.738
4.733
4.731
4.740
4.736
4.739
4.737
4.731
4.732
4.735
4.733
4.734
4.742
4.750
4.758
4.766
4.767
4.765
4.766
4.766
4.767
4.768
4.767
4.773
4.770
4.765
4.766
4.769
4.767
4.766
4.765
4.766
4.760
4.759
4.760
4.758
4.765
4.765
4.769
4.758
4.764
4.760
4.760
4.759
4.767
4.774
4.782
4.786
4.791
4.792
4.785
4.784
4.780
4.776
4.773
4.772
4.773
4.778
4.779
4.774
4.780
4.777
4.773
4.768
4.764
4.759
4.755
4.751
4.746
4.742
4.738
4.733
4.736
4.743
4.751
4.758
4.762
4.757
4.757
4.765
4.763
4.765
4.767
4.764
4.765
4.760
4.759
4.758
4.756
4.758
4.753
4.747
4.742
4.737
4.731
4.726
4.721
4.731
4.729
4.731
4.731
4.725
4.730
4.734
4.729
4.726
4.730
4.733
4.740
4.747
4.754
4.761
4.767
4.758
4.753
4.755
4.752
4.748
4.740
4.735
4.734
4.743
4.753
4.752
4.748
4.744
4.741
4.744
4.743
4.737
4.737
4.740
4.736
4.741
4.737
4.731
4.731
4.727
4.733
4.733
4.737
4.735
4.732
4.734
4.732
4.737
4.742
4.736
4.743
4.749
4.756
4.763
4.769
4.771
4.765
4.759
4.753
4.755
4.751
4.751
4.750
4.753
4.751
4.750
4.742
4.739
4.740
4.735
4.737
4.732
4.727
4.733
4.734
4.739
4.735
4.734
4.734
4.731
4.733
4.727
4.727
4.736
4.731
4.729
4.727
4.723
4.718
4.717
4.718
4.720
4.727
4.733
4.739
4.746
4.752
4.758
4.764
4.770
4.773
4.770
4.770
4.771
4.770
4.770
4.775
4.776
4.775
4.772
4.768
4.770
4.769
4.767
4.762
4.758
4.754
4.752
4.753
4.749
4.744
4.745
4.747
4.744
4.745
4.742
4.735
4.735
4.736
4.730
4.724
4.726
4.730
4.731
4.735
4.735
4.734
4.731
4.736
4.737
4.734
4.734
4.727
4.731
4.736
4.742
4.748
4.754
4.760
4.766
4.771
4.769
4.769
4.764
4.763
4.765
4.763
4.767
4.765
4.771
4.766
4.764
4.761
4.757
4.757
4.760
4.758
4.760
4.760
4.765
4.772
4.770
4.771
4.771
4.766
4.762
4.754
4.752
4.755
4.758
4.760
4.755
4.755
4.754
4.750
4.755
4.754
4.755
4.750
4.744
4.738
4.731
4.731
4.731
4.729
4.727
4.727
4.725
4.722
4.722
4.727
4.733
4.739
4.744
4.749
4.755
4.760
4.765
4.771
4.776
4.782
4.787
4.791
4.789
4.789
4.787
4.785
4.784
4.782
4.782
4.777
4.777
4.776
4.780
4.780
4.776
4.775
4.773
4.774
4.767
4.771
4.769
4.772
4.775
4.776
4.778
4.776
4.772
4.769
4.765
4.763
4.762
4.759
4.755
4.753
4.754
4.757
4.756
4.758
4.755
4.754
4.753
4.752
4.749
4.754
4.753
4.760
4.761
4.763
4.762
4.765
4.763
4.754
4.749
4.744
4.744
4.742
4.741
4.739
4.746
4.745
4.750
4.756
4.761
4.766
4.771
4.776
4.781
4.786
4.791
4.796
4.791
4.793
4.791
4.798
4.796
4.795
4.793
4.794
4.795
4.789
4.793
4.794
4.801
4.803
4.802
4.797
4.801
4.800
4.793
4.788
4.786
4.785
4.781
4.779
4.783
4.785
4.785
4.786
4.789
4.786
4.787
4.787
4.784
4.785
4.784
4.783
4.775
4.780
4.785
4.788
4.784
4.782
4.781
4.780
4.777
4.780
4.783
4.781
4.781
4.780
4.779
4.776
4.774
4.769
4.773
4.769
4.774
4.779
4.775
