2.995
3.335
3.513
3.634
3.708
3.785
3.828
3.881
3.931
3.938
3.983
4.024
4.060
4.032
4.063
4.089
4.116
4.138
4.157
4.182
4.203
4.210
4.167
4.144
4.154
4.171
4.181
4.186
4.201
4.210
4.222
4.227
4.236
4.238
4.253
4.267
4.266
4.276
4.286
4.295
4.293
4.298
4.312
4.320
4.312
4.327
4.331
4.341
4.349
4.344
4.345
4.355
4.362
4.368
4.375
4.382
4.383
4.377
4.386
4.390
4.395
4.401
4.405
4.412
4.419
4.421
4.417
4.413
4.419
4.423
4.427
4.432
4.436
4.437
4.442
4.451
4.455
4.457
4.460
4.468
4.472
4.454
4.458
4.454
4.460
4.464
4.469
4.476
4.477
4.481
4.480
4.484
4.491
4.497
4.497
4.506
4.508
4.505
4.510
4.512
4.515
4.522
4.529
4.528
4.526
4.509
4.502
4.506
4.507
4.511
4.513
4.519
4.527
4.523
4.524
4.528
4.535
4.531
4.535
4.530
4.534
4.538
4.540
4.545
4.549
4.550
4.554
4.555
4.560
4.561
4.557
4.558
4.564
4.563
4.560
4.569
4.576
4.580
4.579
4.577
4.586
4.585
4.589
4.593
4.589
4.594
4.597
4.594
4.595
4.599
4.595
4.588
4.578
4.564
4.575
4.568
4.578
4.582
4.575
4.583
4.584
4.588
4.586
4.583
4.590
4.594
4.590
4.597
4.597
4.602
4.600
4.594
4.601
4.590
4.598
4.594
4.595
4.601
4.601
4.605
4.605
4.608
4.608
4.610
4.611
4.613
4.619
4.616
4.627
4.623
4.623
4.618
4.622
4.620
4.631
4.629
4.630
4.638
4.638
4.643
4.642
4.638
4.628
4.632
4.628
4.631
4.642
4.634
4.636
4.632
4.633
4.642
4.641
4.637
4.647
4.642
4.644
4.648
4.649
4.651
4.657
4.656
4.658
4.667
4.661
4.662
4.661
4.662
4.664
4.662
4.655
4.664
4.671
4.665
4.668
4.676
4.675
4.670
4.680
4.683
4.683
4.676
4.686
4.684
4.686
4.689
4.686
4.686
4.682
4.676
4.679
4.673
4.691
4.689
4.688
4.684
4.683
4.681
4.680
4.686
4.682
4.678
4.680
4.689
4.691
4.690
4.690
4.692
4.699
4.700
4.701
4.698
4.707
4.706
4.702
4.703
4.705
4.714
4.715
4.706
4.712
4.716
4.715
4.714
4.707
4.701
4.694
4.689
4.683
4.683
4.679
4.676
4.674
4.678
4.674
4.675
4.675
4.676
4.690
4.690
4.686
4.683
4.679
4.690
4.693
4.692
4.685
4.678
4.686
4.694
4.693
4.692
4.688
4.686
4.696
4.697
4.701
4.700
4.693
4.697
4.704
4.712
4.713
4.712
4.707
4.701
4.707
4.705
4.697
4.690
4.686
4.692
4.696
4.701
4.701
4.698
4.688
4.690
4.699
4.695
4.686
4.683
4.682
4.684
4.697
4.705
4.697
4.689
4.688
4.689
4.690
4.700
4.693
4.695
4.696
4.695
4.693
4.692
4.702
4.709
4.710
4.703
4.710
4.709
4.708
4.705
4.712
4.716
4.715
4.717
4.710
4.711
4.704
4.706
4.715
4.709
4.712
4.709
4.710
4.706
4.708
4.716
4.720
4.722
4.721
4.720
4.718
4.719
4.715
4.712
4.718
4.728
4.734
4.734
4.732
4.733
4.729
4.731
4.729
4.725
4.734
4.744
4.735
4.730
4.723
4.717
4.716
4.717
4.724
4.734
4.734
4.730
4.732
4.725
4.729
4.727
4.724
4.720
4.731
4.728
4.731
4.733
4.731
4.728
4.731
4.728
4.734
4.725
4.734
4.742
4.746
4.742
4.742
4.745
4.746
4.739
4.735
4.736
4.738
4.742
4.748
4.742
4.742
4.741
4.743
4.742
4.742
4.745
4.740
4.739
4.745
4.753
4.760
4.761
4.759
4.760
4.757
4.760
4.754
4.750
4.757
4.766
4.757
4.761
4.770
4.771
4.765
4.763
4.770
4.768
4.767
4.761
4.754
4.757
4.753
4.761
4.770
4.777
4.773
4.768
4.762
4.758
4.753
4.747
4.742
4.736
4.745
4.753
4.753
4.752
4.751
4.749
4.748
4.745
4.737
4.741
4.740
4.744
4.742
4.744
4.751
4.745
4.740
4.734
4.734
4.736
4.737
4.733
4.735
4.734
4.735
4.736
4.735
4.742
4.751
4.755
4.753
4.752
4.756
4.749
4.748
4.742
4.740
4.744
4.746
4.745
4.745
4.739
4.746
4.753
4.762
4.769
4.770
4.769
4.765
4.757
4.754
4.753
4.753
4.753
4.751
4.747
4.748
4.742
4.749
4.757
4.765
4.768
4.770
4.764
4.757
4.750
4.753
4.755
4.759
4.752
4.743
4.741
4.743
4.741
4.745
4.752
4.760
4.764
4.773
4.768
4.767
4.766
4.765
4.764
4.762
4.763
4.759
4.757
4.762
4.761
4.754
4.757
4.754
4.760
4.764
4.771
4.779
4.785
4.779
4.779
4.779
4.786
4.781
4.777
4.770
4.772
4.773
4.769
4.760
4.757
4.759
4.768
4.770
4.766
4.771
4.780
4.783
4.779
4.779
4.780
4.773
4.774
4.775
4.772
4.778
4.774
4.781
4.775
4.767
4.766
4.770
4.772
4.771
4.774
4.773
4.780
4.787
4.793
4.795
4.801
4.798
4.796
4.795
4.801
4.798
4.802
4.797
4.793
4.790
4.791
4.790
4.791
4.787
4.786
4.786
4.785
4.786
4.786
4.792
4.797
4.803
4.805
4.801
4.796
4.801
4.804
4.806
4.799
4.795
4.790
4.787
4.786
4.789
4.786
4.784
4.779
4.775
4.771
4.768
4.777
4.783
4.790
4.794
4.794
4.792
4.791
4.789
4.791
4.790
4.791
4.795
4.791
4.789
4.788
4.787
4.782
4.781
4.786
4.779
4.774
4.767
4.768
4.767
4.771
4.778
4.783
4.786
4.791
4.787
4.791
4.794
4.796
4.792
4.791
4.789
4.786
4.784
4.790
4.789
4.786
4.787
4.780
4.784
4.783
4.784
4.788
4.790
4.790
4.792
4.791
4.789
4.788
4.787
4.791
4.798
4.804
4.800
4.801
4.801
4.801
4.800
4.801
4.794
4.797
4.794
4.794
4.797
4.796
4.795
4.793
4.795
4.793
4.794
4.791
4.794
4.793
4.795
4.793
4.789
4.788
4.790
4.797
4.797
4.801
4.806
4.812
4.819
4.818
4.820
4.818
4.817
4.816
4.814
4.812
4.809
4.810
4.805
4.807
4.809
4.810
4.809
4.810
4.814
4.813
4.812
4.816
4.809
4.810
4.808
4.812
4.816
4.813
4.811
4.810
4.809
4.812
4.811
4.816
4.822
4.827
4.833
4.832
4.833
4.832
4.828
4.829
4.828
4.827
4.828
4.824
4.820
4.820
4.819
4.823
4.827
4.826
4.820
4.816
4.816
4.818
4.817
4.816
4.814
4.818
4.814
4.815
4.814
4.810
4.809
4.804
4.809
4.815
4.820
4.826
4.830
4.827
4.823
4.820
4.819
4.816
4.817
4.818
4.816
4.815
4.816
4.821
4.822
4.823
4.822
4.821
4.822
4.820
4.822
4.816
4.817
4.813
4.809
4.807
4.806
4.807
4.806
4.808
4.801
4.804
4.809
4.808
4.808
4.812
4.816
4.820
4.825
4.829
4.834
4.840
4.844
4.845
4.845
4.843
4.841
4.838
4.842
4.838
4.839
4.834
4.834
4.835
4.838
4.837
4.839
4.837
4.831
4.831
4.830
4.829
4.833
4.837
4.841
4.838
4.836
4.835
4.834
4.837
4.836
4.840
4.834
4.831
4.834
4.832
4.831
4.832
4.831
4.827
4.831
4.837
4.842
4.848
4.852
4.856
4.861
4.867
4.869
4.865
4.866
4.862
4.860
4.854
4.855
4.851
4.850
4.854
4.857
4.854
4.850
4.853
4.845
4.845
4.845
4.845
4.845
4.842
4.844
4.851
4.847
4.848
4.844
4.843
4.839
4.838
4.836
4.834
4.831
4.827
4.825
4.824
4.820
4.821
4.825
4.831
4.834
4.840
4.838
4.832
4.830
4.831
4.828
4.826
4.827
4.829
4.827
4.827
4.825
4.829
4.827
4.827
4.823
4.823
4.825
4.831
4.831
4.829
4.830
4.831
4.823
4.824
4.822
4.821
4.823
4.826
4.827
4.823
4.822
4.820
4.819
4.818
4.819
4.815
4.811
4.808
4.806
4.802
4.798
4.802
4.808
4.810
4.816
4.821
4.825
4.826
4.833
4.837
4.841
4.840
4.839
4.840
