2.993
3.335
3.508
3.629
3.709
3.795
3.853
3.888
3.901
3.951
4.001
3.988
4.013
4.043
4.076
4.103
4.128
4.153
4.172
4.152
4.102
4.113
4.125
4.145
4.157
4.161
4.178
4.186
4.201
4.205
4.217
4.231
4.231
4.244
4.259
4.253
4.264
4.276
4.276
4.285
4.294
4.301
4.312
4.303
4.313
4.319
4.334
4.336
4.348
4.338
4.343
4.351
4.355
4.365
4.368
4.381
4.385
4.388
4.378
4.385
4.386
4.392
4.400
4.399
4.403
4.416
4.423
4.425
4.424
4.433
4.432
4.422
4.423
4.423
4.428
4.439
4.443
4.446
4.446
4.445
4.453
4.461
4.466
4.472
4.468
4.472
4.478
4.483
4.496
4.491
4.494
4.481
4.465
4.474
4.472
4.485
4.479
4.491
4.486
4.491
4.502
4.496
4.495
4.502
4.507
4.505
4.509
4.515
4.519
4.524
4.526
4.535
4.528
4.520
4.530
4.526
4.525
4.533
4.539
4.548
4.549
4.554
4.555
4.563
4.561
4.559
4.566
4.557
4.561
4.570
4.565
4.560
4.546
4.534
4.543
4.543
4.537
4.547
4.556
4.550
4.550
4.559
4.555
4.555
4.566
4.562
4.568
4.569
4.563
4.558
4.564
4.561
4.563
4.573
4.566
4.575
4.571
4.576
4.576
4.583
4.584
4.584
4.590
4.595
4.589
4.585
4.593
4.592
4.598
4.598
4.606
4.604
4.607
4.605
4.605
4.594
4.605
4.602
4.602
4.600
4.598
4.604
4.600
4.617
4.608
4.611
4.610
4.609
4.621
4.615
4.618
4.629
4.628
4.631
4.633
4.625
4.638
4.632
4.629
4.632
4.633
4.637
4.642
4.639
4.643
4.644
4.645
4.648
4.652
4.650
4.650
4.655
4.652
4.652
4.649
4.640
4.650
4.657
4.656
4.647
4.656
4.646
4.647
4.654
4.650
4.643
4.656
4.660
4.658
4.654
4.665
4.671
4.667
4.666
4.672
4.674
4.672
4.669
4.684
4.681
4.680
4.676
4.686
4.688
4.685
4.686
4.682
4.674
4.666
4.658
4.651
4.644
4.647
4.645
4.643
4.643
4.646
4.657
4.654
4.651
4.646
4.657
4.665
4.660
4.650
4.647
4.664
4.664
4.661
4.656
4.658
4.669
4.669
4.665
4.665
4.664
4.671
4.685
4.683
4.675
4.673
4.672
4.680
4.670
4.660
4.651
4.665
4.671
4.670
4.663
4.652
4.658
4.669
4.658
4.650
4.652
4.653
4.664
4.666
4.659
4.662
4.655
4.654
4.665
4.670
4.670
4.663
4.667
4.659
4.663
4.678
4.680
4.683
4.681
4.674
4.668
4.672
4.687
4.683
4.687
4.677
4.673
4.669
4.677
4.687
4.686
4.687
4.686
4.683
4.679
4.678
4.692
4.688
4.693
4.688
4.685
4.683
4.689
4.689
4.702
4.707
4.702
4.708
4.697
4.698
4.702
4.698
4.701
4.694
4.692
4.694
4.696
4.690
4.685
4.695
4.703
4.704
4.703
4.697
4.689
4.687
4.686
4.691
4.704
4.706
4.709
4.706
4.706
4.704
4.704
4.696
4.695
4.707
4.720
4.719
4.718
4.720
4.715
4.711
4.704
4.697
4.706
4.718
4.722
4.721
4.720
4.720
4.718
4.718
4.714
4.713
4.720
4.722
4.734
4.740
4.738
4.737
4.735
4.733
4.730
4.727
4.722
4.721
4.732
4.744
4.739
4.734
4.733
4.730
4.727
4.732
4.731
4.736
4.732
4.736
4.731
4.725
4.718
4.711
4.709
4.705
4.712
4.710
4.711
4.721
4.723
4.726
4.725
4.719
4.722
4.725
4.717
4.714
4.706
4.701
4.712
4.714
4.721
4.721
4.718
4.717
4.716
4.711
4.701
4.711
4.715
4.707
4.707
4.717
4.726
4.723
4.728
4.725
4.728
4.728
4.722
4.727
4.727
4.724
4.723
4.719
4.719
4.725
4.735
4.735
4.732
4.724
4.726
4.721
4.724
4.726
4.730
4.722
4.725
4.723
4.714
4.724
4.725
4.727
4.735
4.730
4.722
4.720
4.722
4.722
4.725
4.722
4.725
4.728
4.726
4.720
4.724
4.733
4.743
4.745
4.737
4.739
4.739
4.746
4.745
4.745
4.746
4.740
4.739
4.741
4.741
4.735
4.734
4.737
4.743
4.752
4.753
4.758
4.752
4.754
4.749
4.742
4.739
4.743
4.740
4.738
4.731
4.732
4.730
4.734
4.733
4.742
4.751
4.760
4.757
4.763
4.763
4.757
4.759
4.760
4.758
4.759
4.755
4.752
4.751
4.752
4.757
4.762
4.760
4.753
4.754
4.757
4.766
4.774
4.778
4.775
4.776
4.772
4.768
4.769
4.765
4.767
4.760
4.763
4.760
4.763
4.758
4.763
4.760
4.757
4.752
4.761
4.767
4.761
4.755
4.750
4.753
4.753
4.753
4.750
4.751
4.747
4.753
4.747
4.746
4.750
4.756
4.757
4.750
4.750
4.745
4.752
4.760
4.754
4.759
4.759
4.761
4.760
4.755
4.752
4.749
4.746
4.746
4.754
4.747
4.744
4.743
4.744
4.745
4.751
4.751
4.747
4.749
4.749
4.754
4.762
4.770
4.778
4.780
4.780
4.773
4.771
4.766
4.763
4.762
4.766
4.760
4.763
4.762
4.765
4.762
4.756
4.752
4.750
4.752
4.755
4.754
4.752
4.751
4.758
4.766
4.773
4.780
4.788
4.790
4.793
4.800
4.794
4.787
4.780
4.779
4.776
4.774
4.768
4.771
4.771
4.773
4.781
4.777
4.774
4.773
4.772
4.773
4.767
4.770
4.772
4.770
4.768
4.776
4.783
4.790
4.797
4.804
4.811
4.804
4.796
4.803
4.802
4.801
4.800
4.798
4.800
4.799
4.793
4.792
4.794
4.790
4.783
4.784
4.783
4.784
4.781
4.786
4.792
4.787
4.785
4.779
4.780
4.785
4.790
4.796
4.803
4.803
4.797
4.791
4.787
4.788
4.784
4.785
4.783
4.784
4.788
4.785
4.784
4.787
4.781
4.782
4.787
4.790
4.784
4.780
4.778
4.776
4.772
4.772
4.773
4.775
4.772
4.773
4.778
4.785
4.791
4.798
4.805
4.811
4.815
4.812
4.810
4.808
4.805
4.800
4.803
4.806
4.805
4.804
4.799
4.801
4.806
4.800
4.796
4.797
4.795
4.793
4.801
4.803
4.808
4.803
4.798
4.795
4.795
4.792
4.796
4.793
4.798
4.795
4.794
4.795
4.799
4.806
4.812
4.818
4.825
4.831
4.832
4.831
4.832
4.829
4.826
4.827
4.832
4.830
4.834
4.837
4.838
4.835
4.835
4.831
4.827
4.821
4.814
4.809
4.808
4.808
4.810
4.814
4.806
4.802
4.801
4.801
4.805
4.810
4.816
4.818
4.816
4.810
4.815
4.811
4.810
4.816
4.818
4.814
4.811
4.810
4.807
4.805
4.800
4.803
4.804
4.803
4.803
4.798
4.796
4.790
4.797
4.798
4.796
4.795
4.790
4.788
4.784
4.783
4.783
4.787
4.789
4.788
4.791
4.791
4.786
4.786
4.786
4.786
4.784
4.783
4.779
4.782
4.785
4.791
4.796
4.797
4.795
4.798
4.801
4.801
4.805
4.803
4.805
4.801
4.801
4.796
4.795
4.793
4.795
4.796
4.795
4.794
4.797
4.795
4.795
4.794
4.798
4.795
4.794
4.790
4.788
4.791
4.791
4.785
4.785
4.787
4.785
4.782
4.782
4.782
4.785
4.783
4.784
4.780
4.781
4.780
4.780
4.775
4.780
4.786
4.791
4.796
4.802
4.807
4.808
4.806
4.804
4.802
4.803
4.804
4.802
4.801
4.800
4.800
4.801
4.807
4.804
4.812
4.815
4.812
4.810
4.810
4.812
4.806
4.808
4.802
4.803
4.805
4.805
4.799
4.795
4.792
4.789
4.788
4.788
4.786
4.790
4.788
4.790
4.796
4.794
4.790
4.789
4.788
4.789
4.785
4.781
4.778
4.775
4.775
4.779
4.784
4.789
4.794
4.799
4.804
4.809
4.812
4.808
4.807
4.804
4.800
4.798
4.798
4.799
4.799
4.801
4.804
4.805
4.804
4.798
4.798
4.796
4.795
4.792
4.790
4.791
4.793
4.790
4.791
4.787
4.788
4.795
4.792
4.792
4.791
4.793
4.793
4.794
4.793
4.787
4.788
4.788
4.789
4.788
4.791
4.790
4.789
4.786
4.788
4.789
4.789
4.791
4.787
4.786
4.789
4.790
4.790
4.792
4.790
4.788
4.789
