2.994
3.335
3.509
3.638
3.721
3.796
3.836
3.880
3.934
3.962
4.010
4.007
4.044
4.081
4.093
4.078
4.103
4.127
4.148
4.166
4.189
4.207
4.221
4.239
4.255
4.220
4.183
4.195
4.200
4.215
4.222
4.234
4.240
4.251
4.255
4.266
4.268
4.278
4.290
4.288
4.298
4.308
4.304
4.314
4.321
4.333
4.331
4.335
4.342
4.349
4.358
4.358
4.361
4.369
4.375
4.384
4.388
4.396
4.381
4.388
4.399
4.399
4.411
4.414
4.419
4.425
4.416
4.417
4.425
4.425
4.430
4.439
4.444
4.448
4.452
4.459
4.457
4.462
4.447
4.455
4.457
4.461
4.465
4.466
4.476
4.480
4.479
4.480
4.490
4.495
4.496
4.495
4.504
4.506
4.514
4.495
4.499
4.499
4.496
4.502
4.504
4.508
4.512
4.521
4.520
4.521
4.518
4.529
4.526
4.530
4.536
4.538
4.542
4.546
4.540
4.546
4.548
4.547
4.555
4.558
4.562
4.565
4.564
4.552
4.547
4.541
4.545
4.551
4.547
4.554
4.553
4.555
4.556
4.563
4.562
4.566
4.570
4.573
4.569
4.573
4.577
4.571
4.578
4.580
4.580
4.580
4.586
4.590
4.592
4.593
4.595
4.601
4.599
4.596
4.594
4.601
4.603
4.604
4.605
4.599
4.608
4.614
4.613
4.618
4.624
4.625
4.619
4.621
4.629
4.626
4.635
4.632
4.632
4.626
4.635
4.634
4.636
4.631
4.621
4.610
4.605
4.604
4.608
4.607
4.611
4.614
4.622
4.617
4.616
4.625
4.624
4.628
4.619
4.626
4.624
4.626
4.629
4.634
4.632
4.636
4.636
4.634
4.633
4.632
4.638
4.632
4.636
4.632
4.635
4.636
4.635
4.639
4.638
4.645
4.641
4.650
4.646
4.647
4.654
4.650
4.660
4.658
4.657
4.664
4.660
4.662
4.657
4.661
4.658
4.656
4.669
4.669
4.663
4.677
4.673
4.672
4.679
4.675
4.673
4.661
4.665
4.667
4.668
4.670
4.679
4.675
4.673
4.670
4.666
4.675
4.679
4.677
4.677
4.683
4.677
4.678
4.680
4.681
4.679
4.692
4.688
4.689
4.692
4.699
4.696
4.699
4.701
4.699
4.696
4.699
4.706
4.694
4.693
4.700
4.698
4.699
4.701
4.710
4.709
4.705
4.707
4.716
4.710
4.710
4.714
4.724
4.715
4.714
4.717
4.725
4.725
4.722
4.720
4.713
4.706
4.706
4.717
4.716
4.714
4.711
4.718
4.729
4.725
4.716
4.714
4.722
4.720
4.713
4.712
4.722
4.720
4.721
4.718
4.721
4.726
4.729
4.726
4.727
4.723
4.736
4.742
4.738
4.737
4.733
4.740
4.744
4.742
4.740
4.739
4.744
4.751
4.744
4.745
4.746
4.742
4.736
4.731
4.727
4.721
4.716
4.717
4.713
4.710
4.719
4.718
4.714
4.714
4.706
4.714
4.710
4.714
4.713
4.710
4.711
4.720
4.725
4.723
4.719
4.720
4.718
4.721
4.732
4.729
4.722
4.717
4.714
4.720
4.727
4.726
4.732
4.729
4.725
4.723
4.730
4.734
4.732
4.731
4.733
4.734
4.732
4.736
4.746
4.750
4.746
4.747
4.744
4.739
4.736
4.731
4.724
4.725
4.719
4.720
4.727
4.736
4.733
4.731
4.732
4.731
4.724
4.726
4.732
4.729
4.722
4.718
4.714
4.715
4.721
4.731
4.733
4.732
4.733
4.731
4.725
4.720
4.724
4.734
4.735
4.729
4.727
4.725
4.730
4.726
4.730
4.734
4.743
4.739
4.740
4.740
4.740
4.736
4.738
4.740
4.741
4.750
4.743
4.743
4.747
4.745
4.746
4.743
4.741
4.742
4.754
4.751
4.746
4.740
4.741
4.740
4.744
4.740
4.743
4.751
4.762
4.755
4.755
4.753
4.749
4.750
4.746
4.748
4.749
4.758
4.762
4.762
4.758
4.759
4.762
4.761
4.763
4.761
4.760
4.761
4.769
4.777
4.771
4.770
4.766
4.761
4.758
4.759
4.754
4.756
4.765
4.766
4.766
4.764
4.762
4.761
4.762
4.759
4.757
4.756
4.758
4.766
4.765
4.762
4.762
4.761
4.760
4.759
4.755
4.758
4.758
4.758
4.765
4.773
4.780
4.778
4.777
4.773
4.773
4.766
4.768
4.772
4.768
4.770
4.771
4.777
4.784
4.786
4.785
4.784
4.777
4.770
4.769
4.767
4.766
4.769
4.773
4.772
4.782
4.789
4.788
4.788
4.787
4.789
4.785
4.788
4.785
4.784
4.784
4.784
4.782
4.781
4.790
4.797
4.806
4.810
4.807
4.802
4.799
4.795
4.792
4.791
4.796
4.791
4.788
4.789
4.792
4.799
4.803
4.802
4.803
4.802
4.801
4.799
4.798
4.795
4.792
4.786
4.782
4.778
4.787
4.783
4.782
4.781
4.777
4.780
4.776
4.778
4.776
4.781
4.779
4.775
4.769
4.772
4.779
4.786
4.785
4.789
4.793
4.791
4.785
4.780
4.773
4.769
4.766
4.764
4.762
4.761
4.763
4.770
4.777
4.780
4.784
4.783
4.782
4.781
4.780
4.783
4.780
4.777
4.774
4.773
4.774
4.772
4.769
4.772
4.776
4.781
4.787
4.791
4.792
4.791
4.792
4.794
4.788
4.783
4.785
4.786
4.790
4.792
4.792
4.792
4.792
4.789
4.784
4.783
4.790
4.795
4.799
4.800
4.799
4.792
4.788
4.788
4.790
4.788
4.788
4.784
4.784
4.789
4.784
4.786
4.780
4.777
4.784
4.791
4.796
4.799
4.793
4.791
4.787
4.786
4.787
4.791
4.790
4.786
4.784
4.784
4.784
4.784
4.785
4.783
4.779
4.781
4.784
4.791
4.798
4.803
4.810
4.808
4.806
4.805
4.807
4.802
4.801
4.800
4.801
4.800
4.803
4.800
4.803
4.800
4.799
4.803
4.803
4.802
4.798
4.799
4.803
4.808
4.814
4.818
4.810
4.810
4.815
4.810
4.812
4.813
4.812
4.811
4.807
4.800
4.801
4.795
4.795
4.795
4.798
4.800
4.799
4.797
4.798
4.803
4.809
4.816
4.818
4.821
4.820
4.818
4.815
4.814
4.814
4.814
4.817
4.819
4.823
4.819
4.817
4.813
4.812
4.814
4.812
4.816
4.814
4.813
4.814
4.810
4.809
4.814
4.821
4.827
4.832
4.840
4.840
4.838
4.837
4.835
4.831
4.830
4.828
4.830
4.828
4.827
4.826
4.827
4.828
4.825
4.826
4.824
4.820
4.818
4.823
4.818
4.817
4.818
4.821
4.825
4.832
4.832
4.828
4.822
4.820
4.816
4.812
4.813
4.812
4.808
4.809
4.805
4.806
4.803
4.804
4.806
4.804
4.805
4.806
4.805
4.807
4.810
4.809
4.808
4.810
4.816
4.821
4.827
4.832
4.836
4.831
4.829
4.828
4.822
4.818
4.814
4.812
4.808
4.809
4.814
4.812
4.813
4.815
4.813
4.812
4.805
4.803
4.803
4.801
4.802
4.799
4.799
4.799
4.805
4.810
4.816
4.821
4.827
4.828
4.830
4.836
4.838
4.840
4.836
4.837
4.830
4.829
4.832
4.832
4.833
4.832
4.832
4.831
4.829
4.825
4.822
4.820
4.818
4.823
4.819
4.818
4.821
4.818
4.816
4.814
4.810
4.810
4.816
4.821
4.827
4.831
4.836
4.839
4.838
4.839
4.836
4.840
4.840
4.837
4.835
4.836
4.841
4.840
4.843
4.842
4.843
4.840
4.840
4.836
4.838
4.842
4.838
4.839
4.841
4.836
4.835
4.832
4.827
4.825
4.824
4.826
4.824
4.821
4.827
4.828
4.833
4.837
4.843
4.847
4.852
4.856
4.860
4.859
4.857
4.855
4.852
4.850
4.852
4.850
4.849
4.851
4.854
4.853
4.852
4.850
4.854
4.856
4.858
4.859
4.860
4.859
4.854
4.851
4.847
4.847
4.847
4.847
4.846
4.840
4.841
4.842
4.841
4.842
4.844
4.842
4.844
4.848
4.852
4.858
4.863
4.866
4.863
4.866
4.866
4.862
4.865
4.866
4.865
4.864
4.862
4.858
4.857
4.859
4.863
4.861
4.857
4.853
4.847
4.845
4.841
4.837
4.833
4.834
4.835
4.834
4.832
4.837
4.838
4.836
4.835
4.834
4.838
4.836
4.835
4.832
4.838
4.843
4.846
4.851
4.855
4.861
4.866
4.866
4.865
4.864
4.862
4.858
4.857
4.859
4.855
4.853
