2.993
3.333
3.505
3.634
3.723
3.771
3.846
3.866
3.928
3.916
3.955
3.992
4.034
4.066
4.097
4.118
4.056
4.051
4.069
4.082
4.095
4.116
4.124
4.134
4.155
4.155
4.174
4.191
4.192
4.203
4.220
4.221
4.234
4.245
4.238
4.246
4.263
4.269
4.278
4.275
4.279
4.293
4.301
4.309
4.318
4.327
4.314
4.317
4.330
4.338
4.338
4.350
4.356
4.364
4.369
4.373
4.358
4.360
4.366
4.377
4.383
4.384
4.385
4.401
4.399
4.406
4.413
4.412
4.423
4.430
4.435
4.444
4.424
4.414
4.412
4.418
4.433
4.428
4.439
4.443
4.432
4.441
4.439
4.458
4.457
4.459
4.469
4.470
4.469
4.471
4.465
4.471
4.479
4.489
4.494
4.490
4.501
4.498
4.506
4.511
4.501
4.505
4.501
4.508
4.497
4.484
4.486
4.489
4.497
4.494
4.491
4.492
4.500
4.509
4.512
4.514
4.504
4.501
4.506
4.507
4.509
4.515
4.516
4.515
4.522
4.527
4.525
4.537
4.536
4.524
4.537
4.540
4.540
4.553
4.549
4.555
4.548
4.540
4.553
4.547
4.543
4.542
4.551
4.548
4.555
4.553
4.559
4.556
4.568
4.566
4.576
4.572
4.578
4.578
4.575
4.575
4.582
4.585
4.580
4.587
4.585
4.598
4.593
4.589
4.603
4.599
4.606
4.606
4.594
4.597
4.597
4.606
4.598
4.592
4.596
4.590
4.599
4.600
4.597
4.605
4.615
4.610
4.610
4.617
4.615
4.614
4.632
4.627
4.616
4.631
4.636
4.631
4.631
4.638
4.631
4.622
4.611
4.602
4.596
4.590
4.588
4.602
4.602
4.602
4.594
4.605
4.594
4.601
4.599
4.611
4.606
4.600
4.602
4.624
4.616
4.623
4.619
4.624
4.627
4.626
4.619
4.621
4.614
4.606
4.604
4.614
4.610
4.609
4.605
4.605
4.614
4.609
4.600
4.598
4.611
4.606
4.608
4.608
4.600
4.614
4.622
4.619
4.622
4.620
4.616
4.630
4.634
4.623
4.629
4.622
4.627
4.625
4.624
4.629
4.624
4.624
4.636
4.638
4.634
4.631
4.628
4.626
4.640
4.652
4.652
4.649
4.647
4.644
4.646
4.657
4.653
4.647
4.636
4.634
4.635
4.651
4.649
4.648
4.643
4.641
4.631
4.641
4.651
4.659
4.651
4.647
4.644
4.650
4.644
4.658
4.667
4.665
4.665
4.662
4.652
4.643
4.653
4.669
4.672
4.667
4.664
4.671
4.662
4.661
4.661
4.674
4.689
4.691
4.686
4.684
4.677
4.677
4.670
4.673
4.687
4.690
4.677
4.686
4.685
4.684
4.678
4.683
4.679
4.693
4.688
4.679
4.671
4.662
4.654
4.652
4.664
4.674
4.670
4.678
4.673
4.665
4.665
4.658
4.652
4.657
4.670
4.669
4.664
4.661
4.665
4.660
4.653
4.658
4.655
4.656
4.669
4.682
4.680
4.683
4.680
4.675
4.677
4.676
4.671
4.662
4.660
4.673
4.680
4.675
4.681
4.683
4.683
4.678
4.677
4.671
4.662
4.658
4.668
4.675
4.679
4.682
4.677
4.671
4.683
4.682
4.678
4.676
4.670
4.672
4.667
4.679
4.691
4.703
4.708
4.697
4.702
4.696
4.691
4.692
4.690
4.684
4.682
4.677
4.679
4.691
4.702
4.698
4.693
4.690
4.692
4.690
4.692
4.694
4.691
4.685
4.685
4.692
4.689
4.693
4.704
4.715
4.714
4.716
4.719
4.717
4.709
4.718
4.718
4.715
4.710
4.704
4.701
4.706
4.705
4.705
4.716
4.727
4.727
4.726
4.720
4.724
4.723
4.720
4.714
4.706
4.704
4.704
4.707
4.709
4.702
4.705
4.714
4.709
4.708
4.712
4.719
4.720
4.713
4.709
4.699
4.699
4.701
4.699
4.691
4.692
4.688
4.692
4.702
4.712
4.715
4.711
4.707
4.707
4.713
4.708
4.710
4.711
4.716
4.713
4.710
4.710
4.707
4.711
4.711
4.703
4.697
4.706
4.716
4.725
4.723
4.719
4.721
4.725
4.724
4.717
4.719
4.718
4.714
4.714
4.714
4.715
4.726
4.730
4.724
4.721
4.717
4.707
4.714
4.723
4.732
4.738
4.738
4.739
4.739
4.732
4.742
4.744
4.740
4.740
4.745
4.741
4.739
4.736
4.738
4.735
4.736
4.731
4.726
4.728
4.731
4.725
4.732
4.741
4.750
4.759
4.759
4.757
4.760
4.759
4.750
4.748
4.743
4.741
4.746
4.744
4.745
4.740
4.739
4.738
4.739
4.731
4.724
4.716
4.714
4.723
4.731
4.740
4.749
4.752
4.756
4.752
4.755
4.751
4.747
4.741
4.742
4.743
4.746
4.738
4.739
4.740
4.737
4.736
4.734
4.741
4.742
4.742
4.736
4.739
4.731
4.733
4.735
4.737
4.745
4.753
4.761
4.767
4.768
4.767
4.768
4.768
4.767
4.769
4.771
4.774
4.770
4.767
4.770
4.769
4.769
4.768
4.765
4.763
4.764
4.761
4.760
4.761
4.768
4.766
4.765
4.760
4.762
4.763
4.762
4.760
4.768
4.776
4.783
4.791
4.792
4.791
4.789
4.783
4.783
4.775
4.775
4.776
4.774
4.780
4.780
4.773
4.781
4.777
4.772
4.768
4.764
4.759
4.755
4.751
4.746
4.742
4.738
4.733
4.736
4.744
4.751
4.758
4.766
4.760
4.758
4.767
4.764
4.765
4.769
4.766
4.769
4.763
4.760
4.760
4.758
4.758
4.753
4.748
4.743
4.737
4.732
4.727
4.722
4.730
4.731
4.735
4.733
4.728
4.731
4.732
4.732
4.728
4.731
4.732
4.739
4.746
4.753
4.760
4.767
4.763
4.756
4.756
4.753
4.750
4.742
4.739
4.732
4.742
4.749
4.755
4.750
4.746
4.741
4.746
4.747
4.740
4.738
4.742
4.738
4.741
4.741
4.736
4.733
4.730
4.733
4.734
4.739
4.738
4.737
4.736
4.733
4.733
4.743
4.738
4.740
4.746
4.753
4.760
4.766
4.773
4.768
4.762
4.756
4.758
4.758
4.751
4.753
4.755
4.756
4.752
4.748
4.740
4.741
4.739
4.738
4.732
4.732
4.728
4.732
4.738
4.738
4.735
4.736
4.736
4.731
4.732
4.729
4.731
4.738
4.731
4.730
4.728
4.720
4.719
4.721
4.721
4.722
4.728
4.735
4.741
4.747
4.753
4.759
4.766
4.772
4.774
4.773
4.771
4.774
4.773
4.770
4.777
4.776
4.774
4.773
4.771
4.772
4.770
4.766
4.761
4.759
4.757
4.753
4.753
4.748
4.748
4.746
4.751
4.746
4.746
4.741
4.739
4.740
4.736
4.730
4.724
4.726
4.731
4.735
4.736
4.738
4.736
4.734
4.737
4.738
4.735
4.735
4.731
4.731
4.736
4.742
4.748
4.754
4.759
4.765
4.771
4.773
4.771
4.766
4.766
4.767
4.764
4.766
4.767
4.771
4.767
4.764
4.764
4.759
4.758
4.761
4.760
4.759
4.762
4.764
4.772
4.770
4.773
4.773
4.770
4.763
4.756
4.753
4.755
4.758
4.762
4.757
4.759
4.755
4.750
4.755
4.755
4.757
4.752
4.746
4.739
4.734
4.734
4.733
4.734
4.729
4.728
4.730
4.725
4.720
4.725
4.731
4.736
4.741
4.747
4.752
4.758
4.763
4.768
4.774
4.779
4.785
4.790
4.793
4.790
4.793
4.787
4.783
4.783
4.783
4.780
4.780
4.778
4.777
4.782
4.778
4.779
4.775
4.777
4.771
4.768
4.775
4.773
4.775
4.776
4.779
4.779
4.777
4.772
4.767
4.764
4.764
4.764
4.759
4.756
4.755
4.756
4.760
4.753
4.760
4.759
4.755
4.754
4.755
4.751
4.756
4.755
4.762
4.764
4.766
4.766
4.764
4.761
4.754
4.748
4.749
4.746
4.745
4.740
4.741
4.745
4.746
4.751
4.756
4.762
4.766
4.772
4.777
4.781
4.787
4.792
4.797
4.793
4.794
4.794
4.798
4.796
4.796
4.798
4.796
4.795
4.790
4.793
4.794
4.801
4.804
4.806
4.800
4.804
4.801
4.794
4.788
4.787
4.785
4.786
4.784
4.785
4.785
4.786
4.788
4.792
4.787
4.789
4.792
4.786
4.784
4.785
4.785
4.779
4.781
4.784
4.790
4.784
4.784
4.783
4.783
4.779
4.780
4.786
4.784
4.782
4.782
4.784
4.778
4.776
