2.994
3.325
3.513
3.630
3.712
3.776
3.825
3.892
3.910
3.968
3.960
3.985
4.019
4.052
4.084
4.112
4.141
4.141
4.086
4.083
4.097
4.110
4.131
4.140
4.149
4.163
4.170
4.186
4.203
4.205
4.217
4.219
4.231
4.242
4.259
4.254
4.265
4.272
4.287
4.280
4.285
4.296
4.304
4.318
4.317
4.314
4.317
4.331
4.336
4.347
4.357
4.356
4.346
4.356
4.355
4.365
4.375
4.376
4.384
4.394
4.395
4.398
4.408
4.406
4.396
4.396
4.399
4.411
4.409
4.420
4.421
4.419
4.430
4.435
4.441
4.442
4.444
4.452
4.453
4.462
4.467
4.476
4.453
4.441
4.446
4.451
4.457
4.461
4.461
4.467
4.477
4.469
4.472
4.473
4.480
4.492
4.492
4.486
4.495
4.505
4.503
4.493
4.500
4.502
4.509
4.514
4.519
4.523
4.527
4.526
4.533
4.533
4.535
4.539
4.535
4.537
4.533
4.537
4.533
4.517
4.517
4.518
4.512
4.523
4.529
4.529
4.521
4.528
4.536
4.537
4.538
4.548
4.539
4.536
4.531
4.539
4.542
4.536
4.543
4.545
4.546
4.554
4.552
4.561
4.556
4.565
4.568
4.560
4.562
4.563
4.573
4.572
4.581
4.573
4.583
4.578
4.580
4.573
4.573
4.584
4.579
4.582
4.577
4.585
4.583
4.584
4.584
4.581
4.592
4.594
4.604
4.604
4.599
4.609
4.603
4.613
4.608
4.607
4.609
4.604
4.619
4.614
4.611
4.618
4.623
4.623
4.630
4.623
4.632
4.630
4.631
4.635
4.621
4.621
4.633
4.634
4.625
4.628
4.625
4.626
4.626
4.626
4.626
4.632
4.633
4.631
4.645
4.646
4.646
4.641
4.649
4.645
4.645
4.656
4.665
4.653
4.646
4.664
4.664
4.666
4.656
4.659
4.651
4.642
4.634
4.625
4.626
4.624
4.621
4.621
4.629
4.633
4.631
4.627
4.628
4.636
4.624
4.624
4.625
4.642
4.638
4.638
4.631
4.638
4.648
4.648
4.645
4.648
4.649
4.656
4.657
4.653
4.654
4.652
4.641
4.636
4.635
4.639
4.643
4.637
4.634
4.636
4.636
4.638
4.635
4.638
4.630
4.636
4.643
4.637
4.628
4.634
4.632
4.646
4.648
4.646
4.645
4.644
4.645
4.652
4.659
4.650
4.657
4.651
4.647
4.654
4.662
4.659
4.651
4.649
4.650
4.652
4.667
4.664
4.663
4.661
4.659
4.659
4.661
4.675
4.673
4.672
4.677
4.674
4.673
4.667
4.681
4.686
4.690
4.682
4.678
4.670
4.666
4.680
4.672
4.679
4.675
4.667
4.666
4.670
4.675
4.673
4.674
4.675
4.672
4.674
4.675
4.669
4.679
4.689
4.690
4.691
4.686
4.686
4.684
4.684
4.683
4.692
4.687
4.690
4.686
4.689
4.690
4.688
4.686
4.688
4.699
4.708
4.705
4.704
4.704
4.705
4.705
4.706
4.699
4.699
4.712
4.715
4.713
4.715
4.717
4.714
4.712
4.701
4.698
4.707
4.719
4.726
4.719
4.718
4.715
4.711
4.706
4.698
4.695
4.700
4.696
4.694
4.691
4.689
4.691
4.691
4.688
4.689
4.689
4.701
4.693
4.689
4.682
4.685
4.683
4.682
4.683
4.684
4.682
4.688
4.700
4.698
4.694
4.698
4.697
4.694
4.694
4.690
4.693
4.692
4.687
4.696
4.703
4.714
4.713
4.704
4.707
4.704
4.699
4.702
4.696
4.692
4.692
4.689
4.698
4.709
4.714
4.708
4.710
4.702
4.693
4.692
4.695
4.690
4.692
4.692
4.690
4.695
4.706
4.717
4.719
4.716
4.713
4.710
4.714
4.713
4.712
4.712
4.706
4.709
4.708
4.705
4.709
4.715
4.726
4.733
4.727
4.730
4.720
4.717
4.718
4.716
4.723
4.724
4.721
4.714
4.705
4.706
4.715
4.725
4.733
4.730
4.731
4.731
4.728
4.727
4.732
4.731
4.727
4.723
4.723
4.721
4.727
4.725
4.728
4.724
4.733
4.743
4.752
4.755
4.754
4.745
4.742
4.744
4.749
4.748
4.749
4.740
4.735
4.735
4.731
4.727
4.728
4.734
4.739
4.749
4.752
4.749
4.748
4.744
4.744
4.744
4.737
4.730
4.723
4.719
4.715
4.722
4.724
4.719
4.715
4.724
4.733
4.742
4.747
4.738
4.739
4.742
4.738
4.734
4.729
4.725
4.723
4.725
4.716
4.714
4.714
4.720
4.719
4.715
4.717
4.724
4.733
4.742
4.749
4.750
4.745
4.750
4.751
4.749
4.746
4.747
4.750
4.746
4.737
4.734
4.728
4.733
4.728
4.727
4.729
4.733
4.724
4.727
4.736
4.744
4.753
4.760
4.760
4.760
4.766
4.763
4.761
4.761
4.760
4.759
4.755
4.757
4.754
4.747
4.752
4.749
4.746
4.743
4.745
4.744
4.740
4.743
4.745
4.748
4.756
4.764
4.772
4.775
4.780
4.776
4.778
4.776
4.784
4.783
4.780
4.775
4.772
4.766
4.765
4.763
4.765
4.768
4.765
4.767
4.766
4.764
4.763
4.755
4.752
4.754
4.759
4.767
4.775
4.782
4.786
4.788
4.782
4.780
4.779
4.776
4.775
4.771
4.770
4.763
4.759
4.764
4.762
4.761
4.762
4.758
4.751
4.744
4.745
4.744
4.744
4.750
4.746
4.752
4.759
4.767
4.774
4.778
4.789
4.789
4.784
4.780
4.779
4.778
4.777
4.776
4.780
4.780
4.776
4.770
4.773
4.769
4.768
4.765
4.768
4.773
4.777
4.776
4.775
4.770
4.768
4.770
4.768
4.771
4.770
4.765
4.769
4.776
4.783
4.790
4.797
4.804
4.805
4.806
4.805
4.804
4.803
4.797
4.804
4.803
4.797
4.802
4.799
4.807
4.804
4.807
4.808
4.813
4.810
4.807
4.799
4.793
4.788
4.788
4.786
4.779
4.780
4.783
4.786
4.788
4.784
4.782
4.786
4.791
4.798
4.804
4.811
4.818
4.818
4.814
4.810
4.806
4.802
4.798
4.795
4.791
4.787
4.783
4.779
4.782
4.784
4.778
4.771
4.765
4.758
4.760
4.757
4.758
4.760
4.756
4.755
4.754
4.757
4.756
4.757
4.760
4.762
4.769
4.775
4.781
4.788
4.794
4.794
4.795
4.791
4.786
4.782
4.777
4.772
4.768
4.766
4.773
4.770
4.766
4.764
4.765
4.764
4.765
4.767
4.769
4.763
4.764
4.759
4.760
4.759
4.765
4.766
4.769
4.770
4.765
4.764
4.762
4.756
4.755
4.755
4.756
4.755
4.760
4.766
4.772
4.778
4.784
4.786
4.779
4.779
4.778
4.779
4.777
4.776
4.773
4.768
4.770
4.774
4.780
4.784
4.789
4.784
4.780
4.781
4.784
4.781
4.775
4.774
4.775
4.776
4.778
4.780
4.774
4.772
4.771
4.770
4.771
4.770
4.769
4.766
4.764
4.761
4.761
4.756
4.760
4.767
4.770
4.773
4.769
4.769
4.770
4.775
4.781
4.787
4.792
4.794
4.790
4.782
4.786
4.780
4.777
4.776
4.780
4.782
4.777
4.774
4.775
4.771
4.769
4.764
4.766
4.765
4.763
4.765
4.761
4.760
4.764
4.769
4.775
4.771
4.773
4.771
4.763
4.763
4.760
4.758
4.758
4.765
4.761
4.762
4.759
4.753
4.757
4.757
4.756
4.759
4.759
4.755
4.761
4.758
4.758
4.764
4.769
4.774
4.780
4.785
4.790
4.796
4.801
4.803
4.803
4.803
4.799
4.798
4.798
4.792
4.788
4.790
4.790
4.793
4.794
4.791
4.792
4.793
4.796
4.790
4.785
4.780
4.775
4.769
4.764
4.760
4.759
4.760
4.761
4.760
4.759
4.756
4.761
4.757
4.757
4.761
4.763
4.758
4.758
4.764
4.772
4.773
4.777
4.770
4.766
4.772
4.769
4.768
4.767
4.765
4.765
4.767
4.762
4.759
4.763
4.768
4.773
4.778
4.783
4.788
4.794
4.799
4.802
4.797
4.797
4.802
4.800
4.796
4.801
4.802
4.803
4.807
4.804
4.802
4.801
4.801
4.802
4.796
4.793
4.793
4.788
4.787
4.794
4.800
4.804
4.806
4.802
4.801
4.799
4.795
4.791
4.790
4.788
4.783
4.778
4.772
4.770
4.767
4.770
4.774
4.776
4.776
4.779
4.775
4.774
4.767
4.764
4.763
4.764
4.764
4.759
4.759
4.760
