2.994
3.335
3.514
3.626
3.727
3.787
3.838
3.883
3.911
3.967
3.986
4.009
4.045
4.083
4.068
4.077
4.103
4.127
4.147
4.172
4.188
4.208
4.229
4.244
4.235
4.197
4.180
4.195
4.202
4.208
4.224
4.228
4.240
4.242
4.256
4.257
4.270
4.282
4.279
4.291
4.301
4.301
4.306
4.316
4.327
4.324
4.330
4.342
4.347
4.356
4.349
4.356
4.364
4.368
4.375
4.383
4.385
4.381
4.386
4.390
4.399
4.406
4.409
4.417
4.420
4.411
4.416
4.420
4.424
4.433
4.435
4.439
4.440
4.449
4.454
4.458
4.446
4.450
4.454
4.455
4.457
4.461
4.468
4.474
4.472
4.475
4.484
4.490
4.492
4.493
4.497
4.498
4.505
4.488
4.490
4.494
4.490
4.494
4.498
4.504
4.511
4.509
4.514
4.513
4.519
4.518
4.520
4.527
4.531
4.534
4.539
4.537
4.536
4.546
4.542
4.546
4.555
4.554
4.560
4.564
4.550
4.540
4.539
4.540
4.541
4.540
4.547
4.551
4.552
4.554
4.563
4.559
4.560
4.565
4.568
4.562
4.564
4.567
4.568
4.570
4.571
4.573
4.579
4.587
4.588
4.583
4.591
4.592
4.594
4.597
4.588
4.590
4.594
4.600
4.599
4.598
4.599
4.606
4.610
4.609
4.615
4.617
4.621
4.614
4.618
4.624
4.627
4.624
4.632
4.625
4.623
4.625
4.634
4.625
4.615
4.605
4.594
4.601
4.598
4.606
4.605
4.611
4.615
4.606
4.616
4.616
4.624
4.619
4.616
4.620
4.623
4.625
4.626
4.631
4.631
4.635
4.631
4.624
4.621
4.635
4.626
4.631
4.627
4.628
4.626
4.636
4.632
4.639
4.635
4.639
4.640
4.636
4.643
4.646
4.649
4.652
4.649
4.653
4.654
4.655
4.654
4.655
4.654
4.650
4.661
4.661
4.659
4.666
4.667
4.671
4.670
4.669
4.672
4.661
4.665
4.663
4.659
4.668
4.672
4.668
4.664
4.663
4.664
4.668
4.668
4.666
4.678
4.672
4.670
4.682
4.672
4.669
4.684
4.682
4.681
4.685
4.690
4.691
4.687
4.699
4.694
4.690
4.694
4.698
4.697
4.690
4.694
4.691
4.690
4.699
4.701
4.701
4.695
4.709
4.709
4.704
4.700
4.713
4.719
4.712
4.709
4.720
4.717
4.720
4.716
4.718
4.709
4.701
4.709
4.709
4.709
4.704
4.711
4.724
4.720
4.718
4.709
4.718
4.716
4.709
4.711
4.716
4.714
4.713
4.712
4.716
4.727
4.718
4.724
4.721
4.722
4.732
4.735
4.731
4.735
4.729
4.738
4.737
4.738
4.729
4.733
4.745
4.744
4.742
4.736
4.737
4.741
4.735
4.728
4.723
4.719
4.713
4.708
4.704
4.716
4.710
4.709
4.709
4.708
4.705
4.703
4.705
4.706
4.702
4.708
4.716
4.714
4.715
4.716
4.710
4.711
4.721
4.727
4.726
4.719
4.713
4.711
4.721
4.717
4.724
4.722
4.723
4.719
4.723
4.730
4.727
4.725
4.726
4.727
4.726
4.730
4.738
4.744
4.740
4.738
4.740
4.738
4.737
4.731
4.726
4.719
4.715
4.714
4.726
4.728
4.726
4.724
4.727
4.727
4.721
4.725
4.727
4.727
4.720
4.712
4.710
4.711
4.721
4.725
4.723
4.725
4.726
4.724
4.716
4.717
4.727
4.728
4.726
4.720
4.720
4.720
4.721
4.722
4.729
4.736
4.735
4.731
4.732
4.731
4.732
4.731
4.732
4.739
4.749
4.742
4.737
4.741
4.738
4.738
4.738
4.735
4.743
4.750
4.746
4.744
4.734
4.738
4.735
4.733
4.735
4.746
4.753
4.755
4.748
4.749
4.745
4.742
4.742
4.742
4.743
4.753
4.756
4.758
4.751
4.755
4.756
4.755
4.754
4.755
4.749
4.758
4.767
4.772
4.765
4.764
4.762
4.761
4.754
4.750
4.749
4.755
4.757
4.760
4.764
4.761
4.753
4.755
4.754
4.750
4.754
4.752
4.762
4.758
4.756
4.757
4.753
4.758
4.751
4.749
4.751
4.747
4.754
4.760
4.770
4.775
4.772
4.769
4.767
4.766
4.764
4.764
4.765
4.761
4.764
4.766
4.775
4.779
4.776
4.777
4.778
4.775
4.765
4.763
4.762
4.758
4.765
4.766
4.773
4.783
4.784
4.780
4.781
4.782
4.778
4.782
4.781
4.780
4.778
4.777
4.773
4.777
4.787
4.794
4.800
4.802
4.801
4.801
4.795
4.791
4.787
4.786
4.794
4.790
4.783
4.783
4.792
4.798
4.797
4.799
4.797
4.793
4.794
4.793
4.789
4.790
4.790
4.785
4.779
4.782
4.784
4.779
4.775
4.772
4.773
4.769
4.772
4.768
4.773
4.772
4.770
4.769
4.768
4.775
4.784
4.779
4.786
4.786
4.783
4.786
4.781
4.774
4.770
4.764
4.762
4.755
4.756
4.764
4.772
4.775
4.775
4.775
4.773
4.775
4.775
4.780
4.778
4.772
4.773
4.771
4.767
4.766
4.765
4.763
4.770
4.777
4.784
4.785
4.784
4.785
4.784
4.786
4.786
4.779
4.778
4.779
4.786
4.785
4.783
4.785
4.784
4.780
4.779
4.782
4.789
4.794
4.794
4.793
4.794
4.790
4.784
4.782
4.783
4.782
4.778
4.779
4.781
4.779
4.784
4.782
4.778
4.779
4.786
4.793
4.797
4.790
4.789
4.782
4.781
4.780
4.787
4.786
4.779
4.779
4.778
4.775
4.778
4.779
4.775
4.774
4.776
4.783
4.790
4.796
4.803
4.805
4.801
4.799
4.798
4.798
4.795
4.796
4.794
4.794
4.794
4.794
4.795
4.794
4.794
4.794
4.797
4.798
4.794
4.791
4.798
4.804
4.811
4.807
4.808
4.805
4.808
4.807
4.805
4.804
4.803
4.807
4.806
4.801
4.795
4.791
4.789
4.791
4.795
4.793
4.790
4.793
4.798
4.802
4.809
4.813
4.814
4.813
4.811
4.812
4.811
4.809
4.806
4.807
4.814
4.815
4.816
4.812
4.811
4.805
4.806
4.807
4.811
4.807
4.806
4.805
4.803
4.807
4.814
4.820
4.825
4.832
4.838
4.834
4.835
4.832
4.830
4.827
4.822
4.823
4.820
4.820
4.822
4.820
4.822
4.824
4.822
4.816
4.816
4.812
4.814
4.813
4.814
4.812
4.817
4.824
4.827
4.824
4.822
4.824
4.820
4.818
4.812
4.809
4.803
4.804
4.800
4.801
4.801
4.798
4.800
4.798
4.797
4.799
4.800
4.801
4.803
4.802
4.801
4.804
4.811
4.815
4.822
4.827
4.831
4.831
4.828
4.823
4.820
4.821
4.816
4.810
4.806
4.805
4.805
4.805
4.806
4.810
4.811
4.809
4.801
4.799
4.794
4.798
4.795
4.794
4.792
4.798
4.805
4.810
4.814
4.820
4.824
4.821
4.828
4.832
4.831
4.831
4.830
4.826
4.824
4.824
4.825
4.827
4.825
4.826
4.824
4.821
4.824
4.823
4.817
4.815
4.817
4.818
4.816
4.813
4.812
4.810
4.809
4.802
4.808
4.813
4.819
4.823
4.830
4.832
4.835
4.832
4.830
4.831
4.836
4.831
4.831
4.831
4.833
4.832
4.835
4.832
4.833
4.834
4.831
4.831
4.833
4.834
4.833
4.834
4.833
4.832
4.833
4.827
4.824
4.824
4.819
4.821
4.827
4.820
4.822
4.824
4.830
4.835
4.839
4.845
4.850
4.851
4.853
4.851
4.850
4.848
4.847
4.845
4.842
4.840
4.842
4.846
4.850
4.848
4.844
4.846
4.846
4.851
4.857
4.854
4.853
4.851
4.850
4.845
4.842
4.842
4.842
4.842
4.839
4.837
4.836
4.837
4.838
4.837
4.838
4.842
4.846
4.851
4.857
4.861
4.860
4.857
4.863
4.865
4.861
4.859
4.858
4.857
4.857
4.856
4.853
4.849
4.852
4.857
4.858
4.854
4.852
4.848
4.844
4.840
4.836
4.832
4.830
4.831
4.828
4.829
4.827
4.832
4.830
4.826
4.831
4.832
4.830
4.832
4.836
4.840
4.844
4.849
4.855
4.859
4.860
4.859
4.857
4.861
4.857
4.853
4.850
4.853
4.852
4.846
4.849
4.853
4.852
4.854
4.852
4.851
4.852
4.854
4.849
4.843
4.846
4.845
4.842
4.843
4.842
4.842
4.842
4.840
4.841
4.846
4.842
4.843
4.842
4.843
4.841
