2.957
3.287
3.496
3.571
3.682
3.620
3.664
3.739
3.785
3.828
3.849
3.855
3.890
3.938
3.935
3.968
3.997
3.976
3.985
4.032
4.031
4.058
4.077
4.112
4.092
4.089
4.072
4.111
4.110
4.140
4.136
4.117
4.162
4.166
4.168
4.203
4.226
4.171
4.190
4.207
4.216
4.246
4.232
4.247
4.255
4.217
4.214
4.237
4.234
4.207
4.203
4.214
4.239
4.205
4.245
4.231
4.267
4.252
4.260
4.257
4.254
4.268
4.268
4.270
4.304
4.286
4.315
4.288
4.293
4.329
4.303
4.278
4.274
4.275
4.291
4.277
4.279
4.296
4.277
4.283
4.323
4.314
4.289
4.300
4.336
4.325
4.325
4.312
4.347
4.353
4.348
4.329
4.354
4.331
4.305
4.286
4.330
4.352
4.331
4.312
4.340
4.332
4.364
4.360
4.369
4.356
4.340
4.364
4.393
4.375
4.377
4.366
4.360
4.348
4.385
4.388
4.381
4.375
4.371
4.373
4.363
4.390
4.426
4.406
4.414
4.402
4.400
4.384
4.402
4.398
4.432
4.465
4.457
4.436
4.416
4.396
4.376
4.372
4.392
4.393
4.393
4.382
4.367
4.391
4.383
4.377
4.351
4.372
4.400
4.390
4.377
4.378
4.379
4.395
4.376
4.356
4.356
4.371
4.357
4.384
4.411
4.401
4.396
4.371
4.370
4.388
4.390
4.391
4.386
4.363
4.353
4.356
4.371
4.396
4.421
4.423
4.424
4.424
4.417
4.414
4.396
4.389
4.396
4.393
4.375
4.367
4.388
4.392
4.377
4.396
4.419
4.437
4.444
4.446
4.440
4.447
4.456
4.442
4.425
4.444
4.420
4.415
4.425
4.408
4.411
4.411
4.425
4.441
4.422
4.432
4.433
4.454
4.475
4.477
4.463
4.465
4.469
4.443
4.443
4.446
4.436
4.420
4.409
4.404
4.394
4.395
4.400
4.391
4.388
4.379
4.363
4.382
4.401
4.420
4.439
4.458
4.476
4.487
4.469
4.457
4.466
4.463
4.470
4.461
4.436
4.429
4.433
4.428
4.428
4.430
4.425
4.441
4.449
4.451
4.445
4.445
4.449
4.432
4.446
4.445
4.455
4.440
4.437
4.451
4.445
4.461
4.478
4.469
4.470
4.468
4.451
4.451
4.456
4.465
4.458
4.447
4.437
4.437
4.430
4.422
4.416
4.417
4.415
4.427
4.421
4.402
4.394
4.400
4.394
4.390
4.380
4.376
4.390
4.409
4.413
4.396
4.399
4.402
4.412
4.410
4.413
4.427
4.442
4.457
4.471
4.486
4.500
4.498
4.490
4.493
4.488
4.486
4.474
4.474
4.476
4.461
4.447
4.437
4.423
4.420
4.421
4.431
4.449
4.450
4.460
4.462
4.473
4.463
4.462
4.451
4.444
4.435
4.434
4.417
4.400
4.391
4.380
4.383
4.387
4.385
4.385
4.387
4.387
4.383
4.377
4.378
4.386
4.390
4.396
4.395
4.406
4.418
4.431
4.444
4.456
4.469
4.481
4.494
4.506
4.519
4.531
4.520
4.520
4.525
4.518
4.504
4.504
4.492
4.475
4.473
4.466
4.463
4.461
4.478
4.479
4.481
4.465
4.463
4.468
4.461
4.463
4.460
4.457
4.447
4.445
4.440
4.447
4.442
4.440
4.451
4.461
4.443
4.450
4.461
4.453
4.459
4.471
4.472
4.475
4.470
4.460
4.454
4.442
4.437
4.428
4.428
4.416
4.425
4.437
4.418
4.412
4.420
4.416
4.427
4.445
4.437
4.439
4.438
4.436
4.445
4.464
4.455
4.450
4.448
4.441
4.452
4.462
4.472
4.483
4.493
4.504
4.512
4.515
4.514
4.514
4.511
4.493
4.488
4.488
4.479
4.474
4.459
4.442
4.457
4.468
4.461
4.475
4.490
4.488
4.487
4.469
4.476
4.466
4.471
4.476
4.457
4.474
4.481
4.480
4.482
4.477
4.469
4.463
4.457
4.456
4.459
4.449
4.442
4.444
4.444
4.447
4.434
4.444
4.436
4.434
4.412
4.425
4.428
4.426
4.420
4.416
4.404
4.410
4.420
4.415
4.405
4.399
4.395
4.400
4.410
4.406
4.403
4.400
4.407
4.407
4.409
4.396
4.392
4.411
4.399
4.389
4.395
4.390
4.394
4.402
4.414
4.421
4.433
4.446
4.452
4.441
4.453
4.442
4.439
4.435
4.438
4.434
4.433
4.434
4.439
4.429
4.422
4.429
4.434
4.433
4.440
4.434
4.430
4.431
4.426
4.434
4.443
4.451
4.459
4.468
4.476
4.484
4.493
4.501
4.509
4.518
4.526
4.534
4.529
4.523
4.513
4.512
4.520
4.504
4.503
4.502
4.517
4.523
4.531
4.522
4.525
4.509
4.501
4.499
4.493
4.488
4.487
4.491
4.504
4.494
4.496
4.485
4.480
4.478
4.472
4.477
4.472
4.473
4.484
4.484
4.497
4.496
4.510
4.508
4.509
4.493
4.483
4.487
4.486
4.493
4.495
4.509
4.507
4.492
4.489
4.475
4.470
4.475
4.482
4.486
4.483
4.484
4.485
4.496
4.507
4.503
4.513
4.506
4.501
4.503
4.489
4.472
4.477
4.476
4.472
4.478
4.487
4.482
4.478
4.467
4.464
4.465
4.474
4.477
4.483
4.475
4.462
4.460
4.456
4.461
4.453
4.437
4.436
4.446
4.441
4.435
4.444
4.436
4.429
4.422
4.414
4.411
4.418
4.412
4.419
4.429
4.428
4.427
4.426
4.420
4.425
4.430
4.423
4.413
4.418
4.414
4.418
4.430
4.441
4.439
4.431
4.432
4.419
4.420
4.409
4.413
4.415
4.408
4.414
4.404
4.404
4.397
4.388
4.385
4.390
4.395
4.399
4.403
4.394
4.398
4.388
4.386
4.381
4.383
4.380
4.386
4.381
4.382
4.373
4.375
4.374
4.367
4.368
4.366
4.368
4.367
4.364
4.371
4.367
4.369
4.371
4.374
4.387
4.383
4.380
4.386
4.392
4.398
4.405
4.411
4.417
4.423
4.430
4.436
4.442
4.448
4.455
4.461
4.467
4.473
4.480
4.486
4.492
4.498
4.505
4.511
4.517
4.523
4.530
4.536
4.542
4.548
4.555
4.561
4.567
4.573
4.580
4.586
4.592
4.595
4.594
4.590
4.591
4.584
4.572
4.560
4.557
4.558
4.559
4.556
4.559
4.562
4.550
4.544
4.540
4.534
4.527
4.528
4.532
4.526
4.519
4.517
4.515
4.508
4.509
4.511
4.497
4.511
4.509
4.512
4.514
4.509
4.505
4.517
4.515
4.515
4.524
4.533
4.528
4.527
4.530
4.525
4.527
4.518
4.518
4.523
4.513
4.507
4.498
4.507
4.509
4.504
4.506
4.503
4.513
4.516
4.517
4.515
4.508
4.519
4.512
4.511
4.522
4.522
4.524
4.533
4.520
4.523
4.517
4.505
4.513
4.503
4.497
4.493
4.487
4.495
4.497
4.497
4.487
4.491
4.497
4.489
4.486
4.483
4.484
4.477
4.478
4.472
4.471
4.460
4.455
4.454
4.462
4.466
4.464
4.460
4.452
4.455
4.452
4.449
4.448
4.450
4.454
4.460
4.458
4.451
4.449
4.448
4.450
4.450
4.444
4.438
4.431
4.425
4.419
4.413
4.407
4.404
4.396
4.390
4.399
4.403
4.402
4.404
4.394
4.397
4.394
4.396
4.403
4.401
4.404
4.408
4.397
4.408
4.399
4.401
4.400
4.409
4.400
4.403
4.394
4.389
4.393
4.400
4.397
4.401
4.396
4.408
4.402
4.408
4.398
4.401
4.408
4.418
4.423
4.430
4.437
4.444
4.452
4.458
4.466
4.462
4.466
4.457
4.450
4.456
4.457
4.450
4.441
4.451
4.461
4.462
4.450
4.444
4.450
4.446
4.440
4.430
4.437
4.444
4.450
4.451
4.461
4.464
4.472
4.470
4.463
4.456
4.448
4.453
4.444
4.448
4.439
4.427
4.430
4.437
4.431
4.436
4.433
4.430
4.436
4.432
4.444
4.442
4.427
4.434
4.432
4.422
4.424
4.418
4.422
4.430
4.426
4.430
4.424
4.431
4.423
4.418
4.419
4.412
4.420
4.410
4.413
4.418
4.418
4.418
4.427
4.424
4.427
4.432
4.431
4.431
4.426
4.424
4.422
4.418
4.411
4.418
4.417
4.421
4.422
4.413
4.413
4.411
4.422
4.421
4.417
4.412
4.405
4.411
4.414
4.419
4.417
4.417
4.411
4.412
4.406
4.407
4.400
4.396
4.395
4.407
4.395
4.392
4.395
