2.992
3.329
3.509
3.629
3.715
3.777
3.836
3.870
3.935
3.939
3.987
4.031
4.016
4.034
4.066
4.090
4.118
4.142
4.162
4.185
4.209
4.166
4.129
4.141
4.160
4.171
4.178
4.194
4.197
4.215
4.216
4.234
4.234
4.243
4.258
4.254
4.268
4.279
4.279
4.287
4.296
4.305
4.302
4.311
4.316
4.327
4.337
4.334
4.335
4.339
4.349
4.357
4.365
4.372
4.367
4.369
4.371
4.377
4.386
4.390
4.398
4.405
4.408
4.415
4.401
4.409
4.408
4.412
4.420
4.426
4.427
4.431
4.442
4.445
4.444
4.453
4.458
4.460
4.444
4.449
4.447
4.454
4.458
4.465
4.466
4.476
4.468
4.471
4.480
4.486
4.486
4.492
4.497
4.495
4.497
4.497
4.509
4.509
4.515
4.519
4.513
4.500
4.497
4.495
4.499
4.506
4.507
4.508
4.518
4.514
4.520
4.523
4.523
4.525
4.521
4.525
4.526
4.531
4.537
4.542
4.545
4.547
4.551
4.555
4.554
4.550
4.559
4.553
4.557
4.560
4.559
4.564
4.570
4.571
4.579
4.577
4.578
4.583
4.578
4.590
4.586
4.586
4.584
4.591
4.584
4.579
4.567
4.558
4.564
4.561
4.570
4.568
4.568
4.577
4.579
4.577
4.578
4.582
4.579
4.585
4.583
4.594
4.594
4.590
4.587
4.586
4.583
4.593
4.581
4.591
4.584
4.596
4.590
4.599
4.595
4.599
4.600
4.609
4.605
4.609
4.609
4.616
4.611
4.615
4.608
4.616
4.617
4.626
4.623
4.626
4.630
4.627
4.628
4.624
4.622
4.616
4.630
4.629
4.627
4.624
4.617
4.631
4.627
4.631
4.636
4.627
4.634
4.635
4.630
4.646
4.641
4.642
4.652
4.654
4.649
4.653
4.655
4.651
4.660
4.649
4.653
4.656
4.657
4.657
4.664
4.660
4.658
4.671
4.664
4.670
4.675
4.673
4.671
4.673
4.685
4.676
4.672
4.675
4.664
4.662
4.675
4.678
4.672
4.678
4.680
4.671
4.664
4.678
4.674
4.667
4.671
4.679
4.682
4.673
4.675
4.689
4.685
4.684
4.685
4.695
4.696
4.690
4.691
4.697
4.701
4.701
4.699
4.697
4.710
4.701
4.705
4.703
4.702
4.695
4.690
4.683
4.675
4.668
4.664
4.676
4.666
4.660
4.661
4.667
4.679
4.676
4.674
4.670
4.671
4.684
4.682
4.681
4.679
4.671
4.680
4.679
4.679
4.684
4.680
4.684
4.688
4.686
4.683
4.681
4.685
4.695
4.697
4.698
4.699
4.700
4.694
4.703
4.707
4.698
4.690
4.683
4.686
4.687
4.686
4.686
4.685
4.686
4.688
4.686
4.685
4.681
4.672
4.676
4.683
4.687
4.686
4.683
4.680
4.673
4.686
4.689
4.685
4.679
4.683
4.679
4.685
4.690
4.694
4.694
4.691
4.695
4.693
4.692
4.694
4.705
4.702
4.697
4.702
4.698
4.699
4.700
4.704
4.706
4.704
4.700
4.696
4.692
4.694
4.700
4.712
4.714
4.710
4.708
4.707
4.706
4.704
4.701
4.713
4.716
4.720
4.722
4.716
4.717
4.720
4.719
4.716
4.723
4.731
4.728
4.732
4.725
4.718
4.714
4.705
4.716
4.727
4.725
4.718
4.717
4.720
4.719
4.715
4.711
4.718
4.722
4.723
4.717
4.716
4.719
4.716
4.716
4.716
4.716
4.726
4.734
4.735
4.727
4.731
4.731
4.731
4.730
4.727
4.723
4.729
4.741
4.738
4.733
4.727
4.730
4.732
4.727
4.731
4.730
4.731
4.738
4.746
4.749
4.751
4.746
4.746
4.747
4.746
4.744
4.743
4.747
4.749
4.750
4.759
4.761
4.756
4.757
4.756
4.755
4.753
4.753
4.753
4.752
4.746
4.755
4.764
4.763
4.764
4.761
4.760
4.760
4.753
4.747
4.742
4.736
4.742
4.738
4.740
4.746
4.743
4.739
4.734
4.728
4.732
4.730
4.729
4.730
4.740
4.747
4.748
4.741
4.734
4.727
4.726
4.723
4.723
4.719
4.721
4.720
4.727
4.734
4.745
4.746
4.740
4.739
4.740
4.739
4.740
4.730
4.735
4.733
4.732
4.728
4.732
4.736
4.743
4.752
4.756
4.758
4.756
4.760
4.757
4.752
4.748
4.742
4.740
4.736
4.740
4.742
4.737
4.744
4.754
4.758
4.759
4.755
4.754
4.755
4.749
4.744
4.746
4.742
4.743
4.741
4.732
4.730
4.738
4.746
4.749
4.755
4.760
4.757
4.754
4.753
4.751
4.749
4.757
4.750
4.748
4.752
4.751
4.746
4.746
4.744
4.749
4.758
4.765
4.771
4.767
4.769
4.770
4.769
4.773
4.772
4.775
4.768
4.760
4.760
4.756
4.758
4.751
4.753
4.757
4.758
4.767
4.772
4.776
4.771
4.765
4.766
4.765
4.764
4.760
4.764
4.765
4.763
4.764
4.763
4.762
4.758
4.759
4.761
4.759
4.764
4.773
4.779
4.783
4.788
4.790
4.783
4.786
4.786
4.786
4.788
4.786
4.783
4.786
4.780
4.778
4.782
4.786
4.782
4.776
4.771
4.773
4.777
4.784
4.791
4.795
4.791
4.790
4.788
4.787
4.791
4.795
4.794
4.794
4.788
4.784
4.779
4.776
4.775
4.775
4.772
4.773
4.771
4.768
4.775
4.783
4.783
4.783
4.780
4.778
4.780
4.783
4.775
4.776
4.780
4.776
4.775
4.781
4.779
4.778
4.774
4.776
4.774
4.768
4.764
4.760
4.764
4.771
4.777
4.775
4.779
4.776
4.780
4.783
4.783
4.784
4.777
4.775
4.772
4.775
4.777
4.776
4.774
4.773
4.774
4.773
4.771
4.778
4.777
4.778
4.782
4.781
4.775
4.776
4.783
4.787
4.793
4.792
4.791
4.790
4.790
4.786
4.788
4.789
4.788
4.789
4.783
4.784
4.782
4.781
4.780
4.783
4.785
4.783
4.780
4.783
4.780
4.786
4.780
4.778
4.779
4.786
4.786
4.792
4.799
4.805
4.810
4.814
4.812
4.805
4.807
4.805
4.804
4.800
4.797
4.801
4.794
4.798
4.799
4.795
4.799
4.806
4.799
4.797
4.802
4.801
4.804
4.798
4.799
4.801
4.802
4.801
4.799
4.797
4.799
4.806
4.812
4.817
4.824
4.822
4.821
4.822
4.826
4.827
4.824
4.819
4.816
4.817
4.812
4.808
4.804
4.811
4.816
4.811
4.813
4.816
4.812
4.806
4.802
4.803
4.810
4.809
4.802
4.806
4.804
4.805
4.804
4.803
4.807
4.812
4.820
4.816
4.815
4.820
4.818
4.814
4.809
4.806
4.801
4.803
4.804
4.809
4.810
4.811
4.816
4.812
4.810
4.809
4.815
4.806
4.804
4.805
4.802
4.801
4.797
4.797
4.796
4.797
4.796
4.797
4.796
4.794
4.799
4.805
4.812
4.817
4.823
4.827
4.834
4.838
4.834
4.833
4.831
4.828
4.827
4.833
4.834
4.830
4.826
4.823
4.823
4.823
4.824
4.825
4.821
4.825
4.826
4.820
4.823
4.825
4.826
4.827
4.826
4.825
4.820
4.822
4.824
4.825
4.824
4.827
4.826
4.822
4.821
4.819
4.823
4.822
4.827
4.834
4.838
4.844
4.849
4.855
4.860
4.861
4.859
4.858
4.856
4.857
4.857
4.852
4.846
4.841
4.843
4.842
4.842
4.846
4.846
4.841
4.834
4.833
4.831
4.830
4.832
4.836
4.834
4.839
4.837
4.833
4.831
4.830
4.829
4.836
4.834
4.831
4.827
4.825
4.821
4.819
4.821
4.827
4.832
4.838
4.837
4.833
4.827
4.823
4.818
4.819
4.821
4.817
4.813
4.816
4.821
4.817
4.820
4.814
4.815
4.820
4.821
4.819
4.815
4.814
4.816
4.814
4.813
4.812
4.815
4.816
4.816
4.812
4.815
4.811
4.807
4.808
4.812
4.812
4.812
4.809
4.807
4.805
4.801
4.800
4.804
4.808
4.813
4.819
4.818
4.822
4.829
4.831
4.831
4.828
4.827
4.827
4.824
4.823
4.820
4.820
4.821
4.825
4.823
4.823
4.821
4.822
4.821
4.820
4.823
4.820
4.816
4.812
4.809
4.806
4.807
4.806
4.804
4.803
4.804
4.809
4.813
4.811
4.810
4.805
4.805
4.803
4.799
4.795
4.794
4.798
4.796
4.794
4.793
4.797
4.797
4.797
4.802
4.806
4.812
4.816
4.820
