2.982
3.310
3.480
3.574
3.580
3.611
3.668
3.731
3.784
3.793
3.821
3.859
3.894
3.919
3.957
3.972
3.978
3.984
3.992
4.023
4.061
4.073
4.062
4.069
4.056
4.078
4.090
4.113
4.083
4.135
4.128
4.167
4.165
4.181
4.155
4.181
4.185
4.197
4.216
4.217
4.232
4.198
4.187
4.204
4.193
4.172
4.188
4.193
4.188
4.204
4.205
4.242
4.224
4.222
4.213
4.235
4.224
4.267
4.248
4.291
4.267
4.288
4.283
4.282
4.269
4.239
4.260
4.243
4.263
4.264
4.239
4.272
4.284
4.281
4.267
4.292
4.270
4.274
4.302
4.305
4.303
4.279
4.318
4.326
4.325
4.289
4.315
4.326
4.305
4.288
4.293
4.340
4.317
4.310
4.316
4.324
4.342
4.383
4.358
4.322
4.332
4.321
4.363
4.345
4.342
4.329
4.330
4.334
4.356
4.395
4.398
4.401
4.365
4.368
4.359
4.360
4.395
4.412
4.414
4.397
4.418
4.408
4.392
4.370
4.381
4.358
4.344
4.330
4.336
4.339
4.337
4.338
4.361
4.391
4.388
4.358
4.338
4.343
4.326
4.320
4.327
4.332
4.349
4.379
4.408
4.391
4.368
4.338
4.353
4.350
4.347
4.333
4.333
4.332
4.346
4.374
4.392
4.395
4.385
4.372
4.379
4.380
4.365
4.356
4.366
4.365
4.350
4.341
4.339
4.364
4.390
4.415
4.424
4.406
4.400
4.419
4.418
4.410
4.398
4.398
4.384
4.393
4.364
4.383
4.381
4.393
4.400
4.385
4.406
4.429
4.452
4.462
4.440
4.441
4.447
4.432
4.427
4.414
4.416
4.417
4.398
4.378
4.375
4.360
4.341
4.354
4.343
4.359
4.380
4.401
4.421
4.435
4.463
4.437
4.445
4.440
4.424
4.420
4.431
4.418
4.414
4.400
4.379
4.390
4.399
4.406
4.422
4.413
4.416
4.410
4.384
4.407
4.413
4.407
4.411
4.396
4.409
4.428
4.447
4.465
4.478
4.464
4.450
4.435
4.446
4.426
4.427
4.409
4.414
4.401
4.390
4.383
4.380
4.386
4.397
4.390
4.392
4.398
4.382
4.368
4.348
4.340
4.364
4.368
4.364
4.355
4.363
4.366
4.374
4.390
4.407
4.423
4.439
4.455
4.471
4.488
4.473
4.470
4.471
4.456
4.431
4.431
4.437
4.431
4.437
4.433
4.415
4.418
4.404
4.407
4.406
4.417
4.428
4.418
4.419
4.415
4.420
4.416
4.419
4.411
4.401
4.391
4.375
4.367
4.360
4.356
4.349
4.358
4.351
4.343
4.344
4.350
4.363
4.371
4.385
4.399
4.413
4.427
4.441
4.455
4.469
4.483
4.496
4.491
4.483
4.475
4.470
4.469
4.476
4.481
4.482
4.463
4.451
4.451
4.443
4.440
4.434
4.435
4.426
4.423
4.425
4.432
4.439
4.442
4.423
4.418
4.410
4.404
4.396
4.415
4.427
4.414
4.421
4.440
4.423
4.441
4.454
4.443
4.432
4.420
4.417
4.422
4.420
4.408
4.403
4.397
4.393
4.382
4.378
4.387
4.386
4.403
4.404
4.401
4.413
4.420
4.417
4.424
4.414
4.407
4.415
4.427
4.438
4.450
4.461
4.473
4.484
4.496
4.507
4.502
4.492
4.481
4.470
4.468
4.470
4.462
4.438
4.433
4.436
4.438
4.443
4.446
4.468
4.458
4.444
4.450
4.448
4.445
4.436
4.438
4.440
4.448
4.456
4.444
4.439
4.434
4.432
4.429
4.432
4.421
4.429
4.405
4.407
4.391
4.405
4.403
4.402
4.412
4.403
4.408
4.387
4.382
4.366
4.381
4.381
4.388
4.373
4.382
4.373
4.382
4.368
4.369
4.357
4.365
4.383
4.383
4.384
4.373
4.363
4.363
4.352
4.352
4.365
4.378
4.394
4.404
4.418
4.420
4.418
4.430
4.422
4.407
4.403
4.398
4.388
4.399
4.405
4.392
4.392
4.400
4.395
4.402
4.415
4.406
4.409
4.408
4.417
4.426
4.435
4.445
4.454
4.463
4.472
4.481
4.491
4.500
4.506
4.510
4.495
4.493
4.487
4.487
4.489
4.479
4.477
4.489
4.481
4.484
4.490
4.498
4.484
4.485
4.467
4.463
4.459
4.463
4.471
4.459
4.457
4.449
4.452
4.443
4.436
4.438
4.438
4.455
4.463
4.464
4.470
4.471
4.468
4.462
4.461
4.456
4.457
4.462
4.459
4.462
4.458
4.458
4.443
4.451
4.441
4.442
4.448
4.446
4.458
4.470
4.482
4.492
4.492
4.489
4.477
4.469
4.451
4.441
4.455
4.451
4.451
4.453
4.449
4.450
4.453
4.456
4.447
4.453
4.451
4.446
4.432
4.427
4.426
4.425
4.418
4.406
4.405
4.404
4.411
4.414
4.411
4.421
4.416
4.416
4.409
4.415
4.407
4.398
4.400
4.390
4.385
4.391
4.391
4.383
4.383
4.381
4.381
4.393
4.403
4.402
4.399
4.404
4.407
4.408
4.403
4.398
4.387
4.387
4.383
4.383
4.379
4.377
4.382
4.381
4.381
4.378
4.367
4.365
4.357
4.356
4.343
4.349
4.351
4.361
4.363
4.357
4.362
4.348
4.354
4.343
4.329
4.329
4.324
4.320
4.327
4.328
4.335
4.342
4.349
4.356
4.363
4.370
4.377
4.384
4.391
4.398
4.405
4.412
4.419
4.426
4.433
4.439
4.446
4.453
4.460
4.467
4.474
4.481
4.488
4.495
4.502
4.509
4.515
4.522
4.529
4.536
4.543
4.550
4.557
4.564
4.569
4.568
4.562
4.555
4.553
4.546
4.542
4.540
4.541
4.541
4.538
4.534
4.531
4.520
4.511
4.511
4.514
4.513
4.508
4.506
4.500
4.489
4.488
4.489
4.482
4.486
4.473
4.477
4.473
4.471
4.475
4.459
4.469
4.478
4.489
4.500
4.510
4.508
4.498
4.503
4.496
4.492
4.488
4.496
4.492
4.492
4.485
4.486
4.489
4.488
4.485
4.481
4.490
4.504
4.499
4.495
4.492
4.484
4.493
4.502
4.506
4.502
4.492
4.481
4.474
4.473
4.481
4.483
4.487
4.473
4.465
4.466
4.458
4.450
4.457
4.456
4.452
4.453
4.457
4.445
4.446
4.455
4.445
4.445
4.439
4.436
4.439
4.426
4.427
4.421
4.419
4.427
4.429
4.416
4.418
4.418
4.414
4.415
4.410
4.408
4.419
4.436
4.420
4.415
4.415
4.413
4.408
4.409
4.414
4.413
4.407
4.400
4.393
4.386
4.379
4.373
4.366
4.364
4.375
4.370
4.368
4.355
4.363
4.367
4.369
4.374
4.370
4.372
4.380
4.372
4.363
4.374
4.364
4.374
4.365
4.373
4.370
4.372
4.377
4.385
4.393
4.401
4.409
4.417
4.425
4.433
4.440
4.438
4.428
4.420
4.423
4.423
4.434
4.429
4.436
4.431
4.438
4.438
4.429
4.420
4.417
4.417
4.416
4.412
4.422
4.422
4.425
4.431
4.440
4.449
4.451
4.457
4.458
4.448
4.444
4.441
4.433
4.424
4.416
4.416
4.411
4.401
4.398
4.393
4.406
4.406
4.396
4.401
4.394
4.399
4.403
4.399
4.401
4.400
4.396
4.393
4.383
4.383
4.369
4.379
4.381
4.387
4.384
4.384
4.395
4.388
4.390
4.381
4.387
4.391
4.387
4.394
4.391
4.395
4.392
4.391
4.382
4.382
4.379
4.383
4.373
4.370
4.382
4.387
4.394
4.386
4.384
4.385
4.390
4.399
4.397
4.398
4.392
4.381
4.379
4.371
4.364
4.372
4.367
4.364
4.370
4.360
4.350
4.358
4.360
4.358
4.369
4.370
4.358
4.359
4.369
4.368
4.358
4.367
4.377
4.363
4.357
4.363
4.364
4.365
4.361
4.363
4.369
4.354
4.348
4.349
4.358
4.357
4.348
4.349
4.358
4.355
4.353
4.361
4.356
4.365
4.376
4.368
4.372
4.378
4.377
4.384
4.387
4.380
4.381
4.372
4.374
4.384
4.393
4.387
4.383
4.388
4.393
4.397
4.402
4.407
4.411
4.416
4.420
4.425
4.430
4.434
4.439
4.444
4.448
4.453
4.457
4.462
4.466
4.471
4.476
4.480
4.485
4.490
4.494
4.499
4.503
4.508
4.513
4.517
4.522
4.526
4.531
4.536
4.538
4.532
4.524
4.525
4.514
4.518
4.527
4.533
4.525
4.521
4.515
4.519
4.512
4.509
4.508
4.509
4.512
4.521
