2.994
3.332
3.511
3.628
3.720
3.775
3.827
3.898
3.912
3.966
3.968
3.983
4.017
4.051
4.083
4.109
4.140
4.149
4.094
4.081
4.094
4.120
4.129
4.136
4.157
4.168
4.176
4.186
4.201
4.205
4.216
4.226
4.233
4.245
4.255
4.253
4.260
4.270
4.286
4.278
4.290
4.298
4.304
4.316
4.323
4.312
4.320
4.328
4.337
4.345
4.351
4.360
4.360
4.352
4.354
4.364
4.370
4.377
4.382
4.390
4.398
4.396
4.406
4.418
4.395
4.394
4.400
4.405
4.417
4.420
4.420
4.424
4.425
4.434
4.438
4.446
4.442
4.445
4.457
4.459
4.466
4.470
4.468
4.445
4.450
4.448
4.458
4.457
4.468
4.464
4.475
4.473
4.474
4.473
4.477
4.482
4.491
4.490
4.494
4.503
4.507
4.508
4.499
4.505
4.505
4.512
4.515
4.523
4.527
4.531
4.531
4.538
4.538
4.541
4.540
4.538
4.540
4.536
4.535
4.530
4.516
4.519
4.520
4.517
4.524
4.531
4.529
4.527
4.529
4.539
4.537
4.541
4.549
4.541
4.535
4.534
4.540
4.539
4.542
4.545
4.543
4.547
4.556
4.560
4.564
4.555
4.568
4.569
4.562
4.568
4.564
4.575
4.573
4.583
4.576
4.590
4.581
4.583
4.575
4.577
4.578
4.583
4.578
4.577
4.578
4.590
4.584
4.583
4.584
4.597
4.592
4.596
4.608
4.601
4.611
4.610
4.608
4.616
4.600
4.612
4.608
4.613
4.616
4.612
4.625
4.626
4.625
4.629
4.625
4.627
4.633
4.635
4.631
4.629
4.617
4.632
4.634
4.626
4.636
4.626
4.627
4.631
4.623
4.626
4.634
4.637
4.630
4.632
4.649
4.649
4.645
4.648
4.655
4.648
4.647
4.662
4.660
4.653
4.653
4.667
4.669
4.662
4.663
4.656
4.647
4.640
4.631
4.623
4.627
4.626
4.623
4.621
4.631
4.637
4.633
4.631
4.633
4.634
4.628
4.626
4.628
4.646
4.641
4.637
4.633
4.642
4.649
4.649
4.647
4.653
4.650
4.659
4.658
4.653
4.657
4.653
4.642
4.635
4.638
4.640
4.642
4.638
4.636
4.635
4.638
4.640
4.636
4.640
4.631
4.634
4.644
4.640
4.631
4.637
4.638
4.643
4.649
4.649
4.649
4.646
4.645
4.651
4.663
4.653
4.657
4.656
4.652
4.653
4.663
4.662
4.653
4.649
4.649
4.653
4.663
4.667
4.664
4.664
4.663
4.657
4.658
4.670
4.675
4.675
4.674
4.681
4.675
4.673
4.675
4.689
4.691
4.686
4.685
4.673
4.664
4.673
4.677
4.679
4.679
4.671
4.672
4.668
4.671
4.681
4.674
4.679
4.672
4.675
4.677
4.678
4.672
4.684
4.696
4.692
4.690
4.687
4.690
4.686
4.690
4.684
4.693
4.690
4.691
4.687
4.691
4.690
4.685
4.687
4.690
4.701
4.710
4.708
4.705
4.706
4.710
4.709
4.705
4.703
4.704
4.714
4.716
4.716
4.716
4.717
4.716
4.711
4.701
4.701
4.710
4.720
4.727
4.722
4.720
4.717
4.712
4.705
4.697
4.695
4.702
4.698
4.697
4.694
4.690
4.694
4.693
4.690
4.690
4.690
4.701
4.694
4.690
4.684
4.690
4.684
4.685
4.682
4.688
4.686
4.688
4.698
4.699
4.697
4.701
4.700
4.696
4.698
4.693
4.695
4.694
4.689
4.696
4.701
4.712
4.716
4.708
4.709
4.702
4.701
4.702
4.700
4.696
4.697
4.693
4.695
4.707
4.716
4.707
4.714
4.707
4.697
4.696
4.694
4.694
4.690
4.694
4.694
4.691
4.703
4.712
4.720
4.721
4.716
4.713
4.712
4.713
4.711
4.712
4.708
4.708
4.711
4.710
4.708
4.712
4.722
4.731
4.731
4.734
4.728
4.720
4.719
4.723
4.720
4.727
4.722
4.720
4.711
4.702
4.709
4.720
4.728
4.734
4.736
4.734
4.733
4.731
4.731
4.735
4.733
4.726
4.723
4.726
4.723
4.727
4.728
4.729
4.727
4.737
4.744
4.754
4.755
4.751
4.745
4.742
4.747
4.751
4.750
4.748
4.742
4.735
4.736
4.734
4.731
4.731
4.736
4.742
4.750
4.754
4.750
4.749
4.747
4.748
4.742
4.735
4.730
4.724
4.720
4.718
4.723
4.727
4.720
4.718
4.725
4.734
4.741
4.746
4.741
4.742
4.745
4.740
4.736
4.734
4.728
4.729
4.727
4.720
4.717
4.718
4.719
4.721
4.717
4.718
4.723
4.732
4.741
4.748
4.753
4.749
4.749
4.753
4.752
4.749
4.752
4.751
4.749
4.742
4.738
4.732
4.731
4.729
4.731
4.731
4.731
4.729
4.727
4.734
4.741
4.749
4.757
4.762
4.761
4.764
4.769
4.764
4.761
4.764
4.764
4.759
4.758
4.756
4.750
4.749
4.753
4.749
4.749
4.745
4.749
4.745
4.741
4.746
4.744
4.753
4.760
4.767
4.775
4.776
4.783
4.781
4.779
4.779
4.788
4.784
4.782
4.773
4.774
4.771
4.763
4.764
4.769
4.767
4.768
4.770
4.768
4.764
4.761
4.754
4.755
4.756
4.761
4.770
4.775
4.784
4.788
4.789
4.785
4.784
4.779
4.776
4.774
4.775
4.768
4.762
4.761
4.765
4.763
4.764
4.763
4.757
4.752
4.748
4.749
4.746
4.749
4.751
4.750
4.753
4.760
4.768
4.774
4.781
4.788
4.790
4.785
4.781
4.782
4.781
4.779
4.778
4.782
4.781
4.777
4.771
4.774
4.771
4.771
4.770
4.771
4.773
4.779
4.776
4.777
4.771
4.771
4.770
4.769
4.773
4.771
4.768
4.768
4.775
4.782
4.787
4.794
4.801
4.808
4.808
4.805
4.808
4.807
4.800
4.804
4.805
4.801
4.803
4.802
4.806
4.807
4.809
4.807
4.812
4.816
4.809
4.802
4.798
4.790
4.794
4.790
4.782
4.775
4.784
4.786
4.789
4.790
4.786
4.783
4.789
4.794
4.801
4.807
4.814
4.820
4.816
4.812
4.808
4.804
4.800
4.797
4.794
4.790
4.786
4.782
4.782
4.785
4.782
4.775
4.770
4.763
4.760
4.761
4.760
4.760
4.760
4.760
4.757
4.757
4.759
4.760
4.760
4.758
4.764
4.771
4.778
4.782
4.789
4.794
4.798
4.794
4.790
4.786
4.781
4.777
4.771
4.768
4.767
4.775
4.773
4.768
4.768
4.764
4.765
4.766
4.768
4.771
4.767
4.764
4.760
4.761
4.760
4.766
4.770
4.769
4.770
4.769
4.765
4.763
4.759
4.758
4.754
4.757
4.756
4.760
4.765
4.772
4.776
4.782
4.789
4.782
4.781
4.779
4.781
4.783
4.781
4.775
4.771
4.769
4.775
4.782
4.782
4.788
4.786
4.783
4.782
4.785
4.782
4.777
4.775
4.775
4.778
4.775
4.778
4.779
4.775
4.772
4.775
4.771
4.768
4.771
4.767
4.768
4.767
4.761
4.759
4.763
4.765
4.768
4.775
4.777
4.773
4.769
4.771
4.777
4.782
4.790
4.795
4.793
4.787
4.783
4.786
4.780
4.779
4.782
4.782
4.779
4.778
4.777
4.776
4.771
4.768
4.768
4.765
4.768
4.764
4.766
4.765
4.763
4.767
4.772
4.776
4.772
4.775
4.769
4.764
4.764
4.762
4.761
4.760
4.766
4.764
4.761
4.759
4.757
4.759
4.760
4.759
4.761
4.759
4.757
4.764
4.760
4.760
4.764
4.770
4.775
4.781
4.786
4.790
4.796
4.801
4.804
4.805
4.804
4.801
4.799
4.798
4.794
4.790
4.791
4.794
4.794
4.797
4.791
4.794
4.794
4.795
4.790
4.784
4.779
4.776
4.771
4.765
4.761
4.762
4.763
4.760
4.763
4.760
4.760
4.760
4.761
4.760
4.760
4.765
4.763
4.760
4.764
4.770
4.777
4.778
4.772
4.768
4.772
4.773
4.771
4.770
4.769
4.767
4.769
4.764
4.760
4.762
4.768
4.773
4.777
4.781
4.786
4.790
4.796
4.801
4.797
4.803
4.801
4.800
4.797
4.800
4.805
4.801
4.807
4.806
4.807
4.805
4.802
4.801
4.801
4.797
4.794
4.790
4.790
4.792
4.797
4.803
4.807
4.806
4.805
4.801
4.797
4.795
4.791
4.790
4.785
4.781
4.775
4.775
4.771
4.768
4.774
4.776
4.779
4.779
4.779
4.778
4.772
