2.963
3.299
3.475
3.575
3.688
3.614
3.676
3.737
3.780
3.828
3.852
3.856
3.905
3.950
3.937
3.955
4.009
3.988
3.997
4.017
4.049
4.071
4.094
4.099
4.104
4.079
4.088
4.105
4.113
4.125
4.153
4.122
4.146
4.180
4.178
4.175
4.206
4.190
4.189
4.215
4.229
4.242
4.234
4.248
4.271
4.228
4.212
4.249
4.240
4.200
4.196
4.211
4.222
4.216
4.245
4.238
4.278
4.239
4.257
4.237
4.281
4.248
4.273
4.272
4.300
4.297
4.290
4.309
4.295
4.325
4.320
4.290
4.271
4.266
4.297
4.291
4.278
4.303
4.295
4.267
4.296
4.307
4.304
4.301
4.323
4.355
4.326
4.320
4.333
4.342
4.351
4.343
4.327
4.352
4.315
4.299
4.303
4.347
4.330
4.325
4.329
4.327
4.346
4.365
4.381
4.367
4.341
4.358
4.365
4.381
4.386
4.381
4.362
4.361
4.359
4.391
4.390
4.382
4.388
4.384
4.386
4.373
4.398
4.434
4.415
4.405
4.394
4.395
4.381
4.409
4.404
4.437
4.466
4.453
4.433
4.413
4.392
4.373
4.376
4.397
4.399
4.395
4.383
4.374
4.391
4.386
4.376
4.354
4.374
4.397
4.393
4.380
4.378
4.385
4.395
4.382
4.362
4.356
4.375
4.356
4.384
4.411
4.398
4.397
4.375
4.372
4.386
4.400
4.394
4.388
4.365
4.360
4.359
4.368
4.393
4.419
4.435
4.431
4.431
4.419
4.417
4.401
4.391
4.400
4.389
4.384
4.376
4.386
4.400
4.382
4.391
4.414
4.437
4.446
4.456
4.441
4.440
4.456
4.448
4.434
4.439
4.424
4.419
4.437
4.413
4.411
4.419
4.415
4.442
4.434
4.427
4.426
4.447
4.468
4.489
4.468
4.472
4.470
4.453
4.446
4.447
4.435
4.420
4.419
4.407
4.396
4.406
4.394
4.395
4.388
4.388
4.373
4.373
4.392
4.411
4.430
4.448
4.467
4.486
4.476
4.471
4.462
4.464
4.465
4.463
4.448
4.437
4.444
4.439
4.432
4.424
4.434
4.434
4.445
4.457
4.446
4.444
4.448
4.447
4.441
4.439
4.446
4.452
4.443
4.436
4.444
4.450
4.467
4.475
4.477
4.476
4.465
4.444
4.456
4.462
4.459
4.460
4.445
4.435
4.434
4.425
4.423
4.424
4.412
4.420
4.435
4.416
4.398
4.395
4.396
4.390
4.397
4.380
4.376
4.393
4.408
4.412
4.397
4.404
4.406
4.415
4.409
4.415
4.429
4.443
4.458
4.472
4.487
4.502
4.501
4.489
4.494
4.488
4.485
4.475
4.475
4.476
4.461
4.446
4.435
4.422
4.421
4.420
4.431
4.450
4.448
4.459
4.461
4.480
4.468
4.461
4.455
4.447
4.437
4.433
4.419
4.400
4.396
4.382
4.380
4.390
4.392
4.391
4.388
4.393
4.386
4.380
4.379
4.390
4.389
4.406
4.398
4.404
4.416
4.428
4.441
4.453
4.466
4.478
4.491
4.503
4.515
4.528
4.527
4.521
4.522
4.524
4.508
4.507
4.499
4.482
4.481
4.465
4.472
4.468
4.478
4.487
4.479
4.470
4.466
4.472
4.471
4.455
4.462
4.463
4.457
4.442
4.448
4.450
4.449
4.442
4.441
4.462
4.450
4.453
4.455
4.464
4.452
4.463
4.473
4.476
4.480
4.463
4.460
4.452
4.444
4.438
4.427
4.418
4.422
4.435
4.428
4.419
4.411
4.415
4.422
4.434
4.446
4.435
4.439
4.438
4.440
4.451
4.471
4.457
4.449
4.443
4.445
4.455
4.465
4.476
4.486
4.496
4.507
4.516
4.519
4.520
4.522
4.510
4.490
4.494
4.489
4.477
4.470
4.457
4.446
4.461
4.468
4.464
4.478
4.492
4.488
4.484
4.472
4.477
4.465
4.473
4.468
4.460
4.477
4.479
4.482
4.492
4.476
4.467
4.465
4.457
4.456
4.458
4.450
4.447
4.445
4.444
4.443
4.442
4.451
4.437
4.432
4.411
4.426
4.426
4.426
4.419
4.420
4.403
4.410
4.425
4.422
4.405
4.413
4.399
4.402
4.410
4.404
4.407
4.404
4.412
4.406
4.408
4.403
4.394
4.406
4.401
4.391
4.403
4.399
4.391
4.399
4.411
4.424
4.431
4.443
4.455
4.446
4.450
4.450
4.449
4.439
4.439
4.442
4.430
4.436
4.444
4.428
4.430
4.428
4.428
4.428
4.439
4.436
4.430
4.434
4.423
4.432
4.440
4.448
4.457
4.465
4.473
4.481
4.490
4.498
4.506
4.515
4.523
4.531
4.536
4.524
4.514
4.514
4.520
4.513
4.499
4.503
4.510
4.521
4.528
4.528
4.523
4.519
4.509
4.502
4.501
4.491
4.486
4.489
4.499
4.500
4.498
4.495
4.486
4.482
4.475
4.476
4.479
4.467
4.480
4.484
4.489
4.502
4.502
4.514
4.507
4.504
4.489
4.484
4.488
4.487
4.492
4.503
4.510
4.502
4.494
4.483
4.480
4.472
4.479
4.481
4.489
4.486
4.481
4.488
4.499
4.503
4.506
4.517
4.505
4.505
4.502
4.488
4.471
4.478
4.476
4.473
4.483
4.492
4.485
4.476
4.465
4.460
4.465
4.478
4.480
4.483
4.478
4.463
4.462
4.457
4.462
4.455
4.446
4.445
4.446
4.444
4.438
4.443
4.436
4.428
4.421
4.414
4.414
4.417
4.419
4.420
4.429
4.431
4.430
4.425
4.421
4.431
4.430
4.425
4.416
4.419
4.416
4.417
4.429
4.440
4.440
4.436
4.433
4.421
4.421
4.413
4.416
4.416
4.414
4.419
4.405
4.406
4.398
4.389
4.385
4.386
4.398
4.399
4.409
4.397
4.404
4.389
4.390
4.384
4.389
4.383
4.389
4.380
4.379
4.382
4.376
4.379
4.369
4.376
4.371
4.371
4.371
4.366
4.375
4.369
4.364
4.376
4.372
4.382
4.389
4.381
4.383
4.390
4.396
4.402
4.408
4.415
4.421
4.427
4.433
4.439
4.446
4.452
4.458
4.464
4.470
4.477
4.483
4.489
4.495
4.501
4.508
4.514
4.520
4.526
4.533
4.539
4.545
4.551
4.557
4.564
4.570
4.576
4.582
4.588
4.595
4.601
4.593
4.595
4.591
4.579
4.567
4.561
4.563
4.563
4.565
4.564
4.563
4.559
4.548
4.543
4.539
4.539
4.529
4.528
4.527
4.531
4.520
4.518
4.513
4.514
4.511
4.507
4.501
4.510
4.508
4.517
4.515
4.513
4.506
4.520
4.518
4.516
4.526
4.528
4.526
4.529
4.530
4.526
4.529
4.520
4.520
4.521
4.514
4.506
4.497
4.509
4.513
4.506
4.515
4.503
4.513
4.521
4.517
4.518
4.513
4.519
4.511
4.512
4.524
4.523
4.526
4.534
4.522
4.523
4.518
4.509
4.512
4.504
4.501
4.497
4.493
4.497
4.497
4.500
4.489
4.493
4.500
4.493
4.487
4.482
4.486
4.478
4.479
4.477
4.473
4.462
4.454
4.450
4.463
4.470
4.464
4.460
4.456
4.456
4.459
4.452
4.446
4.452
4.456
4.465
4.461
4.452
4.452
4.446
4.449
4.452
4.445
4.439
4.433
4.427
4.421
4.418
4.409
4.402
4.399
4.392
4.399
4.409
4.410
4.405
4.398
4.393
4.396
4.397
4.404
4.403
4.405
4.411
4.404
4.402
4.405
4.402
4.399
4.409
4.399
4.406
4.399
4.395
4.393
4.402
4.398
4.401
4.399
4.403
4.408
4.409
4.408
4.400
4.404
4.413
4.422
4.426
4.433
4.440
4.447
4.455
4.461
4.468
4.467
4.462
4.453
4.451
4.458
4.456
4.446
4.445
4.454
4.464
4.460
4.449
4.447
4.448
4.446
4.435
4.435
4.445
4.447
4.452
4.456
4.464
4.467
4.470
4.471
4.462
4.456
4.455
4.452
4.452
4.446
4.436
4.428
4.435
4.437
4.434
4.442
4.430
4.432
4.441
4.435
4.446
4.439
4.432
4.436
4.430
4.424
4.428
4.419
4.430
4.431
4.425
4.427
4.425
4.433
4.426
4.423
4.419
4.415
4.419
4.413
4.411
4.418
4.419
4.424
4.427
4.431
4.428
4.438
4.430
4.437
4.427
4.427
4.423
4.420
4.414
4.415
4.419
4.420
4.423
4.415
4.415
4.411
4.420
4.422
4.418
4.415
4.409
4.411
4.416
4.422
4.416
4.424
4.415
4.409
4.411
4.408
4.400
