2.992
3.334
3.513
3.633
3.720
3.779
3.837
3.872
3.938
3.942
3.990
4.034
4.004
4.036
4.067
4.093
4.117
4.140
4.168
4.190
4.193
4.146
4.134
4.143
4.153
4.171
4.179
4.182
4.201
4.205
4.219
4.228
4.235
4.249
4.249
4.258
4.270
4.275
4.276
4.288
4.295
4.302
4.303
4.310
4.320
4.326
4.338
4.327
4.339
4.345
4.353
4.359
4.366
4.364
4.364
4.368
4.374
4.381
4.386
4.392
4.402
4.408
4.408
4.401
4.404
4.406
4.412
4.420
4.424
4.428
4.431
4.439
4.443
4.445
4.445
4.455
4.449
4.439
4.445
4.444
4.449
4.455
4.460
4.464
4.460
4.471
4.470
4.475
4.481
4.485
4.492
4.490
4.492
4.490
4.503
4.504
4.516
4.512
4.514
4.496
4.490
4.490
4.495
4.496
4.501
4.507
4.514
4.508
4.517
4.524
4.514
4.518
4.522
4.524
4.525
4.527
4.538
4.542
4.534
4.538
4.544
4.549
4.544
4.543
4.547
4.549
4.545
4.554
4.560
4.565
4.571
4.573
4.572
4.568
4.574
4.582
4.583
4.587
4.580
4.578
4.586
4.581
4.580
4.568
4.555
4.559
4.557
4.564
4.563
4.565
4.569
4.578
4.574
4.571
4.579
4.573
4.577
4.586
4.586
4.590
4.586
4.581
4.585
4.578
4.585
4.584
4.583
4.592
4.586
4.594
4.591
4.598
4.593
4.603
4.601
4.606
4.605
4.617
4.607
4.609
4.604
4.606
4.612
4.619
4.618
4.619
4.629
4.620
4.631
4.625
4.618
4.611
4.619
4.620
4.624
4.620
4.616
4.623
4.621
4.630
4.627
4.625
4.632
4.623
4.632
4.639
4.638
4.642
4.648
4.645
4.649
4.647
4.648
4.657
4.656
4.645
4.648
4.650
4.653
4.660
4.659
4.657
4.665
4.661
4.659
4.668
4.671
4.668
4.665
4.679
4.675
4.666
4.678
4.668
4.657
4.668
4.670
4.669
4.670
4.680
4.671
4.661
4.678
4.674
4.664
4.668
4.673
4.675
4.671
4.677
4.681
4.679
4.679
4.680
4.695
4.690
4.687
4.683
4.697
4.696
4.694
4.694
4.698
4.705
4.697
4.697
4.698
4.699
4.692
4.685
4.679
4.672
4.665
4.668
4.671
4.661
4.656
4.660
4.671
4.672
4.670
4.666
4.665
4.679
4.678
4.680
4.673
4.674
4.678
4.671
4.673
4.675
4.675
4.683
4.682
4.682
4.676
4.677
4.681
4.693
4.692
4.693
4.697
4.694
4.690
4.697
4.701
4.696
4.687
4.680
4.679
4.682
4.678
4.680
4.678
4.683
4.686
4.679
4.684
4.679
4.670
4.675
4.684
4.680
4.681
4.679
4.673
4.680
4.681
4.680
4.676
4.677
4.675
4.677
4.687
4.693
4.689
4.683
4.692
4.686
4.686
4.693
4.705
4.697
4.694
4.697
4.692
4.699
4.692
4.704
4.701
4.699
4.694
4.691
4.687
4.690
4.701
4.712
4.705
4.705
4.700
4.701
4.701
4.696
4.705
4.713
4.719
4.716
4.712
4.715
4.711
4.718
4.712
4.718
4.727
4.724
4.725
4.729
4.720
4.713
4.705
4.712
4.723
4.723
4.714
4.712
4.716
4.715
4.708
4.707
4.717
4.718
4.717
4.715
4.709
4.712
4.712
4.710
4.712
4.715
4.725
4.731
4.730
4.723
4.725
4.726
4.730
4.721
4.722
4.721
4.731
4.742
4.736
4.724
4.723
4.723
4.727
4.724
4.723
4.726
4.731
4.740
4.745
4.745
4.742
4.740
4.741
4.742
4.739
4.740
4.741
4.743
4.745
4.756
4.755
4.756
4.752
4.751
4.745
4.748
4.749
4.746
4.752
4.745
4.753
4.757
4.755
4.759
4.753
4.756
4.757
4.753
4.747
4.742
4.736
4.735
4.731
4.737
4.741
4.740
4.734
4.727
4.725
4.729
4.728
4.724
4.733
4.742
4.747
4.745
4.738
4.731
4.725
4.718
4.717
4.718
4.716
4.713
4.722
4.731
4.739
4.745
4.741
4.732
4.738
4.734
4.733
4.727
4.731
4.732
4.727
4.723
4.727
4.735
4.742
4.746
4.752
4.751
4.752
4.754
4.752
4.749
4.745
4.738
4.734
4.731
4.736
4.738
4.738
4.746
4.752
4.749
4.752
4.745
4.750
4.748
4.745
4.743
4.739
4.737
4.736
4.734
4.728
4.734
4.741
4.746
4.749
4.756
4.752
4.751
4.745
4.748
4.744
4.751
4.752
4.743
4.747
4.748
4.742
4.742
4.741
4.748
4.755
4.764
4.764
4.764
4.763
4.765
4.768
4.765
4.766
4.768
4.766
4.759
4.753
4.753
4.753
4.748
4.750
4.751
4.760
4.767
4.771
4.767
4.764
4.760
4.758
4.762
4.758
4.757
4.763
4.759
4.761
4.756
4.753
4.756
4.755
4.754
4.755
4.762
4.769
4.776
4.777
4.784
4.785
4.779
4.780
4.781
4.785
4.779
4.779
4.776
4.780
4.776
4.775
4.779
4.780
4.779
4.772
4.770
4.769
4.776
4.785
4.790
4.794
4.787
4.782
4.786
4.786
4.790
4.790
4.789
4.790
4.782
4.783
4.778
4.771
4.770
4.766
4.767
4.769
4.768
4.771
4.778
4.780
4.778
4.777
4.773
4.775
4.775
4.777
4.771
4.772
4.770
4.771
4.776
4.775
4.773
4.772
4.771
4.769
4.765
4.760
4.762
4.763
4.770
4.777
4.775
4.774
4.775
4.777
4.776
4.780
4.779
4.774
4.768
4.768
4.773
4.771
4.770
4.769
4.767
4.771
4.767
4.772
4.771
4.772
4.773
4.780
4.771
4.771
4.778
4.785
4.790
4.790
4.787
4.790
4.786
4.783
4.782
4.785
4.784
4.791
4.782
4.780
4.776
4.774
4.776
4.777
4.779
4.780
4.775
4.775
4.773
4.775
4.773
4.774
4.776
4.779
4.786
4.793
4.798
4.804
4.808
4.807
4.809
4.802
4.805
4.799
4.797
4.794
4.794
4.793
4.795
4.796
4.795
4.793
4.800
4.801
4.794
4.794
4.794
4.797
4.795
4.793
4.795
4.794
4.794
4.794
4.792
4.797
4.803
4.810
4.816
4.821
4.817
4.818
4.817
4.824
4.820
4.826
4.819
4.815
4.811
4.810
4.805
4.802
4.806
4.810
4.808
4.808
4.809
4.810
4.805
4.799
4.801
4.807
4.803
4.802
4.801
4.799
4.797
4.801
4.805
4.808
4.816
4.813
4.809
4.812
4.814
4.808
4.811
4.805
4.800
4.796
4.798
4.804
4.803
4.807
4.812
4.810
4.808
4.805
4.809
4.805
4.801
4.799
4.797
4.794
4.795
4.791
4.792
4.794
4.789
4.794
4.794
4.793
4.798
4.805
4.811
4.816
4.822
4.827
4.831
4.829
4.827
4.827
4.823
4.824
4.825
4.831
4.828
4.823
4.820
4.821
4.819
4.816
4.817
4.819
4.817
4.823
4.820
4.818
4.823
4.823
4.822
4.823
4.817
4.818
4.817
4.816
4.820
4.818
4.820
4.824
4.820
4.818
4.816
4.815
4.822
4.827
4.833
4.837
4.842
4.848
4.853
4.857
4.853
4.851
4.852
4.851
4.855
4.853
4.852
4.846
4.841
4.838
4.838
4.840
4.842
4.840
4.839
4.834
4.828
4.826
4.825
4.829
4.830
4.831
4.831
4.829
4.827
4.826
4.825
4.831
4.836
4.829
4.825
4.826
4.823
4.819
4.819
4.824
4.830
4.835
4.831
4.829
4.827
4.824
4.819
4.815
4.817
4.815
4.809
4.813
4.812
4.815
4.812
4.812
4.812
4.815
4.819
4.813
4.812
4.808
4.808
4.807
4.808
4.807
4.811
4.813
4.809
4.808
4.811
4.807
4.805
4.805
4.806
4.805
4.803
4.804
4.806
4.802
4.798
4.801
4.806
4.812
4.814
4.815
4.819
4.824
4.827
4.826
4.825
4.824
4.820
4.818
4.819
4.819
4.812
4.816
4.820
4.821
4.819
4.815
4.814
4.818
4.816
4.818
4.817
4.816
4.811
4.805
4.801
4.802
4.800
4.797
4.798
4.804
4.806
4.808
4.806
4.805
4.800
4.805
4.801
4.797
4.792
4.793
4.792
4.793
4.790
4.791
4.792
4.794
4.800
4.804
4.808
4.813
4.817
4.823
4.828
4.827
4.828
4.824
4.823
4.824
4.820
4.823
4.820
4.824
4.825
4.823
4.827
4.826
4.830
4.834
4.836
4.832
4.828
