2.978
3.326
3.473
3.607
3.647
3.752
3.804
3.740
3.788
3.827
3.849
3.887
3.929
3.945
3.960
3.983
4.023
4.011
4.049
4.063
4.054
4.076
4.088
4.110
4.139
4.146
4.113
4.139
4.151
4.170
4.180
4.169
4.203
4.215
4.212
4.225
4.239
4.204
4.208
4.234
4.218
4.216
4.245
4.236
4.260
4.267
4.278
4.268
4.260
4.284
4.284
4.292
4.290
4.301
4.311
4.325
4.344
4.329
4.316
4.331
4.342
4.337
4.343
4.362
4.361
4.361
4.376
4.377
4.366
4.339
4.345
4.342
4.348
4.363
4.352
4.348
4.336
4.325
4.338
4.350
4.339
4.365
4.354
4.354
4.357
4.376
4.368
4.363
4.395
4.376
4.388
4.384
4.362
4.389
4.385
4.375
4.396
4.385
4.385
4.422
4.417
4.402
4.418
4.438
4.426
4.410
4.432
4.427
4.427
4.429
4.410
4.401
4.397
4.406
4.402
4.400
4.398
4.420
4.419
4.399
4.403
4.418
4.411
4.413
4.394
4.404
4.439
4.439
4.427
4.430
4.420
4.440
4.445
4.442
4.437
4.437
4.435
4.461
4.461
4.462
4.452
4.450
4.442
4.465
4.496
4.476
4.458
4.435
4.429
4.455
4.449
4.459
4.450
4.451
4.441
4.435
4.457
4.470
4.472
4.467
4.480
4.458
4.447
4.449
4.468
4.495
4.508
4.486
4.492
4.482
4.502
4.484
4.473
4.485
4.511
4.510
4.500
4.495
4.474
4.461
4.484
4.465
4.478
4.502
4.515
4.512
4.502
4.516
4.517
4.504
4.495
4.492
4.505
4.506
4.518
4.539
4.539
4.531
4.529
4.517
4.520
4.528
4.523
4.525
4.516
4.505
4.526
4.548
4.554
4.541
4.528
4.515
4.508
4.513
4.508
4.513
4.497
4.484
4.504
4.510
4.493
4.500
4.489
4.501
4.492
4.502
4.497
4.497
4.507
4.492
4.475
4.473
4.497
4.509
4.524
4.506
4.498
4.494
4.485
4.483
4.486
4.483
4.491
4.487
4.491
4.497
4.488
4.477
4.475
4.493
4.511
4.529
4.526
4.515
4.528
4.512
4.507
4.512
4.501
4.485
4.486
4.472
4.479
4.477
4.492
4.485
4.497
4.493
4.493
4.503
4.519
4.536
4.546
4.526
4.507
4.508
4.513
4.516
4.521
4.522
4.519
4.511
4.511
4.504
4.509
4.504
4.495
4.495
4.496
4.489
4.482
4.497
4.508
4.523
4.538
4.554
4.563
4.557
4.560
4.551
4.543
4.543
4.531
4.539
4.539
4.537
4.522
4.507
4.526
4.537
4.530
4.518
4.522
4.535
4.534
4.520
4.511
4.514
4.498
4.510
4.524
4.538
4.552
4.566
4.580
4.591
4.586
4.580
4.581
4.598
4.592
4.589
4.585
4.584
4.585
4.578
4.570
4.552
4.555
4.555
4.539
4.527
4.545
4.542
4.543
4.541
4.551
4.545
4.538
4.524
4.524
4.518
4.520
4.533
4.546
4.558
4.564
4.552
4.553
4.560
4.570
4.580
4.570
4.558
4.551
4.543
4.533
4.536
4.546
4.542
4.549
4.547
4.539
4.537
4.530
4.531
4.535
4.532
4.531
4.524
4.519
4.527
4.529
4.528
4.524
4.510
4.491
4.500
4.492
4.498
4.510
4.523
4.531
4.538
4.549
4.561
4.572
4.584
4.595
4.606
4.612
4.619
4.619
4.609
4.607
4.608
4.612
4.611
4.607
4.605
4.599
4.588
4.589
4.597
4.589
4.589
4.588
4.593
4.587
4.590
4.592
4.584
4.576
4.572
4.563
4.556
4.545
4.535
4.527
4.541
4.531
4.529
4.532
4.532
4.528
4.517
4.504
4.491
4.493
4.501
4.512
4.522
4.532
4.542
4.552
4.563
4.573
4.583
4.593
4.584
4.572
4.561
4.568
4.576
4.562
4.569
4.581
4.572
4.573
4.578
4.567
4.557
4.557
4.572
4.554
4.555
4.550
4.554
4.554
4.551
4.541
4.542
4.552
4.564
4.566
4.560
4.566
4.562
4.574
4.564
4.563
4.560
4.565
4.560
4.560
4.556
4.544
4.542
4.536
4.531
4.538
4.539
4.537
4.533
4.530
4.540
4.531
4.541
4.527
4.516
4.522
4.521
4.520
4.535
4.533
4.537
4.536
4.545
4.554
4.562
4.571
4.580
4.589
4.598
4.601
4.606
4.603
4.607
4.602
4.595
4.590
4.595
4.593
4.601
4.602
4.596
4.600
4.603
4.592
4.580
4.568
4.558
4.554
4.562
4.555
4.545
4.544
4.550
4.563
4.573
4.562
4.567
4.574
4.575
4.567
4.559
4.557
4.547
4.554
4.556
4.556
4.558
4.560
4.566
4.572
4.559
4.551
4.547
4.554
4.558
4.554
4.550
4.545
4.551
4.546
4.550
4.545
4.540
4.540
4.540
4.546
4.539
4.535
4.523
4.516
4.515
4.509
4.518
4.521
4.513
4.512
4.503
4.505
4.503
4.512
4.511
4.514
4.514
4.517
4.527
4.538
4.549
4.551
4.552
4.560
4.567
4.575
4.582
4.590
4.598
4.605
4.613
4.621
4.628
4.636
4.637
4.639
4.633
4.639
4.634
4.627
4.627
4.623
4.616
4.612
4.612
4.605
4.613
4.619
4.610
4.607
4.615
4.619
4.618
4.622
4.628
4.626
4.617
4.607
4.605
4.604
4.594
4.586
4.575
4.585
4.589
4.589
4.585
4.582
4.587
4.591
4.592
4.596
4.584
4.582
4.573
4.571
4.568
4.570
4.565
4.566
4.574
4.577
4.578
4.585
4.597
4.587
4.582
4.586
4.582
4.578
4.588
4.598
4.603
4.599
4.602
4.611
4.595
4.590
4.585
4.583
4.582
4.587
4.581
4.573
4.566
4.558
4.564
4.559
4.550
4.549
4.550
4.552
4.554
4.551
4.548
4.554
4.542
4.539
4.550
4.548
4.558
4.560
4.559
4.556
4.550
4.547
4.541
4.535
4.529
4.526
4.532
4.521
4.522
4.518
4.513
4.513
4.518
4.525
4.531
4.537
4.544
4.550
4.556
4.563
4.569
4.576
4.582
4.588
4.595
4.601
4.607
4.614
4.611
4.609
4.615
4.605
4.608
4.603
4.608
4.612
4.607
4.601
4.595
4.590
4.593
4.586
4.591
4.589
4.593
4.583
4.575
4.577
4.581
4.586
4.595
4.604
4.598
4.598
4.594
4.593
4.592
4.598
4.604
4.600
4.597
4.593
4.599
4.603
4.594
4.596
4.592
4.587
4.597
4.602
4.601
4.606
4.591
4.590
4.599
4.594
4.600
4.591
4.588
4.580
4.577
4.580
4.570
4.577
4.572
4.572
4.563
4.572
4.567
4.565
4.566
4.572
4.562
4.577
4.560
4.567
4.563
4.567
4.569
4.562
4.559
4.553
4.546
4.541
4.550
4.543
4.545
4.552
4.547
4.557
4.549
4.547
4.547
4.538
4.538
4.541
4.538
4.548
4.545
4.546
4.552
4.550
4.546
4.539
4.549
4.541
4.546
4.542
4.537
4.547
4.545
4.544
4.540
4.540
4.547
4.543
4.543
4.539
4.548
4.545
4.538
4.531
4.540
4.539
4.541
4.549
4.552
4.554
4.549
4.558
4.560
4.552
4.556
4.564
4.571
4.574
4.579
4.577
4.568
4.560
4.561
4.558
4.559
4.555
4.558
4.560
4.558
4.555
4.551
4.545
4.538
4.531
4.525
4.527
4.532
4.538
4.533
4.524
4.530
4.520
4.514
4.519
4.522
4.525
4.517
4.512
4.511
4.511
4.516
4.515
4.521
4.526
4.531
4.536
4.541
4.546
4.551
4.556
4.561
4.566
4.572
4.577
4.582
4.587
4.592
4.597
4.602
4.607
4.612
4.617
4.622
4.627
4.633
4.638
4.643
4.648
4.644
4.638
4.640
4.640
4.636
4.639
4.643
4.651
4.658
4.664
4.666
4.653
4.650
4.645
4.641
4.642
4.638
4.634
4.631
4.634
4.638
4.643
4.637
4.644
4.641
4.627
4.626
4.634
4.629
4.627
4.628
4.633
4.630
4.626
4.628
4.625
4.628
4.624
4.624
4.627
4.630
4.625
4.621
4.619
4.616
4.618
4.623
4.626
4.630
4.634
4.633
4.629
4.631
4.622
4.622
4.615
4.621
4.619
4.623
4.627
4.626
4.627
4.627
4.616
4.612
4.612
4.609
4.601
4.597
4.587
4.592
4.598
4.593
4.596
4.590
4.590
4.582
4.580
4.580
4.582
4.586
4.592
4.600
4.596
4.597
4.603
4.599
4.594
4.589
