2.985
3.333
3.503
3.624
3.681
3.756
3.832
3.850
3.884
3.932
3.986
4.021
4.030
3.959
3.991
4.008
4.030
4.050
4.061
4.086
4.097
4.099
4.126
4.139
4.140
4.161
4.170
4.172
4.187
4.198
4.197
4.206
4.219
4.234
4.245
4.246
4.243
4.255
4.262
4.280
4.281
4.295
4.305
4.283
4.294
4.300
4.316
4.310
4.324
4.332
4.340
4.339
4.357
4.358
4.370
4.359
4.340
4.351
4.349
4.361
4.371
4.359
4.368
4.383
4.387
4.393
4.402
4.398
4.395
4.409
4.416
4.415
4.422
4.426
4.432
4.444
4.439
4.434
4.447
4.442
4.419
4.425
4.430
4.428
4.427
4.433
4.446
4.449
4.427
4.440
4.436
4.444
4.447
4.458
4.453
4.461
4.477
4.455
4.470
4.467
4.476
4.487
4.487
4.487
4.476
4.482
4.478
4.482
4.482
4.488
4.488
4.501
4.500
4.506
4.506
4.509
4.512
4.504
4.516
4.510
4.526
4.522
4.530
4.528
4.540
4.532
4.550
4.529
4.533
4.528
4.529
4.523
4.531
4.527
4.544
4.542
4.545
4.550
4.542
4.564
4.567
4.557
4.570
4.567
4.571
4.571
4.568
4.574
4.568
4.556
4.543
4.536
4.536
4.532
4.541
4.530
4.527
4.547
4.540
4.537
4.555
4.560
4.553
4.551
4.566
4.558
4.559
4.565
4.548
4.540
4.552
4.547
4.545
4.546
4.540
4.538
4.529
4.553
4.548
4.538
4.543
4.559
4.566
4.551
4.550
4.559
4.570
4.563
4.557
4.554
4.569
4.569
4.565
4.560
4.569
4.578
4.577
4.580
4.574
4.578
4.598
4.588
4.590
4.583
4.582
4.580
4.579
4.570
4.571
4.581
4.583
4.581
4.587
4.578
4.575
4.596
4.598
4.605
4.592
4.592
4.584
4.599
4.603
4.599
4.598
4.594
4.595
4.606
4.622
4.621
4.617
4.617
4.614
4.602
4.621
4.634
4.627
4.617
4.616
4.619
4.613
4.629
4.631
4.633
4.627
4.621
4.612
4.611
4.612
4.606
4.606
4.599
4.594
4.601
4.604
4.607
4.602
4.597
4.593
4.592
4.592
4.592
4.608
4.621
4.617
4.620
4.617
4.612
4.607
4.598
4.603
4.619
4.619
4.622
4.622
4.615
4.616
4.607
4.592
4.606
4.619
4.621
4.625
4.622
4.617
4.609
4.607
4.613
4.604
4.616
4.631
4.639
4.639
4.636
4.631
4.628
4.624
4.622
4.621
4.621
4.630
4.639
4.638
4.635
4.635
4.627
4.636
4.634
4.626
4.627
4.622
4.632
4.647
4.662
4.666
4.668
4.661
4.651
4.650
4.650
4.646
4.645
4.640
4.637
4.652
4.666
4.669
4.668
4.660
4.658
4.654
4.653
4.647
4.648
4.640
4.630
4.643
4.657
4.653
4.657
4.650
4.646
4.643
4.640
4.633
4.626
4.623
4.624
4.623
4.636
4.649
4.661
4.663
4.663
4.661
4.664
4.662
4.653
4.645
4.633
4.637
4.642
4.644
4.633
4.640
4.653
4.665
4.671
4.673
4.669
4.672
4.679
4.675
4.666
4.659
4.654
4.652
4.655
4.655
4.653
4.648
4.660
4.665
4.677
4.689
4.699
4.691
4.695
4.691
4.677
4.683
4.678
4.679
4.683
4.681
4.688
4.676
4.674
4.676
4.670
4.670
4.682
4.692
4.693
4.697
4.706
4.698
4.688
4.678
4.675
4.668
4.670
4.667
4.660
4.665
4.665
4.664
4.668
4.657
4.668
4.679
4.690
4.698
4.700
4.695
4.693
4.697
4.693
4.694
4.697
4.695
4.685
4.693
4.693
4.688
4.685
4.688
4.682
4.680
4.683
4.684
4.690
4.688
4.698
4.709
4.720
4.730
4.738
4.742
4.734
4.731
4.724
4.711
4.709
4.713
4.705
4.709
4.716
4.708
4.706
4.705
4.699
4.698
4.699
4.700
4.697
4.694
4.704
4.714
4.723
4.731
4.722
4.722
4.718
4.713
4.707
4.701
4.695
4.690
4.684
4.678
4.679
4.678
4.675
4.674
4.681
4.682
4.680
4.678
4.684
4.687
4.683
4.693
4.699
4.700
4.699
4.699
4.697
4.692
4.688
4.689
4.685
4.684
4.688
4.695
4.687
4.680
4.678
4.679
4.677
4.671
4.669
4.668
4.658
4.659
4.662
4.656
4.660
4.665
4.674
4.683
4.691
4.701
4.709
4.718
4.714
4.710
4.709
4.709
4.707
4.707
4.697
4.696
4.701
4.701
4.700
4.693
4.693
4.692
4.688
4.694
4.697
4.690
4.682
4.675
4.667
4.668
4.664
4.663
4.656
4.660
4.668
4.676
4.685
4.693
4.702
4.706
4.702
4.695
4.688
4.692
4.691
4.698
4.698
4.694
4.701
4.697
4.694
4.698
4.698
4.700
4.704
4.701
4.697
4.696
4.692
4.691
4.689
4.682
4.681
4.681
4.680
4.678
4.684
4.677
4.673
4.682
4.678
4.675
4.676
4.684
4.692
4.700
4.708
4.704
4.705
4.707
4.703
4.703
4.701
4.707
4.701
4.704
4.708
4.707
4.703
4.693
4.692
4.690
4.698
4.695
4.690
4.693
4.694
4.690
4.690
4.685
4.683
4.688
4.682
4.680
4.688
4.684
4.687
4.696
4.694
4.687
4.683
4.684
4.680
4.672
4.674
4.682
4.689
4.696
4.704
4.705
4.715
4.725
4.717
4.711
4.717
4.713
4.713
4.716
4.718
4.718
4.713
4.711
4.710
4.709
4.715
4.712
4.703
4.700
4.704
4.699
4.706
4.703
4.697
4.696
4.692
4.693
4.691
4.693
4.703
4.701
4.703
4.707
4.699
4.704
4.705
4.698
4.696
4.695
4.698
4.698
4.692
4.692
4.685
4.681
4.682
4.689
4.696
4.703
4.710
4.717
4.723
4.730
4.733
4.734
4.730
4.724
4.724
4.726
4.734
4.732
4.728
4.728
4.738
4.737
4.743
4.746
4.740
4.734
4.731
4.729
4.725
4.717
4.719
4.720
4.715
4.720
4.722
4.721
4.712
4.717
4.709
4.709
4.707
4.708
4.711
4.707
4.705
4.708
4.710
4.709
4.714
4.713
4.711
4.715
4.707
4.704
4.713
4.716
4.713
4.712
4.711
4.706
4.704
4.707
4.709
4.711
4.714
4.720
4.727
4.733
4.739
4.745
4.752
4.758
4.764
4.761
4.760
4.768
4.768
4.766
4.765
4.768
4.767
4.769
4.768
4.763
4.758
4.758
4.755
4.756
4.757
4.754
4.750
4.745
4.744
4.746
4.752
4.752
4.748
4.750
4.753
4.753
4.747
4.741
4.741
4.741
4.748
4.754
4.753
4.751
4.747
4.743
4.741
4.736
4.728
4.727
4.724
4.721
4.714
4.712
4.715
4.721
4.724
4.716
4.713
4.717
4.721
4.726
4.724
4.722
4.718
4.713
4.707
4.709
4.715
4.720
4.726
4.732
4.738
4.739
4.741
4.742
4.747
4.755
4.756
4.755
4.755
4.749
4.753
4.748
4.748
4.749
4.749
4.745
4.743
4.748
4.744
4.742
4.738
4.735
4.730
4.725
4.731
4.723
4.721
4.730
4.729
4.719
4.709
4.711
4.711
4.714
4.712
4.722
4.715
4.719
4.727
4.729
4.721
4.713
4.715
4.712
4.713
4.715
4.712
4.710
4.712
4.719
4.723
4.723
4.718
4.716
4.714
4.714
4.709
4.715
4.712
4.717
4.719
4.720
4.720
4.710
4.705
4.701
4.699
4.693
4.691
4.693
4.697
4.694
4.696
4.698
4.700
4.702
4.707
4.712
4.718
4.723
4.728
4.734
4.739
4.744
4.749
4.754
4.760
4.765
4.770
4.771
4.767
4.767
4.766
4.768
4.767
4.770
4.778
4.767
4.765
4.762
4.753
4.755
4.756
4.751
4.752
4.756
4.748
4.748
4.755
4.762
4.762
4.758
4.764
4.766
4.767
4.766
4.767
4.765
4.763
4.756
4.753
4.757
4.758
4.757
4.758
4.750
4.747
4.756
4.759
4.758
4.764
4.758
4.758
4.757
4.762
4.760
4.759
4.759
4.756
4.752
4.752
4.753
4.753
4.752
4.748
4.744
4.743
4.744
4.741
4.741
4.736
4.742
4.751
4.750
4.745
4.745
4.741
4.740
4.737
4.733
4.730
4.726
4.723
4.719
4.715
4.721
4.723
4.721
4.721
4.716
4.719
4.718
4.717
4.725
4.726
4.728
4.729
4.722
4.720
4.724
4.729
4.734
4.739
4.744
4.748
