2.994
3.332
3.516
3.636
3.720
3.796
3.833
3.880
3.942
3.963
4.011
4.004
4.044
4.078
4.099
4.073
4.103
4.125
4.147
4.165
4.186
4.207
4.225
4.239
4.260
4.228
4.191
4.190
4.199
4.215
4.221
4.232
4.238
4.250
4.252
4.264
4.265
4.277
4.285
4.288
4.298
4.307
4.315
4.314
4.325
4.332
4.339
4.335
4.342
4.351
4.359
4.366
4.358
4.366
4.370
4.381
4.384
4.393
4.386
4.388
4.399
4.399
4.408
4.412
4.418
4.426
4.427
4.417
4.425
4.429
4.430
4.437
4.440
4.445
4.449
4.453
4.460
4.462
4.457
4.453
4.462
4.466
4.465
4.469
4.474
4.478
4.479
4.484
4.484
4.492
4.498
4.503
4.498
4.502
4.506
4.508
4.493
4.497
4.501
4.499
4.503
4.507
4.510
4.516
4.515
4.522
4.521
4.524
4.523
4.529
4.531
4.541
4.540
4.546
4.547
4.544
4.545
4.552
4.550
4.555
4.562
4.565
4.566
4.565
4.550
4.547
4.540
4.546
4.553
4.551
4.555
4.557
4.558
4.558
4.567
4.563
4.567
4.570
4.575
4.573
4.573
4.576
4.573
4.577
4.580
4.579
4.581
4.588
4.592
4.593
4.594
4.598
4.599
4.603
4.599
4.598
4.599
4.607
4.605
4.601
4.602
4.612
4.614
4.610
4.619
4.626
4.621
4.623
4.622
4.628
4.629
4.639
4.633
4.636
4.630
4.634
4.630
4.636
4.633
4.625
4.613
4.603
4.608
4.609
4.611
4.614
4.614
4.623
4.614
4.618
4.621
4.625
4.627
4.625
4.629
4.628
4.633
4.626
4.636
4.632
4.641
4.640
4.641
4.629
4.635
4.634
4.638
4.631
4.641
4.629
4.638
4.637
4.644
4.642
4.643
4.645
4.644
4.651
4.647
4.653
4.654
4.650
4.660
4.655
4.662
4.669
4.657
4.662
4.658
4.661
4.657
4.659
4.673
4.667
4.668
4.677
4.676
4.677
4.677
4.678
4.670
4.662
4.670
4.669
4.665
4.673
4.679
4.675
4.674
4.673
4.670
4.678
4.677
4.677
4.681
4.683
4.679
4.680
4.681
4.684
4.682
4.694
4.688
4.691
4.693
4.700
4.698
4.699
4.701
4.700
4.696
4.700
4.706
4.695
4.693
4.700
4.701
4.702
4.701
4.711
4.710
4.708
4.707
4.716
4.710
4.711
4.712
4.725
4.718
4.716
4.715
4.727
4.725
4.724
4.717
4.714
4.706
4.710
4.715
4.714
4.718
4.714
4.718
4.729
4.728
4.718
4.712
4.722
4.725
4.718
4.714
4.719
4.723
4.722
4.718
4.725
4.728
4.732
4.728
4.727
4.725
4.732
4.744
4.741
4.740
4.735
4.737
4.746
4.745
4.743
4.740
4.740
4.751
4.749
4.747
4.747
4.745
4.740
4.734
4.729
4.723
4.718
4.715
4.718
4.715
4.714
4.721
4.721
4.718
4.711
4.707
4.714
4.714
4.716
4.715
4.713
4.717
4.724
4.725
4.724
4.721
4.721
4.714
4.725
4.736
4.727
4.723
4.718
4.715
4.724
4.731
4.730
4.736
4.729
4.726
4.725
4.732
4.736
4.732
4.733
4.736
4.733
4.732
4.738
4.748
4.752
4.750
4.747
4.747
4.740
4.737
4.730
4.726
4.727
4.720
4.722
4.728
4.736
4.736
4.733
4.732
4.732
4.725
4.727
4.736
4.730
4.721
4.721
4.715
4.716
4.721
4.730
4.737
4.733
4.734
4.730
4.728
4.722
4.723
4.733
4.737
4.732
4.728
4.729
4.732
4.729
4.729
4.733
4.742
4.738
4.740
4.743
4.744
4.736
4.737
4.744
4.740
4.749
4.747
4.744
4.747
4.749
4.748
4.747
4.744
4.741
4.750
4.755
4.748
4.743
4.742
4.744
4.744
4.741
4.742
4.751
4.759
4.755
4.759
4.755
4.751
4.751
4.748
4.751
4.748
4.755
4.764
4.763
4.764
4.763
4.766
4.760
4.767
4.765
4.762
4.758
4.766
4.774
4.775
4.773
4.770
4.763
4.761
4.758
4.758
4.751
4.759
4.768
4.769
4.770
4.762
4.765
4.764
4.763
4.759
4.758
4.756
4.762
4.767
4.766
4.767
4.760
4.759
4.763
4.759
4.758
4.761
4.758
4.759
4.768
4.777
4.781
4.778
4.777
4.773
4.773
4.769
4.773
4.772
4.771
4.773
4.774
4.778
4.785
4.788
4.785
4.783
4.777
4.772
4.773
4.767
4.770
4.770
4.773
4.773
4.782
4.789
4.790
4.789
4.788
4.789
4.787
4.788
4.788
4.788
4.785
4.786
4.782
4.783
4.790
4.797
4.806
4.813
4.807
4.803
4.803
4.795
4.792
4.791
4.796
4.792
4.790
4.791
4.792
4.799
4.804
4.803
4.804
4.805
4.803
4.800
4.801
4.797
4.792
4.786
4.782
4.780
4.785
4.784
4.784
4.784
4.779
4.781
4.777
4.780
4.779
4.780
4.781
4.777
4.773
4.770
4.777
4.783
4.788
4.788
4.793
4.792
4.787
4.781
4.776
4.770
4.770
4.766
4.763
4.762
4.763
4.769
4.774
4.783
4.782
4.786
4.784
4.784
4.784
4.786
4.782
4.780
4.777
4.777
4.777
4.773
4.771
4.772
4.776
4.777
4.784
4.791
4.793
4.794
4.796
4.795
4.795
4.788
4.787
4.786
4.788
4.792
4.796
4.792
4.793
4.792
4.787
4.781
4.785
4.791
4.798
4.802
4.799
4.799
4.792
4.789
4.790
4.791
4.792
4.789
4.787
4.786
4.788
4.786
4.784
4.780
4.777
4.784
4.792
4.797
4.798
4.792
4.792
4.788
4.787
4.789
4.792
4.791
4.788
4.786
4.787
4.786
4.787
4.788
4.785
4.781
4.784
4.784
4.790
4.797
4.803
4.810
4.810
4.807
4.807
4.808
4.804
4.800
4.804
4.803
4.803
4.803
4.799
4.805
4.803
4.800
4.806
4.803
4.804
4.802
4.801
4.802
4.807
4.813
4.817
4.811
4.812
4.814
4.812
4.811
4.815
4.814
4.814
4.808
4.803
4.802
4.799
4.799
4.796
4.797
4.803
4.802
4.801
4.797
4.803
4.808
4.814
4.821
4.821
4.824
4.818
4.819
4.815
4.816
4.815
4.819
4.818
4.822
4.823
4.821
4.815
4.813
4.814
4.811
4.815
4.816
4.815
4.814
4.814
4.810
4.812
4.819
4.825
4.832
4.836
4.843
4.837
4.841
4.837
4.832
4.834
4.832
4.831
4.832
4.828
4.827
4.831
4.830
4.828
4.827
4.826
4.824
4.820
4.819
4.823
4.818
4.821
4.819
4.823
4.829
4.834
4.830
4.826
4.822
4.820
4.816
4.814
4.814
4.812
4.811
4.807
4.807
4.807
4.805
4.807
4.808
4.804
4.807
4.809
4.808
4.809
4.811
4.812
4.810
4.810
4.818
4.823
4.827
4.832
4.836
4.829
4.830
4.826
4.822
4.820
4.818
4.815
4.810
4.810
4.814
4.814
4.816
4.815
4.813
4.812
4.807
4.806
4.805
4.803
4.803
4.803
4.802
4.799
4.805
4.810
4.816
4.820
4.825
4.831
4.830
4.836
4.840
4.842
4.838
4.837
4.833
4.829
4.833
4.834
4.836
4.834
4.833
4.832
4.830
4.826
4.824
4.823
4.821
4.821
4.821
4.820
4.822
4.821
4.818
4.815
4.811
4.810
4.814
4.820
4.825
4.829
4.835
4.839
4.841
4.842
4.840
4.840
4.843
4.842
4.840
4.836
4.840
4.839
4.843
4.840
4.844
4.845
4.843
4.837
4.841
4.840
4.843
4.840
4.843
4.839
4.840
4.836
4.832
4.826
4.825
4.826
4.827
4.826
4.824
4.828
4.832
4.836
4.840
4.845
4.849
4.855
4.860
4.862
4.860
4.859
4.855
4.853
4.851
4.855
4.852
4.853
4.854
4.855
4.857
4.855
4.852
4.856
4.858
4.859
4.860
4.862
4.857
4.856
4.852
4.850
4.849
4.850
4.849
4.847
4.843
4.844
4.843
4.844
4.844
4.847
4.843
4.845
4.849
4.853
4.858
4.864
4.866
4.866
4.866
4.867
4.865
4.866
4.866
4.867
4.866
4.864
4.860
4.859
4.860
4.864
4.862
4.856
4.854
4.848
4.846
4.842
4.840
4.836
4.835
4.836
4.836
4.832
4.836
4.840
4.838
4.837
4.836
4.837
4.838
4.836
4.835
4.837
4.843
4.847
4.851
4.855
4.860
4.866
4.868
4.867
