2.991
3.334
3.507
3.620
3.705
3.784
3.834
3.858
3.919
3.977
3.951
3.984
4.028
4.053
4.091
4.118
4.142
4.084
4.067
4.081
4.092
4.117
4.127
4.136
4.157
4.160
4.177
4.177
4.195
4.213
4.212
4.224
4.239
4.236
4.246
4.256
4.271
4.265
4.271
4.283
4.292
4.304
4.295
4.302
4.308
4.322
4.328
4.333
4.341
4.349
4.339
4.345
4.349
4.360
4.362
4.371
4.380
4.377
4.384
4.392
4.389
4.387
4.381
4.388
4.400
4.403
4.404
4.403
4.416
4.426
4.430
4.426
4.432
4.436
4.442
4.451
4.456
4.461
4.438
4.430
4.435
4.441
4.449
4.452
4.451
4.464
4.451
4.462
4.458
4.466
4.475
4.476
4.480
4.485
4.491
4.491
4.489
4.495
4.488
4.495
4.499
4.507
4.510
4.509
4.510
4.515
4.522
4.526
4.519
4.526
4.520
4.523
4.522
4.505
4.509
4.506
4.504
4.511
4.519
4.515
4.521
4.516
4.520
4.528
4.534
4.530
4.519
4.521
4.524
4.524
4.531
4.536
4.534
4.531
4.544
4.542
4.545
4.548
4.558
4.553
4.543
4.558
4.555
4.565
4.565
4.567
4.574
4.573
4.566
4.557
4.567
4.562
4.560
4.566
4.572
4.571
4.572
4.568
4.576
4.576
4.585
4.584
4.593
4.591
4.590
4.594
4.589
4.595
4.586
4.602
4.603
4.595
4.608
4.601
4.611
4.618
4.609
4.621
4.618
4.612
4.629
4.624
4.611
4.614
4.609
4.623
4.623
4.610
4.617
4.612
4.614
4.620
4.617
4.616
4.626
4.626
4.627
4.639
4.632
4.633
4.636
4.643
4.643
4.644
4.643
4.645
4.648
4.646
4.657
4.651
4.646
4.637
4.628
4.619
4.610
4.604
4.610
4.619
4.618
4.611
4.614
4.627
4.624
4.614
4.616
4.631
4.621
4.623
4.621
4.632
4.635
4.629
4.626
4.631
4.650
4.643
4.642
4.637
4.643
4.647
4.638
4.627
4.632
4.633
4.632
4.619
4.620
4.637
4.624
4.620
4.619
4.621
4.626
4.627
4.624
4.617
4.619
4.635
4.631
4.632
4.626
4.629
4.632
4.649
4.646
4.641
4.634
4.635
4.640
4.656
4.650
4.639
4.641
4.635
4.644
4.657
4.651
4.649
4.644
4.639
4.645
4.659
4.658
4.657
4.657
4.657
4.657
4.655
4.671
4.670
4.671
4.668
4.665
4.667
4.661
4.664
4.665
4.659
4.657
4.657
4.655
4.662
4.673
4.659
4.656
4.658
4.660
4.655
4.658
4.673
4.680
4.675
4.671
4.669
4.670
4.670
4.671
4.679
4.687
4.680
4.671
4.674
4.668
4.667
4.673
4.679
4.693
4.691
4.685
4.685
4.691
4.688
4.684
4.687
4.688
4.701
4.710
4.700
4.698
4.696
4.695
4.699
4.697
4.694
4.702
4.707
4.703
4.711
4.711
4.706
4.692
4.694
4.698
4.691
4.688
4.681
4.678
4.680
4.675
4.668
4.675
4.674
4.686
4.691
4.693
4.687
4.678
4.668
4.664
4.668
4.671
4.668
4.680
4.689
4.683
4.685
4.683
4.682
4.679
4.675
4.681
4.673
4.668
4.680
4.692
4.704
4.705
4.702
4.700
4.689
4.687
4.687
4.683
4.682
4.679
4.683
4.695
4.703
4.706
4.707
4.697
4.690
4.687
4.680
4.682
4.681
4.674
4.678
4.689
4.701
4.705
4.709
4.704
4.697
4.701
4.700
4.698
4.692
4.689
4.693
4.687
4.686
4.698
4.709
4.720
4.728
4.718
4.713
4.710
4.705
4.703
4.707
4.707
4.706
4.709
4.701
4.699
4.706
4.715
4.719
4.714
4.714
4.720
4.714
4.714
4.715
4.711
4.712
4.706
4.705
4.714
4.709
4.714
4.715
4.725
4.736
4.744
4.739
4.739
4.736
4.732
4.734
4.730
4.729
4.732
4.728
4.727
4.721
4.726
4.718
4.722
4.732
4.742
4.752
4.747
4.738
4.730
4.733
4.729
4.726
4.729
4.726
4.719
4.712
4.707
4.705
4.707
4.717
4.726
4.736
4.735
4.730
4.731
4.731
4.728
4.727
4.725
4.716
4.712
4.708
4.706
4.706
4.704
4.703
4.705
4.709
4.718
4.727
4.737
4.735
4.730
4.728
4.738
4.735
4.737
4.734
4.734
4.737
4.736
4.736
4.728
4.722
4.714
4.711
4.710
4.715
4.715
4.724
4.732
4.738
4.747
4.745
4.741
4.749
4.747
4.745
4.746
4.744
4.740
4.737
4.742
4.739
4.743
4.744
4.738
4.733
4.730
4.727
4.725
4.730
4.732
4.740
4.748
4.757
4.754
4.761
4.766
4.759
4.758
4.768
4.767
4.766
4.768
4.768
4.760
4.755
4.753
4.754
4.748
4.747
4.753
4.746
4.749
4.758
4.753
4.745
4.747
4.756
4.764
4.772
4.773
4.776
4.776
4.769
4.770
4.763
4.765
4.759
4.754
4.764
4.758
4.756
4.749
4.745
4.746
4.746
4.740
4.742
4.734
4.726
4.732
4.737
4.745
4.753
4.760
4.768
4.771
4.775
4.772
4.770
4.768
4.769
4.758
4.762
4.765
4.765
4.761
4.760
4.761
4.756
4.754
4.753
4.755
4.764
4.764
4.765
4.762
4.757
4.754
4.754
4.753
4.756
4.758
4.761
4.769
4.776
4.783
4.790
4.795
4.794
4.793
4.795
4.791
4.785
4.793
4.792
4.785
4.789
4.787
4.788
4.786
4.787
4.790
4.795
4.790
4.788
4.791
4.788
4.786
4.781
4.773
4.769
4.776
4.772
4.776
4.776
4.772
4.777
4.784
4.791
4.798
4.805
4.810
4.801
4.799
4.796
4.797
4.796
4.798
4.797
4.793
4.789
4.785
4.781
4.777
4.773
4.769
4.766
4.761
4.757
4.753
4.753
4.745
4.741
4.745
4.744
4.740
4.741
4.748
4.754
4.761
4.768
4.775
4.779
4.778
4.777
4.785
4.788
4.789
4.785
4.780
4.776
4.771
4.766
4.761
4.756
4.754
4.757
4.752
4.750
4.753
4.749
4.747
4.746
4.747
4.749
4.751
4.752
4.754
4.754
4.753
4.752
4.754
4.751
4.751
4.749
4.741
4.748
4.754
4.761
4.767
4.773
4.775
4.768
4.769
4.766
4.760
4.761
4.762
4.763
4.762
4.759
4.764
4.768
4.773
4.773
4.770
4.768
4.772
4.765
4.760
4.762
4.760
4.760
4.761
4.764
4.760
4.760
4.757
4.752
4.752
4.757
4.758
4.762
4.761
4.756
4.749
4.750
4.750
4.759
4.760
4.758
4.757
4.763
4.769
4.775
4.779
4.780
4.780
4.779
4.775
4.777
4.774
4.766
4.766
4.763
4.771
4.772
4.771
4.764
4.756
4.753
4.751
4.749
4.748
4.750
4.745
4.750
4.756
4.761
4.759
4.755
4.756
4.756
4.754
4.757
4.753
4.746
4.748
4.744
4.742
4.744
4.742
4.746
4.741
4.744
4.740
4.739
4.747
4.747
4.750
4.756
4.762
4.768
4.773
4.779
4.784
4.790
4.796
4.797
4.793
4.794
4.784
4.789
4.793
4.792
4.786
4.780
4.779
4.779
4.776
4.779
4.782
4.779
4.776
4.774
4.776
4.775
4.771
4.764
4.764
4.758
4.753
4.747
4.746
4.744
4.744
4.742
4.743
4.746
4.748
4.745
4.751
4.755
4.759
4.764
4.761
4.759
4.758
4.761
4.754
4.754
4.749
4.749
4.744
4.747
4.753
4.758
4.763
4.769
4.774
4.779
4.785
4.790
4.788
4.787
4.790
4.787
4.783
4.783
4.784
4.786
4.788
4.789
4.789
4.787
4.783
4.784
4.786
4.785
4.783
4.783
4.780
4.784
4.784
4.788
4.788
4.786
4.784
4.781
4.781
4.779
4.782
4.779
4.778
4.774
4.770
4.771
4.766
4.761
4.761
4.763
4.760
4.759
4.757
4.759
4.758
4.757
4.754
4.746
4.744
4.741
4.744
4.742
4.742
4.740
4.739
4.747
4.752
4.756
4.757
4.760
4.765
4.770
4.775
4.780
4.785
4.790
4.795
4.800
4.805
4.806
4.807
4.804
4.803
4.802
4.807
4.803
4.800
4.801
4.801
4.800
4.801
4.797
4.797
4.796
4.792
4.789
4.790
4.791
4.794
4.797
4.799
4.800
4.798
4.796
4.790
4.784
4.778
4.773
4.769
4.765
4.765
4.763
4.768
4.775
4.775
4.777
4.783
4.780
