2.960
3.270
3.468
3.558
3.695
3.620
3.678
3.723
3.769
3.813
3.824
3.882
3.899
3.934
3.949
3.953
3.990
4.015
4.019
4.018
4.032
4.060
4.081
4.107
4.111
4.140
4.092
4.105
4.110
4.129
4.131
4.147
4.175
4.158
4.174
4.173
4.190
4.216
4.229
4.238
4.214
4.233
4.247
4.253
4.254
4.252
4.258
4.282
4.246
4.235
4.256
4.262
4.234
4.202
4.243
4.241
4.253
4.267
4.246
4.271
4.275
4.276
4.257
4.267
4.265
4.296
4.275
4.310
4.306
4.294
4.340
4.310
4.324
4.332
4.324
4.332
4.296
4.309
4.296
4.300
4.310
4.307
4.294
4.300
4.308
4.321
4.304
4.327
4.333
4.329
4.307
4.339
4.374
4.343
4.349
4.335
4.379
4.381
4.366
4.338
4.357
4.338
4.346
4.337
4.324
4.361
4.360
4.352
4.361
4.356
4.345
4.384
4.394
4.385
4.377
4.379
4.389
4.384
4.416
4.404
4.392
4.380
4.375
4.360
4.395
4.419
4.417
4.414
4.400
4.407
4.416
4.394
4.412
4.439
4.432
4.448
4.422
4.420
4.435
4.405
4.411
4.429
4.460
4.456
4.437
4.431
4.409
4.394
4.391
4.382
4.406
4.432
4.424
4.429
4.416
4.405
4.399
4.394
4.388
4.373
4.386
4.413
4.414
4.410
4.417
4.424
4.411
4.410
4.379
4.385
4.376
4.385
4.384
4.397
4.422
4.419
4.422
4.411
4.396
4.404
4.421
4.425
4.411
4.383
4.381
4.387
4.386
4.381
4.404
4.427
4.449
4.464
4.439
4.433
4.435
4.434
4.425
4.413
4.411
4.408
4.414
4.413
4.404
4.412
4.399
4.396
4.417
4.439
4.460
4.471
4.467
4.463
4.461
4.472
4.479
4.465
4.449
4.464
4.462
4.444
4.435
4.428
4.440
4.450
4.441
4.463
4.462
4.450
4.438
4.458
4.477
4.496
4.496
4.484
4.484
4.483
4.465
4.448
4.444
4.450
4.437
4.419
4.418
4.422
4.424
4.430
4.420
4.406
4.405
4.398
4.396
4.391
4.409
4.426
4.443
4.461
4.478
4.496
4.498
4.489
4.498
4.501
4.481
4.479
4.483
4.472
4.467
4.467
4.456
4.460
4.447
4.456
4.468
4.462
4.465
4.488
4.488
4.468
4.466
4.466
4.468
4.477
4.460
4.484
4.479
4.479
4.460
4.457
4.472
4.487
4.491
4.477
4.470
4.473
4.460
4.476
4.481
4.477
4.472
4.476
4.467
4.455
4.452
4.450
4.456
4.439
4.440
4.431
4.426
4.438
4.424
4.426
4.422
4.416
4.414
4.409
4.406
4.409
4.417
4.437
4.445
4.427
4.429
4.433
4.441
4.442
4.432
4.439
4.450
4.464
4.478
4.491
4.504
4.518
4.521
4.521
4.513
4.515
4.504
4.490
4.477
4.467
4.464
4.451
4.450
4.435
4.440
4.444
4.449
4.449
4.467
4.479
4.485
4.492
4.496
4.492
4.470
4.466
4.461
4.444
4.436
4.438
4.429
4.422
4.412
4.403
4.401
4.417
4.416
4.403
4.410
4.418
4.428
4.423
4.415
4.418
4.413
4.415
4.425
4.430
4.416
4.425
4.436
4.448
4.460
4.471
4.483
4.494
4.506
4.517
4.529
4.541
4.552
4.561
4.539
4.536
4.515
4.521
4.502
4.493
4.489
4.479
4.493
4.498
4.497
4.500
4.507
4.510
4.510
4.500
4.484
4.480
4.472
4.481
4.477
4.483
4.483
4.475
4.472
4.472
4.470
4.473
4.465
4.475
4.471
4.467
4.473
4.470
4.459
4.472
4.487
4.501
4.488
4.484
4.481
4.469
4.457
4.452
4.454
4.463
4.468
4.456
4.444
4.451
4.447
4.439
4.439
4.450
4.459
4.448
4.458
4.461
4.460
4.464
4.472
4.468
4.472
4.460
4.452
4.449
4.461
4.455
4.465
4.474
4.484
4.494
4.504
4.513
4.523
4.532
4.539
4.529
4.519
4.509
4.496
4.501
4.492
4.494
4.489
4.496
4.479
4.478
4.492
4.493
4.483
4.496
4.509
4.501
4.490
4.489
4.498
4.488
4.492
4.500
4.479
4.486
4.503
4.495
4.493
4.493
4.481
4.490
4.485
4.472
4.478
4.478
4.482
4.479
4.473
4.483
4.476
4.462
4.451
4.446
4.454
4.458
4.451
4.444
4.458
4.445
4.448
4.441
4.443
4.435
4.435
4.436
4.435
4.426
4.424
4.430
4.421
4.438
4.444
4.430
4.426
4.411
4.416
4.431
4.434
4.435
4.420
4.422
4.425
4.421
4.416
4.422
4.410
4.413
4.431
4.436
4.450
4.451
4.462
4.472
4.480
4.476
4.483
4.474
4.464
4.463
4.468
4.454
4.459
4.469
4.471
4.457
4.444
4.445
4.452
4.451
4.451
4.443
4.443
4.452
4.455
4.448
4.447
4.455
4.462
4.470
4.478
4.485
4.493
4.501
4.509
4.516
4.524
4.532
4.539
4.547
4.548
4.539
4.528
4.527
4.538
4.540
4.527
4.537
4.538
4.539
4.541
4.541
4.548
4.541
4.530
4.524
4.522
4.513
4.518
4.519
4.516
4.518
4.519
4.521
4.514
4.513
4.509
4.499
4.497
4.495
4.493
4.490
4.509
4.504
4.507
4.519
4.522
4.531
4.523
4.522
4.517
4.519
4.514
4.522
4.521
4.520
4.525
4.527
4.513
4.517
4.515
4.511
4.507
4.500
4.506
4.503
4.504
4.498
4.499
4.505
4.515
4.525
4.535
4.535
4.521
4.510
4.505
4.503
4.496
4.503
4.509
4.496
4.496
4.488
4.490
4.491
4.488
4.484
4.486
4.484
4.499
4.503
4.503
4.502
4.499
4.489
4.478
4.484
4.481
4.474
4.467
4.460
4.453
4.446
4.440
4.441
4.438
4.435
4.435
4.437
4.432
4.441
4.443
4.442
4.446
4.455
4.462
4.457
4.449
4.448
4.444
4.458
4.454
4.452
4.444
4.447
4.444
4.443
4.445
4.449
4.443
4.444
4.450
4.451
4.445
4.435
4.439
4.428
4.425
4.416
4.408
4.403
4.400
4.403
4.404
4.408
4.407
4.419
4.426
4.429
4.429
4.422
4.422
4.416
4.412
4.401
4.391
4.393
4.404
4.410
4.406
4.409
4.404
4.406
4.402
4.397
4.405
4.399
4.400
4.397
4.395
4.404
4.398
4.395
4.402
4.393
4.394
4.396
4.399
4.392
4.395
4.401
4.406
4.412
4.418
4.424
4.429
4.435
4.441
4.447
4.452
4.458
4.464
4.470
4.476
4.481
4.487
4.493
4.498
4.504
4.510
4.516
4.522
4.527
4.533
4.539
4.545
4.551
4.556
4.562
4.568
4.574
4.579
4.585
4.591
4.597
4.602
4.608
4.602
4.600
4.600
4.597
4.594
4.592
4.594
4.593
4.592
4.584
4.579
4.572
4.566
4.566
4.563
4.561
4.560
4.553
4.551
4.548
4.537
4.542
4.540
4.539
4.539
4.534
4.539
4.539
4.542
4.536
4.542
4.539
4.547
4.544
4.538
4.529
4.532
4.529
4.529
4.538
4.547
4.550
4.544
4.554
4.544
4.537
4.529
4.525
4.526
4.517
4.521
4.531
4.526
4.530
4.531
4.524
4.523
4.519
4.522
4.532
4.542
4.537
4.528
4.525
4.524
4.521
4.532
4.543
4.550
4.557
4.552
4.547
4.535
4.529
4.528
4.528
4.532
4.527
4.534
4.528
4.516
4.515
4.517
4.520
4.521
4.518
4.516
4.513
4.507
4.504
4.501
4.494
4.484
4.485
4.483
4.491
4.494
4.492
4.491
4.483
4.486
4.480
4.471
4.478
4.479
4.481
4.486
4.479
4.486
4.486
4.482
4.479
4.473
4.468
4.462
4.456
4.451
4.445
4.442
4.442
4.442
4.430
4.424
4.425
4.420
4.418
4.417
4.422
4.426
4.432
4.431
4.426
4.415
4.413
4.412
4.416
4.421
4.433
4.432
4.432
4.427
4.424
4.429
4.424
4.428
4.424
4.423
4.419
4.418
4.414
4.421
4.430
4.419
4.415
4.415
4.418
4.422
4.430
4.437
4.431
4.431
4.429
4.438
4.434
4.421
4.426
4.436
4.442
4.441
4.448
4.454
4.461
4.468
4.474
4.481
4.474
4.475
4.466
4.465
4.470
4.474
4.472
4.469
4.464
4.473
4.482
4.475
4.468
4.469
4.466
4.459
4.451
4.452
4.459
4.458
4.466
4.474
4.474
4.472
4.474
4.482
4.489
