2.994
3.335
3.513
3.633
3.709
3.786
3.829
3.880
3.931
3.935
3.983
4.025
4.059
4.031
4.062
4.091
4.116
4.140
4.158
4.181
4.204
4.209
4.164
4.145
4.153
4.170
4.182
4.189
4.202
4.208
4.223
4.227
4.238
4.241
4.254
4.264
4.265
4.275
4.284
4.296
4.292
4.302
4.311
4.321
4.314
4.324
4.331
4.337
4.347
4.342
4.349
4.351
4.361
4.368
4.372
4.383
4.380
4.376
4.383
4.387
4.394
4.400
4.402
4.412
4.416
4.420
4.416
4.416
4.421
4.422
4.423
4.434
4.442
4.441
4.442
4.452
4.456
4.453
4.462
4.466
4.470
4.457
4.459
4.455
4.460
4.464
4.471
4.475
4.478
4.479
4.481
4.483
4.489
4.499
4.498
4.501
4.505
4.507
4.506
4.508
4.514
4.521
4.527
4.529
4.522
4.510
4.503
4.508
4.505
4.508
4.516
4.521
4.527
4.523
4.527
4.534
4.534
4.526
4.533
4.532
4.538
4.540
4.545
4.549
4.553
4.551
4.558
4.560
4.563
4.564
4.560
4.564
4.564
4.564
4.563
4.568
4.575
4.581
4.585
4.583
4.583
4.584
4.591
4.598
4.593
4.597
4.593
4.594
4.599
4.601
4.590
4.586
4.574
4.564
4.574
4.571
4.577
4.583
4.577
4.583
4.590
4.586
4.583
4.589
4.588
4.594
4.588
4.597
4.597
4.603
4.597
4.592
4.597
4.595
4.596
4.598
4.594
4.603
4.601
4.605
4.607
4.611
4.607
4.617
4.615
4.619
4.620
4.620
4.627
4.620
4.620
4.619
4.621
4.620
4.632
4.628
4.635
4.636
4.635
4.644
4.640
4.636
4.626
4.634
4.631
4.633
4.642
4.633
4.635
4.631
4.635
4.641
4.642
4.644
4.645
4.639
4.648
4.647
4.643
4.658
4.656
4.655
4.664
4.663
4.656
4.668
4.665
4.661
4.664
4.658
4.654
4.671
4.670
4.663
4.670
4.674
4.673
4.669
4.681
4.682
4.683
4.683
4.689
4.682
4.684
4.686
4.689
4.680
4.681
4.672
4.673
4.680
4.687
4.690
4.683
4.686
4.681
4.680
4.678
4.685
4.683
4.679
4.679
4.693
4.689
4.686
4.687
4.697
4.700
4.701
4.701
4.699
4.708
4.704
4.701
4.701
4.711
4.716
4.712
4.705
4.708
4.718
4.716
4.710
4.705
4.699
4.692
4.685
4.681
4.680
4.681
4.674
4.676
4.675
4.675
4.674
4.673
4.682
4.687
4.685
4.681
4.680
4.683
4.697
4.692
4.690
4.678
4.680
4.694
4.696
4.694
4.691
4.689
4.690
4.698
4.697
4.697
4.696
4.697
4.696
4.709
4.712
4.712
4.712
4.703
4.701
4.708
4.701
4.692
4.688
4.686
4.697
4.698
4.701
4.698
4.694
4.689
4.696
4.700
4.690
4.683
4.680
4.678
4.691
4.700
4.701
4.695
4.688
4.689
4.685
4.695
4.696
4.695
4.696
4.695
4.694
4.690
4.697
4.708
4.712
4.705
4.704
4.712
4.708
4.705
4.705
4.714
4.715
4.714
4.713
4.706
4.707
4.703
4.712
4.709
4.710
4.712
4.710
4.708
4.708
4.711
4.716
4.723
4.716
4.720
4.716
4.717
4.716
4.714
4.713
4.723
4.731
4.734
4.732
4.731
4.731
4.731
4.729
4.725
4.731
4.741
4.738
4.733
4.723
4.720
4.715
4.712
4.720
4.730
4.735
4.731
4.731
4.725
4.729
4.727
4.724
4.719
4.726
4.730
4.731
4.731
4.734
4.727
4.729
4.725
4.732
4.728
4.731
4.739
4.742
4.741
4.738
4.744
4.746
4.742
4.734
4.734
4.735
4.741
4.748
4.744
4.742
4.741
4.743
4.739
4.742
4.744
4.740
4.739
4.740
4.750
4.760
4.758
4.759
4.758
4.757
4.758
4.757
4.752
4.757
4.764
4.760
4.758
4.767
4.769
4.767
4.763
4.767
4.766
4.765
4.764
4.757
4.757
4.753
4.758
4.767
4.777
4.775
4.769
4.764
4.760
4.754
4.747
4.742
4.736
4.742
4.752
4.753
4.749
4.753
4.750
4.748
4.747
4.737
4.739
4.740
4.744
4.743
4.742
4.751
4.747
4.740
4.736
4.734
4.738
4.737
4.731
4.734
4.734
4.734
4.734
4.734
4.741
4.749
4.755
4.754
4.752
4.754
4.749
4.751
4.744
4.738
4.744
4.746
4.745
4.746
4.741
4.745
4.752
4.760
4.769
4.771
4.769
4.767
4.758
4.753
4.753
4.753
4.753
4.749
4.747
4.748
4.744
4.748
4.755
4.764
4.768
4.768
4.764
4.759
4.752
4.751
4.755
4.759
4.752
4.745
4.741
4.742
4.741
4.743
4.750
4.759
4.763
4.771
4.768
4.767
4.764
4.764
4.764
4.760
4.763
4.759
4.757
4.762
4.763
4.754
4.757
4.754
4.758
4.764
4.771
4.778
4.785
4.779
4.777
4.779
4.785
4.781
4.777
4.770
4.772
4.773
4.769
4.760
4.757
4.757
4.768
4.770
4.766
4.771
4.780
4.783
4.777
4.781
4.779
4.773
4.772
4.775
4.774
4.776
4.774
4.779
4.777
4.767
4.766
4.770
4.771
4.770
4.774
4.773
4.780
4.786
4.793
4.795
4.801
4.798
4.796
4.795
4.801
4.798
4.802
4.797
4.793
4.790
4.791
4.790
4.791
4.787
4.786
4.786
4.785
4.786
4.785
4.792
4.797
4.803
4.804
4.801
4.794
4.801
4.802
4.806
4.799
4.795
4.788
4.787
4.786
4.787
4.785
4.784
4.779
4.775
4.771
4.770
4.777
4.783
4.790
4.794
4.794
4.790
4.790
4.789
4.790
4.790
4.790
4.794
4.790
4.789
4.788
4.787
4.782
4.781
4.786
4.779
4.772
4.767
4.768
4.767
4.771
4.778
4.783
4.786
4.790
4.786
4.791
4.795
4.794
4.792
4.790
4.789
4.785
4.784
4.790
4.789
4.786
4.786
4.780
4.784
4.783
4.783
4.790
4.790
4.788
4.792
4.790
4.787
4.788
4.787
4.793
4.800
4.804
4.800
4.801
4.801
4.799
4.800
4.801
4.794
4.797
4.792
4.794
4.795
4.796
4.795
4.791
4.794
4.794
4.795
4.793
4.794
4.794
4.797
4.793
4.789
4.786
4.792
4.796
4.797
4.802
4.806
4.813
4.819
4.816
4.819
4.818
4.817
4.813
4.812
4.812
4.809
4.810
4.805
4.805
4.808
4.808
4.809
4.812
4.812
4.813
4.812
4.815
4.809
4.810
4.808
4.812
4.816
4.812
4.811
4.808
4.809
4.812
4.812
4.818
4.822
4.829
4.831
4.832
4.833
4.832
4.827
4.829
4.830
4.827
4.827
4.824
4.820
4.820
4.819
4.823
4.827
4.824
4.819
4.816
4.814
4.816
4.819
4.816
4.816
4.816
4.812
4.816
4.812
4.812
4.808
4.805
4.809
4.816
4.822
4.827
4.830
4.826
4.822
4.818
4.817
4.816
4.817
4.815
4.814
4.815
4.817
4.821
4.820
4.823
4.819
4.820
4.819
4.821
4.820
4.818
4.817
4.812
4.808
4.804
4.806
4.805
4.808
4.805
4.801
4.805
4.809
4.807
4.808
4.812
4.816
4.821
4.827
4.831
4.836
4.843
4.844
4.843
4.842
4.843
4.841
4.838
4.842
4.835
4.838
4.834
4.833
4.834
4.838
4.835
4.838
4.834
4.831
4.832
4.830
4.831
4.834
4.837
4.839
4.838
4.834
4.835
4.834
4.837
4.838
4.838
4.833
4.831
4.833
4.831
4.834
4.832
4.830
4.827
4.833
4.838
4.844
4.848
4.853
4.859
4.864
4.870
4.866
4.867
4.866
4.859
4.858
4.853
4.853
4.849
4.852
4.853
4.855
4.853
4.853
4.851
4.845
4.846
4.844
4.845
4.844
4.843
4.847
4.849
4.845
4.846
4.842
4.840
4.839
4.837
4.836
4.832
4.830
4.827
4.825
4.823
4.819
4.823
4.828
4.834
4.836
4.840
4.834
4.831
4.831
4.829
4.827
4.824
4.827
4.827
4.827
4.826
4.828
4.826
4.828
4.827
4.823
4.823
4.828
4.832
4.830
4.827
4.828
4.827
4.823
4.823
4.823
4.823
4.823
4.827
4.823
4.821
4.820
4.820
4.817
4.821
4.817
4.813
4.809
4.807
4.805
4.801
4.800
4.805
4.808
4.813
4.819
4.823
4.828
4.829
4.836
4.838
4.839
4.837
4.839
4.837
4.836
