2.992
3.334
3.515
3.633
3.718
3.792
3.832
3.878
3.942
3.958
4.008
4.006
4.041
4.075
4.109
4.078
4.099
4.122
4.144
4.170
4.184
4.204
4.224
4.240
4.258
4.239
4.202
4.190
4.203
4.212
4.219
4.232
4.235
4.250
4.251
4.262
4.276
4.278
4.287
4.295
4.298
4.307
4.317
4.313
4.321
4.330
4.337
4.335
4.342
4.349
4.361
4.365
4.359
4.365
4.373
4.379
4.386
4.392
4.400
4.385
4.394
4.404
4.405
4.415
4.416
4.423
4.430
4.421
4.421
4.426
4.429
4.437
4.441
4.448
4.449
4.451
4.460
4.466
4.468
4.456
4.457
4.461
4.463
4.470
4.471
4.477
4.481
4.480
4.485
4.489
4.495
4.500
4.503
4.502
4.507
4.510
4.509
4.499
4.501
4.505
4.503
4.507
4.512
4.513
4.520
4.518
4.525
4.521
4.523
4.529
4.528
4.536
4.540
4.544
4.545
4.551
4.542
4.552
4.555
4.552
4.561
4.565
4.566
4.570
4.570
4.557
4.551
4.547
4.551
4.552
4.547
4.551
4.556
4.560
4.564
4.568
4.569
4.570
4.573
4.582
4.570
4.574
4.575
4.577
4.578
4.584
4.584
4.588
4.589
4.593
4.595
4.590
4.600
4.601
4.605
4.606
4.597
4.596
4.605
4.610
4.610
4.607
4.605
4.615
4.618
4.614
4.624
4.626
4.622
4.626
4.625
4.629
4.632
4.639
4.635
4.639
4.630
4.637
4.635
4.640
4.633
4.625
4.614
4.603
4.608
4.609
4.611
4.615
4.618
4.625
4.618
4.621
4.622
4.629
4.630
4.628
4.627
4.629
4.632
4.631
4.635
4.637
4.638
4.642
4.640
4.632
4.640
4.640
4.640
4.636
4.638
4.632
4.638
4.642
4.636
4.647
4.643
4.650
4.651
4.648
4.651
4.647
4.658
4.656
4.660
4.664
4.660
4.669
4.663
4.664
4.663
4.659
4.666
4.662
4.666
4.672
4.671
4.675
4.679
4.678
4.681
4.683
4.676
4.666
4.665
4.673
4.674
4.670
4.677
4.683
4.671
4.677
4.677
4.669
4.681
4.678
4.682
4.681
4.685
4.683
4.682
4.684
4.688
4.683
4.696
4.692
4.695
4.694
4.701
4.702
4.699
4.703
4.704
4.699
4.699
4.707
4.696
4.697
4.704
4.707
4.704
4.707
4.714
4.711
4.710
4.710
4.718
4.716
4.715
4.711
4.723
4.722
4.720
4.719
4.725
4.730
4.729
4.719
4.717
4.711
4.714
4.713
4.721
4.722
4.720
4.719
4.723
4.732
4.721
4.716
4.718
4.730
4.723
4.719
4.715
4.725
4.725
4.725
4.725
4.724
4.731
4.735
4.731
4.730
4.728
4.738
4.747
4.743
4.740
4.740
4.740
4.749
4.744
4.747
4.742
4.744
4.755
4.749
4.750
4.749
4.744
4.738
4.732
4.729
4.723
4.718
4.718
4.719
4.715
4.716
4.725
4.722
4.720
4.711
4.709
4.716
4.715
4.719
4.718
4.714
4.718
4.724
4.728
4.725
4.725
4.724
4.720
4.725
4.736
4.729
4.725
4.721
4.718
4.724
4.734
4.732
4.739
4.733
4.729
4.727
4.731
4.741
4.737
4.738
4.739
4.736
4.737
4.735
4.747
4.754
4.753
4.752
4.750
4.744
4.737
4.732
4.729
4.732
4.725
4.725
4.726
4.735
4.739
4.736
4.739
4.736
4.731
4.727
4.731
4.732
4.726
4.721
4.723
4.719
4.721
4.725
4.736
4.738
4.739
4.738
4.729
4.730
4.721
4.727
4.736
4.736
4.734
4.730
4.731
4.736
4.731
4.732
4.736
4.744
4.740
4.744
4.748
4.744
4.742
4.743
4.747
4.744
4.751
4.749
4.748
4.747
4.753
4.754
4.750
4.743
4.742
4.751
4.758
4.751
4.747
4.746
4.745
4.746
4.747
4.744
4.748
4.757
4.759
4.762
4.758
4.757
4.755
4.752
4.751
4.752
4.753
4.762
4.766
4.768
4.766
4.765
4.764
4.765
4.769
4.766
4.764
4.765
4.772
4.779
4.777
4.773
4.767
4.760
4.764
4.762
4.755
4.757
4.764
4.770
4.772
4.768
4.769
4.766
4.766
4.766
4.764
4.760
4.759
4.765
4.772
4.768
4.769
4.763
4.764
4.765
4.762
4.762
4.767
4.757
4.762
4.771
4.778
4.784
4.783
4.779
4.777
4.773
4.772
4.774
4.775
4.776
4.775
4.774
4.780
4.787
4.791
4.785
4.784
4.779
4.777
4.773
4.770
4.773
4.773
4.774
4.773
4.782
4.789
4.793
4.792
4.793
4.794
4.790
4.789
4.793
4.788
4.788
4.788
4.788
4.786
4.788
4.797
4.804
4.813
4.810
4.807
4.806
4.799
4.796
4.794
4.796
4.797
4.796
4.794
4.795
4.795
4.804
4.807
4.807
4.802
4.804
4.803
4.803
4.799
4.793
4.789
4.784
4.781
4.784
4.789
4.785
4.789
4.785
4.781
4.782
4.780
4.784
4.781
4.784
4.780
4.777
4.775
4.774
4.780
4.787
4.792
4.790
4.797
4.790
4.786
4.781
4.775
4.770
4.770
4.766
4.767
4.765
4.766
4.770
4.777
4.784
4.786
4.790
4.786
4.787
4.786
4.787
4.786
4.782
4.778
4.777
4.780
4.774
4.777
4.776
4.777
4.777
4.783
4.790
4.797
4.796
4.797
4.798
4.797
4.790
4.791
4.790
4.791
4.793
4.797
4.796
4.795
4.796
4.789
4.782
4.783
4.790
4.795
4.804
4.802
4.799
4.792
4.792
4.791
4.795
4.791
4.795
4.789
4.788
4.791
4.788
4.788
4.782
4.778
4.782
4.789
4.796
4.802
4.796
4.794
4.793
4.789
4.792
4.791
4.792
4.792
4.790
4.791
4.790
4.788
4.790
4.791
4.785
4.784
4.784
4.786
4.793
4.800
4.806
4.811
4.812
4.811
4.810
4.808
4.804
4.803
4.807
4.807
4.806
4.805
4.804
4.810
4.804
4.803
4.806
4.805
4.806
4.807
4.804
4.802
4.809
4.813
4.818
4.814
4.815
4.816
4.815
4.816
4.818
4.818
4.814
4.808
4.804
4.805
4.801
4.802
4.799
4.799
4.803
4.807
4.803
4.799
4.801
4.807
4.814
4.819
4.823
4.825
4.821
4.822
4.815
4.821
4.820
4.821
4.820
4.822
4.825
4.825
4.820
4.818
4.817
4.816
4.815
4.819
4.815
4.819
4.817
4.814
4.810
4.814
4.821
4.827
4.834
4.838
4.842
4.841
4.840
4.836
4.834
4.838
4.834
4.833
4.834
4.830
4.831
4.833
4.831
4.827
4.828
4.830
4.825
4.824
4.826
4.822
4.820
4.824
4.821
4.824
4.829
4.833
4.829
4.825
4.821
4.821
4.815
4.818
4.820
4.814
4.815
4.811
4.809
4.811
4.807
4.808
4.814
4.808
4.809
4.811
4.810
4.810
4.812
4.813
4.812
4.810
4.817
4.822
4.826
4.832
4.837
4.832
4.831
4.829
4.823
4.824
4.821
4.818
4.812
4.811
4.815
4.818
4.820
4.816
4.814
4.814
4.810
4.808
4.809
4.805
4.807
4.805
4.804
4.805
4.803
4.808
4.814
4.819
4.823
4.829
4.834
4.833
4.839
4.843
4.844
4.840
4.839
4.836
4.834
4.836
4.836
4.838
4.836
4.836
4.836
4.829
4.825
4.825
4.823
4.822
4.823
4.822
4.823
4.825
4.823
4.819
4.817
4.813
4.815
4.814
4.820
4.825
4.829
4.835
4.840
4.846
4.844
4.844
4.840
4.846
4.844
4.841
4.839
4.841
4.844
4.844
4.845
4.847
4.848
4.846
4.840
4.841
4.842
4.846
4.844
4.844
4.840
4.841
4.839
4.835
4.829
4.829
4.831
4.827
4.829
4.829
4.829
4.832
4.836
4.840
4.844
4.849
4.853
4.858
4.862
4.865
4.862
4.860
4.856
4.852
4.856
4.857
4.855
4.857
4.856
4.858
4.859
4.855
4.856
4.860
4.859
4.862
4.862
4.862
4.856
4.855
4.853
4.852
4.853
4.852
4.850
4.847
4.848
4.844
4.845
4.846
4.847
4.844
4.842
4.846
4.851
4.855
4.859
4.865
4.870
4.868
4.869
4.868
4.867
4.870
4.870
4.871
4.870
4.865
4.864
4.865
4.864
4.865
4.861
4.855
4.853
4.849
4.847
4.844
4.839
4.838
4.839
4.836
4.837
4.835
4.837
4.843
4.839
4.840
4.839
4.840
4.840
