2.994
3.334
3.514
3.626
3.726
3.789
3.839
3.882
3.913
3.966
3.988
4.008
4.048
4.084
4.072
4.076
4.103
4.126
4.146
4.170
4.187
4.208
4.228
4.244
4.237
4.199
4.179
4.192
4.201
4.210
4.225
4.227
4.240
4.243
4.259
4.259
4.269
4.279
4.280
4.288
4.300
4.306
4.307
4.318
4.329
4.328
4.330
4.339
4.344
4.351
4.352
4.356
4.365
4.367
4.376
4.380
4.388
4.381
4.388
4.391
4.396
4.408
4.407
4.416
4.422
4.410
4.415
4.422
4.423
4.430
4.436
4.436
4.442
4.451
4.455
4.457
4.451
4.448
4.451
4.452
4.462
4.462
4.470
4.473
4.470
4.481
4.481
4.485
4.494
4.490
4.497
4.499
4.507
4.492
4.494
4.496
4.492
4.499
4.500
4.503
4.508
4.509
4.516
4.515
4.513
4.518
4.524
4.525
4.535
4.533
4.540
4.540
4.536
4.540
4.543
4.544
4.551
4.558
4.560
4.558
4.554
4.540
4.544
4.540
4.544
4.540
4.541
4.545
4.549
4.556
4.560
4.561
4.560
4.566
4.571
4.562
4.562
4.570
4.562
4.570
4.576
4.575
4.581
4.585
4.590
4.586
4.588
4.588
4.593
4.599
4.588
4.589
4.596
4.599
4.595
4.599
4.599
4.608
4.606
4.610
4.617
4.618
4.617
4.616
4.620
4.622
4.625
4.629
4.628
4.625
4.625
4.633
4.626
4.630
4.620
4.610
4.599
4.597
4.598
4.607
4.601
4.614
4.612
4.610
4.612
4.616
4.620
4.622
4.620
4.618
4.625
4.618
4.626
4.622
4.629
4.627
4.636
4.629
4.625
4.630
4.629
4.630
4.629
4.630
4.631
4.632
4.633
4.632
4.642
4.635
4.640
4.641
4.645
4.646
4.642
4.652
4.647
4.657
4.658
4.654
4.656
4.649
4.656
4.651
4.656
4.657
4.659
4.668
4.667
4.665
4.677
4.671
4.670
4.666
4.656
4.666
4.661
4.662
4.669
4.670
4.667
4.663
4.662
4.668
4.670
4.668
4.672
4.674
4.672
4.674
4.678
4.673
4.675
4.687
4.681
4.682
4.691
4.692
4.686
4.688
4.697
4.693
4.692
4.701
4.699
4.692
4.696
4.696
4.689
4.693
4.705
4.703
4.702
4.698
4.708
4.707
4.707
4.704
4.716
4.718
4.707
4.711
4.721
4.717
4.719
4.714
4.716
4.707
4.700
4.714
4.708
4.711
4.705
4.715
4.722
4.722
4.716
4.712
4.719
4.717
4.713
4.711
4.718
4.717
4.711
4.712
4.719
4.723
4.719
4.722
4.719
4.726
4.735
4.733
4.733
4.734
4.733
4.739
4.736
4.734
4.732
4.737
4.746
4.747
4.740
4.739
4.740
4.739
4.733
4.728
4.722
4.718
4.711
4.707
4.705
4.715
4.713
4.711
4.711
4.707
4.707
4.704
4.707
4.707
4.703
4.707
4.719
4.717
4.719
4.715
4.710
4.711
4.722
4.726
4.724
4.717
4.713
4.712
4.721
4.718
4.725
4.722
4.724
4.718
4.724
4.731
4.729
4.723
4.727
4.728
4.725
4.733
4.740
4.744
4.740
4.737
4.741
4.739
4.736
4.731
4.725
4.718
4.714
4.715
4.727
4.728
4.725
4.723
4.729
4.728
4.721
4.726
4.729
4.726
4.719
4.712
4.711
4.712
4.722
4.726
4.722
4.726
4.727
4.725
4.716
4.717
4.727
4.729
4.727
4.720
4.721
4.722
4.722
4.723
4.729
4.737
4.735
4.733
4.733
4.733
4.732
4.733
4.733
4.739
4.749
4.742
4.738
4.744
4.738
4.739
4.740
4.734
4.743
4.750
4.746
4.744
4.735
4.737
4.736
4.734
4.735
4.744
4.752
4.755
4.749
4.750
4.746
4.740
4.741
4.742
4.743
4.751
4.755
4.759
4.752
4.755
4.757
4.756
4.755
4.756
4.752
4.756
4.766
4.774
4.766
4.764
4.763
4.761
4.755
4.750
4.749
4.755
4.757
4.759
4.763
4.762
4.754
4.758
4.754
4.751
4.755
4.751
4.760
4.759
4.755
4.758
4.754
4.758
4.752
4.750
4.749
4.750
4.752
4.761
4.768
4.775
4.774
4.770
4.768
4.767
4.763
4.762
4.768
4.764
4.765
4.766
4.773
4.780
4.777
4.778
4.781
4.777
4.768
4.762
4.763
4.759
4.765
4.766
4.773
4.780
4.785
4.781
4.781
4.785
4.781
4.783
4.782
4.778
4.779
4.777
4.776
4.778
4.784
4.792
4.798
4.805
4.799
4.803
4.796
4.792
4.790
4.785
4.792
4.791
4.782
4.781
4.790
4.797
4.796
4.797
4.798
4.796
4.795
4.794
4.792
4.788
4.792
4.786
4.782
4.778
4.787
4.780
4.774
4.772
4.774
4.772
4.773
4.770
4.773
4.774
4.773
4.769
4.766
4.774
4.781
4.781
4.784
4.786
4.785
4.785
4.782
4.777
4.771
4.766
4.763
4.759
4.755
4.761
4.768
4.775
4.777
4.777
4.776
4.777
4.774
4.778
4.779
4.774
4.773
4.772
4.768
4.762
4.766
4.762
4.766
4.774
4.781
4.785
4.785
4.785
4.787
4.786
4.788
4.781
4.777
4.780
4.782
4.786
4.785
4.786
4.785
4.781
4.782
4.780
4.785
4.792
4.795
4.791
4.795
4.792
4.788
4.783
4.781
4.785
4.781
4.778
4.779
4.781
4.781
4.781
4.781
4.777
4.781
4.788
4.796
4.794
4.790
4.785
4.779
4.778
4.784
4.788
4.784
4.778
4.779
4.778
4.777
4.778
4.777
4.775
4.774
4.778
4.785
4.792
4.798
4.805
4.806
4.802
4.798
4.800
4.798
4.796
4.793
4.791
4.793
4.794
4.798
4.794
4.793
4.794
4.796
4.799
4.796
4.794
4.795
4.802
4.807
4.810
4.809
4.810
4.807
4.808
4.807
4.805
4.804
4.805
4.809
4.805
4.799
4.794
4.792
4.788
4.793
4.796
4.793
4.791
4.793
4.800
4.804
4.811
4.814
4.813
4.814
4.813
4.811
4.813
4.807
4.807
4.809
4.814
4.817
4.816
4.812
4.810
4.806
4.807
4.809
4.811
4.809
4.805
4.806
4.802
4.809
4.814
4.822
4.827
4.833
4.836
4.834
4.835
4.834
4.832
4.828
4.822
4.823
4.822
4.822
4.821
4.820
4.824
4.825
4.822
4.817
4.816
4.812
4.814
4.815
4.813
4.812
4.819
4.823
4.829
4.825
4.822
4.825
4.819
4.817
4.811
4.807
4.803
4.803
4.802
4.801
4.802
4.798
4.799
4.799
4.799
4.799
4.800
4.801
4.803
4.803
4.802
4.806
4.811
4.815
4.822
4.828
4.832
4.831
4.829
4.825
4.822
4.820
4.816
4.809
4.807
4.806
4.805
4.806
4.807
4.811
4.811
4.809
4.802
4.798
4.794
4.798
4.794
4.795
4.792
4.798
4.803
4.811
4.814
4.820
4.825
4.822
4.829
4.833
4.832
4.831
4.830
4.826
4.824
4.825
4.827
4.828
4.825
4.828
4.824
4.822
4.824
4.823
4.818
4.817
4.818
4.818
4.816
4.815
4.813
4.811
4.810
4.804
4.808
4.814
4.819
4.823
4.829
4.834
4.835
4.831
4.830
4.831
4.838
4.833
4.832
4.831
4.833
4.834
4.835
4.834
4.835
4.836
4.833
4.831
4.835
4.834
4.835
4.834
4.833
4.833
4.835
4.829
4.825
4.825
4.819
4.820
4.825
4.820
4.821
4.825
4.830
4.836
4.840
4.845
4.851
4.851
4.852
4.851
4.852
4.850
4.848
4.844
4.844
4.840
4.844
4.848
4.849
4.850
4.844
4.847
4.848
4.850
4.857
4.855
4.855
4.851
4.852
4.847
4.843
4.842
4.844
4.840
4.840
4.837
4.836
4.837
4.836
4.837
4.838
4.840
4.844
4.850
4.855
4.859
4.860
4.858
4.862
4.867
4.863
4.859
4.859
4.858
4.857
4.856
4.854
4.850
4.852
4.855
4.860
4.855
4.854
4.848
4.844
4.842
4.838
4.833
4.830
4.834
4.829
4.828
4.830
4.833
4.832
4.828
4.830
4.831
4.832
4.833
4.835
4.839
4.843
4.848
4.852
4.858
4.860
4.859
4.857
4.862
4.857
4.855
4.852
4.855
4.854
4.848
4.846
4.851
4.852
4.853
4.855
4.851
4.854
4.855
4.851
4.845
4.846
4.847
4.843
4.845
4.843
4.844
4.844
4.840
4.840
4.844
4.844
4.842
4.844
