2.994
3.334
3.507
3.625
3.720
3.785
3.851
3.894
3.918
3.974
3.973
4.015
4.054
4.059
4.055
4.084
4.112
4.135
4.153
4.176
4.194
4.212
4.233
4.198
4.158
4.173
4.180
4.187
4.203
4.210
4.222
4.228
4.240
4.242
4.255
4.266
4.266
4.277
4.288
4.286
4.295
4.307
4.304
4.311
4.320
4.330
4.339
4.332
4.342
4.346
4.356
4.360
4.372
4.360
4.369
4.374
4.383
4.385
4.391
4.399
4.397
4.392
4.397
4.401
4.408
4.417
4.419
4.423
4.433
4.436
4.440
4.425
4.432
4.437
4.438
4.440
4.452
4.458
4.457
4.458
4.468
4.470
4.476
4.473
4.479
4.486
4.484
4.475
4.473
4.472
4.477
4.481
4.484
4.489
4.493
4.499
4.493
4.503
4.503
4.505
4.517
4.514
4.521
4.524
4.520
4.530
4.525
4.533
4.534
4.540
4.540
4.546
4.531
4.525
4.521
4.525
4.520
4.525
4.531
4.540
4.540
4.543
4.537
4.543
4.551
4.546
4.550
4.552
4.550
4.555
4.558
4.560
4.567
4.570
4.570
4.571
4.573
4.577
4.578
4.574
4.575
4.574
4.583
4.581
4.580
4.588
4.589
4.588
4.595
4.598
4.603
4.598
4.600
4.607
4.611
4.606
4.613
4.607
4.611
4.609
4.616
4.612
4.600
4.590
4.584
4.579
4.588
4.590
4.592
4.598
4.591
4.599
4.602
4.603
4.603
4.601
4.607
4.606
4.608
4.612
4.613
4.620
4.619
4.607
4.610
4.615
4.610
4.614
4.613
4.609
4.616
4.615
4.619
4.618
4.621
4.625
4.622
4.629
4.627
4.639
4.635
4.637
4.643
4.639
4.643
4.634
4.636
4.634
4.644
4.644
4.643
4.653
4.651
4.656
4.652
4.653
4.651
4.639
4.646
4.645
4.647
4.653
4.654
4.650
4.651
4.644
4.658
4.653
4.654
4.661
4.657
4.656
4.662
4.659
4.658
4.669
4.668
4.666
4.679
4.673
4.677
4.680
4.681
4.673
4.681
4.681
4.670
4.677
4.681
4.681
4.679
4.688
4.687
4.686
4.687
4.694
4.692
4.686
4.698
4.697
4.698
4.694
4.706
4.707
4.696
4.697
4.692
4.691
4.685
4.700
4.696
4.700
4.698
4.705
4.701
4.692
4.692
4.705
4.699
4.692
4.692
4.705
4.703
4.700
4.703
4.703
4.710
4.710
4.707
4.708
4.717
4.722
4.717
4.714
4.712
4.725
4.725
4.721
4.721
4.719
4.728
4.733
4.725
4.724
4.723
4.716
4.710
4.705
4.699
4.695
4.692
4.688
4.698
4.700
4.690
4.683
4.682
4.695
4.698
4.697
4.698
4.695
4.695
4.705
4.706
4.702
4.703
4.703
4.703
4.703
4.701
4.699
4.696
4.695
4.707
4.716
4.709
4.708
4.704
4.703
4.710
4.719
4.720
4.716
4.715
4.718
4.717
4.724
4.732
4.725
4.721
4.718
4.710
4.708
4.712
4.705
4.704
4.705
4.701
4.711
4.717
4.713
4.709
4.703
4.704
4.703
4.706
4.703
4.703
4.703
4.703
4.702
4.706
4.714
4.712
4.710
4.703
4.707
4.704
4.702
4.714
4.716
4.717
4.716
4.714
4.713
4.707
4.711
4.720
4.729
4.729
4.725
4.729
4.721
4.715
4.716
4.723
4.733
4.736
4.725
4.725
4.722
4.721
4.721
4.721
4.729
4.728
4.732
4.731
4.735
4.731
4.724
4.726
4.727
4.737
4.733
4.737
4.736
4.737
4.732
4.734
4.733
4.729
4.740
4.748
4.755
4.753
4.749
4.748
4.743
4.744
4.744
4.744
4.746
4.745
4.740
4.737
4.738
4.737
4.740
4.736
4.733
4.740
4.749
4.750
4.746
4.748
4.741
4.740
4.736
4.732
4.730
4.737
4.747
4.751
4.751
4.751
4.747
4.750
4.747
4.745
4.749
4.744
4.743
4.753
4.762
4.766
4.762
4.759
4.760
4.762
4.758
4.759
4.752
4.745
4.752
4.761
4.768
4.764
4.760
4.762
4.763
4.761
4.763
4.761
4.760
4.758
4.755
4.764
4.773
4.778
4.777
4.780
4.777
4.778
4.779
4.781
4.774
4.773
4.777
4.767
4.771
4.780
4.785
4.786
4.787
4.781
4.777
4.775
4.777
4.770
4.771
4.769
4.771
4.773
4.779
4.773
4.770
4.764
4.760
4.755
4.754
4.753
4.751
4.747
4.749
4.758
4.765
4.766
4.765
4.769
4.766
4.764
4.762
4.756
4.758
4.764
4.757
4.761
4.754
4.753
4.758
4.758
4.755
4.755
4.754
4.753
4.757
4.756
4.755
4.759
4.757
4.751
4.751
4.748
4.754
4.761
4.770
4.773
4.771
4.767
4.762
4.764
4.758
4.758
4.762
4.766
4.763
4.764
4.762
4.762
4.757
4.762
4.771
4.778
4.779
4.773
4.777
4.775
4.771
4.773
4.774
4.769
4.766
4.759
4.760
4.761
4.763
4.761
4.763
4.772
4.776
4.773
4.773
4.772
4.776
4.770
4.770
4.767
4.766
4.761
4.765
4.766
4.758
4.756
4.754
4.756
4.763
4.770
4.777
4.786
4.788
4.788
4.784
4.781
4.781
4.778
4.781
4.780
4.779
4.773
4.776
4.775
4.773
4.773
4.773
4.775
4.776
4.778
4.785
4.792
4.799
4.799
4.793
4.794
4.793
4.792
4.793
4.788
4.785
4.783
4.784
4.781
4.784
4.781
4.776
4.783
4.776
4.775
4.784
4.789
4.796
4.797
4.795
4.795
4.790
4.792
4.793
4.789
4.793
4.794
4.790
4.795
4.792
4.791
4.787
4.789
4.788
4.791
4.788
4.789
4.788
4.792
4.798
4.805
4.810
4.819
4.820
4.816
4.820
4.818
4.818
4.816
4.817
4.810
4.807
4.805
4.799
4.800
4.807
4.807
4.809
4.807
4.806
4.802
4.799
4.797
4.804
4.810
4.815
4.822
4.820
4.814
4.810
4.810
4.814
4.813
4.810
4.805
4.799
4.795
4.792
4.788
4.782
4.777
4.779
4.778
4.787
4.783
4.785
4.791
4.796
4.802
4.809
4.808
4.809
4.808
4.812
4.811
4.814
4.810
4.810
4.803
4.798
4.797
4.799
4.794
4.788
4.791
4.792
4.791
4.788
4.786
4.785
4.783
4.779
4.786
4.790
4.797
4.803
4.810
4.806
4.807
4.810
4.813
4.812
4.810
4.809
4.807
4.804
4.808
4.807
4.805
4.806
4.803
4.803
4.803
4.806
4.802
4.804
4.808
4.807
4.803
4.801
4.795
4.799
4.792
4.799
4.803
4.809
4.816
4.818
4.821
4.818
4.813
4.812
4.814
4.809
4.810
4.815
4.816
4.815
4.819
4.815
4.814
4.810
4.811
4.815
4.814
4.815
4.816
4.814
4.813
4.815
4.810
4.807
4.811
4.812
4.811
4.809
4.810
4.815
4.819
4.826
4.832
4.836
4.836
4.837
4.838
4.834
4.827
4.825
4.825
4.828
4.824
4.826
4.825
4.828
4.827
4.828
4.830
4.834
4.830
4.831
4.833
4.832
4.835
4.829
4.832
4.832
4.833
4.828
4.822
4.818
4.821
4.821
4.822
4.826
4.833
4.837
4.843
4.840
4.843
4.842
4.843
4.847
4.846
4.845
4.846
4.847
4.844
4.842
4.840
4.834
4.836
4.840
4.835
4.837
4.840
4.837
4.835
4.834
4.832
4.829
4.829
4.825
4.821
4.817
4.813
4.809
4.811
4.812
4.816
4.821
4.827
4.831
4.836
4.837
4.838
4.839
4.836
4.837
4.838
4.837
4.838
4.836
4.840
4.834
4.830
4.836
4.840
4.837
4.836
4.837
4.838
4.836
4.838
4.831
4.829
4.832
4.829
4.828
4.822
4.821
4.822
4.821
4.827
4.825
4.822
4.823
4.829
4.823
4.827
4.828
4.830
4.831
4.836
4.840
4.846
4.850
4.855
4.861
4.860
4.856
4.849
4.850
4.855
4.859
4.858
4.861
4.855
4.858
4.855
4.853
4.852
4.851
4.849
4.850
4.849
4.850
4.847
4.848
4.847
4.853
4.858
4.861
4.858
4.858
4.852
4.850
4.849
4.855
4.851
4.851
4.847
4.850
4.847
4.848
4.849
4.847
4.844
4.845
4.846
4.850
4.854
4.859
4.865
4.869
4.873
4.878
4.874
4.870
4.865
4.867
4.870
4.869
4.871
4.870
4.865
4.867
4.870
4.866
4.865
4.872
4.873
4.869
4.866
4.867
4.865
4.861
