2.991
3.330
3.507
3.636
3.711
3.791
3.847
3.888
3.902
3.957
4.006
3.977
4.013
4.041
4.072
4.100
4.131
4.152
4.178
4.132
4.104
4.116
4.126
4.138
4.158
4.165
4.181
4.187
4.203
4.204
4.222
4.220
4.231
4.245
4.245
4.255
4.271
4.282
4.274
4.285
4.297
4.307
4.300
4.307
4.312
4.324
4.331
4.343
4.339
4.341
4.343
4.352
4.359
4.364
4.374
4.380
4.383
4.372
4.382
4.378
4.390
4.395
4.394
4.398
4.410
4.413
4.418
4.424
4.430
4.422
4.417
4.418
4.423
4.430
4.436
4.438
4.440
4.444
4.451
4.459
4.460
4.465
4.466
4.466
4.465
4.479
4.485
4.482
4.491
4.485
4.464
4.468
4.468
4.477
4.473
4.490
4.487
4.489
4.498
4.490
4.498
4.492
4.497
4.499
4.508
4.515
4.516
4.514
4.518
4.526
4.523
4.525
4.530
4.527
4.532
4.537
4.542
4.543
4.544
4.545
4.544
4.555
4.549
4.561
4.559
4.554
4.566
4.560
4.559
4.551
4.537
4.534
4.533
4.540
4.542
4.549
4.547
4.551
4.550
4.551
4.550
4.560
4.558
4.563
4.571
4.562
4.553
4.557
4.561
4.556
4.561
4.563
4.566
4.570
4.568
4.578
4.580
4.586
4.578
4.591
4.588
4.581
4.582
4.584
4.587
4.593
4.595
4.602
4.594
4.608
4.602
4.599
4.592
4.598
4.595
4.605
4.590
4.598
4.595
4.609
4.604
4.604
4.604
4.607
4.613
4.611
4.613
4.627
4.627
4.628
4.626
4.624
4.632
4.634
4.628
4.626
4.626
4.637
4.635
4.632
4.641
4.638
4.641
4.651
4.644
4.640
4.655
4.650
4.648
4.657
4.646
4.636
4.651
4.649
4.650
4.655
4.651
4.639
4.652
4.647
4.642
4.647
4.656
4.652
4.648
4.660
4.661
4.659
4.662
4.671
4.668
4.663
4.662
4.679
4.677
4.677
4.668
4.679
4.682
4.677
4.680
4.683
4.675
4.667
4.659
4.651
4.643
4.647
4.640
4.638
4.634
4.648
4.652
4.646
4.646
4.643
4.660
4.658
4.656
4.641
4.652
4.658
4.660
4.653
4.648
4.659
4.662
4.664
4.662
4.659
4.663
4.678
4.680
4.673
4.671
4.667
4.680
4.674
4.664
4.655
4.660
4.665
4.667
4.662
4.653
4.655
4.663
4.660
4.648
4.646
4.646
4.662
4.664
4.657
4.654
4.654
4.650
4.665
4.666
4.664
4.658
4.662
4.656
4.666
4.676
4.680
4.675
4.677
4.670
4.662
4.677
4.684
4.674
4.684
4.672
4.665
4.669
4.682
4.678
4.676
4.683
4.680
4.676
4.672
4.686
4.688
4.689
4.686
4.679
4.678
4.684
4.685
4.699
4.703
4.701
4.705
4.696
4.691
4.690
4.694
4.703
4.695
4.686
4.686
4.690
4.691
4.682
4.695
4.697
4.701
4.701
4.695
4.685
4.684
4.681
4.694
4.698
4.701
4.703
4.701
4.699
4.698
4.692
4.690
4.700
4.712
4.719
4.712
4.711
4.711
4.706
4.704
4.693
4.700
4.713
4.714
4.716
4.716
4.714
4.713
4.712
4.709
4.707
4.712
4.720
4.732
4.731
4.733
4.736
4.735
4.726
4.725
4.721
4.715
4.721
4.733
4.744
4.738
4.733
4.723
4.724
4.728
4.726
4.728
4.728
4.728
4.737
4.730
4.723
4.716
4.710
4.703
4.706
4.707
4.704
4.715
4.720
4.717
4.718
4.720
4.713
4.721
4.719
4.708
4.710
4.701
4.708
4.707
4.717
4.713
4.713
4.714
4.707
4.707
4.701
4.708
4.706
4.704
4.705
4.716
4.718
4.716
4.727
4.718
4.720
4.721
4.720
4.723
4.724
4.721
4.716
4.718
4.718
4.726
4.734
4.728
4.727
4.720
4.719
4.716
4.721
4.725
4.720
4.717
4.722
4.720
4.718
4.728
4.720
4.729
4.728
4.724
4.714
4.714
4.716
4.720
4.715
4.719
4.718
4.720
4.716
4.721
4.731
4.741
4.741
4.735
4.732
4.734
4.737
4.738
4.739
4.740
4.737
4.733
4.733
4.733
4.732
4.732
4.734
4.744
4.745
4.750
4.750
4.745
4.748
4.743
4.740
4.736
4.735
4.736
4.733
4.725
4.723
4.728
4.728
4.737
4.746
4.755
4.756
4.756
4.758
4.758
4.752
4.755
4.756
4.751
4.752
4.746
4.747
4.745
4.753
4.753
4.757
4.750
4.747
4.756
4.764
4.769
4.774
4.766
4.769
4.766
4.766
4.769
4.760
4.765
4.758
4.753
4.753
4.759
4.756
4.752
4.755
4.755
4.754
4.762
4.766
4.760
4.754
4.748
4.750
4.746
4.747
4.746
4.743
4.748
4.747
4.739
4.745
4.749
4.751
4.747
4.743
4.742
4.748
4.757
4.757
4.754
4.756
4.758
4.757
4.754
4.749
4.743
4.743
4.743
4.747
4.746
4.740
4.739
4.740
4.744
4.746
4.743
4.745
4.745
4.747
4.755
4.763
4.771
4.773
4.771
4.775
4.771
4.765
4.764
4.758
4.762
4.756
4.755
4.758
4.755
4.757
4.758
4.753
4.746
4.746
4.748
4.748
4.746
4.747
4.755
4.762
4.770
4.777
4.785
4.785
4.790
4.791
4.791
4.788
4.781
4.771
4.770
4.771
4.766
4.766
4.768
4.770
4.778
4.772
4.769
4.771
4.765
4.765
4.761
4.763
4.763
4.763
4.769
4.777
4.784
4.791
4.798
4.806
4.803
4.801
4.796
4.800
4.796
4.796
4.795
4.792
4.792
4.793
4.786
4.790
4.791
4.784
4.778
4.776
4.777
4.776
4.782
4.785
4.781
4.781
4.780
4.774
4.781
4.788
4.795
4.802
4.804
4.798
4.792
4.786
4.784
4.780
4.777
4.776
4.779
4.785
4.784
4.779
4.777
4.778
4.777
4.781
4.780
4.778
4.776
4.772
4.768
4.768
4.768
4.770
4.765
4.773
4.774
4.781
4.787
4.794
4.801
4.807
4.811
4.805
4.805
4.804
4.801
4.799
4.796
4.801
4.801
4.797
4.795
4.797
4.801
4.797
4.795
4.789
4.793
4.790
4.796
4.798
4.800
4.801
4.796
4.790
4.790
4.791
4.788
4.790
4.792
4.787
4.789
4.794
4.800
4.807
4.813
4.819
4.826
4.826
4.829
4.829
4.824
4.819
4.821
4.829
4.829
4.825
4.833
4.832
4.831
4.831
4.830
4.828
4.823
4.818
4.811
4.805
4.802
4.804
4.810
4.807
4.802
4.794
4.795
4.802
4.805
4.813
4.813
4.809
4.807
4.807
4.805
4.809
4.815
4.818
4.815
4.811
4.808
4.804
4.802
4.797
4.801
4.798
4.797
4.803
4.798
4.792
4.790
4.792
4.793
4.793
4.788
4.783
4.782
4.777
4.778
4.782
4.781
4.783
4.784
4.784
4.785
4.783
4.781
4.780
4.778
4.778
4.778
4.777
4.783
4.789
4.794
4.799
4.795
4.797
4.797
4.798
4.796
4.799
4.799
4.799
4.793
4.792
4.789
4.793
4.790
4.791
4.791
4.790
4.788
4.790
4.791
4.791
4.791
4.789
4.789
4.783
4.785
4.786
4.785
4.784
4.783
4.783
4.779
4.779
4.780
4.778
4.779
4.780
4.780
4.777
4.773
4.775
4.775
4.778
4.783
4.789
4.794
4.799
4.805
4.806
4.801
4.799
4.797
4.797
4.799
4.798
4.796
4.795
4.798
4.797
4.802
4.803
4.811
4.809
4.806
4.807
4.808
4.802
4.800
4.798
4.796
4.801
4.800
4.801
4.799
4.793
4.787
4.783
4.783
4.783
4.784
4.786
4.783
4.790
4.787
4.787
4.785
4.783
4.786
4.788
4.783
4.779
4.774
4.771
4.776
4.782
4.787
4.792
4.797
4.802
4.807
4.806
4.802
4.804
4.803
4.797
4.793
4.793
4.795
4.797
4.798
4.798
4.798
4.798
4.794
4.791
4.790
4.792
4.791
4.786
4.787
4.786
4.783
4.782
4.784
4.789
4.789
4.785
4.788
4.787
4.784
4.788
4.790
4.785
4.785
4.782
4.785
4.785
4.784
4.783
4.784
4.783
4.782
4.784
4.785
4.782
4.783
4.780
4.784
4.786
4.783
4.784
4.785
4.783
4.788
4.793
4.798
4.803
4.807
4.812
4.817
4.812
4.810
4.807
4.805
4.812
4.816
4.815
4.813
4.812
4.814
4.809
4.805
4.801
4.801
