2.994
3.331
3.509
3.633
3.709
3.779
3.843
3.890
3.914
3.970
3.971
4.011
4.051
4.088
4.057
4.080
4.106
4.129
4.149
4.175
4.188
4.209
4.227
4.242
4.202
4.167
4.183
4.190
4.201
4.214
4.216
4.230
4.235
4.249
4.249
4.261
4.275
4.275
4.284
4.294
4.292
4.302
4.311
4.320
4.319
4.324
4.333
4.343
4.349
4.342
4.350
4.357
4.368
4.370
4.382
4.367
4.375
4.381
4.386
4.400
4.401
4.409
4.410
4.400
4.409
4.414
4.418
4.423
4.427
4.430
4.435
4.446
4.445
4.450
4.435
4.442
4.446
4.446
4.453
4.460
4.460
4.461
4.470
4.471
4.476
4.485
4.484
4.488
4.492
4.497
4.486
4.483
4.487
4.480
4.489
4.491
4.497
4.504
4.506
4.507
4.505
4.512
4.512
4.515
4.520
4.526
4.527
4.534
4.527
4.534
4.533
4.537
4.544
4.546
4.553
4.551
4.550
4.535
4.536
4.532
4.534
4.531
4.538
4.540
4.544
4.549
4.557
4.554
4.555
4.560
4.558
4.554
4.555
4.559
4.561
4.562
4.564
4.568
4.574
4.578
4.579
4.579
4.583
4.590
4.593
4.583
4.585
4.586
4.591
4.590
4.591
4.595
4.597
4.598
4.605
4.614
4.609
4.609
4.609
4.617
4.615
4.622
4.620
4.623
4.613
4.617
4.624
4.623
4.618
4.606
4.596
4.594
4.594
4.597
4.599
4.601
4.610
4.603
4.605
4.612
4.612
4.617
4.607
4.616
4.613
4.614
4.620
4.620
4.624
4.628
4.627
4.614
4.626
4.620
4.621
4.620
4.620
4.619
4.627
4.623
4.632
4.627
4.635
4.630
4.637
4.634
4.635
4.642
4.638
4.649
4.643
4.649
4.648
4.644
4.648
4.644
4.649
4.649
4.651
4.658
4.657
4.663
4.667
4.661
4.671
4.663
4.654
4.655
4.653
4.657
4.657
4.660
4.664
4.652
4.664
4.658
4.662
4.669
4.670
4.663
4.670
4.669
4.660
4.674
4.673
4.672
4.675
4.680
4.679
4.680
4.694
4.688
4.681
4.691
4.689
4.688
4.687
4.690
4.683
4.683
4.695
4.691
4.690
4.694
4.703
4.696
4.695
4.702
4.706
4.705
4.705
4.710
4.708
4.710
4.703
4.715
4.711
4.704
4.703
4.702
4.700
4.696
4.706
4.713
4.712
4.709
4.708
4.710
4.706
4.704
4.705
4.705
4.706
4.701
4.703
4.718
4.717
4.709
4.711
4.715
4.720
4.721
4.720
4.723
4.723
4.731
4.727
4.729
4.723
4.729
4.738
4.734
4.738
4.731
4.733
4.742
4.736
4.729
4.723
4.720
4.712
4.707
4.705
4.707
4.703
4.702
4.700
4.704
4.698
4.696
4.692
4.693
4.698
4.712
4.709
4.707
4.708
4.704
4.706
4.713
4.717
4.715
4.711
4.710
4.708
4.712
4.711
4.713
4.709
4.713
4.712
4.723
4.722
4.718
4.719
4.716
4.716
4.723
4.730
4.731
4.731
4.727
4.731
4.732
4.731
4.735
4.728
4.721
4.714
4.712
4.720
4.720
4.716
4.713
4.716
4.718
4.716
4.723
4.723
4.716
4.714
4.710
4.703
4.713
4.719
4.712
4.714
4.716
4.716
4.715
4.711
4.721
4.717
4.716
4.714
4.713
4.712
4.710
4.716
4.726
4.727
4.727
4.727
4.723
4.722
4.723
4.723
4.729
4.739
4.742
4.733
4.732
4.730
4.724
4.728
4.729
4.736
4.737
4.738
4.738
4.731
4.729
4.728
4.726
4.733
4.742
4.744
4.745
4.747
4.738
4.736
4.735
4.736
4.734
4.742
4.748
4.750
4.748
4.744
4.748
4.746
4.745
4.742
4.743
4.752
4.760
4.764
4.762
4.755
4.753
4.757
4.757
4.749
4.745
4.750
4.748
4.749
4.754
4.752
4.749
4.747
4.746
4.744
4.745
4.752
4.762
4.757
4.749
4.746
4.749
4.749
4.745
4.741
4.737
4.747
4.754
4.760
4.765
4.763
4.762
4.760
4.760
4.757
4.759
4.753
4.753
4.755
4.765
4.774
4.770
4.768
4.771
4.775
4.771
4.763
4.754
4.755
4.754
4.758
4.767
4.775
4.775
4.775
4.771
4.772
4.770
4.774
4.773
4.771
4.770
4.769
4.767
4.775
4.783
4.790
4.790
4.790
4.792
4.794
4.792
4.785
4.778
4.782
4.784
4.780
4.776
4.783
4.792
4.791
4.789
4.790
4.789
4.788
4.786
4.783
4.781
4.783
4.781
4.783
4.779
4.774
4.776
4.771
4.764
4.764
4.764
4.766
4.762
4.763
4.762
4.763
4.760
4.768
4.776
4.777
4.776
4.780
4.775
4.774
4.771
4.771
4.768
4.766
4.762
4.757
4.753
4.760
4.767
4.766
4.768
4.766
4.764
4.764
4.768
4.772
4.768
4.766
4.764
4.764
4.759
4.755
4.756
4.763
4.770
4.777
4.779
4.774
4.776
4.772
4.776
4.772
4.773
4.771
4.771
4.775
4.776
4.774
4.775
4.774
4.771
4.772
4.781
4.786
4.787
4.782
4.787
4.788
4.784
4.780
4.776
4.772
4.770
4.769
4.771
4.768
4.775
4.772
4.771
4.775
4.781
4.788
4.787
4.786
4.786
4.779
4.773
4.775
4.776
4.779
4.776
4.771
4.770
4.768
4.768
4.768
4.765
4.768
4.776
4.782
4.789
4.796
4.800
4.794
4.794
4.791
4.786
4.786
4.794
4.788
4.784
4.783
4.787
4.788
4.786
4.783
4.787
4.786
4.790
4.788
4.790
4.797
4.803
4.805
4.803
4.801
4.803
4.799
4.798
4.797
4.794
4.796
4.798
4.796
4.795
4.793
4.787
4.783
4.790
4.786
4.783
4.788
4.795
4.799
4.806
4.805
4.805
4.805
4.803
4.801
4.806
4.802
4.800
4.804
4.803
4.809
4.803
4.804
4.800
4.801
4.797
4.802
4.801
4.801
4.800
4.796
4.803
4.809
4.814
4.821
4.828
4.831
4.828
4.827
4.828
4.826
4.823
4.818
4.816
4.810
4.811
4.813
4.814
4.815
4.820
4.818
4.816
4.810
4.806
4.804
4.803
4.809
4.812
4.818
4.825
4.820
4.814
4.816
4.820
4.820
4.814
4.812
4.806
4.802
4.797
4.793
4.794
4.791
4.792
4.788
4.789
4.791
4.792
4.797
4.795
4.794
4.798
4.805
4.809
4.816
4.822
4.823
4.822
4.821
4.823
4.820
4.814
4.813
4.812
4.807
4.801
4.801
4.795
4.799
4.800
4.805
4.805
4.801
4.795
4.790
4.787
4.788
4.786
4.791
4.798
4.804
4.809
4.815
4.816
4.815
4.820
4.823
4.823
4.824
4.820
4.818
4.816
4.818
4.817
4.816
4.819
4.816
4.816
4.815
4.814
4.815
4.812
4.812
4.811
4.810
4.812
4.809
4.801
4.802
4.798
4.802
4.808
4.815
4.819
4.824
4.825
4.827
4.825
4.821
4.823
4.826
4.823
4.824
4.823
4.827
4.825
4.827
4.825
4.826
4.823
4.820
4.825
4.826
4.825
4.824
4.823
4.824
4.827
4.826
4.825
4.820
4.816
4.815
4.814
4.815
4.817
4.821
4.827
4.832
4.836
4.842
4.849
4.845
4.844
4.840
4.839
4.837
4.836
4.840
4.834
4.832
4.836
4.838
4.842
4.842
4.838
4.838
4.842
4.845
4.846
4.848
4.844
4.845
4.842
4.842
4.838
4.835
4.831
4.831
4.830
4.832
4.828
4.832
4.830
4.835
4.839
4.843
4.849
4.851
4.850
4.853
4.855
4.856
4.857
4.859
4.858
4.853
4.847
4.845
4.844
4.843
4.842
4.849
4.850
4.849
4.847
4.845
4.846
4.842
4.838
4.834
4.828
4.826
4.822
4.826
4.822
4.821
4.822
4.823
4.820
4.821
4.825
4.831
4.834
4.840
4.844
4.849
4.853
4.851
4.846
4.849
4.852
4.851
4.849
4.845
4.844
4.840
4.841
4.843
4.844
4.846
4.847
4.845
4.847
4.845
4.846
4.846
4.842
4.838
4.834
4.834
4.833
4.834
4.834
4.835
4.833
4.835
4.833
4.835
4.834
4.837
4.833
4.834
4.836
4.838
4.842
4.840
4.844
4.849
4.855
4.857
4.863
4.865
4.864
4.865
4.863
4.862
4.868
4.873
4.871
4.870
4.866
4.864
4.863
4.859
4.861
4.862
4.860
4.862
4.860
4.864
4.860
4.857
4.861
4.859
4.863
