2.992
3.334
3.512
3.638
3.715
3.776
3.830
3.892
3.903
3.957
4.003
3.981
4.011
4.045
4.077
4.105
4.128
4.158
4.167
4.116
4.103
4.119
4.132
4.138
4.153
4.166
4.173
4.190
4.194
4.206
4.222
4.223
4.238
4.247
4.247
4.258
4.271
4.267
4.276
4.288
4.293
4.305
4.298
4.307
4.318
4.324
4.332
4.340
4.331
4.335
4.345
4.351
4.358
4.371
4.372
4.381
4.367
4.376
4.377
4.384
4.388
4.395
4.397
4.409
4.414
4.417
4.419
4.428
4.418
4.414
4.414
4.418
4.427
4.429
4.440
4.434
4.443
4.448
4.454
4.458
4.462
4.462
4.463
4.466
4.477
4.483
4.482
4.489
4.476
4.459
4.466
4.467
4.471
4.473
4.485
4.478
4.488
4.495
4.487
4.494
4.493
4.491
4.499
4.510
4.509
4.511
4.512
4.519
4.520
4.518
4.526
4.522
4.525
4.532
4.534
4.543
4.545
4.546
4.545
4.547
4.545
4.554
4.558
4.549
4.561
4.555
4.562
4.547
4.534
4.532
4.539
4.535
4.536
4.544
4.550
4.544
4.544
4.549
4.551
4.554
4.561
4.560
4.562
4.554
4.555
4.549
4.553
4.562
4.558
4.563
4.562
4.566
4.570
4.569
4.580
4.574
4.586
4.582
4.583
4.576
4.580
4.582
4.591
4.588
4.595
4.595
4.603
4.596
4.600
4.590
4.588
4.590
4.594
4.592
4.592
4.588
4.607
4.603
4.605
4.603
4.600
4.610
4.608
4.617
4.618
4.617
4.627
4.620
4.622
4.626
4.625
4.618
4.622
4.623
4.635
4.628
4.632
4.637
4.630
4.639
4.647
4.640
4.643
4.656
4.643
4.648
4.652
4.640
4.644
4.642
4.641
4.648
4.654
4.642
4.644
4.647
4.635
4.642
4.652
4.647
4.643
4.656
4.655
4.653
4.657
4.669
4.660
4.661
4.660
4.669
4.668
4.673
4.668
4.677
4.676
4.672
4.674
4.681
4.674
4.666
4.658
4.651
4.643
4.645
4.633
4.631
4.635
4.648
4.644
4.647
4.638
4.648
4.657
4.651
4.649
4.642
4.651
4.651
4.654
4.644
4.651
4.659
4.655
4.661
4.654
4.656
4.671
4.673
4.674
4.666
4.666
4.673
4.676
4.667
4.657
4.656
4.662
4.661
4.658
4.656
4.652
4.659
4.662
4.651
4.643
4.645
4.660
4.661
4.654
4.650
4.647
4.651
4.657
4.659
4.655
4.658
4.655
4.653
4.666
4.669
4.669
4.670
4.671
4.669
4.666
4.680
4.676
4.673
4.677
4.669
4.660
4.673
4.677
4.669
4.673
4.675
4.674
4.670
4.677
4.683
4.682
4.684
4.677
4.675
4.681
4.680
4.693
4.699
4.696
4.697
4.693
4.689
4.690
4.689
4.703
4.697
4.687
4.678
4.685
4.686
4.681
4.692
4.693
4.699
4.693
4.694
4.685
4.680
4.681
4.692
4.696
4.699
4.695
4.700
4.696
4.694
4.685
4.689
4.701
4.714
4.714
4.705
4.704
4.710
4.704
4.703
4.692
4.703
4.709
4.708
4.717
4.708
4.709
4.708
4.707
4.707
4.704
4.714
4.725
4.727
4.723
4.729
4.731
4.727
4.721
4.722
4.714
4.718
4.728
4.740
4.737
4.732
4.723
4.721
4.723
4.721
4.723
4.722
4.726
4.736
4.731
4.724
4.718
4.711
4.704
4.702
4.706
4.705
4.714
4.714
4.714
4.713
4.712
4.710
4.714
4.714
4.707
4.703
4.699
4.708
4.707
4.710
4.710
4.708
4.707
4.703
4.701
4.702
4.704
4.700
4.699
4.710
4.715
4.711
4.720
4.721
4.717
4.716
4.714
4.714
4.720
4.716
4.710
4.713
4.714
4.722
4.731
4.730
4.723
4.721
4.715
4.711
4.715
4.718
4.714
4.716
4.714
4.714
4.715
4.725
4.720
4.724
4.723
4.718
4.712
4.710
4.714
4.714
4.710
4.714
4.714
4.714
4.715
4.724
4.731
4.740
4.734
4.729
4.726
4.733
4.734
4.733
4.731
4.732
4.731
4.729
4.726
4.729
4.728
4.730
4.739
4.744
4.742
4.747
4.742
4.741
4.740
4.743
4.734
4.733
4.729
4.733
4.725
4.716
4.726
4.725
4.734
4.743
4.751
4.749
4.750
4.752
4.751
4.749
4.750
4.752
4.747
4.744
4.742
4.740
4.745
4.747
4.748
4.754
4.747
4.747
4.756
4.765
4.766
4.763
4.762
4.763
4.766
4.766
4.766
4.758
4.758
4.752
4.748
4.751
4.751
4.752
4.747
4.749
4.753
4.755
4.764
4.763
4.758
4.752
4.747
4.743
4.742
4.743
4.739
4.744
4.742
4.741
4.739
4.744
4.747
4.743
4.739
4.738
4.747
4.754
4.759
4.752
4.750
4.755
4.755
4.754
4.747
4.738
4.737
4.738
4.739
4.743
4.737
4.733
4.734
4.743
4.740
4.740
4.742
4.741
4.748
4.754
4.762
4.771
4.769
4.769
4.772
4.769
4.762
4.758
4.758
4.757
4.750
4.752
4.751
4.749
4.755
4.752
4.750
4.741
4.742
4.741
4.744
4.743
4.751
4.758
4.766
4.773
4.781
4.781
4.784
4.785
4.788
4.785
4.783
4.774
4.766
4.768
4.764
4.763
4.762
4.768
4.772
4.769
4.764
4.766
4.764
4.758
4.759
4.760
4.758
4.762
4.769
4.776
4.783
4.790
4.797
4.803
4.799
4.796
4.795
4.793
4.792
4.793
4.788
4.787
4.786
4.785
4.783
4.787
4.789
4.782
4.777
4.771
4.770
4.776
4.778
4.777
4.775
4.779
4.777
4.777
4.784
4.790
4.797
4.801
4.800
4.795
4.789
4.784
4.778
4.773
4.770
4.776
4.781
4.779
4.781
4.773
4.773
4.773
4.777
4.776
4.773
4.771
4.769
4.765
4.764
4.765
4.762
4.762
4.769
4.774
4.781
4.787
4.794
4.799
4.807
4.803
4.802
4.798
4.800
4.796
4.792
4.796
4.799
4.796
4.792
4.790
4.794
4.793
4.792
4.792
4.786
4.790
4.789
4.793
4.795
4.793
4.797
4.790
4.784
4.785
4.788
4.785
4.788
4.785
4.784
4.792
4.799
4.804
4.810
4.817
4.822
4.825
4.825
4.825
4.822
4.815
4.819
4.823
4.821
4.820
4.825
4.825
4.827
4.831
4.825
4.825
4.821
4.814
4.811
4.806
4.799
4.801
4.803
4.803
4.800
4.793
4.794
4.801
4.807
4.812
4.807
4.804
4.805
4.799
4.805
4.812
4.818
4.818
4.814
4.810
4.808
4.804
4.800
4.796
4.794
4.793
4.797
4.798
4.795
4.790
4.788
4.787
4.791
4.787
4.783
4.779
4.773
4.773
4.778
4.777
4.778
4.779
4.778
4.779
4.780
4.781
4.777
4.773
4.772
4.774
4.777
4.782
4.789
4.793
4.799
4.796
4.792
4.790
4.794
4.792
4.794
4.793
4.792
4.792
4.789
4.785
4.788
4.787
4.783
4.785
4.788
4.785
4.788
4.788
4.788
4.784
4.783
4.784
4.780
4.782
4.780
4.781
4.783
4.781
4.778
4.774
4.777
4.777
4.772
4.776
4.775
4.774
4.770
4.769
4.770
4.776
4.781
4.785
4.791
4.796
4.803
4.803
4.800
4.796
4.792
4.795
4.794
4.793
4.791
4.790
4.797
4.795
4.795
4.801
4.807
4.804
4.800
4.803
4.802
4.798
4.797
4.795
4.795
4.795
4.795
4.798
4.797
4.792
4.788
4.781
4.777
4.777
4.780
4.782
4.783
4.784
4.781
4.782
4.783
4.781
4.783
4.785
4.783
4.777
4.773
4.774
4.780
4.785
4.791
4.793
4.799
4.803
4.802
4.796
4.800
4.803
4.799
4.792
4.791
4.792
4.792
4.795
4.797
4.793
4.789
4.790
4.788
4.785
4.784
4.785
4.784
4.784
4.780
4.779
4.778
4.782
4.788
4.784
4.784
4.782
4.781
4.777
4.784
4.782
4.780
4.782
4.778
4.779
4.780
4.781
4.778
4.777
4.780
4.777
4.778
4.781
4.778
4.777
4.778
4.784
4.781
4.779
4.778
4.781
4.786
4.792
4.795
4.801
4.805
4.809
4.814
4.814
4.810
4.804
4.803
4.809
4.813
4.810
4.808
4.810
4.808
4.810
4.805
4.803
4.797
4.798
4.789
4.790
4.784
4.784
4.784
4.785
4.781
4.785
4.783
4.781
4.780
4.777
4.781
4.784
4.783
4.779
