2.871
2.971
3.240
3.256
3.372
3.415
3.532
3.556
3.481
3.594
3.660
3.583
3.658
3.594
3.537
3.722
3.645
3.764
3.749
3.722
3.741
3.600
3.688
3.721
3.658
3.683
3.824
3.907
3.787
3.669
3.724
3.810
3.834
3.827
3.776
3.751
3.671
3.765
3.864
3.867
3.735
3.772
3.783
3.699
3.572
3.610
3.688
3.767
3.845
3.923
3.933
3.793
3.851
3.796
3.818
3.770
3.781
3.775
3.727
3.684
3.622
3.613
3.671
3.729
3.788
3.846
3.904
3.895
3.872
3.917
3.950
3.863
3.812
3.813
3.828
3.780
3.831
3.833
3.805
3.781
3.767
3.736
3.696
3.680
3.703
3.679
3.688
3.707
3.750
3.753
3.699
3.641
3.597
3.688
3.654
3.693
3.731
3.770
3.808
3.847
3.885
3.923
3.962
3.975
3.953
3.919
3.904
3.851
3.923
3.869
3.846
3.806
3.828
3.873
3.817
3.823
3.873
3.903
3.853
3.846
3.866
3.794
3.760
3.790
3.808
3.797
3.787
3.758
3.779
3.784
3.769
3.750
3.700
3.714
3.724
3.775
3.733
3.692
3.652
3.612
3.674
3.626
3.645
3.702
3.664
3.699
3.707
3.656
3.701
3.686
3.660
3.660
3.645
3.636
3.638
3.661
3.714
3.757
3.733
3.732
3.677
3.703
3.679
3.695
3.669
3.713
3.696
3.652
3.630
3.645
3.678
3.710
3.743
3.726
3.728
3.755
3.749
3.711
3.755
3.767
3.759
3.754
3.780
3.772
3.779
3.718
3.757
3.704
3.696
3.746
3.784
3.752
3.683
3.699
3.718
3.734
3.753
3.772
3.791
3.810
3.829
3.848
3.867
3.886
3.905
3.924
3.943
3.962
3.981
4.000
4.019
4.038
4.003
4.039
3.991
4.014
3.991
4.000
4.013
3.981
3.949
3.917
3.945
3.950
3.962
3.941
3.912
3.891
3.883
3.908
3.898
3.903
3.881
3.909
3.880
3.883
3.852
3.863
3.866
3.890
3.847
3.887
3.908
3.898
3.893
3.928
3.871
3.841
3.855
3.848
3.867
3.868
3.835
3.820
3.830
3.813
3.794
3.796
3.770
3.777
3.730
3.707
3.703
3.745
3.746
3.751
3.753
3.769
3.785
3.789
3.795
3.748
3.751
3.729
3.756
3.784
3.782
3.797
3.814
3.826
3.826
3.790
3.800
3.787
3.832
3.792
3.763
3.745
3.743
3.769
3.742
3.726
3.726
3.718
3.729
3.767
3.759
3.743
3.712
3.717
3.717
3.675
3.677
3.674
3.675
3.720
3.743
3.715
3.688
3.666
3.659
3.686
3.692
3.705
3.692
3.658
3.684
3.709
3.731
3.743
3.776
3.780
3.776
3.794
3.787
3.762
3.738
3.717
3.688
3.683
3.679
3.674
3.693
3.681
3.654
3.680
3.667
3.679
3.653
3.666
3.666
3.671
3.661
3.686
3.709
3.697
3.713
3.729
3.746
3.762
3.778
3.794
3.810
3.826
3.843
3.848
3.843
3.820
3.802
3.772
3.754
3.751
3.767
3.791
3.816
3.820
3.793
3.772
3.772
3.800
3.781
3.794
3.801
3.794
3.789
3.772
3.808
3.781
3.805
3.806
3.792
3.763
3.762
3.746
3.747
3.765
3.777
3.746
3.743
3.771
3.765
3.751
3.747
3.724
3.743
3.745
3.726
3.705
3.716
3.676
3.694
3.729
3.738
3.759
3.776
3.774
3.761
3.739
3.739
3.715
3.718
3.711
3.719
3.674
3.707
3.687
3.687
3.710
3.716
3.743
3.761
3.745
3.746
3.740
3.728
3.730
3.727
3.713
3.700
3.698
3.689
3.688
3.715
3.698
3.678
3.660
3.654
3.663
3.645
3.666
3.688
3.697
3.720
3.737
3.765
3.772
3.739
3.718
3.698
3.683
3.685
3.676
3.693
3.705
3.720
3.734
3.749
3.764
3.778
3.793
3.808
3.822
3.809
3.802
3.796
3.782
3.755
3.742
3.762
3.772
3.755
3.763
3.751
3.741
3.785
3.752
3.772
3.735
3.742
3.714
3.750
3.730
3.751
3.772
3.773
3.765
3.758
3.752
3.770
3.777
3.758
3.744
3.750
3.743
3.730
3.749
3.766
3.764
3.776
3.775
3.744
3.732
3.715
3.731
3.733
3.714
3.697
3.726
3.710
3.684
3.662
3.653
3.676
3.685
3.679
3.698
3.677
3.702
3.699
3.719
3.733
3.744
3.749
3.731
3.738
3.718
3.735
3.728
3.727
3.693
3.693
3.680
3.707
3.702
3.725
3.702
3.693
3.719
3.706
3.712
3.741
3.732
3.713
3.695
3.677
3.685
3.678
3.677
3.691
3.705
3.718
3.732
3.745
3.740
3.737
3.753
3.742
3.744
3.744
3.764
3.785
3.798
3.776
3.796
3.809
3.804
3.792
3.767
3.750
3.764
3.735
3.757
3.774
3.785
3.793
3.778
3.774
3.756
3.738
3.720
3.703
3.685
3.687
3.712
3.737
3.719
3.720
3.743
3.750
3.731
3.707
3.683
3.689
3.698
3.718
3.732
3.757
3.736
3.733
3.716
3.709
3.708
3.703
3.729
3.748
3.752
3.742
3.740
3.736
3.733
3.723
3.712
3.722
3.740
3.720
3.712
3.714
3.692
3.698
3.682
3.680
3.701
3.690
3.673
3.662
3.653
3.668
3.671
3.675
3.683
3.703
3.717
3.709
3.699
3.687
3.698
3.718
3.704
3.695
3.708
3.721
3.733
3.746
3.759
3.772
3.784
3.793
3.770
3.784
3.768
3.772
3.771
3.742
3.750
3.734
3.730
3.739
3.726
3.743
3.749
3.729
3.717
3.722
3.711
3.720
3.736
3.710
3.714
3.733
3.736
3.747
3.739
3.733
3.737
3.720
3.742
3.762
3.768
3.753
3.731
3.734
3.697
3.729
3.707
3.715
3.725
3.750
3.738
3.755
3.730
3.747
3.728
3.729
3.723
3.707
3.689
3.675
3.659
3.687
3.663
3.678
3.699
3.696
3.714
3.727
3.731
3.732
3.719
3.715
3.715
3.679
3.700
3.699
3.687
3.687
3.696
3.689
3.686
3.696
3.718
3.729
3.705
3.717
3.700
3.700
3.712
3.724
3.736
3.748
3.761
3.749
3.738
3.747
3.724
3.737
3.734
3.713
3.726
3.713
3.719
3.737
3.744
3.742
3.755
3.764
3.741
3.738
3.735
3.746
3.759
3.745
3.761
3.754
3.770
3.731
3.748
3.731
3.716
3.697
3.692
3.715
3.713
3.716
3.709
3.731
3.735
3.748
3.740
3.726
3.730
3.732
3.715
3.702
3.694
3.708
3.720
3.719
3.720
3.721
3.719
3.705
3.697
3.684
3.689
3.685
3.695
3.694
3.722
3.735
3.728
3.720
3.699
3.696
3.674
3.688
3.701
3.688
3.709
3.704
3.716
3.702
3.689
3.680
3.680
3.669
3.681
3.692
3.704
3.716
3.727
3.734
3.744
3.748
3.754
3.754
3.771
3.770
3.765
3.764
3.753
3.754
3.741
3.749
3.726
3.720
3.727
3.722
3.713
3.707
3.713
3.738
3.750
3.765
3.748
3.743
3.725
3.717
3.734
3.737
3.737
3.725
3.740
3.712
3.700
3.712
3.729
3.741
3.737
3.728
3.727
3.713
3.721
3.720
3.730
3.724
3.732
3.713
3.689
3.692
3.704
3.701
3.717
3.727
3.698
3.700
3.689
3.680
3.678
3.683
3.702
3.687
3.676
3.686
3.695
3.691
3.679
3.700
3.684
3.701
3.718
3.734
3.729
3.734
3.729
3.726
3.719
3.706
3.700
3.711
3.722
3.733
3.744
3.730
3.727
3.738
3.732
3.740
3.741
3.754
3.752
3.748
3.726
3.742
3.745
3.733
3.714
3.716
3.710
3.714
3.716
3.710
3.722
3.706
3.723
3.727
3.741
3.731
3.726
3.745
3.743
3.748
3.761
3.758
3.737
3.742
3.747
3.759
3.749
3.735
3.722
3.708
3.694
3.681
3.674
3.667
3.680
3.673
3.688
3.690
3.701
3.718
3.696
3.696
3.697
3.693
3.703
3.690
3.706
3.722
3.729
3.714
3.699
3.676
3.689
3.689
3.708
3.720
3.701
3.693
3.702
3.719
3.730
3.708
3.702
3.715
3.700
3.705
3.716
3.726
3.727
3.739
3.726
3.740
3.725
3.737
3.721
3.703
3.716
3.701
3.687
3.715
3.711
3.724
3.737
3.736
3.743
3.756
3.779
3.748
3.744
3.752
3.742
3.740
3.746
3.723
3.714
3.699
3.712
3.710
3.698
