2.994
3.334
3.516
3.633
3.718
3.792
3.833
3.878
3.944
3.958
4.008
4.004
4.041
4.078
4.109
4.078
4.098
4.124
4.144
4.170
4.184
4.206
4.224
4.242
4.258
4.239
4.203
4.190
4.205
4.212
4.219
4.231
4.235
4.248
4.252
4.262
4.276
4.278
4.287
4.295
4.296
4.307
4.317
4.313
4.320
4.330
4.339
4.335
4.342
4.351
4.358
4.363
4.359
4.366
4.373
4.379
4.389
4.392
4.400
4.387
4.395
4.401
4.405
4.414
4.414
4.420
4.430
4.423
4.421
4.428
4.432
4.436
4.441
4.445
4.449
4.451
4.460
4.462
4.465
4.458
4.455
4.466
4.466
4.467
4.470
4.480
4.477
4.481
4.485
4.489
4.498
4.502
4.504
4.503
4.507
4.510
4.510
4.499
4.504
4.507
4.501
4.508
4.509
4.510
4.520
4.522
4.520
4.522
4.523
4.529
4.531
4.535
4.539
4.543
4.544
4.547
4.544
4.549
4.556
4.552
4.558
4.566
4.566
4.570
4.572
4.558
4.548
4.549
4.551
4.551
4.550
4.552
4.555
4.557
4.562
4.565
4.569
4.570
4.575
4.577
4.572
4.576
4.578
4.581
4.580
4.584
4.584
4.585
4.586
4.593
4.597
4.593
4.599
4.601
4.602
4.607
4.597
4.598
4.603
4.610
4.607
4.604
4.607
4.615
4.614
4.615
4.625
4.626
4.624
4.629
4.627
4.626
4.630
4.640
4.633
4.639
4.632
4.634
4.635
4.644
4.635
4.626
4.616
4.606
4.613
4.603
4.614
4.612
4.618
4.621
4.621
4.623
4.622
4.631
4.629
4.631
4.624
4.631
4.630
4.632
4.630
4.637
4.635
4.642
4.640
4.636
4.635
4.640
4.638
4.637
4.635
4.634
4.633
4.640
4.641
4.647
4.643
4.648
4.647
4.645
4.651
4.650
4.660
4.656
4.655
4.664
4.657
4.667
4.665
4.661
4.663
4.659
4.663
4.662
4.663
4.677
4.671
4.670
4.677
4.680
4.677
4.683
4.677
4.669
4.666
4.670
4.673
4.669
4.674
4.681
4.676
4.675
4.676
4.672
4.677
4.681
4.679
4.680
4.687
4.681
4.682
4.686
4.685
4.686
4.692
4.694
4.693
4.692
4.704
4.702
4.703
4.700
4.706
4.700
4.698
4.710
4.699
4.697
4.701
4.707
4.706
4.705
4.709
4.713
4.712
4.711
4.715
4.718
4.714
4.714
4.720
4.724
4.721
4.719
4.721
4.730
4.729
4.724
4.720
4.713
4.712
4.714
4.720
4.721
4.720
4.721
4.725
4.732
4.725
4.716
4.717
4.727
4.726
4.722
4.715
4.722
4.725
4.727
4.723
4.725
4.728
4.735
4.729
4.732
4.728
4.733
4.747
4.746
4.745
4.740
4.736
4.749
4.745
4.746
4.744
4.743
4.751
4.749
4.748
4.751
4.745
4.740
4.734
4.730
4.725
4.719
4.717
4.722
4.718
4.711
4.723
4.724
4.721
4.714
4.704
4.716
4.718
4.721
4.718
4.718
4.715
4.721
4.731
4.730
4.723
4.725
4.720
4.721
4.731
4.732
4.726
4.719
4.718
4.719
4.729
4.732
4.734
4.735
4.731
4.727
4.728
4.736
4.737
4.736
4.737
4.738
4.736
4.733
4.742
4.752
4.753
4.754
4.750
4.747
4.739
4.735
4.728
4.729
4.728
4.724
4.723
4.732
4.740
4.738
4.737
4.736
4.731
4.727
4.728
4.736
4.729
4.721
4.723
4.721
4.723
4.722
4.731
4.738
4.736
4.738
4.732
4.730
4.726
4.721
4.732
4.741
4.736
4.733
4.734
4.735
4.732
4.732
4.731
4.740
4.742
4.744
4.747
4.747
4.742
4.743
4.744
4.746
4.745
4.751
4.750
4.749
4.753
4.751
4.750
4.747
4.740
4.747
4.756
4.752
4.748
4.746
4.747
4.744
4.748
4.747
4.744
4.754
4.762
4.758
4.759
4.757
4.755
4.754
4.748
4.754
4.753
4.757
4.766
4.768
4.769
4.763
4.769
4.765
4.770
4.766
4.767
4.762
4.767
4.774
4.778
4.777
4.770
4.763
4.762
4.765
4.758
4.752
4.759
4.770
4.772
4.770
4.767
4.768
4.764
4.766
4.766
4.758
4.761
4.762
4.769
4.771
4.767
4.766
4.761
4.765
4.764
4.763
4.762
4.763
4.759
4.765
4.773
4.782
4.781
4.781
4.777
4.776
4.770
4.774
4.775
4.774
4.773
4.774
4.773
4.782
4.791
4.788
4.784
4.782
4.778
4.776
4.772
4.771
4.770
4.776
4.775
4.777
4.786
4.793
4.794
4.793
4.794
4.792
4.788
4.793
4.791
4.790
4.788
4.790
4.786
4.787
4.792
4.799
4.808
4.815
4.808
4.804
4.802
4.799
4.795
4.795
4.799
4.796
4.795
4.796
4.792
4.799
4.807
4.809
4.805
4.806
4.805
4.803
4.802
4.796
4.792
4.787
4.784
4.779
4.784
4.787
4.784
4.787
4.783
4.784
4.783
4.779
4.784
4.782
4.784
4.781
4.775
4.774
4.775
4.782
4.789
4.790
4.792
4.795
4.789
4.784
4.778
4.773
4.772
4.770
4.769
4.768
4.766
4.765
4.773
4.779
4.784
4.787
4.791
4.785
4.789
4.785
4.788
4.785
4.780
4.781
4.780
4.779
4.775
4.774
4.775
4.776
4.780
4.785
4.792
4.796
4.797
4.799
4.797
4.796
4.791
4.790
4.789
4.793
4.795
4.798
4.797
4.796
4.794
4.787
4.781
4.785
4.792
4.798
4.807
4.801
4.799
4.790
4.792
4.793
4.794
4.795
4.792
4.792
4.789
4.793
4.789
4.787
4.780
4.779
4.783
4.790
4.797
4.801
4.794
4.796
4.792
4.790
4.792
4.792
4.794
4.792
4.789
4.790
4.789
4.788
4.792
4.790
4.783
4.785
4.786
4.788
4.794
4.801
4.807
4.814
4.811
4.812
4.811
4.807
4.802
4.804
4.808
4.806
4.803
4.806
4.803
4.807
4.803
4.806
4.807
4.804
4.807
4.806
4.805
4.803
4.810
4.815
4.818
4.814
4.816
4.817
4.816
4.815
4.818
4.817
4.813
4.807
4.805
4.803
4.803
4.803
4.797
4.799
4.805
4.806
4.802
4.799
4.802
4.809
4.813
4.820
4.825
4.825
4.824
4.821
4.816
4.821
4.821
4.821
4.819
4.825
4.827
4.825
4.819
4.818
4.818
4.818
4.816
4.818
4.818
4.820
4.818
4.815
4.810
4.817
4.822
4.829
4.835
4.840
4.841
4.844
4.840
4.837
4.833
4.837
4.835
4.834
4.833
4.831
4.830
4.832
4.830
4.829
4.827
4.828
4.824
4.823
4.825
4.823
4.821
4.825
4.821
4.825
4.830
4.832
4.829
4.825
4.821
4.820
4.816
4.817
4.819
4.814
4.813
4.810
4.808
4.810
4.810
4.809
4.813
4.809
4.810
4.810
4.811
4.812
4.813
4.814
4.811
4.810
4.818
4.823
4.827
4.832
4.836
4.831
4.832
4.828
4.822
4.821
4.822
4.817
4.811
4.812
4.816
4.818
4.821
4.818
4.813
4.814
4.811
4.809
4.808
4.806
4.808
4.804
4.805
4.804
4.803
4.809
4.814
4.820
4.824
4.829
4.835
4.834
4.840
4.844
4.844
4.840
4.840
4.836
4.833
4.836
4.836
4.839
4.836
4.837
4.835
4.828
4.825
4.826
4.822
4.823
4.824
4.823
4.824
4.826
4.824
4.818
4.818
4.814
4.814
4.815
4.821
4.826
4.830
4.836
4.841
4.847
4.844
4.844
4.841
4.847
4.844
4.840
4.840
4.840
4.843
4.845
4.846
4.848
4.849
4.845
4.840
4.840
4.843
4.847
4.844
4.844
4.840
4.840
4.838
4.834
4.829
4.829
4.830
4.828
4.830
4.829
4.830
4.832
4.835
4.839
4.844
4.848
4.854
4.858
4.863
4.864
4.862
4.861
4.857
4.853
4.855
4.858
4.855
4.858
4.857
4.858
4.860
4.856
4.857
4.861
4.860
4.862
4.863
4.861
4.857
4.856
4.852
4.853
4.852
4.851
4.851
4.848
4.849
4.845
4.846
4.847
4.847
4.845
4.841
4.847
4.851
4.855
4.860
4.864
4.870
4.869
4.868
4.867
4.868
4.870
4.870
4.872
4.870
4.866
4.863
4.864
4.865
4.864
4.860
4.856
4.854
4.850
4.847
4.844
4.840
4.839
4.838
4.836
4.836
4.836
4.838
4.844
4.840
4.839
4.840
4.840
