2.992
3.335
3.511
3.623
3.712
3.790
3.847
3.883
3.921
3.949
3.997
4.021
4.011
4.040
4.069
4.097
4.124
4.146
4.173
4.185
4.137
4.119
4.131
4.142
4.148
4.166
4.178
4.193
4.197
4.212
4.214
4.226
4.241
4.240
4.253
4.267
4.260
4.273
4.283
4.289
4.288
4.297
4.309
4.317
4.316
4.320
4.327
4.336
4.342
4.353
4.357
4.347
4.356
4.358
4.371
4.369
4.379
4.386
4.390
4.396
4.389
4.391
4.392
4.401
4.406
4.407
4.412
4.418
4.428
4.427
4.436
4.440
4.444
4.424
4.433
4.432
4.434
4.445
4.447
4.459
4.450
4.453
4.460
4.470
4.472
4.479
4.477
4.478
4.477
4.489
4.491
4.500
4.504
4.503
4.486
4.476
4.479
4.483
4.488
4.490
4.499
4.500
4.497
4.506
4.505
4.503
4.507
4.511
4.510
4.514
4.524
4.528
4.523
4.527
4.534
4.536
4.532
4.536
4.542
4.541
4.543
4.547
4.553
4.553
4.554
4.557
4.556
4.561
4.568
4.571
4.575
4.571
4.567
4.575
4.567
4.568
4.554
4.541
4.545
4.555
4.553
4.550
4.559
4.558
4.564
4.561
4.564
4.563
4.568
4.569
4.571
4.582
4.571
4.569
4.567
4.566
4.568
4.577
4.568
4.580
4.573
4.583
4.578
4.586
4.586
4.590
4.590
4.597
4.597
4.597
4.598
4.591
4.601
4.602
4.603
4.610
4.609
4.613
4.612
4.621
4.608
4.607
4.600
4.615
4.609
4.613
4.603
4.612
4.616
4.613
4.617
4.618
4.619
4.621
4.620
4.631
4.631
4.629
4.642
4.638
4.634
4.638
4.638
4.642
4.633
4.631
4.647
4.642
4.641
4.651
4.650
4.645
4.655
4.660
4.655
4.659
4.658
4.662
4.660
4.667
4.664
4.656
4.650
4.648
4.657
4.667
4.663
4.657
4.663
4.657
4.653
4.660
4.657
4.656
4.658
4.667
4.666
4.662
4.664
4.678
4.680
4.676
4.671
4.681
4.682
4.678
4.680
4.692
4.688
4.690
4.679
4.695
4.696
4.694
4.686
4.678
4.672
4.665
4.661
4.653
4.653
4.649
4.655
4.657
4.655
4.651
4.660
4.664
4.658
4.664
4.658
4.668
4.664
4.654
4.657
4.657
4.672
4.668
4.669
4.668
4.663
4.675
4.677
4.676
4.675
4.676
4.674
4.689
4.690
4.683
4.682
4.681
4.680
4.670
4.663
4.664
4.664
4.678
4.677
4.667
4.664
4.664
4.669
4.668
4.664
4.662
4.661
4.665
4.669
4.670
4.671
4.664
4.664
4.657
4.669
4.683
4.675
4.673
4.674
4.673
4.672
4.678
4.691
4.695
4.688
4.681
4.675
4.679
4.683
4.697
4.691
4.689
4.682
4.683
4.674
4.684
4.697
4.698
4.696
4.692
4.690
4.684
4.683
4.695
4.701
4.701
4.699
4.697
4.694
4.698
4.699
4.703
4.715
4.712
4.709
4.711
4.709
4.708
4.707
4.705
4.704
4.706
4.704
4.706
4.699
4.698
4.696
4.701
4.712
4.714
4.704
4.701
4.697
4.690
4.696
4.698
4.705
4.716
4.720
4.716
4.713
4.711
4.710
4.709
4.707
4.706
4.718
4.728
4.729
4.730
4.720
4.716
4.710
4.711
4.710
4.712
4.723
4.730
4.727
4.731
4.729
4.727
4.727
4.723
4.723
4.727
4.729
4.736
4.745
4.752
4.745
4.739
4.743
4.739
4.734
4.728
4.729
4.730
4.742
4.749
4.743
4.742
4.738
4.738
4.738
4.742
4.742
4.742
4.737
4.736
4.729
4.723
4.724
4.722
4.720
4.716
4.718
4.716
4.715
4.722
4.731
4.738
4.734
4.733
4.732
4.727
4.723
4.714
4.709
4.701
4.709
4.717
4.726
4.731
4.727
4.727
4.726
4.719
4.718
4.714
4.720
4.720
4.716
4.712
4.720
4.728
4.737
4.733
4.734
4.731
4.737
4.739
4.735
4.738
4.737
4.733
4.726
4.725
4.721
4.731
4.740
4.738
4.737
4.736
4.735
4.734
4.731
4.736
4.737
4.736
4.729
4.720
4.718
4.725
4.734
4.738
4.740
4.736
4.734
4.731
4.731
4.730
4.732
4.733
4.729
4.734
4.735
4.728
4.727
4.730
4.738
4.747
4.751
4.750
4.749
4.747
4.751
4.757
4.756
4.749
4.748
4.749
4.754
4.747
4.742
4.736
4.743
4.742
4.751
4.760
4.764
4.766
4.759
4.752
4.748
4.746
4.745
4.750
4.746
4.746
4.745
4.739
4.737
4.741
4.745
4.746
4.754
4.761
4.770
4.766
4.768
4.768
4.767
4.764
4.768
4.764
4.765
4.761
4.764
4.761
4.760
4.768
4.765
4.771
4.764
4.761
4.764
4.771
4.779
4.786
4.787
4.780
4.778
4.772
4.776
4.777
4.773
4.774
4.770
4.769
4.767
4.769
4.770
4.761
4.756
4.761
4.760
4.768
4.762
4.761
4.759
4.760
4.762
4.763
4.760
4.758
4.762
4.757
4.757
4.760
4.759
4.761
4.764
4.764
4.760
4.755
4.749
4.755
4.760
4.768
4.765
4.768
4.767
4.764
4.764
4.764
4.762
4.758
4.757
4.758
4.754
4.755
4.754
4.752
4.754
4.753
4.759
4.757
4.756
4.760
4.760
4.758
4.765
4.774
4.779
4.785
4.779
4.782
4.775
4.772
4.771
4.769
4.771
4.772
4.768
4.775
4.773
4.766
4.764
4.761
4.762
4.764
4.764
4.764
4.760
4.758
4.756
4.764
4.770
4.777
4.783
4.790
4.797
4.804
4.800
4.796
4.790
4.796
4.787
4.782
4.779
4.780
4.779
4.780
4.784
4.783
4.789
4.783
4.781
4.782
4.781
4.777
4.773
4.782
4.786
4.779
4.775
4.780
4.787
4.794
4.801
4.807
4.811
4.807
4.805
4.807
4.811
4.807
4.808
4.809
4.811
4.805
4.805
4.799
4.795
4.794
4.790
4.791
4.794
4.793
4.792
4.793
4.792
4.794
4.787
4.791
4.789
4.790
4.789
4.793
4.800
4.805
4.801
4.796
4.797
4.799
4.792
4.796
4.797
4.793
4.790
4.791
4.787
4.788
4.795
4.793
4.792
4.794
4.797
4.796
4.789
4.785
4.787
4.780
4.779
4.780
4.783
4.783
4.776
4.783
4.781
4.788
4.794
4.801
4.806
4.812
4.819
4.823
4.817
4.816
4.812
4.812
4.808
4.812
4.816
4.815
4.811
4.810
4.811
4.809
4.808
4.805
4.800
4.804
4.806
4.807
4.814
4.810
4.806
4.809
4.803
4.801
4.803
4.804
4.805
4.802
4.806
4.804
4.805
4.807
4.808
4.813
4.819
4.823
4.830
4.835
4.839
4.840
4.841
4.837
4.838
4.834
4.839
4.843
4.842
4.845
4.841
4.838
4.836
4.831
4.827
4.824
4.822
4.821
4.819
4.821
4.817
4.815
4.812
4.815
4.814
4.809
4.811
4.813
4.819
4.824
4.825
4.823
4.820
4.815
4.808
4.815
4.819
4.823
4.823
4.821
4.819
4.816
4.811
4.809
4.811
4.813
4.808
4.804
4.805
4.799
4.800
4.797
4.805
4.804
4.803
4.799
4.798
4.796
4.795
4.791
4.789
4.796
4.798
4.801
4.798
4.799
4.794
4.793
4.795
4.794
4.790
4.788
4.789
4.793
4.792
4.793
4.798
4.802
4.800
4.802
4.806
4.812
4.812
4.815
4.811
4.812
4.809
4.805
4.803
4.801
4.803
4.805
4.805
4.804
4.805
4.807
4.801
4.804
4.805
4.805
4.801
4.801
4.800
4.801
4.797
4.793
4.787
4.791
4.794
4.794
4.790
4.788
4.787
4.793
4.792
4.790
4.787
4.788
4.787
4.782
4.779
4.783
4.784
4.790
4.795
4.799
4.803
4.809
4.814
4.815
4.812
4.815
4.809
4.812
4.812
4.810
4.806
4.807
4.809
4.809
4.814
4.813
4.819
4.823
4.817
4.818
4.820
4.821
4.814
4.812
4.812
4.812
4.806
4.804
4.806
4.802
4.801
4.799
4.797
4.794
4.797
4.794
4.798
4.801
4.801
4.805
4.798
4.796
4.792
4.790
4.784
4.786
4.789
4.785
4.786
4.788
4.784
4.788
4.794
4.797
4.801
4.807
4.811
4.816
4.812
4.810
4.811
4.809
4.808
4.807
4.806
4.807
4.806
4.810
4.814
4.813
4.808
4.807
4.806
4.802
4.798
4.801
4.800
4.801
