2.992
3.335
3.514
3.637
3.713
3.782
3.847
3.890
3.918
3.972
3.975
4.015
4.052
4.086
4.055
4.082
4.105
4.130
4.154
4.171
4.194
4.213
4.231
4.224
4.184
4.168
4.175
4.194
4.201
4.216
4.220
4.231
4.238
4.251
4.253
4.262
4.266
4.275
4.285
4.294
4.294
4.303
4.315
4.311
4.316
4.325
4.338
4.342
4.340
4.344
4.351
4.360
4.367
4.375
4.360
4.371
4.376
4.382
4.394
4.397
4.406
4.407
4.398
4.407
4.409
4.413
4.419
4.426
4.430
4.435
4.438
4.443
4.447
4.432
4.442
4.443
4.449
4.451
4.457
4.462
4.461
4.464
4.475
4.478
4.482
4.479
4.485
4.490
4.491
4.481
4.477
4.481
4.480
4.482
4.488
4.500
4.497
4.501
4.501
4.501
4.507
4.512
4.513
4.523
4.521
4.528
4.524
4.528
4.532
4.530
4.540
4.542
4.545
4.552
4.546
4.531
4.532
4.528
4.527
4.531
4.535
4.538
4.542
4.541
4.549
4.549
4.553
4.560
4.551
4.550
4.559
4.552
4.559
4.561
4.562
4.568
4.576
4.575
4.573
4.580
4.582
4.585
4.584
4.580
4.579
4.583
4.584
4.588
4.587
4.594
4.594
4.599
4.605
4.607
4.605
4.602
4.609
4.613
4.616
4.612
4.622
4.615
4.612
4.616
4.622
4.615
4.605
4.594
4.586
4.591
4.590
4.594
4.601
4.602
4.600
4.599
4.606
4.610
4.609
4.608
4.608
4.613
4.609
4.615
4.616
4.621
4.622
4.619
4.619
4.618
4.620
4.613
4.620
4.612
4.620
4.619
4.625
4.623
4.630
4.631
4.633
4.629
4.633
4.637
4.634
4.643
4.638
4.648
4.647
4.643
4.642
4.642
4.642
4.642
4.653
4.651
4.650
4.659
4.658
4.659
4.663
4.657
4.650
4.648
4.657
4.651
4.652
4.665
4.658
4.654
4.657
4.653
4.660
4.662
4.661
4.664
4.666
4.665
4.668
4.668
4.666
4.670
4.677
4.678
4.674
4.686
4.685
4.678
4.686
4.682
4.682
4.686
4.683
4.678
4.682
4.689
4.690
4.686
4.693
4.697
4.691
4.690
4.699
4.700
4.701
4.701
4.707
4.701
4.702
4.705
4.712
4.705
4.702
4.698
4.701
4.694
4.696
4.706
4.705
4.706
4.705
4.708
4.702
4.698
4.699
4.708
4.702
4.698
4.697
4.711
4.713
4.708
4.704
4.709
4.715
4.714
4.713
4.719
4.719
4.725
4.723
4.720
4.718
4.725
4.731
4.728
4.731
4.730
4.731
4.741
4.731
4.730
4.724
4.719
4.713
4.706
4.705
4.703
4.701
4.697
4.693
4.705
4.696
4.690
4.686
4.689
4.701
4.705
4.704
4.703
4.702
4.700
4.710
4.712
4.712
4.709
4.708
4.705
4.707
4.706
4.707
4.706
4.707
4.709
4.718
4.716
4.716
4.712
4.710
4.711
4.719
4.723
4.726
4.725
4.723
4.727
4.726
4.730
4.732
4.730
4.721
4.716
4.710
4.716
4.715
4.711
4.710
4.711
4.712
4.717
4.721
4.720
4.712
4.711
4.708
4.705
4.712
4.714
4.710
4.711
4.710
4.712
4.708
4.714
4.719
4.714
4.708
4.712
4.708
4.705
4.710
4.720
4.726
4.722
4.723
4.719
4.715
4.716
4.721
4.727
4.737
4.738
4.734
4.733
4.723
4.722
4.723
4.725
4.735
4.733
4.732
4.733
4.729
4.728
4.719
4.722
4.731
4.738
4.737
4.742
4.743
4.736
4.732
4.730
4.731
4.736
4.745
4.744
4.746
4.741
4.742
4.739
4.743
4.738
4.737
4.745
4.754
4.761
4.759
4.757
4.749
4.749
4.756
4.749
4.746
4.749
4.745
4.747
4.748
4.745
4.745
4.745
4.740
4.739
4.740
4.750
4.759
4.755
4.749
4.742
4.745
4.742
4.742
4.736
4.735
4.745
4.754
4.758
4.759
4.758
4.757
4.755
4.751
4.753
4.754
4.745
4.751
4.757
4.765
4.769
4.764
4.766
4.767
4.769
4.767
4.760
4.749
4.753
4.753
4.763
4.770
4.769
4.768
4.768
4.770
4.764
4.768
4.771
4.768
4.764
4.765
4.763
4.771
4.780
4.784
4.786
4.784
4.783
4.787
4.790
4.784
4.775
4.781
4.775
4.773
4.775
4.782
4.793
4.792
4.786
4.787
4.783
4.784
4.780
4.776
4.777
4.778
4.774
4.778
4.779
4.773
4.772
4.770
4.763
4.759
4.760
4.756
4.760
4.757
4.757
4.757
4.764
4.771
4.772
4.771
4.772
4.773
4.769
4.767
4.763
4.767
4.766
4.764
4.758
4.753
4.757
4.765
4.761
4.764
4.761
4.760
4.758
4.764
4.766
4.764
4.761
4.760
4.760
4.756
4.750
4.754
4.761
4.770
4.777
4.778
4.769
4.771
4.769
4.770
4.768
4.767
4.769
4.770
4.771
4.768
4.771
4.768
4.766
4.767
4.775
4.781
4.785
4.781
4.780
4.781
4.779
4.781
4.777
4.773
4.766
4.765
4.766
4.764
4.771
4.768
4.768
4.771
4.779
4.782
4.782
4.779
4.783
4.779
4.772
4.770
4.772
4.771
4.771
4.771
4.764
4.764
4.763
4.759
4.763
4.768
4.775
4.781
4.790
4.792
4.794
4.790
4.788
4.787
4.783
4.786
4.788
4.782
4.779
4.779
4.785
4.781
4.780
4.781
4.783
4.784
4.783
4.786
4.793
4.798
4.801
4.801
4.797
4.798
4.801
4.795
4.793
4.792
4.790
4.792
4.791
4.790
4.790
4.787
4.782
4.784
4.785
4.779
4.786
4.794
4.799
4.805
4.801
4.801
4.799
4.798
4.797
4.801
4.799
4.797
4.797
4.801
4.802
4.797
4.796
4.797
4.797
4.795
4.797
4.798
4.794
4.790
4.797
4.803
4.810
4.817
4.824
4.825
4.823
4.827
4.823
4.825
4.823
4.817
4.813
4.811
4.807
4.808
4.807
4.811
4.813
4.817
4.813
4.809
4.805
4.801
4.801
4.805
4.812
4.817
4.823
4.820
4.815
4.811
4.812
4.817
4.815
4.811
4.805
4.801
4.797
4.792
4.788
4.789
4.785
4.782
4.785
4.786
4.791
4.792
4.791
4.794
4.801
4.805
4.812
4.817
4.816
4.816
4.816
4.819
4.819
4.816
4.810
4.808
4.807
4.803
4.799
4.795
4.791
4.794
4.799
4.800
4.797
4.794
4.791
4.786
4.782
4.784
4.790
4.795
4.801
4.808
4.813
4.809
4.812
4.817
4.816
4.820
4.816
4.816
4.812
4.812
4.812
4.814
4.812
4.814
4.813
4.808
4.812
4.812
4.812
4.809
4.812
4.808
4.807
4.808
4.805
4.798
4.794
4.798
4.804
4.809
4.815
4.820
4.823
4.822
4.819
4.819
4.818
4.819
4.816
4.819
4.819
4.820
4.823
4.822
4.821
4.820
4.816
4.817
4.821
4.822
4.823
4.820
4.819
4.819
4.823
4.817
4.818
4.819
4.815
4.814
4.812
4.809
4.815
4.822
4.827
4.831
4.837
4.842
4.843
4.844
4.837
4.836
4.834
4.831
4.832
4.834
4.829
4.830
4.832
4.836
4.835
4.834
4.834
4.838
4.837
4.838
4.845
4.841
4.842
4.838
4.837
4.838
4.835
4.830
4.826
4.825
4.827
4.827
4.829
4.828
4.834
4.839
4.843
4.847
4.848
4.847
4.848
4.850
4.853
4.850
4.856
4.855
4.853
4.845
4.842
4.839
4.838
4.842
4.845
4.844
4.846
4.845
4.840
4.841
4.837
4.838
4.832
4.828
4.824
4.820
4.818
4.816
4.815
4.819
4.819
4.817
4.823
4.828
4.832
4.836
4.842
4.844
4.848
4.849
4.843
4.844
4.848
4.845
4.845
4.844
4.843
4.836
4.835
4.842
4.840
4.842
4.845
4.841
4.840
4.842
4.840
4.836
4.838
4.836
4.832
4.828
4.827
4.828
4.829
4.828
4.832
4.828
4.826
4.831
4.831
4.833
4.831
4.830
4.835
4.836
4.835
4.841
4.846
4.850
4.854
4.860
4.862
4.860
4.857
4.858
4.859
4.863
4.867
4.868
4.865
4.866
4.862
4.860
4.856
4.857
4.857
4.857
4.856
4.857
4.857
4.857
4.853
4.853
4.856
4.861
4.868
4.866
4.860
4.857
4.856
4.857
4.857
4.860
4.857
4.855
4.854
4.857
4.854
4.852
4.854
4.853
4.849
4.852
4.856
