2.993
3.316
3.505
3.614
3.667
3.784
3.784
3.848
3.920
3.969
3.898
3.899
3.927
3.961
3.979
3.997
4.028
4.036
4.050
4.071
4.082
4.106
4.121
4.116
4.139
4.151
4.173
4.161
4.171
4.188
4.203
4.208
4.231
4.203
4.219
4.228
4.237
4.256
4.253
4.265
4.276
4.289
4.285
4.267
4.278
4.288
4.288
4.297
4.312
4.315
4.327
4.320
4.327
4.346
4.344
4.351
4.369
4.357
4.361
4.371
4.379
4.347
4.346
4.356
4.358
4.374
4.369
4.365
4.356
4.365
4.378
4.385
4.403
4.383
4.398
4.406
4.417
4.425
4.414
4.417
4.412
4.404
4.411
4.430
4.437
4.427
4.435
4.445
4.444
4.440
4.454
4.456
4.453
4.461
4.459
4.481
4.465
4.464
4.459
4.466
4.459
4.481
4.476
4.484
4.482
4.498
4.490
4.502
4.491
4.504
4.500
4.502
4.508
4.495
4.478
4.471
4.461
4.470
4.463
4.466
4.490
4.481
4.486
4.489
4.488
4.502
4.494
4.478
4.482
4.478
4.482
4.467
4.461
4.476
4.477
4.478
4.489
4.488
4.483
4.484
4.498
4.482
4.482
4.504
4.504
4.489
4.491
4.521
4.512
4.511
4.504
4.531
4.522
4.516
4.506
4.514
4.516
4.503
4.505
4.520
4.520
4.515
4.523
4.526
4.531
4.520
4.527
4.521
4.540
4.549
4.545
4.543
4.545
4.546
4.560
4.556
4.555
4.552
4.545
4.570
4.562
4.559
4.552
4.545
4.562
4.550
4.535
4.526
4.526
4.545
4.535
4.532
4.524
4.515
4.522
4.545
4.550
4.544
4.547
4.543
4.539
4.536
4.548
4.549
4.553
4.548
4.544
4.540
4.540
4.553
4.552
4.553
4.545
4.541
4.543
4.539
4.555
4.576
4.577
4.568
4.562
4.557
4.555
4.553
4.559
4.569
4.576
4.572
4.569
4.559
4.567
4.564
4.568
4.570
4.590
4.607
4.589
4.585
4.590
4.583
4.584
4.575
4.569
4.587
4.606
4.596
4.598
4.589
4.597
4.591
4.578
4.564
4.572
4.590
4.590
4.583
4.570
4.567
4.571
4.564
4.554
4.569
4.577
4.578
4.595
4.600
4.592
4.584
4.581
4.591
4.583
4.575
4.574
4.578
4.573
4.585
4.602
4.618
4.605
4.605
4.608
4.609
4.593
4.596
4.604
4.604
4.608
4.605
4.598
4.607
4.622
4.632
4.628
4.635
4.633
4.632
4.626
4.615
4.613
4.610
4.598
4.602
4.606
4.612
4.623
4.621
4.621
4.615
4.615
4.618
4.619
4.620
4.615
4.611
4.605
4.602
4.601
4.591
4.603
4.618
4.632
4.646
4.649
4.651
4.649
4.647
4.653
4.644
4.629
4.631
4.633
4.647
4.648
4.651
4.641
4.635
4.633
4.634
4.646
4.659
4.665
4.662
4.658
4.663
4.662
4.661
4.657
4.656
4.659
4.658
4.643
4.650
4.639
4.637
4.641
4.637
4.639
4.645
4.646
4.647
4.644
4.644
4.638
4.635
4.630
4.635
4.646
4.649
4.640
4.630
4.621
4.612
4.602
4.602
4.600
4.607
4.619
4.631
4.634
4.639
4.641
4.629
4.622
4.621
4.625
4.624
4.621
4.622
4.623
4.622
4.610
4.612
4.621
4.621
4.626
4.625
4.620
4.612
4.611
4.611
4.623
4.634
4.646
4.643
4.635
4.630
4.620
4.623
4.618
4.618
4.623
4.618
4.612
4.616
4.620
4.619
4.611
4.603
4.592
4.597
4.598
4.599
4.605
4.618
4.616
4.617
4.616
4.624
4.635
4.645
4.656
4.658
4.644
4.645
4.639
4.637
4.636
4.636
4.643
4.639
4.636
4.625
4.620
4.622
4.620
4.629
4.628
4.622
4.612
4.616
4.611
4.610
4.602
4.606
4.605
4.597
4.606
4.616
4.626
4.636
4.647
4.657
4.659
4.659
4.663
4.666
4.660
4.659
4.651
4.658
4.654
4.648
4.644
4.641
4.633
4.622
4.627
4.619
4.617
4.622
4.620
4.618
4.628
4.633
4.627
4.627
4.627
4.628
4.622
4.614
4.624
4.616
4.615
4.622
4.631
4.641
4.650
4.659
4.668
4.672
4.664
4.661
4.657
4.652
4.651
4.653
4.648
4.652
4.665
4.672
4.667
4.659
4.653
4.653
4.648
4.641
4.643
4.644
4.647
4.656
4.655
4.652
4.644
4.642
4.639
4.641
4.635
4.631
4.635
4.639
4.639
4.640
4.638
4.639
4.630
4.627
4.636
4.645
4.653
4.662
4.670
4.679
4.688
4.696
4.697
4.696
4.701
4.694
4.698
4.691
4.694
4.681
4.686
4.690
4.679
4.688
4.683
4.679
4.675
4.666
4.666
4.666
4.675
4.678
4.689
4.683
4.679
4.673
4.678
4.683
4.684
4.687
4.687
4.682
4.682
4.678
4.679
4.672
4.667
4.663
4.666
4.669
4.668
4.662
4.654
4.662
4.664
4.658
4.660
4.668
4.675
4.683
4.691
4.699
4.707
4.705
4.699
4.695
4.690
4.693
4.683
4.674
4.670
4.674
4.675
4.678
4.678
4.667
4.665
4.658
4.659
4.658
4.665
4.662
4.657
4.658
4.651
4.647
4.654
4.652
4.649
4.645
4.639
4.637
4.636
4.645
4.641
4.649
4.659
4.658
4.658
4.655
4.650
4.652
4.650
4.646
4.644
4.641
4.639
4.633
4.626
4.622
4.623
4.630
4.637
4.644
4.651
4.659
4.666
4.673
4.680
4.687
4.694
4.699
4.704
4.703
4.707
4.704
4.700
4.694
4.691
4.698
4.695
4.695
4.688
4.683
4.682
4.679
4.680
4.674
4.684
4.687
4.688
4.689
4.688
4.686
4.687
4.695
4.689
4.682
4.679
4.687
4.687
4.677
4.678
4.678
4.678
4.680
4.683
4.679
4.681
4.687
4.687
4.681
4.675
4.673
4.676
4.670
4.667
4.666
4.667
4.669
4.659
4.662
4.662
4.662
4.660
4.664
4.662
4.671
4.670
4.663
4.662
4.666
4.675
4.682
4.685
4.679
4.682
4.676
4.675
4.681
4.681
4.686
4.689
4.696
4.702
4.708
4.715
4.722
4.728
4.724
4.731
4.727
4.724
4.718
4.717
4.715
4.710
4.702
4.695
4.698
4.686
4.689
4.694
4.695
4.689
4.684
4.681
4.684
4.680
4.672
4.670
4.667
4.670
4.667
4.664
4.660
4.659
4.661
4.666
4.667
4.665
4.667
4.664
4.670
4.672
4.668
4.665
4.670
4.667
4.666
4.661
4.656
4.654
4.653
4.658
4.662
4.660
4.661
4.663
4.657
4.660
4.666
4.660
4.659
4.652
4.646
4.639
4.632
4.632
4.628
4.619
4.624
4.623
4.622
4.615
4.614
4.616
4.616
4.623
4.625
4.623
4.628
4.632
4.632
4.638
4.644
4.649
4.655
4.661
4.667
4.672
4.678
4.684
4.690
4.695
4.701
4.707
4.713
4.718
4.721
4.730
4.724
4.725
4.730
4.721
4.718
4.718
4.718
4.720
4.728
4.736
4.738
4.734
4.729
4.731
4.733
4.732
4.732
4.730
4.730
4.726
4.724
4.718
4.714
4.711
4.705
4.706
4.704
4.704
4.696
4.692
4.691
4.694
4.692
4.692
4.691
4.694
4.695
4.692
4.695
4.697
4.700
4.689
4.683
4.682
4.683
4.686
4.686
4.683
4.677
4.672
4.666
4.661
4.656
4.650
4.645
4.640
4.641
4.645
4.646
4.645
4.651
4.645
4.645
4.643
4.633
4.633
4.641
4.644
4.641
4.643
4.648
4.648
4.650
4.651
4.649
4.651
4.652
4.645
4.645
4.644
4.643
4.640
4.646
4.648
4.646
4.648
4.649
4.651
4.656
4.663
4.667
4.664
4.666
4.668
4.661
4.658
4.664
4.667
4.660
4.659
4.661
4.666
4.663
4.661
4.665
4.670
4.675
4.680
4.685
4.690
4.695
4.700
4.705
4.710
4.715
4.711
4.707
4.715
4.712
4.710
4.709
4.710
4.715
4.712
4.714
4.712
4.706
4.709
4.712
4.708
4.704
4.701
4.703
4.700
4.694
4.698
4.697
4.691
4.691
4.691
4.690
4.697
4.704
4.704
4.696
4.702
4.696
4.700
4.702
4.701
4.710
4.706
4.702
4.704
4.701
4.703
4.706
4.708
4.715
4.722
4.727
4.719
4.722
4.725
4.717
4.714
4.715
4.712
4.706
4.703
4.701
4.704
4.702
4.699
4.693
4.689
4.687
