2.994
3.329
3.494
3.630
3.692
3.776
3.777
3.847
3.908
3.963
3.941
3.904
3.937
3.957
3.982
4.007
4.020
4.038
4.064
4.063
4.090
4.099
4.117
4.131
4.133
4.149
4.159
4.176
4.173
4.185
4.189
4.215
4.220
4.242
4.222
4.233
4.244
4.242
4.260
4.275
4.269
4.286
4.308
4.305
4.279
4.291
4.290
4.303
4.298
4.314
4.324
4.324
4.337
4.334
4.338
4.351
4.360
4.358
4.368
4.380
4.372
4.378
4.384
4.369
4.363
4.360
4.367
4.381
4.386
4.371
4.368
4.377
4.385
4.391
4.396
4.399
4.401
4.402
4.411
4.421
4.420
4.429
4.415
4.417
4.427
4.417
4.424
4.441
4.443
4.447
4.445
4.446
4.447
4.453
4.469
4.465
4.474
4.469
4.485
4.488
4.465
4.482
4.474
4.474
4.481
4.478
4.494
4.486
4.502
4.506
4.506
4.504
4.507
4.512
4.511
4.511
4.509
4.511
4.495
4.479
4.480
4.473
4.467
4.492
4.480
4.486
4.495
4.495
4.502
4.505
4.508
4.506
4.485
4.486
4.496
4.471
4.489
4.478
4.478
4.488
4.494
4.496
4.490
4.503
4.508
4.505
4.504
4.511
4.503
4.491
4.516
4.514
4.509
4.509
4.531
4.523
4.526
4.521
4.535
4.532
4.513
4.507
4.534
4.527
4.511
4.519
4.528
4.534
4.538
4.540
4.528
4.542
4.539
4.538
4.536
4.527
4.550
4.561
4.562
4.555
4.553
4.550
4.575
4.565
4.570
4.557
4.553
4.568
4.581
4.577
4.569
4.566
4.560
4.553
4.554
4.539
4.539
4.542
4.553
4.541
4.541
4.537
4.538
4.527
4.549
4.570
4.561
4.560
4.551
4.546
4.539
4.556
4.571
4.567
4.568
4.553
4.545
4.535
4.553
4.571
4.561
4.555
4.564
4.548
4.559
4.555
4.561
4.581
4.583
4.579
4.569
4.570
4.578
4.560
4.562
4.576
4.585
4.584
4.584
4.581
4.576
4.579
4.576
4.582
4.580
4.598
4.613
4.602
4.594
4.603
4.597
4.593
4.580
4.581
4.588
4.607
4.611
4.614
4.606
4.605
4.592
4.583
4.579
4.573
4.583
4.600
4.586
4.588
4.575
4.582
4.584
4.573
4.572
4.579
4.586
4.587
4.598
4.608
4.598
4.600
4.595
4.600
4.588
4.592
4.591
4.585
4.595
4.589
4.595
4.611
4.623
4.623
4.617
4.619
4.614
4.612
4.606
4.616
4.619
4.620
4.616
4.613
4.607
4.622
4.637
4.642
4.644
4.648
4.645
4.638
4.630
4.617
4.624
4.608
4.609
4.622
4.622
4.623
4.628
4.633
4.628
4.634
4.630
4.623
4.621
4.637
4.625
4.615
4.617
4.619
4.612
4.614
4.610
4.613
4.627
4.641
4.655
4.660
4.666
4.666
4.663
4.660
4.652
4.643
4.639
4.654
4.651
4.668
4.660
4.653
4.642
4.644
4.641
4.646
4.656
4.670
4.678
4.674
4.665
4.677
4.669
4.675
4.675
4.671
4.670
4.662
4.659
4.648
4.643
4.643
4.650
4.647
4.647
4.646
4.658
4.659
4.652
4.653
4.661
4.645
4.641
4.646
4.646
4.652
4.643
4.634
4.625
4.616
4.614
4.617
4.616
4.609
4.609
4.621
4.633
4.643
4.649
4.646
4.648
4.641
4.639
4.634
4.636
4.630
4.633
4.637
4.636
4.632
4.625
4.625
4.635
4.639
4.639
4.630
4.621
4.622
4.626
4.624
4.624
4.635
4.646
4.642
4.643
4.641
4.636
4.622
4.636
4.635
4.633
4.635
4.634
4.623
4.630
4.631
4.623
4.619
4.615
4.609
4.612
4.607
4.609
4.616
4.618
4.627
4.628
4.631
4.634
4.633
4.643
4.653
4.663
4.658
4.657
4.656
4.650
4.644
4.644
4.643
4.651
4.641
4.631
4.624
4.637
4.637
4.639
4.636
4.638
4.632
4.625
4.625
4.625
4.616
4.616
4.613
4.616
4.617
4.615
4.612
4.622
4.631
4.641
4.651
4.660
4.670
4.667
4.673
4.679
4.667
4.668
4.663
4.662
4.668
4.664
4.654
4.643
4.642
4.636
4.628
4.633
4.634
4.633
4.638
4.630
4.629
4.633
4.638
4.631
4.636
4.638
4.636
4.635
4.622
4.630
4.629
4.633
4.631
4.638
4.639
4.648
4.657
4.666
4.675
4.676
4.670
4.666
4.657
4.656
4.662
4.667
4.670
4.666
4.669
4.677
4.671
4.674
4.670
4.669
4.665
4.658
4.657
4.661
4.659
4.661
4.671
4.660
4.651
4.641
4.651
4.653
4.652
4.649
4.649
4.649
4.654
4.653
4.644
4.647
4.641
4.642
4.634
4.637
4.645
4.653
4.661
4.670
4.678
4.686
4.694
4.702
4.707
4.711
4.712
4.701
4.709
4.700
4.702
4.698
4.696
4.693
4.695
4.693
4.696
4.688
4.683
4.687
4.682
4.683
4.684
4.689
4.689
4.696
4.687
4.685
4.693
4.689
4.686
4.695
4.702
4.702
4.702
4.693
4.687
4.686
4.682
4.676
4.675
4.683
4.674
4.669
4.665
4.663
4.666
4.676
4.669
4.665
4.665
4.673
4.680
4.688
4.695
4.703
4.708
4.701
4.698
4.708
4.698
4.696
4.689
4.686
4.685
4.683
4.681
4.686
4.684
4.682
4.680
4.675
4.675
4.675
4.673
4.671
4.671
4.674
4.668
4.667
4.665
4.656
4.654
4.659
4.659
4.651
4.647
4.655
4.647
4.648
4.656
4.659
4.669
4.671
4.672
4.669
4.666
4.666
4.655
4.645
4.647
4.648
4.643
4.643
4.634
4.637
4.636
4.632
4.639
4.646
4.652
4.659
4.666
4.673
4.680
4.687
4.694
4.700
4.707
4.712
4.720
4.717
4.714
4.707
4.707
4.705
4.707
4.699
4.702
4.705
4.697
4.698
4.689
4.692
4.688
4.685
4.694
4.700
4.701
4.704
4.700
4.700
4.704
4.697
4.696
4.696
4.689
4.691
4.691
4.686
4.682
4.693
4.694
4.692
4.698
4.701
4.693
4.694
4.690
4.690
4.690
4.688
4.682
4.685
4.683
4.685
4.683
4.672
4.678
4.674
4.674
4.677
4.679
4.677
4.669
4.675
4.674
4.684
4.678
4.678
4.675
4.680
4.685
4.694
4.696
4.691
4.689
4.685
4.683
4.687
4.693
4.694
4.694
4.700
4.706
4.712
4.718
4.724
4.730
4.737
4.734
4.729
4.732
4.736
4.726
4.718
4.716
4.710
4.710
4.704
4.706
4.703
4.698
4.700
4.703
4.698
4.696
4.689
4.681
4.680
4.677
4.686
4.674
4.676
4.675
4.675
4.673
4.670
4.674
4.672
4.679
4.677
4.671
4.669
4.671
4.679
4.685
4.683
4.677
4.682
4.677
4.673
4.668
4.670
4.664
4.665
4.668
4.672
4.669
4.670
4.674
4.667
4.670
4.671
4.664
4.658
4.651
4.649
4.646
4.644
4.639
4.637
4.640
4.638
4.636
4.631
4.634
4.635
4.627
4.628
4.627
4.630
4.635
4.634
4.633
4.639
4.644
4.638
4.644
4.649
4.655
4.660
4.666
4.671
4.677
4.682
4.688
4.693
4.699
4.704
4.710
4.715
4.721
4.726
4.732
4.737
4.739
4.740
4.742
4.732
4.726
4.732
4.729
4.733
4.739
4.743
4.750
4.746
4.745
4.742
4.745
4.743
4.745
4.741
4.737
4.731
4.726
4.726
4.720
4.727
4.718
4.717
4.715
4.707
4.698
4.701
4.700
4.702
4.701
4.703
4.702
4.700
4.700
4.708
4.705
4.700
4.701
4.705
4.703
4.698
4.700
4.693
4.691
4.686
4.681
4.675
4.670
4.665
4.667
4.661
4.657
4.654
4.651
4.650
4.659
4.655
4.653
4.656
4.660
4.661
4.651
4.650
4.648
4.647
4.643
4.650
4.654
4.653
4.656
4.660
4.658
4.663
4.669
4.665
4.661
4.663
4.659
4.659
4.657
4.654
4.652
4.654
4.660
4.661
4.661
4.663
4.665
4.665
4.670
4.674
4.678
4.680
4.679
4.675
4.673
4.674
4.678
4.675
4.675
4.675
4.673
4.668
4.661
4.664
4.668
4.673
4.678
4.683
4.688
4.692
4.697
4.702
4.707
4.711
4.716
4.721
4.726
4.721
4.727
4.728
4.722
4.720
4.720
4.727
4.724
4.718
4.715
4.718
4.721
4.719
4.726
4.721
4.719
4.714
4.713
