2.989
3.327
3.513
3.630
3.708
3.776
3.826
3.888
3.913
3.967
3.956
3.986
4.018
4.053
4.086
4.111
4.140
4.137
4.082
4.082
4.099
4.108
4.133
4.139
4.149
4.164
4.173
4.186
4.195
4.204
4.221
4.218
4.229
4.243
4.251
4.254
4.265
4.274
4.284
4.278
4.286
4.298
4.304
4.319
4.309
4.313
4.320
4.332
4.336
4.348
4.348
4.357
4.345
4.352
4.354
4.365
4.375
4.372
4.383
4.392
4.394
4.403
4.406
4.398
4.399
4.398
4.398
4.411
4.413
4.414
4.418
4.425
4.430
4.433
4.441
4.439
4.442
4.448
4.455
4.462
4.471
4.468
4.444
4.446
4.449
4.451
4.461
4.464
4.468
4.471
4.469
4.469
4.472
4.477
4.477
4.484
4.492
4.489
4.495
4.503
4.502
4.504
4.504
4.497
4.510
4.511
4.519
4.522
4.527
4.523
4.535
4.533
4.541
4.532
4.535
4.543
4.539
4.541
4.524
4.508
4.518
4.515
4.522
4.522
4.526
4.524
4.533
4.532
4.532
4.540
4.546
4.547
4.534
4.534
4.544
4.530
4.535
4.547
4.542
4.548
4.549
4.548
4.559
4.551
4.566
4.563
4.561
4.562
4.561
4.571
4.570
4.578
4.577
4.585
4.576
4.585
4.573
4.575
4.576
4.583
4.575
4.574
4.578
4.588
4.578
4.583
4.583
4.594
4.589
4.597
4.600
4.599
4.604
4.607
4.611
4.612
4.602
4.609
4.603
4.618
4.614
4.609
4.620
4.621
4.618
4.625
4.618
4.628
4.629
4.630
4.636
4.623
4.618
4.629
4.630
4.624
4.631
4.621
4.623
4.623
4.623
4.623
4.633
4.632
4.628
4.644
4.643
4.642
4.639
4.648
4.644
4.642
4.654
4.664
4.652
4.645
4.663
4.662
4.666
4.656
4.659
4.651
4.642
4.634
4.625
4.626
4.624
4.621
4.620
4.629
4.632
4.629
4.627
4.629
4.635
4.625
4.623
4.626
4.640
4.636
4.637
4.627
4.640
4.646
4.646
4.644
4.648
4.650
4.652
4.655
4.651
4.654
4.651
4.640
4.637
4.632
4.642
4.640
4.632
4.632
4.637
4.635
4.637
4.637
4.635
4.626
4.639
4.640
4.635
4.627
4.632
4.632
4.646
4.646
4.644
4.643
4.641
4.644
4.656
4.656
4.646
4.656
4.650
4.645
4.658
4.658
4.657
4.649
4.646
4.645
4.656
4.667
4.664
4.660
4.656
4.657
4.655
4.666
4.671
4.670
4.669
4.674
4.672
4.670
4.671
4.686
4.688
4.686
4.681
4.676
4.666
4.671
4.680
4.676
4.674
4.673
4.668
4.666
4.667
4.678
4.670
4.673
4.672
4.669
4.672
4.673
4.672
4.685
4.691
4.686
4.686
4.684
4.686
4.680
4.686
4.685
4.688
4.684
4.690
4.684
4.686
4.688
4.679
4.682
4.693
4.706
4.702
4.703
4.703
4.705
4.705
4.706
4.702
4.697
4.707
4.718
4.712
4.712
4.715
4.709
4.713
4.705
4.697
4.702
4.714
4.725
4.722
4.720
4.717
4.711
4.706
4.701
4.694
4.703
4.700
4.697
4.692
4.688
4.688
4.692
4.688
4.687
4.687
4.697
4.696
4.687
4.683
4.684
4.681
4.684
4.680
4.682
4.684
4.685
4.697
4.699
4.693
4.697
4.695
4.693
4.694
4.689
4.691
4.689
4.684
4.695
4.701
4.712
4.716
4.706
4.705
4.701
4.701
4.700
4.698
4.692
4.690
4.687
4.696
4.707
4.715
4.707
4.711
4.703
4.694
4.691
4.693
4.692
4.690
4.691
4.690
4.694
4.705
4.716
4.720
4.715
4.711
4.710
4.713
4.709
4.710
4.710
4.705
4.707
4.705
4.705
4.709
4.715
4.726
4.730
4.725
4.730
4.721
4.717
4.718
4.716
4.723
4.723
4.719
4.714
4.703
4.706
4.715
4.725
4.730
4.730
4.732
4.729
4.726
4.727
4.730
4.729
4.724
4.722
4.723
4.721
4.725
4.725
4.727
4.724
4.734
4.744
4.754
4.753
4.753
4.743
4.740
4.746
4.747
4.750
4.749
4.739
4.734
4.736
4.731
4.724
4.726
4.736
4.741
4.750
4.752
4.749
4.745
4.742
4.744
4.742
4.736
4.729
4.722
4.717
4.718
4.721
4.723
4.715
4.718
4.727
4.736
4.745
4.744
4.739
4.739
4.740
4.736
4.733
4.726
4.723
4.724
4.722
4.713
4.716
4.713
4.723
4.715
4.715
4.719
4.727
4.736
4.745
4.749
4.745
4.746
4.750
4.751
4.747
4.748
4.747
4.751
4.742
4.740
4.731
4.728
4.729
4.728
4.726
4.728
4.728
4.724
4.731
4.740
4.748
4.757
4.758
4.756
4.761
4.765
4.760
4.759
4.762
4.758
4.759
4.755
4.752
4.750
4.746
4.753
4.745
4.743
4.742
4.743
4.739
4.739
4.742
4.745
4.753
4.761
4.769
4.773
4.777
4.779
4.776
4.775
4.781
4.783
4.783
4.777
4.770
4.769
4.765
4.763
4.764
4.766
4.763
4.765
4.763
4.764
4.764
4.757
4.750
4.753
4.757
4.765
4.772
4.780
4.788
4.786
4.784
4.781
4.781
4.772
4.772
4.770
4.770
4.765
4.758
4.764
4.760
4.757
4.760
4.760
4.751
4.744
4.744
4.742
4.744
4.749
4.745
4.751
4.758
4.766
4.773
4.777
4.787
4.786
4.783
4.779
4.776
4.778
4.776
4.774
4.779
4.780
4.775
4.769
4.773
4.769
4.769
4.765
4.766
4.772
4.778
4.774
4.775
4.771
4.766
4.769
4.767
4.770
4.770
4.763
4.769
4.776
4.783
4.790
4.797
4.804
4.805
4.804
4.805
4.803
4.802
4.797
4.802
4.801
4.795
4.800
4.798
4.805
4.803
4.805
4.807
4.814
4.809
4.805
4.799
4.792
4.789
4.786
4.786
4.778
4.780
4.781
4.786
4.787
4.782
4.780
4.785
4.792
4.799
4.805
4.812
4.819
4.817
4.813
4.809
4.806
4.802
4.798
4.794
4.790
4.786
4.783
4.781
4.782
4.783
4.777
4.770
4.763
4.757
4.759
4.757
4.757
4.757
4.755
4.757
4.755
4.755
4.757
4.756
4.757
4.764
4.770
4.776
4.783
4.789
4.792
4.793
4.794
4.789
4.785
4.780
4.776
4.771
4.766
4.768
4.771
4.771
4.764
4.764
4.761
4.763
4.762
4.769
4.767
4.763
4.760
4.758
4.759
4.760
4.767
4.767
4.767
4.768
4.765
4.762
4.759
4.755
4.754
4.756
4.753
4.756
4.762
4.768
4.774
4.780
4.787
4.780
4.778
4.776
4.776
4.778
4.780
4.774
4.768
4.767
4.771
4.778
4.780
4.787
4.787
4.781
4.778
4.781
4.780
4.777
4.772
4.771
4.775
4.774
4.777
4.774
4.771
4.771
4.770
4.768
4.767
4.768
4.766
4.762
4.759
4.758
4.756
4.759
4.764
4.767
4.772
4.771
4.766
4.768
4.773
4.779
4.785
4.790
4.793
4.789
4.785
4.783
4.783
4.775
4.775
4.777
4.780
4.778
4.775
4.773
4.773
4.768
4.765
4.764
4.764
4.762
4.762
4.761
4.759
4.762
4.768
4.772
4.770
4.773
4.772
4.765
4.762
4.759
4.757
4.758
4.764
4.759
4.758
4.758
4.753
4.755
4.756
4.756
4.757
4.757
4.754
4.760
4.758
4.757
4.763
4.768
4.774
4.779
4.784
4.790
4.795
4.801
4.803
4.802
4.801
4.800
4.797
4.797
4.791
4.788
4.788
4.789
4.793
4.791
4.790
4.789
4.792
4.796
4.791
4.785
4.780
4.775
4.770
4.764
4.759
4.758
4.759
4.760
4.758
4.759
4.754
4.759
4.754
4.757
4.761
4.761
4.758
4.759
4.765
4.772
4.772
4.775
4.770
4.767
4.770
4.769
4.768
4.765
4.765
4.764
4.764
4.761
4.760
4.764
4.769
4.774
4.779
4.784
4.789
4.794
4.799
4.801
4.799
4.795
4.799
4.796
4.796
4.801
4.800
4.805
4.805
4.802
4.800
4.798
4.799
4.801
4.794
4.794
4.792
4.787
4.789
4.796
4.801
4.802
4.804
4.801
4.798
4.796
4.793
4.790
4.790
4.787
4.781
4.776
4.772
4.768
4.765
4.773
4.772
4.774
4.774
4.775
4.776
4.771
4.767
4.762
4.762
4.762
4.762
4.757
4.755
4.759
4.755
4.757
4.755
4.756
