2.994
3.332
3.516
3.627
3.728
3.782
3.840
3.885
3.912
3.965
3.981
4.012
4.046
4.086
4.063
4.078
4.104
4.129
4.150
4.166
4.189
4.211
4.229
4.245
4.230
4.192
4.178
4.190
4.202
4.209
4.224
4.229
4.241
4.245
4.257
4.259
4.270
4.283
4.281
4.291
4.303
4.299
4.307
4.318
4.325
4.324
4.331
4.337
4.350
4.355
4.350
4.355
4.363
4.370
4.374
4.384
4.377
4.377
4.389
4.392
4.400
4.401
4.411
4.420
4.414
4.407
4.418
4.417
4.424
4.429
4.438
4.440
4.446
4.453
4.449
4.458
4.443
4.450
4.454
4.455
4.460
4.463
4.468
4.472
4.473
4.477
4.485
4.489
4.490
4.494
4.495
4.500
4.496
4.488
4.485
4.492
4.492
4.492
4.500
4.507
4.514
4.511
4.515
4.511
4.522
4.518
4.525
4.529
4.533
4.537
4.539
4.537
4.539
4.543
4.542
4.548
4.555
4.557
4.555
4.555
4.540
4.540
4.539
4.543
4.540
4.541
4.544
4.548
4.555
4.560
4.556
4.559
4.563
4.571
4.559
4.560
4.567
4.560
4.567
4.573
4.572
4.576
4.583
4.587
4.585
4.590
4.589
4.590
4.597
4.587
4.586
4.593
4.602
4.598
4.596
4.595
4.607
4.609
4.605
4.614
4.616
4.618
4.611
4.617
4.624
4.625
4.624
4.633
4.622
4.622
4.627
4.631
4.627
4.617
4.607
4.595
4.602
4.596
4.605
4.604
4.610
4.615
4.605
4.617
4.614
4.623
4.618
4.614
4.621
4.622
4.624
4.623
4.632
4.629
4.635
4.629
4.622
4.622
4.632
4.626
4.630
4.628
4.625
4.625
4.635
4.629
4.638
4.634
4.640
4.637
4.638
4.642
4.644
4.648
4.649
4.650
4.654
4.653
4.652
4.655
4.655
4.651
4.652
4.658
4.662
4.663
4.665
4.663
4.673
4.670
4.666
4.669
4.659
4.664
4.660
4.659
4.665
4.667
4.666
4.663
4.660
4.667
4.670
4.667
4.670
4.677
4.670
4.674
4.677
4.669
4.674
4.681
4.681
4.677
4.690
4.688
4.685
4.689
4.696
4.691
4.690
4.700
4.696
4.691
4.695
4.696
4.687
4.691
4.704
4.700
4.700
4.700
4.707
4.705
4.703
4.707
4.714
4.714
4.706
4.713
4.718
4.716
4.717
4.716
4.714
4.705
4.703
4.711
4.707
4.707
4.706
4.718
4.717
4.721
4.712
4.714
4.714
4.711
4.711
4.713
4.714
4.714
4.707
4.711
4.723
4.719
4.718
4.718
4.718
4.725
4.731
4.730
4.729
4.730
4.736
4.733
4.734
4.729
4.733
4.743
4.744
4.741
4.737
4.733
4.742
4.737
4.731
4.724
4.720
4.714
4.709
4.703
4.712
4.710
4.711
4.707
4.707
4.707
4.703
4.702
4.703
4.702
4.704
4.714
4.712
4.716
4.715
4.708
4.709
4.719
4.728
4.724
4.720
4.713
4.709
4.721
4.715
4.722
4.720
4.721
4.717
4.721
4.729
4.727
4.723
4.724
4.725
4.725
4.729
4.737
4.742
4.738
4.734
4.738
4.736
4.735
4.733
4.725
4.718
4.714
4.715
4.725
4.726
4.722
4.722
4.727
4.726
4.721
4.726
4.727
4.723
4.719
4.712
4.710
4.712
4.722
4.725
4.722
4.725
4.725
4.723
4.714
4.718
4.727
4.726
4.724
4.720
4.719
4.720
4.719
4.722
4.730
4.733
4.735
4.731
4.730
4.729
4.730
4.731
4.732
4.740
4.748
4.739
4.738
4.739
4.735
4.736
4.737
4.737
4.744
4.745
4.746
4.740
4.732
4.736
4.735
4.734
4.740
4.748
4.754
4.753
4.748
4.747
4.741
4.740
4.743
4.739
4.748
4.756
4.755
4.753
4.749
4.758
4.752
4.751
4.751
4.751
4.752
4.763
4.771
4.769
4.763
4.759
4.760
4.758
4.751
4.750
4.751
4.758
4.757
4.758
4.762
4.758
4.754
4.755
4.751
4.751
4.752
4.758
4.762
4.755
4.757
4.751
4.754
4.751
4.748
4.747
4.746
4.750
4.759
4.766
4.773
4.772
4.768
4.764
4.768
4.761
4.760
4.766
4.760
4.763
4.763
4.774
4.777
4.777
4.776
4.781
4.774
4.767
4.760
4.761
4.757
4.764
4.763
4.772
4.781
4.783
4.781
4.778
4.784
4.778
4.781
4.780
4.777
4.777
4.776
4.774
4.776
4.785
4.793
4.799
4.800
4.799
4.801
4.794
4.790
4.786
4.784
4.791
4.787
4.781
4.782
4.791
4.795
4.794
4.798
4.796
4.793
4.792
4.792
4.788
4.788
4.791
4.785
4.780
4.781
4.785
4.777
4.772
4.770
4.772
4.770
4.770
4.766
4.772
4.771
4.770
4.768
4.769
4.776
4.781
4.777
4.785
4.785
4.781
4.785
4.780
4.773
4.770
4.763
4.761
4.754
4.756
4.765
4.772
4.773
4.775
4.773
4.772
4.774
4.774
4.779
4.775
4.770
4.772
4.768
4.764
4.766
4.764
4.763
4.770
4.777
4.783
4.784
4.781
4.784
4.783
4.785
4.783
4.777
4.777
4.781
4.785
4.784
4.783
4.784
4.781
4.779
4.777
4.782
4.791
4.792
4.789
4.793
4.791
4.787
4.783
4.779
4.781
4.779
4.777
4.777
4.780
4.779
4.780
4.781
4.775
4.781
4.788
4.795
4.794
4.787
4.786
4.777
4.777
4.782
4.786
4.782
4.775
4.777
4.775
4.776
4.775
4.774
4.775
4.774
4.778
4.787
4.794
4.800
4.803
4.804
4.799
4.796
4.796
4.795
4.797
4.792
4.789
4.790
4.791
4.798
4.792
4.790
4.792
4.795
4.797
4.793
4.791
4.796
4.803
4.809
4.807
4.806
4.808
4.809
4.805
4.806
4.803
4.801
4.803
4.806
4.802
4.796
4.791
4.788
4.788
4.793
4.792
4.790
4.789
4.796
4.802
4.807
4.813
4.814
4.813
4.809
4.811
4.809
4.807
4.806
4.805
4.812
4.813
4.814
4.813
4.807
4.805
4.804
4.805
4.809
4.807
4.807
4.803
4.801
4.807
4.812
4.818
4.825
4.830
4.837
4.832
4.834
4.832
4.831
4.829
4.822
4.821
4.820
4.818
4.818
4.819
4.820
4.824
4.823
4.818
4.814
4.811
4.812
4.811
4.814
4.811
4.818
4.824
4.825
4.824
4.820
4.822
4.820
4.818
4.812
4.808
4.804
4.802
4.800
4.799
4.800
4.797
4.798
4.797
4.796
4.797
4.798
4.802
4.801
4.802
4.800
4.805
4.812
4.816
4.822
4.829
4.829
4.829
4.828
4.822
4.818
4.819
4.815
4.810
4.803
4.807
4.804
4.805
4.806
4.810
4.811
4.808
4.800
4.796
4.793
4.797
4.793
4.792
4.793
4.800
4.806
4.811
4.815
4.822
4.822
4.822
4.829
4.830
4.831
4.829
4.829
4.822
4.822
4.824
4.825
4.824
4.826
4.825
4.822
4.822
4.822
4.821
4.815
4.816
4.817
4.816
4.814
4.810
4.809
4.811
4.804
4.805
4.811
4.816
4.820
4.825
4.829
4.833
4.831
4.830
4.828
4.833
4.833
4.827
4.828
4.832
4.833
4.833
4.831
4.833
4.833
4.830
4.828
4.833
4.831
4.833
4.833
4.832
4.831
4.835
4.831
4.824
4.823
4.821
4.818
4.824
4.822
4.818
4.823
4.829
4.834
4.838
4.844
4.849
4.848
4.851
4.850
4.849
4.845
4.846
4.844
4.843
4.839
4.841
4.845
4.849
4.848
4.843
4.844
4.844
4.850
4.855
4.853
4.852
4.850
4.852
4.845
4.843
4.840
4.843
4.840
4.837
4.837
4.835
4.836
4.835
4.836
4.837
4.840
4.844
4.850
4.855
4.859
4.859
4.856
4.862
4.864
4.863
4.859
4.857
4.856
4.855
4.855
4.851
4.848
4.851
4.856
4.857
4.853
4.852
4.848
4.844
4.840
4.837
4.833
4.830
4.829
4.827
4.828
4.825
4.829
4.830
4.826
4.829
4.829
4.829
4.831
4.837
4.840
4.844
4.850
4.855
4.858
4.855
4.856
4.857
4.859
4.855
4.851
4.851
4.851
4.851
4.844
4.848
4.853
4.849
4.853
4.851
4.850
4.851
4.853
4.848
4.844
4.844
4.844
4.841
4.840
4.840
4.842
4.841
4.837
4.841
4.842
4.840
4.842
4.840
4.840
4.840
4.837
4.841
4.847
4.844
4.844
