2.992
3.331
3.510
3.626
3.720
3.788
3.852
3.896
3.921
3.977
3.978
4.018
4.058
4.050
4.058
4.080
4.107
4.135
4.155
4.177
4.197
4.214
4.230
4.188
4.155
4.171
4.181
4.187
4.205
4.209
4.222
4.228
4.243
4.244
4.255
4.256
4.270
4.281
4.277
4.286
4.296
4.308
4.306
4.316
4.321
4.330
4.334
4.332
4.344
4.349
4.353
4.365
4.358
4.362
4.369
4.373
4.384
4.388
4.396
4.399
4.388
4.396
4.397
4.401
4.414
4.415
4.419
4.428
4.433
4.437
4.430
4.428
4.432
4.433
4.438
4.448
4.451
4.450
4.458
4.462
4.468
4.472
4.471
4.475
4.482
4.486
4.471
4.470
4.471
4.475
4.479
4.483
4.487
4.488
4.496
4.488
4.501
4.502
4.503
4.513
4.514
4.518
4.521
4.521
4.526
4.525
4.528
4.535
4.537
4.536
4.544
4.527
4.521
4.521
4.520
4.522
4.528
4.532
4.534
4.535
4.539
4.541
4.548
4.552
4.542
4.544
4.545
4.547
4.551
4.554
4.556
4.560
4.564
4.565
4.567
4.566
4.577
4.579
4.570
4.574
4.581
4.579
4.583
4.581
4.584
4.587
4.594
4.598
4.594
4.598
4.600
4.604
4.603
4.606
4.611
4.612
4.607
4.606
4.613
4.615
4.603
4.593
4.583
4.576
4.586
4.585
4.591
4.599
4.586
4.596
4.599
4.603
4.602
4.598
4.603
4.603
4.607
4.610
4.611
4.618
4.614
4.609
4.607
4.614
4.611
4.612
4.610
4.606
4.618
4.610
4.619
4.618
4.621
4.621
4.622
4.626
4.624
4.634
4.630
4.637
4.638
4.639
4.640
4.634
4.632
4.631
4.644
4.640
4.646
4.650
4.646
4.653
4.654
4.655
4.646
4.644
4.644
4.637
4.654
4.651
4.647
4.647
4.644
4.651
4.652
4.648
4.658
4.655
4.652
4.658
4.655
4.658
4.666
4.664
4.663
4.670
4.671
4.675
4.673
4.677
4.677
4.673
4.682
4.675
4.671
4.675
4.676
4.677
4.685
4.688
4.681
4.681
4.692
4.689
4.685
4.694
4.696
4.696
4.690
4.702
4.704
4.697
4.695
4.694
4.685
4.683
4.698
4.694
4.698
4.696
4.703
4.702
4.690
4.691
4.701
4.697
4.690
4.691
4.701
4.700
4.701
4.699
4.706
4.710
4.706
4.703
4.706
4.719
4.720
4.714
4.707
4.714
4.721
4.721
4.720
4.719
4.723
4.727
4.729
4.721
4.720
4.721
4.715
4.708
4.704
4.697
4.692
4.691
4.688
4.700
4.693
4.688
4.677
4.688
4.698
4.692
4.695
4.692
4.690
4.699
4.704
4.700
4.701
4.699
4.699
4.705
4.696
4.699
4.692
4.697
4.701
4.713
4.707
4.705
4.707
4.703
4.706
4.716
4.717
4.716
4.710
4.714
4.714
4.719
4.729
4.724
4.720
4.719
4.712
4.708
4.707
4.703
4.703
4.700
4.698
4.710
4.717
4.711
4.707
4.702
4.701
4.703
4.703
4.699
4.701
4.700
4.701
4.699
4.704
4.714
4.709
4.705
4.701
4.702
4.698
4.703
4.714
4.714
4.715
4.713
4.709
4.708
4.707
4.710
4.721
4.729
4.726
4.724
4.728
4.719
4.712
4.713
4.725
4.735
4.731
4.724
4.720
4.721
4.718
4.716
4.723
4.729
4.726
4.730
4.729
4.732
4.726
4.719
4.723
4.730
4.736
4.735
4.736
4.730
4.734
4.730
4.729
4.729
4.734
4.744
4.751
4.754
4.750
4.747
4.744
4.744
4.740
4.743
4.744
4.746
4.740
4.738
4.734
4.735
4.737
4.733
4.731
4.736
4.747
4.751
4.745
4.746
4.739
4.736
4.733
4.729
4.729
4.735
4.747
4.749
4.748
4.747
4.745
4.747
4.747
4.743
4.747
4.740
4.742
4.751
4.761
4.762
4.759
4.757
4.759
4.760
4.755
4.757
4.751
4.743
4.751
4.762
4.764
4.760
4.756
4.760
4.759
4.757
4.759
4.757
4.758
4.755
4.758
4.765
4.775
4.777
4.777
4.777
4.775
4.776
4.777
4.776
4.772
4.773
4.773
4.765
4.775
4.779
4.781
4.781
4.784
4.777
4.775
4.774
4.772
4.768
4.769
4.766
4.769
4.777
4.775
4.771
4.766
4.762
4.756
4.751
4.750
4.749
4.747
4.746
4.755
4.762
4.764
4.760
4.766
4.766
4.759
4.760
4.755
4.754
4.761
4.760
4.758
4.755
4.751
4.757
4.753
4.755
4.751
4.749
4.751
4.754
4.755
4.752
4.755
4.754
4.750
4.749
4.747
4.754
4.761
4.770
4.772
4.768
4.767
4.758
4.759
4.755
4.756
4.760
4.766
4.762
4.758
4.760
4.758
4.755
4.764
4.771
4.780
4.776
4.769
4.776
4.769
4.770
4.772
4.771
4.766
4.762
4.758
4.757
4.761
4.758
4.758
4.766
4.773
4.774
4.769
4.768
4.772
4.771
4.769
4.768
4.764
4.762
4.759
4.760
4.761
4.754
4.753
4.752
4.759
4.766
4.773
4.782
4.788
4.788
4.783
4.781
4.778
4.776
4.777
4.777
4.775
4.773
4.775
4.773
4.770
4.771
4.773
4.774
4.773
4.776
4.784
4.790
4.797
4.795
4.794
4.792
4.791
4.788
4.791
4.787
4.781
4.782
4.780
4.779
4.780
4.777
4.775
4.782
4.773
4.776
4.781
4.788
4.796
4.795
4.791
4.795
4.789
4.790
4.789
4.788
4.788
4.793
4.789
4.790
4.789
4.788
4.783
4.788
4.788
4.788
4.788
4.784
4.786
4.793
4.799
4.806
4.811
4.815
4.814
4.814
4.816
4.818
4.813
4.814
4.814
4.807
4.800
4.799
4.796
4.801
4.807
4.806
4.805
4.804
4.802
4.801
4.797
4.799
4.807
4.812
4.819
4.818
4.814
4.812
4.808
4.807
4.808
4.810
4.808
4.803
4.797
4.793
4.789
4.784
4.780
4.776
4.775
4.784
4.781
4.782
4.788
4.795
4.800
4.807
4.805
4.804
4.803
4.809
4.808
4.810
4.808
4.810
4.803
4.798
4.796
4.799
4.794
4.788
4.788
4.788
4.786
4.785
4.784
4.784
4.781
4.779
4.784
4.790
4.797
4.803
4.807
4.804
4.805
4.809
4.810
4.809
4.805
4.807
4.802
4.803
4.805
4.803
4.805
4.803
4.799
4.799
4.805
4.803
4.799
4.804
4.805
4.806
4.802
4.796
4.794
4.795
4.794
4.801
4.805
4.812
4.816
4.815
4.818
4.815
4.810
4.812
4.810
4.806
4.810
4.812
4.813
4.815
4.813
4.810
4.810
4.807
4.810
4.812
4.813
4.812
4.813
4.809
4.813
4.809
4.807
4.806
4.810
4.810
4.807
4.807
4.813
4.818
4.824
4.829
4.833
4.833
4.835
4.836
4.832
4.829
4.822
4.821
4.824
4.820
4.822
4.823
4.824
4.823
4.825
4.826
4.832
4.828
4.829
4.831
4.830
4.833
4.827
4.828
4.829
4.831
4.829
4.821
4.816
4.817
4.821
4.821
4.827
4.831
4.836
4.842
4.840
4.839
4.841
4.839
4.846
4.842
4.843
4.844
4.843
4.842
4.838
4.837
4.832
4.836
4.835
4.831
4.835
4.836
4.836
4.833
4.830
4.828
4.827
4.829
4.824
4.820
4.816
4.810
4.811
4.807
4.813
4.818
4.824
4.829
4.833
4.837
4.836
4.836
4.833
4.833
4.836
4.834
4.833
4.834
4.836
4.836
4.830
4.833
4.833
4.837
4.833
4.834
4.836
4.834
4.835
4.831
4.827
4.826
4.827
4.825
4.822
4.818
4.819
4.818
4.822
4.820
4.821
4.821
4.824
4.821
4.822
4.828
4.829
4.829
4.835
4.840
4.844
4.850
4.855
4.859
4.857
4.855
4.849
4.848
4.854
4.855
4.855
4.856
4.852
4.853
4.854
4.851
4.849
4.850
4.846
4.847
4.847
4.845
4.844
4.847
4.847
4.853
4.857
4.858
4.854
4.855
4.851
4.848
4.847
4.850
4.847
4.845
4.849
4.845
4.844
4.845
4.847
4.842
4.841
4.845
4.846
4.851
4.857
4.861
4.866
4.870
4.874
4.872
4.871
4.867
4.865
4.867
4.868
4.869
4.866
4.867
4.863
4.867
4.865
4.862
4.868
4.869
4.866
4.866
4.863
4.864
4.862
4.859
4.857
4.855
4.851
4.848
4.846
4.844
4.840
4.837
4.836
4.833
