2.982
3.317
3.507
3.604
3.669
3.784
3.780
3.854
3.910
3.971
3.887
3.898
3.930
3.958
3.982
3.998
4.015
4.046
4.048
4.076
4.083
4.097
4.116
4.115
4.136
4.156
4.167
4.156
4.171
4.190
4.203
4.220
4.227
4.213
4.224
4.227
4.246
4.251
4.262
4.276
4.284
4.287
4.264
4.280
4.280
4.291
4.284
4.295
4.300
4.313
4.322
4.317
4.332
4.344
4.349
4.359
4.373
4.360
4.363
4.371
4.358
4.345
4.344
4.362
4.367
4.364
4.360
4.366
4.375
4.375
4.378
4.395
4.378
4.394
4.406
4.414
4.417
4.415
4.411
4.406
4.404
4.403
4.418
4.433
4.422
4.429
4.444
4.443
4.432
4.452
4.456
4.446
4.461
4.461
4.477
4.465
4.465
4.455
4.468
4.456
4.480
4.468
4.476
4.472
4.494
4.485
4.501
4.488
4.512
4.495
4.511
4.502
4.491
4.474
4.464
4.452
4.474
4.463
4.478
4.484
4.469
4.499
4.484
4.486
4.503
4.486
4.473
4.480
4.467
4.469
4.461
4.472
4.475
4.467
4.476
4.490
4.485
4.484
4.501
4.489
4.487
4.492
4.503
4.490
4.490
4.509
4.514
4.512
4.504
4.521
4.529
4.517
4.501
4.518
4.516
4.506
4.498
4.522
4.517
4.518
4.517
4.520
4.534
4.522
4.520
4.515
4.535
4.544
4.541
4.539
4.538
4.543
4.557
4.550
4.551
4.549
4.544
4.569
4.557
4.555
4.549
4.537
4.562
4.550
4.535
4.524
4.523
4.547
4.535
4.532
4.521
4.512
4.525
4.548
4.551
4.545
4.543
4.538
4.539
4.541
4.548
4.552
4.556
4.545
4.539
4.536
4.546
4.553
4.551
4.546
4.537
4.539
4.531
4.542
4.563
4.576
4.576
4.559
4.553
4.559
4.552
4.550
4.566
4.571
4.574
4.569
4.563
4.560
4.557
4.567
4.561
4.581
4.600
4.594
4.586
4.589
4.589
4.584
4.572
4.565
4.581
4.599
4.603
4.594
4.588
4.590
4.589
4.582
4.568
4.567
4.585
4.590
4.585
4.571
4.569
4.565
4.562
4.554
4.563
4.572
4.576
4.593
4.599
4.592
4.578
4.579
4.588
4.575
4.567
4.570
4.576
4.568
4.585
4.602
4.615
4.601
4.598
4.603
4.606
4.590
4.595
4.597
4.602
4.603
4.599
4.596
4.609
4.625
4.627
4.624
4.636
4.630
4.626
4.621
4.617
4.609
4.603
4.599
4.597
4.605
4.612
4.623
4.618
4.618
4.610
4.607
4.611
4.615
4.615
4.609
4.604
4.605
4.596
4.595
4.595
4.610
4.624
4.639
4.644
4.646
4.642
4.642
4.646
4.643
4.634
4.627
4.636
4.639
4.645
4.642
4.641
4.632
4.632
4.632
4.641
4.655
4.663
4.653
4.658
4.662
4.658
4.659
4.651
4.649
4.653
4.654
4.643
4.646
4.639
4.634
4.637
4.636
4.636
4.645
4.643
4.644
4.639
4.638
4.630
4.634
4.628
4.634
4.646
4.645
4.640
4.631
4.621
4.612
4.603
4.595
4.600
4.608
4.620
4.632
4.634
4.632
4.638
4.628
4.618
4.616
4.618
4.614
4.620
4.618
4.620
4.615
4.606
4.616
4.618
4.619
4.624
4.620
4.613
4.610
4.607
4.615
4.626
4.638
4.650
4.640
4.630
4.624
4.617
4.618
4.618
4.618
4.619
4.605
4.620
4.617
4.617
4.611
4.604
4.597
4.592
4.591
4.593
4.602
4.611
4.610
4.616
4.610
4.620
4.631
4.641
4.652
4.663
4.648
4.639
4.639
4.632
4.635
4.631
4.635
4.635
4.633
4.626
4.617
4.622
4.617
4.622
4.621
4.613
4.614
4.613
4.610
4.609
4.596
4.605
4.606
4.596
4.606
4.616
4.626
4.636
4.646
4.654
4.656
4.659
4.663
4.660
4.659
4.651
4.650
4.654
4.651
4.643
4.638
4.640
4.632
4.621
4.620
4.618
4.616
4.620
4.613
4.617
4.624
4.625
4.624
4.622
4.622
4.621
4.616
4.615
4.614
4.616
4.616
4.625
4.635
4.644
4.653
4.663
4.670
4.666
4.663
4.659
4.656
4.648
4.647
4.647
4.648
4.659
4.670
4.663
4.659
4.653
4.650
4.648
4.647
4.639
4.640
4.639
4.648
4.650
4.651
4.644
4.638
4.637
4.642
4.635
4.632
4.633
4.634
4.633
4.637
4.642
4.634
4.630
4.626
4.634
4.643
4.652
4.661
4.669
4.678
4.686
4.695
4.695
4.693
4.693
4.690
4.697
4.687
4.688
4.679
4.684
4.684
4.679
4.683
4.679
4.674
4.674
4.662
4.662
4.668
4.674
4.679
4.684
4.681
4.678
4.671
4.673
4.678
4.681
4.685
4.679
4.677
4.676
4.675
4.672
4.666
4.663
4.660
4.662
4.667
4.667
4.660
4.653
4.661
4.659
4.654
4.662
4.670
4.678
4.686
4.694
4.702
4.709
4.703
4.697
4.690
4.692
4.689
4.679
4.669
4.668
4.673
4.673
4.672
4.671
4.662
4.659
4.656
4.657
4.659
4.656
4.652
4.652
4.652
4.643
4.650
4.653
4.654
4.643
4.640
4.639
4.631
4.641
4.636
4.646
4.657
4.654
4.653
4.654
4.648
4.647
4.647
4.641
4.644
4.637
4.633
4.629
4.624
4.616
4.622
4.630
4.637
4.644
4.651
4.659
4.666
4.673
4.680
4.687
4.692
4.700
4.700
4.697
4.703
4.700
4.695
4.694
4.690
4.695
4.693
4.694
4.682
4.679
4.673
4.680
4.675
4.677
4.687
4.687
4.688
4.685
4.683
4.685
4.686
4.689
4.685
4.678
4.683
4.685
4.680
4.671
4.682
4.673
4.673
4.678
4.678
4.676
4.683
4.681
4.684
4.677
4.671
4.675
4.671
4.663
4.663
4.659
4.664
4.662
4.658
4.657
4.658
4.659
4.659
4.664
4.666
4.673
4.662
4.661
4.663
4.672
4.680
4.681
4.679
4.678
4.672
4.672
4.678
4.679
4.682
4.688
4.694
4.701
4.707
4.714
4.721
4.726
4.723
4.730
4.725
4.725
4.716
4.710
4.715
4.708
4.701
4.695
4.694
4.687
4.688
4.693
4.690
4.686
4.680
4.678
4.678
4.678
4.672
4.666
4.666
4.668
4.664
4.660
4.654
4.653
4.663
4.664
4.662
4.662
4.663
4.666
4.664
4.669
4.662
4.665
4.668
4.663
4.660
4.659
4.651
4.651
4.651
4.659
4.658
4.659
4.661
4.655
4.658
4.661
4.660
4.654
4.655
4.649
4.642
4.636
4.629
4.628
4.621
4.618
4.620
4.622
4.618
4.608
4.614
4.614
4.620
4.620
4.622
4.623
4.626
4.631
4.636
4.642
4.648
4.654
4.660
4.665
4.671
4.677
4.683
4.688
4.694
4.700
4.706
4.712
4.716
4.720
4.728
4.721
4.723
4.724
4.718
4.713
4.717
4.714
4.720
4.728
4.736
4.735
4.732
4.726
4.727
4.730
4.733
4.726
4.726
4.728
4.725
4.724
4.716
4.711
4.708
4.704
4.707
4.701
4.699
4.694
4.691
4.691
4.691
4.690
4.687
4.687
4.696
4.692
4.689
4.693
4.696
4.693
4.685
4.679
4.681
4.683
4.681
4.683
4.679
4.675
4.670
4.664
4.659
4.654
4.648
4.643
4.642
4.641
4.643
4.642
4.645
4.644
4.639
4.639
4.634
4.630
4.638
4.643
4.640
4.640
4.644
4.646
4.647
4.649
4.647
4.648
4.648
4.642
4.642
4.641
4.638
4.637
4.643
4.643
4.645
4.644
4.646
4.650
4.653
4.662
4.663
4.663
4.662
4.662
4.657
4.657
4.661
4.660
4.659
4.657
4.661
4.661
4.661
4.661
4.665
4.670
4.675
4.680
4.685
4.690
4.695
4.701
4.706
4.711
4.716
4.709
4.709
4.716
4.711
4.704
4.705
4.712
4.712
4.709
4.708
4.711
4.705
4.705
4.712
4.705
4.701
4.697
4.697
4.693
4.690
4.694
4.693
4.685
4.688
4.686
4.694
4.699
4.705
4.701
4.696
4.695
4.693
4.697
4.700
4.705
4.706
4.702
4.697
4.697
4.698
4.700
4.705
4.712
4.719
4.724
4.721
4.721
4.721
4.718
4.711
4.715
4.715
4.705
4.705
4.699
4.702
4.700
4.695
4.695
4.689
4.684
4.679
4.681
4.674
4.674
4.671
4.663
4.662
4.667
4.670
4.668
4.665
