2.995
3.328
3.516
3.631
3.706
3.778
3.826
3.886
3.912
3.965
3.955
3.984
4.017
4.056
4.086
4.111
4.137
4.135
4.080
4.082
4.100
4.111
4.131
4.142
4.147
4.165
4.172
4.189
4.193
4.206
4.216
4.216
4.233
4.244
4.248
4.252
4.266
4.271
4.287
4.279
4.285
4.300
4.309
4.315
4.306
4.318
4.322
4.329
4.334
4.345
4.354
4.359
4.350
4.350
4.353
4.370
4.373
4.377
4.388
4.390
4.394
4.403
4.412
4.395
4.397
4.393
4.401
4.410
4.412
4.411
4.417
4.421
4.427
4.435
4.441
4.445
4.444
4.451
4.451
4.460
4.466
4.465
4.442
4.445
4.447
4.449
4.463
4.460
4.467
4.470
4.466
4.464
4.476
4.473
4.480
4.486
4.492
4.489
4.495
4.500
4.499
4.503
4.501
4.496
4.505
4.512
4.517
4.520
4.523
4.520
4.531
4.529
4.538
4.530
4.535
4.538
4.538
4.538
4.522
4.507
4.515
4.513
4.522
4.527
4.528
4.523
4.532
4.532
4.532
4.536
4.545
4.543
4.535
4.533
4.543
4.536
4.536
4.543
4.539
4.544
4.553
4.550
4.558
4.551
4.564
4.564
4.557
4.558
4.558
4.571
4.569
4.582
4.574
4.583
4.575
4.582
4.571
4.572
4.582
4.581
4.579
4.574
4.584
4.584
4.583
4.580
4.580
4.593
4.593
4.601
4.601
4.598
4.606
4.603
4.613
4.608
4.607
4.607
4.601
4.618
4.613
4.613
4.617
4.620
4.625
4.628
4.625
4.633
4.625
4.628
4.634
4.620
4.624
4.629
4.631
4.628
4.626
4.621
4.630
4.622
4.621
4.630
4.631
4.628
4.627
4.646
4.644
4.643
4.645
4.648
4.645
4.644
4.659
4.661
4.652
4.652
4.662
4.666
4.661
4.662
4.657
4.648
4.640
4.631
4.622
4.622
4.620
4.623
4.617
4.634
4.629
4.629
4.629
4.635
4.630
4.622
4.622
4.633
4.641
4.636
4.631
4.632
4.646
4.645
4.646
4.643
4.647
4.656
4.654
4.655
4.648
4.649
4.647
4.637
4.634
4.631
4.648
4.638
4.632
4.631
4.637
4.631
4.630
4.637
4.636
4.628
4.642
4.638
4.634
4.630
4.630
4.639
4.649
4.644
4.646
4.640
4.641
4.645
4.662
4.649
4.653
4.652
4.650
4.648
4.660
4.658
4.653
4.646
4.645
4.647
4.662
4.661
4.663
4.660
4.658
4.654
4.657
4.672
4.672
4.672
4.673
4.674
4.670
4.668
4.677
4.684
4.688
4.677
4.678
4.673
4.662
4.677
4.673
4.677
4.674
4.667
4.666
4.667
4.673
4.675
4.671
4.674
4.669
4.673
4.672
4.669
4.678
4.687
4.691
4.688
4.685
4.684
4.684
4.683
4.683
4.691
4.684
4.689
4.685
4.687
4.685
4.685
4.686
4.685
4.699
4.707
4.704
4.703
4.703
4.704
4.704
4.704
4.700
4.700
4.713
4.715
4.713
4.714
4.712
4.714
4.711
4.700
4.696
4.708
4.721
4.725
4.717
4.717
4.714
4.709
4.705
4.697
4.697
4.698
4.695
4.695
4.689
4.690
4.690
4.689
4.686
4.686
4.692
4.700
4.691
4.685
4.681
4.684
4.683
4.678
4.683
4.684
4.679
4.691
4.703
4.695
4.698
4.695
4.694
4.694
4.693
4.689
4.689
4.686
4.688
4.695
4.707
4.717
4.709
4.703
4.704
4.703
4.695
4.697
4.694
4.692
4.688
4.691
4.702
4.713
4.710
4.710
4.705
4.699
4.691
4.691
4.692
4.687
4.691
4.690
4.690
4.701
4.711
4.720
4.715
4.714
4.711
4.712
4.710
4.709
4.711
4.705
4.706
4.708
4.706
4.703
4.711
4.722
4.732
4.726
4.729
4.723
4.716
4.713
4.719
4.718
4.721
4.720
4.718
4.708
4.703
4.711
4.721
4.731
4.728
4.729
4.729
4.728
4.727
4.729
4.730
4.727
4.720
4.719
4.719
4.725
4.723
4.727
4.722
4.731
4.741
4.750
4.755
4.754
4.746
4.743
4.741
4.745
4.745
4.746
4.739
4.734
4.732
4.730
4.728
4.726
4.732
4.738
4.748
4.750
4.746
4.746
4.743
4.746
4.743
4.738
4.731
4.724
4.719
4.714
4.720
4.723
4.720
4.715
4.724
4.733
4.742
4.746
4.737
4.738
4.741
4.738
4.732
4.727
4.723
4.723
4.724
4.715
4.712
4.712
4.721
4.718
4.712
4.718
4.725
4.734
4.742
4.748
4.745
4.745
4.748
4.751
4.746
4.744
4.746
4.749
4.744
4.738
4.731
4.725
4.728
4.727
4.724
4.729
4.730
4.722
4.729
4.738
4.746
4.755
4.757
4.757
4.759
4.766
4.761
4.757
4.759
4.757
4.756
4.753
4.754
4.750
4.747
4.755
4.745
4.743
4.742
4.743
4.740
4.738
4.741
4.743
4.751
4.759
4.767
4.775
4.776
4.777
4.776
4.776
4.781
4.784
4.781
4.776
4.771
4.769
4.764
4.762
4.763
4.764
4.765
4.763
4.762
4.764
4.762
4.759
4.751
4.752
4.756
4.763
4.771
4.779
4.787
4.784
4.785
4.780
4.784
4.773
4.772
4.769
4.768
4.766
4.759
4.763
4.760
4.755
4.758
4.760
4.752
4.745
4.745
4.743
4.745
4.748
4.746
4.750
4.757
4.765
4.772
4.778
4.786
4.786
4.784
4.778
4.774
4.779
4.775
4.773
4.777
4.779
4.773
4.768
4.772
4.769
4.771
4.765
4.767
4.771
4.776
4.773
4.773
4.772
4.767
4.768
4.766
4.770
4.769
4.764
4.768
4.775
4.782
4.789
4.796
4.804
4.805
4.804
4.804
4.803
4.803
4.797
4.803
4.800
4.796
4.800
4.798
4.805
4.804
4.805
4.806
4.813
4.808
4.806
4.799
4.792
4.789
4.785
4.787
4.779
4.780
4.781
4.786
4.786
4.781
4.779
4.785
4.791
4.798
4.805
4.812
4.818
4.816
4.813
4.809
4.806
4.802
4.798
4.794
4.790
4.787
4.783
4.780
4.782
4.783
4.777
4.770
4.764
4.757
4.759
4.757
4.757
4.756
4.754
4.757
4.755
4.755
4.757
4.755
4.757
4.764
4.770
4.776
4.783
4.789
4.791
4.792
4.794
4.789
4.785
4.780
4.776
4.771
4.766
4.767
4.769
4.770
4.763
4.764
4.760
4.762
4.763
4.769
4.765
4.763
4.760
4.757
4.759
4.760
4.766
4.767
4.766
4.767
4.765
4.761
4.759
4.755
4.754
4.755
4.752
4.756
4.763
4.769
4.775
4.781
4.787
4.779
4.778
4.776
4.776
4.777
4.780
4.773
4.768
4.767
4.771
4.779
4.781
4.786
4.786
4.782
4.778
4.783
4.779
4.775
4.774
4.771
4.775
4.774
4.777
4.774
4.771
4.770
4.771
4.770
4.768
4.768
4.766
4.761
4.758
4.757
4.754
4.758
4.764
4.768
4.771
4.770
4.767
4.768
4.774
4.780
4.785
4.791
4.792
4.787
4.784
4.784
4.782
4.775
4.775
4.777
4.781
4.777
4.775
4.773
4.771
4.767
4.764
4.765
4.763
4.761
4.763
4.759
4.759
4.763
4.768
4.773
4.769
4.773
4.771
4.764
4.762
4.758
4.757
4.756
4.763
4.758
4.760
4.758
4.753
4.757
4.756
4.756
4.757
4.758
4.755
4.758
4.758
4.758
4.764
4.769
4.775
4.780
4.785
4.791
4.796
4.801
4.802
4.801
4.803
4.798
4.795
4.797
4.790
4.790
4.787
4.789
4.791
4.793
4.789
4.791
4.792
4.795
4.789
4.784
4.779
4.773
4.768
4.763
4.758
4.758
4.757
4.761
4.760
4.757
4.756
4.758
4.755
4.756
4.761
4.762
4.757
4.761
4.767
4.774
4.774
4.774
4.768
4.769
4.769
4.769
4.766
4.763
4.764
4.762
4.762
4.759
4.760
4.765
4.770
4.775
4.780
4.785
4.791
4.796
4.801
4.799
4.799
4.798
4.798
4.796
4.798
4.800
4.800
4.804
4.800
4.801
4.801
4.800
4.799
4.798
4.792
4.791
4.790
4.785
4.791
4.795
4.801
4.803
4.803
4.799
4.798
4.794
4.790
4.789
4.791
4.785
4.779
4.774
4.771
4.766
4.768
4.773
4.773
4.774
4.775
4.775
4.776
4.769
4.764
4.761
4.762
4.763
4.759
4.758
4.757
4.759
4.756
4.756
4.755
4.755
4.758
