2.988
3.324
3.515
3.625
3.701
3.772
3.807
3.882
3.907
3.919
3.965
4.003
4.043
4.075
4.065
4.004
4.025
4.042
4.061
4.089
4.099
4.109
4.129
4.136
4.150
4.155
4.176
4.188
4.189
4.198
4.219
4.213
4.226
4.234
4.251
4.248
4.249
4.262
4.270
4.287
4.293
4.294
4.289
4.299
4.307
4.308
4.324
4.334
4.332
4.349
4.341
4.325
4.337
4.348
4.356
4.359
4.359
4.377
4.372
4.383
4.378
4.390
4.402
4.405
4.410
4.390
4.384
4.393
4.401
4.399
4.410
4.409
4.411
4.410
4.422
4.426
4.426
4.434
4.442
4.437
4.450
4.442
4.446
4.460
4.464
4.462
4.470
4.469
4.479
4.475
4.483
4.477
4.483
4.481
4.461
4.453
4.462
4.473
4.469
4.469
4.480
4.477
4.484
4.493
4.469
4.478
4.477
4.487
4.485
4.483
4.490
4.499
4.495
4.505
4.512
4.506
4.504
4.514
4.517
4.517
4.530
4.520
4.529
4.517
4.518
4.521
4.521
4.520
4.524
4.521
4.527
4.531
4.539
4.539
4.546
4.545
4.546
4.549
4.544
4.552
4.559
4.553
4.559
4.560
4.576
4.564
4.578
4.568
4.575
4.580
4.573
4.573
4.570
4.580
4.567
4.578
4.563
4.566
4.579
4.571
4.580
4.591
4.588
4.591
4.593
4.589
4.600
4.601
4.595
4.606
4.611
4.610
4.610
4.614
4.605
4.599
4.587
4.577
4.566
4.568
4.578
4.579
4.575
4.572
4.576
4.577
4.571
4.587
4.580
4.582
4.576
4.598
4.604
4.592
4.595
4.606
4.600
4.596
4.598
4.590
4.582
4.579
4.588
4.591
4.586
4.569
4.586
4.581
4.584
4.573
4.580
4.593
4.583
4.583
4.584
4.592
4.606
4.602
4.588
4.594
4.599
4.614
4.604
4.599
4.592
4.602
4.612
4.608
4.602
4.601
4.602
4.618
4.614
4.617
4.610
4.616
4.614
4.628
4.628
4.629
4.623
4.624
4.623
4.625
4.616
4.615
4.611
4.607
4.625
4.620
4.620
4.611
4.613
4.624
4.623
4.633
4.631
4.635
4.630
4.633
4.626
4.633
4.638
4.634
4.628
4.635
4.632
4.628
4.637
4.650
4.654
4.652
4.649
4.656
4.648
4.651
4.652
4.662
4.662
4.659
4.665
4.656
4.653
4.643
4.659
4.675
4.672
4.662
4.658
4.665
4.659
4.653
4.644
4.642
4.641
4.636
4.636
4.633
4.640
4.637
4.650
4.639
4.633
4.638
4.632
4.629
4.629
4.624
4.638
4.650
4.650
4.649
4.640
4.639
4.641
4.645
4.646
4.644
4.647
4.659
4.653
4.655
4.656
4.644
4.639
4.642
4.643
4.647
4.646
4.657
4.649
4.649
4.640
4.645
4.644
4.647
4.642
4.644
4.644
4.651
4.662
4.668
4.671
4.660
4.665
4.664
4.660
4.660
4.669
4.660
4.662
4.658
4.671
4.677
4.679
4.675
4.676
4.674
4.664
4.654
4.655
4.647
4.660
4.655
4.668
4.681
4.687
4.681
4.684
4.681
4.681
4.686
4.686
4.684
4.684
4.677
4.677
4.682
4.679
4.691
4.704
4.706
4.702
4.698
4.690
4.690
4.693
4.687
4.691
4.687
4.685
4.685
4.678
4.690
4.701
4.692
4.683
4.684
4.681
4.681
4.683
4.678
4.677
4.676
4.669
4.671
4.669
4.675
4.687
4.688
4.679
4.677
4.675
4.676
4.674
4.675
4.681
4.678
4.675
4.676
4.677
4.681
4.675
4.672
4.682
4.693
4.692
4.695
4.695
4.695
4.699
4.692
4.686
4.689
4.685
4.677
4.679
4.691
4.695
4.690
4.685
4.685
4.689
4.694
4.705
4.715
4.706
4.704
4.712
4.706
4.711
4.713
4.709
4.703
4.705
4.707
4.700
4.703
4.708
4.704
4.708
4.706
4.707
4.706
4.711
4.721
4.731
4.736
4.740
4.731
4.730
4.720
4.718
4.722
4.721
4.722
4.724
4.719
4.717
4.712
4.715
4.710
4.703
4.698
4.699
4.708
4.718
4.724
4.721
4.729
4.731
4.727
4.721
4.717
4.715
4.710
4.714
4.719
4.709
4.709
4.708
4.706
4.709
4.713
4.712
4.710
4.705
4.702
4.706
4.715
4.724
4.733
4.743
4.741
4.741
4.743
4.741
4.736
4.736
4.742
4.739
4.735
4.736
4.740
4.744
4.742
4.742
4.739
4.731
4.728
4.723
4.726
4.726
4.728
4.734
4.736
4.739
4.749
4.745
4.753
4.762
4.765
4.760
4.759
4.755
4.753
4.752
4.749
4.752
4.749
4.754
4.749
4.748
4.749
4.757
4.752
4.748
4.741
4.740
4.746
4.750
4.745
4.743
4.737
4.729
4.732
4.732
4.733
4.726
4.737
4.740
4.740
4.736
4.734
4.734
4.729
4.727
4.732
4.728
4.727
4.728
4.726
4.724
4.733
4.728
4.727
4.720
4.722
4.717
4.711
4.705
4.704
4.703
4.704
4.712
4.720
4.728
4.736
4.743
4.740
4.736
4.729
4.731
4.722
4.725
4.719
4.715
4.720
4.731
4.724
4.719
4.716
4.716
4.720
4.714
4.707
4.705
4.707
4.712
4.707
4.704
4.705
4.703
4.706
4.709
4.705
4.702
4.703
4.710
4.714
4.718
4.726
4.733
4.741
4.748
4.750
4.749
4.744
4.747
4.741
4.747
4.744
4.741
4.740
4.733
4.730
4.723
4.719
4.722
4.712
4.710
4.707
4.716
4.714
4.717
4.712
4.707
4.703
4.706
4.700
4.705
4.706
4.699
4.700
4.693
4.697
4.698
4.700
4.707
4.714
4.721
4.728
4.735
4.742
4.747
4.743
4.738
4.741
4.738
4.741
4.744
4.747
4.745
4.749
4.751
4.750
4.748
4.749
4.745
4.743
4.746
4.741
4.736
4.735
4.727
4.723
4.719
4.717
4.715
4.712
4.712
4.715
4.712
4.713
4.712
4.720
4.719
4.712
4.705
4.703
4.701
4.703
4.703
4.709
4.716
4.722
4.728
4.735
4.742
4.748
4.751
4.750
4.751
4.745
4.743
4.741
4.737
4.743
4.740
4.740
4.739
4.735
4.732
4.732
4.731
4.730
4.734
4.738
4.737
4.740
4.740
4.743
4.739
4.735
4.733
4.733
4.736
4.733
4.730
4.730
4.723
4.728
4.731
4.734
4.734
4.729
4.722
4.723
4.721
4.717
4.720
4.715
4.709
4.707
4.708
4.714
4.720
4.726
4.732
4.738
4.744
4.751
4.757
4.763
4.765
4.765
4.769
4.765
4.769
4.761
4.762
4.761
4.758
4.752
4.751
4.753
4.750
4.747
4.743
4.742
4.743
4.744
4.744
4.744
4.750
4.750
4.746
4.742
4.737
4.738
4.735
4.737
4.738
4.738
4.740
4.746
4.744
4.746
4.739
4.739
4.732
4.724
4.720
4.722
4.726
4.730
4.726
4.729
4.729
4.728
4.727
4.726
4.723
4.725
4.723
4.724
4.725
4.730
4.736
4.742
4.747
4.753
4.759
4.765
4.770
4.776
4.777
4.773
4.768
4.774
4.779
4.773
4.768
4.769
4.769
4.768
4.771
4.777
4.780
4.779
4.774
4.769
4.766
4.765
4.763
4.766
4.763
4.766
4.760
4.759
4.756
4.758
4.755
4.755
4.754
4.752
4.746
4.748
4.750
4.750
4.757
4.765
4.767
4.761
4.761
4.755
4.759
4.758
4.759
4.755
4.749
4.748
4.747
4.743
4.742
4.748
4.749
4.757
4.757
4.753
4.752
4.751
4.746
4.750
4.750
4.747
4.745
4.744
4.749
4.754
4.751
4.756
4.761
4.766
4.772
4.777
4.782
4.787
4.793
4.798
4.803
4.808
4.807
4.805
4.803
4.802
4.803
4.808
4.807
4.806
4.804
4.803
4.807
4.805
4.803
4.800
4.795
4.790
4.786
4.780
4.776
4.774
4.776
4.778
4.775
4.775
4.774
4.779
4.786
4.789
4.783
4.777
4.778
4.772
4.779
4.780
4.783
4.786
4.777
4.773
4.770
4.767
4.770
4.774
4.773
4.771
4.766
4.761
4.761
4.761
4.757
4.752
4.748
4.746
4.744
4.739
4.739
4.739
4.744
4.739
4.741
4.735
4.729
4.723
4.720
4.718
4.722
4.726
4.731
4.735
4.740
4.745
4.750
4.755
4.759
4.764
4.769
4.774
4.779
4.784
4.784
4.791
4.794
4.794
4.790
4.785
4.781
4.782
4.785
4.784
