2.994
3.335
3.514
3.633
3.716
3.792
3.832
3.877
3.941
3.961
4.009
4.003
4.042
4.079
4.107
4.077
4.100
4.121
4.143
4.167
4.182
4.203
4.223
4.240
4.255
4.244
4.207
4.189
4.206
4.214
4.217
4.232
4.236
4.249
4.253
4.263
4.275
4.277
4.288
4.298
4.297
4.306
4.316
4.314
4.321
4.329
4.340
4.334
4.341
4.350
4.357
4.364
4.365
4.362
4.373
4.378
4.385
4.389
4.398
4.389
4.392
4.400
4.406
4.410
4.415
4.419
4.429
4.430
4.420
4.429
4.432
4.433
4.442
4.446
4.448
4.451
4.459
4.463
4.464
4.465
4.456
4.463
4.469
4.466
4.469
4.477
4.481
4.487
4.483
4.490
4.495
4.499
4.500
4.501
4.510
4.509
4.516
4.501
4.505
4.504
4.502
4.506
4.508
4.512
4.516
4.525
4.524
4.526
4.524
4.531
4.525
4.534
4.536
4.545
4.540
4.550
4.549
4.550
4.552
4.553
4.555
4.561
4.563
4.570
4.569
4.564
4.551
4.553
4.546
4.550
4.551
4.553
4.558
4.562
4.565
4.566
4.574
4.572
4.569
4.573
4.582
4.570
4.569
4.578
4.574
4.581
4.585
4.583
4.592
4.594
4.595
4.595
4.590
4.600
4.601
4.608
4.607
4.602
4.598
4.605
4.612
4.608
4.609
4.607
4.615
4.619
4.617
4.625
4.628
4.625
4.626
4.627
4.631
4.635
4.642
4.636
4.640
4.632
4.639
4.636
4.644
4.633
4.623
4.613
4.606
4.610
4.609
4.614
4.617
4.619
4.625
4.619
4.625
4.622
4.631
4.632
4.629
4.627
4.631
4.630
4.632
4.633
4.639
4.636
4.642
4.640
4.634
4.636
4.642
4.638
4.637
4.638
4.632
4.636
4.640
4.640
4.650
4.646
4.650
4.651
4.647
4.651
4.650
4.660
4.658
4.655
4.666
4.658
4.667
4.665
4.661
4.665
4.661
4.665
4.662
4.665
4.677
4.673
4.670
4.681
4.680
4.677
4.683
4.677
4.669
4.668
4.669
4.676
4.670
4.673
4.683
4.676
4.673
4.677
4.672
4.676
4.684
4.677
4.681
4.688
4.684
4.684
4.688
4.685
4.688
4.690
4.694
4.696
4.694
4.703
4.702
4.701
4.702
4.704
4.703
4.701
4.708
4.701
4.697
4.699
4.703
4.706
4.707
4.707
4.716
4.714
4.713
4.712
4.721
4.715
4.716
4.717
4.724
4.718
4.721
4.720
4.732
4.731
4.724
4.720
4.713
4.714
4.716
4.717
4.722
4.721
4.722
4.723
4.729
4.728
4.719
4.717
4.722
4.728
4.721
4.715
4.718
4.728
4.725
4.726
4.729
4.728
4.735
4.736
4.733
4.731
4.729
4.742
4.746
4.747
4.738
4.739
4.743
4.750
4.746
4.747
4.743
4.745
4.754
4.753
4.754
4.748
4.743
4.737
4.732
4.728
4.722
4.720
4.719
4.721
4.714
4.717
4.727
4.723
4.718
4.709
4.711
4.718
4.716
4.721
4.721
4.715
4.721
4.725
4.730
4.725
4.727
4.726
4.721
4.726
4.736
4.728
4.725
4.721
4.721
4.723
4.735
4.732
4.740
4.734
4.730
4.728
4.730
4.742
4.738
4.739
4.741
4.739
4.740
4.736
4.746
4.755
4.754
4.753
4.749
4.745
4.738
4.732
4.732
4.734
4.727
4.726
4.725
4.734
4.740
4.740
4.741
4.736
4.733
4.729
4.730
4.734
4.727
4.721
4.724
4.720
4.722
4.723
4.733
4.740
4.736
4.736
4.732
4.731
4.724
4.723
4.733
4.739
4.735
4.732
4.733
4.736
4.733
4.734
4.732
4.742
4.743
4.747
4.747
4.748
4.743
4.744
4.746
4.747
4.747
4.751
4.749
4.750
4.755
4.753
4.751
4.747
4.740
4.748
4.757
4.750
4.749
4.748
4.746
4.747
4.749
4.748
4.744
4.755
4.762
4.761
4.760
4.758
4.757
4.755
4.749
4.755
4.754
4.758
4.766
4.769
4.769
4.766
4.768
4.766
4.771
4.769
4.768
4.764
4.766
4.775
4.781
4.777
4.771
4.764
4.762
4.766
4.758
4.751
4.760
4.769
4.773
4.770
4.771
4.769
4.765
4.769
4.768
4.761
4.762
4.762
4.768
4.773
4.769
4.769
4.762
4.766
4.765
4.764
4.765
4.766
4.760
4.764
4.771
4.781
4.782
4.783
4.779
4.777
4.773
4.775
4.777
4.778
4.776
4.778
4.773
4.781
4.788
4.791
4.784
4.781
4.781
4.778
4.774
4.772
4.774
4.775
4.777
4.775
4.784
4.791
4.793
4.794
4.793
4.795
4.790
4.792
4.795
4.791
4.788
4.789
4.790
4.789
4.790
4.797
4.804
4.813
4.810
4.807
4.806
4.802
4.796
4.794
4.796
4.799
4.798
4.795
4.796
4.797
4.804
4.808
4.807
4.803
4.807
4.805
4.803
4.799
4.793
4.789
4.785
4.781
4.782
4.789
4.785
4.789
4.787
4.783
4.785
4.780
4.784
4.783
4.784
4.781
4.777
4.777
4.774
4.778
4.785
4.792
4.792
4.795
4.792
4.788
4.782
4.777
4.771
4.772
4.766
4.769
4.765
4.767
4.768
4.775
4.782
4.786
4.790
4.789
4.788
4.788
4.787
4.789
4.785
4.780
4.781
4.783
4.777
4.777
4.777
4.780
4.777
4.781
4.788
4.795
4.799
4.799
4.801
4.797
4.796
4.792
4.788
4.791
4.793
4.797
4.799
4.799
4.798
4.792
4.785
4.781
4.787
4.794
4.801
4.805
4.801
4.797
4.792
4.792
4.795
4.794
4.796
4.792
4.792
4.789
4.795
4.789
4.785
4.781
4.781
4.784
4.792
4.797
4.801
4.794
4.796
4.794
4.792
4.791
4.793
4.795
4.793
4.789
4.792
4.791
4.790
4.792
4.790
4.784
4.785
4.788
4.790
4.795
4.803
4.808
4.815
4.811
4.814
4.813
4.807
4.802
4.806
4.810
4.807
4.807
4.804
4.805
4.807
4.807
4.806
4.807
4.807
4.808
4.807
4.808
4.803
4.810
4.815
4.818
4.815
4.818
4.817
4.818
4.817
4.819
4.818
4.813
4.809
4.807
4.804
4.803
4.803
4.797
4.799
4.805
4.807
4.802
4.799
4.802
4.807
4.814
4.820
4.825
4.826
4.824
4.823
4.816
4.821
4.822
4.823
4.821
4.825
4.827
4.826
4.821
4.820
4.818
4.818
4.816
4.820
4.818
4.820
4.819
4.817
4.811
4.817
4.821
4.828
4.833
4.839
4.843
4.842
4.841
4.839
4.836
4.840
4.836
4.834
4.835
4.831
4.833
4.834
4.832
4.828
4.830
4.831
4.827
4.825
4.825
4.823
4.821
4.823
4.824
4.823
4.829
4.834
4.830
4.825
4.822
4.820
4.819
4.820
4.819
4.817
4.814
4.812
4.811
4.810
4.810
4.810
4.813
4.810
4.811
4.812
4.810
4.812
4.814
4.815
4.814
4.812
4.814
4.820
4.825
4.831
4.836
4.834
4.833
4.831
4.825
4.823
4.822
4.821
4.814
4.812
4.814
4.820
4.819
4.820
4.816
4.817
4.814
4.812
4.810
4.807
4.808
4.806
4.807
4.806
4.807
4.806
4.811
4.817
4.821
4.826
4.832
4.832
4.835
4.842
4.846
4.844
4.840
4.840
4.836
4.837
4.838
4.839
4.838
4.839
4.838
4.832
4.827
4.828
4.827
4.823
4.824
4.825
4.822
4.826
4.829
4.823
4.821
4.817
4.814
4.815
4.818
4.821
4.827
4.831
4.836
4.842
4.846
4.847
4.844
4.844
4.849
4.844
4.843
4.839
4.843
4.845
4.847
4.847
4.847
4.850
4.844
4.840
4.843
4.845
4.846
4.844
4.844
4.842
4.841
4.839
4.833
4.829
4.830
4.832
4.827
4.832
4.829
4.831
4.832
4.834
4.840
4.845
4.849
4.853
4.858
4.864
4.865
4.862
4.860
4.858
4.855
4.856
4.858
4.858
4.857
4.858
4.858
4.859
4.857
4.858
4.862
4.861
4.862
4.864
4.862
4.858
4.857
4.855
4.854
4.853
4.852
4.850
4.849
4.848
4.846
4.847
4.847
4.848
4.846
4.842
4.846
4.851
4.854
4.859
4.865
4.869
4.871
4.869
4.868
4.869
4.871
4.872
4.873
4.870
4.866
4.866
4.866
4.866
4.865
4.861
4.857
4.855
4.849
4.848
4.846
4.840
4.841
4.839
4.838
4.839
4.838
4.839
4.844
