2.988
3.308
3.499
3.615
3.691
3.710
3.801
3.872
3.937
3.843
3.874
3.894
3.924
3.953
3.979
3.999
4.015
4.036
4.055
4.073
4.074
4.098
4.113
4.139
4.121
4.132
4.158
4.175
4.193
4.172
4.187
4.191
4.209
4.214
4.235
4.251
4.243
4.224
4.236
4.248
4.247
4.265
4.271
4.277
4.278
4.288
4.296
4.306
4.320
4.339
4.323
4.330
4.346
4.312
4.316
4.317
4.325
4.341
4.321
4.334
4.337
4.346
4.353
4.340
4.356
4.359
4.367
4.376
4.364
4.365
4.364
4.369
4.386
4.394
4.408
4.400
4.397
4.399
4.423
4.419
4.421
4.438
4.437
4.419
4.425
4.418
4.420
4.430
4.443
4.433
4.463
4.446
4.465
4.450
4.478
4.461
4.476
4.471
4.463
4.444
4.424
4.430
4.425
4.451
4.445
4.453
4.450
4.452
4.471
4.453
4.446
4.443
4.438
4.430
4.429
4.443
4.445
4.442
4.458
4.451
4.449
4.457
4.451
4.452
4.465
4.461
4.461
4.483
4.477
4.474
4.475
4.492
4.480
4.462
4.493
4.475
4.471
4.475
4.496
4.494
4.483
4.481
4.490
4.495
4.488
4.486
4.512
4.515
4.516
4.507
4.504
4.531
4.528
4.516
4.516
4.518
4.530
4.528
4.522
4.521
4.517
4.497
4.509
4.506
4.495
4.503
4.495
4.494
4.490
4.490
4.510
4.520
4.514
4.502
4.494
4.499
4.516
4.522
4.513
4.499
4.492
4.498
4.511
4.525
4.521
4.528
4.521
4.519
4.521
4.520
4.539
4.541
4.535
4.523
4.514
4.513
4.517
4.540
4.550
4.552
4.545
4.549
4.552
4.541
4.534
4.547
4.566
4.563
4.567
4.556
4.561
4.560
4.542
4.540
4.561
4.556
4.552
4.538
4.542
4.533
4.531
4.519
4.540
4.560
4.556
4.550
4.553
4.554
4.552
4.549
4.532
4.525
4.544
4.563
4.575
4.574
4.571
4.571
4.567
4.553
4.559
4.548
4.555
4.549
4.568
4.586
4.593
4.583
4.595
4.588
4.587
4.581
4.578
4.585
4.577
4.573
4.572
4.590
4.605
4.599
4.605
4.593
4.583
4.572
4.561
4.569
4.566
4.561
4.563
4.573
4.589
4.599
4.615
4.607
4.611
4.597
4.590
4.585
4.585
4.595
4.606
4.602
4.588
4.587
4.584
4.600
4.615
4.631
4.630
4.630
4.625
4.614
4.618
4.614
4.612
4.608
4.599
4.602
4.601
4.607
4.604
4.601
4.614
4.629
4.645
4.638
4.633
4.624
4.615
4.606
4.597
4.608
4.590
4.591
4.584
4.588
4.590
4.583
4.590
4.600
4.610
4.605
4.604
4.602
4.590
4.583
4.588
4.578
4.573
4.577
4.567
4.573
4.573
4.575
4.578
4.570
4.567
4.578
4.585
4.599
4.612
4.616
4.619
4.617
4.617
4.613
4.612
4.607
4.595
4.583
4.573
4.573
4.566
4.564
4.555
4.555
4.554
4.562
4.566
4.563
4.576
4.588
4.601
4.613
4.626
4.636
4.621
4.612
4.613
4.604
4.602
4.609
4.599
4.588
4.593
4.594
4.593
4.590
4.591
4.593
4.580
4.570
4.574
4.569
4.576
4.577
4.576
4.588
4.600
4.611
4.620
4.608
4.619
4.622
4.629
4.619
4.630
4.615
4.628
4.617
4.613
4.598
4.599
4.591
4.596
4.594
4.592
4.598
4.586
4.581
4.585
4.581
4.584
4.586
4.582
4.580
4.578
4.588
4.599
4.610
4.621
4.631
4.642
4.641
4.626
4.631
4.628
4.618
4.624
4.625
4.622
4.627
4.617
4.618
4.612
4.617
4.617
4.605
4.600
4.597
4.603
4.597
4.595
4.597
4.608
4.608
4.609
4.605
4.603
4.592
4.597
4.602
4.601
4.598
4.608
4.618
4.628
4.638
4.648
4.656
4.661
4.663
4.664
4.655
4.656
4.659
4.653
4.645
4.648
4.646
4.643
4.646
4.641
4.635
4.634
4.629
4.633
4.640
4.643
4.627
4.629
4.640
4.642
4.647
4.650
4.649
4.637
4.629
4.635
4.628
4.619
4.620
4.623
4.629
4.627
4.624
4.625
4.631
4.630
4.640
4.649
4.658
4.667
4.662
4.660
4.661
4.671
4.684
4.682
4.681
4.685
4.675
4.665
4.663
4.655
4.647
4.639
4.631
4.623
4.617
4.620
4.613
4.605
4.600
4.600
4.612
4.614
4.617
4.616
4.613
4.616
4.620
4.617
4.616
4.615
4.611
4.604
4.597
4.595
4.596
4.595
4.605
4.604
4.602
4.600
4.604
4.612
4.620
4.629
4.637
4.646
4.654
4.663
4.671
4.666
4.665
4.664
4.659
4.657
4.650
4.651
4.653
4.649
4.659
4.648
4.647
4.639
4.638
4.649
4.655
4.647
4.652
4.651
4.645
4.648
4.644
4.640
4.641
4.642
4.643
4.639
4.652
4.648
4.640
4.640
4.633
4.636
4.637
4.633
4.632
4.639
4.636
4.635
4.629
4.623
4.625
4.620
4.621
4.619
4.610
4.622
4.624
4.631
4.626
4.626
4.636
4.647
4.641
4.635
4.627
4.635
4.642
4.650
4.658
4.665
4.673
4.680
4.688
4.693
4.689
4.693
4.688
4.692
4.697
4.694
4.691
4.680
4.675
4.679
4.673
4.676
4.666
4.668
4.665
4.659
4.653
4.644
4.645
4.643
4.650
4.645
4.647
4.646
4.645
4.638
4.635
4.627
4.623
4.631
4.635
4.634
4.634
4.627
4.630
4.626
4.624
4.613
4.611
4.615
4.626
4.621
4.627
4.622
4.618
4.618
4.623
4.618
4.615
4.621
4.617
4.609
4.608
4.608
4.602
4.599
4.600
4.600
4.594
4.594
4.588
4.590
4.597
4.603
4.610
4.617
4.624
4.630
4.637
4.644
4.650
4.657
4.664
4.671
4.672
4.677
4.677
4.675
4.685
4.684
4.680
4.683
4.676
4.671
4.677
4.687
4.693
4.699
4.696
4.691
4.685
4.681
4.683
4.684
4.689
4.683
4.681
4.683
4.683
4.683
4.678
4.674
4.681
4.680
4.675
4.669
4.667
4.668
4.660
4.663
4.669
4.663
4.654
4.662
4.666
4.665
4.655
4.654
4.654
4.652
4.654
4.652
4.644
4.638
4.634
4.631
4.631
4.624
4.625
4.625
4.629
4.627
4.628
4.622
4.616
4.609
4.613
4.607
4.606
4.615
4.614
4.616
4.619
4.618
4.609
4.602
4.601
4.600
4.597
4.599
4.603
4.603
4.602
4.609
4.617
4.619
4.621
4.621
4.616
4.614
4.615
4.615
4.613
4.616
4.622
4.628
4.633
4.639
4.645
4.651
4.657
4.663
4.669
4.674
4.680
4.686
4.692
4.692
4.682
4.678
4.681
4.676
4.671
4.680
4.676
4.671
4.668
4.669
4.669
4.677
4.670
4.668
4.665
4.660
4.658
4.658
4.654
4.646
4.646
4.656
4.659
4.657
4.657
4.658
4.656
4.660
4.659
4.664
4.666
4.661
4.660
4.664
4.672
4.679
4.677
4.672
4.680
4.688
4.684
4.687
4.684
4.688
4.689
4.684
4.678
4.674
4.680
4.674
4.673
4.675
4.677
4.674
4.665
4.660
4.655
4.651
4.644
4.641
4.649
4.644
4.638
4.631
4.624
4.617
4.616
4.619
4.616
4.622
4.630
4.622
4.624
4.631
4.628
4.629
4.635
4.639
4.641
4.639
4.631
4.629
4.630
4.631
4.630
4.628
4.632
4.630
4.630
4.628
4.629
4.623
4.622
4.618
4.616
4.613
4.611
4.607
4.602
4.606
4.604
4.605
4.611
4.611
4.605
4.609
4.615
4.618
4.617
4.624
4.620
4.624
4.631
4.639
4.644
4.640
4.642
4.646
4.643
4.640
4.643
4.641
4.647
4.652
4.657
4.662
4.667
4.672
4.677
4.682
4.687
4.692
4.697
4.702
4.707
4.712
4.717
4.722
4.725
4.732
4.731
4.728
4.726
4.727
4.722
4.717
4.715
4.709
4.710
4.709
4.705
4.706
4.711
4.708
4.709
4.710
4.711
4.715
4.719
4.721
4.722
4.725
4.723
4.717
4.709
4.706
4.711
4.706
4.699
4.695
4.691
4.690
4.683
4.677
4.680
4.681
4.676
4.681
4.680
4.688
4.690
4.690
4.691
4.694
4.702
4.699
4.700
4.697
4.687
4.682
4.688
4.682
4.682
4.683
4.680
4.677
4.677
4.681
4.683
4.676
4.679
4.688
4.686
