2.994
3.334
3.512
3.627
3.722
3.789
3.855
3.898
3.922
3.977
3.976
4.021
4.061
4.043
4.059
4.084
4.108
4.132
4.157
4.175
4.196
4.216
4.223
4.181
4.155
4.167
4.184
4.191
4.199
4.211
4.214
4.230
4.237
4.243
4.258
4.260
4.269
4.281
4.281
4.290
4.302
4.309
4.305
4.317
4.322
4.329
4.325
4.334
4.341
4.351
4.357
4.366
4.355
4.362
4.368
4.375
4.381
4.388
4.395
4.394
4.387
4.394
4.399
4.403
4.414
4.416
4.420
4.432
4.428
4.436
4.421
4.432
4.434
4.436
4.440
4.447
4.450
4.451
4.458
4.460
4.469
4.471
4.475
4.476
4.481
4.473
4.469
4.477
4.472
4.471
4.477
4.488
4.489
4.493
4.494
4.496
4.495
4.499
4.510
4.509
4.514
4.520
4.514
4.521
4.522
4.525
4.530
4.537
4.535
4.542
4.530
4.517
4.518
4.520
4.519
4.526
4.530
4.532
4.532
4.536
4.538
4.545
4.551
4.540
4.540
4.545
4.546
4.550
4.552
4.556
4.560
4.562
4.563
4.566
4.566
4.572
4.577
4.567
4.573
4.577
4.574
4.580
4.582
4.581
4.584
4.592
4.598
4.597
4.598
4.597
4.601
4.608
4.603
4.608
4.609
4.607
4.606
4.611
4.612
4.600
4.590
4.578
4.579
4.581
4.590
4.588
4.595
4.594
4.593
4.600
4.599
4.599
4.601
4.603
4.604
4.603
4.610
4.605
4.612
4.611
4.603
4.611
4.606
4.607
4.606
4.608
4.606
4.614
4.610
4.618
4.612
4.619
4.618
4.624
4.623
4.632
4.631
4.632
4.634
4.635
4.636
4.630
4.637
4.630
4.639
4.641
4.639
4.647
4.644
4.654
4.650
4.647
4.651
4.640
4.645
4.640
4.648
4.651
4.648
4.644
4.642
4.646
4.651
4.646
4.655
4.654
4.651
4.658
4.653
4.654
4.664
4.665
4.662
4.668
4.673
4.673
4.670
4.676
4.675
4.670
4.680
4.674
4.670
4.674
4.673
4.674
4.683
4.687
4.680
4.681
4.689
4.687
4.683
4.693
4.697
4.692
4.686
4.701
4.702
4.696
4.694
4.693
4.684
4.684
4.695
4.690
4.694
4.693
4.705
4.701
4.689
4.692
4.695
4.695
4.689
4.693
4.697
4.698
4.699
4.696
4.707
4.707
4.702
4.703
4.707
4.717
4.718
4.714
4.705
4.717
4.718
4.718
4.718
4.715
4.725
4.726
4.727
4.718
4.719
4.718
4.713
4.706
4.702
4.695
4.689
4.687
4.694
4.696
4.694
4.684
4.680
4.693
4.692
4.692
4.691
4.687
4.692
4.699
4.702
4.695
4.694
4.696
4.702
4.701
4.695
4.693
4.691
4.695
4.708
4.710
4.705
4.706
4.700
4.699
4.711
4.715
4.716
4.710
4.710
4.714
4.714
4.726
4.727
4.721
4.714
4.715
4.710
4.704
4.705
4.699
4.700
4.698
4.707
4.715
4.711
4.704
4.702
4.698
4.700
4.703
4.699
4.698
4.697
4.698
4.694
4.703
4.711
4.709
4.702
4.701
4.699
4.696
4.702
4.712
4.713
4.712
4.713
4.707
4.707
4.706
4.710
4.720
4.725
4.723
4.722
4.728
4.718
4.710
4.714
4.725
4.733
4.726
4.722
4.717
4.719
4.717
4.714
4.725
4.725
4.723
4.727
4.726
4.730
4.725
4.721
4.721
4.732
4.734
4.733
4.731
4.732
4.729
4.730
4.726
4.725
4.736
4.746
4.750
4.751
4.747
4.743
4.744
4.740
4.739
4.736
4.745
4.743
4.739
4.735
4.732
4.733
4.734
4.730
4.731
4.740
4.750
4.746
4.742
4.741
4.739
4.732
4.729
4.729
4.731
4.740
4.747
4.749
4.747
4.746
4.742
4.746
4.742
4.744
4.742
4.738
4.748
4.757
4.762
4.757
4.758
4.754
4.755
4.754
4.753
4.752
4.747
4.749
4.758
4.762
4.759
4.754
4.759
4.757
4.756
4.760
4.755
4.754
4.753
4.754
4.762
4.773
4.775
4.773
4.775
4.773
4.773
4.774
4.772
4.771
4.772
4.770
4.766
4.773
4.777
4.779
4.778
4.781
4.778
4.771
4.772
4.773
4.767
4.768
4.764
4.768
4.777
4.776
4.772
4.766
4.761
4.755
4.750
4.749
4.747
4.743
4.745
4.754
4.762
4.763
4.759
4.765
4.764
4.757
4.758
4.751
4.753
4.760
4.756
4.755
4.755
4.752
4.755
4.749
4.753
4.747
4.747
4.752
4.753
4.751
4.750
4.754
4.753
4.747
4.747
4.747
4.755
4.763
4.769
4.771
4.764
4.766
4.758
4.755
4.753
4.754
4.759
4.763
4.758
4.758
4.758
4.755
4.758
4.766
4.773
4.781
4.772
4.773
4.772
4.766
4.767
4.770
4.769
4.760
4.759
4.755
4.758
4.758
4.756
4.762
4.770
4.776
4.770
4.765
4.769
4.770
4.766
4.765
4.766
4.760
4.758
4.758
4.759
4.757
4.751
4.749
4.756
4.765
4.772
4.779
4.784
4.784
4.784
4.781
4.777
4.773
4.773
4.776
4.773
4.773
4.773
4.771
4.767
4.768
4.770
4.771
4.770
4.774
4.783
4.788
4.794
4.793
4.795
4.792
4.792
4.787
4.791
4.787
4.781
4.781
4.778
4.777
4.778
4.777
4.773
4.782
4.775
4.774
4.781
4.788
4.795
4.793
4.789
4.790
4.789
4.785
4.788
4.785
4.788
4.792
4.788
4.787
4.788
4.784
4.783
4.785
4.788
4.787
4.783
4.782
4.788
4.793
4.800
4.807
4.813
4.812
4.813
4.814
4.816
4.817
4.811
4.810
4.811
4.807
4.800
4.799
4.795
4.803
4.803
4.803
4.802
4.803
4.800
4.799
4.795
4.803
4.808
4.815
4.816
4.817
4.813
4.810
4.807
4.806
4.808
4.809
4.803
4.801
4.795
4.790
4.788
4.782
4.777
4.774
4.778
4.779
4.778
4.785
4.791
4.796
4.803
4.809
4.803
4.803
4.805
4.807
4.808
4.804
4.808
4.806
4.799
4.793
4.799
4.796
4.791
4.787
4.788
4.784
4.783
4.784
4.780
4.781
4.778
4.784
4.788
4.795
4.800
4.806
4.800
4.804
4.808
4.806
4.808
4.804
4.805
4.799
4.802
4.803
4.802
4.803
4.799
4.796
4.797
4.803
4.800
4.798
4.802
4.803
4.803
4.801
4.795
4.792
4.791
4.793
4.799
4.804
4.811
4.815
4.814
4.817
4.813
4.809
4.810
4.807
4.803
4.810
4.810
4.810
4.813
4.812
4.808
4.804
4.807
4.809
4.810
4.810
4.811
4.810
4.808
4.809
4.807
4.803
4.803
4.807
4.810
4.806
4.808
4.814
4.819
4.825
4.830
4.832
4.830
4.831
4.833
4.829
4.825
4.820
4.821
4.818
4.818
4.821
4.822
4.820
4.821
4.825
4.829
4.828
4.824
4.828
4.827
4.829
4.830
4.826
4.829
4.829
4.827
4.826
4.818
4.815
4.818
4.818
4.824
4.829
4.833
4.840
4.840
4.837
4.838
4.842
4.841
4.842
4.841
4.840
4.841
4.840
4.836
4.836
4.835
4.832
4.835
4.831
4.832
4.832
4.835
4.832
4.827
4.828
4.825
4.826
4.824
4.821
4.816
4.812
4.808
4.806
4.811
4.817
4.822
4.828
4.832
4.837
4.833
4.834
4.832
4.829
4.836
4.831
4.830
4.831
4.832
4.834
4.829
4.831
4.830
4.837
4.832
4.829
4.833
4.834
4.832
4.831
4.825
4.825
4.825
4.821
4.821
4.818
4.814
4.818
4.819
4.818
4.819
4.820
4.821
4.821
4.821
4.826
4.827
4.829
4.835
4.840
4.844
4.850
4.855
4.856
4.854
4.853
4.847
4.848
4.854
4.853
4.854
4.851
4.851
4.850
4.851
4.851
4.847
4.844
4.846
4.845
4.844
4.844
4.843
4.844
4.849
4.851
4.857
4.853
4.852
4.851
4.849
4.847
4.847
4.847
4.847
4.845
4.847
4.844
4.844
4.845
4.844
4.839
4.841
4.844
4.849
4.853
4.858
4.864
4.868
4.872
4.874
4.872
4.868
4.862
4.866
4.864
4.865
4.867
4.865
4.864
4.863
4.862
4.860
4.864
4.868
4.864
4.863
4.861
4.860
4.862
4.860
4.858
4.855
4.853
4.849
4.847
4.844
4.840
4.838
4.836
4.835
4.831
4.829
4.826
4.824
4.820
4.822
4.828
4.830
