2.994
3.334
3.514
3.629
3.709
3.781
3.830
3.875
3.929
3.936
3.984
4.026
4.054
4.029
4.063
4.086
4.114
4.141
4.159
4.184
4.205
4.204
4.161
4.144
4.155
4.165
4.183
4.188
4.205
4.209
4.224
4.226
4.240
4.242
4.255
4.264
4.265
4.277
4.285
4.289
4.292
4.300
4.312
4.322
4.314
4.325
4.333
4.338
4.351
4.340
4.347
4.354
4.362
4.366
4.377
4.382
4.372
4.376
4.384
4.387
4.397
4.399
4.403
4.415
4.418
4.418
4.408
4.417
4.416
4.420
4.427
4.431
4.436
4.442
4.444
4.451
4.455
4.456
4.462
4.469
4.465
4.455
4.460
4.455
4.459
4.464
4.470
4.473
4.479
4.477
4.482
4.483
4.490
4.497
4.496
4.505
4.501
4.505
4.506
4.514
4.517
4.524
4.521
4.529
4.515
4.507
4.504
4.503
4.510
4.513
4.515
4.519
4.528
4.522
4.526
4.533
4.529
4.530
4.534
4.535
4.540
4.538
4.544
4.549
4.550
4.547
4.551
4.559
4.562
4.554
4.556
4.562
4.561
4.562
4.569
4.571
4.577
4.576
4.578
4.582
4.581
4.588
4.589
4.592
4.594
4.598
4.594
4.593
4.596
4.596
4.589
4.577
4.566
4.573
4.566
4.577
4.581
4.570
4.581
4.584
4.586
4.585
4.584
4.588
4.592
4.588
4.596
4.593
4.599
4.599
4.589
4.601
4.591
4.598
4.597
4.593
4.603
4.603
4.607
4.601
4.608
4.606
4.614
4.612
4.616
4.618
4.618
4.626
4.621
4.621
4.616
4.620
4.619
4.629
4.627
4.633
4.635
4.634
4.643
4.637
4.636
4.625
4.632
4.629
4.632
4.640
4.633
4.636
4.629
4.634
4.640
4.639
4.643
4.642
4.640
4.648
4.644
4.642
4.657
4.655
4.652
4.664
4.660
4.656
4.668
4.664
4.660
4.662
4.657
4.653
4.668
4.669
4.665
4.672
4.671
4.670
4.671
4.678
4.679
4.681
4.684
4.686
4.679
4.681
4.685
4.689
4.679
4.680
4.673
4.670
4.682
4.689
4.685
4.683
4.685
4.681
4.677
4.680
4.682
4.680
4.679
4.684
4.692
4.688
4.684
4.686
4.698
4.699
4.698
4.699
4.701
4.707
4.701
4.702
4.701
4.713
4.714
4.708
4.706
4.711
4.714
4.716
4.709
4.703
4.696
4.689
4.684
4.680
4.677
4.677
4.671
4.677
4.673
4.675
4.673
4.673
4.687
4.689
4.685
4.681
4.679
4.689
4.693
4.689
4.684
4.677
4.685
4.691
4.692
4.691
4.687
4.683
4.695
4.696
4.698
4.699
4.692
4.694
4.703
4.710
4.710
4.713
4.707
4.700
4.707
4.705
4.696
4.688
4.684
4.692
4.695
4.702
4.696
4.696
4.687
4.692
4.698
4.694
4.685
4.680
4.679
4.684
4.695
4.700
4.696
4.688
4.687
4.688
4.690
4.696
4.692
4.694
4.696
4.692
4.690
4.692
4.704
4.705
4.706
4.702
4.709
4.707
4.706
4.703
4.710
4.713
4.710
4.713
4.706
4.708
4.701
4.710
4.710
4.710
4.707
4.707
4.707
4.707
4.709
4.713
4.723
4.716
4.720
4.718
4.714
4.713
4.712
4.711
4.721
4.727
4.731
4.733
4.729
4.730
4.729
4.727
4.726
4.729
4.739
4.740
4.733
4.724
4.721
4.713
4.710
4.719
4.729
4.735
4.731
4.729
4.726
4.727
4.728
4.724
4.718
4.725
4.728
4.729
4.729
4.732
4.725
4.727
4.723
4.730
4.728
4.730
4.739
4.743
4.740
4.736
4.742
4.746
4.742
4.732
4.733
4.735
4.740
4.746
4.744
4.740
4.739
4.741
4.739
4.740
4.744
4.740
4.739
4.741
4.750
4.757
4.759
4.759
4.759
4.757
4.758
4.754
4.748
4.755
4.764
4.757
4.759
4.768
4.769
4.765
4.761
4.766
4.767
4.765
4.762
4.755
4.756
4.751
4.761
4.770
4.775
4.774
4.769
4.763
4.758
4.752
4.747
4.741
4.736
4.744
4.751
4.752
4.750
4.752
4.747
4.746
4.744
4.735
4.742
4.738
4.742
4.740
4.745
4.752
4.745
4.738
4.733
4.733
4.734
4.733
4.731
4.733
4.734
4.733
4.734
4.736
4.744
4.752
4.751
4.751
4.748
4.754
4.747
4.744
4.740
4.741
4.744
4.744
4.742
4.743
4.740
4.749
4.756
4.765
4.770
4.768
4.764
4.762
4.755
4.754
4.753
4.751
4.750
4.747
4.745
4.747
4.744
4.752
4.759
4.768
4.769
4.766
4.761
4.755
4.748
4.755
4.758
4.754
4.750
4.741
4.739
4.738
4.740
4.747
4.756
4.760
4.767
4.770
4.767
4.762
4.761
4.765
4.761
4.762
4.759
4.760
4.759
4.760
4.755
4.752
4.751
4.755
4.761
4.768
4.775
4.782
4.781
4.777
4.777
4.782
4.783
4.779
4.770
4.768
4.770
4.771
4.762
4.757
4.756
4.765
4.769
4.765
4.772
4.777
4.781
4.779
4.778
4.777
4.772
4.773
4.772
4.771
4.777
4.774
4.777
4.777
4.769
4.765
4.767
4.771
4.769
4.773
4.772
4.779
4.786
4.793
4.796
4.798
4.796
4.795
4.794
4.799
4.796
4.799
4.796
4.793
4.788
4.792
4.791
4.790
4.788
4.785
4.784
4.784
4.783
4.785
4.791
4.796
4.800
4.803
4.800
4.793
4.799
4.799
4.803
4.799
4.794
4.788
4.786
4.784
4.786
4.784
4.784
4.779
4.773
4.770
4.770
4.777
4.783
4.790
4.791
4.792
4.791
4.788
4.788
4.788
4.786
4.790
4.792
4.788
4.788
4.788
4.786
4.781
4.781
4.785
4.778
4.771
4.766
4.765
4.766
4.773
4.778
4.785
4.786
4.788
4.786
4.792
4.794
4.792
4.791
4.787
4.786
4.785
4.784
4.788
4.786
4.785
4.781
4.781
4.784
4.781
4.784
4.788
4.789
4.788
4.792
4.787
4.786
4.785
4.789
4.795
4.799
4.801
4.800
4.799
4.800
4.798
4.800
4.798
4.792
4.795
4.792
4.793
4.794
4.796
4.792
4.795
4.792
4.792
4.791
4.792
4.794
4.793
4.794
4.790
4.786
4.787
4.794
4.795
4.799
4.804
4.810
4.815
4.818
4.818
4.816
4.817
4.816
4.812
4.811
4.809
4.810
4.806
4.805
4.807
4.808
4.806
4.808
4.810
4.811
4.810
4.816
4.809
4.808
4.806
4.810
4.814
4.814
4.809
4.808
4.807
4.808
4.809
4.816
4.820
4.827
4.831
4.829
4.831
4.833
4.829
4.829
4.828
4.827
4.828
4.822
4.820
4.819
4.817
4.822
4.825
4.824
4.820
4.816
4.815
4.816
4.815
4.816
4.815
4.816
4.812
4.814
4.810
4.810
4.809
4.805
4.809
4.814
4.820
4.825
4.829
4.827
4.821
4.816
4.817
4.814
4.817
4.814
4.814
4.814
4.815
4.821
4.820
4.822
4.820
4.818
4.820
4.819
4.818
4.816
4.815
4.811
4.807
4.805
4.804
4.805
4.807
4.807
4.799
4.803
4.807
4.803
4.807
4.810
4.815
4.821
4.826
4.830
4.837
4.843
4.842
4.841
4.842
4.841
4.840
4.838
4.842
4.836
4.836
4.832
4.833
4.833
4.837
4.835
4.837
4.835
4.831
4.830
4.828
4.830
4.833
4.836
4.837
4.836
4.833
4.833
4.834
4.835
4.836
4.835
4.831
4.830
4.831
4.829
4.833
4.832
4.828
4.829
4.834
4.840
4.845
4.849
4.855
4.860
4.864
4.870
4.866
4.865
4.864
4.860
4.856
4.852
4.850
4.847
4.853
4.854
4.853
4.851
4.853
4.847
4.842
4.844
4.844
4.844
4.842
4.843
4.848
4.846
4.847
4.844
4.840
4.840
4.837
4.836
4.834
4.832
4.829
4.825
4.825
4.821
4.820
4.824
4.829
4.833
4.839
4.838
4.833
4.829
4.828
4.829
4.826
4.827
4.828
4.825
4.825
4.824
4.826
4.827
4.826
4.824
4.823
4.825
4.831
4.829
4.828
4.829
4.828
4.824
4.823
4.821
4.820
4.821
4.825
4.824
4.821
4.819
4.818
4.816
4.817
4.819
4.815
4.811
4.807
4.807
4.803
4.799
4.803
4.807
4.810
4.816
4.821
4.825
4.826
4.833
4.839
4.838
4.837
4.836
4.839
4.833
4.831
4.835
4.834
4.832
4.831
