2.992
3.331
3.515
3.625
3.702
3.791
3.847
3.883
3.910
3.947
3.995
4.012
4.009
4.043
4.068
4.095
4.126
4.152
4.176
4.175
4.127
4.119
4.131
4.141
4.151
4.171
4.176
4.191
4.198
4.210
4.212
4.229
4.231
4.245
4.255
4.254
4.266
4.273
4.283
4.278
4.291
4.300
4.307
4.320
4.305
4.320
4.329
4.339
4.342
4.352
4.348
4.349
4.353
4.363
4.368
4.374
4.384
4.388
4.389
4.380
4.384
4.388
4.390
4.401
4.408
4.413
4.417
4.424
4.428
4.429
4.438
4.442
4.425
4.429
4.430
4.434
4.438
4.443
4.450
4.445
4.455
4.456
4.466
4.470
4.474
4.475
4.474
4.476
4.485
4.489
4.498
4.500
4.499
4.487
4.477
4.478
4.482
4.484
4.485
4.498
4.496
4.497
4.507
4.503
4.502
4.506
4.507
4.506
4.510
4.519
4.523
4.528
4.531
4.535
4.540
4.525
4.532
4.536
4.534
4.539
4.545
4.549
4.556
4.561
4.559
4.560
4.562
4.563
4.567
4.572
4.567
4.574
4.573
4.568
4.564
4.550
4.545
4.542
4.553
4.547
4.551
4.555
4.561
4.560
4.557
4.563
4.567
4.564
4.572
4.569
4.576
4.568
4.570
4.563
4.573
4.566
4.572
4.577
4.573
4.582
4.578
4.583
4.579
4.588
4.586
4.591
4.592
4.596
4.592
4.593
4.595
4.598
4.598
4.612
4.605
4.610
4.611
4.616
4.609
4.604
4.597
4.610
4.611
4.609
4.601
4.609
4.611
4.610
4.616
4.613
4.617
4.620
4.616
4.626
4.627
4.624
4.639
4.634
4.633
4.638
4.633
4.643
4.631
4.631
4.642
4.638
4.638
4.648
4.646
4.642
4.650
4.656
4.652
4.659
4.657
4.657
4.661
4.661
4.664
4.653
4.647
4.645
4.661
4.659
4.658
4.657
4.655
4.654
4.652
4.654
4.653
4.651
4.663
4.662
4.666
4.661
4.672
4.678
4.674
4.675
4.679
4.678
4.677
4.673
4.683
4.692
4.686
4.681
4.686
4.695
4.693
4.689
4.682
4.675
4.668
4.661
4.653
4.651
4.649
4.654
4.653
4.653
4.646
4.656
4.664
4.656
4.658
4.653
4.664
4.667
4.653
4.653
4.655
4.670
4.668
4.667
4.666
4.661
4.672
4.678
4.674
4.670
4.674
4.673
4.688
4.686
4.682
4.681
4.679
4.681
4.671
4.662
4.660
4.664
4.677
4.678
4.666
4.664
4.660
4.668
4.664
4.659
4.660
4.661
4.661
4.672
4.664
4.668
4.661
4.661
4.657
4.672
4.680
4.675
4.669
4.672
4.666
4.668
4.680
4.690
4.690
4.684
4.677
4.673
4.679
4.687
4.693
4.687
4.685
4.679
4.679
4.676
4.690
4.694
4.691
4.692
4.686
4.687
4.682
4.689
4.698
4.697
4.696
4.694
4.694
4.692
4.698
4.697
4.709
4.712
4.709
4.706
4.705
4.706
4.710
4.701
4.701
4.703
4.701
4.700
4.701
4.697
4.694
4.698
4.709
4.712
4.705
4.697
4.694
4.692
4.691
4.695
4.702
4.712
4.715
4.712
4.710
4.709
4.707
4.703
4.701
4.705
4.716
4.728
4.726
4.727
4.720
4.714
4.707
4.708
4.705
4.712
4.723
4.728
4.727
4.727
4.727
4.725
4.724
4.719
4.720
4.725
4.726
4.736
4.748
4.747
4.743
4.739
4.742
4.736
4.731
4.727
4.729
4.733
4.743
4.746
4.740
4.739
4.735
4.738
4.738
4.738
4.743
4.738
4.734
4.733
4.727
4.720
4.720
4.720
4.715
4.716
4.715
4.712
4.716
4.725
4.731
4.733
4.729
4.727
4.727
4.725
4.718
4.711
4.704
4.705
4.713
4.720
4.727
4.728
4.723
4.722
4.720
4.717
4.713
4.716
4.718
4.716
4.710
4.716
4.724
4.735
4.729
4.731
4.731
4.735
4.734
4.733
4.734
4.735
4.731
4.724
4.723
4.720
4.731
4.738
4.738
4.735
4.731
4.730
4.731
4.728
4.732
4.735
4.732
4.728
4.721
4.717
4.726
4.730
4.732
4.738
4.734
4.730
4.729
4.730
4.727
4.728
4.729
4.724
4.734
4.735
4.724
4.727
4.732
4.741
4.748
4.749
4.746
4.747
4.742
4.750
4.753
4.752
4.746
4.746
4.749
4.749
4.743
4.736
4.737
4.744
4.745
4.753
4.762
4.763
4.762
4.757
4.749
4.747
4.742
4.747
4.748
4.742
4.742
4.739
4.732
4.738
4.742
4.742
4.751
4.758
4.767
4.764
4.768
4.766
4.762
4.764
4.767
4.763
4.764
4.761
4.757
4.757
4.759
4.766
4.764
4.766
4.764
4.761
4.762
4.768
4.776
4.785
4.783
4.779
4.775
4.774
4.772
4.775
4.770
4.771
4.767
4.768
4.767
4.764
4.768
4.763
4.757
4.758
4.761
4.768
4.762
4.758
4.756
4.758
4.761
4.758
4.756
4.757
4.759
4.753
4.754
4.757
4.754
4.758
4.762
4.760
4.759
4.750
4.748
4.755
4.762
4.764
4.764
4.764
4.765
4.760
4.759
4.760
4.756
4.755
4.754
4.757
4.749
4.750
4.751
4.752
4.754
4.755
4.757
4.753
4.754
4.757
4.754
4.761
4.768
4.775
4.783
4.782
4.775
4.780
4.770
4.769
4.768
4.769
4.768
4.768
4.770
4.772
4.768
4.761
4.756
4.758
4.761
4.761
4.761
4.760
4.754
4.753
4.761
4.768
4.775
4.780
4.787
4.794
4.800
4.801
4.797
4.790
4.790
4.788
4.779
4.777
4.778
4.775
4.778
4.780
4.781
4.785
4.784
4.777
4.779
4.777
4.773
4.769
4.778
4.782
4.775
4.772
4.779
4.786
4.794
4.799
4.806
4.810
4.803
4.802
4.806
4.807
4.806
4.805
4.806
4.807
4.803
4.801
4.798
4.793
4.792
4.788
4.789
4.793
4.789
4.786
4.789
4.793
4.792
4.785
4.789
4.788
4.787
4.788
4.795
4.801
4.805
4.799
4.794
4.798
4.794
4.793
4.792
4.793
4.789
4.790
4.790
4.783
4.790
4.791
4.787
4.791
4.792
4.796
4.789
4.785
4.784
4.782
4.776
4.777
4.778
4.783
4.778
4.779
4.779
4.785
4.792
4.798
4.803
4.810
4.816
4.820
4.817
4.812
4.812
4.809
4.805
4.809
4.812
4.812
4.808
4.807
4.808
4.807
4.805
4.805
4.798
4.801
4.803
4.804
4.812
4.810
4.805
4.805
4.800
4.801
4.800
4.802
4.803
4.801
4.803
4.801
4.803
4.802
4.806
4.813
4.819
4.823
4.830
4.835
4.838
4.837
4.838
4.832
4.835
4.834
4.841
4.838
4.842
4.842
4.838
4.840
4.835
4.829
4.825
4.820
4.819
4.816
4.816
4.818
4.816
4.812
4.812
4.810
4.809
4.809
4.809
4.815
4.819
4.827
4.820
4.818
4.817
4.812
4.811
4.816
4.819
4.820
4.819
4.815
4.816
4.812
4.808
4.805
4.809
4.810
4.805
4.801
4.800
4.796
4.795
4.801
4.800
4.802
4.797
4.796
4.794
4.790
4.789
4.786
4.794
4.794
4.798
4.798
4.794
4.793
4.790
4.793
4.792
4.790
4.786
4.785
4.789
4.786
4.792
4.798
4.801
4.801
4.801
4.804
4.808
4.810
4.812
4.810
4.808
4.807
4.803
4.801
4.798
4.801
4.805
4.804
4.801
4.804
4.801
4.801
4.800
4.802
4.803
4.799
4.798
4.796
4.797
4.796
4.792
4.786
4.792
4.791
4.790
4.788
4.786
4.788
4.794
4.790
4.787
4.785
4.784
4.785
4.779
4.775
4.781
4.786
4.792
4.796
4.800
4.805
4.811
4.813
4.809
4.810
4.811
4.807
4.809
4.810
4.806
4.804
4.806
4.807
4.811
4.810
4.816
4.821
4.819
4.813
4.817
4.816
4.816
4.812
4.809
4.809
4.808
4.804
4.803
4.801
4.798
4.796
4.797
4.793
4.794
4.793
4.795
4.798
4.798
4.801
4.798
4.794
4.794
4.788
4.786
4.783
4.786
4.782
4.783
4.785
4.783
4.788
4.792
4.798
4.801
4.805
4.811
4.816
4.811
4.809
4.806
4.805
4.805
4.802
4.805
4.805
4.805
4.809
4.812
4.809
4.805
4.805
4.803
4.799
4.795
4.798
4.797
4.801
4.798
4.793
4.787
4.788
4.795
4.799
4.797
4.799
4.800
4.799
