2.993
3.336
3.506
3.592
3.676
3.792
3.790
3.853
3.919
3.954
3.866
3.908
3.940
3.958
3.986
4.004
4.020
4.044
4.056
4.080
4.079
4.107
4.112
4.122
4.139
4.158
4.147
4.168
4.175
4.196
4.207
4.219
4.198
4.218
4.218
4.240
4.247
4.252
4.271
4.287
4.275
4.258
4.266
4.282
4.276
4.288
4.300
4.305
4.316
4.310
4.316
4.333
4.335
4.337
4.361
4.353
4.351
4.368
4.361
4.337
4.348
4.343
4.347
4.357
4.355
4.352
4.360
4.358
4.367
4.378
4.380
4.385
4.388
4.398
4.398
4.403
4.388
4.397
4.397
4.406
4.420
4.410
4.424
4.429
4.432
4.427
4.429
4.455
4.439
4.455
4.464
4.469
4.452
4.463
4.437
4.454
4.454
4.464
4.468
4.465
4.479
4.477
4.487
4.489
4.493
4.500
4.495
4.496
4.494
4.481
4.463
4.453
4.466
4.456
4.472
4.472
4.469
4.486
4.480
4.481
4.492
4.484
4.465
4.466
4.467
4.457
4.455
4.466
4.465
4.462
4.485
4.480
4.471
4.484
4.497
4.479
4.479
4.487
4.493
4.477
4.500
4.500
4.502
4.490
4.516
4.516
4.512
4.505
4.500
4.501
4.498
4.500
4.509
4.510
4.503
4.502
4.527
4.518
4.514
4.508
4.518
4.524
4.533
4.530
4.531
4.531
4.546
4.541
4.545
4.536
4.538
4.562
4.556
4.547
4.545
4.534
4.559
4.553
4.538
4.522
4.524
4.545
4.535
4.518
4.504
4.506
4.530
4.536
4.532
4.534
4.534
4.530
4.528
4.548
4.539
4.541
4.540
4.530
4.528
4.539
4.539
4.537
4.539
4.535
4.528
4.523
4.539
4.560
4.566
4.563
4.550
4.545
4.544
4.540
4.551
4.556
4.560
4.565
4.556
4.552
4.549
4.554
4.550
4.570
4.590
4.590
4.584
4.581
4.582
4.571
4.565
4.559
4.576
4.595
4.600
4.591
4.577
4.579
4.582
4.585
4.570
4.568
4.582
4.573
4.583
4.566
4.557
4.545
4.547
4.553
4.555
4.565
4.583
4.597
4.584
4.585
4.570
4.575
4.569
4.564
4.556
4.561
4.564
4.581
4.598
4.610
4.601
4.591
4.593
4.586
4.585
4.589
4.585
4.595
4.591
4.595
4.596
4.612
4.615
4.616
4.621
4.632
4.626
4.611
4.608
4.606
4.603
4.595
4.586
4.594
4.607
4.623
4.612
4.614
4.601
4.599
4.604
4.602
4.598
4.601
4.599
4.595
4.587
4.582
4.597
4.612
4.627
4.639
4.632
4.636
4.628
4.633
4.637
4.632
4.621
4.624
4.630
4.631
4.630
4.632
4.627
4.626
4.623
4.638
4.652
4.653
4.646
4.644
4.651
4.649
4.650
4.640
4.644
4.646
4.643
4.641
4.636
4.628
4.628
4.623
4.629
4.636
4.645
4.637
4.633
4.635
4.625
4.617
4.625
4.624
4.629
4.639
4.633
4.627
4.624
4.615
4.605
4.596
4.594
4.607
4.619
4.632
4.629
4.633
4.625
4.619
4.607
4.614
4.613
4.608
4.610
4.611
4.601
4.600
4.607
4.608
4.609
4.611
4.610
4.606
4.612
4.600
4.611
4.623
4.635
4.647
4.643
4.633
4.622
4.614
4.616
4.611
4.610
4.605
4.603
4.603
4.608
4.603
4.595
4.599
4.587
4.580
4.585
4.592
4.602
4.600
4.604
4.603
4.615
4.626
4.637
4.648
4.650
4.645
4.637
4.628
4.626
4.621
4.629
4.628
4.622
4.619
4.618
4.619
4.611
4.609
4.607
4.612
4.604
4.609
4.604
4.603
4.594
4.595
4.598
4.592
4.600
4.611
4.621
4.631
4.642
4.647
4.643
4.653
4.661
4.655
4.651
4.649
4.641
4.644
4.642
4.632
4.624
4.634
4.628
4.621
4.611
4.610
4.605
4.603
4.607
4.615
4.610
4.621
4.619
4.613
4.612
4.607
4.607
4.607
4.604
4.612
4.622
4.631
4.641
4.651
4.661
4.662
4.656
4.658
4.653
4.644
4.648
4.640
4.636
4.647
4.657
4.658
4.659
4.654
4.642
4.639
4.634
4.629
4.631
4.628
4.637
4.640
4.635
4.635
4.637
4.632
4.630
4.625
4.626
4.622
4.622
4.620
4.628
4.637
4.633
4.621
4.625
4.634
4.643
4.652
4.661
4.670
4.679
4.688
4.688
4.684
4.687
4.679
4.688
4.687
4.679
4.671
4.675
4.671
4.672
4.674
4.671
4.667
4.666
4.658
4.650
4.658
4.665
4.678
4.670
4.669
4.675
4.666
4.664
4.676
4.676
4.670
4.664
4.664
4.663
4.672
4.660
4.654
4.655
4.650
4.657
4.662
4.653
4.652
4.649
4.647
4.651
4.660
4.668
4.676
4.684
4.692
4.697
4.695
4.695
4.698
4.690
4.683
4.678
4.681
4.670
4.663
4.664
4.668
4.661
4.662
4.655
4.647
4.644
4.647
4.647
4.650
4.644
4.637
4.638
4.636
4.641
4.651
4.640
4.634
4.630
4.628
4.627
4.634
4.642
4.648
4.647
4.641
4.642
4.639
4.634
4.632
4.633
4.635
4.635
4.625
4.618
4.613
4.617
4.625
4.632
4.640
4.647
4.655
4.662
4.670
4.677
4.685
4.689
4.688
4.696
4.695
4.688
4.687
4.686
4.689
4.685
4.684
4.685
4.684
4.678
4.672
4.666
4.668
4.669
4.679
4.681
4.677
4.678
4.670
4.679
4.682
4.679
4.673
4.674
4.674
4.678
4.676
4.668
4.674
4.667
4.668
4.670
4.665
4.667
4.672
4.675
4.669
4.669
4.667
4.659
4.661
4.658
4.650
4.648
4.649
4.652
4.647
4.651
4.649
4.651
4.652
4.659
4.664
4.660
4.654
4.659
4.669
4.667
4.669
4.670
4.671
4.664
4.670
4.669
4.674
4.681
4.688
4.694
4.701
4.708
4.714
4.721
4.719
4.718
4.715
4.723
4.717
4.713
4.706
4.699
4.697
4.693
4.689
4.681
4.683
4.685
4.684
4.679
4.673
4.675
4.665
4.671
4.671
4.667
4.660
4.659
4.659
4.656
4.651
4.654
4.650
4.653
4.654
4.656
4.659
4.663
4.657
4.648
4.656
4.659
4.656
4.651
4.651
4.652
4.644
4.646
4.646
4.647
4.653
4.650
4.647
4.653
4.654
4.650
4.646
4.646
4.648
4.638
4.637
4.630
4.623
4.616
4.613
4.612
4.614
4.607
4.604
4.606
4.613
4.612
4.610
4.619
4.621
4.627
4.633
4.639
4.645
4.651
4.657
4.663
4.669
4.675
4.681
4.687
4.693
4.699
4.705
4.706
4.709
4.720
4.713
4.715
4.711
4.709
4.702
4.706
4.709
4.714
4.722
4.730
4.728
4.725
4.717
4.716
4.720
4.718
4.721
4.717
4.716
4.713
4.716
4.713
4.710
4.704
4.696
4.697
4.695
4.689
4.687
4.690
4.683
4.681
4.684
4.680
4.689
4.688
4.684
4.682
4.692
4.695
4.686
4.680
4.671
4.673
4.674
4.673
4.671
4.671
4.670
4.662
4.662
4.656
4.650
4.645
4.639
4.634
4.631
4.635
4.636
4.632
4.629
4.622
4.623
4.631
4.639
4.643
4.635
4.635
4.635
4.636
4.640
4.639
4.638
4.636
4.637
4.634
4.632
4.629
4.630
4.640
4.636
4.633
4.637
4.639
4.643
4.652
4.654
4.656
4.652
4.651
4.645
4.647
4.652
4.647
4.648
4.649
4.649
4.650
4.651
4.656
4.662
4.667
4.672
4.677
4.682
4.687
4.693
4.698
4.703
4.709
4.714
4.711
4.702
4.700
4.702
4.698
4.701
4.704
4.698
4.702
4.700
4.702
4.703
4.700
4.694
4.696
4.689
4.687
4.682
4.682
4.682
4.680
4.677
4.679
4.678
4.687
4.694
4.697
4.693
4.695
4.689
4.690
4.685
4.691
4.694
4.689
4.688
4.686
4.687
4.691
4.698
4.705
4.712
4.716
4.713
4.714
4.719
4.711
4.707
4.707
4.706
4.700
4.701
4.695
4.697
4.692
4.690
4.692
4.691
4.687
4.681
4.675
4.669
4.665
4.663
4.660
4.655
4.659
4.657
4.653
4.653
4.655
4.650
4.651
4.652
4.643
4.651
4.649
4.649
4.650
4.659
4.663
4.662
4.666
4.660
4.664
4.665
4.668
4.676
4.674
4.676
4.675
4.674
4.675
4.671
4.665
4.659
4.654
4.652
4.648
4.646
4.641
4.634
