2.994
3.331
3.518
3.638
3.717
3.784
3.849
3.891
3.917
3.973
3.974
4.016
4.056
4.075
4.057
4.082
4.106
4.129
4.157
4.175
4.194
4.217
4.234
4.212
4.172
4.170
4.175
4.194
4.201
4.208
4.223
4.225
4.242
4.244
4.251
4.266
4.267
4.277
4.287
4.285
4.295
4.302
4.316
4.312
4.320
4.327
4.333
4.342
4.339
4.348
4.350
4.364
4.368
4.370
4.364
4.375
4.380
4.389
4.391
4.397
4.404
4.395
4.397
4.406
4.408
4.416
4.418
4.423
4.429
4.439
4.438
4.444
4.432
4.438
4.443
4.442
4.446
4.453
4.457
4.458
4.462
4.469
4.473
4.479
4.475
4.482
4.489
4.491
4.475
4.474
4.479
4.479
4.481
4.485
4.494
4.494
4.501
4.501
4.503
4.502
4.509
4.516
4.516
4.523
4.523
4.520
4.530
4.526
4.533
4.537
4.539
4.549
4.544
4.542
4.528
4.524
4.527
4.529
4.527
4.531
4.536
4.543
4.545
4.545
4.542
4.548
4.555
4.551
4.555
4.557
4.555
4.559
4.560
4.567
4.572
4.573
4.574
4.573
4.575
4.579
4.585
4.576
4.572
4.581
4.586
4.587
4.585
4.586
4.591
4.595
4.602
4.600
4.602
4.603
4.607
4.609
4.613
4.612
4.620
4.612
4.612
4.614
4.620
4.617
4.605
4.595
4.585
4.587
4.588
4.590
4.601
4.600
4.596
4.600
4.604
4.609
4.610
4.606
4.604
4.612
4.610
4.611
4.616
4.616
4.623
4.617
4.613
4.614
4.616
4.614
4.618
4.616
4.615
4.619
4.623
4.619
4.623
4.625
4.631
4.627
4.635
4.633
4.637
4.641
4.635
4.645
4.642
4.645
4.637
4.641
4.642
4.642
4.651
4.649
4.656
4.657
4.656
4.660
4.660
4.655
4.643
4.650
4.653
4.644
4.659
4.658
4.649
4.655
4.649
4.653
4.659
4.658
4.659
4.663
4.660
4.661
4.664
4.664
4.665
4.672
4.673
4.671
4.684
4.682
4.679
4.683
4.682
4.679
4.684
4.682
4.678
4.679
4.684
4.686
4.681
4.693
4.695
4.688
4.689
4.697
4.697
4.696
4.700
4.704
4.701
4.699
4.706
4.710
4.700
4.701
4.694
4.699
4.690
4.699
4.701
4.704
4.701
4.702
4.705
4.699
4.697
4.701
4.703
4.699
4.695
4.702
4.708
4.710
4.708
4.701
4.714
4.716
4.709
4.710
4.714
4.724
4.720
4.720
4.716
4.718
4.733
4.726
4.727
4.727
4.725
4.734
4.733
4.729
4.727
4.721
4.714
4.710
4.703
4.705
4.697
4.693
4.692
4.699
4.698
4.690
4.686
4.685
4.698
4.704
4.701
4.699
4.700
4.697
4.706
4.710
4.706
4.708
4.706
4.705
4.706
4.701
4.703
4.701
4.703
4.705
4.717
4.712
4.712
4.710
4.709
4.707
4.719
4.723
4.722
4.721
4.719
4.724
4.720
4.731
4.731
4.724
4.720
4.713
4.712
4.715
4.712
4.707
4.709
4.708
4.706
4.718
4.716
4.716
4.709
4.707
4.708
4.707
4.711
4.708
4.708
4.708
4.706
4.707
4.708
4.718
4.714
4.710
4.708
4.708
4.705
4.704
4.714
4.721
4.719
4.718
4.719
4.713
4.712
4.715
4.720
4.731
4.734
4.732
4.730
4.724
4.717
4.720
4.720
4.731
4.736
4.727
4.731
4.726
4.727
4.723
4.719
4.727
4.734
4.734
4.739
4.740
4.736
4.727
4.725
4.727
4.733
4.742
4.741
4.742
4.736
4.738
4.736
4.740
4.736
4.735
4.744
4.754
4.760
4.756
4.752
4.749
4.747
4.749
4.747
4.746
4.749
4.745
4.744
4.745
4.742
4.740
4.744
4.737
4.738
4.742
4.750
4.754
4.752
4.748
4.741
4.742
4.739
4.737
4.733
4.738
4.747
4.756
4.757
4.757
4.753
4.753
4.752
4.749
4.753
4.749
4.744
4.751
4.760
4.770
4.766
4.760
4.764
4.767
4.768
4.764
4.755
4.746
4.750
4.757
4.766
4.770
4.766
4.765
4.768
4.764
4.766
4.768
4.764
4.762
4.761
4.759
4.769
4.778
4.782
4.784
4.782
4.781
4.786
4.784
4.783
4.775
4.777
4.775
4.771
4.775
4.782
4.789
4.790
4.786
4.785
4.782
4.780
4.776
4.772
4.773
4.772
4.773
4.777
4.779
4.774
4.768
4.768
4.760
4.757
4.757
4.755
4.754
4.753
4.754
4.757
4.764
4.769
4.768
4.772
4.768
4.769
4.767
4.763
4.762
4.766
4.762
4.763
4.756
4.752
4.759
4.764
4.757
4.760
4.757
4.757
4.760
4.764
4.759
4.760
4.762
4.758
4.756
4.753
4.749
4.758
4.765
4.772
4.775
4.774
4.768
4.766
4.768
4.763
4.764
4.764
4.768
4.768
4.765
4.766
4.765
4.763
4.764
4.772
4.779
4.780
4.778
4.779
4.779
4.774
4.778
4.775
4.773
4.766
4.760
4.763
4.762
4.766
4.765
4.764
4.770
4.777
4.778
4.779
4.776
4.780
4.778
4.772
4.768
4.771
4.767
4.768
4.768
4.761
4.760
4.760
4.756
4.761
4.768
4.775
4.782
4.790
4.792
4.791
4.787
4.783
4.782
4.780
4.786
4.783
4.779
4.779
4.781
4.779
4.776
4.779
4.779
4.782
4.781
4.780
4.789
4.794
4.801
4.799
4.798
4.794
4.798
4.796
4.794
4.790
4.787
4.788
4.787
4.788
4.787
4.785
4.784
4.783
4.781
4.779
4.782
4.790
4.795
4.802
4.795
4.799
4.797
4.797
4.794
4.796
4.797
4.796
4.797
4.796
4.798
4.796
4.792
4.793
4.792
4.793
4.794
4.794
4.792
4.790
4.797
4.802
4.809
4.815
4.823
4.821
4.819
4.823
4.822
4.820
4.822
4.815
4.811
4.807
4.803
4.804
4.806
4.810
4.808
4.815
4.811
4.805
4.805
4.799
4.798
4.805
4.811
4.818
4.823
4.820
4.814
4.810
4.812
4.816
4.814
4.808
4.805
4.799
4.797
4.791
4.787
4.785
4.782
4.780
4.779
4.786
4.787
4.788
4.790
4.796
4.801
4.807
4.812
4.812
4.812
4.812
4.816
4.816
4.814
4.812
4.806
4.802
4.801
4.801
4.797
4.791
4.790
4.796
4.797
4.794
4.792
4.790
4.787
4.780
4.782
4.788
4.794
4.799
4.806
4.812
4.806
4.810
4.814
4.815
4.816
4.815
4.814
4.808
4.809
4.810
4.812
4.807
4.809
4.808
4.805
4.807
4.809
4.807
4.808
4.812
4.808
4.805
4.803
4.802
4.798
4.793
4.798
4.805
4.809
4.815
4.822
4.821
4.822
4.818
4.816
4.816
4.816
4.812
4.816
4.818
4.819
4.821
4.817
4.816
4.817
4.813
4.817
4.816
4.822
4.818
4.817
4.816
4.819
4.816
4.812
4.813
4.816
4.812
4.812
4.807
4.812
4.818
4.823
4.827
4.834
4.838
4.841
4.842
4.839
4.832
4.830
4.829
4.828
4.832
4.827
4.827
4.828
4.832
4.831
4.831
4.833
4.835
4.834
4.834
4.839
4.838
4.839
4.834
4.833
4.837
4.836
4.829
4.823
4.821
4.823
4.824
4.823
4.826
4.833
4.838
4.842
4.843
4.844
4.846
4.845
4.848
4.850
4.848
4.850
4.851
4.849
4.846
4.841
4.835
4.834
4.842
4.841
4.840
4.842
4.843
4.839
4.837
4.834
4.834
4.831
4.827
4.822
4.820
4.816
4.813
4.812
4.816
4.817
4.818
4.823
4.829
4.833
4.838
4.842
4.843
4.844
4.843
4.839
4.843
4.842
4.842
4.841
4.840
4.839
4.832
4.838
4.840
4.838
4.843
4.841
4.838
4.839
4.840
4.834
4.834
4.836
4.831
4.828
4.824
4.823
4.827
4.825
4.829
4.828
4.824
4.828
4.829
4.828
4.831
4.828
4.834
4.834
4.834
4.839
4.845
4.849
4.853
4.858
4.862
4.858
4.854
4.853
4.854
4.860
4.862
4.866
4.862
4.860
4.859
4.858
4.854
4.853
4.856
4.852
4.853
4.855
4.854
4.855
4.851
4.850
4.856
4.861
4.867
4.864
4.859
4.853
4.853
4.855
4.857
4.855
4.856
4.852
4.854
4.852
4.853
4.850
4.853
4.849
4.848
4.852
4.853
4.855
4.859
4.864
4.868
4.872
4.878
4.875
4.871
4.868
4.867
4.872
