2.896
3.175
3.300
3.367
3.494
3.560
3.615
3.698
3.699
3.751
3.811
3.788
3.812
3.801
3.853
3.886
3.888
3.964
3.953
3.995
3.945
3.910
3.891
3.967
3.953
3.980
4.013
4.004
4.024
4.050
4.017
3.986
4.026
4.010
4.016
4.000
4.099
4.073
4.085
4.014
4.044
4.083
4.055
4.072
4.109
4.101
4.072
4.105
4.106
4.124
4.106
4.176
4.159
4.157
4.154
4.174
4.142
4.111
4.091
4.116
4.139
4.106
4.092
4.090
4.076
4.138
4.109
4.114
4.104
4.109
4.056
4.092
4.149
4.186
4.138
4.153
4.123
4.124
4.110
4.101
4.131
4.182
4.228
4.246
4.231
4.200
4.159
4.145
4.161
4.134
4.115
4.159
4.204
4.167
4.186
4.160
4.207
4.176
4.167
4.134
4.165
4.171
4.141
4.140
4.188
4.181
4.220
4.260
4.230
4.198
4.167
4.162
4.129
4.154
4.138
4.157
4.138
4.150
4.147
4.144
4.134
4.113
4.147
4.180
4.214
4.243
4.217
4.256
4.281
4.241
4.212
4.176
4.156
4.150
4.141
4.137
4.126
4.136
4.152
4.152
4.187
4.155
4.136
4.151
4.135
4.109
4.118
4.146
4.174
4.202
4.230
4.258
4.286
4.314
4.282
4.257
4.231
4.256
4.217
4.229
4.248
4.280
4.232
4.230
4.259
4.271
4.255
4.228
4.199
4.169
4.187
4.173
4.166
4.160
4.152
4.165
4.138
4.150
4.137
4.115
4.130
4.143
4.134
4.148
4.134
4.157
4.179
4.201
4.224
4.246
4.268
4.291
4.313
4.277
4.269
4.261
4.245
4.246
4.266
4.259
4.246
4.251
4.237
4.227
4.219
4.217
4.236
4.227
4.211
4.199
4.218
4.213
4.195
4.191
4.167
4.172
4.184
4.160
4.170
4.158
4.156
4.148
4.161
4.169
4.149
4.130
4.138
4.133
4.130
4.117
4.152
4.149
4.158
4.166
4.171
4.177
4.163
4.152
4.121
4.122
4.124
4.115
4.133
4.152
4.123
4.136
4.128
4.145
4.162
4.178
4.195
4.212
4.228
4.245
4.262
4.279
4.289
4.272
4.262
4.286
4.310
4.307
4.304
4.316
4.343
4.329
4.326
4.325
4.288
4.265
4.244
4.245
4.224
4.214
4.219
4.203
4.222
4.224
4.222
4.220
4.233
4.213
4.207
4.206
4.225
4.213
4.221
4.236
4.252
4.249
4.265
4.235
4.206
4.199
4.190
4.186
4.173
4.173
4.168
4.190
4.180
4.162
4.152
4.152
4.154
4.166
4.175
4.158
4.150
4.144
4.143
4.144
4.139
4.138
4.125
4.120
4.124
4.136
4.155
4.174
4.167
4.184
4.178
4.189
4.172
4.173
4.162
4.187
4.192
4.194
4.183
4.204
4.213
4.213
4.203
4.187
4.172
4.156
4.166
4.148
4.153
4.155
4.127
4.151
4.162
4.146
4.122
4.141
4.124
4.148
4.140
4.160
4.148
4.133
4.115
4.091
4.116
4.104
4.113
4.107
4.104
4.093
4.086
4.075
4.084
4.094
4.095
4.089
4.100
4.111
4.122
4.134
4.145
4.156
4.167
4.178
4.189
4.200
4.211
4.222
4.233
4.244
4.255
4.267
4.278
4.289
4.300
4.311
4.322
4.333
4.344
4.355
4.367
4.335
4.333
4.341
4.352
4.338
4.330
4.328
4.336
4.312
4.304
4.303
4.324
4.343
4.330
4.311
4.307
4.289
4.281
4.292
4.279
4.273
4.288
4.297
4.302
4.288
4.274
4.274
4.270
4.264
4.253
4.263
4.267
4.245
4.224
4.207
4.218
4.225
4.224
4.236
4.251
4.265
4.279
4.274
4.273
4.280
4.272
4.255
4.247
4.261
4.266
4.277
4.272
4.254
4.227
4.234
4.224
4.216
4.213
4.210
4.224
4.237
4.242
4.231
4.234
4.243
4.235
4.214
4.213
4.211
4.226
4.245
4.250
4.230
4.209
4.203
4.205
4.188
4.189
4.198
4.200
4.200
4.179
4.165
4.168
4.168
4.157
4.165
4.164
4.161
4.169
4.155
4.149
4.145
4.137
4.142
4.155
4.172
4.168
4.155
4.148
4.163
4.184
4.187
4.179
4.185
4.188
4.204
4.220
4.214
4.222
4.218
4.205
4.194
4.194
4.169
4.169
4.164
4.143
4.150
4.152
4.152
4.150
4.128
4.140
4.142
4.156
4.171
4.162
4.162
4.151
4.139
4.141
4.154
4.158
4.153
4.137
4.128
4.138
4.144
4.137
4.118
4.125
4.137
4.130
4.129
4.105
4.109
4.109
4.099
4.090
4.085
4.072
4.084
4.090
4.103
4.116
4.129
4.142
4.127
4.149
4.137
4.139
4.135
4.144
4.149
4.143
4.144
4.142
4.132
4.129
4.141
4.122
4.119
4.125
4.117
4.125
4.130
4.146
4.144
4.147
4.135
4.151
4.166
4.182
4.182
4.182
4.188
4.183
4.181
4.171
4.169
4.158
4.139
4.143
4.141
4.155
4.151
4.146
4.144
4.141
4.142
4.129
4.111
4.116
4.100
4.119
4.122
4.116
4.122
4.124
4.129
4.132
4.143
4.127
4.113
4.098
4.100
4.103
4.101
4.101
4.117
4.125
4.135
4.133
4.126
4.129
4.139
4.128
4.116
4.121
4.113
4.116
4.110
4.100
4.100
4.099
4.108
4.098
4.104
4.100
4.097
4.102
4.107
4.116
4.126
4.135
4.145
4.154
4.164
4.170
4.157
4.151
4.153
4.152
4.146
4.164
4.157
4.170
4.176
4.188
4.201
4.198
4.190
4.183
4.174
4.171
4.173
4.178
4.181
4.179
4.188
4.190
4.188
4.192
4.204
4.211
4.218
4.219
4.203
4.194
4.172
4.173
4.173
4.178
4.176
4.176
4.159
4.164
4.162
4.173
4.170
4.162
4.181
4.169
4.176
4.199
4.206
4.217
4.217
4.210
4.200
4.195
4.195
4.178
4.181
4.172
4.161
4.169
4.157
4.146
4.142
4.135
4.136
4.146
4.138
4.146
4.157
4.155
4.158
4.174
4.182
4.165
4.175
4.159
4.166
4.145
4.149
4.146
4.157
4.159
4.153
4.152
4.142
4.132
4.123
4.113
4.104
4.094
4.107
4.093
4.105
4.099
4.115
4.117
4.117
4.133
4.119
4.130
4.129
4.116
4.132
4.145
4.133
4.139
4.144
4.150
4.155
4.161
4.166
4.172
4.177
4.183
4.188
4.194
4.200
4.205
4.211
4.216
4.222
4.227
4.233
4.238
4.244
4.249
4.255
4.260
4.266
4.271
4.277
4.282
4.288
4.294
4.299
4.305
4.310
4.316
4.321
4.327
4.332
4.338
4.343
4.349
4.354
4.360
4.366
4.371
4.377
4.382
4.388
4.393
4.398
4.392
4.385
4.377
4.374
4.371
4.369
4.386
4.398
4.386
4.392
4.373
4.367
4.363
4.366
4.356
4.357
4.340
4.348
4.341
4.343
4.332
4.325
4.330
4.337
4.322
4.323
4.319
4.312
4.312
4.319
4.320
4.328
4.322
4.306
4.302
4.303
4.292
4.291
4.280
4.270
4.278
4.290
4.286
4.282
4.281
4.276
4.262
4.263
4.270
4.279
4.287
4.296
4.305
4.314
4.322
4.331
4.337
4.337
4.332
4.315
4.312
4.316
4.320
4.312
4.320
4.316
4.314
4.299
4.311
4.326
4.302
4.285
4.295
4.296
4.301
4.294
4.299
4.304
4.292
4.299
4.287
4.291
4.295
4.297
4.297
4.300
4.297
4.308
4.304
4.301
4.288
4.287
4.288
4.277
4.270
4.279
4.283
4.288
4.272
4.283
4.272
4.284
4.282
4.271
4.278
4.282
4.275
4.266
4.271
4.273
4.271
4.266
4.275
4.260
4.269
4.255
4.265
4.266
4.259
4.266
4.255
4.263
4.246
4.262
4.255
4.256
4.258
4.251
4.254
4.263
4.278
4.273
4.258
4.256
4.247
4.239
4.231
4.222
4.228
4.233
4.221
4.205
4.205
4.204
4.208
4.207
4.208
4.208
4.197
4.186
4.189
4.192
4.176
4.175
4.185
4.184
4.191
4.192
4.193
4.197
4.209
4.208
4.201
4.197
4.188
4.194
4.188
4.195
4.196
4.195
4.193
4.193
4.192
4.195
4.206
4.212
4.209
4.227
4.221
4.204
4.197
4.191
4.188
4.172
4.185
4.184
4.183
4.179
4.174
4.165
4.171
4.175
4.185
4.192
4.193
4.174
4.165
4.172
4.168
4.183
4.194
4.195
4.206
4.220
4.224
4.220
