2.987
3.329
3.507
3.618
3.717
3.788
3.817
3.893
3.876
3.929
3.972
4.009
4.047
4.054
3.984
4.009
4.029
4.045
4.055
4.086
4.096
4.102
4.125
4.126
4.145
4.165
4.164
4.181
4.193
4.195
4.209
4.225
4.232
4.229
4.239
4.248
4.261
4.265
4.280
4.267
4.276
4.288
4.295
4.307
4.310
4.319
4.330
4.314
4.310
4.325
4.334
4.334
4.340
4.353
4.358
4.364
4.366
4.383
4.380
4.392
4.386
4.365
4.374
4.379
4.381
4.388
4.385
4.388
4.396
4.401
4.416
4.414
4.423
4.425
4.428
4.427
4.428
4.437
4.445
4.444
4.449
4.455
4.461
4.464
4.458
4.464
4.468
4.451
4.430
4.442
4.448
4.443
4.447
4.449
4.459
4.471
4.464
4.459
4.456
4.465
4.470
4.464
4.470
4.480
4.490
4.483
4.481
4.486
4.498
4.495
4.501
4.510
4.506
4.514
4.505
4.501
4.497
4.505
4.502
4.505
4.513
4.508
4.523
4.522
4.533
4.530
4.534
4.524
4.531
4.531
4.537
4.536
4.546
4.546
4.550
4.553
4.558
4.552
4.565
4.557
4.563
4.554
4.562
4.549
4.554
4.554
4.547
4.560
4.562
4.565
4.574
4.566
4.580
4.582
4.580
4.584
4.587
4.582
4.599
4.588
4.584
4.593
4.589
4.577
4.566
4.555
4.551
4.553
4.563
4.560
4.548
4.561
4.567
4.564
4.555
4.573
4.573
4.571
4.571
4.590
4.579
4.577
4.584
4.590
4.575
4.568
4.567
4.559
4.562
4.567
4.568
4.556
4.552
4.569
4.564
4.560
4.555
4.574
4.575
4.578
4.576
4.570
4.590
4.585
4.585
4.582
4.580
4.584
4.581
4.582
4.583
4.588
4.602
4.589
4.587
4.587
4.591
4.612
4.609
4.609
4.599
4.600
4.609
4.622
4.608
4.599
4.593
4.602
4.605
4.610
4.607
4.589
4.590
4.609
4.610
4.604
4.608
4.607
4.602
4.611
4.630
4.629
4.613
4.610
4.605
4.607
4.626
4.628
4.627
4.626
4.629
4.620
4.628
4.634
4.651
4.644
4.639
4.639
4.635
4.632
4.635
4.653
4.648
4.651
4.648
4.646
4.636
4.635
4.647
4.644
4.634
4.624
4.614
4.614
4.618
4.634
4.635
4.628
4.630
4.618
4.605
4.606
4.615
4.623
4.630
4.624
4.626
4.619
4.615
4.616
4.622
4.621
4.636
4.643
4.641
4.635
4.632
4.621
4.624
4.616
4.621
4.633
4.648
4.645
4.639
4.626
4.623
4.620
4.619
4.615
4.621
4.636
4.647
4.647
4.645
4.641
4.638
4.631
4.638
4.646
4.641
4.638
4.643
4.657
4.657
4.657
4.658
4.651
4.654
4.655
4.651
4.642
4.633
4.640
4.654
4.668
4.663
4.660
4.664
4.653
4.659
4.662
4.660
4.661
4.654
4.654
4.657
4.667
4.680
4.687
4.684
4.688
4.677
4.674
4.675
4.667
4.672
4.666
4.665
4.664
4.667
4.680
4.682
4.682
4.678
4.682
4.672
4.663
4.653
4.653
4.652
4.651
4.658
4.655
4.667
4.680
4.671
4.666
4.658
4.656
4.654
4.659
4.655
4.655
4.654
4.654
4.651
4.649
4.654
4.666
4.678
4.690
4.687
4.683
4.676
4.672
4.670
4.672
4.665
4.659
4.659
4.668
4.667
4.662
4.662
4.662
4.674
4.685
4.697
4.705
4.697
4.693
4.688
4.687
4.689
4.690
4.684
4.686
4.677
4.677
4.682
4.680
4.683
4.682
4.688
4.688
4.698
4.709
4.714
4.712
4.718
4.716
4.713
4.711
4.705
4.709
4.702
4.703
4.702
4.712
4.704
4.695
4.690
4.682
4.682
4.693
4.703
4.713
4.708
4.715
4.712
4.702
4.696
4.698
4.695
4.692
4.694
4.693
4.690
4.688
4.687
4.688
4.692
4.698
4.687
4.689
4.689
4.699
4.709
4.719
4.729
4.728
4.723
4.720
4.718
4.717
4.720
4.722
4.714
4.711
4.716
4.718
4.718
4.720
4.721
4.720
4.711
4.711
4.705
4.706
4.712
4.709
4.716
4.723
4.732
4.742
4.751
4.751
4.749
4.746
4.738
4.734
4.731
4.729
4.730
4.732
4.730
4.733
4.736
4.734
4.726
4.725
4.720
4.720
4.721
4.724
4.724
4.728
4.727
4.722
4.731
4.730
4.725
4.720
4.715
4.714
4.720
4.721
4.712
4.707
4.710
4.707
4.703
4.707
4.707
4.709
4.707
4.704
4.695
4.707
4.711
4.706
4.705
4.706
4.702
4.696
4.704
4.713
4.721
4.723
4.727
4.731
4.723
4.717
4.711
4.703
4.703
4.701
4.709
4.714
4.717
4.711
4.706
4.700
4.691
4.689
4.691
4.690
4.689
4.680
4.680
4.685
4.686
4.685
4.688
4.681
4.686
4.694
4.702
4.710
4.718
4.726
4.734
4.736
4.727
4.723
4.723
4.719
4.725
4.724
4.719
4.721
4.731
4.733
4.727
4.721
4.714
4.707
4.700
4.702
4.697
4.697
4.696
4.693
4.690
4.690
4.685
4.685
4.680
4.673
4.673
4.676
4.684
4.692
4.699
4.707
4.714
4.722
4.723
4.725
4.717
4.715
4.715
4.720
4.722
4.728
4.723
4.724
4.731
4.725
4.724
4.728
4.726
4.729
4.736
4.724
4.722
4.714
4.714
4.709
4.709
4.706
4.704
4.703
4.694
4.692
4.693
4.700
4.701
4.703
4.702
4.703
4.697
4.698
4.692
4.698
4.705
4.712
4.719
4.727
4.731
4.734
4.729
4.728
4.724
4.726
4.729
4.728
4.723
4.727
4.723
4.721
4.717
4.711
4.709
4.709
4.718
4.722
4.720
4.719
4.715
4.718
4.718
4.710
4.708
4.710
4.717
4.714
4.712
4.712
4.714
4.712
4.713
4.711
4.710
4.707
4.711
4.705
4.699
4.697
4.692
4.691
4.698
4.705
4.711
4.718
4.724
4.731
4.738
4.743
4.744
4.744
4.746
4.738
4.741
4.744
4.740
4.748
4.746
4.741
4.737
4.731
4.735
4.735
4.728
4.725
4.725
4.721
4.725
4.727
4.729
4.726
4.725
4.722
4.722
4.722
4.722
4.715
4.720
4.722
4.726
4.731
4.730
4.727
4.726
4.725
4.719
4.712
4.713
4.710
4.705
4.706
4.703
4.703
4.699
4.695
4.700
4.702
4.709
4.715
4.721
4.727
4.733
4.740
4.746
4.752
4.757
4.755
4.751
4.750
4.747
4.755
4.764
4.757
4.754
4.757
4.758
4.752
4.760
4.759
4.758
4.753
4.756
4.753
4.751
4.750
4.748
4.742
4.737
4.738
4.742
4.744
4.744
4.738
4.734
4.730
4.726
4.724
4.728
4.736
4.738
4.742
4.736
4.741
4.738
4.743
4.738
4.739
4.734
4.733
4.733
4.727
4.729
4.726
4.734
4.735
4.736
4.737
4.740
4.734
4.730
4.731
4.730
4.731
4.728
4.730
4.736
4.741
4.746
4.752
4.758
4.763
4.769
4.775
4.780
4.786
4.792
4.793
4.800
4.796
4.791
4.785
4.783
4.785
4.782
4.784
4.786
4.787
4.788
4.782
4.781
4.781
4.776
4.776
4.775
4.774
4.775
4.769
4.767
4.762
4.758
4.764
4.766
4.773
4.773
4.771
4.767
4.768
4.768
4.764
4.769
4.765
4.760
4.760
4.761
4.753
4.752
4.748
4.744
4.739
4.741
4.747
4.745
4.739
4.739
4.738
4.747
4.744
4.740
4.735
4.731
4.726
4.723
4.720
4.718
4.717
4.712
4.712
4.717
4.722
4.728
4.733
4.738
4.743
4.748
4.754
4.759
4.764
4.766
4.767
4.773
4.780
4.781
4.776
4.769
4.767
4.765
4.764
4.766
4.764
4.764
4.767
4.767
4.763
4.759
4.762
4.758
4.756
4.754
4.755
4.754
4.750
4.743
4.745
4.751
4.749
4.746
4.743
4.742
4.742
4.740
4.742
4.743
4.741
4.734
4.735
4.744
4.742
4.739
4.734
4.732
4.728
4.729
4.733
4.740
4.736
4.741
4.732
4.735
4.739
4.745
4.750
4.748
4.745
4.746
4.746
4.744
4.740
4.737
4.734
4.735
4.736
4.732
4.731
4.726
4.729
4.723
4.720
4.720
4.716
4.720
4.715
4.717
4.721
4.724
4.725
4.727
4.726
4.724
4.726
4.727
4.731
4.735
4.740
4.745
4.750
4.755
4.759
4.764
4.769
