2.992
3.329
3.515
3.625
3.705
3.772
3.806
3.885
3.903
3.921
3.968
4.007
4.044
4.077
4.061
4.004
4.025
4.045
4.060
4.081
4.100
4.108
4.130
4.132
4.156
4.160
4.172
4.185
4.187
4.203
4.217
4.211
4.226
4.234
4.250
4.245
4.249
4.261
4.274
4.286
4.291
4.286
4.290
4.298
4.310
4.313
4.322
4.330
4.337
4.343
4.333
4.332
4.341
4.347
4.356
4.355
4.367
4.372
4.378
4.381
4.386
4.390
4.397
4.405
4.409
4.383
4.387
4.389
4.405
4.403
4.416
4.409
4.407
4.412
4.420
4.426
4.429
4.440
4.441
4.438
4.435
4.450
4.455
4.457
4.455
4.467
4.473
4.478
4.488
4.471
4.474
4.480
4.486
4.473
4.454
4.454
4.460
4.464
4.462
4.466
4.469
4.480
4.493
4.484
4.477
4.479
4.473
4.478
4.491
4.489
4.487
4.494
4.507
4.504
4.498
4.498
4.510
4.509
4.519
4.521
4.522
4.527
4.519
4.516
4.522
4.517
4.518
4.530
4.518
4.528
4.528
4.540
4.537
4.548
4.538
4.550
4.547
4.551
4.542
4.557
4.550
4.558
4.557
4.572
4.563
4.569
4.575
4.566
4.584
4.579
4.571
4.569
4.580
4.575
4.569
4.563
4.563
4.578
4.571
4.572
4.586
4.589
4.584
4.594
4.592
4.593
4.608
4.591
4.600
4.612
4.606
4.603
4.615
4.610
4.601
4.590
4.579
4.568
4.562
4.573
4.579
4.572
4.568
4.574
4.577
4.567
4.582
4.583
4.583
4.576
4.594
4.602
4.594
4.593
4.603
4.601
4.598
4.596
4.587
4.583
4.580
4.586
4.590
4.587
4.571
4.584
4.579
4.580
4.575
4.579
4.591
4.583
4.581
4.582
4.591
4.603
4.602
4.588
4.594
4.599
4.613
4.604
4.597
4.590
4.602
4.612
4.607
4.602
4.598
4.601
4.617
4.612
4.617
4.608
4.614
4.615
4.627
4.624
4.627
4.623
4.621
4.624
4.622
4.615
4.616
4.612
4.609
4.627
4.619
4.619
4.610
4.612
4.620
4.625
4.630
4.626
4.631
4.629
4.631
4.626
4.636
4.635
4.630
4.625
4.637
4.629
4.625
4.640
4.648
4.658
4.648
4.651
4.652
4.651
4.647
4.655
4.660
4.658
4.664
4.662
4.653
4.647
4.648
4.663
4.672
4.668
4.659
4.657
4.663
4.657
4.651
4.642
4.638
4.642
4.638
4.636
4.630
4.636
4.642
4.647
4.635
4.634
4.637
4.630
4.625
4.625
4.629
4.644
4.647
4.643
4.645
4.641
4.637
4.643
4.643
4.642
4.639
4.653
4.656
4.651
4.651
4.649
4.639
4.636
4.640
4.644
4.643
4.653
4.650
4.649
4.644
4.637
4.644
4.642
4.645
4.641
4.638
4.644
4.657
4.665
4.667
4.665
4.661
4.661
4.659
4.663
4.667
4.664
4.658
4.657
4.665
4.676
4.676
4.678
4.678
4.678
4.667
4.658
4.655
4.651
4.654
4.658
4.663
4.676
4.689
4.678
4.682
4.681
4.678
4.680
4.683
4.684
4.685
4.676
4.674
4.675
4.675
4.687
4.700
4.704
4.699
4.699
4.689
4.690
4.687
4.681
4.687
4.686
4.684
4.688
4.681
4.686
4.698
4.695
4.686
4.683
4.681
4.680
4.681
4.676
4.674
4.674
4.671
4.667
4.668
4.673
4.684
4.691
4.681
4.679
4.675
4.676
4.671
4.676
4.679
4.679
4.672
4.672
4.674
4.680
4.673
4.670
4.680
4.691
4.693
4.693
4.693
4.692
4.700
4.693
4.687
4.687
4.684
4.677
4.675
4.690
4.693
4.688
4.683
4.684
4.687
4.694
4.704
4.715
4.705
4.703
4.709
4.706
4.709
4.712
4.710
4.703
4.705
4.706
4.700
4.700
4.707
4.702
4.707
4.705
4.705
4.706
4.711
4.721
4.731
4.734
4.742
4.731
4.730
4.721
4.716
4.720
4.718
4.724
4.724
4.717
4.716
4.711
4.714
4.710
4.702
4.696
4.700
4.710
4.719
4.721
4.721
4.727
4.726
4.725
4.718
4.716
4.711
4.713
4.714
4.717
4.707
4.705
4.706
4.706
4.708
4.711
4.708
4.708
4.703
4.700
4.708
4.717
4.727
4.736
4.745
4.738
4.737
4.741
4.738
4.734
4.735
4.739
4.735
4.731
4.733
4.741
4.741
4.742
4.739
4.737
4.728
4.728
4.725
4.727
4.726
4.725
4.734
4.737
4.743
4.743
4.748
4.757
4.762
4.760
4.761
4.754
4.754
4.748
4.750
4.746
4.751
4.750
4.752
4.750
4.751
4.751
4.754
4.748
4.744
4.738
4.740
4.744
4.748
4.742
4.741
4.734
4.728
4.731
4.733
4.728
4.731
4.738
4.738
4.737
4.734
4.735
4.732
4.721
4.732
4.731
4.728
4.726
4.725
4.726
4.729
4.725
4.725
4.724
4.722
4.719
4.713
4.707
4.701
4.700
4.701
4.709
4.717
4.725
4.733
4.740
4.742
4.733
4.727
4.729
4.723
4.721
4.722
4.714
4.716
4.727
4.725
4.718
4.716
4.711
4.717
4.718
4.710
4.704
4.706
4.711
4.705
4.702
4.702
4.704
4.703
4.705
4.704
4.701
4.704
4.708
4.710
4.717
4.724
4.732
4.739
4.747
4.748
4.749
4.746
4.744
4.741
4.746
4.742
4.740
4.741
4.735
4.729
4.722
4.718
4.721
4.713
4.711
4.708
4.715
4.713
4.714
4.713
4.705
4.701
4.704
4.699
4.705
4.706
4.698
4.698
4.693
4.696
4.695
4.700
4.707
4.714
4.721
4.728
4.735
4.742
4.745
4.742
4.737
4.739
4.737
4.738
4.744
4.747
4.743
4.749
4.749
4.748
4.747
4.749
4.743
4.743
4.745
4.738
4.733
4.733
4.727
4.724
4.719
4.714
4.714
4.710
4.712
4.715
4.713
4.712
4.713
4.718
4.718
4.711
4.705
4.703
4.700
4.701
4.703
4.710
4.716
4.723
4.730
4.736
4.743
4.748
4.750
4.748
4.750
4.745
4.741
4.739
4.738
4.742
4.739
4.739
4.737
4.733
4.731
4.731
4.730
4.732
4.737
4.736
4.736
4.741
4.740
4.742
4.738
4.733
4.731
4.735
4.736
4.731
4.729
4.729
4.724
4.726
4.728
4.734
4.731
4.726
4.722
4.720
4.718
4.715
4.718
4.710
4.711
4.705
4.710
4.716
4.722
4.728
4.735
4.741
4.747
4.753
4.759
4.761
4.763
4.765
4.766
4.766
4.766
4.761
4.762
4.759
4.754
4.752
4.749
4.753
4.749
4.744
4.742
4.740
4.743
4.743
4.744
4.748
4.752
4.750
4.742
4.737
4.740
4.732
4.736
4.735
4.734
4.736
4.743
4.743
4.747
4.742
4.742
4.735
4.727
4.720
4.722
4.724
4.727
4.727
4.729
4.728
4.728
4.725
4.724
4.724
4.721
4.723
4.722
4.723
4.728
4.734
4.740
4.745
4.751
4.757
4.763
4.768
4.774
4.775
4.775
4.767
4.771
4.777
4.777
4.770
4.768
4.772
4.765
4.769
4.774
4.781
4.778
4.774
4.769
4.765
4.763
4.763
4.763
4.762
4.766
4.760
4.756
4.756
4.756
4.756
4.752
4.752
4.750
4.745
4.749
4.748
4.749
4.755
4.763
4.768
4.760
4.761
4.754
4.758
4.756
4.757
4.756
4.748
4.745
4.746
4.744
4.741
4.748
4.749
4.756
4.755
4.751
4.751
4.750
4.745
4.749
4.751
4.748
4.743
4.742
4.749
4.754
4.750
4.756
4.761
4.766
4.771
4.777
4.782
4.787
4.793
4.798
4.803
4.808
4.806
4.803
4.801
4.799
4.801
4.804
4.806
4.805
4.803
4.803
4.806
4.803
4.802
4.800
4.795
4.790
4.785
4.779
4.774
4.773
4.776
4.777
4.774
4.774
4.774
4.780
4.787
4.788
4.782
4.777
4.776
4.771
4.778
4.783
4.784
4.785
4.774
4.771
4.769
4.765
4.770
4.772
4.774
4.767
4.763
4.761
4.762
4.760
4.756
4.752
4.747
4.744
4.740
4.734
4.736
4.739
4.742
4.737
4.740
4.734
4.727
4.721
4.718
4.720
4.722
4.727
4.732
4.737
4.742
4.747
4.751
4.756
4.761
4.766
4.771
4.776
4.780
4.785
4.786
4.791
4.792
4.792
4.788
4.783
4.779
4.781
4.782
4.782
4.778
4.776
4.782
4.783
