2.992
3.334
3.505
3.627
3.714
3.775
3.834
3.869
3.936
3.940
3.985
4.031
4.026
4.031
4.064
4.091
4.119
4.140
4.168
4.184
4.204
4.175
4.131
4.142
4.157
4.167
4.175
4.192
4.197
4.211
4.216
4.228
4.229
4.245
4.256
4.258
4.267
4.279
4.283
4.285
4.294
4.301
4.314
4.307
4.317
4.329
4.333
4.342
4.333
4.343
4.345
4.357
4.364
4.373
4.374
4.365
4.372
4.379
4.386
4.392
4.397
4.401
4.412
4.412
4.408
4.406
4.412
4.417
4.421
4.427
4.432
4.436
4.437
4.445
4.451
4.449
4.454
4.458
4.457
4.444
4.453
4.455
4.457
4.461
4.471
4.471
4.476
4.471
4.475
4.485
4.489
4.490
4.495
4.499
4.500
4.497
4.505
4.508
4.514
4.515
4.522
4.513
4.505
4.496
4.501
4.497
4.506
4.513
4.514
4.515
4.519
4.524
4.527
4.520
4.527
4.526
4.530
4.531
4.534
4.540
4.542
4.543
4.545
4.549
4.553
4.557
4.547
4.549
4.558
4.554
4.557
4.564
4.568
4.573
4.574
4.575
4.574
4.579
4.585
4.589
4.585
4.594
4.583
4.589
4.596
4.589
4.585
4.571
4.560
4.562
4.566
4.570
4.574
4.570
4.575
4.579
4.585
4.578
4.579
4.583
4.579
4.587
4.588
4.590
4.601
4.586
4.590
4.589
4.583
4.590
4.586
4.594
4.591
4.600
4.596
4.600
4.599
4.603
4.604
4.612
4.607
4.612
4.613
4.614
4.610
4.616
4.610
4.619
4.620
4.627
4.629
4.625
4.631
4.633
4.635
4.625
4.624
4.619
4.631
4.633
4.627
4.623
4.621
4.636
4.629
4.631
4.637
4.631
4.637
4.636
4.635
4.647
4.645
4.645
4.654
4.655
4.651
4.658
4.659
4.650
4.665
4.653
4.648
4.658
4.659
4.660
4.668
4.666
4.664
4.668
4.670
4.672
4.671
4.677
4.673
4.674
4.683
4.677
4.676
4.679
4.668
4.664
4.670
4.679
4.681
4.675
4.681
4.675
4.673
4.671
4.681
4.672
4.673
4.675
4.684
4.683
4.676
4.682
4.689
4.690
4.689
4.688
4.700
4.696
4.694
4.693
4.700
4.704
4.705
4.704
4.698
4.708
4.703
4.707
4.705
4.701
4.694
4.688
4.681
4.674
4.668
4.666
4.676
4.666
4.665
4.664
4.668
4.680
4.683
4.677
4.675
4.671
4.684
4.685
4.686
4.683
4.675
4.683
4.686
4.683
4.684
4.682
4.684
4.691
4.690
4.685
4.686
4.686
4.694
4.702
4.703
4.704
4.706
4.697
4.700
4.708
4.700
4.691
4.684
4.686
4.687
4.690
4.689
4.690
4.686
4.688
4.692
4.688
4.686
4.677
4.671
4.685
4.690
4.693
4.689
4.685
4.679
4.680
4.692
4.688
4.686
4.686
4.686
4.683
4.686
4.697
4.695
4.699
4.697
4.699
4.697
4.696
4.698
4.704
4.706
4.702
4.706
4.699
4.701
4.701
4.708
4.707
4.703
4.701
4.700
4.696
4.697
4.704
4.712
4.715
4.712
4.712
4.711
4.705
4.708
4.702
4.714
4.718
4.723
4.723
4.720
4.721
4.720
4.724
4.717
4.724
4.734
4.731
4.734
4.727
4.717
4.713
4.706
4.716
4.727
4.727
4.720
4.723
4.719
4.720
4.719
4.713
4.717
4.721
4.725
4.723
4.719
4.720
4.720
4.716
4.720
4.721
4.723
4.734
4.738
4.729
4.731
4.732
4.738
4.735
4.730
4.724
4.728
4.735
4.742
4.735
4.731
4.731
4.734
4.734
4.734
4.731
4.731
4.732
4.741
4.749
4.750
4.753
4.749
4.748
4.750
4.746
4.744
4.745
4.753
4.754
4.753
4.762
4.760
4.760
4.758
4.757
4.757
4.757
4.757
4.757
4.750
4.748
4.757
4.764
4.764
4.765
4.764
4.764
4.758
4.751
4.745
4.742
4.736
4.745
4.742
4.742
4.747
4.746
4.739
4.735
4.731
4.732
4.731
4.732
4.731
4.740
4.747
4.748
4.741
4.735
4.728
4.727
4.727
4.723
4.725
4.726
4.722
4.726
4.734
4.743
4.749
4.745
4.744
4.743
4.742
4.743
4.734
4.734
4.734
4.735
4.733
4.734
4.734
4.742
4.750
4.754
4.763
4.760
4.758
4.762
4.755
4.751
4.747
4.745
4.739
4.742
4.742
4.738
4.742
4.749
4.758
4.760
4.760
4.756
4.760
4.754
4.747
4.746
4.749
4.745
4.744
4.737
4.731
4.734
4.742
4.749
4.752
4.759
4.763
4.759
4.755
4.753
4.753
4.753
4.758
4.753
4.750
4.756
4.752
4.748
4.747
4.746
4.750
4.759
4.766
4.775
4.771
4.775
4.772
4.771
4.775
4.775
4.775
4.767
4.763
4.764
4.760
4.759
4.750
4.754
4.761
4.759
4.766
4.773
4.779
4.771
4.769
4.771
4.768
4.767
4.764
4.765
4.769
4.765
4.769
4.767
4.766
4.760
4.761
4.764
4.763
4.764
4.771
4.778
4.785
4.786
4.791
4.786
4.786
4.787
4.788
4.790
4.790
4.787
4.788
4.783
4.782
4.784
4.788
4.783
4.783
4.775
4.774
4.776
4.780
4.789
4.794
4.795
4.793
4.794
4.791
4.790
4.797
4.797
4.797
4.794
4.788
4.783
4.780
4.778
4.777
4.775
4.775
4.773
4.768
4.770
4.777
4.784
4.786
4.784
4.783
4.781
4.783
4.783
4.779
4.781
4.783
4.781
4.779
4.784
4.782
4.779
4.775
4.778
4.777
4.771
4.766
4.760
4.766
4.773
4.779
4.776
4.780
4.778
4.783
4.784
4.786
4.787
4.782
4.779
4.777
4.778
4.779
4.779
4.779
4.776
4.774
4.778
4.772
4.779
4.782
4.781
4.782
4.783
4.779
4.776
4.782
4.787
4.794
4.795
4.794
4.795
4.793
4.789
4.790
4.792
4.791
4.792
4.785
4.787
4.785
4.786
4.786
4.786
4.785
4.786
4.782
4.784
4.783
4.784
4.785
4.781
4.782
4.783
4.786
4.789
4.796
4.803
4.807
4.812
4.816
4.808
4.810
4.811
4.807
4.803
4.801
4.801
4.802
4.798
4.799
4.798
4.799
4.801
4.804
4.801
4.801
4.806
4.805
4.805
4.797
4.800
4.805
4.806
4.802
4.801
4.801
4.803
4.807
4.814
4.818
4.825
4.826
4.823
4.826
4.828
4.829
4.825
4.820
4.819
4.818
4.816
4.810
4.808
4.813
4.819
4.815
4.814
4.816
4.812
4.807
4.805
4.807
4.809
4.813
4.806
4.808
4.805
4.805
4.805
4.802
4.806
4.812
4.819
4.818
4.819
4.821
4.822
4.815
4.812
4.808
4.805
4.805
4.808
4.808
4.811
4.810
4.816
4.818
4.812
4.810
4.816
4.812
4.808
4.808
4.806
4.805
4.801
4.797
4.798
4.801
4.800
4.799
4.798
4.797
4.797
4.804
4.808
4.813
4.820
4.824
4.830
4.835
4.838
4.835
4.836
4.834
4.828
4.832
4.836
4.834
4.833
4.827
4.823
4.826
4.827
4.829
4.828
4.827
4.828
4.826
4.822
4.824
4.828
4.827
4.831
4.831
4.827
4.824
4.827
4.826
4.830
4.827
4.828
4.827
4.822
4.823
4.822
4.826
4.823
4.829
4.834
4.840
4.844
4.849
4.855
4.860
4.864
4.864
4.863
4.857
4.857
4.857
4.853
4.848
4.841
4.846
4.847
4.845
4.847
4.848
4.842
4.837
4.834
4.835
4.834
4.834
4.836
4.842
4.838
4.838
4.836
4.834
4.833
4.831
4.834
4.835
4.831
4.829
4.825
4.823
4.820
4.821
4.825
4.829
4.834
4.840
4.834
4.831
4.827
4.821
4.819
4.823
4.822
4.816
4.817
4.820
4.819
4.820
4.820
4.816
4.817
4.823
4.823
4.821
4.819
4.818
4.819
4.818
4.816
4.813
4.817
4.818
4.819
4.816
4.817
4.813
4.806
4.810
4.816
4.816
4.814
4.810
4.806
4.804
4.800
4.801
4.805
4.808
4.814
4.820
4.823
4.824
4.830
4.832
4.831
4.831
4.830
4.831
4.830
4.826
4.827
4.824
4.823
4.826
4.827
4.826
4.825
4.824
4.822
4.821
4.825
4.823
4.819
4.813
4.811
4.810
4.809
4.808
4.808
4.804
4.803
4.808
4.816
4.816
4.812
4.807
4.805
4.805
4.801
4.799
4.800
4.799
4.800
