2.990
3.336
3.456
3.538
3.695
3.628
3.685
3.737
3.780
3.824
3.850
3.863
3.920
3.919
3.960
3.955
3.981
4.001
4.050
4.044
4.046
4.061
4.093
4.080
4.110
4.125
4.130
4.147
4.134
4.132
4.121
4.164
4.158
4.165
4.190
4.176
4.191
4.191
4.210
4.238
4.237
4.251
4.229
4.225
4.235
4.259
4.259
4.283
4.296
4.296
4.295
4.258
4.258
4.259
4.284
4.260
4.248
4.238
4.268
4.253
4.271
4.262
4.276
4.276
4.307
4.283
4.291
4.283
4.301
4.288
4.306
4.304
4.319
4.328
4.313
4.350
4.334
4.319
4.359
4.358
4.338
4.325
4.288
4.332
4.326
4.317
4.323
4.330
4.311
4.303
4.350
4.352
4.341
4.323
4.363
4.340
4.338
4.338
4.360
4.391
4.371
4.368
4.353
4.385
4.394
4.376
4.370
4.352
4.367
4.359
4.377
4.356
4.343
4.381
4.397
4.388
4.376
4.376
4.368
4.388
4.420
4.416
4.422
4.418
4.401
4.389
4.408
4.429
4.421
4.401
4.399
4.383
4.371
4.402
4.435
4.447
4.433
4.430
4.439
4.436
4.446
4.424
4.432
4.462
4.463
4.469
4.452
4.450
4.436
4.428
4.430
4.438
4.459
4.456
4.455
4.435
4.440
4.417
4.396
4.375
4.395
4.422
4.450
4.454
4.444
4.426
4.421
4.427
4.417
4.404
4.401
4.389
4.404
4.429
4.442
4.437
4.436
4.435
4.422
4.430
4.420
4.402
4.387
4.397
4.416
4.409
4.416
4.440
4.436
4.449
4.448
4.435
4.431
4.433
4.431
4.425
4.420
4.409
4.398
4.394
4.390
4.400
4.421
4.443
4.465
4.467
4.465
4.449
4.460
4.450
4.441
4.430
4.422
4.422
4.437
4.446
4.432
4.426
4.436
4.435
4.420
4.428
4.448
4.468
4.488
4.495
4.492
4.478
4.490
4.497
4.481
4.479
4.482
4.483
4.475
4.471
4.456
4.455
4.456
4.466
4.464
4.472
4.471
4.471
4.452
4.457
4.475
4.493
4.511
4.493
4.501
4.486
4.478
4.464
4.472
4.460
4.459
4.455
4.442
4.446
4.446
4.447
4.447
4.437
4.429
4.414
4.429
4.430
4.417
4.403
4.415
4.431
4.447
4.463
4.480
4.496
4.512
4.515
4.524
4.514
4.506
4.498
4.505
4.510
4.502
4.487
4.476
4.487
4.486
4.477
4.479
4.478
4.478
4.482
4.491
4.504
4.502
4.494
4.496
4.498
4.486
4.489
4.505
4.495
4.500
4.490
4.472
4.457
4.470
4.485
4.497
4.494
4.504
4.487
4.479
4.486
4.492
4.491
4.504
4.499
4.498
4.493
4.486
4.482
4.480
4.469
4.463
4.447
4.433
4.444
4.458
4.447
4.449
4.453
4.440
4.454
4.445
4.435
4.434
4.431
4.431
4.431
4.450
4.469
4.465
4.448
4.459
4.460
4.468
4.454
4.448
4.452
4.464
4.477
4.490
4.502
4.515
4.527
4.540
4.534
4.521
4.508
4.497
4.489
4.487
4.479
4.469
4.468
4.482
4.471
4.464
4.460
4.476
4.477
4.479
4.478
4.494
4.511
4.516
4.501
4.503
4.488
4.471
4.464
4.459
4.452
4.454
4.458
4.444
4.438
4.436
4.437
4.430
4.424
4.437
4.435
4.431
4.439
4.446
4.456
4.442
4.436
4.438
4.433
4.444
4.435
4.443
4.432
4.430
4.441
4.451
4.462
4.473
4.484
4.494
4.505
4.516
4.527
4.538
4.549
4.560
4.566
4.547
4.542
4.525
4.533
4.521
4.517
4.517
4.515
4.508
4.514
4.517
4.513
4.520
4.534
4.533
4.519
4.515
4.506
4.501
4.492
4.487
4.501
4.511
4.501
4.506
4.489
4.497
4.501
4.487
4.481
4.483
4.483
4.498
4.483
4.477
4.487
4.500
4.501
4.501
4.501
4.512
4.502
4.493
4.484
4.487
4.487
4.489
4.485
4.486
4.482
4.478
4.476
4.467
4.475
4.476
4.480
4.473
4.465
4.466
4.465
4.474
4.485
4.484
4.492
4.486
4.476
4.478
4.483
4.484
4.472
4.465
4.458
4.464
4.473
4.482
4.491
4.500
4.508
4.518
4.526
4.536
4.542
4.529
4.524
4.528
4.514
4.510
4.511
4.522
4.522
4.516
4.510
4.513
4.503
4.499
4.503
4.511
4.499
4.511
4.524
4.526
4.507
4.511
4.521
4.508
4.512
4.513
4.503
4.498
4.509
4.504
4.507
4.521
4.511
4.500
4.509
4.500
4.503
4.499
4.496
4.513
4.507
4.502
4.486
4.476
4.475
4.467
4.473
4.469
4.476
4.473
4.477
4.462
4.476
4.474
4.465
4.451
4.445
4.447
4.453
4.453
4.464
4.454
4.450
4.449
4.447
4.454
4.451
4.452
4.444
4.435
4.438
4.437
4.446
4.453
4.451
4.451
4.450
4.437
4.441
4.442
4.432
4.440
4.440
4.441
4.443
4.451
4.459
4.461
4.468
4.479
4.490
4.500
4.496
4.504
4.489
4.482
4.477
4.493
4.486
4.479
4.481
4.481
4.478
4.471
4.470
4.459
4.460
4.469
4.480
4.473
4.469
4.461
4.457
4.451
4.454
4.461
4.469
4.476
4.483
4.490
4.497
4.504
4.512
4.519
4.526
4.533
4.541
4.548
4.555
4.552
4.556
4.552
4.547
4.556
4.568
4.564
4.550
4.546
4.546
4.554
4.559
4.555
4.556
4.566
4.555
4.551
4.553
4.540
4.532
4.539
4.536
4.534
4.539
4.545
4.538
4.530
4.529
4.527
4.523
4.516
4.516
4.515
4.514
4.521
4.537
4.530
4.525
4.529
4.539
4.553
4.547
4.550
4.547
4.544
4.538
4.542
4.536
4.535
4.541
4.551
4.555
4.549
4.540
4.534
4.528
4.522
4.518
4.518
4.518
4.515
4.508
4.504
4.513
4.523
4.532
4.541
4.551
4.546
4.536
4.534
4.541
4.530
4.517
4.514
4.504
4.495
4.499
4.511
4.508
4.512
4.502
4.508
4.506
4.505
4.509
4.518
4.518
4.512
4.505
4.499
4.492
4.486
4.479
4.473
4.466
4.460
4.454
4.451
4.448
4.454
4.457
4.461
4.462
4.458
4.453
4.459
4.458
4.459
4.460
4.464
4.466
4.474
4.478
4.484
4.481
4.473
4.472
4.468
4.473
4.483
4.475
4.474
4.469
4.461
4.451
4.452
4.462
4.468
4.467
4.464
4.462
4.453
4.445
4.437
4.429
4.426
4.420
4.420
4.418
4.424
4.427
4.425
4.420
4.425
4.431
4.433
4.439
4.442
4.450
4.439
4.433
4.426
4.427
4.419
4.419
4.416
4.418
4.414
4.422
4.432
4.433
4.435
4.427
4.428
4.433
4.425
4.429
4.426
4.429
4.427
4.424
4.424
4.423
4.412
4.407
4.406
4.403
4.409
4.418
4.419
4.406
4.404
4.407
4.412
4.418
4.423
4.429
4.434
4.439
4.445
4.450
4.456
4.461
4.466
4.472
4.477
4.482
4.488
4.493
4.499
4.504
4.509
4.515
4.520
4.526
4.531
4.537
4.542
4.547
4.553
4.558
4.563
4.569
4.574
4.580
4.585
4.590
4.596
4.601
4.607
4.612
4.617
4.623
4.627
4.625
4.629
4.625
4.616
4.609
4.607
4.600
4.597
4.596
4.589
4.588
4.588
4.580
4.580
4.574
4.569
4.559
4.567
4.570
4.561
4.561
4.562
4.560
4.561
4.568
4.565
4.568
4.562
4.560
4.563
4.564
4.564
4.559
4.554
4.546
4.544
4.551
4.555
4.547
4.546
4.554
4.561
4.553
4.547
4.546
4.546
4.541
4.540
4.541
4.554
4.561
4.550
4.548
4.542
4.538
4.543
4.537
4.531
4.531
4.529
4.536
4.538
4.545
4.546
4.540
4.542
4.549
4.552
4.552
4.556
4.561
4.565
4.565
4.561
4.551
4.551
4.548
4.554
4.550
4.550
4.545
4.550
4.545
4.543
4.541
4.546
4.540
4.537
4.534
4.531
4.525
4.515
4.506
4.505
4.513
4.507
4.507
4.511
4.518
4.520
4.517
4.506
4.501
4.502
4.503
4.508
4.498
4.497
4.499
4.505
4.505
4.499
4.494
4.488
4.483
4.478
4.472
4.467
4.462
4.459
4.453
4.459
4.467
4.461
4.458
4.450
4.439
4.437
4.431
4.437
4.447
4.450
4.452
4.450
4.444
4.439
4.438
4.445
4.453
4.450
4.449
4.452
4.441
