2.994
3.331
3.508
3.639
3.710
3.795
3.827
3.888
3.928
3.941
3.981
4.026
4.065
4.034
4.060
4.089
4.114
4.136
4.162
4.181
4.200
4.218
4.175
4.143
4.153
4.171
4.178
4.185
4.202
4.207
4.219
4.225
4.238
4.250
4.251
4.262
4.270
4.272
4.281
4.295
4.292
4.302
4.309
4.319
4.314
4.322
4.329
4.341
4.345
4.357
4.345
4.354
4.358
4.370
4.370
4.382
4.386
4.373
4.383
4.384
4.394
4.401
4.403
4.406
4.421
4.418
4.427
4.410
4.416
4.420
4.425
4.431
4.435
4.439
4.444
4.451
4.454
4.462
4.460
4.462
4.470
4.470
4.458
4.462
4.460
4.462
4.468
4.475
4.477
4.481
4.477
4.484
4.487
4.492
4.501
4.497
4.504
4.507
4.507
4.508
4.512
4.518
4.526
4.529
4.531
4.524
4.507
4.507
4.509
4.510
4.512
4.518
4.520
4.529
4.528
4.527
4.531
4.535
4.533
4.538
4.533
4.540
4.540
4.543
4.548
4.554
4.553
4.554
4.555
4.562
4.566
4.555
4.561
4.568
4.567
4.565
4.573
4.576
4.575
4.582
4.584
4.588
4.591
4.588
4.591
4.596
4.602
4.601
4.592
4.595
4.602
4.603
4.592
4.582
4.572
4.568
4.572
4.581
4.581
4.576
4.583
4.582
4.592
4.590
4.588
4.595
4.589
4.596
4.595
4.598
4.602
4.604
4.595
4.595
4.599
4.599
4.599
4.599
4.599
4.604
4.605
4.609
4.608
4.614
4.608
4.618
4.619
4.620
4.619
4.621
4.630
4.620
4.622
4.621
4.625
4.625
4.633
4.631
4.635
4.640
4.640
4.647
4.641
4.637
4.629
4.636
4.633
4.636
4.644
4.636
4.640
4.636
4.636
4.644
4.643
4.639
4.649
4.644
4.646
4.650
4.651
4.653
4.662
4.661
4.658
4.669
4.662
4.661
4.665
4.664
4.665
4.664
4.658
4.662
4.673
4.669
4.673
4.678
4.679
4.673
4.677
4.686
4.685
4.678
4.688
4.686
4.685
4.686
4.688
4.688
4.677
4.681
4.677
4.673
4.687
4.692
4.692
4.686
4.688
4.684
4.682
4.681
4.688
4.684
4.684
4.683
4.696
4.692
4.688
4.691
4.701
4.702
4.703
4.703
4.701
4.711
4.706
4.707
4.703
4.713
4.718
4.713
4.710
4.708
4.723
4.718
4.710
4.703
4.699
4.692
4.685
4.684
4.682
4.681
4.679
4.677
4.681
4.677
4.679
4.677
4.681
4.691
4.688
4.684
4.681
4.683
4.693
4.695
4.692
4.681
4.679
4.689
4.696
4.697
4.693
4.691
4.687
4.699
4.699
4.702
4.703
4.697
4.698
4.705
4.714
4.716
4.715
4.708
4.703
4.708
4.704
4.695
4.692
4.688
4.692
4.699
4.703
4.703
4.699
4.691
4.690
4.702
4.695
4.686
4.687
4.683
4.684
4.695
4.704
4.702
4.693
4.689
4.692
4.688
4.699
4.695
4.698
4.697
4.699
4.695
4.695
4.700
4.712
4.716
4.709
4.708
4.715
4.711
4.706
4.708
4.715
4.719
4.717
4.714
4.710
4.707
4.706
4.713
4.714
4.713
4.715
4.711
4.712
4.711
4.712
4.716
4.725
4.719
4.723
4.718
4.718
4.716
4.718
4.714
4.725
4.729
4.736
4.740
4.736
4.735
4.731
4.733
4.728
4.729
4.739
4.740
4.733
4.727
4.721
4.719
4.718
4.721
4.728
4.736
4.737
4.735
4.733
4.727
4.731
4.730
4.721
4.724
4.731
4.732
4.734
4.738
4.731
4.733
4.729
4.732
4.734
4.727
4.736
4.744
4.750
4.743
4.744
4.746
4.748
4.740
4.739
4.738
4.740
4.743
4.751
4.744
4.747
4.747
4.745
4.743
4.744
4.747
4.740
4.743
4.744
4.752
4.762
4.762
4.761
4.762
4.759
4.762
4.759
4.754
4.761
4.766
4.764
4.760
4.769
4.773
4.767
4.766
4.772
4.770
4.767
4.763
4.756
4.758
4.753
4.758
4.767
4.777
4.775
4.770
4.764
4.760
4.755
4.749
4.742
4.736
4.742
4.751
4.756
4.754
4.756
4.752
4.751
4.751
4.740
4.741
4.745
4.744
4.747
4.743
4.748
4.749
4.742
4.741
4.737
4.736
4.739
4.736
4.734
4.740
4.739
4.740
4.736
4.738
4.747
4.755
4.755
4.754
4.755
4.755
4.751
4.749
4.742
4.743
4.747
4.749
4.748
4.746
4.742
4.749
4.756
4.765
4.772
4.773
4.770
4.763
4.755
4.757
4.756
4.755
4.755
4.752
4.748
4.749
4.742
4.751
4.758
4.766
4.772
4.771
4.762
4.757
4.751
4.754
4.758
4.762
4.753
4.744
4.744
4.744
4.745
4.744
4.751
4.760
4.767
4.773
4.770
4.768
4.766
4.768
4.767
4.762
4.764
4.763
4.761
4.763
4.764
4.758
4.756
4.755
4.762
4.763
4.770
4.777
4.786
4.784
4.781
4.781
4.784
4.782
4.780
4.774
4.775
4.776
4.770
4.765
4.761
4.760
4.764
4.773
4.770
4.771
4.777
4.785
4.783
4.781
4.781
4.774
4.773
4.777
4.773
4.774
4.778
4.779
4.781
4.771
4.770
4.770
4.772
4.774
4.777
4.774
4.777
4.784
4.789
4.796
4.799
4.803
4.799
4.798
4.802
4.803
4.802
4.804
4.797
4.796
4.792
4.795
4.789
4.792
4.791
4.788
4.789
4.785
4.788
4.787
4.792
4.799
4.805
4.809
4.802
4.799
4.803
4.803
4.805
4.799
4.794
4.792
4.792
4.788
4.789
4.788
4.784
4.779
4.775
4.770
4.769
4.776
4.781
4.788
4.795
4.796
4.792
4.793
4.792
4.792
4.792
4.792
4.795
4.795
4.791
4.787
4.789
4.784
4.784
4.785
4.781
4.774
4.769
4.768
4.770
4.770
4.777
4.782
4.788
4.792
4.791
4.790
4.794
4.795
4.794
4.795
4.791
4.790
4.788
4.790
4.792
4.788
4.791
4.785
4.783
4.790
4.788
4.787
4.794
4.792
4.792
4.796
4.794
4.790
4.784
4.790
4.795
4.803
4.803
4.801
4.803
4.804
4.802
4.804
4.799
4.795
4.799
4.793
4.797
4.801
4.800
4.796
4.795
4.795
4.797
4.796
4.795
4.796
4.795
4.801
4.795
4.788
4.791
4.793
4.799
4.801
4.802
4.807
4.813
4.820
4.822
4.821
4.821
4.820
4.818
4.817
4.814
4.812
4.813
4.807
4.808
4.810
4.811
4.809
4.813
4.817
4.818
4.817
4.816
4.812
4.813
4.810
4.814
4.817
4.818
4.814
4.811
4.812
4.813
4.810
4.816
4.823
4.827
4.834
4.833
4.836
4.833
4.828
4.832
4.831
4.830
4.829
4.827
4.825
4.822
4.823
4.822
4.829
4.825
4.821
4.821
4.818
4.819
4.821
4.821
4.817
4.819
4.817
4.816
4.817
4.814
4.810
4.807
4.807
4.813
4.818
4.824
4.829
4.830
4.826
4.824
4.820
4.818
4.818
4.822
4.817
4.818
4.818
4.819
4.825
4.822
4.826
4.824
4.823
4.819
4.825
4.822
4.820
4.818
4.814
4.811
4.807
4.810
4.807
4.810
4.806
4.803
4.807
4.811
4.809
4.808
4.815
4.816
4.821
4.827
4.831
4.836
4.842
4.846
4.847
4.846
4.847
4.841
4.840
4.843
4.842
4.840
4.837
4.838
4.837
4.838
4.839
4.841
4.837
4.833
4.834
4.832
4.833
4.833
4.837
4.843
4.840
4.840
4.839
4.836
4.840
4.838
4.840
4.835
4.833
4.836
4.836
4.833
4.834
4.833
4.831
4.830
4.836
4.841
4.847
4.852
4.856
4.862
4.867
4.870
4.869
4.868
4.862
4.860
4.856
4.857
4.855
4.852
4.856
4.858
4.856
4.852
4.855
4.849
4.848
4.847
4.847
4.849
4.845
4.846
4.848
4.851
4.848
4.847
4.847
4.841
4.840
4.836
4.836
4.832
4.829
4.825
4.825
4.822
4.818
4.824
4.828
4.833
4.837
4.840
4.837
4.833
4.834
4.832
4.829
4.825
4.829
4.832
4.829
4.827
4.828
4.829
4.829
4.830
4.826
4.825
4.829
4.835
4.833
4.833
4.833
4.829
4.828
4.827
4.825
4.822
4.825
4.829
4.826
4.822
4.825
4.822
4.820
4.819
4.818
4.814
4.810
4.808
4.806
4.802
4.798
4.803
4.807
4.811
4.817
