2.993
3.325
3.513
3.630
3.691
3.741
3.835
3.828
3.886
3.940
3.988
4.032
3.996
3.965
3.982
4.001
4.018
4.051
4.061
4.074
4.099
4.100
4.124
4.129
4.142
4.161
4.159
4.174
4.196
4.190
4.201
4.208
4.229
4.237
4.235
4.237
4.247
4.255
4.268
4.275
4.292
4.304
4.276
4.289
4.296
4.307
4.316
4.322
4.327
4.323
4.339
4.344
4.363
4.356
4.332
4.340
4.350
4.355
4.369
4.355
4.363
4.374
4.377
4.387
4.396
4.387
4.384
4.401
4.407
4.409
4.421
4.420
4.428
4.426
4.427
4.434
4.448
4.425
4.405
4.416
4.415
4.415
4.422
4.425
4.440
4.427
4.425
4.426
4.428
4.432
4.441
4.446
4.458
4.461
4.451
4.454
4.466
4.474
4.470
4.471
4.479
4.473
4.474
4.468
4.476
4.480
4.472
4.489
4.487
4.494
4.506
4.497
4.511
4.499
4.506
4.512
4.514
4.523
4.512
4.529
4.522
4.534
4.537
4.532
4.522
4.537
4.511
4.520
4.519
4.531
4.528
4.537
4.543
4.535
4.548
4.552
4.554
4.552
4.557
4.568
4.555
4.561
4.558
4.557
4.554
4.541
4.528
4.520
4.534
4.530
4.522
4.536
4.534
4.523
4.543
4.543
4.549
4.542
4.551
4.550
4.544
4.566
4.553
4.536
4.534
4.539
4.534
4.539
4.533
4.526
4.532
4.537
4.536
4.529
4.541
4.552
4.547
4.544
4.545
4.565
4.556
4.554
4.545
4.564
4.564
4.554
4.547
4.563
4.570
4.564
4.564
4.564
4.576
4.585
4.580
4.577
4.576
4.584
4.573
4.566
4.560
4.565
4.583
4.571
4.571
4.569
4.562
4.584
4.588
4.591
4.585
4.588
4.576
4.592
4.586
4.592
4.584
4.584
4.583
4.604
4.610
4.614
4.609
4.611
4.603
4.604
4.623
4.622
4.614
4.616
4.602
4.603
4.617
4.620
4.627
4.621
4.614
4.603
4.608
4.600
4.599
4.595
4.599
4.583
4.591
4.599
4.594
4.596
4.589
4.581
4.582
4.579
4.591
4.607
4.602
4.605
4.605
4.606
4.597
4.595
4.592
4.609
4.610
4.608
4.610
4.604
4.608
4.605
4.595
4.600
4.607
4.611
4.614
4.609
4.610
4.601
4.602
4.603
4.599
4.616
4.632
4.631
4.629
4.630
4.626
4.618
4.615
4.607
4.611
4.620
4.630
4.633
4.619
4.624
4.620
4.625
4.624
4.619
4.615
4.613
4.628
4.644
4.653
4.652
4.656
4.650
4.646
4.640
4.638
4.643
4.630
4.632
4.640
4.654
4.662
4.659
4.653
4.657
4.644
4.646
4.637
4.641
4.639
4.635
4.638
4.652
4.650
4.642
4.640
4.639
4.638
4.634
4.629
4.621
4.613
4.611
4.623
4.637
4.649
4.653
4.654
4.652
4.650
4.658
4.657
4.642
4.635
4.627
4.632
4.633
4.626
4.634
4.647
4.660
4.662
4.661
4.658
4.666
4.665
4.670
4.661
4.655
4.646
4.641
4.638
4.638
4.646
4.642
4.654
4.667
4.679
4.688
4.691
4.688
4.682
4.675
4.670
4.670
4.668
4.673
4.670
4.677
4.671
4.670
4.661
4.658
4.668
4.680
4.687
4.682
4.691
4.688
4.693
4.687
4.678
4.668
4.664
4.663
4.655
4.654
4.655
4.653
4.659
4.655
4.662
4.673
4.685
4.688
4.692
4.685
4.682
4.685
4.682
4.688
4.692
4.680
4.682
4.682
4.681
4.679
4.675
4.673
4.670
4.668
4.671
4.678
4.680
4.691
4.701
4.712
4.723
4.721
4.727
4.727
4.725
4.720
4.709
4.705
4.707
4.707
4.702
4.701
4.702
4.695
4.695
4.685
4.693
4.689
4.687
4.689
4.694
4.705
4.715
4.725
4.726
4.715
4.718
4.717
4.711
4.705
4.699
4.694
4.688
4.682
4.676
4.670
4.666
4.664
4.671
4.670
4.671
4.670
4.670
4.674
4.683
4.692
4.695
4.690
4.690
4.688
4.680
4.681
4.677
4.682
4.675
4.687
4.686
4.686
4.679
4.672
4.667
4.663
4.667
4.663
4.656
4.654
4.651
4.652
4.652
4.654
4.663
4.672
4.682
4.691
4.700
4.709
4.708
4.702
4.700
4.698
4.699
4.699
4.696
4.693
4.691
4.691
4.689
4.682
4.682
4.679
4.676
4.685
4.690
4.694
4.686
4.678
4.670
4.662
4.657
4.647
4.652
4.659
4.668
4.676
4.685
4.691
4.693
4.695
4.695
4.689
4.683
4.683
4.693
4.685
4.686
4.689
4.691
4.682
4.692
4.684
4.695
4.693
4.687
4.685
4.683
4.684
4.681
4.680
4.679
4.674
4.670
4.677
4.673
4.680
4.678
4.667
4.669
4.668
4.670
4.679
4.687
4.695
4.697
4.697
4.696
4.694
4.692
4.694
4.695
4.694
4.696
4.696
4.692
4.695
4.692
4.690
4.681
4.689
4.692
4.685
4.686
4.683
4.682
4.677
4.673
4.676
4.674
4.670
4.670
4.675
4.673
4.676
4.685
4.685
4.680
4.677
4.672
4.675
4.674
4.672
4.679
4.687
4.695
4.702
4.706
4.714
4.719
4.711
4.708
4.703
4.703
4.704
4.708
4.709
4.710
4.703
4.700
4.697
4.705
4.702
4.703
4.694
4.695
4.693
4.694
4.697
4.695
4.689
4.682
4.677
4.681
4.691
4.692
4.694
4.701
4.699
4.696
4.693
4.690
4.689
4.691
4.690
4.689
4.689
4.691
4.680
4.676
4.678
4.685
4.692
4.699
4.707
4.714
4.721
4.728
4.728
4.723
4.719
4.714
4.715
4.724
4.720
4.722
4.716
4.727
4.724
4.734
4.739
4.742
4.734
4.727
4.721
4.720
4.711
4.712
4.710
4.706
4.709
4.713
4.714
4.713
4.708
4.699
4.700
4.704
4.701
4.702
4.698
4.697
4.697
4.698
4.703
4.703
4.699
4.700
4.697
4.697
4.705
4.709
4.704
4.702
4.705
4.698
4.697
4.701
4.698
4.704
4.711
4.717
4.724
4.730
4.737
4.744
4.750
4.757
4.760
4.757
4.757
4.754
4.757
4.752
4.755
4.755
4.762
4.761
4.757
4.758
4.753
4.746
4.746
4.743
4.743
4.743
4.738
4.737
4.736
4.740
4.739
4.738
4.747
4.750
4.749
4.743
4.738
4.737
4.734
4.743
4.750
4.744
4.738
4.734
4.733
4.734
4.735
4.728
4.721
4.716
4.712
4.710
4.706
4.707
4.712
4.710
4.705
4.707
4.717
4.713
4.717
4.714
4.707
4.705
4.703
4.708
4.714
4.720
4.726
4.732
4.734
4.733
4.737
4.739
4.745
4.746
4.747
4.744
4.742
4.741
4.739
4.741
4.740
4.738
4.741
4.738
4.736
4.733
4.735
4.730
4.727
4.725
4.722
4.716
4.716
4.719
4.713
4.712
4.715
4.707
4.700
4.701
4.706
4.711
4.705
4.713
4.716
4.715
4.713
4.712
4.712
4.705
4.708
4.708
4.709
4.707
4.709
4.717
4.717
4.710
4.710
4.707
4.703
4.704
4.700
4.699
4.706
4.708
4.713
4.710
4.707
4.702
4.699
4.697
4.688
4.686
4.685
4.686
4.689
4.686
4.689
4.694
4.699
4.705
4.710
4.716
4.721
4.727
4.732
4.738
4.743
4.748
4.754
4.759
4.765
4.762
4.761
4.759
4.756
4.760
4.759
4.761
4.760
4.755
4.760
4.754
4.748
4.748
4.743
4.743
4.741
4.741
4.743
4.745
4.752
4.754
4.751
4.751
4.754
4.756
4.758
4.756
4.752
4.752
4.752
4.749
4.748
4.752
4.745
4.749
4.748
4.745
4.748
4.750
4.752
4.753
4.749
4.749
4.751
4.750
4.755
4.750
4.751
4.754
4.745
4.742
4.745
4.749
4.741
4.738
4.735
4.735
4.734
4.730
4.727
4.734
4.736
4.737
4.736
4.737
4.732
4.739
4.735
4.736
4.732
4.728
4.725
4.721
4.717
4.714
4.713
4.714
4.712
4.709
4.708
4.708
4.716
4.717
4.720
4.722
4.720
4.717
4.720
4.725
4.730
4.735
4.740
4.745
4.749
4.754
4.759
4.764
4.769
4.771
4.766
4.759
4.753
4.754
4.749
4.751
4.750
4.750
4.749
4.750
4.745
4.741
4.741
4.735
4.735
4.733
4.736
4.737
4.731
4.731
4.733
4.730
4.737
4.729
4.730
4.730
4.727
4.725
4.731
