2.994
3.335
3.512
3.623
3.709
3.789
3.848
3.880
3.917
3.951
3.999
4.019
4.009
4.042
4.068
4.094
4.128
4.148
4.172
4.183
4.134
4.118
4.131
4.140
4.150
4.168
4.175
4.194
4.196
4.212
4.213
4.228
4.235
4.242
4.256
4.264
4.262
4.272
4.283
4.285
4.289
4.297
4.308
4.320
4.309
4.323
4.325
4.335
4.341
4.351
4.358
4.346
4.357
4.359
4.371
4.376
4.379
4.390
4.393
4.390
4.386
4.387
4.396
4.405
4.407
4.408
4.413
4.422
4.429
4.431
4.431
4.441
4.438
4.428
4.427
4.431
4.435
4.442
4.445
4.453
4.456
4.458
4.464
4.468
4.472
4.475
4.472
4.482
4.483
4.486
4.490
4.496
4.498
4.497
4.481
4.479
4.478
4.483
4.486
4.493
4.497
4.496
4.503
4.507
4.501
4.509
4.506
4.507
4.509
4.518
4.523
4.529
4.527
4.531
4.538
4.540
4.531
4.534
4.534
4.532
4.539
4.545
4.552
4.554
4.558
4.559
4.564
4.564
4.561
4.568
4.569
4.567
4.572
4.575
4.571
4.562
4.549
4.545
4.544
4.554
4.549
4.553
4.555
4.562
4.561
4.557
4.563
4.567
4.566
4.576
4.571
4.579
4.571
4.570
4.566
4.576
4.564
4.575
4.575
4.576
4.583
4.578
4.586
4.581
4.591
4.590
4.596
4.597
4.599
4.590
4.593
4.592
4.604
4.600
4.612
4.606
4.615
4.612
4.618
4.612
4.604
4.600
4.612
4.612
4.609
4.606
4.604
4.612
4.615
4.619
4.616
4.612
4.624
4.619
4.626
4.630
4.627
4.638
4.634
4.630
4.643
4.636
4.637
4.638
4.626
4.642
4.642
4.638
4.648
4.650
4.645
4.652
4.659
4.655
4.654
4.660
4.662
4.658
4.664
4.663
4.657
4.650
4.646
4.652
4.662
4.666
4.657
4.661
4.656
4.655
4.659
4.657
4.654
4.657
4.667
4.663
4.660
4.661
4.675
4.679
4.673
4.669
4.683
4.682
4.678
4.679
4.690
4.688
4.690
4.677
4.692
4.696
4.695
4.686
4.679
4.672
4.665
4.661
4.651
4.652
4.648
4.655
4.657
4.653
4.649
4.660
4.660
4.657
4.662
4.657
4.667
4.664
4.656
4.655
4.656
4.672
4.667
4.669
4.667
4.661
4.673
4.675
4.676
4.674
4.676
4.674
4.689
4.688
4.683
4.682
4.679
4.680
4.670
4.661
4.662
4.664
4.678
4.677
4.665
4.664
4.664
4.669
4.667
4.663
4.660
4.661
4.664
4.671
4.667
4.669
4.660
4.664
4.656
4.671
4.683
4.675
4.672
4.672
4.670
4.671
4.679
4.693
4.694
4.686
4.679
4.675
4.676
4.686
4.697
4.690
4.690
4.683
4.683
4.674
4.686
4.696
4.697
4.696
4.689
4.688
4.686
4.685
4.697
4.696
4.700
4.697
4.694
4.691
4.697
4.696
4.706
4.715
4.714
4.710
4.711
4.704
4.711
4.704
4.706
4.704
4.705
4.701
4.701
4.699
4.698
4.693
4.703
4.709
4.711
4.701
4.698
4.697
4.690
4.697
4.697
4.709
4.719
4.716
4.711
4.713
4.711
4.710
4.706
4.705
4.709
4.720
4.731
4.732
4.725
4.720
4.712
4.705
4.706
4.707
4.716
4.726
4.727
4.731
4.728
4.729
4.725
4.723
4.720
4.723
4.728
4.729
4.739
4.749
4.746
4.742
4.742
4.738
4.734
4.732
4.730
4.732
4.734
4.745
4.747
4.740
4.742
4.737
4.741
4.740
4.741
4.746
4.739
4.734
4.733
4.726
4.722
4.721
4.722
4.716
4.716
4.715
4.714
4.716
4.727
4.734
4.734
4.731
4.731
4.731
4.727
4.718
4.712
4.704
4.703
4.713
4.723
4.726
4.731
4.726
4.723
4.723
4.717
4.713
4.714
4.721
4.717
4.715
4.716
4.724
4.734
4.731
4.736
4.734
4.736
4.738
4.733
4.735
4.734
4.734
4.727
4.723
4.720
4.727
4.736
4.738
4.734
4.734
4.731
4.734
4.728
4.732
4.738
4.737
4.731
4.724
4.719
4.723
4.731
4.737
4.738
4.738
4.733
4.731
4.728
4.732
4.730
4.732
4.730
4.732
4.738
4.729
4.725
4.729
4.738
4.745
4.750
4.749
4.749
4.745
4.749
4.753
4.755
4.751
4.746
4.746
4.752
4.748
4.741
4.735
4.742
4.742
4.749
4.757
4.763
4.765
4.760
4.754
4.746
4.746
4.742
4.749
4.744
4.743
4.746
4.740
4.734
4.740
4.744
4.745
4.753
4.760
4.769
4.765
4.768
4.767
4.764
4.764
4.768
4.764
4.766
4.760
4.761
4.760
4.760
4.767
4.766
4.770
4.763
4.760
4.763
4.770
4.779
4.787
4.786
4.779
4.777
4.773
4.775
4.775
4.772
4.775
4.769
4.770
4.766
4.767
4.769
4.762
4.757
4.760
4.761
4.768
4.761
4.760
4.758
4.759
4.761
4.760
4.760
4.757
4.761
4.756
4.755
4.757
4.757
4.760
4.763
4.762
4.758
4.753
4.749
4.756
4.761
4.768
4.764
4.767
4.766
4.762
4.761
4.762
4.760
4.757
4.757
4.757
4.752
4.753
4.755
4.753
4.755
4.754
4.757
4.756
4.755
4.759
4.758
4.759
4.768
4.773
4.780
4.783
4.779
4.783
4.774
4.770
4.771
4.768
4.771
4.770
4.768
4.773
4.771
4.764
4.761
4.762
4.760
4.762
4.763
4.764
4.758
4.754
4.758
4.765
4.772
4.779
4.785
4.792
4.799
4.803
4.797
4.792
4.791
4.792
4.785
4.779
4.779
4.776
4.777
4.779
4.782
4.784
4.786
4.781
4.777
4.783
4.779
4.775
4.774
4.781
4.782
4.775
4.775
4.783
4.790
4.797
4.802
4.809
4.809
4.805
4.805
4.809
4.809
4.806
4.807
4.808
4.809
4.805
4.801
4.797
4.796
4.792
4.790
4.792
4.793
4.790
4.790
4.790
4.796
4.790
4.785
4.792
4.790
4.787
4.790
4.797
4.802
4.805
4.797
4.794
4.801
4.794
4.794
4.795
4.794
4.792
4.793
4.792
4.786
4.792
4.793
4.789
4.793
4.794
4.797
4.790
4.786
4.787
4.783
4.779
4.779
4.779
4.786
4.779
4.780
4.781
4.785
4.792
4.797
4.803
4.810
4.816
4.823
4.820
4.815
4.814
4.810
4.808
4.810
4.814
4.815
4.811
4.810
4.809
4.809
4.805
4.807
4.800
4.802
4.805
4.804
4.811
4.810
4.806
4.810
4.801
4.802
4.801
4.801
4.805
4.801
4.806
4.804
4.801
4.805
4.806
4.812
4.817
4.821
4.828
4.834
4.838
4.838
4.841
4.837
4.836
4.835
4.838
4.845
4.841
4.845
4.839
4.837
4.838
4.832
4.827
4.824
4.820
4.818
4.817
4.818
4.816
4.815
4.811
4.815
4.814
4.809
4.809
4.812
4.817
4.823
4.825
4.821
4.820
4.815
4.808
4.813
4.819
4.821
4.822
4.820
4.817
4.815
4.809
4.807
4.811
4.813
4.808
4.804
4.805
4.799
4.800
4.797
4.805
4.804
4.801
4.797
4.797
4.796
4.794
4.790
4.789
4.796
4.798
4.801
4.797
4.797
4.792
4.793
4.794
4.793
4.790
4.786
4.787
4.791
4.790
4.793
4.798
4.802
4.800
4.802
4.805
4.810
4.812
4.812
4.809
4.812
4.808
4.804
4.803
4.799
4.801
4.805
4.803
4.804
4.805
4.804
4.801
4.802
4.803
4.804
4.800
4.801
4.798
4.799
4.797
4.793
4.787
4.791
4.794
4.793
4.789
4.786
4.789
4.793
4.792
4.788
4.789
4.785
4.786
4.780
4.776
4.782
4.786
4.791
4.797
4.799
4.805
4.810
4.816
4.813
4.812
4.815
4.809
4.810
4.811
4.809
4.805
4.807
4.811
4.810
4.814
4.813
4.820
4.820
4.816
4.818
4.817
4.820
4.812
4.810
4.811
4.810
4.805
4.804
4.803
4.801
4.800
4.799
4.795
4.794
4.794
4.796
4.798
4.801
4.801
4.802
4.798
4.794
4.790
4.788
4.784
4.788
4.786
4.785
4.786
4.785
4.786
4.790
4.795
4.799
4.803
4.809
4.814
4.813
4.809
4.809
4.809
4.809
4.806
4.807
4.805
4.807
4.808
4.812
4.812
4.810
4.805
4.809
4.803
4.799
4.798
4.801
4.798
4.802
4.797
4.791
4.789
