2.991
3.310
3.498
3.612
3.688
3.714
3.798
3.871
3.937
3.842
3.872
3.896
3.922
3.946
3.984
3.998
4.012
4.039
4.046
4.073
4.078
4.100
4.121
4.136
4.125
4.134
4.153
4.170
4.195
4.171
4.191
4.194
4.210
4.210
4.232
4.250
4.246
4.228
4.236
4.249
4.246
4.260
4.268
4.283
4.281
4.285
4.294
4.308
4.324
4.328
4.321
4.334
4.346
4.317
4.310
4.317
4.324
4.335
4.323
4.323
4.338
4.341
4.359
4.341
4.355
4.364
4.368
4.385
4.365
4.363
4.367
4.375
4.393
4.402
4.398
4.396
4.397
4.404
4.422
4.411
4.415
4.434
4.435
4.426
4.432
4.427
4.411
4.432
4.432
4.438
4.451
4.453
4.467
4.460
4.473
4.470
4.478
4.464
4.468
4.448
4.429
4.435
4.427
4.448
4.448
4.442
4.460
4.449
4.472
4.461
4.447
4.442
4.439
4.441
4.423
4.443
4.445
4.444
4.460
4.449
4.445
4.459
4.454
4.450
4.471
4.459
4.460
4.473
4.482
4.473
4.480
4.497
4.487
4.462
4.483
4.483
4.476
4.464
4.492
4.494
4.490
4.483
4.494
4.505
4.489
4.486
4.500
4.519
4.512
4.515
4.499
4.522
4.536
4.517
4.519
4.510
4.535
4.525
4.529
4.518
4.520
4.507
4.503
4.508
4.496
4.499
4.499
4.498
4.488
4.494
4.498
4.521
4.515
4.510
4.504
4.495
4.504
4.529
4.518
4.504
4.494
4.503
4.501
4.524
4.525
4.534
4.521
4.520
4.522
4.515
4.532
4.538
4.539
4.533
4.511
4.522
4.524
4.529
4.552
4.557
4.553
4.544
4.551
4.553
4.532
4.535
4.557
4.570
4.559
4.560
4.557
4.555
4.551
4.538
4.550
4.561
4.552
4.549
4.542
4.541
4.537
4.523
4.528
4.548
4.565
4.559
4.556
4.551
4.557
4.545
4.541
4.526
4.532
4.552
4.571
4.580
4.578
4.570
4.573
4.566
4.549
4.554
4.556
4.551
4.556
4.575
4.593
4.591
4.591
4.594
4.588
4.585
4.577
4.583
4.588
4.573
4.573
4.578
4.596
4.607
4.603
4.608
4.592
4.578
4.568
4.560
4.567
4.567
4.560
4.561
4.578
4.595
4.604
4.606
4.612
4.603
4.599
4.595
4.584
4.584
4.598
4.606
4.599
4.587
4.579
4.588
4.604
4.620
4.636
4.636
4.630
4.628
4.618
4.619
4.619
4.612
4.609
4.601
4.608
4.610
4.612
4.603
4.603
4.618
4.633
4.648
4.640
4.631
4.622
4.613
4.604
4.596
4.607
4.590
4.591
4.587
4.585
4.590
4.581
4.591
4.603
4.606
4.603
4.605
4.606
4.589
4.584
4.586
4.578
4.574
4.576
4.566
4.574
4.570
4.577
4.579
4.574
4.570
4.580
4.587
4.600
4.614
4.616
4.621
4.621
4.617
4.610
4.615
4.605
4.594
4.582
4.572
4.577
4.565
4.562
4.557
4.555
4.552
4.563
4.564
4.564
4.577
4.589
4.602
4.614
4.627
4.637
4.623
4.612
4.612
4.607
4.601
4.609
4.599
4.589
4.593
4.593
4.595
4.592
4.593
4.592
4.580
4.570
4.574
4.570
4.577
4.576
4.576
4.588
4.600
4.612
4.618
4.608
4.619
4.622
4.629
4.621
4.630
4.616
4.627
4.617
4.613
4.598
4.599
4.592
4.597
4.595
4.594
4.598
4.586
4.582
4.584
4.581
4.584
4.587
4.581
4.580
4.579
4.587
4.598
4.609
4.620
4.631
4.642
4.641
4.626
4.632
4.630
4.620
4.626
4.626
4.621
4.630
4.618
4.617
4.614
4.622
4.617
4.607
4.602
4.596
4.602
4.600
4.596
4.599
4.608
4.605
4.612
4.607
4.604
4.594
4.595
4.604
4.597
4.599
4.606
4.616
4.626
4.636
4.646
4.657
4.658
4.667
4.665
4.660
4.653
4.659
4.654
4.648
4.648
4.649
4.643
4.645
4.643
4.635
4.638
4.632
4.632
4.638
4.643
4.631
4.630
4.643
4.641
4.643
4.650
4.653
4.640
4.631
4.634
4.633
4.621
4.620
4.624
4.626
4.626
4.623
4.621
4.626
4.628
4.637
4.646
4.655
4.665
4.663
4.660
4.662
4.671
4.680
4.682
4.684
4.688
4.676
4.667
4.665
4.657
4.652
4.643
4.633
4.625
4.617
4.613
4.618
4.609
4.598
4.599
4.608
4.617
4.615
4.620
4.609
4.617
4.618
4.616
4.615
4.615
4.612
4.606
4.605
4.598
4.595
4.596
4.605
4.605
4.600
4.599
4.601
4.609
4.617
4.626
4.634
4.642
4.651
4.659
4.668
4.667
4.670
4.667
4.664
4.661
4.654
4.654
4.653
4.652
4.652
4.655
4.649
4.643
4.644
4.644
4.652
4.652
4.647
4.649
4.646
4.650
4.649
4.640
4.637
4.644
4.647
4.641
4.646
4.651
4.642
4.646
4.642
4.636
4.634
4.633
4.634
4.633
4.635
4.633
4.632
4.627
4.621
4.627
4.619
4.617
4.614
4.614
4.619
4.626
4.634
4.625
4.631
4.641
4.647
4.636
4.630
4.631
4.638
4.646
4.653
4.661
4.669
4.676
4.684
4.691
4.692
4.689
4.688
4.694
4.691
4.695
4.692
4.686
4.681
4.677
4.677
4.676
4.672
4.670
4.664
4.665
4.659
4.648
4.642
4.643
4.644
4.646
4.645
4.647
4.647
4.645
4.640
4.634
4.627
4.625
4.635
4.635
4.638
4.636
4.629
4.632
4.630
4.623
4.617
4.614
4.619
4.621
4.620
4.626
4.618
4.622
4.620
4.621
4.619
4.617
4.617
4.613
4.606
4.612
4.607
4.599
4.601
4.602
4.604
4.596
4.593
4.586
4.592
4.598
4.605
4.612
4.619
4.625
4.632
4.639
4.645
4.652
4.659
4.665
4.672
4.672
4.681
4.680
4.678
4.688
4.686
4.680
4.683
4.677
4.671
4.679
4.689
4.694
4.702
4.696
4.690
4.686
4.684
4.684
4.685
4.688
4.683
4.679
4.681
4.682
4.681
4.679
4.676
4.682
4.681
4.673
4.668
4.667
4.665
4.662
4.665
4.668
4.661
4.654
4.663
4.665
4.666
4.654
4.654
4.657
4.651
4.654
4.651
4.645
4.635
4.636
4.633
4.632
4.623
4.626
4.626
4.630
4.628
4.628
4.621
4.615
4.609
4.612
4.608
4.605
4.617
4.616
4.617
4.619
4.617
4.608
4.602
4.601
4.601
4.597
4.600
4.604
4.602
4.602
4.610
4.618
4.620
4.622
4.619
4.617
4.613
4.615
4.616
4.613
4.616
4.622
4.628
4.633
4.639
4.645
4.651
4.657
4.663
4.669
4.674
4.680
4.686
4.692
4.692
4.682
4.678
4.682
4.679
4.671
4.680
4.677
4.671
4.671
4.669
4.668
4.677
4.671
4.670
4.665
4.661
4.659
4.660
4.655
4.645
4.645
4.655
4.660
4.659
4.659
4.658
4.656
4.660
4.661
4.665
4.667
4.664
4.661
4.663
4.671
4.679
4.679
4.674
4.679
4.688
4.687
4.686
4.686
4.686
4.688
4.687
4.678
4.676
4.681
4.675
4.672
4.676
4.676
4.675
4.666
4.661
4.658
4.651
4.646
4.643
4.650
4.645
4.639
4.632
4.625
4.618
4.613
4.618
4.616
4.620
4.629
4.625
4.623
4.630
4.627
4.631
4.635
4.636
4.643
4.638
4.632
4.631
4.630
4.630
4.631
4.629
4.632
4.631
4.628
4.629
4.627
4.624
4.624
4.617
4.620
4.611
4.613
4.608
4.603
4.607
4.609
4.609
4.611
4.610
4.602
4.606
4.615
4.616
4.614
4.624
4.623
4.622
4.630
4.636
4.644
4.643
4.641
4.645
4.645
4.641
4.641
4.640
4.645
4.650
4.655
4.660
4.665
4.670
4.675
4.680
4.685
4.690
4.695
4.700
4.705
4.710
4.715
4.720
4.725
4.730
4.732
4.732
4.726
4.730
4.721
4.721
4.718
4.712
4.709
4.710
4.705
4.708
4.707
4.711
4.709
4.711
4.711
4.715
4.716
4.720
4.718
4.726
4.726
4.721
4.712
4.704
4.709
4.710
4.704
4.699
4.695
4.692
4.684
4.684
4.681
4.681
4.680
4.680
4.677
4.685
4.692
4.690
4.691
4.691
4.700
4.700
4.699
4.700
4.693
4.686
4.682
4.686
4.681
4.682
4.681
4.680
4.679
4.681
4.682
4.680
4.678
