2.992
3.320
3.498
3.634
3.709
3.777
3.815
3.884
3.871
3.921
3.968
4.005
4.046
4.076
4.025
4.011
4.034
4.051
4.064
4.080
4.090
4.114
4.121
4.136
4.146
4.162
4.175
4.174
4.192
4.209
4.204
4.222
4.230
4.240
4.234
4.245
4.257
4.266
4.282
4.290
4.275
4.278
4.290
4.298
4.306
4.317
4.321
4.331
4.342
4.316
4.323
4.340
4.342
4.348
4.353
4.364
4.370
4.368
4.378
4.384
4.388
4.396
4.404
4.375
4.381
4.388
4.389
4.397
4.403
4.399
4.410
4.404
4.419
4.421
4.425
4.427
4.433
4.435
4.435
4.439
4.447
4.458
4.454
4.464
4.462
4.470
4.471
4.472
4.466
4.473
4.467
4.446
4.448
4.455
4.462
4.462
4.460
4.473
4.478
4.478
4.467
4.471
4.465
4.473
4.476
4.478
4.486
4.482
4.492
4.507
4.497
4.483
4.502
4.509
4.506
4.514
4.516
4.510
4.511
4.518
4.507
4.505
4.515
4.518
4.521
4.511
4.528
4.525
4.541
4.529
4.543
4.533
4.540
4.538
4.540
4.542
4.548
4.544
4.560
4.559
4.566
4.558
4.574
4.567
4.569
4.556
4.563
4.568
4.565
4.561
4.551
4.565
4.562
4.563
4.575
4.576
4.578
4.580
4.576
4.591
4.601
4.587
4.600
4.601
4.594
4.607
4.604
4.600
4.600
4.588
4.577
4.566
4.558
4.570
4.564
4.564
4.573
4.563
4.563
4.574
4.579
4.573
4.565
4.588
4.590
4.586
4.578
4.595
4.597
4.584
4.590
4.588
4.575
4.569
4.574
4.578
4.573
4.569
4.577
4.572
4.565
4.567
4.580
4.579
4.571
4.569
4.583
4.592
4.595
4.585
4.574
4.595
4.602
4.598
4.593
4.581
4.602
4.600
4.595
4.591
4.584
4.605
4.605
4.601
4.597
4.602
4.603
4.623
4.618
4.622
4.613
4.609
4.616
4.616
4.606
4.606
4.604
4.605
4.619
4.621
4.604
4.601
4.605
4.607
4.626
4.622
4.617
4.622
4.623
4.618
4.623
4.637
4.632
4.616
4.622
4.621
4.618
4.632
4.639
4.644
4.642
4.641
4.634
4.642
4.636
4.652
4.652
4.644
4.651
4.653
4.650
4.639
4.647
4.664
4.659
4.658
4.651
4.651
4.650
4.649
4.649
4.639
4.630
4.624
4.623
4.621
4.628
4.635
4.650
4.641
4.629
4.625
4.619
4.617
4.618
4.627
4.636
4.641
4.632
4.635
4.624
4.625
4.630
4.636
4.628
4.642
4.655
4.645
4.643
4.643
4.641
4.627
4.628
4.634
4.632
4.647
4.652
4.645
4.637
4.633
4.631
4.632
4.631
4.627
4.633
4.643
4.657
4.656
4.659
4.652
4.651
4.649
4.652
4.655
4.655
4.653
4.647
4.658
4.667
4.666
4.663
4.673
4.667
4.663
4.660
4.646
4.639
4.645
4.648
4.661
4.675
4.678
4.674
4.671
4.673
4.664
4.673
4.673
4.670
4.674
4.664
4.668
4.667
4.680
4.690
4.699
4.695
4.689
4.684
4.683
4.675
4.675
4.681
4.675
4.671
4.678
4.677
4.685
4.696
4.694
4.687
4.678
4.669
4.666
4.664
4.666
4.665
4.667
4.667
4.661
4.666
4.677
4.680
4.679
4.672
4.663
4.673
4.662
4.667
4.668
4.668
4.666
4.661
4.662
4.667
4.667
4.669
4.680
4.691
4.694
4.683
4.682
4.684
4.688
4.683
4.678
4.671
4.667
4.671
4.678
4.681
4.679
4.673
4.671
4.679
4.690
4.701
4.708
4.700
4.698
4.697
4.699
4.698
4.698
4.700
4.695
4.691
4.690
4.691
4.690
4.691
4.699
4.692
4.704
4.701
4.704
4.715
4.725
4.725
4.731
4.727
4.722
4.718
4.715
4.707
4.706
4.712
4.716
4.716
4.705
4.706
4.703
4.698
4.695
4.691
4.701
4.711
4.715
4.717
4.717
4.711
4.717
4.709
4.709
4.703
4.705
4.702
4.702
4.703
4.697
4.694
4.702
4.703
4.701
4.704
4.695
4.696
4.698
4.708
4.717
4.726
4.736
4.733
4.731
4.730
4.725
4.731
4.726
4.732
4.723
4.722
4.725
4.730
4.731
4.731
4.732
4.730
4.724
4.716
4.717
4.717
4.715
4.721
4.722
4.728
4.736
4.739
4.748
4.757
4.759
4.751
4.752
4.749
4.742
4.736
4.736
4.742
4.741
4.739
4.745
4.744
4.740
4.738
4.739
4.738
4.729
4.733
4.734
4.737
4.738
4.734
4.735
4.727
4.732
4.727
4.722
4.724
4.725
4.732
4.733
4.724
4.722
4.718
4.720
4.719
4.719
4.716
4.715
4.719
4.721
4.712
4.714
4.710
4.717
4.717
4.716
4.709
4.704
4.697
4.700
4.708
4.716
4.725
4.733
4.739
4.736
4.732
4.721
4.712
4.717
4.712
4.710
4.709
4.721
4.725
4.722
4.712
4.703
4.705
4.704
4.705
4.702
4.696
4.699
4.698
4.695
4.690
4.693
4.696
4.702
4.692
4.690
4.699
4.706
4.710
4.718
4.726
4.734
4.741
4.738
4.737
4.737
4.737
4.731
4.740
4.735
4.728
4.732
4.737
4.731
4.724
4.718
4.711
4.707
4.705
4.704
4.700
4.708
4.705
4.700
4.702
4.693
4.692
4.697
4.693
4.688
4.689
4.686
4.688
4.689
4.696
4.704
4.711
4.718
4.725
4.732
4.732
4.731
4.729
4.731
4.728
4.728
4.733
4.738
4.737
4.735
4.741
4.738
4.736
4.739
4.734
4.738
4.736
4.730
4.728
4.724
4.724
4.720
4.714
4.716
4.707
4.705
4.701
4.699
4.708
4.706
4.711
4.712
4.709
4.712
4.706
4.699
4.692
4.697
4.704
4.711
4.717
4.724
4.731
4.738
4.741
4.741
4.735
4.737
4.739
4.736
4.732
4.734
4.734
4.736
4.731
4.725
4.723
4.720
4.721
4.719
4.727
4.731
4.725
4.730
4.733
4.730
4.725
4.723
4.723
4.722
4.728
4.731
4.722
4.718
4.719
4.718
4.719
4.725
4.723
4.723
4.717
4.710
4.711
4.710
4.702
4.701
4.703
4.703
4.709
4.716
4.722
4.729
4.735
4.741
4.748
4.754
4.750
4.752
4.757
4.752
4.754
4.754
4.756
4.757
4.750
4.746
4.745
4.740
4.746
4.744
4.737
4.732
4.734
4.734
4.735
4.736
4.738
4.738
4.740
4.737
4.734
4.726
4.725
4.723
4.724
4.730
4.738
4.735
4.742
4.737
4.738
4.730
4.727
4.723
4.717
4.715
4.716
4.715
4.719
4.720
4.713
4.712
4.711
4.708
4.713
4.712
4.717
4.723
4.729
4.735
4.741
4.747
4.753
4.759
4.765
4.765
4.767
4.764
4.760
4.764
4.771
4.772
4.767
4.760
4.764
4.762
4.765
4.772
4.770
4.768
4.762
4.766
4.763
4.755
4.750
4.751
4.754
4.753
4.752
4.752
4.749
4.747
4.744
4.742
4.739
4.736
4.737
4.736
4.743
4.750
4.754
4.753
4.754
4.755
4.749
4.747
4.749
4.750
4.745
4.743
4.741
4.732
4.734
4.735
4.742
4.750
4.749
4.748
4.746
4.740
4.738
4.743
4.737
4.740
4.740
4.738
4.741
4.743
4.749
4.754
4.760
4.765
4.770
4.776
4.781
4.787
4.792
4.798
4.802
4.799
4.796
4.793
4.793
4.793
4.795
4.797
4.793
4.798
4.797
4.794
4.793
4.793
4.793
4.792
4.789
4.787
4.782
4.776
4.771
4.767
4.764
4.762
4.765
4.773
4.780
4.785
4.782
4.778
4.774
4.771
4.766
4.772
4.778
4.775
4.774
4.770
4.762
4.759
4.763
4.756
4.757
4.758
4.758
4.755
4.753
4.752
4.751
4.753
4.749
4.744
4.740
4.735
4.731
4.737
4.732
4.735
4.727
4.728
4.724
4.721
4.715
4.719
4.724
4.729
4.734
4.739
4.744
4.749
4.754
4.759
4.764
4.769
4.774
4.779
4.781
4.783
4.784
4.782
4.778
4.778
4.776
4.774
4.772
4.775
4.775
4.773
4.769
4.774
4.774
4.772
4.770
4.767
4.770
4.765
4.759
4.759
4.761
4.758
4.760
4.761
4.759
4.758
4.758
4.752
4.753
4.752
4.750
4.746
4.748
4.750
4.747
4.746
4.751
4.743
4.739
4.738
4.743
4.739
4.741
4.741
4.749
4.746
4.749
4.749
