2.992
3.327
3.499
3.631
3.677
3.775
3.782
3.849
3.905
3.963
3.925
3.910
3.927
3.953
3.974
4.002
4.027
4.035
4.060
4.069
4.091
4.097
4.114
4.133
4.127
4.142
4.167
4.180
4.165
4.189
4.203
4.213
4.223
4.238
4.217
4.228
4.232
4.249
4.259
4.262
4.272
4.281
4.298
4.293
4.273
4.286
4.297
4.299
4.300
4.316
4.322
4.332
4.335
4.330
4.345
4.352
4.361
4.364
4.383
4.373
4.368
4.386
4.369
4.359
4.355
4.368
4.369
4.382
4.368
4.371
4.378
4.381
4.386
4.396
4.407
4.400
4.410
4.414
4.415
4.417
4.419
4.413
4.413
4.415
4.423
4.427
4.431
4.436
4.449
4.440
4.440
4.454
4.447
4.466
4.473
4.461
4.471
4.471
4.472
4.477
4.465
4.459
4.473
4.467
4.485
4.478
4.492
4.498
4.497
4.500
4.499
4.508
4.502
4.508
4.508
4.514
4.497
4.481
4.478
4.469
4.466
4.484
4.472
4.487
4.496
4.493
4.504
4.502
4.496
4.505
4.484
4.491
4.489
4.468
4.487
4.467
4.472
4.484
4.488
4.489
4.492
4.498
4.500
4.490
4.505
4.497
4.499
4.503
4.507
4.502
4.506
4.515
4.528
4.528
4.514
4.522
4.536
4.521
4.503
4.523
4.534
4.512
4.512
4.519
4.527
4.529
4.530
4.523
4.535
4.531
4.529
4.529
4.527
4.545
4.555
4.558
4.551
4.549
4.548
4.572
4.558
4.567
4.554
4.548
4.568
4.577
4.564
4.561
4.552
4.557
4.552
4.544
4.536
4.539
4.538
4.543
4.533
4.532
4.530
4.531
4.533
4.556
4.561
4.554
4.553
4.549
4.538
4.543
4.556
4.559
4.561
4.554
4.541
4.538
4.543
4.564
4.560
4.561
4.556
4.550
4.552
4.548
4.553
4.573
4.589
4.579
4.565
4.568
4.572
4.566
4.559
4.572
4.579
4.579
4.580
4.574
4.571
4.577
4.571
4.576
4.578
4.597
4.607
4.599
4.591
4.598
4.596
4.584
4.579
4.577
4.590
4.608
4.607
4.609
4.595
4.604
4.591
4.577
4.576
4.571
4.587
4.600
4.586
4.578
4.576
4.576
4.576
4.569
4.564
4.579
4.580
4.588
4.604
4.601
4.599
4.591
4.588
4.597
4.583
4.585
4.585
4.590
4.585
4.589
4.605
4.621
4.617
4.610
4.619
4.607
4.605
4.603
4.607
4.611
4.614
4.614
4.607
4.604
4.620
4.635
4.635
4.642
4.642
4.638
4.636
4.630
4.617
4.617
4.606
4.609
4.613
4.618
4.614
4.629
4.623
4.628
4.631
4.625
4.616
4.625
4.628
4.618
4.618
4.615
4.616
4.609
4.606
4.604
4.618
4.632
4.646
4.650
4.657
4.663
4.657
4.657
4.652
4.639
4.636
4.643
4.643
4.659
4.659
4.653
4.648
4.635
4.640
4.641
4.652
4.665
4.675
4.668
4.663
4.674
4.664
4.669
4.667
4.668
4.664
4.656
4.653
4.650
4.637
4.641
4.651
4.640
4.640
4.645
4.657
4.654
4.652
4.650
4.652
4.643
4.638
4.636
4.647
4.652
4.642
4.633
4.624
4.615
4.609
4.613
4.605
4.607
4.612
4.624
4.636
4.640
4.645
4.642
4.636
4.631
4.630
4.631
4.628
4.624
4.633
4.634
4.627
4.620
4.618
4.628
4.633
4.630
4.631
4.623
4.613
4.620
4.624
4.620
4.631
4.642
4.646
4.637
4.636
4.634
4.625
4.631
4.627
4.627
4.628
4.627
4.621
4.623
4.626
4.620
4.610
4.609
4.604
4.607
4.603
4.606
4.612
4.619
4.624
4.628
4.621
4.628
4.634
4.644
4.655
4.658
4.650
4.652
4.650
4.640
4.638
4.639
4.644
4.649
4.639
4.628
4.629
4.633
4.632
4.631
4.637
4.633
4.622
4.619
4.619
4.618
4.614
4.609
4.613
4.615
4.606
4.608
4.618
4.628
4.637
4.647
4.657
4.664
4.663
4.666
4.675
4.668
4.664
4.664
4.656
4.662
4.656
4.655
4.646
4.639
4.630
4.628
4.627
4.630
4.630
4.631
4.625
4.623
4.633
4.634
4.632
4.634
4.632
4.634
4.628
4.622
4.627
4.626
4.625
4.633
4.633
4.641
4.650
4.659
4.668
4.677
4.668
4.671
4.663
4.652
4.653
4.656
4.664
4.662
4.662
4.674
4.669
4.671
4.664
4.663
4.662
4.654
4.651
4.654
4.657
4.654
4.664
4.664
4.652
4.642
4.646
4.647
4.646
4.641
4.640
4.641
4.649
4.650
4.647
4.643
4.639
4.640
4.628
4.635
4.644
4.652
4.661
4.669
4.677
4.686
4.694
4.703
4.707
4.708
4.711
4.698
4.703
4.698
4.694
4.689
4.695
4.686
4.690
4.693
4.691
4.685
4.679
4.678
4.678
4.678
4.684
4.681
4.691
4.690
4.683
4.686
4.684
4.685
4.688
4.692
4.699
4.694
4.694
4.685
4.685
4.680
4.671
4.668
4.676
4.678
4.672
4.664
4.656
4.662
4.669
4.665
4.665
4.663
4.671
4.679
4.686
4.694
4.702
4.709
4.703
4.697
4.701
4.700
4.695
4.684
4.677
4.677
4.682
4.681
4.683
4.679
4.675
4.674
4.669
4.668
4.668
4.669
4.663
4.670
4.668
4.663
4.658
4.662
4.654
4.654
4.652
4.655
4.641
4.650
4.651
4.646
4.646
4.652
4.663
4.667
4.664
4.662
4.666
4.662
4.660
4.651
4.641
4.643
4.645
4.635
4.632
4.629
4.631
4.629
4.637
4.643
4.650
4.657
4.665
4.671
4.678
4.685
4.692
4.699
4.706
4.706
4.715
4.714
4.709
4.706
4.702
4.701
4.706
4.700
4.700
4.695
4.692
4.696
4.687
4.687
4.685
4.686
4.695
4.698
4.700
4.699
4.696
4.699
4.701
4.692
4.688
4.692
4.690
4.690
4.687
4.679
4.686
4.689
4.691
4.690
4.693
4.691
4.688
4.690
4.686
4.682
4.685
4.679
4.676
4.676
4.677
4.679
4.673
4.673
4.667
4.670
4.670
4.676
4.673
4.669
4.670
4.672
4.680
4.676
4.670
4.673
4.675
4.684
4.693
4.692
4.690
4.687
4.678
4.683
4.685
4.687
4.694
4.694
4.700
4.706
4.712
4.719
4.725
4.731
4.735
4.734
4.728
4.729
4.729
4.725
4.716
4.712
4.706
4.707
4.699
4.698
4.698
4.699
4.698
4.694
4.692
4.691
4.686
4.679
4.673
4.681
4.678
4.675
4.672
4.669
4.670
4.665
4.667
4.668
4.673
4.673
4.670
4.668
4.668
4.677
4.679
4.676
4.672
4.677
4.678
4.668
4.664
4.665
4.661
4.662
4.664
4.670
4.667
4.671
4.671
4.661
4.665
4.669
4.665
4.658
4.652
4.647
4.639
4.638
4.636
4.637
4.630
4.630
4.632
4.630
4.629
4.627
4.621
4.625
4.622
4.628
4.630
4.630
4.634
4.637
4.637
4.640
4.646
4.651
4.657
4.663
4.668
4.674
4.679
4.685
4.690
4.696
4.701
4.707
4.713
4.718
4.724
4.730
4.735
4.734
4.734
4.737
4.731
4.721
4.728
4.725
4.727
4.735
4.741
4.746
4.743
4.738
4.737
4.740
4.739
4.739
4.740
4.732
4.729
4.725
4.722
4.720
4.716
4.716
4.710
4.713
4.707
4.698
4.696
4.697
4.701
4.698
4.699
4.702
4.694
4.702
4.704
4.703
4.698
4.701
4.698
4.695
4.692
4.689
4.692
4.690
4.684
4.679
4.674
4.669
4.663
4.660
4.656
4.649
4.647
4.645
4.651
4.652
4.649
4.650
4.654
4.659
4.653
4.644
4.640
4.640
4.641
4.648
4.648
4.646
4.650
4.658
4.656
4.658
4.664
4.659
4.658
4.657
4.653
4.654
4.656
4.649
4.647
4.651
4.657
4.656
4.655
4.655
4.660
4.665
4.667
4.672
4.678
4.674
4.673
4.668
4.668
4.671
4.672
4.669
4.669
4.674
4.672
4.666
4.660
4.665
4.670
4.675
4.680
4.685
4.690
4.694
4.699
4.704
4.709
4.714
4.719
4.721
4.720
4.722
4.719
4.721
4.717
4.715
4.723
4.720
4.719
4.711
4.712
4.716
4.717
4.716
4.716
4.715
4.710
4.706
4.706
4.704
4.700
4.704
4.701
4.699
4.698
4.700
4.705
4.708
4.705
4.707
4.706
4.706
4.709
4.709
