2.994
3.332
3.509
3.632
3.710
3.780
3.842
3.887
3.913
3.969
3.973
4.010
4.050
4.089
4.055
4.081
4.105
4.128
4.149
4.174
4.192
4.208
4.228
4.245
4.205
4.169
4.183
4.191
4.198
4.213
4.217
4.232
4.234
4.249
4.250
4.260
4.272
4.271
4.283
4.294
4.293
4.301
4.312
4.317
4.318
4.327
4.332
4.341
4.349
4.344
4.351
4.358
4.367
4.374
4.381
4.368
4.378
4.383
4.389
4.394
4.398
4.407
4.414
4.402
4.408
4.416
4.419
4.421
4.430
4.432
4.434
4.446
4.447
4.453
4.438
4.443
4.449
4.448
4.453
4.457
4.461
4.465
4.469
4.473
4.479
4.481
4.488
4.489
4.488
4.497
4.490
4.486
4.488
4.484
4.491
4.492
4.496
4.501
4.501
4.508
4.507
4.512
4.512
4.514
4.523
4.525
4.527
4.530
4.526
4.533
4.535
4.536
4.545
4.546
4.551
4.550
4.553
4.538
4.537
4.530
4.534
4.534
4.538
4.539
4.540
4.544
4.551
4.555
4.556
4.561
4.564
4.555
4.557
4.561
4.559
4.563
4.567
4.569
4.575
4.577
4.581
4.579
4.583
4.586
4.586
4.586
4.581
4.585
4.592
4.590
4.594
4.594
4.597
4.599
4.608
4.608
4.605
4.610
4.609
4.613
4.612
4.623
4.620
4.621
4.616
4.620
4.620
4.623
4.620
4.608
4.600
4.596
4.589
4.597
4.598
4.602
4.611
4.601
4.606
4.608
4.614
4.616
4.611
4.616
4.614
4.616
4.614
4.621
4.619
4.629
4.623
4.620
4.625
4.623
4.623
4.618
4.623
4.618
4.627
4.624
4.631
4.627
4.631
4.634
4.631
4.637
4.634
4.643
4.641
4.645
4.647
4.643
4.652
4.645
4.647
4.646
4.650
4.648
4.649
4.660
4.657
4.657
4.666
4.662
4.666
4.667
4.657
4.654
4.653
4.659
4.660
4.659
4.668
4.656
4.658
4.660
4.658
4.662
4.668
4.667
4.666
4.671
4.668
4.667
4.677
4.675
4.671
4.683
4.683
4.679
4.685
4.690
4.685
4.684
4.688
4.687
4.690
4.686
4.685
4.679
4.693
4.697
4.693
4.689
4.702
4.698
4.701
4.697
4.705
4.708
4.707
4.703
4.710
4.709
4.705
4.711
4.710
4.708
4.699
4.705
4.702
4.698
4.701
4.716
4.712
4.711
4.710
4.708
4.712
4.703
4.704
4.709
4.707
4.705
4.702
4.711
4.716
4.716
4.710
4.709
4.721
4.722
4.721
4.722
4.721
4.728
4.727
4.727
4.724
4.723
4.735
4.736
4.734
4.736
4.726
4.739
4.738
4.733
4.726
4.722
4.716
4.709
4.704
4.711
4.704
4.700
4.702
4.700
4.704
4.698
4.696
4.695
4.694
4.705
4.713
4.708
4.708
4.706
4.704
4.711
4.718
4.717
4.716
4.712
4.705
4.714
4.712
4.712
4.713
4.711
4.713
4.717
4.724
4.720
4.718
4.714
4.716
4.717
4.727
4.730
4.732
4.728
4.729
4.734
4.732
4.736
4.732
4.725
4.720
4.711
4.716
4.720
4.720
4.716
4.716
4.719
4.716
4.720
4.724
4.723
4.713
4.716
4.708
4.708
4.718
4.717
4.715
4.719
4.716
4.719
4.715
4.714
4.724
4.716
4.716
4.716
4.715
4.709
4.710
4.720
4.729
4.727
4.726
4.723
4.721
4.720
4.724
4.722
4.734
4.744
4.742
4.734
4.731
4.730
4.727
4.730
4.731
4.738
4.737
4.739
4.737
4.731
4.726
4.728
4.726
4.734
4.745
4.742
4.749
4.746
4.740
4.734
4.732
4.739
4.737
4.746
4.748
4.750
4.746
4.747
4.746
4.749
4.746
4.744
4.745
4.755
4.764
4.768
4.762
4.758
4.751
4.757
4.754
4.749
4.746
4.750
4.749
4.752
4.753
4.752
4.749
4.749
4.745
4.746
4.745
4.753
4.764
4.755
4.746
4.747
4.749
4.749
4.742
4.741
4.738
4.749
4.757
4.763
4.764
4.764
4.762
4.760
4.760
4.757
4.756
4.753
4.754
4.758
4.767
4.774
4.768
4.768
4.773
4.777
4.768
4.761
4.753
4.753
4.756
4.761
4.768
4.777
4.775
4.777
4.773
4.772
4.773
4.775
4.773
4.771
4.771
4.768
4.767
4.777
4.784
4.791
4.792
4.790
4.790
4.797
4.790
4.783
4.779
4.783
4.783
4.779
4.778
4.785
4.794
4.791
4.789
4.791
4.789
4.786
4.786
4.782
4.781
4.783
4.781
4.782
4.778
4.775
4.778
4.771
4.764
4.766
4.765
4.764
4.764
4.764
4.762
4.764
4.762
4.769
4.778
4.775
4.776
4.779
4.775
4.775
4.773
4.771
4.770
4.766
4.762
4.755
4.753
4.760
4.768
4.766
4.770
4.766
4.765
4.764
4.768
4.772
4.768
4.768
4.765
4.764
4.757
4.755
4.756
4.763
4.771
4.777
4.778
4.775
4.776
4.774
4.778
4.774
4.773
4.772
4.773
4.775
4.776
4.775
4.776
4.775
4.773
4.772
4.781
4.786
4.789
4.782
4.787
4.788
4.784
4.782
4.776
4.774
4.771
4.769
4.771
4.768
4.776
4.774
4.773
4.775
4.781
4.788
4.787
4.786
4.786
4.779
4.773
4.775
4.776
4.779
4.776
4.771
4.771
4.769
4.768
4.769
4.765
4.768
4.775
4.782
4.789
4.796
4.800
4.794
4.795
4.793
4.787
4.786
4.794
4.788
4.784
4.783
4.787
4.790
4.786
4.785
4.787
4.788
4.792
4.788
4.789
4.797
4.803
4.807
4.803
4.801
4.803
4.801
4.798
4.797
4.792
4.796
4.798
4.796
4.795
4.793
4.787
4.783
4.790
4.788
4.783
4.786
4.794
4.799
4.806
4.805
4.806
4.805
4.803
4.801
4.806
4.802
4.800
4.804
4.805
4.810
4.805
4.805
4.801
4.801
4.797
4.802
4.801
4.801
4.798
4.796
4.801
4.808
4.814
4.821
4.827
4.832
4.828
4.827
4.827
4.826
4.825
4.820
4.816
4.812
4.812
4.813
4.814
4.813
4.820
4.818
4.816
4.812
4.805
4.805
4.805
4.810
4.812
4.818
4.823
4.821
4.816
4.815
4.819
4.820
4.816
4.812
4.808
4.802
4.798
4.793
4.795
4.791
4.792
4.790
4.789
4.790
4.792
4.797
4.795
4.796
4.797
4.804
4.808
4.815
4.820
4.823
4.822
4.821
4.823
4.821
4.814
4.816
4.814
4.808
4.801
4.802
4.797
4.797
4.800
4.804
4.806
4.801
4.797
4.791
4.789
4.786
4.786
4.791
4.797
4.802
4.808
4.813
4.816
4.812
4.820
4.823
4.825
4.826
4.819
4.820
4.819
4.818
4.817
4.818
4.817
4.818
4.817
4.815
4.816
4.818
4.814
4.813
4.812
4.810
4.811
4.810
4.803
4.802
4.798
4.801
4.806
4.813
4.817
4.823
4.827
4.824
4.827
4.823
4.822
4.826
4.825
4.823
4.822
4.827
4.825
4.827
4.825
4.824
4.825
4.821
4.825
4.827
4.828
4.823
4.825
4.827
4.825
4.826
4.825
4.823
4.817
4.816
4.816
4.815
4.816
4.820
4.825
4.831
4.834
4.840
4.846
4.846
4.842
4.842
4.841
4.838
4.838
4.838
4.838
4.832
4.834
4.837
4.842
4.843
4.838
4.838
4.841
4.846
4.844
4.848
4.846
4.845
4.844
4.843
4.839
4.837
4.833
4.832
4.830
4.829
4.830
4.831
4.830
4.832
4.838
4.842
4.847
4.853
4.850
4.854
4.852
4.856
4.858
4.857
4.860
4.854
4.850
4.846
4.846
4.845
4.842
4.846
4.852
4.851
4.850
4.846
4.846
4.842
4.839
4.835
4.831
4.827
4.823
4.824
4.822
4.820
4.822
4.823
4.822
4.821
4.823
4.827
4.833
4.837
4.842
4.848
4.852
4.853
4.849
4.846
4.853
4.851
4.852
4.846
4.846
4.843
4.841
4.843
4.846
4.848
4.849
4.845
4.846
4.845
4.847
4.846
4.846
4.840
4.834
4.835
4.833
4.832
4.833
4.834
4.834
4.834
4.833
4.834
4.834
4.835
4.836
4.835
4.833
4.837
4.841
4.842
4.842
4.846
4.852
4.856
4.860
4.865
4.866
4.867
4.864
4.864
4.864
4.871
4.872
4.873
4.868
4.865
4.864
4.859
4.861
4.862
4.864
4.859
4.861
4.862
4.861
4.860
4.858
4.862
