2.956
3.313
3.411
3.606
3.524
3.585
3.664
3.716
3.777
3.803
3.811
3.852
3.902
3.893
3.908
3.942
3.975
4.004
4.012
4.003
3.999
4.036
4.061
4.014
4.071
4.058
4.109
4.121
4.101
4.130
4.114
4.141
4.162
4.177
4.122
4.161
4.128
4.101
4.133
4.137
4.133
4.173
4.173
4.144
4.157
4.172
4.180
4.202
4.205
4.219
4.216
4.225
4.221
4.205
4.188
4.200
4.193
4.182
4.214
4.201
4.196
4.221
4.217
4.211
4.259
4.233
4.252
4.258
4.276
4.234
4.227
4.264
4.239
4.212
4.236
4.289
4.276
4.276
4.250
4.274
4.313
4.306
4.267
4.264
4.282
4.311
4.311
4.307
4.292
4.293
4.309
4.333
4.338
4.316
4.332
4.298
4.299
4.344
4.374
4.346
4.319
4.296
4.272
4.295
4.330
4.328
4.322
4.302
4.278
4.263
4.276
4.289
4.327
4.316
4.313
4.297
4.307
4.304
4.301
4.263
4.271
4.306
4.341
4.337
4.318
4.314
4.314
4.284
4.275
4.283
4.284
4.291
4.297
4.329
4.340
4.337
4.351
4.337
4.346
4.332
4.324
4.306
4.301
4.300
4.295
4.312
4.330
4.341
4.370
4.399
4.408
4.380
4.397
4.388
4.373
4.366
4.351
4.351
4.341
4.346
4.328
4.323
4.326
4.322
4.349
4.372
4.380
4.380
4.374
4.370
4.360
4.355
4.337
4.337
4.333
4.319
4.322
4.339
4.332
4.311
4.321
4.322
4.315
4.311
4.328
4.351
4.375
4.398
4.421
4.440
4.441
4.449
4.425
4.428
4.433
4.415
4.398
4.380
4.362
4.345
4.328
4.325
4.316
4.304
4.301
4.279
4.303
4.327
4.305
4.301
4.313
4.333
4.353
4.374
4.394
4.415
4.435
4.449
4.435
4.424
4.406
4.381
4.380
4.363
4.373
4.348
4.353
4.355
4.367
4.374
4.384
4.378
4.356
4.338
4.318
4.324
4.315
4.314
4.308
4.315
4.328
4.319
4.312
4.293
4.287
4.303
4.321
4.338
4.356
4.373
4.391
4.408
4.426
4.434
4.454
4.456
4.438
4.425
4.404
4.403
4.401
4.387
4.385
4.370
4.385
4.408
4.394
4.373
4.355
4.365
4.357
4.345
4.329
4.322
4.333
4.349
4.359
4.344
4.355
4.369
4.371
4.384
4.368
4.356
4.364
4.345
4.346
4.329
4.336
4.332
4.330
4.317
4.332
4.332
4.332
4.321
4.333
4.362
4.352
4.367
4.382
4.396
4.411
4.425
4.440
4.454
4.469
4.453
4.454
4.440
4.444
4.435
4.427
4.425
4.429
4.417
4.422
4.415
4.406
4.389
4.395
4.382
4.372
4.375
4.385
4.401
4.378
4.384
4.380
4.354
4.357
4.356
4.351
4.354
4.333
4.338
4.333
4.329
4.342
4.325
4.317
4.299
4.322
4.310
4.323
4.300
4.304
4.299
4.305
4.292
4.313
4.308
4.309
4.295
4.299
4.287
4.300
4.318
4.336
4.351
4.351
4.342
4.346
4.341
4.341
4.323
4.329
4.324
4.318
4.322
4.325
4.327
4.337
4.349
4.361
4.372
4.384
4.396
4.407
4.419
4.430
4.442
4.454
4.465
4.474
4.470
4.465
4.460
4.445
4.430
4.415
4.423
4.418
4.432
4.437
4.414
4.400
4.387
4.388
4.398
4.391
4.388
4.378
4.383
4.372
4.372
4.382
4.400
4.389
4.401
4.405
4.395
4.388
4.378
4.379
4.389
4.395
4.378
4.364
4.362
4.364
4.379
4.391
4.406
4.406
4.405
4.418
4.426
4.413
4.404
4.399
4.396
4.406
4.398
4.413
4.401
4.409
4.394
4.381
4.395
4.403
4.386
4.368
4.372
4.372
4.365
4.349
4.346
4.361
4.355
4.344
4.338
4.334
4.336
4.342
4.346
4.356
4.355
4.342
4.353
4.344
4.338
4.339
4.354
4.344
4.334
4.324
4.314
4.311
4.309
4.312
4.319
4.316
4.320
4.320
4.336
4.339
4.332
4.335
4.332
4.321
4.313
4.306
4.312
4.308
4.312
4.305
4.300
4.289
4.276
4.276
4.285
4.293
4.302
4.311
4.319
4.328
4.337
4.346
4.354
4.363
4.372
4.380
4.389
4.398
4.406
4.415
4.424
4.432
4.441
4.450
4.451
4.455
4.463
4.476
4.488
4.500
4.511
4.515
4.526
4.528
4.520
4.510
4.491
4.490
4.476
4.470
4.468
4.459
4.453
4.452
4.442
4.442
4.436
4.432
4.430
4.438
4.441
4.435
4.434
4.425
4.431
4.415
4.423
4.415
4.410
4.424
4.427
4.434
4.423
4.419
4.418
4.415
4.413
4.421
4.429
4.425
4.426
4.425
4.429
4.421
4.434
4.439
4.441
4.445
4.437
4.446
4.444
4.449
4.443
4.448
4.442
4.425
4.423
4.415
4.406
4.397
4.402
4.399
4.405
4.401
4.397
4.390
4.383
4.383
4.378
4.374
4.364
4.355
4.365
4.358
4.368
4.371
4.367
4.358
4.355
4.355
4.352
4.352
4.335
4.355
4.348
4.340
4.337
4.329
4.338
4.336
4.330
4.337
4.338
4.347
4.339
4.336
4.330
4.341
4.338
4.347
4.337
4.332
4.325
4.319
4.330
4.327
4.319
4.310
4.302
4.299
4.309
4.319
4.329
4.339
4.349
4.359
4.356
4.358
4.356
4.355
4.365
4.350
4.344
4.350
4.366
4.363
4.370
4.375
4.384
4.379
4.360
4.358
4.354
4.367
4.377
4.383
4.388
4.389
4.400
4.401
4.382
4.373
4.376
4.370
4.368
4.362
4.367
4.361
4.350
4.356
4.356
4.374
4.361
4.353
4.365
4.351
4.345
4.341
4.330
4.320
4.310
4.298
4.314
4.314
4.322
4.318
4.316
4.313
4.316
4.306
4.313
4.312
4.311
4.316
4.309
4.308
4.302
4.300
4.294
4.292
4.297
4.299
4.307
4.318
4.316
4.325
4.322
4.327
4.318
4.319
4.320
4.318
4.319
4.315
4.312
4.311
4.305
4.307
4.306
4.313
4.300
4.295
4.294
4.300
4.311
4.307
4.312
4.308
4.302
4.301
4.303
4.297
4.294
4.300
4.286
4.288
4.276
4.273
4.277
4.273
4.281
4.296
4.290
4.296
4.302
4.307
4.313
4.319
4.325
4.331
4.336
4.342
4.348
4.354
4.360
4.365
4.371
4.377
4.383
4.389
4.394
4.400
4.406
4.412
4.417
4.423
4.429
4.435
4.441
4.446
4.452
4.458
4.464
4.470
4.475
4.481
4.475
4.477
4.482
4.490
4.485
4.485
4.490
4.494
4.490
4.481
4.473
4.488
4.475
4.463
4.467
4.461
4.454
4.463
4.454
4.459
4.463
4.459
4.467
4.457
4.454
4.453
4.450
4.441
4.442
4.448
4.449
4.440
4.445
4.447
4.443
4.451
4.454
4.450
4.452
4.445
4.450
4.451
4.447
4.439
4.435
4.437
4.435
4.426
4.426
4.430
4.439
4.444
4.452
4.455
4.463
4.469
4.474
4.467
4.459
4.459
4.449
4.436
4.430
4.425
4.428
4.425
4.418
4.419
4.433
4.438
4.435
4.442
4.447
4.451
4.449
4.451
4.441
4.427
4.425
4.428
4.437
4.440
4.442
4.449
4.457
4.464
4.470
4.470
4.480
4.475
4.468
4.464
4.453
4.458
4.469
4.456
4.450
4.446
4.433
4.426
4.430
4.424
4.413
4.414
4.405
4.412
4.409
4.415
4.416
4.412
4.411
4.399
4.411
4.406
4.401
4.411
4.410
4.417
4.428
4.425
4.427
4.429
4.424
4.408
4.400
4.392
4.386
4.394
4.384
4.385
4.386
4.386
4.396
4.406
4.408
4.404
4.405
4.399
4.399
4.395
4.402
4.403
4.411
4.412
4.405
4.394
4.395
4.400
4.398
4.406
4.409
4.422
4.417
4.419
4.409
4.409
4.413
4.408
4.411
4.409
4.405
4.389
4.382
4.386
4.385
4.380
4.386
4.389
4.390
4.394
4.400
4.391
4.395
4.391
4.380
4.373
4.369
4.365
4.366
4.363
4.361
4.358
4.353
4.359
4.371
4.378
4.377
4.376
4.372
4.366
4.359
4.353
4.350
4.359
4.356
4.358
4.352
4.348
4.358
4.356
4.352
4.344
4.345
4.353
4.362
4.370
4.368
4.359
4.351
4.347
4.343
4.346
4.350
4.345
4.335
4.330
4.328
4.337
4.335
4.338
4.342
4.327
4.328
4.335
4.334
4.335
4.333
