2.986
3.310
3.457
3.597
3.645
3.741
3.836
3.745
3.791
3.826
3.867
3.903
3.913
3.936
3.970
3.974
4.014
4.035
4.043
4.064
4.083
4.071
4.099
4.107
4.106
4.135
4.153
4.139
4.152
4.149
4.182
4.185
4.181
4.212
4.216
4.231
4.225
4.248
4.255
4.212
4.230
4.246
4.233
4.229
4.251
4.257
4.261
4.281
4.296
4.278
4.282
4.291
4.309
4.312
4.323
4.320
4.335
4.341
4.340
4.352
4.337
4.320
4.332
4.357
4.362
4.359
4.372
4.383
4.378
4.381
4.400
4.386
4.366
4.341
4.361
4.362
4.374
4.370
4.391
4.361
4.353
4.351
4.343
4.351
4.360
4.355
4.386
4.354
4.383
4.361
4.369
4.395
4.387
4.394
4.403
4.384
4.406
4.388
4.379
4.416
4.400
4.385
4.412
4.413
4.412
4.423
4.431
4.426
4.416
4.446
4.448
4.436
4.432
4.460
4.445
4.438
4.440
4.426
4.401
4.407
4.438
4.425
4.428
4.410
4.435
4.435
4.431
4.413
4.416
4.440
4.429
4.429
4.426
4.421
4.454
4.452
4.449
4.439
4.427
4.445
4.456
4.464
4.468
4.454
4.461
4.454
4.485
4.474
4.479
4.475
4.474
4.457
4.478
4.492
4.470
4.455
4.456
4.436
4.457
4.469
4.487
4.479
4.469
4.457
4.449
4.449
4.475
4.496
4.493
4.483
4.479
4.472
4.468
4.472
4.477
4.499
4.514
4.514
4.513
4.509
4.512
4.495
4.498
4.477
4.501
4.526
4.524
4.502
4.493
4.487
4.482
4.490
4.480
4.482
4.505
4.526
4.525
4.525
4.527
4.530
4.525
4.522
4.529
4.514
4.523
4.525
4.528
4.549
4.557
4.544
4.547
4.543
4.540
4.538
4.547
4.535
4.517
4.517
4.521
4.542
4.556
4.543
4.549
4.532
4.526
4.530
4.535
4.525
4.510
4.495
4.486
4.505
4.524
4.524
4.510
4.513
4.514
4.520
4.513
4.520
4.513
4.519
4.508
4.494
4.496
4.497
4.501
4.512
4.527
4.522
4.520
4.515
4.510
4.499
4.498
4.509
4.500
4.513
4.517
4.513
4.514
4.487
4.495
4.484
4.497
4.514
4.531
4.545
4.542
4.526
4.532
4.535
4.525
4.519
4.512
4.500
4.498
4.496
4.493
4.496
4.500
4.510
4.506
4.516
4.502
4.504
4.520
4.535
4.544
4.545
4.537
4.529
4.529
4.530
4.527
4.532
4.535
4.535
4.534
4.529
4.533
4.525
4.509
4.517
4.504
4.512
4.507
4.503
4.507
4.512
4.518
4.533
4.547
4.562
4.576
4.577
4.561
4.563
4.562
4.566
4.569
4.561
4.557
4.537
4.538
4.534
4.536
4.542
4.548
4.542
4.534
4.547
4.551
4.544
4.541
4.531
4.534
4.537
4.529
4.525
4.539
4.552
4.565
4.578
4.592
4.604
4.598
4.599
4.596
4.609
4.612
4.617
4.608
4.594
4.589
4.590
4.579
4.576
4.566
4.554
4.552
4.551
4.545
4.564
4.556
4.553
4.546
4.559
4.548
4.545
4.534
4.523
4.512
4.522
4.535
4.547
4.559
4.571
4.569
4.571
4.570
4.579
4.590
4.590
4.573
4.566
4.559
4.558
4.558
4.545
4.557
4.569
4.561
4.566
4.562
4.545
4.550
4.547
4.545
4.549
4.550
4.547
4.545
4.542
4.544
4.547
4.537
4.525
4.524
4.517
4.516
4.518
4.516
4.524
4.521
4.536
4.546
4.546
4.557
4.568
4.579
4.590
4.601
4.611
4.622
4.627
4.630
4.625
4.627
4.621
4.625
4.637
4.634
4.624
4.613
4.609
4.609
4.611
4.613
4.618
4.612
4.607
4.602
4.604
4.596
4.589
4.581
4.573
4.581
4.572
4.561
4.552
4.550
4.551
4.548
4.547
4.547
4.545
4.547
4.534
4.526
4.522
4.512
4.518
4.509
4.504
4.512
4.522
4.532
4.541
4.551
4.560
4.570
4.580
4.589
4.588
4.582
4.577
4.572
4.578
4.585
4.587
4.580
4.584
4.598
4.590
4.590
4.596
4.582
4.578
4.577
4.581
4.575
4.571
4.570
4.565
4.565
4.572
4.561
4.558
4.564
4.570
4.580
4.591
4.576
4.582
4.588
4.592
4.582
4.579
4.585
4.582
4.577
4.575
4.563
4.555
4.547
4.548
4.551
4.545
4.539
4.551
4.551
4.548
4.543
4.555
4.544
4.541
4.545
4.538
4.533
4.545
4.538
4.540
4.548
4.539
4.537
4.546
4.554
4.563
4.571
4.579
4.588
4.596
4.605
4.613
4.622
4.626
4.626
4.625
4.624
4.615
4.609
4.614
4.616
4.620
4.623
4.612
4.601
4.598
4.589
4.581
4.569
4.564
4.567
4.568
4.567
4.566
4.566
4.560
4.566
4.577
4.587
4.578
4.582
4.584
4.583
4.575
4.570
4.574
4.568
4.570
4.571
4.580
4.578
4.581
4.577
4.583
4.578
4.577
4.572
4.575
4.571
4.579
4.579
4.573
4.562
4.556
4.554
4.559
4.559
4.553
4.557
4.554
4.553
4.551
4.546
4.543
4.536
4.530
4.531
4.528
4.528
4.519
4.518
4.530
4.526
4.524
4.527
4.529
4.532
4.530
4.536
4.536
4.540
4.541
4.551
4.560
4.554
4.560
4.567
4.574
4.582
4.589
4.596
4.603
4.610
4.618
4.625
4.632
4.639
4.646
4.654
4.652
4.647
4.640
4.649
4.638
4.639
4.629
4.629
4.630
4.631
4.623
4.621
4.631
4.628
4.626
4.625
4.636
4.645
4.644
4.645
4.637
4.634
4.625
4.615
4.605
4.598
4.594
4.591
4.588
4.592
4.603
4.606
4.610
4.609
4.610
4.613
4.613
4.604
4.595
4.590
4.584
4.583
4.581
4.579
4.580
4.583
4.582
4.589
4.600
4.608
4.601
4.604
4.600
4.596
4.595
4.595
4.595
4.595
4.598
4.607
4.617
4.622
4.615
4.616
4.607
4.609
4.600
4.597
4.591
4.584
4.576
4.578
4.581
4.578
4.569
4.569
4.577
4.573
4.575
4.570
4.566
4.559
4.564
4.568
4.559
4.552
4.550
4.555
4.565
4.566
4.567
4.562
4.556
4.551
4.545
4.540
4.542
4.546
4.546
4.543
4.540
4.537
4.541
4.543
4.542
4.535
4.523
4.527
4.533
4.539
4.545
4.551
4.557
4.563
4.569
4.575
4.581
4.587
4.593
4.599
4.605
4.611
4.617
4.623
4.621
4.623
4.614
4.621
4.627
4.629
4.628
4.624
4.618
4.619
4.617
4.605
4.602
4.599
4.603
4.594
4.591
4.590
4.592
4.595
4.590
4.599
4.596
4.605
4.613
4.611
4.608
4.611
4.616
4.613
4.614
4.620
4.617
4.618
4.616
4.609
4.612
4.602
4.608
4.614
4.602
4.603
4.613
4.614
4.614
4.613
4.614
4.617
4.612
4.608
4.599
4.599
4.599
4.597
4.603
4.593
4.595
4.587
4.593
4.594
4.592
4.585
4.583
4.585
4.580
4.580
4.592
4.585
4.586
4.587
4.581
4.573
4.579
4.578
4.578
4.571
4.573
4.568
4.562
4.568
4.563
4.570
4.567
4.561
4.562
4.566
4.559
4.555
4.559
4.561
4.560
4.556
4.565
4.561
4.562
4.567
4.570
4.570
4.570
4.563
4.558
4.559
4.553
4.550
4.548
4.550
4.552
4.561
4.563
4.569
4.561
4.557
4.555
4.561
4.561
4.554
4.560
4.558
4.551
4.549
4.548
4.561
4.563
4.561
4.565
4.562
4.558
4.561
4.562
4.560
4.567
4.567
4.572
4.579
4.584
4.579
4.585
4.584
4.580
4.575
4.570
4.568
4.577
4.573
4.567
4.561
4.554
4.548
4.543
4.542
4.535
4.536
4.534
4.539
4.542
4.548
4.542
4.534
4.535
4.532
4.535
4.538
4.541
4.541
4.542
4.538
4.533
4.530
4.521
4.518
4.521
4.525
4.530
4.535
4.540
4.545
4.549
4.554
4.559
4.564
4.569
4.574
4.578
4.583
4.588
4.593
4.598
4.602
4.607
4.612
4.617
4.622
4.626
4.631
4.636
4.641
4.646
4.650
4.655
4.652
4.649
4.654
4.652
4.651
4.655
4.656
4.662
4.670
4.675
4.679
4.672
4.671
4.668
4.664
4.657
4.655
4.652
4.646
4.651
4.652
4.656
4.657
4.652
4.657
4.654
4.646
4.646
4.644
4.652
4.650
4.644
4.648
4.651
