2.987
3.321
3.499
3.636
3.671
3.780
3.776
3.852
3.908
3.964
3.919
3.908
3.926
3.952
3.974
3.992
4.027
4.040
4.067
4.074
4.096
4.093
4.119
4.138
4.131
4.146
4.165
4.183
4.167
4.190
4.203
4.212
4.231
4.232
4.218
4.230
4.232
4.250
4.269
4.259
4.282
4.287
4.291
4.282
4.280
4.288
4.303
4.290
4.304
4.316
4.324
4.330
4.332
4.332
4.349
4.357
4.356
4.372
4.371
4.360
4.383
4.378
4.358
4.360
4.356
4.362
4.369
4.379
4.370
4.364
4.378
4.374
4.380
4.394
4.392
4.389
4.399
4.409
4.415
4.431
4.411
4.409
4.420
4.411
4.417
4.437
4.440
4.434
4.439
4.445
4.443
4.445
4.461
4.459
4.464
4.476
4.473
4.485
4.470
4.476
4.468
4.457
4.470
4.467
4.485
4.476
4.490
4.494
4.497
4.497
4.510
4.499
4.513
4.506
4.520
4.503
4.487
4.470
4.468
4.463
4.479
4.474
4.477
4.496
4.486
4.494
4.491
4.503
4.507
4.490
4.482
4.490
4.474
4.488
4.472
4.469
4.489
4.488
4.483
4.486
4.497
4.499
4.485
4.507
4.497
4.496
4.498
4.510
4.496
4.502
4.511
4.525
4.524
4.512
4.520
4.537
4.524
4.504
4.520
4.530
4.515
4.508
4.517
4.527
4.527
4.528
4.524
4.534
4.533
4.528
4.527
4.524
4.545
4.554
4.556
4.548
4.546
4.548
4.570
4.558
4.565
4.554
4.548
4.569
4.573
4.561
4.560
4.547
4.558
4.552
4.541
4.536
4.540
4.539
4.541
4.530
4.530
4.529
4.523
4.536
4.559
4.558
4.556
4.545
4.547
4.534
4.546
4.558
4.561
4.562
4.557
4.538
4.534
4.547
4.567
4.558
4.557
4.549
4.546
4.548
4.549
4.558
4.578
4.581
4.569
4.560
4.560
4.572
4.559
4.558
4.577
4.585
4.580
4.579
4.572
4.570
4.567
4.577
4.569
4.585
4.603
4.603
4.594
4.593
4.596
4.591
4.582
4.576
4.579
4.597
4.609
4.604
4.604
4.594
4.599
4.585
4.572
4.565
4.578
4.595
4.591
4.585
4.573
4.577
4.578
4.570
4.560
4.574
4.578
4.580
4.597
4.606
4.591
4.595
4.583
4.593
4.584
4.585
4.586
4.581
4.577
4.582
4.599
4.615
4.614
4.612
4.611
4.614
4.601
4.604
4.602
4.613
4.610
4.616
4.602
4.607
4.615
4.630
4.635
4.638
4.640
4.638
4.639
4.625
4.623
4.613
4.613
4.603
4.611
4.613
4.614
4.625
4.629
4.624
4.626
4.620
4.620
4.621
4.624
4.620
4.614
4.614
4.612
4.608
4.606
4.602
4.616
4.630
4.644
4.650
4.654
4.659
4.657
4.658
4.653
4.636
4.634
4.641
4.643
4.656
4.658
4.650
4.645
4.633
4.639
4.638
4.651
4.665
4.669
4.666
4.662
4.674
4.665
4.668
4.663
4.662
4.662
4.656
4.650
4.650
4.637
4.642
4.648
4.639
4.641
4.646
4.654
4.650
4.653
4.648
4.652
4.640
4.636
4.634
4.649
4.650
4.641
4.632
4.623
4.614
4.609
4.610
4.603
4.609
4.614
4.626
4.638
4.640
4.645
4.642
4.635
4.631
4.626
4.630
4.625
4.627
4.629
4.632
4.624
4.620
4.616
4.629
4.629
4.631
4.630
4.620
4.614
4.617
4.614
4.623
4.634
4.645
4.643
4.638
4.630
4.628
4.623
4.625
4.629
4.625
4.626
4.622
4.627
4.623
4.629
4.614
4.607
4.605
4.604
4.605
4.601
4.610
4.612
4.621
4.622
4.622
4.625
4.629
4.639
4.650
4.660
4.651
4.648
4.651
4.642
4.643
4.637
4.639
4.649
4.644
4.633
4.623
4.630
4.630
4.632
4.632
4.629
4.625
4.618
4.621
4.614
4.613
4.611
4.612
4.610
4.605
4.604
4.614
4.624
4.634
4.644
4.653
4.663
4.658
4.666
4.672
4.670
4.664
4.659
4.653
4.662
4.660
4.655
4.647
4.638
4.633
4.623
4.625
4.629
4.629
4.627
4.629
4.621
4.630
4.635
4.629
4.632
4.629
4.631
4.625
4.620
4.625
4.625
4.623
4.630
4.631
4.640
4.649
4.658
4.667
4.676
4.666
4.669
4.665
4.654
4.651
4.655
4.661
4.658
4.661
4.673
4.670
4.670
4.662
4.662
4.660
4.654
4.650
4.651
4.654
4.653
4.664
4.663
4.653
4.641
4.646
4.646
4.644
4.639
4.639
4.642
4.650
4.649
4.646
4.641
4.639
4.634
4.628
4.636
4.645
4.653
4.662
4.670
4.678
4.687
4.695
4.702
4.707
4.708
4.707
4.699
4.702
4.696
4.690
4.688
4.693
4.685
4.688
4.692
4.688
4.681
4.676
4.674
4.674
4.674
4.685
4.683
4.694
4.686
4.680
4.681
4.684
4.681
4.691
4.692
4.694
4.692
4.690
4.681
4.684
4.677
4.668
4.672
4.675
4.673
4.669
4.662
4.653
4.663
4.672
4.665
4.662
4.666
4.674
4.682
4.689
4.697
4.705
4.707
4.700
4.698
4.699
4.696
4.689
4.682
4.673
4.680
4.675
4.679
4.686
4.676
4.675
4.669
4.667
4.666
4.668
4.669
4.666
4.665
4.662
4.657
4.655
4.658
4.650
4.653
4.650
4.646
4.644
4.648
4.645
4.643
4.649
4.659
4.666
4.665
4.662
4.665
4.661
4.653
4.653
4.644
4.641
4.648
4.637
4.631
4.631
4.625
4.629
4.634
4.641
4.648
4.656
4.663
4.670
4.676
4.684
4.690
4.698
4.704
4.703
4.714
4.712
4.712
4.703
4.699
4.700
4.704
4.700
4.697
4.694
4.691
4.691
4.685
4.688
4.681
4.685
4.694
4.691
4.698
4.696
4.695
4.695
4.699
4.693
4.690
4.689
4.689
4.690
4.686
4.679
4.685
4.687
4.686
4.689
4.691
4.686
4.687
4.690
4.686
4.681
4.682
4.678
4.675
4.676
4.674
4.677
4.673
4.670
4.661
4.668
4.666
4.671
4.674
4.669
4.669
4.673
4.674
4.673
4.670
4.670
4.676
4.685
4.693
4.688
4.686
4.680
4.678
4.684
4.683
4.688
4.692
4.695
4.701
4.707
4.714
4.720
4.726
4.732
4.734
4.734
4.726
4.727
4.726
4.722
4.714
4.707
4.705
4.703
4.700
4.695
4.698
4.697
4.696
4.690
4.693
4.687
4.684
4.677
4.674
4.680
4.674
4.674
4.669
4.669
4.665
4.663
4.665
4.672
4.673
4.669
4.669
4.667
4.672
4.680
4.675
4.672
4.673
4.675
4.674
4.664
4.663
4.665
4.655
4.659
4.665
4.666
4.667
4.668
4.662
4.663
4.668
4.668
4.662
4.655
4.648
4.642
4.635
4.637
4.635
4.628
4.628
4.630
4.628
4.625
4.626
4.622
4.620
4.625
4.624
4.630
4.627
4.632
4.633
4.634
4.638
4.644
4.649
4.655
4.661
4.666
4.672
4.677
4.683
4.689
4.694
4.700
4.706
4.711
4.717
4.722
4.728
4.731
4.731
4.735
4.734
4.727
4.722
4.725
4.726
4.724
4.734
4.739
4.743
4.741
4.738
4.736
4.740
4.740
4.737
4.739
4.732
4.731
4.726
4.720
4.719
4.713
4.714
4.707
4.714
4.706
4.699
4.693
4.697
4.699
4.696
4.696
4.701
4.695
4.700
4.701
4.701
4.699
4.702
4.696
4.690
4.691
4.687
4.690
4.690
4.684
4.679
4.674
4.668
4.663
4.658
4.654
4.647
4.645
4.645
4.648
4.652
4.649
4.651
4.654
4.655
4.652
4.642
4.640
4.640
4.642
4.649
4.646
4.648
4.649
4.658
4.653
4.658
4.661
4.657
4.656
4.656
4.651
4.654
4.654
4.647
4.645
4.653
4.656
4.655
4.654
4.657
4.660
4.663
4.669
4.672
4.675
4.672
4.671
4.665
4.665
4.673
4.669
4.665
4.669
4.670
4.671
4.664
4.662
4.667
4.672
4.677
4.682
4.686
4.691
4.696
4.701
4.706
4.711
4.716
4.719
4.720
4.719
4.720
4.718
4.716
4.715
4.719
4.718
4.718
4.715
4.712
4.714
4.717
4.719
4.712
4.715
4.709
4.705
4.704
4.702
4.705
4.699
4.699
4.700
4.694
4.696
4.705
4.707
4.704
4.705
4.705
4.704
4.706
4.707
4.711
4.717
4.712
4.712
4.711
4.707
