2.994
3.332
3.510
3.626
3.723
3.790
3.853
3.895
3.921
3.979
3.978
4.020
4.058
4.048
4.060
4.082
4.108
4.130
4.157
4.174
4.197
4.215
4.227
4.185
4.154
4.168
4.184
4.191
4.205
4.208
4.219
4.229
4.242
4.243
4.258
4.257
4.271
4.281
4.279
4.287
4.296
4.308
4.305
4.317
4.321
4.331
4.331
4.331
4.342
4.349
4.354
4.366
4.353
4.363
4.368
4.374
4.384
4.388
4.400
4.399
4.389
4.397
4.397
4.405
4.416
4.415
4.419
4.429
4.438
4.434
4.427
4.431
4.436
4.435
4.441
4.446
4.450
4.449
4.458
4.460
4.469
4.473
4.475
4.475
4.480
4.481
4.471
4.473
4.469
4.476
4.480
4.484
4.493
4.492
4.499
4.495
4.497
4.498
4.508
4.511
4.508
4.519
4.515
4.519
4.524
4.523
4.531
4.533
4.538
4.541
4.538
4.522
4.520
4.517
4.523
4.525
4.524
4.527
4.534
4.542
4.542
4.541
4.545
4.549
4.545
4.550
4.546
4.552
4.554
4.555
4.562
4.568
4.571
4.566
4.568
4.574
4.575
4.575
4.571
4.571
4.579
4.579
4.576
4.583
4.589
4.586
4.594
4.593
4.603
4.597
4.595
4.602
4.611
4.608
4.609
4.604
4.606
4.610
4.611
4.610
4.597
4.586
4.582
4.583
4.584
4.591
4.589
4.591
4.597
4.593
4.601
4.597
4.595
4.605
4.605
4.608
4.606
4.612
4.608
4.613
4.614
4.605
4.612
4.604
4.609
4.605
4.611
4.608
4.616
4.612
4.620
4.615
4.620
4.618
4.623
4.626
4.633
4.632
4.631
4.637
4.636
4.637
4.630
4.637
4.630
4.640
4.642
4.638
4.649
4.646
4.653
4.649
4.649
4.651
4.641
4.646
4.639
4.646
4.650
4.651
4.647
4.643
4.645
4.653
4.649
4.653
4.657
4.653
4.657
4.654
4.657
4.662
4.664
4.665
4.666
4.676
4.675
4.670
4.677
4.675
4.671
4.682
4.677
4.667
4.675
4.675
4.677
4.681
4.686
4.679
4.680
4.692
4.690
4.687
4.690
4.700
4.693
4.690
4.697
4.706
4.701
4.692
4.696
4.687
4.682
4.695
4.691
4.695
4.694
4.700
4.704
4.694
4.691
4.700
4.694
4.694
4.688
4.700
4.699
4.698
4.699
4.701
4.707
4.706
4.702
4.703
4.716
4.720
4.713
4.709
4.712
4.722
4.721
4.719
4.718
4.720
4.726
4.728
4.721
4.717
4.723
4.716
4.708
4.705
4.697
4.692
4.691
4.687
4.699
4.694
4.688
4.678
4.686
4.698
4.691
4.695
4.691
4.689
4.697
4.703
4.699
4.698
4.699
4.698
4.704
4.697
4.699
4.690
4.696
4.701
4.713
4.708
4.705
4.708
4.701
4.705
4.715
4.717
4.713
4.711
4.712
4.714
4.720
4.730
4.723
4.719
4.716
4.712
4.707
4.706
4.702
4.700
4.699
4.698
4.710
4.717
4.710
4.705
4.701
4.698
4.702
4.701
4.696
4.701
4.699
4.700
4.696
4.706
4.712
4.708
4.705
4.700
4.702
4.698
4.704
4.712
4.713
4.714
4.713
4.708
4.708
4.706
4.712
4.722
4.727
4.725
4.723
4.727
4.716
4.711
4.715
4.725
4.732
4.727
4.723
4.719
4.723
4.719
4.715
4.725
4.727
4.725
4.729
4.727
4.731
4.723
4.721
4.722
4.732
4.734
4.735
4.733
4.732
4.733
4.731
4.728
4.727
4.734
4.746
4.750
4.753
4.747
4.745
4.744
4.742
4.741
4.740
4.744
4.743
4.739
4.735
4.733
4.734
4.736
4.731
4.730
4.738
4.749
4.746
4.742
4.745
4.741
4.735
4.733
4.729
4.730
4.738
4.749
4.753
4.745
4.748
4.745
4.748
4.742
4.746
4.745
4.738
4.745
4.754
4.764
4.760
4.758
4.756
4.757
4.757
4.755
4.756
4.747
4.746
4.755
4.764
4.761
4.756
4.757
4.760
4.760
4.757
4.758
4.756
4.758
4.754
4.761
4.770
4.774
4.775
4.775
4.776
4.774
4.775
4.775
4.775
4.772
4.771
4.769
4.770
4.777
4.781
4.780
4.784
4.782
4.775
4.774
4.773
4.768
4.767
4.764
4.767
4.772
4.778
4.774
4.768
4.763
4.759
4.753
4.749
4.752
4.748
4.747
4.749
4.758
4.767
4.758
4.765
4.768
4.762
4.761
4.757
4.753
4.756
4.760
4.757
4.757
4.753
4.757
4.754
4.755
4.751
4.750
4.749
4.750
4.753
4.752
4.753
4.753
4.751
4.747
4.745
4.750
4.757
4.766
4.770
4.768
4.765
4.763
4.759
4.755
4.753
4.757
4.762
4.763
4.759
4.758
4.757
4.755
4.760
4.768
4.776
4.779
4.771
4.774
4.771
4.768
4.770
4.771
4.767
4.761
4.759
4.757
4.757
4.758
4.757
4.763
4.771
4.775
4.770
4.766
4.770
4.771
4.767
4.768
4.765
4.761
4.757
4.761
4.760
4.757
4.753
4.750
4.757
4.766
4.771
4.780
4.787
4.786
4.784
4.780
4.779
4.774
4.775
4.777
4.773
4.775
4.773
4.772
4.768
4.769
4.773
4.772
4.773
4.775
4.782
4.788
4.795
4.796
4.795
4.794
4.792
4.788
4.790
4.788
4.782
4.783
4.779
4.779
4.779
4.777
4.775
4.782
4.775
4.774
4.781
4.788
4.795
4.794
4.792
4.791
4.790
4.790
4.789
4.786
4.787
4.793
4.789
4.790
4.789
4.788
4.782
4.786
4.787
4.788
4.786
4.783
4.786
4.793
4.798
4.805
4.811
4.815
4.814
4.813
4.816
4.818
4.814
4.812
4.812
4.808
4.800
4.799
4.797
4.801
4.805
4.805
4.803
4.804
4.801
4.801
4.797
4.801
4.805
4.812
4.819
4.818
4.814
4.812
4.808
4.807
4.808
4.808
4.808
4.802
4.797
4.793
4.789
4.783
4.779
4.775
4.775
4.783
4.781
4.782
4.789
4.794
4.800
4.807
4.805
4.804
4.803
4.807
4.808
4.808
4.806
4.808
4.803
4.797
4.797
4.797
4.794
4.788
4.786
4.786
4.787
4.785
4.784
4.783
4.781
4.780
4.786
4.791
4.797
4.804
4.806
4.802
4.803
4.808
4.809
4.808
4.803
4.805
4.801
4.801
4.806
4.802
4.803
4.801
4.797
4.801
4.801
4.802
4.798
4.805
4.805
4.804
4.800
4.796
4.794
4.793
4.795
4.802
4.806
4.813
4.817
4.818
4.817
4.813
4.809
4.812
4.808
4.805
4.812
4.812
4.811
4.815
4.812
4.810
4.806
4.807
4.809
4.810
4.811
4.812
4.811
4.808
4.809
4.808
4.806
4.805
4.809
4.812
4.805
4.808
4.816
4.820
4.825
4.832
4.833
4.832
4.833
4.835
4.831
4.826
4.820
4.823
4.822
4.820
4.825
4.824
4.822
4.821
4.827
4.829
4.830
4.826
4.830
4.827
4.831
4.831
4.827
4.829
4.830
4.827
4.825
4.820
4.817
4.816
4.820
4.824
4.830
4.834
4.839
4.840
4.838
4.838
4.842
4.842
4.844
4.843
4.841
4.843
4.842
4.838
4.838
4.835
4.833
4.837
4.833
4.832
4.834
4.835
4.834
4.829
4.830
4.826
4.827
4.826
4.822
4.818
4.814
4.808
4.808
4.810
4.816
4.821
4.827
4.831
4.836
4.835
4.836
4.834
4.833
4.837
4.834
4.834
4.831
4.832
4.836
4.831
4.831
4.832
4.836
4.835
4.833
4.834
4.834
4.835
4.834
4.827
4.825
4.826
4.825
4.823
4.819
4.818
4.817
4.823
4.820
4.820
4.820
4.823
4.822
4.821
4.827
4.827
4.828
4.834
4.839
4.842
4.847
4.853
4.858
4.857
4.855
4.851
4.845
4.853
4.855
4.856
4.853
4.854
4.852
4.854
4.850
4.849
4.847
4.845
4.845
4.846
4.844
4.846
4.847
4.846
4.850
4.856
4.857
4.854
4.853
4.851
4.850
4.845
4.850
4.846
4.844
4.848
4.847
4.843
4.845
4.846
4.842
4.840
4.844
4.845
4.850
4.856
4.860
4.865
4.869
4.875
4.872
4.871
4.868
4.864
4.868
4.867
4.868
4.865
4.868
4.864
4.866
4.865
4.861
4.867
4.868
4.865
4.864
4.862
4.863
4.862
4.860
4.857
4.855
4.851
4.849
4.846
4.844
4.840
4.838
4.837
4.833
4.831
4.828
4.826
