2.955
3.312
3.498
3.570
3.640
3.600
3.671
3.722
3.760
3.791
3.857
3.867
3.920
3.912
3.953
3.977
4.010
3.994
4.002
4.023
4.045
4.078
4.084
4.092
4.065
4.072
4.104
4.112
4.116
4.114
4.118
4.144
4.146
4.164
4.189
4.203
4.158
4.179
4.204
4.213
4.217
4.235
4.248
4.222
4.192
4.216
4.229
4.176
4.215
4.183
4.223
4.228
4.216
4.248
4.235
4.253
4.234
4.250
4.244
4.256
4.249
4.291
4.264
4.301
4.274
4.288
4.314
4.289
4.282
4.244
4.285
4.267
4.264
4.296
4.275
4.250
4.293
4.307
4.295
4.277
4.311
4.308
4.307
4.299
4.337
4.331
4.334
4.330
4.352
4.337
4.305
4.289
4.336
4.328
4.311
4.312
4.304
4.346
4.343
4.349
4.344
4.317
4.339
4.377
4.374
4.350
4.362
4.344
4.341
4.374
4.371
4.376
4.346
4.370
4.369
4.359
4.396
4.406
4.409
4.389
4.376
4.390
4.377
4.386
4.415
4.439
4.438
4.425
4.425
4.404
4.383
4.367
4.382
4.385
4.372
4.358
4.357
4.361
4.366
4.353
4.348
4.379
4.396
4.368
4.371
4.361
4.372
4.365
4.363
4.341
4.355
4.349
4.377
4.405
4.397
4.386
4.350
4.364
4.373
4.375
4.378
4.366
4.348
4.344
4.352
4.378
4.405
4.422
4.407
4.385
4.402
4.406
4.383
4.377
4.375
4.387
4.367
4.354
4.373
4.371
4.371
4.395
4.419
4.424
4.431
4.429
4.423
4.439
4.435
4.418
4.422
4.432
4.406
4.385
4.391
4.400
4.393
4.414
4.412
4.426
4.408
4.430
4.452
4.470
4.461
4.456
4.466
4.464
4.435
4.429
4.429
4.425
4.406
4.399
4.399
4.382
4.368
4.369
4.376
4.371
4.364
4.377
4.397
4.416
4.436
4.456
4.475
4.466
4.459
4.455
4.438
4.447
4.456
4.440
4.426
4.419
4.415
4.409
4.421
4.416
4.423
4.440
4.442
4.428
4.420
4.427
4.429
4.420
4.428
4.435
4.435
4.419
4.429
4.447
4.464
4.477
4.463
4.456
4.451
4.443
4.447
4.441
4.447
4.430
4.428
4.417
4.410
4.415
4.404
4.392
4.413
4.415
4.415
4.406
4.387
4.368
4.371
4.363
4.362
4.374
4.397
4.399
4.378
4.385
4.384
4.395
4.392
4.407
4.422
4.437
4.453
4.468
4.483
4.498
4.494
4.482
4.466
4.474
4.457
4.457
4.463
4.456
4.454
4.445
4.429
4.421
4.404
4.421
4.433
4.426
4.441
4.456
4.449
4.439
4.439
4.439
4.438
4.430
4.426
4.418
4.402
4.383
4.364
4.384
4.370
4.364
4.368
4.380
4.374
4.360
4.357
4.371
4.381
4.387
4.389
4.402
4.415
4.428
4.441
4.454
4.467
4.480
4.493
4.507
4.516
4.511
4.507
4.499
4.492
4.490
4.502
4.486
4.475
4.463
4.467
4.450
4.453
4.463
4.454
4.465
4.460
4.445
4.447
4.446
4.456
4.445
4.439
4.434
4.426
4.424
4.419
4.423
4.437
4.435
4.436
4.440
4.450
4.436
4.453
4.456
4.439
4.445
4.443
4.464
4.440
4.426
4.431
4.425
4.410
4.400
4.413
4.412
4.406
4.402
4.402
4.415
4.421
4.432
4.434
4.421
4.423
4.436
4.438
4.442
4.444
4.436
4.439
4.449
4.460
4.471
4.482
4.493
4.504
4.507
4.500
4.498
4.484
4.482
4.494
4.474
4.475
4.476
4.461
4.446
4.438
4.441
4.456
4.471
4.477
4.472
4.462
4.467
4.460
4.461
4.455
4.448
4.459
4.459
4.467
4.471
4.460
4.462
4.456
4.452
4.442
4.442
4.440
4.438
4.418
4.428
4.413
4.420
4.428
4.428
4.431
4.414
4.411
4.405
4.409
4.395
4.392
4.395
4.414
4.400
4.403
4.393
4.387
4.389
4.392
4.394
4.382
4.385
4.385
4.403
4.404
4.384
4.382
4.374
4.377
4.387
4.374
4.376
4.386
4.402
4.410
4.423
4.436
4.437
4.439
4.437
4.425
4.418
4.426
4.429
4.414
4.420
4.435
4.425
4.406
4.406
4.416
4.423
4.424
4.421
4.419
4.430
4.418
4.427
4.436
4.445
4.453
4.462
4.471
4.479
4.488
4.497
4.505
4.514
4.523
4.532
4.511
4.510
4.502
4.503
4.505
4.495
4.492
4.499
4.506
4.512
4.510
4.522
4.502
4.493
4.482
4.471
4.485
4.481
4.472
4.481
4.488
4.480
4.470
4.472
4.465
4.457
4.451
4.458
4.466
4.471
4.485
4.482
4.497
4.492
4.487
4.488
4.489
4.471
4.468
4.472
4.480
4.496
4.492
4.482
4.470
4.466
4.458
4.459
4.468
4.477
4.472
4.474
4.485
4.496
4.500
4.500
4.486
4.478
4.481
4.474
4.467
4.470
4.459
4.457
4.472
4.476
4.477
4.467
4.461
4.461
4.457
4.462
4.473
4.459
4.449
4.448
4.441
4.445
4.432
4.434
4.435
4.427
4.427
4.426
4.441
4.436
4.433
4.427
4.419
4.412
4.404
4.404
4.407
4.415
4.416
4.405
4.401
4.414
4.413
4.399
4.401
4.400
4.397
4.409
4.421
4.421
4.426
4.421
4.423
4.419
4.414
4.400
4.398
4.405
4.408
4.395
4.393
4.397
4.395
4.389
4.381
4.378
4.386
4.389
4.377
4.377
4.375
4.373
4.363
4.361
4.373
4.386
4.379
4.371
4.358
4.358
4.354
4.357
4.352
4.351
4.350
4.351
4.348
4.345
4.352
4.349
4.362
4.370
4.376
4.376
4.381
4.388
4.394
4.401
4.407
4.414
4.420
4.427
4.433
4.440
4.446
4.453
4.459
4.466
4.472
4.479
4.485
4.492
4.498
4.505
4.511
4.518
4.524
4.531
4.538
4.544
4.550
4.557
4.564
4.570
4.577
4.583
4.583
4.578
4.571
4.578
4.572
4.572
4.570
4.563
4.552
4.539
4.542
4.540
4.539
4.538
4.536
4.534
4.524
4.518
4.516
4.516
4.510
4.507
4.509
4.499
4.498
4.497
4.490
4.495
4.487
4.490
4.494
4.486
4.489
4.502
4.497
4.507
4.517
4.523
4.514
4.516
4.520
4.517
4.511
4.505
4.511
4.513
4.508
4.497
4.499
4.494
4.485
4.483
4.490
4.502
4.510
4.506
4.506
4.495
4.504
4.497
4.510
4.510
4.504
4.507
4.504
4.498
4.501
4.504
4.501
4.501
4.498
4.491
4.481
4.474
4.477
4.476
4.478
4.487
4.479
4.469
4.468
4.473
4.471
4.465
4.470
4.464
4.464
4.454
4.448
4.448
4.437
4.435
4.445
4.453
4.446
4.442
4.438
4.430
4.440
4.434
4.435
4.433
4.439
4.444
4.434
4.443
4.444
4.433
4.434
4.436
4.428
4.424
4.418
4.411
4.405
4.398
4.392
4.386
4.379
4.376
4.376
4.385
4.393
4.383
4.377
4.376
4.389
4.396
4.391
4.392
4.387
4.386
4.390
4.385
4.394
4.392
4.386
4.379
4.378
4.379
4.392
4.393
4.390
4.381
4.381
4.386
4.394
4.401
4.409
4.416
4.424
4.431
4.439
4.446
4.454
4.454
4.439
4.442
4.437
4.448
4.445
4.438
4.434
4.440
4.449
4.446
4.445
4.442
4.439
4.428
4.429
4.426
4.427
4.437
4.439
4.441
4.446
4.452
4.460
4.469
4.463
4.455
4.447
4.439
4.434
4.437
4.435
4.429
4.422
4.414
4.420
4.418
4.417
4.418
4.422
4.428
4.434
4.421
4.425
4.418
4.415
4.418
4.409
4.413
4.410
4.404
4.412
4.406
4.411
4.400
4.402
4.403
4.410
4.405
4.399
4.407
4.407
4.405
4.403
4.405
4.411
4.419
4.417
4.417
4.415
4.408
4.411
4.397
4.401
4.399
4.406
4.398
4.396
4.396
4.395
4.409
4.406
4.408
4.401
4.401
4.402
4.409
4.409
4.405
4.403
4.400
4.387
4.395
4.396
4.394
4.389
4.384
4.375
4.378
4.387
4.377
4.375
4.380
4.378
4.374
4.380
4.389
4.378
4.371
4.373
4.375
4.375
4.377
4.386
4.394
4.387
4.379
4.385
4.379
4.383
4.377
4.382
4.387
4.387
4.375
4.366
4.374
4.379
4.375
4.372
4.380
4.383
4.378
4.379
4.382
4.378
4.383
4.395
4.392
4.392
4.401
4.400
4.403
