2.992
3.333
3.504
3.619
3.722
3.770
3.820
3.897
3.907
3.957
4.004
3.978
4.015
4.050
4.080
4.108
4.132
4.159
4.130
4.088
4.102
4.112
4.125
4.144
4.154
4.162
4.178
4.182
4.198
4.209
4.215
4.229
4.235
4.238
4.252
4.262
4.258
4.265
4.281
4.290
4.289
4.292
4.302
4.313
4.320
4.326
4.317
4.327
4.331
4.342
4.347
4.359
4.368
4.368
4.359
4.363
4.368
4.377
4.381
4.383
4.392
4.400
4.406
4.409
4.412
4.425
4.402
4.408
4.408
4.414
4.424
4.422
4.429
4.432
4.434
4.443
4.444
4.452
4.449
4.458
4.457
4.469
4.470
4.474
4.482
4.469
4.452
4.455
4.460
4.463
4.469
4.476
4.473
4.484
4.483
4.485
4.478
4.483
4.491
4.497
4.500
4.497
4.503
4.512
4.520
4.506
4.512
4.509
4.510
4.518
4.520
4.530
4.532
4.533
4.533
4.544
4.539
4.550
4.547
4.544
4.556
4.549
4.552
4.538
4.523
4.525
4.532
4.525
4.528
4.537
4.543
4.535
4.539
4.543
4.548
4.549
4.552
4.558
4.545
4.537
4.547
4.548
4.546
4.556
4.548
4.558
4.562
4.559
4.572
4.564
4.568
4.568
4.581
4.575
4.567
4.579
4.579
4.588
4.585
4.594
4.590
4.595
4.596
4.581
4.577
4.594
4.584
4.584
4.579
4.592
4.592
4.595
4.593
4.593
4.597
4.595
4.608
4.606
4.607
4.615
4.609
4.622
4.615
4.615
4.611
4.606
4.620
4.619
4.622
4.628
4.622
4.625
4.638
4.637
4.633
4.641
4.639
4.639
4.644
4.642
4.635
4.629
4.632
4.645
4.640
4.638
4.637
4.637
4.632
4.638
4.635
4.637
4.640
4.646
4.640
4.645
4.656
4.659
4.650
4.649
4.663
4.656
4.660
4.659
4.671
4.662
4.664
4.668
4.682
4.672
4.668
4.659
4.651
4.643
4.635
4.631
4.619
4.638
4.637
4.634
4.633
4.637
4.647
4.645
4.639
4.639
4.636
4.641
4.645
4.638
4.645
4.654
4.648
4.646
4.648
4.653
4.663
4.663
4.662
4.661
4.659
4.665
4.667
4.666
4.657
4.649
4.649
4.645
4.650
4.646
4.647
4.652
4.647
4.645
4.639
4.648
4.653
4.650
4.642
4.636
4.648
4.650
4.645
4.646
4.648
4.640
4.653
4.659
4.662
4.657
4.658
4.659
4.656
4.668
4.667
4.664
4.663
4.666
4.663
4.668
4.668
4.661
4.662
4.661
4.667
4.662
4.676
4.671
4.675
4.669
4.668
4.667
4.666
4.680
4.690
4.686
4.687
4.690
4.683
4.682
4.680
4.695
4.697
4.692
4.682
4.673
4.673
4.675
4.689
4.686
4.688
4.685
4.680
4.680
4.677
4.680
4.685
4.689
4.685
4.686
4.686
4.685
4.681
4.679
4.692
4.706
4.703
4.700
4.697
4.696
4.701
4.694
4.691
4.699
4.703
4.698
4.702
4.701
4.698
4.698
4.696
4.694
4.701
4.714
4.720
4.717
4.712
4.717
4.724
4.719
4.714
4.710
4.709
4.721
4.728
4.726
4.728
4.727
4.717
4.713
4.709
4.714
4.710
4.723
4.735
4.726
4.726
4.719
4.712
4.705
4.698
4.693
4.705
4.708
4.705
4.703
4.700
4.704
4.705
4.701
4.701
4.701
4.694
4.697
4.698
4.696
4.700
4.697
4.699
4.697
4.688
4.695
4.690
4.689
4.699
4.710
4.708
4.706
4.706
4.713
4.706
4.701
4.702
4.707
4.704
4.702
4.704
4.707
4.717
4.719
4.720
4.719
4.710
4.711
4.706
4.706
4.710
4.702
4.702
4.701
4.706
4.716
4.717
4.718
4.711
4.710
4.708
4.703
4.701
4.703
4.701
4.704
4.704
4.701
4.708
4.718
4.728
4.731
4.724
4.721
4.718
4.725
4.725
4.722
4.720
4.719
4.724
4.721
4.713
4.716
4.725
4.730
4.740
4.740
4.732
4.731
4.732
4.729
4.733
4.731
4.732
4.723
4.721
4.718
4.708
4.715
4.722
4.732
4.741
4.743
4.739
4.743
4.740
4.740
4.742
4.738
4.738
4.739
4.732
4.733
4.735
4.737
4.739
4.742
4.738
4.742
4.751
4.761
4.760
4.756
4.752
4.752
4.752
4.762
4.756
4.756
4.751
4.742
4.739
4.740
4.742
4.741
4.737
4.745
4.750
4.758
4.764
4.758
4.756
4.750
4.744
4.737
4.732
4.732
4.732
4.730
4.730
4.733
4.735
4.733
4.731
4.729
4.736
4.745
4.752
4.748
4.750
4.745
4.749
4.741
4.743
4.740
4.736
4.729
4.729
4.727
4.727
4.727
4.727
4.728
4.730
4.728
4.731
4.737
4.745
4.753
4.762
4.762
4.759
4.761
4.763
4.762
4.759
4.753
4.752
4.747
4.745
4.742
4.739
4.744
4.739
4.744
4.740
4.737
4.731
4.731
4.739
4.747
4.755
4.763
4.771
4.774
4.772
4.776
4.774
4.772
4.776
4.774
4.770
4.764
4.755
4.758
4.757
4.759
4.763
4.757
4.758
4.756
4.754
4.752
4.753
4.753
4.751
4.758
4.766
4.774
4.781
4.789
4.797
4.789
4.786
4.788
4.793
4.786
4.785
4.783
4.782
4.776
4.773
4.775
4.778
4.777
4.776
4.779
4.774
4.767
4.770
4.769
4.766
4.767
4.770
4.767
4.775
4.782
4.789
4.797
4.797
4.790
4.787
4.786
4.784
4.778
4.772
4.767
4.772
4.768
4.775
4.776
4.771
4.764
4.767
4.762
4.760
4.761
4.760
4.757
4.755
4.758
4.755
4.758
4.765
4.772
4.779
4.786
4.793
4.796
4.796
4.794
4.790
4.791
4.788
4.785
4.788
4.790
4.786
4.781
4.783
4.783
4.780
4.779
4.780
4.782
4.781
4.785
4.783
4.782
4.784
4.781
4.781
4.778
4.777
4.775
4.779
4.775
4.778
4.785
4.792
4.799
4.805
4.812
4.816
4.814
4.817
4.814
4.812
4.809
4.813
4.812
4.808
4.816
4.814
4.815
4.819
4.823
4.821
4.820
4.815
4.811
4.802
4.798
4.796
4.793
4.791
4.792
4.788
4.788
4.790
4.797
4.801
4.798
4.794
4.795
4.795
4.802
4.808
4.814
4.819
4.815
4.812
4.808
4.805
4.801
4.797
4.793
4.790
4.788
4.789
4.790
4.787
4.784
4.778
4.774
4.777
4.776
4.768
4.763
4.768
4.769
4.770
4.766
4.767
4.768
4.771
4.773
4.771
4.765
4.763
4.769
4.775
4.782
4.788
4.794
4.800
4.795
4.791
4.787
4.782
4.783
4.782
4.781
4.778
4.781
4.780
4.779
4.777
4.775
4.775
4.774
4.778
4.777
4.780
4.781
4.773
4.772
4.770
4.772
4.771
4.772
4.780
4.781
4.774
4.770
4.770
4.770
4.764
4.767
4.762
4.766
4.763
4.763
4.767
4.773
4.779
4.784
4.790
4.793
4.791
4.792
4.792
4.789
4.784
4.783
4.782
4.781
4.781
4.785
4.788
4.788
4.795
4.797
4.796
4.791
4.794
4.792
4.788
4.787
4.783
4.787
4.788
4.785
4.789
4.787
4.786
4.785
4.781
4.776
4.771
4.772
4.776
4.775
4.769
4.768
4.772
4.772
4.774
4.775
4.780
4.781
4.776
4.771
4.776
4.781
4.787
4.792
4.797
4.796
4.795
4.789
4.792
4.791
4.791
4.789
4.785
4.782
4.787
4.789
4.787
4.782
4.780
4.776
4.777
4.775
4.777
4.774
4.778
4.771
4.768
4.771
4.778
4.785
4.778
4.776
4.776
4.771
4.773
4.771
4.768
4.772
4.771
4.773
4.771
4.769
4.769
4.769
4.769
4.771
4.771
4.769
4.768
4.766
4.771
4.774
4.769
4.773
4.773
4.778
4.783
4.788
4.793
4.798
4.804
4.809
4.813
4.810
4.804
4.802
4.802
4.802
4.801
4.797
4.802
4.805
4.803
4.800
4.801
4.801
4.796
4.791
4.786
4.781
4.778
4.772
4.773
4.771
4.774
4.773
4.772
4.771
4.771
4.773
4.770
4.768
4.774
4.767
4.769
4.768
4.775
4.774
4.773
4.773
4.777
4.779
4.784
4.781
4.781
4.782
4.781
4.782
4.783
4.781
4.776
4.772
4.768
4.766
4.769
4.769
4.774
4.778
4.783
4.788
4.793
4.798
4.802
4.807
4.807
4.810
4.810
4.810
4.809
4.810
