2.976
3.321
3.453
3.550
3.698
3.616
3.670
3.729
3.793
3.823
3.853
3.884
3.917
3.930
3.975
3.951
3.990
4.013
4.033
4.021
4.036
4.052
4.073
4.089
4.108
4.110
4.138
4.120
4.122
4.110
4.137
4.151
4.158
4.176
4.163
4.167
4.205
4.206
4.196
4.222
4.245
4.243
4.212
4.240
4.258
4.262
4.288
4.280
4.288
4.276
4.268
4.241
4.264
4.277
4.269
4.236
4.224
4.259
4.247
4.265
4.256
4.266
4.273
4.306
4.282
4.286
4.283
4.292
4.278
4.308
4.296
4.324
4.323
4.312
4.342
4.337
4.327
4.352
4.350
4.339
4.318
4.293
4.325
4.318
4.299
4.337
4.324
4.310
4.318
4.346
4.333
4.324
4.334
4.350
4.342
4.338
4.336
4.379
4.369
4.366
4.347
4.365
4.387
4.390
4.376
4.365
4.367
4.368
4.359
4.358
4.331
4.368
4.386
4.390
4.380
4.365
4.361
4.379
4.416
4.405
4.416
4.410
4.394
4.393
4.403
4.422
4.420
4.395
4.396
4.381
4.367
4.400
4.434
4.439
4.434
4.424
4.418
4.430
4.436
4.415
4.435
4.454
4.456
4.466
4.451
4.447
4.427
4.432
4.430
4.437
4.466
4.450
4.447
4.433
4.430
4.412
4.390
4.377
4.405
4.428
4.444
4.445
4.441
4.421
4.413
4.407
4.420
4.399
4.385
4.391
4.417
4.431
4.431
4.427
4.434
4.420
4.424
4.421
4.401
4.388
4.393
4.406
4.405
4.409
4.433
4.430
4.440
4.433
4.424
4.425
4.433
4.424
4.416
4.416
4.399
4.394
4.394
4.389
4.398
4.420
4.442
4.464
4.467
4.458
4.445
4.451
4.448
4.432
4.430
4.415
4.411
4.435
4.435
4.422
4.427
4.426
4.429
4.415
4.433
4.453
4.473
4.490
4.482
4.482
4.471
4.490
4.488
4.477
4.470
4.486
4.472
4.466
4.462
4.455
4.439
4.465
4.451
4.460
4.477
4.481
4.462
4.449
4.467
4.486
4.504
4.507
4.489
4.492
4.476
4.464
4.459
4.461
4.458
4.443
4.442
4.436
4.432
4.443
4.442
4.442
4.418
4.416
4.420
4.426
4.414
4.398
4.413
4.430
4.446
4.463
4.479
4.496
4.512
4.510
4.506
4.506
4.499
4.494
4.501
4.507
4.498
4.486
4.478
4.480
4.468
4.467
4.482
4.471
4.465
4.490
4.489
4.499
4.502
4.483
4.490
4.488
4.485
4.487
4.497
4.505
4.489
4.483
4.464
4.463
4.477
4.492
4.487
4.488
4.498
4.474
4.485
4.485
4.491
4.496
4.496
4.488
4.489
4.478
4.475
4.472
4.461
4.464
4.452
4.436
4.438
4.460
4.443
4.443
4.446
4.436
4.439
4.436
4.430
4.427
4.421
4.424
4.430
4.449
4.462
4.451
4.446
4.457
4.460
4.469
4.450
4.449
4.453
4.466
4.479
4.491
4.504
4.517
4.530
4.536
4.532
4.519
4.506
4.492
4.489
4.484
4.475
4.464
4.468
4.479
4.462
4.457
4.466
4.472
4.470
4.469
4.484
4.501
4.510
4.505
4.511
4.494
4.475
4.464
4.461
4.450
4.448
4.455
4.444
4.433
4.434
4.427
4.421
4.418
4.428
4.432
4.425
4.437
4.441
4.449
4.444
4.425
4.428
4.431
4.440
4.433
4.440
4.424
4.429
4.440
4.451
4.462
4.473
4.484
4.494
4.505
4.516
4.527
4.538
4.549
4.560
4.564
4.545
4.539
4.524
4.523
4.513
4.513
4.502
4.515
4.505
4.519
4.513
4.509
4.521
4.530
4.524
4.517
4.508
4.497
4.492
4.485
4.491
4.501
4.507
4.495
4.490
4.487
4.497
4.498
4.481
4.478
4.477
4.494
4.487
4.481
4.480
4.495
4.493
4.491
4.496
4.510
4.502
4.488
4.481
4.489
4.477
4.478
4.479
4.484
4.477
4.470
4.464
4.461
4.466
4.466
4.472
4.475
4.464
4.456
4.458
4.473
4.475
4.478
4.493
4.481
4.476
4.478
4.473
4.474
4.471
4.466
4.456
4.465
4.474
4.483
4.492
4.502
4.510
4.520
4.529
4.538
4.539
4.526
4.514
4.516
4.513
4.512
4.509
4.518
4.519
4.507
4.506
4.498
4.496
4.496
4.497
4.502
4.505
4.517
4.515
4.517
4.501
4.514
4.518
4.506
4.505
4.505
4.494
4.504
4.503
4.503
4.514
4.516
4.498
4.495
4.499
4.494
4.500
4.493
4.493
4.505
4.499
4.489
4.477
4.468
4.461
4.470
4.472
4.467
4.472
4.462
4.465
4.462
4.472
4.462
4.451
4.437
4.446
4.444
4.451
4.451
4.442
4.448
4.442
4.453
4.451
4.451
4.447
4.434
4.438
4.428
4.434
4.444
4.447
4.446
4.446
4.443
4.433
4.434
4.428
4.434
4.431
4.432
4.435
4.449
4.453
4.456
4.464
4.475
4.485
4.489
4.492
4.496
4.493
4.474
4.472
4.487
4.486
4.473
4.474
4.477
4.473
4.466
4.461
4.456
4.457
4.466
4.472
4.462
4.460
4.461
4.459
4.446
4.454
4.461
4.468
4.475
4.483
4.490
4.497
4.504
4.512
4.519
4.526
4.534
4.541
4.548
4.556
4.551
4.544
4.542
4.548
4.555
4.561
4.557
4.548
4.540
4.549
4.554
4.556
4.555
4.557
4.551
4.544
4.546
4.546
4.531
4.536
4.534
4.532
4.533
4.535
4.533
4.527
4.518
4.524
4.521
4.511
4.510
4.511
4.511
4.514
4.531
4.523
4.521
4.532
4.535
4.542
4.541
4.544
4.544
4.541
4.538
4.537
4.534
4.527
4.536
4.547
4.552
4.538
4.538
4.531
4.527
4.520
4.520
4.513
4.518
4.509
4.502
4.504
4.514
4.523
4.533
4.542
4.542
4.533
4.532
4.534
4.525
4.528
4.513
4.513
4.502
4.493
4.503
4.510
4.504
4.507
4.500
4.500
4.502
4.502
4.510
4.515
4.516
4.510
4.503
4.496
4.490
4.483
4.477
4.470
4.464
4.457
4.451
4.444
4.449
4.452
4.455
4.458
4.453
4.452
4.452
4.456
4.454
4.455
4.459
4.464
4.466
4.475
4.482
4.474
4.470
4.470
4.464
4.472
4.473
4.469
4.470
4.465
4.458
4.449
4.452
4.460
4.459
4.459
4.463
4.460
4.454
4.445
4.437
4.429
4.425
4.414
4.416
4.408
4.420
4.420
4.421
4.419
4.428
4.429
4.430
4.435
4.441
4.448
4.437
4.429
4.415
4.418
4.408
4.415
4.411
4.408
4.416
4.426
4.432
4.429
4.425
4.420
4.425
4.425
4.421
4.423
4.419
4.422
4.417
4.415
4.419
4.415
4.402
4.406
4.398
4.406
4.410
4.412
4.409
4.400
4.406
4.411
4.416
4.422
4.427
4.433
4.438
4.444
4.449
4.455
4.460
4.466
4.471
4.477
4.482
4.488
4.493
4.499
4.504
4.509
4.515
4.521
4.526
4.532
4.537
4.542
4.548
4.553
4.559
4.564
4.570
4.575
4.581
4.586
4.592
4.597
4.603
4.608
4.614
4.619
4.620
4.621
4.622
4.615
4.616
4.615
4.608
4.599
4.597
4.591
4.587
4.589
4.581
4.579
4.580
4.578
4.568
4.557
4.559
4.566
4.560
4.557
4.552
4.556
4.556
4.560
4.559
4.564
4.560
4.558
4.555
4.562
4.563
4.557
4.552
4.544
4.541
4.548
4.551
4.543
4.545
4.553
4.562
4.554
4.547
4.541
4.537
4.538
4.534
4.542
4.549
4.546
4.550
4.549
4.537
4.538
4.542
4.531
4.522
4.529
4.529
4.539
4.537
4.541
4.537
4.536
4.541
4.545
4.545
4.547
4.557
4.562
4.557
4.560
4.551
4.546
4.543
4.547
4.542
4.551
4.539
4.546
4.537
4.537
4.536
4.540
4.538
4.533
4.535
4.533
4.526
4.519
4.510
4.500
4.502
4.505
4.497
4.508
4.509
4.515
4.515
4.505
4.496
4.496
4.500
4.496
4.491
4.490
4.499
4.498
4.501
4.500
4.495
4.489
4.484
4.478
4.473
4.467
4.462
4.456
4.452
4.459
4.464
4.459
4.450
4.444
4.438
4.429
4.429
4.438
4.444
4.446
4.445
4.445
4.440
4.438
4.436
4.445
4.444
4.439
4.443
4.439
4.437
4.438
4.449
4.444
4.442
4.442
4.442
4.446
4.438
4.439
4.428
4.431
4.433
4.439
4.437
