2.994
3.329
3.516
3.631
3.705
3.779
3.827
3.885
3.912
3.965
3.954
3.985
4.019
4.056
4.086
4.113
4.136
4.134
4.079
4.083
4.099
4.108
4.134
4.140
4.151
4.165
4.173
4.187
4.191
4.203
4.219
4.219
4.229
4.245
4.246
4.251
4.267
4.271
4.283
4.282
4.284
4.298
4.307
4.315
4.304
4.317
4.320
4.330
4.333
4.348
4.352
4.362
4.347
4.349
4.357
4.367
4.371
4.375
4.383
4.390
4.394
4.401
4.413
4.393
4.394
4.390
4.402
4.408
4.413
4.413
4.415
4.423
4.432
4.439
4.445
4.447
4.445
4.455
4.456
4.461
4.466
4.463
4.444
4.443
4.448
4.451
4.461
4.461
4.466
4.469
4.465
4.467
4.474
4.473
4.478
4.491
4.490
4.490
4.496
4.501
4.497
4.501
4.499
4.497
4.505
4.509
4.518
4.517
4.520
4.523
4.530
4.530
4.538
4.529
4.537
4.537
4.537
4.536
4.520
4.512
4.513
4.510
4.518
4.529
4.524
4.521
4.528
4.533
4.533
4.536
4.545
4.542
4.534
4.531
4.541
4.541
4.532
4.541
4.544
4.544
4.552
4.551
4.558
4.556
4.563
4.568
4.556
4.557
4.561
4.572
4.567
4.580
4.574
4.582
4.580
4.579
4.571
4.568
4.580
4.577
4.578
4.574
4.588
4.580
4.588
4.581
4.585
4.591
4.589
4.602
4.603
4.603
4.607
4.599
4.609
4.605
4.604
4.607
4.604
4.614
4.609
4.617
4.618
4.621
4.628
4.623
4.625
4.631
4.628
4.628
4.631
4.617
4.628
4.629
4.626
4.632
4.623
4.622
4.630
4.618
4.619
4.634
4.630
4.627
4.632
4.643
4.645
4.643
4.650
4.653
4.646
4.644
4.658
4.657
4.648
4.656
4.663
4.663
4.656
4.664
4.655
4.646
4.638
4.629
4.620
4.622
4.619
4.620
4.620
4.633
4.629
4.623
4.623
4.640
4.626
4.627
4.619
4.637
4.639
4.636
4.627
4.632
4.645
4.645
4.645
4.643
4.648
4.659
4.653
4.651
4.651
4.649
4.645
4.634
4.633
4.635
4.645
4.637
4.635
4.630
4.635
4.635
4.632
4.634
4.632
4.632
4.646
4.636
4.630
4.629
4.629
4.643
4.646
4.645
4.646
4.642
4.642
4.650
4.658
4.650
4.653
4.649
4.649
4.653
4.659
4.656
4.652
4.648
4.647
4.651
4.667
4.659
4.662
4.659
4.658
4.659
4.661
4.672
4.670
4.668
4.676
4.671
4.669
4.667
4.682
4.686
4.689
4.679
4.676
4.669
4.667
4.680
4.671
4.675
4.671
4.666
4.665
4.667
4.678
4.671
4.672
4.670
4.670
4.671
4.673
4.668
4.683
4.692
4.686
4.687
4.683
4.685
4.681
4.685
4.682
4.691
4.684
4.690
4.683
4.686
4.688
4.683
4.681
4.690
4.703
4.704
4.702
4.702
4.706
4.705
4.705
4.704
4.698
4.705
4.715
4.713
4.710
4.714
4.711
4.712
4.707
4.697
4.700
4.713
4.724
4.722
4.722
4.715
4.712
4.706
4.702
4.695
4.701
4.700
4.694
4.690
4.685
4.687
4.693
4.686
4.687
4.685
4.696
4.697
4.688
4.682
4.683
4.679
4.682
4.679
4.681
4.682
4.684
4.696
4.700
4.693
4.695
4.694
4.693
4.691
4.690
4.690
4.688
4.684
4.695
4.700
4.711
4.715
4.706
4.703
4.701
4.700
4.700
4.698
4.691
4.689
4.687
4.696
4.707
4.715
4.707
4.711
4.703
4.694
4.690
4.693
4.691
4.688
4.691
4.688
4.694
4.705
4.716
4.717
4.713
4.710
4.708
4.712
4.709
4.709
4.709
4.704
4.706
4.703
4.705
4.708
4.716
4.726
4.728
4.726
4.729
4.718
4.715
4.719
4.716
4.724
4.719
4.718
4.713
4.704
4.706
4.716
4.726
4.730
4.728
4.732
4.728
4.724
4.727
4.729
4.727
4.724
4.720
4.722
4.723
4.724
4.727
4.726
4.726
4.736
4.745
4.755
4.754
4.750
4.743
4.739
4.746
4.746
4.747
4.747
4.738
4.733
4.734
4.729
4.724
4.726
4.734
4.743
4.752
4.749
4.745
4.745
4.745
4.743
4.741
4.734
4.727
4.720
4.718
4.717
4.720
4.723
4.714
4.720
4.729
4.738
4.747
4.741
4.740
4.742
4.743
4.733
4.732
4.725
4.723
4.723
4.719
4.711
4.712
4.715
4.719
4.714
4.714
4.721
4.730
4.739
4.747
4.749
4.745
4.745
4.751
4.749
4.746
4.746
4.747
4.749
4.739
4.737
4.730
4.732
4.727
4.729
4.728
4.729
4.727
4.726
4.734
4.742
4.751
4.759
4.757
4.758
4.763
4.762
4.758
4.760
4.761
4.757
4.753
4.755
4.754
4.747
4.750
4.749
4.745
4.743
4.743
4.744
4.735
4.741
4.741
4.748
4.756
4.764
4.772
4.774
4.776
4.775
4.775
4.776
4.782
4.780
4.779
4.775
4.771
4.765
4.763
4.761
4.765
4.764
4.764
4.763
4.763
4.762
4.762
4.754
4.753
4.754
4.760
4.768
4.776
4.784
4.784
4.786
4.782
4.779
4.777
4.776
4.773
4.767
4.768
4.762
4.762
4.760
4.759
4.761
4.759
4.755
4.747
4.747
4.741
4.740
4.745
4.748
4.747
4.754
4.762
4.769
4.777
4.782
4.786
4.786
4.778
4.774
4.778
4.773
4.773
4.776
4.779
4.775
4.769
4.772
4.770
4.770
4.767
4.767
4.769
4.776
4.773
4.773
4.772
4.765
4.765
4.764
4.770
4.768
4.764
4.766
4.773
4.780
4.787
4.794
4.801
4.809
4.805
4.802
4.804
4.806
4.798
4.804
4.801
4.799
4.800
4.798
4.805
4.804
4.806
4.805
4.812
4.810
4.808
4.800
4.793
4.789
4.788
4.789
4.781
4.777
4.782
4.786
4.786
4.783
4.779
4.783
4.789
4.796
4.803
4.810
4.816
4.817
4.814
4.811
4.807
4.803
4.799
4.795
4.791
4.788
4.784
4.780
4.781
4.783
4.779
4.772
4.765
4.759
4.757
4.758
4.755
4.757
4.755
4.754
4.753
4.755
4.755
4.755
4.757
4.762
4.769
4.775
4.781
4.788
4.794
4.793
4.793
4.791
4.786
4.781
4.777
4.772
4.767
4.766
4.771
4.769
4.763
4.764
4.761
4.764
4.762
4.768
4.765
4.761
4.761
4.757
4.759
4.758
4.767
4.765
4.767
4.767
4.764
4.763
4.761
4.755
4.755
4.754
4.754
4.755
4.761
4.767
4.774
4.780
4.786
4.782
4.778
4.776
4.775
4.776
4.780
4.775
4.768
4.768
4.770
4.777
4.779
4.786
4.786
4.780
4.778
4.781
4.780
4.776
4.771
4.771
4.775
4.773
4.776
4.775
4.771
4.770
4.769
4.767
4.766
4.768
4.766
4.762
4.760
4.758
4.756
4.758
4.764
4.767
4.771
4.770
4.766
4.768
4.773
4.779
4.785
4.790
4.792
4.789
4.785
4.782
4.782
4.775
4.775
4.777
4.780
4.778
4.774
4.772
4.772
4.768
4.763
4.764
4.763
4.761
4.762
4.761
4.759
4.762
4.767
4.773
4.768
4.773
4.771
4.765
4.761
4.757
4.756
4.757
4.763
4.758
4.758
4.757
4.752
4.756
4.755
4.756
4.756
4.757
4.754
4.759
4.758
4.758
4.763
4.769
4.774
4.779
4.785
4.790
4.796
4.801
4.802
4.801
4.802
4.799
4.796
4.797
4.790
4.789
4.788
4.788
4.792
4.792
4.788
4.790
4.791
4.795
4.790
4.785
4.779
4.774
4.769
4.764
4.758
4.757
4.758
4.760
4.759
4.758
4.755
4.758
4.754
4.755
4.761
4.761
4.756
4.760
4.766
4.773
4.773
4.774
4.768
4.768
4.769
4.768
4.767
4.762
4.764
4.761
4.763
4.759
4.760
4.765
4.770
4.775
4.780
4.785
4.790
4.795
4.801
4.799
4.799
4.798
4.797
4.795
4.798
4.800
4.800
4.805
4.801
4.800
4.800
4.799
4.799
4.798
4.792
4.791
4.790
4.784
4.791
4.795
4.801
4.803
4.801
4.798
4.798
4.794
4.790
4.789
4.790
4.785
4.780
4.774
4.772
4.766
4.768
4.772
4.772
4.774
4.775
4.774
4.775
4.769
4.764
4.760
4.762
4.762
4.759
4.757
4.757
4.760
4.756
4.756
4.755
4.755
4.757
4.761
