2.994
3.329
3.508
3.636
3.715
3.798
3.825
3.894
3.928
3.946
3.981
4.025
4.065
4.031
4.058
4.089
4.114
4.135
4.161
4.177
4.200
4.220
4.181
4.141
4.156
4.171
4.178
4.185
4.202
4.204
4.221
4.225
4.238
4.248
4.249
4.262
4.274
4.272
4.284
4.291
4.290
4.300
4.307
4.318
4.321
4.318
4.329
4.340
4.345
4.357
4.345
4.352
4.358
4.366
4.373
4.377
4.388
4.379
4.384
4.392
4.389
4.399
4.403
4.409
4.414
4.426
4.422
4.418
4.421
4.423
4.425
4.428
4.436
4.442
4.444
4.447
4.454
4.459
4.460
4.467
4.468
4.472
4.458
4.459
4.460
4.464
4.466
4.472
4.479
4.478
4.488
4.481
4.482
4.492
4.498
4.497
4.504
4.511
4.506
4.513
4.512
4.516
4.525
4.525
4.531
4.532
4.518
4.513
4.506
4.513
4.512
4.514
4.521
4.527
4.534
4.529
4.529
4.538
4.534
4.533
4.537
4.533
4.537
4.541
4.545
4.549
4.553
4.554
4.558
4.558
4.566
4.565
4.558
4.560
4.569
4.568
4.566
4.576
4.580
4.581
4.583
4.584
4.591
4.590
4.592
4.593
4.592
4.601
4.600
4.595
4.597
4.603
4.600
4.592
4.580
4.571
4.570
4.573
4.583
4.582
4.577
4.585
4.586
4.595
4.589
4.590
4.597
4.590
4.599
4.595
4.600
4.603
4.605
4.596
4.595
4.599
4.599
4.603
4.602
4.603
4.607
4.607
4.610
4.609
4.614
4.612
4.616
4.618
4.619
4.621
4.621
4.629
4.622
4.625
4.624
4.626
4.622
4.634
4.633
4.633
4.643
4.642
4.646
4.645
4.640
4.629
4.633
4.634
4.638
4.644
4.640
4.636
4.636
4.637
4.644
4.648
4.641
4.650
4.649
4.640
4.654
4.650
4.647
4.662
4.657
4.658
4.670
4.666
4.658
4.669
4.671
4.662
4.668
4.662
4.660
4.673
4.674
4.667
4.674
4.680
4.676
4.672
4.687
4.688
4.684
4.683
4.690
4.688
4.690
4.694
4.692
4.683
4.687
4.677
4.679
4.678
4.695
4.694
4.687
4.684
4.685
4.684
4.681
4.688
4.685
4.683
4.684
4.691
4.693
4.692
4.692
4.692
4.706
4.707
4.706
4.703
4.706
4.713
4.709
4.708
4.704
4.718
4.720
4.711
4.714
4.714
4.721
4.714
4.709
4.703
4.696
4.689
4.684
4.686
4.682
4.683
4.679
4.681
4.682
4.680
4.682
4.680
4.684
4.691
4.690
4.688
4.682
4.686
4.696
4.697
4.690
4.680
4.679
4.692
4.699
4.699
4.695
4.692
4.690
4.700
4.701
4.705
4.701
4.699
4.699
4.707
4.717
4.718
4.714
4.708
4.703
4.710
4.704
4.695
4.693
4.689
4.692
4.700
4.703
4.705
4.698
4.691
4.690
4.702
4.696
4.686
4.688
4.684
4.684
4.695
4.706
4.703
4.695
4.689
4.695
4.686
4.698
4.699
4.699
4.699
4.701
4.697
4.693
4.699
4.710
4.714
4.712
4.710
4.715
4.714
4.710
4.708
4.715
4.721
4.718
4.718
4.712
4.710
4.710
4.711
4.714
4.714
4.718
4.714
4.714
4.711
4.714
4.716
4.723
4.724
4.725
4.721
4.721
4.722
4.720
4.714
4.720
4.730
4.737
4.740
4.736
4.736
4.733
4.733
4.731
4.727
4.736
4.743
4.736
4.732
4.726
4.718
4.721
4.718
4.723
4.733
4.739
4.736
4.734
4.727
4.733
4.730
4.725
4.718
4.728
4.735
4.736
4.736
4.736
4.730
4.734
4.730
4.737
4.732
4.729
4.740
4.750
4.751
4.744
4.749
4.748
4.744
4.740
4.741
4.740
4.744
4.745
4.747
4.747
4.746
4.745
4.744
4.747
4.747
4.745
4.743
4.742
4.747
4.756
4.763
4.766
4.763
4.764
4.762
4.762
4.758
4.756
4.762
4.767
4.760
4.762
4.771
4.772
4.766
4.770
4.773
4.770
4.770
4.762
4.758
4.759
4.755
4.761
4.770
4.778
4.774
4.769
4.763
4.759
4.754
4.747
4.741
4.736
4.744
4.751
4.758
4.755
4.755
4.753
4.752
4.750
4.741
4.742
4.746
4.745
4.747
4.744
4.749
4.748
4.741
4.740
4.738
4.739
4.740
4.737
4.736
4.742
4.738
4.740
4.738
4.739
4.746
4.755
4.757
4.756
4.755
4.756
4.752
4.751
4.743
4.744
4.749
4.750
4.752
4.745
4.744
4.748
4.755
4.764
4.773
4.777
4.773
4.766
4.757
4.758
4.757
4.759
4.757
4.755
4.749
4.751
4.746
4.748
4.757
4.764
4.773
4.772
4.765
4.759
4.752
4.755
4.758
4.762
4.754
4.747
4.746
4.747
4.744
4.744
4.751
4.758
4.765
4.770
4.774
4.772
4.771
4.770
4.771
4.764
4.766
4.766
4.763
4.762
4.766
4.761
4.757
4.758
4.760
4.762
4.768
4.773
4.782
4.784
4.782
4.781
4.784
4.786
4.782
4.777
4.776
4.775
4.776
4.769
4.763
4.761
4.763
4.770
4.774
4.772
4.773
4.780
4.787
4.786
4.784
4.781
4.776
4.777
4.777
4.777
4.777
4.780
4.784
4.778
4.774
4.769
4.773
4.773
4.777
4.778
4.776
4.778
4.785
4.792
4.796
4.803
4.803
4.799
4.803
4.803
4.804
4.803
4.803
4.797
4.798
4.795
4.793
4.791
4.792
4.794
4.792
4.791
4.787
4.791
4.788
4.794
4.801
4.808
4.807
4.803
4.801
4.805
4.803
4.803
4.799
4.794
4.793
4.792
4.788
4.791
4.788
4.783
4.777
4.775
4.771
4.770
4.777
4.784
4.790
4.797
4.798
4.795
4.796
4.792
4.793
4.794
4.793
4.797
4.796
4.794
4.788
4.791
4.785
4.786
4.787
4.781
4.774
4.769
4.768
4.773
4.770
4.777
4.782
4.788
4.792
4.792
4.790
4.797
4.799
4.795
4.798
4.792
4.793
4.788
4.792
4.794
4.788
4.792
4.788
4.784
4.790
4.789
4.788
4.794
4.792
4.792
4.796
4.797
4.790
4.788
4.788
4.794
4.801
4.807
4.803
4.805
4.806
4.805
4.803
4.802
4.796
4.799
4.796
4.799
4.801
4.800
4.798
4.800
4.798
4.797
4.796
4.795
4.798
4.800
4.799
4.799
4.792
4.792
4.792
4.797
4.803
4.800
4.806
4.811
4.817
4.824
4.821
4.822
4.820
4.822
4.818
4.818
4.817
4.813
4.810
4.808
4.810
4.813
4.814
4.811
4.815
4.818
4.818
4.818
4.817
4.814
4.814
4.813
4.817
4.819
4.815
4.816
4.814
4.811
4.812
4.813
4.818
4.824
4.829
4.835
4.837
4.836
4.833
4.830
4.834
4.832
4.831
4.830
4.829
4.825
4.825
4.824
4.825
4.830
4.825
4.822
4.820
4.821
4.820
4.822
4.821
4.816
4.820
4.818
4.818
4.816
4.815
4.810
4.806
4.810
4.815
4.819
4.825
4.830
4.828
4.829
4.825
4.819
4.820
4.822
4.823
4.818
4.820
4.822
4.820
4.825
4.823
4.827
4.826
4.824
4.821
4.825
4.823
4.822
4.817
4.814
4.812
4.811
4.810
4.811
4.810
4.807
4.806
4.808
4.812
4.813
4.809
4.814
4.818
4.821
4.826
4.832
4.836
4.841
4.847
4.849
4.848
4.847
4.844
4.840
4.844
4.841
4.842
4.838
4.837
4.838
4.839
4.843
4.842
4.840
4.836
4.835
4.836
4.833
4.833
4.838
4.842
4.841
4.844
4.840
4.837
4.840
4.840
4.841
4.837
4.833
4.836
4.836
4.834
4.836
4.834
4.833
4.829
4.835
4.840
4.846
4.850
4.855
4.859
4.865
4.870
4.871
4.870
4.865
4.859
4.858
4.855
4.855
4.856
4.852
4.858
4.858
4.853
4.855
4.853
4.851
4.851
4.851
4.851
4.847
4.848
4.849
4.853
4.849
4.851
4.847
4.845
4.843
4.839
4.836
4.834
4.830
4.829
4.827
4.823
4.821
4.820
4.825
4.831
4.835
4.839
4.838
4.837
4.833
4.836
4.832
4.828
4.829
4.829
4.832
4.829
4.827
4.831
4.829
4.831
4.829
4.828
4.827
4.829
4.836
4.834
4.832
4.833
4.830
4.829
4.827
4.826
4.824
4.826
4.830
4.826
4.825
4.825
4.825
4.821
4.821
4.817
4.813
4.810
4.808
4.804
