2.994
3.334
3.514
3.636
3.720
3.794
3.834
3.880
3.939
3.960
4.012
4.005
4.046
4.079
4.097
4.075
4.103
4.126
4.147
4.165
4.188
4.208
4.221
4.238
4.257
4.225
4.188
4.192
4.199
4.214
4.218
4.233
4.240
4.250
4.254
4.264
4.265
4.277
4.287
4.286
4.295
4.307
4.311
4.313
4.323
4.332
4.338
4.332
4.344
4.349
4.356
4.365
4.356
4.365
4.374
4.381
4.383
4.394
4.385
4.389
4.397
4.401
4.410
4.409
4.418
4.428
4.423
4.416
4.426
4.428
4.432
4.438
4.445
4.444
4.449
4.458
4.462
4.464
4.454
4.455
4.459
4.460
4.465
4.466
4.476
4.479
4.476
4.483
4.487
4.494
4.495
4.501
4.501
4.502
4.509
4.502
4.495
4.497
4.503
4.504
4.505
4.508
4.509
4.516
4.517
4.521
4.519
4.524
4.527
4.526
4.538
4.540
4.539
4.542
4.545
4.542
4.550
4.546
4.552
4.560
4.561
4.562
4.568
4.559
4.545
4.546
4.547
4.549
4.549
4.549
4.550
4.556
4.561
4.565
4.569
4.567
4.569
4.576
4.571
4.570
4.572
4.576
4.572
4.579
4.583
4.586
4.590
4.589
4.591
4.587
4.593
4.595
4.604
4.606
4.597
4.597
4.597
4.606
4.604
4.608
4.604
4.609
4.613
4.619
4.618
4.620
4.626
4.622
4.621
4.630
4.631
4.633
4.631
4.636
4.627
4.633
4.637
4.636
4.629
4.619
4.608
4.606
4.602
4.609
4.607
4.612
4.616
4.622
4.619
4.616
4.626
4.623
4.631
4.622
4.626
4.625
4.626
4.630
4.634
4.633
4.637
4.638
4.634
4.634
4.635
4.638
4.634
4.636
4.632
4.636
4.637
4.636
4.642
4.639
4.646
4.644
4.649
4.647
4.646
4.655
4.653
4.660
4.659
4.655
4.665
4.660
4.665
4.658
4.660
4.661
4.659
4.669
4.670
4.664
4.678
4.674
4.671
4.682
4.678
4.674
4.662
4.663
4.671
4.669
4.668
4.679
4.676
4.669
4.673
4.669
4.671
4.682
4.675
4.675
4.682
4.679
4.678
4.682
4.681
4.682
4.689
4.691
4.690
4.688
4.700
4.701
4.697
4.701
4.700
4.699
4.695
4.708
4.698
4.693
4.703
4.699
4.700
4.702
4.711
4.707
4.706
4.707
4.717
4.713
4.712
4.708
4.723
4.719
4.714
4.716
4.727
4.724
4.727
4.716
4.717
4.707
4.711
4.713
4.716
4.718
4.717
4.718
4.725
4.729
4.720
4.713
4.722
4.724
4.719
4.716
4.717
4.723
4.722
4.719
4.720
4.726
4.728
4.729
4.731
4.726
4.730
4.742
4.741
4.742
4.734
4.735
4.745
4.743
4.742
4.740
4.739
4.749
4.749
4.745
4.747
4.746
4.741
4.734
4.728
4.724
4.719
4.713
4.717
4.715
4.714
4.721
4.719
4.718
4.711
4.707
4.714
4.712
4.714
4.715
4.712
4.716
4.723
4.724
4.723
4.721
4.720
4.715
4.725
4.735
4.728
4.719
4.717
4.715
4.723
4.731
4.728
4.734
4.728
4.726
4.723
4.732
4.736
4.732
4.733
4.735
4.731
4.731
4.738
4.748
4.752
4.748
4.745
4.746
4.739
4.737
4.730
4.726
4.727
4.721
4.722
4.729
4.738
4.735
4.733
4.732
4.730
4.724
4.727
4.735
4.728
4.721
4.720
4.713
4.717
4.721
4.731
4.735
4.733
4.735
4.730
4.727
4.720
4.724
4.734
4.735
4.730
4.727
4.727
4.732
4.728
4.731
4.734
4.743
4.739
4.742
4.742
4.742
4.736
4.737
4.742
4.740
4.750
4.745
4.744
4.746
4.747
4.746
4.745
4.743
4.742
4.753
4.753
4.746
4.742
4.740
4.742
4.745
4.742
4.742
4.750
4.760
4.755
4.757
4.753
4.751
4.750
4.748
4.750
4.748
4.756
4.762
4.764
4.762
4.761
4.764
4.761
4.764
4.763
4.764
4.760
4.767
4.775
4.773
4.771
4.768
4.763
4.759
4.758
4.756
4.753
4.762
4.766
4.767
4.768
4.764
4.761
4.762
4.761
4.762
4.758
4.756
4.763
4.767
4.766
4.764
4.761
4.760
4.760
4.757
4.756
4.760
4.756
4.762
4.769
4.779
4.777
4.776
4.775
4.775
4.769
4.768
4.774
4.770
4.771
4.771
4.772
4.779
4.786
4.787
4.783
4.781
4.775
4.770
4.769
4.765
4.768
4.773
4.771
4.776
4.785
4.789
4.790
4.787
4.791
4.787
4.788
4.789
4.786
4.784
4.785
4.787
4.783
4.784
4.794
4.801
4.810
4.811
4.805
4.801
4.801
4.795
4.788
4.794
4.796
4.790
4.791
4.790
4.796
4.803
4.805
4.805
4.801
4.803
4.801
4.798
4.799
4.794
4.790
4.784
4.782
4.781
4.788
4.782
4.783
4.779
4.779
4.779
4.775
4.781
4.777
4.784
4.777
4.776
4.769
4.773
4.782
4.787
4.788
4.790
4.794
4.790
4.785
4.778
4.774
4.770
4.768
4.764
4.763
4.760
4.764
4.771
4.779
4.779
4.785
4.784
4.783
4.782
4.782
4.784
4.782
4.778
4.775
4.775
4.774
4.773
4.771
4.773
4.775
4.781
4.788
4.792
4.791
4.794
4.793
4.794
4.790
4.786
4.785
4.787
4.791
4.794
4.793
4.794
4.793
4.790
4.783
4.782
4.790
4.795
4.801
4.800
4.799
4.792
4.790
4.789
4.791
4.789
4.790
4.786
4.785
4.789
4.785
4.786
4.782
4.776
4.783
4.790
4.796
4.800
4.793
4.792
4.790
4.786
4.786
4.790
4.793
4.787
4.785
4.787
4.786
4.786
4.786
4.786
4.782
4.782
4.782
4.789
4.796
4.801
4.808
4.809
4.807
4.808
4.808
4.803
4.799
4.803
4.802
4.803
4.802
4.800
4.805
4.803
4.799
4.803
4.802
4.803
4.802
4.801
4.801
4.806
4.812
4.816
4.813
4.814
4.813
4.814
4.810
4.814
4.813
4.814
4.810
4.803
4.801
4.800
4.796
4.798
4.794
4.801
4.801
4.800
4.797
4.801
4.807
4.812
4.819
4.819
4.823
4.819
4.818
4.814
4.816
4.814
4.818
4.817
4.821
4.822
4.821
4.816
4.813
4.814
4.812
4.816
4.816
4.814
4.815
4.814
4.810
4.811
4.818
4.825
4.831
4.836
4.842
4.838
4.840
4.838
4.832
4.833
4.832
4.828
4.831
4.828
4.827
4.830
4.829
4.828
4.826
4.825
4.823
4.820
4.819
4.823
4.816
4.820
4.818
4.823
4.827
4.834
4.831
4.825
4.823
4.819
4.815
4.812
4.813
4.811
4.810
4.806
4.805
4.806
4.804
4.806
4.808
4.805
4.807
4.808
4.808
4.809
4.810
4.811
4.810
4.811
4.818
4.822
4.827
4.833
4.835
4.830
4.829
4.827
4.823
4.820
4.816
4.814
4.808
4.811
4.813
4.814
4.815
4.817
4.813
4.811
4.805
4.805
4.804
4.803
4.804
4.801
4.799
4.800
4.805
4.811
4.816
4.822
4.827
4.828
4.831
4.834
4.838
4.842
4.837
4.838
4.832
4.830
4.834
4.834
4.835
4.833
4.834
4.831
4.829
4.825
4.823
4.822
4.819
4.823
4.819
4.822
4.823
4.820
4.816
4.816
4.810
4.811
4.815
4.820
4.826
4.830
4.835
4.839
4.840
4.839
4.840
4.841
4.842
4.839
4.837
4.836
4.842
4.839
4.843
4.841
4.843
4.842
4.842
4.836
4.840
4.842
4.842
4.841
4.842
4.838
4.838
4.834
4.831
4.827
4.826
4.827
4.826
4.823
4.826
4.827
4.831
4.836
4.842
4.847
4.851
4.856
4.859
4.861
4.859
4.856
4.854
4.850
4.851
4.852
4.851
4.852
4.853
4.856
4.856
4.852
4.853
4.856
4.859
4.861
4.860
4.861
4.856
4.853
4.849
4.849
4.849
4.850
4.846
4.844
4.842
4.841
4.843
4.842
4.845
4.844
4.842
4.847
4.851
4.855
4.860
4.864
4.867
4.863
4.868
4.866
4.865
4.866
4.868
4.864
4.865
4.861
4.859
4.860
4.862
4.861
4.859
4.855
4.853
4.847
4.843
4.839
4.837
4.834
4.835
4.838
4.832
4.834
4.840
4.838
4.835
4.836
4.835
4.839
4.837
4.834
4.835
4.839
4.845
4.849
4.853
4.858
4.862
4.868
4.867
4.864
4.864
4.863
