2.994
3.337
3.509
3.629
3.718
3.786
3.851
3.893
3.918
3.975
3.974
4.016
4.053
4.063
4.053
4.087
4.110
4.132
4.151
4.177
4.199
4.211
4.231
4.202
4.162
4.170
4.181
4.188
4.204
4.208
4.223
4.229
4.240
4.243
4.256
4.266
4.266
4.277
4.288
4.287
4.299
4.309
4.311
4.310
4.321
4.331
4.335
4.334
4.341
4.345
4.355
4.361
4.371
4.358
4.369
4.373
4.381
4.388
4.392
4.402
4.403
4.392
4.399
4.400
4.409
4.419
4.420
4.424
4.431
4.440
4.439
4.432
4.431
4.436
4.439
4.443
4.450
4.454
4.455
4.460
4.462
4.468
4.477
4.471
4.480
4.484
4.491
4.471
4.472
4.479
4.478
4.481
4.486
4.492
4.492
4.496
4.495
4.501
4.503
4.506
4.513
4.518
4.518
4.526
4.521
4.523
4.527
4.529
4.536
4.540
4.544
4.548
4.536
4.521
4.522
4.523
4.524
4.528
4.532
4.532
4.535
4.542
4.544
4.545
4.552
4.551
4.547
4.548
4.547
4.551
4.554
4.556
4.558
4.569
4.568
4.566
4.573
4.573
4.581
4.583
4.574
4.580
4.585
4.583
4.581
4.580
4.588
4.592
4.598
4.595
4.599
4.603
4.604
4.603
4.609
4.613
4.615
4.614
4.610
4.614
4.617
4.619
4.607
4.595
4.585
4.584
4.587
4.586
4.598
4.595
4.593
4.599
4.601
4.610
4.606
4.603
4.604
4.610
4.612
4.610
4.615
4.611
4.618
4.616
4.610
4.614
4.612
4.618
4.612
4.616
4.610
4.619
4.617
4.624
4.620
4.624
4.625
4.625
4.631
4.629
4.639
4.635
4.642
4.643
4.639
4.640
4.636
4.636
4.634
4.649
4.644
4.646
4.655
4.652
4.658
4.657
4.655
4.649
4.640
4.646
4.642
4.651
4.653
4.651
4.651
4.649
4.647
4.657
4.655
4.655
4.662
4.658
4.658
4.663
4.661
4.662
4.670
4.669
4.667
4.679
4.677
4.677
4.681
4.682
4.675
4.681
4.681
4.673
4.677
4.681
4.683
4.679
4.689
4.688
4.688
4.687
4.695
4.693
4.691
4.698
4.699
4.698
4.697
4.706
4.707
4.696
4.697
4.692
4.692
4.685
4.700
4.696
4.702
4.698
4.705
4.703
4.694
4.693
4.705
4.701
4.694
4.692
4.705
4.704
4.702
4.704
4.703
4.712
4.711
4.706
4.711
4.715
4.724
4.718
4.714
4.712
4.724
4.725
4.721
4.723
4.721
4.731
4.733
4.726
4.724
4.723
4.718
4.712
4.707
4.703
4.699
4.692
4.688
4.695
4.702
4.693
4.683
4.679
4.692
4.701
4.697
4.696
4.695
4.693
4.703
4.709
4.702
4.707
4.703
4.703
4.707
4.698
4.700
4.696
4.700
4.704
4.716
4.710
4.710
4.706
4.708
4.706
4.718
4.720
4.721
4.714
4.718
4.720
4.719
4.731
4.729
4.721
4.721
4.712
4.713
4.710
4.708
4.704
4.703
4.703
4.708
4.720
4.714
4.712
4.707
4.703
4.705
4.706
4.705
4.704
4.705
4.704
4.705
4.701
4.711
4.715
4.710
4.706
4.703
4.704
4.699
4.709
4.719
4.718
4.719
4.717
4.714
4.707
4.711
4.715
4.725
4.732
4.732
4.728
4.727
4.717
4.716
4.717
4.727
4.734
4.730
4.725
4.724
4.723
4.721
4.715
4.724
4.732
4.730
4.736
4.735
4.737
4.729
4.723
4.727
4.731
4.738
4.739
4.740
4.734
4.736
4.732
4.735
4.732
4.733
4.742
4.754
4.758
4.754
4.750
4.747
4.745
4.747
4.744
4.743
4.750
4.743
4.744
4.738
4.739
4.740
4.739
4.735
4.736
4.743
4.753
4.749
4.748
4.744
4.739
4.738
4.736
4.733
4.731
4.740
4.750
4.752
4.751
4.752
4.750
4.752
4.745
4.747
4.748
4.744
4.745
4.755
4.764
4.763
4.761
4.758
4.762
4.765
4.761
4.758
4.750
4.746
4.753
4.762
4.769
4.762
4.762
4.765
4.764
4.763
4.766
4.760
4.761
4.758
4.756
4.766
4.775
4.779
4.780
4.781
4.780
4.781
4.780
4.782
4.773
4.774
4.777
4.766
4.772
4.781
4.786
4.785
4.786
4.781
4.780
4.777
4.777
4.771
4.772
4.769
4.772
4.774
4.780
4.774
4.769
4.763
4.761
4.755
4.756
4.754
4.751
4.747
4.750
4.757
4.766
4.766
4.764
4.769
4.767
4.765
4.761
4.758
4.759
4.763
4.758
4.760
4.755
4.752
4.759
4.758
4.756
4.757
4.756
4.754
4.756
4.758
4.756
4.758
4.756
4.754
4.753
4.747
4.753
4.760
4.769
4.774
4.772
4.769
4.762
4.763
4.761
4.758
4.762
4.765
4.766
4.766
4.762
4.765
4.759
4.762
4.770
4.776
4.781
4.773
4.777
4.776
4.770
4.774
4.775
4.771
4.769
4.760
4.759
4.760
4.766
4.763
4.762
4.769
4.777
4.776
4.775
4.773
4.778
4.773
4.772
4.766
4.769
4.763
4.764
4.763
4.761
4.758
4.756
4.754
4.761
4.769
4.775
4.784
4.791
4.790
4.788
4.784
4.783
4.779
4.778
4.782
4.780
4.774
4.777
4.776
4.775
4.773
4.777
4.776
4.780
4.776
4.783
4.788
4.797
4.803
4.795
4.795
4.795
4.795
4.792
4.790
4.786
4.785
4.783
4.784
4.784
4.782
4.781
4.782
4.778
4.777
4.780
4.787
4.792
4.799
4.795
4.793
4.795
4.793
4.791
4.793
4.792
4.795
4.794
4.792
4.795
4.795
4.788
4.788
4.792
4.793
4.791
4.792
4.788
4.788
4.795
4.801
4.808
4.814
4.822
4.818
4.818
4.820
4.819
4.818
4.819
4.815
4.808
4.806
4.803
4.801
4.802
4.810
4.808
4.809
4.810
4.803
4.805
4.798
4.799
4.806
4.811
4.818
4.822
4.818
4.813
4.809
4.813
4.815
4.813
4.809
4.803
4.798
4.794
4.790
4.786
4.782
4.778
4.779
4.781
4.788
4.783
4.785
4.792
4.799
4.803
4.810
4.808
4.807
4.810
4.812
4.813
4.814
4.811
4.809
4.802
4.799
4.799
4.798
4.792
4.788
4.792
4.793
4.792
4.790
4.786
4.785
4.781
4.781
4.786
4.792
4.797
4.804
4.810
4.806
4.808
4.812
4.813
4.814
4.811
4.809
4.807
4.806
4.810
4.807
4.805
4.806
4.807
4.804
4.805
4.806
4.803
4.806
4.808
4.806
4.805
4.799
4.797
4.798
4.792
4.799
4.803
4.810
4.816
4.820
4.821
4.820
4.813
4.814
4.814
4.812
4.810
4.815
4.816
4.815
4.819
4.815
4.814
4.812
4.811
4.815
4.816
4.815
4.818
4.814
4.814
4.817
4.811
4.809
4.813
4.814
4.811
4.810
4.808
4.815
4.819
4.825
4.830
4.837
4.836
4.839
4.841
4.836
4.829
4.825
4.825
4.829
4.825
4.826
4.825
4.828
4.827
4.826
4.830
4.832
4.833
4.831
4.835
4.832
4.836
4.832
4.832
4.832
4.835
4.829
4.824
4.818
4.821
4.821
4.824
4.826
4.832
4.836
4.841
4.844
4.841
4.844
4.844
4.847
4.847
4.847
4.847
4.848
4.847
4.844
4.841
4.836
4.833
4.840
4.836
4.837
4.840
4.839
4.836
4.836
4.832
4.831
4.829
4.826
4.822
4.818
4.814
4.812
4.813
4.812
4.814
4.820
4.825
4.831
4.835
4.840
4.838
4.840
4.840
4.839
4.840
4.839
4.840
4.836
4.838
4.837
4.833
4.832
4.838
4.837
4.840
4.839
4.838
4.837
4.841
4.834
4.830
4.832
4.832
4.829
4.825
4.820
4.822
4.821
4.825
4.825
4.824
4.825
4.827
4.826
4.827
4.826
4.832
4.831
4.833
4.839
4.843
4.847
4.852
4.858
4.858
4.859
4.852
4.850
4.854
4.858
4.860
4.861
4.858
4.855
4.857
4.855
4.854
4.851
4.854
4.850
4.849
4.851
4.851
4.850
4.847
4.850
4.857
4.858
4.863
4.858
4.857
4.851
4.849
4.851
4.854
4.850
4.852
4.851
4.851
4.848
4.851
4.848
4.847
4.844
4.846
4.848
4.851
4.856
4.862
4.866
4.869
4.873
4.877
4.873
4.869
4.866
4.868
4.872
4.871
4.872
4.869
4.864
4.868
4.867
4.866
4.866
4.873
4.872
4.869
