2.996
3.321
3.488
3.623
3.720
3.772
3.777
3.845
3.905
3.955
3.969
3.904
3.928
3.965
3.984
4.003
4.019
4.047
4.056
4.067
4.084
4.115
4.112
4.131
4.150
4.144
4.156
4.180
4.193
4.178
4.197
4.211
4.220
4.229
4.248
4.222
4.233
4.253
4.254
4.267
4.281
4.279
4.294
4.311
4.310
4.290
4.295
4.295
4.306
4.308
4.315
4.329
4.331
4.343
4.346
4.346
4.347
4.358
4.366
4.373
4.383
4.378
4.383
4.394
4.392
4.365
4.374
4.368
4.368
4.381
4.390
4.379
4.375
4.381
4.380
4.393
4.404
4.418
4.401
4.412
4.423
4.436
4.431
4.434
4.420
4.413
4.429
4.429
4.436
4.433
4.446
4.459
4.446
4.456
4.460
4.454
4.467
4.478
4.475
4.484
4.475
4.495
4.485
4.471
4.482
4.474
4.475
4.484
4.488
4.490
4.499
4.495
4.513
4.496
4.519
4.518
4.520
4.523
4.526
4.521
4.517
4.501
4.485
4.482
4.487
4.484
4.481
4.499
4.489
4.497
4.509
4.501
4.509
4.520
4.511
4.501
4.482
4.488
4.493
4.481
4.489
4.489
4.484
4.485
4.504
4.510
4.498
4.508
4.513
4.510
4.503
4.520
4.511
4.505
4.508
4.520
4.523
4.521
4.516
4.537
4.536
4.532
4.527
4.544
4.527
4.520
4.518
4.541
4.526
4.528
4.524
4.531
4.548
4.543
4.541
4.537
4.542
4.551
4.546
4.546
4.541
4.546
4.567
4.575
4.568
4.561
4.552
4.567
4.580
4.576
4.570
4.567
4.564
4.580
4.588
4.568
4.575
4.572
4.562
4.563
4.550
4.551
4.544
4.549
4.557
4.546
4.547
4.548
4.539
4.533
4.550
4.572
4.572
4.568
4.559
4.547
4.550
4.553
4.573
4.575
4.573
4.562
4.549
4.546
4.546
4.566
4.578
4.564
4.565
4.565
4.562
4.569
4.564
4.568
4.588
4.588
4.582
4.578
4.578
4.580
4.574
4.560
4.579
4.588
4.594
4.594
4.591
4.586
4.587
4.585
4.592
4.588
4.596
4.614
4.621
4.605
4.604
4.604
4.600
4.592
4.592
4.588
4.602
4.616
4.621
4.621
4.611
4.598
4.594
4.594
4.579
4.579
4.588
4.601
4.591
4.593
4.590
4.595
4.589
4.586
4.586
4.580
4.591
4.600
4.597
4.607
4.611
4.605
4.601
4.602
4.607
4.602
4.605
4.600
4.599
4.595
4.597
4.605
4.620
4.632
4.628
4.627
4.626
4.627
4.616
4.625
4.620
4.632
4.625
4.629
4.615
4.614
4.625
4.639
4.654
4.645
4.649
4.654
4.647
4.631
4.627
4.625
4.628
4.621
4.625
4.625
4.630
4.624
4.639
4.636
4.641
4.640
4.632
4.637
4.636
4.637
4.630
4.623
4.626
4.626
4.625
4.628
4.617
4.618
4.631
4.645
4.658
4.668
4.677
4.675
4.670
4.662
4.659
4.654
4.647
4.654
4.660
4.667
4.667
4.663
4.660
4.650
4.652
4.650
4.653
4.665
4.678
4.681
4.675
4.673
4.677
4.680
4.685
4.679
4.678
4.672
4.666
4.654
4.657
4.656
4.654
4.658
4.652
4.649
4.648
4.660
4.667
4.667
4.666
4.668
4.655
4.652
4.652
4.652
4.652
4.643
4.634
4.628
4.625
4.626
4.622
4.622
4.616
4.613
4.616
4.628
4.639
4.649
4.654
4.655
4.657
4.653
4.648
4.640
4.641
4.639
4.639
4.648
4.643
4.640
4.635
4.631
4.636
4.645
4.640
4.633
4.632
4.625
4.632
4.635
4.630
4.633
4.644
4.653
4.649
4.650
4.641
4.639
4.631
4.645
4.641
4.642
4.643
4.642
4.633
4.637
4.631
4.633
4.623
4.624
4.620
4.617
4.619
4.622
4.624
4.627
4.635
4.639
4.638
4.635
4.633
4.643
4.653
4.663
4.671
4.663
4.660
4.658
4.651
4.648
4.654
4.653
4.643
4.638
4.633
4.632
4.645
4.648
4.649
4.643
4.641
4.644
4.631
4.628
4.628
4.620
4.626
4.618
4.624
4.630
4.621
4.619
4.623
4.632
4.642
4.651
4.660
4.670
4.669
4.675
4.681
4.678
4.671
4.675
4.668
4.670
4.666
4.656
4.647
4.646
4.645
4.636
4.639
4.642
4.642
4.645
4.640
4.643
4.640
4.638
4.643
4.641
4.645
4.645
4.643
4.637
4.636
4.632
4.642
4.639
4.639
4.648
4.642
4.648
4.657
4.665
4.674
4.683
4.677
4.669
4.669
4.668
4.660
4.672
4.678
4.680
4.675
4.676
4.683
4.680
4.682
4.676
4.676
4.672
4.669
4.668
4.669
4.673
4.670
4.673
4.661
4.654
4.649
4.657
4.657
4.661
4.657
4.655
4.657
4.665
4.655
4.647
4.646
4.644
4.651
4.650
4.644
4.649
4.651
4.659
4.667
4.675
4.683
4.691
4.699
4.707
4.715
4.719
4.716
4.709
4.711
4.711
4.710
4.702
4.702
4.706
4.701
4.700
4.701
4.697
4.694
4.697
4.697
4.694
4.689
4.692
4.698
4.697
4.691
4.695
4.700
4.695
4.692
4.695
4.704
4.714
4.710
4.702
4.697
4.689
4.694
4.693
4.689
4.687
4.680
4.672
4.674
4.677
4.674
4.673
4.679
4.674
4.664
4.667
4.674
4.681
4.688
4.696
4.703
4.707
4.701
4.701
4.707
4.702
4.701
4.696
4.696
4.692
4.687
4.689
4.690
4.689
4.693
4.687
4.692
4.682
4.685
4.683
4.679
4.682
4.679
4.682
4.678
4.670
4.662
4.661
4.658
4.665
4.662
4.663
4.661
4.657
4.651
4.661
4.659
4.662
4.668
4.678
4.680
4.680
4.676
4.666
4.661
4.653
4.652
4.652
4.656
4.652
4.645
4.646
4.646
4.640
4.636
4.642
4.649
4.656
4.662
4.669
4.676
4.682
4.689
4.696
4.702
4.709
4.716
4.722
4.725
4.723
4.719
4.714
4.717
4.708
4.710
4.709
4.713
4.712
4.703
4.701
4.700
4.697
4.691
4.691
4.701
4.708
4.708
4.710
4.708
4.708
4.706
4.711
4.708
4.704
4.696
4.697
4.701
4.694
4.693
4.696
4.703
4.699
4.702
4.704
4.702
4.698
4.699
4.702
4.699
4.693
4.691
4.693
4.694
4.697
4.689
4.684
4.684
4.683
4.678
4.683
4.686
4.683
4.682
4.680
4.679
4.682
4.689
4.688
4.685
4.688
4.688
4.688
4.697
4.699
4.697
4.697
4.692
4.690
4.695
4.697
4.693
4.694
4.700
4.706
4.712
4.718
4.724
4.730
4.736
4.736
4.736
4.740
4.736
4.734
4.726
4.725
4.724
4.717
4.718
4.712
4.714
4.706
4.703
4.707
4.707
4.699
4.692
4.689
4.687
4.685
4.684
4.690
4.682
4.681
4.684
4.681
4.685
4.686
4.683
4.681
4.682
4.677
4.680
4.676
4.674
4.678
4.686
4.687
4.690
4.684
4.684
4.682
4.680
4.674
4.676
4.675
4.672
4.676
4.676
4.674
4.679
4.681
4.677
4.673
4.668
4.663
4.655
4.656
4.654
4.661
4.649
4.645
4.648
4.652
4.644
4.639
4.638
4.642
4.640
4.641
4.634
4.635
4.638
4.633
4.639
4.643
4.641
4.650
4.651
4.644
4.647
4.653
4.658
4.663
4.669
4.674
4.679
4.685
4.690
4.695
4.701
4.706
4.711
4.716
4.722
4.727
4.733
4.738
4.743
4.748
4.746
4.742
4.739
4.733
4.743
4.741
4.742
4.744
4.749
4.757
4.756
4.753
4.750
4.754
4.750
4.748
4.744
4.735
4.732
4.734
4.728
4.730
4.730
4.727
4.719
4.717
4.712
4.711
4.706
4.707
4.708
4.710
4.713
4.708
4.708
4.702
4.709
4.706
4.705
4.701
4.709
4.712
4.707
4.702
4.697
4.692
4.687
4.681
4.676
4.672
4.677
4.672
4.669
4.666
4.665
4.661
4.661
4.664
4.661
4.659
4.662
4.664
4.668
4.667
4.663
4.662
4.654
4.647
4.644
4.651
4.658
4.663
4.662
4.660
4.667
4.672
4.672
4.672
4.670
4.669
4.673
4.670
4.663
4.665
4.663
4.661
4.663
4.665
4.669
4.668
4.669
4.671
4.676
4.675
4.677
4.685
4.688
4.685
4.686
4.687
4.680
4.680
4.688
4.686
4.679
4.673
4.669
4.673
4.666
4.668
4.673
4.678
