2.991
3.327
3.507
3.634
3.710
3.796
3.851
3.888
3.900
3.955
4.004
3.975
4.010
4.041
4.073
4.099
4.132
4.151
4.176
4.139
4.102
4.114
4.127
4.137
4.157
4.162
4.182
4.186
4.199
4.205
4.221
4.221
4.233
4.243
4.245
4.257
4.270
4.281
4.272
4.281
4.294
4.304
4.310
4.306
4.316
4.323
4.329
4.337
4.346
4.334
4.341
4.351
4.359
4.362
4.373
4.380
4.379
4.370
4.377
4.380
4.387
4.394
4.395
4.397
4.409
4.418
4.418
4.422
4.428
4.432
4.415
4.418
4.420
4.427
4.439
4.435
4.442
4.447
4.445
4.457
4.459
4.466
4.469
4.468
4.467
4.477
4.483
4.485
4.491
4.495
4.475
4.465
4.469
4.473
4.478
4.481
4.486
4.487
4.492
4.495
4.491
4.493
4.497
4.501
4.503
4.514
4.516
4.512
4.518
4.525
4.529
4.521
4.527
4.526
4.522
4.533
4.533
4.542
4.544
4.551
4.547
4.555
4.555
4.553
4.562
4.553
4.555
4.567
4.559
4.561
4.547
4.533
4.535
4.542
4.536
4.544
4.549
4.548
4.547
4.551
4.555
4.551
4.559
4.564
4.563
4.566
4.565
4.553
4.559
4.559
4.557
4.566
4.565
4.569
4.574
4.570
4.581
4.577
4.585
4.581
4.590
4.588
4.582
4.584
4.587
4.589
4.598
4.597
4.603
4.596
4.610
4.605
4.598
4.592
4.601
4.597
4.606
4.591
4.601
4.597
4.609
4.605
4.604
4.603
4.609
4.616
4.617
4.616
4.628
4.630
4.626
4.629
4.626
4.633
4.634
4.625
4.628
4.629
4.634
4.636
4.636
4.641
4.640
4.643
4.647
4.646
4.644
4.651
4.651
4.651
4.655
4.649
4.636
4.651
4.648
4.651
4.651
4.652
4.642
4.647
4.650
4.644
4.642
4.659
4.655
4.647
4.656
4.663
4.662
4.663
4.666
4.668
4.666
4.665
4.673
4.681
4.677
4.673
4.678
4.682
4.678
4.684
4.683
4.677
4.669
4.663
4.655
4.647
4.644
4.638
4.640
4.638
4.642
4.655
4.648
4.651
4.644
4.652
4.661
4.660
4.648
4.646
4.658
4.659
4.659
4.654
4.655
4.665
4.664
4.663
4.662
4.660
4.670
4.684
4.680
4.670
4.670
4.671
4.678
4.670
4.661
4.652
4.667
4.668
4.664
4.662
4.648
4.660
4.664
4.655
4.645
4.651
4.653
4.668
4.661
4.654
4.658
4.647
4.655
4.665
4.662
4.666
4.659
4.663
4.656
4.670
4.677
4.679
4.678
4.676
4.667
4.666
4.680
4.685
4.678
4.681
4.672
4.665
4.673
4.687
4.681
4.681
4.683
4.679
4.673
4.676
4.689
4.685
4.691
4.687
4.681
4.681
4.684
4.688
4.700
4.704
4.703
4.703
4.696
4.692
4.694
4.696
4.702
4.693
4.688
4.688
4.691
4.688
4.684
4.696
4.697
4.701
4.700
4.695
4.684
4.685
4.681
4.695
4.700
4.703
4.703
4.701
4.700
4.698
4.696
4.690
4.700
4.712
4.718
4.715
4.713
4.715
4.708
4.706
4.697
4.699
4.711
4.718
4.718
4.718
4.714
4.714
4.716
4.710
4.710
4.714
4.719
4.729
4.733
4.733
4.736
4.734
4.727
4.728
4.724
4.718
4.719
4.731
4.741
4.740
4.735
4.726
4.724
4.725
4.729
4.729
4.732
4.729
4.735
4.731
4.725
4.718
4.713
4.706
4.703
4.709
4.705
4.712
4.722
4.720
4.718
4.721
4.716
4.718
4.721
4.712
4.711
4.704
4.703
4.710
4.714
4.718
4.719
4.710
4.711
4.710
4.705
4.707
4.708
4.709
4.702
4.712
4.721
4.720
4.724
4.721
4.725
4.721
4.719
4.720
4.724
4.725
4.718
4.717
4.718
4.721
4.730
4.731
4.727
4.725
4.719
4.720
4.721
4.721
4.724
4.721
4.719
4.721
4.716
4.721
4.724
4.725
4.729
4.728
4.719
4.715
4.718
4.720
4.721
4.717
4.721
4.721
4.721
4.718
4.725
4.734
4.743
4.739
4.735
4.734
4.736
4.739
4.738
4.742
4.741
4.737
4.735
4.737
4.736
4.729
4.732
4.737
4.746
4.748
4.754
4.751
4.746
4.750
4.746
4.739
4.738
4.737
4.736
4.733
4.727
4.726
4.727
4.729
4.740
4.747
4.755
4.755
4.757
4.759
4.755
4.755
4.759
4.755
4.754
4.751
4.747
4.747
4.747
4.753
4.757
4.756
4.752
4.750
4.757
4.764
4.771
4.777
4.768
4.770
4.768
4.767
4.768
4.761
4.765
4.758
4.754
4.753
4.760
4.756
4.754
4.756
4.755
4.755
4.763
4.766
4.762
4.755
4.749
4.751
4.747
4.748
4.747
4.745
4.747
4.748
4.741
4.747
4.751
4.751
4.751
4.745
4.743
4.748
4.754
4.759
4.752
4.758
4.760
4.761
4.755
4.750
4.746
4.744
4.741
4.747
4.746
4.742
4.740
4.740
4.743
4.747
4.746
4.745
4.744
4.745
4.754
4.761
4.768
4.775
4.774
4.778
4.773
4.766
4.765
4.761
4.762
4.759
4.757
4.759
4.759
4.758
4.759
4.753
4.749
4.747
4.749
4.750
4.752
4.745
4.752
4.759
4.768
4.773
4.781
4.784
4.788
4.794
4.792
4.791
4.784
4.777
4.773
4.772
4.771
4.766
4.768
4.767
4.776
4.775
4.773
4.769
4.770
4.767
4.766
4.764
4.766
4.767
4.766
4.773
4.781
4.786
4.793
4.800
4.807
4.803
4.798
4.799
4.798
4.799
4.796
4.794
4.796
4.794
4.790
4.786
4.792
4.789
4.782
4.781
4.777
4.780
4.777
4.784
4.787
4.781
4.784
4.778
4.777
4.783
4.790
4.796
4.803
4.802
4.796
4.792
4.785
4.786
4.779
4.778
4.777
4.781
4.787
4.783
4.779
4.780
4.779
4.778
4.784
4.783
4.779
4.777
4.774
4.770
4.770
4.769
4.771
4.767
4.774
4.775
4.782
4.788
4.793
4.800
4.807
4.811
4.807
4.807
4.806
4.802
4.799
4.799
4.803
4.805
4.799
4.796
4.798
4.802
4.798
4.794
4.792
4.794
4.792
4.797
4.799
4.802
4.801
4.797
4.790
4.791
4.792
4.789
4.790
4.794
4.790
4.791
4.793
4.800
4.806
4.811
4.818
4.824
4.828
4.829
4.829
4.829
4.820
4.821
4.828
4.830
4.828
4.832
4.833
4.835
4.833
4.833
4.828
4.825
4.818
4.811
4.807
4.805
4.803
4.810
4.806
4.803
4.798
4.797
4.801
4.805
4.812
4.818
4.810
4.810
4.809
4.808
4.807
4.814
4.818
4.816
4.814
4.810
4.806
4.803
4.799
4.800
4.799
4.799
4.801
4.800
4.795
4.792
4.793
4.794
4.796
4.789
4.788
4.784
4.781
4.780
4.781
4.783
4.784
4.784
4.785
4.788
4.784
4.786
4.781
4.783
4.779
4.777
4.776
4.780
4.787
4.792
4.798
4.797
4.793
4.794
4.798
4.800
4.799
4.799
4.801
4.797
4.795
4.794
4.790
4.794
4.792
4.789
4.792
4.791
4.790
4.794
4.792
4.792
4.792
4.789
4.788
4.784
4.785
4.789
4.785
4.786
4.782
4.783
4.781
4.778
4.779
4.778
4.781
4.780
4.779
4.777
4.776
4.775
4.776
4.780
4.785
4.789
4.795
4.800
4.806
4.807
4.803
4.800
4.798
4.800
4.801
4.797
4.798
4.799
4.799
4.799
4.801
4.805
4.810
4.810
4.807
4.808
4.807
4.803
4.803
4.800
4.798
4.800
4.801
4.803
4.799
4.792
4.787
4.784
4.785
4.783
4.784
4.788
4.784
4.789
4.792
4.789
4.787
4.784
4.787
4.788
4.784
4.780
4.774
4.772
4.777
4.781
4.787
4.792
4.796
4.802
4.806
4.810
4.804
4.805
4.804
4.799
4.795
4.794
4.795
4.799
4.798
4.800
4.799
4.800
4.795
4.794
4.790
4.792
4.792
4.788
4.787
4.789
4.785
4.786
4.787
4.788
4.792
4.784
4.790
4.788
4.785
4.788
4.790
4.789
4.785
4.784
4.784
4.786
4.787
4.784
4.785
4.786
4.782
4.784
4.785
4.784
4.785
4.783
4.782
4.788
4.785
4.786
4.785
4.786
4.787
4.791
4.796
4.802
4.804
4.810
4.814
4.814
4.812
4.810
4.809
4.810
4.815
4.819
4.817
4.811
