2.977
3.303
3.461
3.600
3.643
3.750
3.841
3.745
3.789
3.827
3.869
3.906
3.921
3.937
3.972
3.982
4.013
4.028
4.030
4.062
4.095
4.067
4.082
4.108
4.113
4.140
4.149
4.132
4.155
4.143
4.166
4.184
4.182
4.208
4.213
4.244
4.229
4.240
4.243
4.212
4.242
4.240
4.219
4.248
4.253
4.267
4.270
4.269
4.285
4.270
4.271
4.277
4.293
4.297
4.302
4.307
4.325
4.326
4.349
4.350
4.334
4.328
4.352
4.344
4.363
4.379
4.367
4.380
4.388
4.382
4.383
4.374
4.348
4.346
4.356
4.366
4.369
4.380
4.369
4.354
4.341
4.340
4.342
4.364
4.351
4.376
4.354
4.376
4.360
4.364
4.396
4.385
4.391
4.402
4.388
4.402
4.388
4.378
4.415
4.392
4.387
4.407
4.409
4.410
4.424
4.430
4.424
4.421
4.446
4.443
4.427
4.436
4.459
4.443
4.436
4.431
4.423
4.397
4.413
4.431
4.418
4.413
4.411
4.431
4.436
4.421
4.412
4.425
4.430
4.431
4.416
4.429
4.431
4.457
4.450
4.435
4.438
4.425
4.456
4.465
4.460
4.448
4.455
4.460
4.467
4.485
4.468
4.469
4.476
4.467
4.464
4.493
4.482
4.459
4.449
4.451
4.445
4.470
4.471
4.476
4.465
4.455
4.450
4.441
4.465
4.492
4.500
4.474
4.483
4.470
4.461
4.465
4.474
4.492
4.511
4.510
4.509
4.507
4.514
4.500
4.492
4.480
4.497
4.521
4.520
4.506
4.487
4.487
4.476
4.490
4.480
4.479
4.502
4.526
4.518
4.523
4.520
4.530
4.521
4.520
4.518
4.517
4.518
4.523
4.528
4.550
4.555
4.545
4.540
4.538
4.536
4.537
4.547
4.534
4.516
4.508
4.524
4.545
4.554
4.542
4.536
4.529
4.524
4.525
4.528
4.522
4.507
4.492
4.491
4.510
4.523
4.518
4.506
4.513
4.510
4.514
4.517
4.518
4.505
4.514
4.498
4.498
4.486
4.489
4.502
4.520
4.531
4.517
4.524
4.504
4.505
4.494
4.509
4.505
4.505
4.507
4.504
4.510
4.502
4.494
4.493
4.490
4.507
4.524
4.541
4.546
4.532
4.524
4.526
4.523
4.521
4.512
4.508
4.490
4.493
4.498
4.490
4.494
4.509
4.508
4.510
4.502
4.500
4.516
4.532
4.547
4.544
4.535
4.534
4.525
4.528
4.522
4.529
4.535
4.532
4.531
4.527
4.530
4.518
4.511
4.516
4.503
4.510
4.503
4.503
4.500
4.512
4.519
4.533
4.548
4.562
4.577
4.577
4.556
4.563
4.552
4.560
4.563
4.559
4.553
4.536
4.528
4.531
4.528
4.546
4.545
4.537
4.534
4.542
4.550
4.543
4.532
4.526
4.527
4.530
4.523
4.529
4.543
4.556
4.569
4.583
4.596
4.603
4.595
4.590
4.599
4.610
4.608
4.612
4.600
4.589
4.593
4.583
4.577
4.569
4.560
4.554
4.544
4.543
4.554
4.556
4.554
4.552
4.553
4.552
4.551
4.539
4.528
4.517
4.518
4.530
4.542
4.554
4.566
4.570
4.564
4.568
4.571
4.588
4.588
4.578
4.561
4.555
4.549
4.553
4.548
4.553
4.565
4.561
4.560
4.554
4.548
4.552
4.544
4.541
4.547
4.549
4.540
4.542
4.541
4.545
4.543
4.536
4.527
4.519
4.515
4.517
4.518
4.518
4.524
4.521
4.537
4.538
4.547
4.558
4.569
4.580
4.591
4.602
4.613
4.620
4.632
4.633
4.622
4.620
4.623
4.623
4.631
4.627
4.617
4.611
4.605
4.602
4.612
4.608
4.606
4.606
4.602
4.605
4.602
4.595
4.587
4.579
4.572
4.580
4.569
4.552
4.547
4.544
4.553
4.545
4.542
4.547
4.544
4.542
4.529
4.522
4.512
4.516
4.508
4.504
4.507
4.517
4.527
4.537
4.546
4.556
4.566
4.576
4.585
4.591
4.580
4.575
4.571
4.577
4.579
4.584
4.579
4.580
4.594
4.587
4.591
4.590
4.584
4.574
4.577
4.577
4.573
4.566
4.569
4.563
4.562
4.567
4.559
4.556
4.557
4.565
4.578
4.579
4.574
4.582
4.582
4.589
4.577
4.576
4.579
4.578
4.577
4.573
4.564
4.552
4.547
4.545
4.547
4.543
4.539
4.552
4.549
4.543
4.545
4.553
4.542
4.540
4.540
4.535
4.531
4.539
4.537
4.542
4.547
4.538
4.539
4.547
4.556
4.564
4.573
4.581
4.590
4.598
4.607
4.615
4.621
4.622
4.625
4.617
4.619
4.611
4.613
4.612
4.610
4.619
4.617
4.608
4.598
4.590
4.581
4.573
4.564
4.561
4.565
4.566
4.564
4.560
4.562
4.560
4.572
4.583
4.581
4.578
4.582
4.577
4.572
4.567
4.568
4.563
4.565
4.570
4.577
4.576
4.577
4.579
4.577
4.573
4.572
4.568
4.569
4.567
4.575
4.569
4.569
4.561
4.556
4.551
4.556
4.556
4.545
4.556
4.555
4.555
4.545
4.546
4.539
4.534
4.528
4.529
4.527
4.529
4.520
4.517
4.523
4.523
4.523
4.519
4.525
4.533
4.527
4.533
4.530
4.539
4.541
4.551
4.560
4.553
4.560
4.568
4.575
4.582
4.590
4.597
4.604
4.611
4.619
4.626
4.633
4.641
4.648
4.655
4.648
4.642
4.639
4.642
4.640
4.633
4.626
4.629
4.624
4.627
4.622
4.626
4.622
4.629
4.623
4.627
4.640
4.643
4.641
4.641
4.631
4.626
4.618
4.611
4.601
4.594
4.590
4.585
4.587
4.598
4.600
4.604
4.606
4.604
4.605
4.610
4.605
4.600
4.588
4.584
4.578
4.582
4.577
4.576
4.588
4.580
4.584
4.595
4.604
4.596
4.600
4.597
4.594
4.599
4.592
4.589
4.591
4.596
4.605
4.614
4.616
4.615
4.614
4.604
4.606
4.599
4.596
4.592
4.585
4.577
4.574
4.574
4.577
4.567
4.568
4.572
4.569
4.571
4.567
4.567
4.556
4.560
4.565
4.556
4.547
4.545
4.555
4.566
4.562
4.567
4.562
4.556
4.550
4.545
4.539
4.536
4.539
4.543
4.537
4.535
4.535
4.540
4.535
4.538
4.533
4.522
4.528
4.535
4.541
4.547
4.553
4.559
4.565
4.571
4.577
4.583
4.589
4.595
4.601
4.607
4.613
4.620
4.626
4.619
4.619
4.613
4.619
4.620
4.627
4.626
4.617
4.613
4.621
4.609
4.597
4.596
4.597
4.598
4.589
4.585
4.589
4.590
4.591
4.588
4.593
4.602
4.610
4.610
4.607
4.602
4.613
4.610
4.608
4.617
4.617
4.611
4.615
4.608
4.611
4.603
4.606
4.606
4.605
4.597
4.606
4.615
4.611
4.616
4.611
4.606
4.610
4.610
4.600
4.593
4.594
4.596
4.592
4.592
4.594
4.587
4.589
4.593
4.588
4.587
4.582
4.585
4.574
4.581
4.586
4.587
4.585
4.583
4.575
4.573
4.574
4.576
4.577
4.568
4.574
4.563
4.562
4.562
4.562
4.568
4.557
4.560
4.557
4.567
4.557
4.551
4.556
4.557
4.553
4.556
4.559
4.556
4.564
4.562
4.567
4.564
4.567
4.555
4.556
4.559
4.550
4.548
4.553
4.547
4.556
4.555
4.566
4.562
4.553
4.552
4.556
4.560
4.555
4.554
4.563
4.552
4.544
4.545
4.556
4.558
4.558
4.565
4.558
4.560
4.557
4.562
4.556
4.561
4.571
4.569
4.577
4.584
4.579
4.581
4.582
4.575
4.579
4.568
4.564
4.574
4.574
4.568
4.562
4.556
4.549
4.543
4.536
4.530
4.534
4.531
4.537
4.539
4.549
4.540
4.530
4.533
4.529
4.531
4.534
4.541
4.533
4.537
4.529
4.533
4.527
4.520
4.518
4.521
4.526
4.531
4.535
4.540
4.545
4.550
4.555
4.560
4.565
4.569
4.574
4.579
4.584
4.589
4.594
4.598
4.603
4.608
4.613
4.618
4.623
4.628
4.633
4.637
4.642
4.647
4.652
4.649
4.643
4.648
4.651
4.644
4.652
4.651
4.656
4.665
4.674
4.675
4.673
4.665
4.663
4.660
4.660
4.658
4.650
4.647
4.645
4.650
4.650
4.652
4.652
4.651
4.653
4.646
4.645
4.641
4.648
4.645
4.646
4.645
4.651
4.643
4.642
4.640
4.640
4.633
4.633
4.632
4.642
4.643
4.646
