2.995
3.323
3.510
3.606
3.722
3.789
3.820
3.897
3.873
3.926
3.972
4.015
4.057
4.034
3.984
4.012
4.029
4.051
4.060
4.072
4.098
4.109
4.126
4.135
4.150
4.151
4.172
4.187
4.182
4.195
4.205
4.229
4.222
4.225
4.242
4.247
4.260
4.273
4.259
4.267
4.278
4.284
4.300
4.307
4.309
4.325
4.305
4.309
4.320
4.330
4.333
4.339
4.347
4.356
4.361
4.362
4.373
4.381
4.392
4.378
4.359
4.366
4.375
4.375
4.388
4.379
4.387
4.400
4.401
4.403
4.410
4.417
4.419
4.415
4.426
4.431
4.434
4.443
4.451
4.443
4.453
4.456
4.457
4.451
4.457
4.456
4.434
4.434
4.439
4.441
4.442
4.448
4.454
4.464
4.462
4.450
4.454
4.461
4.461
4.467
4.463
4.472
4.481
4.490
4.480
4.472
4.484
4.498
4.495
4.508
4.509
4.506
4.495
4.501
4.497
4.498
4.505
4.498
4.507
4.513
4.519
4.525
4.519
4.529
4.524
4.530
4.521
4.535
4.527
4.534
4.539
4.550
4.544
4.553
4.549
4.557
4.561
4.553
4.545
4.561
4.547
4.550
4.544
4.547
4.553
4.552
4.568
4.570
4.558
4.569
4.568
4.577
4.575
4.574
4.584
4.592
4.583
4.594
4.585
4.584
4.573
4.561
4.554
4.545
4.550
4.561
4.552
4.549
4.557
4.552
4.552
4.566
4.565
4.559
4.567
4.579
4.578
4.570
4.579
4.588
4.579
4.565
4.568
4.555
4.551
4.570
4.556
4.552
4.552
4.565
4.553
4.554
4.553
4.567
4.568
4.570
4.571
4.572
4.584
4.579
4.583
4.573
4.586
4.575
4.574
4.577
4.574
4.588
4.596
4.584
4.573
4.582
4.601
4.602
4.602
4.599
4.593
4.601
4.615
4.610
4.599
4.590
4.596
4.597
4.607
4.598
4.590
4.586
4.606
4.610
4.601
4.605
4.598
4.596
4.610
4.624
4.620
4.610
4.608
4.597
4.609
4.626
4.622
4.619
4.616
4.620
4.619
4.620
4.638
4.639
4.636
4.633
4.633
4.624
4.629
4.642
4.643
4.644
4.642
4.637
4.639
4.628
4.639
4.649
4.639
4.628
4.618
4.608
4.612
4.629
4.625
4.621
4.624
4.622
4.609
4.601
4.612
4.621
4.626
4.617
4.616
4.611
4.614
4.612
4.612
4.621
4.637
4.638
4.634
4.634
4.623
4.618
4.617
4.615
4.621
4.636
4.645
4.642
4.636
4.623
4.618
4.615
4.611
4.612
4.627
4.642
4.643
4.646
4.633
4.637
4.632
4.626
4.635
4.636
4.633
4.638
4.653
4.657
4.651
4.655
4.645
4.646
4.648
4.647
4.639
4.634
4.638
4.652
4.667
4.657
4.654
4.659
4.650
4.659
4.654
4.656
4.651
4.648
4.648
4.655
4.669
4.682
4.677
4.674
4.677
4.670
4.672
4.669
4.663
4.661
4.658
4.663
4.660
4.673
4.677
4.675
4.672
4.678
4.677
4.668
4.658
4.648
4.645
4.644
4.652
4.651
4.664
4.676
4.675
4.663
4.653
4.659
4.644
4.656
4.650
4.646
4.647
4.647
4.644
4.642
4.654
4.666
4.679
4.688
4.685
4.683
4.670
4.669
4.661
4.666
4.659
4.650
4.658
4.666
4.660
4.652
4.655
4.666
4.678
4.690
4.701
4.699
4.689
4.686
4.683
4.680
4.683
4.680
4.680
4.680
4.672
4.673
4.676
4.676
4.677
4.682
4.684
4.696
4.707
4.713
4.707
4.708
4.710
4.701
4.710
4.701
4.701
4.699
4.693
4.700
4.701
4.698
4.695
4.683
4.678
4.684
4.694
4.705
4.716
4.706
4.708
4.702
4.697
4.688
4.691
4.690
4.686
4.685
4.684
4.683
4.680
4.682
4.683
4.691
4.687
4.681
4.685
4.695
4.705
4.716
4.720
4.719
4.719
4.715
4.710
4.712
4.718
4.717
4.711
4.707
4.711
4.709
4.711
4.709
4.715
4.710
4.709
4.705
4.700
4.701
4.704
4.706
4.715
4.724
4.734
4.744
4.753
4.744
4.745
4.744
4.733
4.724
4.721
4.724
4.730
4.724
4.727
4.730
4.731
4.724
4.721
4.712
4.715
4.718
4.718
4.717
4.720
4.723
4.720
4.728
4.732
4.727
4.721
4.716
4.711
4.709
4.712
4.712
4.705
4.705
4.700
4.697
4.698
4.702
4.704
4.698
4.694
4.696
4.707
4.703
4.703
4.700
4.702
4.701
4.697
4.706
4.715
4.720
4.720
4.723
4.721
4.713
4.713
4.705
4.699
4.693
4.702
4.708
4.710
4.707
4.703
4.700
4.693
4.686
4.684
4.686
4.686
4.680
4.670
4.677
4.681
4.682
4.681
4.677
4.684
4.693
4.701
4.709
4.717
4.726
4.734
4.737
4.727
4.718
4.718
4.719
4.720
4.716
4.714
4.721
4.722
4.723
4.719
4.718
4.713
4.706
4.699
4.696
4.694
4.689
4.690
4.685
4.686
4.682
4.679
4.673
4.675
4.667
4.673
4.681
4.689
4.696
4.704
4.712
4.720
4.716
4.720
4.713
4.708
4.709
4.710
4.720
4.717
4.717
4.718
4.723
4.719
4.718
4.723
4.720
4.727
4.724
4.722
4.716
4.710
4.707
4.704
4.701
4.701
4.697
4.698
4.693
4.687
4.693
4.702
4.699
4.697
4.696
4.694
4.694
4.691
4.694
4.702
4.709
4.716
4.723
4.729
4.728
4.727
4.723
4.718
4.718
4.720
4.722
4.722
4.723
4.719
4.713
4.711
4.707
4.704
4.708
4.718
4.715
4.711
4.715
4.712
4.707
4.707
4.705
4.700
4.710
4.711
4.704
4.706
4.707
4.706
4.708
4.712
4.703
4.702
4.701
4.702
4.698
4.692
4.689
4.687
4.694
4.701
4.708
4.714
4.721
4.728
4.735
4.737
4.737
4.738
4.741
4.740
4.731
4.738
4.736
4.744
4.740
4.737
4.732
4.727
4.730
4.728
4.724
4.721
4.723
4.718
4.716
4.722
4.724
4.720
4.719
4.713
4.716
4.711
4.713
4.712
4.715
4.721
4.723
4.729
4.723
4.726
4.719
4.714
4.714
4.709
4.710
4.707
4.701
4.698
4.697
4.693
4.691
4.693
4.700
4.706
4.712
4.719
4.725
4.731
4.738
4.744
4.750
4.752
4.748
4.745
4.746
4.744
4.754
4.759
4.758
4.748
4.754
4.754
4.752
4.760
4.756
4.748
4.747
4.751
4.748
4.745
4.739
4.741
4.742
4.734
4.733
4.738
4.742
4.739
4.731
4.729
4.719
4.718
4.722
4.731
4.729
4.736
4.730
4.733
4.733
4.737
4.735
4.734
4.732
4.726
4.726
4.723
4.722
4.726
4.732
4.732
4.729
4.730
4.732
4.730
4.726
4.726
4.723
4.730
4.723
4.729
4.735
4.740
4.746
4.752
4.758
4.764
4.769
4.775
4.781
4.784
4.785
4.795
4.795
4.788
4.788
4.780
4.780
4.779
4.776
4.779
4.782
4.780
4.781
4.777
4.774
4.773
4.769
4.770
4.767
4.770
4.771
4.766
4.762
4.759
4.759
4.760
4.765
4.763
4.762
4.765
4.764
4.766
4.766
4.760
4.758
4.755
4.752
4.752
4.753
4.747
4.740
4.737
4.731
4.738
4.740
4.740
4.736
4.734
4.739
4.744
4.741
4.739
4.734
4.730
4.725
4.720
4.715
4.711
4.710
4.709
4.714
4.719
4.725
4.730
4.735
4.741
4.746
4.751
4.757
4.761
4.761
4.763
4.770
4.778
4.776
4.776
4.771
4.764
4.759
4.759
4.761
4.761
4.758
4.764
4.764
4.761
4.757
4.752
4.754
4.747
4.749
4.749
4.751
4.746
4.738
4.744
4.741
4.742
4.740
4.733
4.736
4.735
4.735
4.734
4.740
4.739
4.731
4.739
4.742
4.733
4.730
4.730
4.727
4.724
4.729
4.734
4.734
4.731
4.732
4.729
4.736
4.743
4.741
4.741
4.739
4.738
4.739
4.737
4.735
4.733
4.731
4.729
4.734
4.727
4.723
4.720
4.720
4.719
4.714
4.710
4.713
4.710
4.717
4.712
4.719
4.718
4.722
4.720
4.719
4.720
4.725
4.728
4.732
4.737
4.742
4.747
4.752
4.757
4.761
4.766
4.771
4.776
4.781
4.786
4.788
4.785
4.787
4.790
4.788
4.785
4.789
4.785
4.785
4.784
4.777
4.782
4.778
4.773
4.771
4.766
4.764
