2.994
3.334
3.502
3.621
3.687
3.754
3.830
3.848
3.886
3.935
3.983
4.022
4.028
3.960
3.989
4.007
4.028
4.047
4.062
4.082
4.096
4.098
4.121
4.138
4.138
4.159
4.166
4.174
4.188
4.206
4.196
4.213
4.221
4.234
4.242
4.242
4.238
4.258
4.257
4.273
4.281
4.292
4.309
4.284
4.292
4.296
4.310
4.315
4.320
4.330
4.337
4.345
4.352
4.358
4.367
4.355
4.340
4.350
4.358
4.364
4.365
4.369
4.368
4.381
4.382
4.390
4.401
4.402
4.395
4.405
4.411
4.423
4.422
4.425
4.441
4.438
4.433
4.444
4.450
4.438
4.414
4.421
4.424
4.425
4.428
4.431
4.444
4.444
4.427
4.432
4.439
4.442
4.442
4.456
4.459
4.458
4.468
4.455
4.468
4.476
4.474
4.485
4.486
4.484
4.469
4.479
4.478
4.478
4.480
4.488
4.483
4.503
4.499
4.505
4.510
4.506
4.510
4.504
4.516
4.514
4.523
4.523
4.528
4.529
4.536
4.533
4.543
4.535
4.530
4.535
4.525
4.533
4.529
4.528
4.545
4.541
4.555
4.553
4.546
4.563
4.560
4.564
4.564
4.562
4.573
4.568
4.570
4.573
4.564
4.552
4.539
4.532
4.528
4.534
4.532
4.534
4.537
4.544
4.542
4.536
4.557
4.560
4.546
4.561
4.563
4.556
4.560
4.559
4.543
4.543
4.544
4.551
4.537
4.546
4.541
4.539
4.539
4.546
4.546
4.540
4.543
4.568
4.561
4.551
4.547
4.568
4.572
4.555
4.551
4.564
4.573
4.560
4.561
4.559
4.579
4.575
4.578
4.577
4.572
4.588
4.593
4.586
4.587
4.585
4.584
4.583
4.576
4.570
4.575
4.583
4.580
4.580
4.582
4.576
4.584
4.602
4.600
4.596
4.591
4.590
4.593
4.598
4.606
4.597
4.596
4.589
4.596
4.616
4.626
4.618
4.619
4.615
4.604
4.612
4.631
4.625
4.626
4.611
4.623
4.614
4.620
4.636
4.629
4.631
4.622
4.617
4.606
4.612
4.609
4.603
4.605
4.599
4.598
4.600
4.600
4.606
4.598
4.594
4.586
4.591
4.588
4.600
4.618
4.617
4.613
4.615
4.612
4.608
4.602
4.597
4.613
4.624
4.618
4.623
4.613
4.617
4.612
4.598
4.599
4.616
4.614
4.623
4.625
4.616
4.613
4.610
4.614
4.607
4.610
4.625
4.639
4.639
4.637
4.638
4.621
4.624
4.618
4.624
4.618
4.625
4.636
4.639
4.632
4.631
4.635
4.631
4.632
4.627
4.632
4.622
4.627
4.642
4.657
4.659
4.664
4.662
4.653
4.649
4.652
4.645
4.646
4.643
4.640
4.647
4.661
4.671
4.667
4.663
4.656
4.657
4.653
4.651
4.650
4.643
4.632
4.640
4.653
4.655
4.657
4.650
4.641
4.647
4.635
4.631
4.623
4.624
4.623
4.623
4.633
4.646
4.659
4.666
4.663
4.662
4.662
4.667
4.655
4.649
4.635
4.634
4.639
4.644
4.638
4.637
4.650
4.662
4.671
4.674
4.673
4.671
4.673
4.673
4.669
4.662
4.658
4.655
4.657
4.653
4.654
4.647
4.658
4.662
4.675
4.687
4.699
4.694
4.695
4.689
4.680
4.682
4.677
4.677
4.683
4.679
4.686
4.678
4.676
4.674
4.672
4.669
4.680
4.692
4.694
4.695
4.705
4.699
4.689
4.679
4.672
4.670
4.671
4.668
4.661
4.663
4.663
4.665
4.671
4.656
4.667
4.678
4.689
4.698
4.702
4.694
4.694
4.695
4.691
4.693
4.698
4.696
4.686
4.691
4.692
4.688
4.684
4.686
4.680
4.679
4.683
4.686
4.689
4.687
4.698
4.709
4.719
4.729
4.736
4.740
4.733
4.731
4.724
4.712
4.708
4.713
4.706
4.709
4.715
4.707
4.706
4.704
4.697
4.698
4.699
4.698
4.697
4.694
4.704
4.714
4.723
4.729
4.722
4.722
4.718
4.713
4.707
4.701
4.695
4.690
4.684
4.678
4.677
4.678
4.675
4.674
4.679
4.680
4.681
4.676
4.685
4.686
4.684
4.693
4.697
4.700
4.696
4.699
4.696
4.690
4.687
4.690
4.684
4.685
4.688
4.693
4.685
4.681
4.676
4.677
4.676
4.671
4.671
4.667
4.659
4.659
4.661
4.657
4.659
4.666
4.675
4.684
4.692
4.701
4.710
4.719
4.714
4.710
4.708
4.707
4.705
4.705
4.696
4.696
4.699
4.701
4.698
4.692
4.690
4.690
4.687
4.692
4.696
4.689
4.681
4.674
4.666
4.667
4.661
4.660
4.656
4.661
4.670
4.678
4.686
4.695
4.699
4.709
4.701
4.693
4.685
4.691
4.693
4.696
4.697
4.692
4.701
4.694
4.692
4.701
4.695
4.702
4.702
4.698
4.694
4.695
4.692
4.692
4.686
4.681
4.680
4.682
4.680
4.676
4.685
4.675
4.675
4.678
4.676
4.676
4.679
4.686
4.694
4.702
4.707
4.703
4.706
4.705
4.703
4.699
4.703
4.704
4.701
4.705
4.705
4.705
4.699
4.692
4.688
4.693
4.697
4.691
4.692
4.693
4.697
4.690
4.688
4.682
4.683
4.690
4.679
4.679
4.689
4.685
4.689
4.696
4.690
4.683
4.688
4.684
4.678
4.672
4.677
4.684
4.691
4.699
4.706
4.708
4.718
4.723
4.714
4.713
4.715
4.713
4.711
4.714
4.722
4.713
4.714
4.707
4.707
4.711
4.715
4.708
4.703
4.704
4.701
4.700
4.703
4.701
4.695
4.693
4.693
4.688
4.687
4.697
4.703
4.703
4.704
4.702
4.701
4.706
4.704
4.694
4.694
4.697
4.700
4.695
4.696
4.687
4.686
4.680
4.686
4.692
4.699
4.706
4.713
4.720
4.727
4.733
4.735
4.731
4.726
4.725
4.722
4.732
4.729
4.733
4.725
4.733
4.736
4.739
4.748
4.743
4.734
4.732
4.729
4.728
4.719
4.717
4.720
4.718
4.716
4.720
4.725
4.716
4.714
4.713
4.710
4.705
4.712
4.707
4.710
4.704
4.707
4.706
4.711
4.713
4.714
4.710
4.713
4.709
4.702
4.709
4.718
4.714
4.713
4.710
4.704
4.703
4.705
4.710
4.709
4.711
4.718
4.724
4.730
4.737
4.743
4.749
4.756
4.762
4.764
4.758
4.766
4.767
4.767
4.765
4.766
4.765
4.769
4.766
4.763
4.758
4.761
4.756
4.755
4.756
4.758
4.750
4.747
4.743
4.745
4.748
4.751
4.748
4.747
4.754
4.752
4.749
4.743
4.741
4.740
4.744
4.751
4.755
4.750
4.747
4.740
4.740
4.737
4.730
4.726
4.726
4.720
4.715
4.712
4.710
4.718
4.720
4.718
4.712
4.713
4.719
4.727
4.721
4.722
4.718
4.714
4.709
4.707
4.713
4.719
4.725
4.730
4.736
4.742
4.739
4.745
4.744
4.752
4.754
4.753
4.755
4.751
4.752
4.751
4.746
4.748
4.750
4.743
4.744
4.744
4.745
4.740
4.739
4.734
4.732
4.726
4.730
4.724
4.721
4.729
4.727
4.721
4.711
4.711
4.709
4.713
4.711
4.720
4.718
4.718
4.725
4.730
4.723
4.715
4.716
4.713
4.711
4.715
4.713
4.709
4.710
4.718
4.721
4.722
4.718
4.716
4.716
4.714
4.709
4.712
4.711
4.716
4.718
4.721
4.718
4.713
4.706
4.702
4.700
4.691
4.691
4.692
4.695
4.692
4.698
4.698
4.701
4.701
4.707
4.712
4.717
4.723
4.728
4.733
4.738
4.743
4.749
4.754
4.759
4.765
4.770
4.769
4.768
4.767
4.765
4.767
4.766
4.771
4.776
4.767
4.764
4.762
4.754
4.755
4.754
4.751
4.752
4.755
4.747
4.748
4.754
4.761
4.762
4.758
4.764
4.768
4.766
4.764
4.764
4.764
4.762
4.756
4.752
4.757
4.757
4.755
4.758
4.749
4.747
4.756
4.759
4.758
4.764
4.758
4.758
4.758
4.762
4.760
4.759
4.759
4.755
4.752
4.752
4.754
4.753
4.751
4.747
4.742
4.742
4.743
4.742
4.740
4.736
4.742
4.751
4.749
4.745
4.744
4.740
4.740
4.736
4.733
4.729
4.726
4.722
4.719
4.715
4.722
4.722
4.721
4.722
4.715
4.717
4.718
4.718
4.726
4.725
4.727
4.728
4.721
4.720
4.725
4.730
4.734
4.739
4.744
4.749
4.753
4.758
