2.994
3.335
3.516
3.625
3.726
3.785
3.839
3.884
3.912
3.966
3.984
4.010
4.046
4.084
4.066
4.078
4.105
4.128
4.148
4.171
4.189
4.209
4.228
4.245
4.233
4.194
4.179
4.193
4.203
4.209
4.222
4.227
4.241
4.246
4.257
4.256
4.271
4.281
4.280
4.292
4.302
4.297
4.307
4.316
4.329
4.324
4.331
4.338
4.348
4.355
4.349
4.353
4.365
4.369
4.375
4.382
4.383
4.380
4.389
4.391
4.400
4.405
4.409
4.421
4.419
4.409
4.416
4.421
4.425
4.431
4.438
4.438
4.444
4.454
4.452
4.456
4.444
4.448
4.450
4.453
4.457
4.465
4.471
4.476
4.472
4.476
4.485
4.489
4.496
4.490
4.494
4.500
4.502
4.489
4.491
4.497
4.496
4.497
4.502
4.503
4.509
4.511
4.518
4.512
4.518
4.520
4.523
4.528
4.532
4.533
4.540
4.531
4.542
4.544
4.543
4.550
4.551
4.557
4.559
4.560
4.546
4.541
4.532
4.538
4.543
4.542
4.545
4.550
4.554
4.553
4.561
4.558
4.562
4.566
4.562
4.564
4.565
4.568
4.572
4.574
4.573
4.579
4.583
4.583
4.584
4.582
4.587
4.593
4.598
4.591
4.590
4.596
4.594
4.593
4.598
4.599
4.605
4.602
4.608
4.616
4.614
4.615
4.617
4.620
4.619
4.624
4.630
4.624
4.628
4.623
4.630
4.624
4.631
4.621
4.611
4.601
4.595
4.598
4.606
4.602
4.612
4.610
4.609
4.610
4.614
4.620
4.620
4.621
4.617
4.624
4.619
4.626
4.622
4.629
4.625
4.634
4.628
4.624
4.630
4.627
4.627
4.627
4.627
4.629
4.631
4.632
4.631
4.638
4.635
4.640
4.639
4.646
4.642
4.643
4.650
4.646
4.655
4.654
4.655
4.653
4.649
4.659
4.650
4.657
4.660
4.657
4.669
4.665
4.661
4.675
4.668
4.672
4.664
4.657
4.661
4.659
4.664
4.667
4.664
4.670
4.664
4.662
4.669
4.670
4.664
4.676
4.672
4.670
4.679
4.673
4.671
4.678
4.683
4.679
4.679
4.690
4.691
4.687
4.694
4.694
4.691
4.690
4.698
4.695
4.690
4.694
4.691
4.690
4.696
4.703
4.701
4.698
4.704
4.709
4.702
4.703
4.710
4.716
4.715
4.706
4.716
4.717
4.718
4.717
4.720
4.711
4.704
4.706
4.710
4.708
4.707
4.706
4.721
4.717
4.720
4.711
4.716
4.717
4.712
4.708
4.716
4.714
4.713
4.711
4.713
4.727
4.718
4.720
4.720
4.722
4.729
4.731
4.729
4.733
4.727
4.736
4.735
4.735
4.729
4.731
4.745
4.744
4.742
4.738
4.735
4.741
4.735
4.730
4.724
4.720
4.713
4.708
4.704
4.714
4.710
4.709
4.707
4.708
4.705
4.703
4.702
4.705
4.702
4.705
4.716
4.714
4.715
4.717
4.709
4.709
4.720
4.728
4.726
4.720
4.713
4.709
4.721
4.717
4.723
4.722
4.721
4.717
4.721
4.728
4.727
4.724
4.724
4.725
4.726
4.730
4.738
4.742
4.738
4.736
4.738
4.736
4.735
4.731
4.726
4.719
4.715
4.714
4.726
4.728
4.723
4.722
4.727
4.727
4.721
4.725
4.727
4.725
4.720
4.712
4.710
4.712
4.723
4.725
4.723
4.725
4.726
4.724
4.716
4.717
4.727
4.727
4.726
4.720
4.720
4.720
4.720
4.720
4.729
4.735
4.735
4.731
4.732
4.731
4.731
4.731
4.732
4.741
4.748
4.741
4.737
4.739
4.737
4.738
4.738
4.736
4.745
4.747
4.745
4.742
4.732
4.736
4.735
4.735
4.737
4.747
4.753
4.752
4.746
4.747
4.745
4.742
4.742
4.741
4.746
4.755
4.757
4.755
4.751
4.757
4.753
4.755
4.753
4.753
4.749
4.760
4.768
4.769
4.764
4.763
4.764
4.758
4.753
4.750
4.749
4.758
4.757
4.760
4.762
4.760
4.753
4.758
4.751
4.749
4.753
4.755
4.764
4.755
4.756
4.752
4.754
4.755
4.751
4.749
4.749
4.749
4.756
4.763
4.770
4.774
4.770
4.768
4.768
4.764
4.762
4.766
4.762
4.760
4.764
4.769
4.778
4.779
4.776
4.780
4.778
4.772
4.762
4.763
4.759
4.763
4.764
4.769
4.776
4.785
4.781
4.780
4.781
4.780
4.779
4.782
4.778
4.777
4.776
4.777
4.775
4.782
4.789
4.796
4.800
4.799
4.803
4.798
4.794
4.788
4.784
4.788
4.790
4.785
4.779
4.788
4.795
4.794
4.795
4.796
4.797
4.793
4.792
4.791
4.787
4.790
4.787
4.783
4.779
4.787
4.781
4.775
4.772
4.772
4.772
4.771
4.768
4.771
4.772
4.772
4.770
4.766
4.773
4.780
4.781
4.782
4.786
4.783
4.783
4.783
4.778
4.771
4.767
4.763
4.759
4.753
4.761
4.768
4.775
4.774
4.775
4.772
4.775
4.774
4.778
4.777
4.773
4.772
4.770
4.768
4.764
4.763
4.762
4.766
4.773
4.780
4.783
4.783
4.783
4.785
4.786
4.785
4.779
4.777
4.779
4.782
4.784
4.783
4.786
4.783
4.781
4.780
4.779
4.785
4.794
4.791
4.790
4.796
4.789
4.787
4.781
4.780
4.783
4.777
4.778
4.779
4.778
4.782
4.783
4.780
4.776
4.783
4.790
4.798
4.792
4.788
4.783
4.779
4.778
4.785
4.787
4.780
4.778
4.777
4.776
4.777
4.776
4.774
4.773
4.774
4.781
4.788
4.795
4.801
4.805
4.804
4.800
4.798
4.795
4.796
4.797
4.793
4.792
4.791
4.794
4.798
4.794
4.791
4.795
4.796
4.797
4.793
4.792
4.798
4.803
4.810
4.809
4.807
4.806
4.809
4.806
4.805
4.803
4.802
4.806
4.807
4.801
4.798
4.792
4.788
4.789
4.794
4.792
4.790
4.790
4.798
4.801
4.809
4.814
4.813
4.812
4.810
4.812
4.810
4.808
4.805
4.808
4.813
4.814
4.815
4.812
4.809
4.805
4.807
4.805
4.810
4.806
4.807
4.805
4.802
4.806
4.813
4.817
4.824
4.831
4.838
4.833
4.835
4.831
4.831
4.828
4.821
4.822
4.821
4.819
4.820
4.819
4.821
4.825
4.823
4.817
4.813
4.812
4.813
4.812
4.813
4.811
4.818
4.824
4.826
4.824
4.821
4.825
4.821
4.817
4.813
4.808
4.804
4.801
4.799
4.800
4.801
4.797
4.799
4.798
4.798
4.798
4.799
4.801
4.802
4.801
4.801
4.805
4.812
4.816
4.821
4.828
4.829
4.830
4.829
4.824
4.820
4.820
4.815
4.809
4.804
4.806
4.804
4.805
4.805
4.809
4.810
4.808
4.801
4.798
4.794
4.797
4.793
4.794
4.793
4.798
4.805
4.811
4.815
4.820
4.823
4.822
4.827
4.831
4.831
4.830
4.829
4.824
4.823
4.825
4.826
4.827
4.824
4.827
4.823
4.822
4.824
4.822
4.816
4.814
4.815
4.816
4.815
4.812
4.810
4.811
4.807
4.803
4.809
4.814
4.821
4.825
4.829
4.833
4.834
4.830
4.829
4.833
4.835
4.828
4.831
4.830
4.834
4.833
4.834
4.835
4.834
4.831
4.829
4.833
4.831
4.835
4.831
4.833
4.834
4.833
4.832
4.825
4.823
4.822
4.816
4.822
4.824
4.817
4.821
4.827
4.832
4.838
4.842
4.847
4.849
4.850
4.853
4.850
4.848
4.846
4.845
4.846
4.842
4.841
4.843
4.847
4.849
4.846
4.843
4.846
4.846
4.853
4.853
4.855
4.853
4.853
4.848
4.844
4.843
4.844
4.840
4.839
4.838
4.835
4.837
4.836
4.838
4.836
4.838
4.844
4.848
4.853
4.859
4.860
4.857
4.858
4.864
4.866
4.861
4.857
4.857
4.857
4.854
4.855
4.851
4.850
4.853
4.860
4.854
4.853
4.849
4.846
4.843
4.839
4.834
4.830
4.834
4.828
4.827
4.828
4.829
4.831
4.827
4.830
4.829
4.830
4.831
4.833
4.838
4.842
4.848
4.852
4.857
4.858
4.857
4.857
4.861
4.857
4.854
4.852
4.851
4.853
4.848
4.846
4.851
4.852
4.853
4.855
4.851
4.852
4.853
4.852
4.845
4.844
4.845
4.842
4.842
4.842
4.842
4.844
4.840
4.839
4.843
4.842
4.842
4.844
4.842
4.842
4.840
4.838
4.845
