2.987
3.327
3.484
3.616
3.657
3.761
3.787
3.745
3.796
3.820
3.862
3.890
3.928
3.949
3.951
3.998
4.018
4.011
4.039
4.075
4.060
4.062
4.093
4.116
4.141
4.146
4.123
4.130
4.147
4.156
4.157
4.189
4.194
4.215
4.215
4.237
4.224
4.206
4.214
4.209
4.217
4.226
4.239
4.239
4.269
4.276
4.261
4.255
4.268
4.280
4.273
4.291
4.293
4.306
4.314
4.337
4.324
4.305
4.327
4.332
4.333
4.338
4.358
4.368
4.349
4.370
4.378
4.363
4.335
4.339
4.356
4.335
4.364
4.350
4.339
4.332
4.310
4.342
4.336
4.351
4.347
4.357
4.345
4.349
4.373
4.361
4.385
4.381
4.370
4.366
4.365
4.386
4.383
4.384
4.399
4.393
4.383
4.408
4.410
4.406
4.407
4.440
4.415
4.410
4.424
4.426
4.418
4.422
4.409
4.400
4.394
4.397
4.400
4.404
4.398
4.415
4.411
4.399
4.391
4.412
4.405
4.404
4.392
4.409
4.444
4.439
4.415
4.423
4.414
4.439
4.441
4.436
4.430
4.432
4.438
4.466
4.462
4.451
4.447
4.439
4.447
4.479
4.475
4.467
4.449
4.425
4.440
4.446
4.457
4.441
4.452
4.432
4.430
4.447
4.465
4.464
4.454
4.467
4.456
4.439
4.444
4.462
4.489
4.499
4.483
4.477
4.484
4.489
4.487
4.472
4.483
4.503
4.508
4.502
4.491
4.474
4.456
4.479
4.467
4.480
4.504
4.513
4.505
4.494
4.507
4.511
4.500
4.492
4.491
4.503
4.500
4.524
4.534
4.534
4.523
4.516
4.504
4.520
4.523
4.513
4.508
4.508
4.514
4.536
4.559
4.548
4.535
4.521
4.508
4.502
4.508
4.502
4.502
4.491
4.497
4.514
4.489
4.486
4.495
4.494
4.490
4.496
4.486
4.484
4.502
4.483
4.478
4.470
4.493
4.507
4.527
4.509
4.497
4.487
4.479
4.480
4.483
4.477
4.482
4.484
4.480
4.484
4.481
4.475
4.478
4.496
4.514
4.520
4.524
4.517
4.525
4.506
4.504
4.507
4.491
4.476
4.483
4.467
4.475
4.479
4.480
4.486
4.486
4.484
4.495
4.511
4.528
4.543
4.536
4.517
4.505
4.506
4.506
4.514
4.514
4.518
4.513
4.510
4.496
4.502
4.498
4.499
4.491
4.486
4.491
4.475
4.494
4.506
4.522
4.537
4.553
4.549
4.549
4.559
4.550
4.541
4.541
4.527
4.535
4.532
4.537
4.520
4.510
4.518
4.529
4.523
4.513
4.528
4.534
4.530
4.511
4.507
4.502
4.500
4.518
4.529
4.543
4.558
4.572
4.578
4.586
4.575
4.571
4.588
4.601
4.583
4.584
4.576
4.579
4.581
4.568
4.561
4.547
4.548
4.546
4.530
4.537
4.537
4.535
4.532
4.547
4.545
4.537
4.520
4.521
4.512
4.518
4.531
4.544
4.556
4.550
4.552
4.549
4.560
4.567
4.562
4.561
4.554
4.548
4.536
4.528
4.538
4.540
4.537
4.545
4.538
4.536
4.536
4.527
4.527
4.535
4.529
4.523
4.520
4.516
4.524
4.520
4.518
4.512
4.502
4.495
4.490
4.491
4.504
4.515
4.532
4.532
4.544
4.556
4.567
4.579
4.591
4.602
4.606
4.609
4.616
4.606
4.603
4.601
4.611
4.600
4.596
4.596
4.597
4.583
4.584
4.592
4.584
4.577
4.586
4.591
4.584
4.586
4.585
4.584
4.576
4.573
4.560
4.555
4.544
4.535
4.526
4.536
4.530
4.524
4.529
4.530
4.517
4.515
4.501
4.488
4.494
4.505
4.515
4.525
4.536
4.546
4.557
4.567
4.577
4.588
4.591
4.578
4.567
4.562
4.565
4.563
4.563
4.578
4.566
4.569
4.572
4.566
4.554
4.554
4.562
4.556
4.548
4.545
4.545
4.548
4.538
4.535
4.541
4.546
4.562
4.564
4.550
4.558
4.562
4.564
4.553
4.559
4.554
4.556
4.556
4.554
4.554
4.540
4.539
4.531
4.530
4.529
4.541
4.528
4.530
4.531
4.531
4.530
4.534
4.524
4.511
4.522
4.514
4.526
4.529
4.529
4.538
4.539
4.549
4.557
4.567
4.576
4.585
4.594
4.600
4.596
4.603
4.602
4.592
4.596
4.585
4.588
4.584
4.594
4.592
4.592
4.592
4.599
4.596
4.583
4.571
4.559
4.555
4.551
4.554
4.546
4.542
4.550
4.562
4.561
4.556
4.561
4.570
4.563
4.564
4.554
4.547
4.543
4.552
4.557
4.550
4.555
4.551
4.563
4.559
4.557
4.542
4.542
4.547
4.546
4.544
4.545
4.540
4.541
4.541
4.543
4.538
4.535
4.534
4.540
4.540
4.531
4.530
4.517
4.508
4.506
4.510
4.514
4.504
4.515
4.505
4.497
4.497
4.505
4.506
4.509
4.510
4.513
4.525
4.536
4.546
4.546
4.551
4.559
4.566
4.574
4.582
4.590
4.597
4.605
4.613
4.621
4.629
4.632
4.634
4.629
4.629
4.633
4.632
4.622
4.625
4.611
4.610
4.605
4.600
4.602
4.617
4.607
4.604
4.604
4.619
4.617
4.611
4.617
4.621
4.618
4.609
4.605
4.597
4.595
4.587
4.581
4.579
4.582
4.580
4.583
4.576
4.580
4.582
4.584
4.590
4.586
4.579
4.574
4.571
4.564
4.568
4.561
4.561
4.574
4.570
4.569
4.583
4.589
4.586
4.579
4.578
4.576
4.578
4.588
4.598
4.598
4.600
4.596
4.597
4.593
4.584
4.578
4.576
4.580
4.578
4.576
4.572
4.564
4.557
4.559
4.552
4.549
4.542
4.547
4.547
4.544
4.552
4.544
4.549
4.537
4.544
4.541
4.551
4.558
4.548
4.555
4.551
4.550
4.544
4.538
4.532
4.526
4.523
4.523
4.519
4.510
4.504
4.510
4.517
4.523
4.530
4.536
4.543
4.549
4.556
4.562
4.568
4.575
4.581
4.588
4.594
4.601
4.607
4.613
4.605
4.605
4.609
4.605
4.605
4.600
4.603
4.600
4.599
4.600
4.591
4.583
4.587
4.585
4.588
4.584
4.588
4.581
4.571
4.572
4.581
4.589
4.598
4.603
4.590
4.589
4.596
4.587
4.591
4.599
4.596
4.589
4.590
4.592
4.595
4.597
4.602
4.589
4.584
4.594
4.593
4.594
4.596
4.597
4.587
4.591
4.586
4.588
4.596
4.581
4.580
4.571
4.574
4.568
4.569
4.568
4.561
4.563
4.558
4.568
4.560
4.568
4.566
4.565
4.560
4.560
4.558
4.563
4.565
4.559
4.558
4.551
4.552
4.543
4.541
4.539
4.542
4.544
4.540
4.551
4.548
4.541
4.547
4.544
4.533
4.532
4.538
4.541
4.543
4.542
4.547
4.546
4.538
4.538
4.543
4.538
4.538
4.541
4.534
4.540
4.541
4.541
4.533
4.530
4.539
4.536
4.538
4.537
4.544
4.532
4.538
4.528
4.538
4.533
4.539
4.543
4.550
4.547
4.549
4.556
4.561
4.553
4.557
4.564
4.572
4.573
4.573
4.577
4.568
4.559
4.552
4.551
4.556
4.551
4.553
4.549
4.549
4.556
4.550
4.543
4.536
4.529
4.523
4.526
4.537
4.528
4.520
4.525
4.524
4.516
4.512
4.514
4.514
4.512
4.510
4.501
4.504
4.510
4.514
4.519
4.524
4.529
4.535
4.540
4.545
4.550
4.555
4.560
4.566
4.571
4.576
4.581
4.586
4.591
4.596
4.602
4.607
4.612
4.617
4.623
4.628
4.633
4.638
4.643
4.636
4.636
4.634
4.634
4.629
4.638
4.638
4.646
4.649
4.654
4.662
4.655
4.651
4.643
4.641
4.636
4.632
4.632
4.630
4.633
4.632
4.633
4.639
4.635
4.639
4.630
4.625
4.629
4.624
4.622
4.624
4.626
4.625
4.622
4.619
4.623
4.621
4.621
4.620
4.625
4.623
4.616
4.618
4.609
4.609
4.617
4.616
4.625
4.630
4.636
4.627
4.623
4.621
4.620
4.621
4.613
4.612
4.617
4.618
4.617
4.617
4.624
4.620
4.616
4.608
4.601
4.602
4.597
4.590
4.584
4.591
4.589
4.590
4.590
4.587
4.583
4.578
4.574
4.577
4.581
4.583
4.591
4.590
4.593
4.600
4.601
4.596
4.592
4.587
4.582
4.577
4.573
4.568
4.563
4.564
4.558
4.555
4.556
4.560
4.569
4.572
4.570
4.565
4.573
4.572
