2.986
3.324
3.492
3.602
3.697
3.753
3.844
3.834
3.887
3.945
3.997
4.016
3.935
3.965
3.982
4.003
4.030
4.046
4.057
4.086
4.091
4.112
4.111
4.138
4.139
4.152
4.171
4.183
4.175
4.198
4.208
4.218
4.230
4.217
4.234
4.240
4.251
4.261
4.278
4.279
4.259
4.278
4.288
4.288
4.299
4.307
4.311
4.321
4.329
4.339
4.346
4.316
4.324
4.328
4.343
4.343
4.343
4.351
4.363
4.369
4.370
4.380
4.372
4.381
4.391
4.395
4.402
4.402
4.420
4.410
4.411
4.416
4.431
4.406
4.392
4.404
4.407
4.411
4.411
4.427
4.421
4.412
4.406
4.413
4.419
4.436
4.433
4.451
4.442
4.443
4.439
4.455
4.461
4.465
4.461
4.448
4.453
4.455
4.466
4.454
4.467
4.476
4.474
4.485
4.482
4.486
4.488
4.479
4.492
4.496
4.501
4.507
4.504
4.520
4.513
4.527
4.510
4.514
4.509
4.505
4.507
4.510
4.508
4.521
4.519
4.534
4.527
4.537
4.538
4.531
4.550
4.544
4.554
4.549
4.542
4.557
4.543
4.529
4.515
4.515
4.513
4.519
4.512
4.505
4.530
4.520
4.518
4.535
4.533
4.530
4.537
4.547
4.544
4.537
4.528
4.515
4.530
4.523
4.510
4.520
4.517
4.512
4.509
4.531
4.530
4.531
4.528
4.544
4.545
4.540
4.538
4.545
4.545
4.538
4.532
4.553
4.545
4.546
4.542
4.549
4.570
4.567
4.560
4.556
4.566
4.574
4.565
4.547
4.552
4.568
4.567
4.558
4.546
4.557
4.569
4.569
4.563
4.567
4.570
4.579
4.576
4.570
4.567
4.564
4.572
4.588
4.588
4.584
4.591
4.591
4.581
4.602
4.605
4.601
4.599
4.599
4.594
4.603
4.613
4.612
4.603
4.604
4.598
4.597
4.602
4.589
4.584
4.575
4.574
4.584
4.600
4.585
4.570
4.568
4.569
4.564
4.583
4.590
4.581
4.589
4.590
4.585
4.582
4.579
4.593
4.599
4.595
4.589
4.585
4.590
4.592
4.580
4.593
4.587
4.590
4.590
4.585
4.586
4.583
4.588
4.584
4.602
4.609
4.613
4.611
4.616
4.606
4.609
4.600
4.590
4.600
4.617
4.625
4.616
4.602
4.597
4.608
4.606
4.600
4.600
4.604
4.620
4.636
4.634
4.637
4.635
4.628
4.631
4.627
4.625
4.620
4.615
4.628
4.643
4.645
4.641
4.634
4.646
4.643
4.639
4.626
4.620
4.619
4.623
4.637
4.632
4.638
4.633
4.624
4.619
4.624
4.624
4.614
4.603
4.604
4.619
4.633
4.635
4.633
4.632
4.632
4.634
4.637
4.632
4.629
4.615
4.621
4.616
4.615
4.629
4.643
4.639
4.643
4.639
4.641
4.643
4.650
4.649
4.648
4.642
4.634
4.624
4.623
4.624
4.637
4.650
4.663
4.665
4.668
4.670
4.672
4.669
4.662
4.660
4.654
4.652
4.654
4.662
4.652
4.658
4.650
4.653
4.665
4.677
4.675
4.676
4.677
4.668
4.667
4.666
4.666
4.667
4.656
4.645
4.645
4.640
4.641
4.639
4.648
4.660
4.672
4.675
4.677
4.669
4.669
4.667
4.662
4.670
4.668
4.665
4.667
4.667
4.668
4.666
4.663
4.649
4.647
4.649
4.664
4.670
4.682
4.693
4.705
4.706
4.698
4.701
4.706
4.704
4.707
4.696
4.696
4.697
4.690
4.698
4.687
4.683
4.679
4.667
4.676
4.677
4.674
4.679
4.690
4.702
4.713
4.719
4.714
4.716
4.708
4.703
4.700
4.693
4.694
4.693
4.686
4.680
4.674
4.667
4.661
4.655
4.653
4.650
4.655
4.663
4.673
4.684
4.694
4.694
4.686
4.679
4.671
4.663
4.660
4.658
4.667
4.673
4.679
4.667
4.662
4.661
4.654
4.646
4.647
4.650
4.644
4.637
4.645
4.641
4.650
4.660
4.670
4.680
4.690
4.699
4.689
4.684
4.683
4.678
4.679
4.682
4.677
4.678
4.685
4.682
4.671
4.663
4.663
4.659
4.672
4.670
4.676
4.677
4.674
4.668
4.669
4.661
4.653
4.646
4.655
4.665
4.674
4.677
4.679
4.676
4.679
4.670
4.668
4.673
4.673
4.672
4.671
4.671
4.665
4.669
4.671
4.671
4.676
4.669
4.666
4.667
4.660
4.665
4.665
4.662
4.667
4.661
4.658
4.666
4.669
4.661
4.661
4.658
4.661
4.669
4.678
4.687
4.695
4.686
4.681
4.673
4.675
4.669
4.675
4.675
4.682
4.684
4.684
4.679
4.666
4.668
4.678
4.677
4.672
4.674
4.671
4.667
4.658
4.655
4.660
4.663
4.655
4.656
4.656
4.659
4.665
4.666
4.659
4.661
4.659
4.658
4.659
4.667
4.675
4.683
4.691
4.698
4.700
4.703
4.694
4.696
4.696
4.694
4.688
4.689
4.689
4.686
4.682
4.683
4.685
4.684
4.678
4.678
4.683
4.684
4.684
4.681
4.678
4.672
4.670
4.666
4.673
4.675
4.673
4.681
4.682
4.680
4.684
4.683
4.673
4.675
4.681
4.678
4.672
4.674
4.669
4.666
4.673
4.681
4.688
4.695
4.703
4.708
4.715
4.716
4.716
4.712
4.704
4.704
4.708
4.704
4.702
4.703
4.708
4.718
4.722
4.723
4.720
4.722
4.716
4.715
4.701
4.698
4.699
4.693
4.692
4.701
4.693
4.693
4.690
4.685
4.688
4.695
4.694
4.689
4.684
4.681
4.680
4.682
4.681
4.677
4.682
4.679
4.689
4.696
4.696
4.687
4.686
4.681
4.681
4.685
4.690
4.697
4.704
4.711
4.717
4.724
4.732
4.738
4.745
4.739
4.739
4.744
4.747
4.742
4.734
4.731
4.737
4.739
4.738
4.739
4.745
4.741
4.738
4.738
4.732
4.723
4.718
4.719
4.724
4.727
4.723
4.727
4.734
4.733
4.741
4.737
4.731
4.728
4.728
4.731
4.726
4.722
4.720
4.721
4.716
4.718
4.715
4.709
4.710
4.710
4.709
4.702
4.698
4.690
4.684
4.692
4.698
4.698
4.694
4.691
4.692
4.690
4.695
4.701
4.707
4.714
4.720
4.722
4.717
4.725
4.726
4.735
4.733
4.732
4.729
4.723
4.725
4.718
4.721
4.722
4.723
4.731
4.730
4.732
4.727
4.723
4.715
4.710
4.710
4.710
4.703
4.704
4.700
4.696
4.690
4.687
4.688
4.693
4.690
4.687
4.697
4.697
4.697
4.695
4.690
4.695
4.694
4.697
4.700
4.696
4.693
4.701
4.701
4.696
4.695
4.693
4.688
4.685
4.686
4.683
4.687
4.689
4.690
4.692
4.689
4.686
4.686
4.684
4.678
4.676
4.679
4.672
4.674
4.680
4.686
4.692
4.697
4.703
4.709
4.715
4.721
4.726
4.732
4.738
4.744
4.750
4.750
4.746
4.745
4.742
4.744
4.745
4.743
4.745
4.744
4.740
4.736
4.731
4.732
4.733
4.732
4.729
4.729
4.726
4.733
4.741
4.745
4.738
4.735
4.737
4.739
4.735
4.733
4.735
4.733
4.731
4.736
4.742
4.738
4.735
4.730
4.730
4.736
4.738
4.734
4.731
4.730
4.730
4.735
4.737
4.734
4.732
4.732
4.728
4.728
4.734
4.734
4.724
4.723
4.721
4.723
4.719
4.713
4.713
4.717
4.716
4.714
4.712
4.713
4.724
4.724
4.727
4.726
4.725
4.724
4.722
4.719
4.717
4.715
4.711
4.707
4.703
4.699
4.698
4.698
4.700
4.707
4.704
4.708
4.713
4.719
4.724
4.729
4.735
4.740
4.745
4.750
4.755
4.760
4.764
4.764
4.767
4.759
4.755
4.749
4.745
4.739
4.732
4.727
4.731
4.725
4.730
4.726
4.728
4.733
4.725
4.717
4.710
4.716
4.716
4.713
4.713
4.713
4.720
4.721
4.718
4.716
4.714
4.714
4.713
4.709
4.705
4.712
4.704
4.712
4.714
4.714
4.709
4.709
4.707
4.706
4.713
4.721
4.718
4.720
4.720
4.719
4.713
4.709
4.710
4.706
4.700
4.695
4.694
4.693
4.696
4.693
4.693
4.689
4.694
4.694
4.694
4.696
4.695
4.692
4.691
4.691
4.683
4.685
4.683
4.684
4.683
4.678
4.678
4.681
4.676
4.679
4.674
4.676
4.671
4.671
4.672
4.671
4.667
4.666
4.674
4.679
4.680
4.689
4.688
