2.984
3.325
3.476
3.617
3.651
3.760
3.785
3.742
3.790
3.820
3.856
3.880
3.923
3.952
3.961
3.987
4.010
4.011
4.038
4.071
4.050
4.063
4.104
4.105
4.138
4.141
4.116
4.123
4.154
4.167
4.168
4.186
4.193
4.220
4.208
4.234
4.219
4.206
4.216
4.209
4.212
4.236
4.230
4.251
4.267
4.266
4.262
4.259
4.263
4.273
4.280
4.287
4.299
4.299
4.305
4.338
4.315
4.306
4.327
4.335
4.344
4.340
4.347
4.377
4.358
4.369
4.382
4.358
4.333
4.332
4.351
4.330
4.357
4.348
4.332
4.329
4.313
4.339
4.333
4.350
4.344
4.357
4.344
4.360
4.366
4.356
4.388
4.377
4.377
4.377
4.361
4.386
4.371
4.372
4.393
4.379
4.378
4.410
4.415
4.401
4.418
4.437
4.410
4.409
4.435
4.429
4.421
4.428
4.411
4.395
4.405
4.396
4.395
4.388
4.409
4.411
4.414
4.393
4.402
4.409
4.414
4.396
4.395
4.420
4.438
4.428
4.420
4.408
4.425
4.433
4.438
4.434
4.432
4.436
4.450
4.462
4.457
4.444
4.443
4.436
4.459
4.487
4.469
4.453
4.440
4.422
4.449
4.446
4.449
4.445
4.447
4.439
4.433
4.458
4.468
4.461
4.471
4.467
4.449
4.442
4.447
4.474
4.501
4.500
4.484
4.484
4.484
4.490
4.484
4.468
4.494
4.499
4.512
4.499
4.487
4.463
4.469
4.473
4.466
4.491
4.501
4.508
4.499
4.509
4.508
4.500
4.495
4.486
4.494
4.503
4.512
4.536
4.536
4.525
4.526
4.510
4.514
4.530
4.516
4.506
4.515
4.504
4.526
4.548
4.552
4.541
4.527
4.514
4.509
4.504
4.500
4.503
4.488
4.488
4.509
4.499
4.488
4.494
4.482
4.493
4.491
4.492
4.490
4.493
4.487
4.485
4.466
4.480
4.499
4.519
4.516
4.500
4.483
4.481
4.475
4.489
4.475
4.483
4.483
4.481
4.488
4.473
4.477
4.471
4.490
4.508
4.521
4.515
4.512
4.528
4.513
4.507
4.511
4.498
4.485
4.473
4.475
4.470
4.475
4.481
4.477
4.485
4.488
4.489
4.506
4.523
4.540
4.542
4.523
4.503
4.504
4.510
4.511
4.519
4.513
4.512
4.506
4.498
4.492
4.491
4.506
4.491
4.492
4.488
4.476
4.488
4.502
4.518
4.533
4.549
4.551
4.546
4.555
4.552
4.535
4.547
4.526
4.529
4.535
4.532
4.520
4.505
4.520
4.530
4.528
4.513
4.523
4.530
4.529
4.515
4.509
4.504
4.498
4.513
4.527
4.541
4.555
4.570
4.582
4.582
4.577
4.567
4.588
4.600
4.587
4.585
4.574
4.581
4.583
4.569
4.562
4.546
4.544
4.548
4.532
4.534
4.538
4.535
4.532
4.545
4.548
4.540
4.520
4.517
4.513
4.517
4.530
4.543
4.556
4.552
4.550
4.548
4.558
4.566
4.561
4.565
4.551
4.548
4.534
4.526
4.537
4.539
4.536
4.543
4.538
4.535
4.539
4.529
4.526
4.532
4.529
4.521
4.516
4.514
4.524
4.521
4.516
4.511
4.500
4.495
4.487
4.488
4.501
4.515
4.529
4.532
4.544
4.556
4.568
4.579
4.591
4.603
4.606
4.608
4.614
4.606
4.603
4.597
4.610
4.600
4.597
4.596
4.596
4.582
4.586
4.587
4.584
4.576
4.587
4.593
4.586
4.584
4.587
4.584
4.576
4.571
4.559
4.553
4.543
4.534
4.529
4.536
4.528
4.526
4.527
4.527
4.519
4.513
4.500
4.487
4.496
4.506
4.517
4.527
4.537
4.548
4.558
4.568
4.579
4.589
4.586
4.577
4.565
4.563
4.563
4.559
4.566
4.578
4.565
4.568
4.573
4.561
4.552
4.554
4.558
4.554
4.545
4.546
4.544
4.544
4.535
4.531
4.540
4.550
4.565
4.558
4.554
4.558
4.562
4.559
4.555
4.557
4.562
4.554
4.559
4.550
4.552
4.536
4.535
4.527
4.530
4.531
4.535
4.525
4.526
4.536
4.532
4.533
4.535
4.520
4.516
4.518
4.515
4.531
4.523
4.529
4.534
4.542
4.551
4.560
4.569
4.578
4.587
4.597
4.597
4.594
4.602
4.597
4.596
4.590
4.587
4.591
4.586
4.592
4.588
4.592
4.595
4.598
4.592
4.579
4.567
4.555
4.552
4.556
4.549
4.542
4.542
4.555
4.563
4.562
4.556
4.566
4.566
4.560
4.558
4.553
4.543
4.546
4.546
4.551
4.548
4.556
4.559
4.564
4.561
4.551
4.542
4.545
4.548
4.546
4.542
4.539
4.547
4.543
4.547
4.539
4.536
4.538
4.536
4.541
4.536
4.529
4.524
4.512
4.512
4.510
4.506
4.508
4.509
4.511
4.500
4.494
4.503
4.504
4.505
4.509
4.509
4.519
4.531
4.542
4.546
4.547
4.555
4.563
4.570
4.578
4.586
4.594
4.602
4.609
4.617
4.625
4.630
4.629
4.631
4.629
4.629
4.631
4.622
4.625
4.614
4.614
4.612
4.600
4.601
4.611
4.610
4.609
4.602
4.613
4.616
4.609
4.613
4.620
4.615
4.616
4.606
4.602
4.595
4.591
4.583
4.575
4.586
4.580
4.579
4.574
4.573
4.580
4.579
4.589
4.586
4.581
4.575
4.570
4.568
4.563
4.566
4.557
4.568
4.572
4.566
4.579
4.593
4.587
4.578
4.580
4.576
4.575
4.584
4.595
4.596
4.599
4.593
4.596
4.597
4.588
4.578
4.577
4.580
4.580
4.575
4.573
4.567
4.559
4.553
4.554
4.548
4.541
4.545
4.543
4.543
4.549
4.545
4.548
4.534
4.542
4.541
4.548
4.558
4.550
4.551
4.553
4.550
4.545
4.539
4.533
4.527
4.522
4.524
4.519
4.510
4.505
4.509
4.515
4.522
4.528
4.535
4.541
4.548
4.554
4.561
4.567
4.574
4.580
4.587
4.593
4.600
4.606
4.611
4.606
4.602
4.608
4.605
4.601
4.599
4.603
4.601
4.601
4.601
4.593
4.580
4.583
4.584
4.590
4.584
4.585
4.582
4.572
4.571
4.580
4.589
4.597
4.601
4.591
4.587
4.592
4.590
4.590
4.594
4.598
4.589
4.588
4.592
4.589
4.598
4.601
4.590
4.583
4.594
4.590
4.595
4.596
4.598
4.586
4.590
4.587
4.587
4.597
4.581
4.581
4.570
4.572
4.570
4.565
4.569
4.558
4.562
4.557
4.566
4.560
4.568
4.564
4.565
4.556
4.561
4.555
4.564
4.564
4.560
4.558
4.551
4.550
4.542
4.539
4.537
4.541
4.544
4.540
4.552
4.546
4.541
4.548
4.543
4.534
4.531
4.533
4.542
4.540
4.542
4.549
4.543
4.534
4.537
4.540
4.537
4.539
4.540
4.535
4.538
4.543
4.540
4.530
4.529
4.536
4.535
4.535
4.537
4.541
4.533
4.538
4.528
4.533
4.531
4.538
4.541
4.552
4.542
4.550
4.556
4.559
4.552
4.558
4.566
4.570
4.569
4.575
4.575
4.564
4.557
4.554
4.552
4.551
4.551
4.551
4.546
4.551
4.554
4.548
4.542
4.534
4.528
4.521
4.529
4.534
4.525
4.517
4.523
4.521
4.514
4.515
4.509
4.511
4.507
4.507
4.501
4.505
4.510
4.515
4.520
4.525
4.531
4.536
4.541
4.546
4.552
4.557
4.562
4.567
4.572
4.577
4.582
4.588
4.593
4.598
4.603
4.609
4.614
4.619
4.624
4.629
4.634
4.640
4.645
4.636
4.633
4.636
4.631
4.629
4.641
4.639
4.649
4.650
4.655
4.661
4.653
4.645
4.640
4.637
4.632
4.631
4.627
4.627
4.632
4.629
4.634
4.636
4.638
4.633
4.627
4.625
4.627
4.621
4.618
4.623
4.621
4.623
4.618
4.618
4.624
4.620
4.620
4.621
4.624
4.616
4.615
4.612
4.608
4.610
4.619
4.620
4.628
4.633
4.632
4.625
4.622
4.623
4.616
4.617
4.611
4.615
4.616
4.622
4.621
4.623
4.622
4.615
4.611
4.601
4.601
4.602
4.591
4.585
4.587
4.585
4.589
4.585
4.590
4.583
4.584
4.574
4.578
4.580
4.584
4.589
4.588
4.590
4.597
4.603
4.599
4.594
4.589
4.584
4.579
4.575
4.570
4.565
4.560
4.559
4.556
4.557
4.557
4.565
4.569
4.564
4.566
4.569
4.568
4.566
4.567
4.570
