2.991
3.331
3.504
3.631
3.709
3.795
3.853
3.886
3.898
3.952
4.000
3.980
4.009
4.044
4.070
4.100
4.130
4.150
4.177
4.144
4.102
4.115
4.127
4.146
4.156
4.165
4.182
4.185
4.202
4.205
4.219
4.223
4.232
4.247
4.247
4.258
4.267
4.279
4.274
4.286
4.296
4.304
4.314
4.305
4.311
4.321
4.327
4.339
4.344
4.334
4.346
4.347
4.359
4.363
4.369
4.379
4.382
4.384
4.373
4.378
4.385
4.393
4.399
4.403
4.409
4.415
4.420
4.421
4.430
4.434
4.418
4.422
4.420
4.426
4.437
4.435
4.446
4.442
4.447
4.454
4.458
4.461
4.465
4.463
4.472
4.471
4.482
4.481
4.486
4.497
4.488
4.467
4.470
4.470
4.477
4.481
4.486
4.491
4.491
4.495
4.496
4.494
4.497
4.504
4.504
4.509
4.512
4.512
4.519
4.525
4.529
4.530
4.523
4.529
4.525
4.523
4.535
4.535
4.546
4.545
4.552
4.551
4.557
4.559
4.557
4.565
4.555
4.560
4.569
4.563
4.560
4.546
4.531
4.538
4.543
4.536
4.546
4.553
4.549
4.545
4.558
4.558
4.553
4.560
4.564
4.565
4.567
4.567
4.554
4.560
4.563
4.560
4.569
4.562
4.573
4.572
4.573
4.581
4.579
4.588
4.581
4.593
4.591
4.584
4.580
4.589
4.589
4.597
4.597
4.607
4.599
4.614
4.606
4.601
4.588
4.602
4.601
4.608
4.595
4.605
4.600
4.602
4.609
4.602
4.610
4.606
4.613
4.619
4.615
4.629
4.624
4.621
4.634
4.630
4.630
4.635
4.623
4.631
4.633
4.628
4.643
4.635
4.634
4.639
4.643
4.645
4.651
4.649
4.645
4.659
4.648
4.653
4.654
4.641
4.642
4.655
4.650
4.652
4.661
4.648
4.643
4.657
4.647
4.641
4.651
4.658
4.652
4.653
4.662
4.665
4.663
4.666
4.673
4.671
4.669
4.666
4.680
4.680
4.684
4.673
4.681
4.684
4.682
4.685
4.683
4.675
4.667
4.659
4.652
4.644
4.648
4.643
4.640
4.639
4.645
4.656
4.651
4.649
4.643
4.656
4.662
4.660
4.647
4.647
4.660
4.660
4.659
4.654
4.657
4.668
4.666
4.663
4.662
4.660
4.672
4.687
4.681
4.672
4.668
4.672
4.679
4.669
4.659
4.653
4.668
4.669
4.666
4.661
4.652
4.661
4.666
4.655
4.648
4.653
4.651
4.667
4.662
4.660
4.658
4.649
4.654
4.669
4.666
4.670
4.660
4.666
4.657
4.668
4.679
4.684
4.682
4.679
4.668
4.664
4.678
4.687
4.681
4.684
4.677
4.668
4.669
4.684
4.684
4.677
4.687
4.681
4.678
4.677
4.685
4.689
4.693
4.690
4.685
4.684
4.687
4.687
4.696
4.709
4.706
4.701
4.701
4.694
4.696
4.697
4.703
4.698
4.691
4.691
4.693
4.695
4.684
4.691
4.704
4.703
4.703
4.701
4.689
4.685
4.684
4.688
4.700
4.705
4.705
4.707
4.702
4.706
4.700
4.693
4.693
4.705
4.718
4.716
4.717
4.717
4.714
4.710
4.701
4.695
4.704
4.716
4.718
4.720
4.717
4.718
4.718
4.714
4.711
4.711
4.717
4.722
4.734
4.736
4.737
4.737
4.736
4.729
4.730
4.723
4.718
4.721
4.733
4.744
4.738
4.735
4.729
4.727
4.727
4.728
4.729
4.732
4.730
4.737
4.730
4.724
4.717
4.711
4.706
4.704
4.710
4.708
4.713
4.723
4.723
4.722
4.722
4.716
4.719
4.722
4.712
4.712
4.704
4.704
4.712
4.714
4.720
4.720
4.714
4.714
4.713
4.705
4.706
4.709
4.710
4.701
4.711
4.721
4.723
4.723
4.724
4.724
4.724
4.724
4.722
4.725
4.726
4.722
4.719
4.722
4.719
4.729
4.734
4.731
4.728
4.719
4.723
4.718
4.723
4.728
4.725
4.722
4.725
4.718
4.719
4.728
4.723
4.730
4.731
4.723
4.719
4.719
4.718
4.722
4.718
4.721
4.724
4.724
4.719
4.721
4.730
4.740
4.744
4.739
4.737
4.737
4.741
4.742
4.739
4.744
4.739
4.736
4.737
4.738
4.736
4.733
4.734
4.741
4.750
4.751
4.755
4.751
4.750
4.747
4.743
4.737
4.738
4.739
4.736
4.731
4.729
4.728
4.731
4.733
4.742
4.751
4.760
4.755
4.761
4.761
4.755
4.757
4.758
4.755
4.757
4.751
4.749
4.749
4.749
4.755
4.760
4.759
4.752
4.751
4.758
4.767
4.772
4.774
4.771
4.773
4.770
4.768
4.767
4.762
4.766
4.757
4.758
4.756
4.761
4.757
4.758
4.757
4.755
4.754
4.763
4.766
4.760
4.754
4.751
4.753
4.751
4.750
4.750
4.746
4.749
4.750
4.746
4.747
4.751
4.754
4.752
4.747
4.745
4.747
4.755
4.759
4.752
4.760
4.759
4.760
4.756
4.753
4.747
4.747
4.743
4.749
4.747
4.745
4.740
4.743
4.743
4.749
4.749
4.746
4.747
4.748
4.751
4.759
4.766
4.774
4.775
4.777
4.775
4.767
4.769
4.762
4.761
4.761
4.760
4.759
4.760
4.760
4.759
4.757
4.752
4.749
4.750
4.753
4.753
4.751
4.749
4.756
4.764
4.771
4.779
4.786
4.787
4.791
4.796
4.795
4.787
4.781
4.776
4.776
4.772
4.767
4.769
4.771
4.772
4.780
4.774
4.772
4.773
4.771
4.771
4.765
4.769
4.769
4.767
4.768
4.775
4.783
4.790
4.797
4.804
4.807
4.803
4.795
4.803
4.800
4.798
4.798
4.796
4.796
4.797
4.790
4.789
4.794
4.787
4.782
4.782
4.780
4.782
4.779
4.787
4.788
4.784
4.784
4.778
4.779
4.784
4.791
4.798
4.805
4.802
4.796
4.790
4.784
4.786
4.783
4.782
4.779
4.783
4.790
4.783
4.782
4.784
4.779
4.780
4.785
4.784
4.781
4.777
4.774
4.772
4.770
4.770
4.772
4.770
4.774
4.775
4.781
4.788
4.794
4.801
4.808
4.812
4.809
4.809
4.808
4.805
4.801
4.801
4.803
4.805
4.801
4.798
4.798
4.804
4.801
4.796
4.793
4.796
4.790
4.798
4.804
4.803
4.804
4.801
4.793
4.793
4.794
4.792
4.792
4.796
4.793
4.793
4.794
4.798
4.804
4.810
4.817
4.823
4.829
4.830
4.832
4.829
4.825
4.824
4.825
4.833
4.829
4.830
4.835
4.835
4.833
4.832
4.830
4.824
4.822
4.815
4.809
4.808
4.805
4.809
4.811
4.807
4.801
4.797
4.799
4.804
4.808
4.816
4.817
4.814
4.811
4.810
4.809
4.810
4.816
4.818
4.814
4.811
4.807
4.804
4.803
4.799
4.802
4.802
4.800
4.804
4.798
4.794
4.790
4.794
4.797
4.795
4.792
4.787
4.786
4.782
4.781
4.782
4.785
4.788
4.786
4.787
4.789
4.782
4.785
4.782
4.785
4.780
4.778
4.776
4.781
4.787
4.792
4.798
4.796
4.795
4.797
4.800
4.802
4.802
4.801
4.803
4.797
4.797
4.795
4.791
4.794
4.794
4.793
4.794
4.793
4.794
4.794
4.793
4.793
4.795
4.793
4.789
4.787
4.787
4.790
4.789
4.786
4.785
4.783
4.783
4.780
4.779
4.784
4.782
4.782
4.781
4.778
4.777
4.778
4.775
4.778
4.784
4.789
4.794
4.800
4.805
4.807
4.806
4.802
4.802
4.799
4.803
4.800
4.799
4.801
4.800
4.800
4.804
4.803
4.810
4.814
4.812
4.808
4.809
4.809
4.805
4.804
4.801
4.801
4.802
4.803
4.800
4.794
4.789
4.786
4.788
4.785
4.783
4.788
4.786
4.787
4.793
4.791
4.789
4.789
4.786
4.789
4.785
4.781
4.777
4.774
4.774
4.779
4.784
4.789
4.794
4.799
4.804
4.809
4.810
4.806
4.806
4.802
4.798
4.796
4.797
4.798
4.798
4.801
4.803
4.803
4.801
4.795
4.795
4.794
4.794
4.792
4.787
4.791
4.788
4.787
4.788
4.785
4.790
4.792
4.788
4.791
4.790
4.788
4.791
4.792
4.789
4.788
4.787
4.784
4.788
4.788
4.787
4.788
4.786
4.784
4.786
4.786
4.787
4.788
4.784
4.785
4.789
4.786
4.786
4.787
4.787
4.787
4.791
4.796
4.801
4.806
4.810
4.815
4.815
4.813
