2.994
3.335
3.509
3.627
3.714
3.788
3.844
3.884
3.940
3.956
4.007
4.002
4.037
4.074
4.107
4.073
4.099
4.121
4.143
4.162
4.184
4.203
4.218
4.236
4.253
4.265
4.228
4.194
4.203
4.210
4.225
4.229
4.242
4.246
4.258
4.260
4.272
4.281
4.284
4.292
4.299
4.303
4.314
4.325
4.319
4.328
4.336
4.345
4.338
4.347
4.355
4.361
4.370
4.370
4.368
4.375
4.381
4.389
4.395
4.400
4.393
4.397
4.406
4.410
4.415
4.421
4.426
4.433
4.439
4.424
4.428
4.436
4.436
4.440
4.450
4.457
4.455
4.460
4.467
4.471
4.475
4.460
4.462
4.470
4.470
4.474
4.477
4.484
4.483
4.487
4.491
4.492
4.500
4.507
4.510
4.504
4.511
4.514
4.521
4.503
4.507
4.506
4.505
4.509
4.511
4.518
4.518
4.526
4.527
4.528
4.529
4.534
4.532
4.539
4.540
4.551
4.547
4.555
4.555
4.553
4.555
4.558
4.560
4.564
4.566
4.572
4.577
4.575
4.562
4.553
4.555
4.553
4.557
4.558
4.557
4.562
4.566
4.570
4.574
4.578
4.579
4.578
4.584
4.583
4.577
4.578
4.588
4.580
4.588
4.589
4.588
4.591
4.596
4.602
4.604
4.599
4.606
4.603
4.609
4.613
4.601
4.607
4.610
4.610
4.610
4.616
4.615
4.613
4.621
4.625
4.625
4.632
4.634
4.632
4.628
4.635
4.637
4.641
4.644
4.641
4.639
4.640
4.640
4.640
4.642
4.633
4.623
4.613
4.610
4.618
4.612
4.621
4.615
4.627
4.625
4.627
4.628
4.632
4.632
4.638
4.634
4.630
4.639
4.638
4.640
4.640
4.645
4.643
4.647
4.649
4.639
4.636
4.647
4.646
4.647
4.643
4.642
4.640
4.644
4.649
4.644
4.654
4.651
4.654
4.653
4.652
4.658
4.652
4.662
4.660
4.664
4.670
4.664
4.670
4.669
4.663
4.672
4.670
4.667
4.671
4.669
4.677
4.681
4.677
4.683
4.684
4.681
4.688
4.681
4.674
4.673
4.674
4.678
4.677
4.678
4.682
4.683
4.674
4.683
4.679
4.678
4.684
4.689
4.687
4.683
4.692
4.688
4.685
4.695
4.693
4.691
4.693
4.703
4.701
4.699
4.704
4.708
4.709
4.702
4.712
4.710
4.706
4.708
4.706
4.705
4.704
4.710
4.715
4.713
4.710
4.719
4.717
4.719
4.715
4.722
4.723
4.722
4.723
4.725
4.729
4.730
4.725
4.727
4.740
4.730
4.725
4.721
4.718
4.721
4.718
4.722
4.728
4.729
4.729
4.729
4.732
4.727
4.725
4.724
4.728
4.729
4.726
4.724
4.721
4.732
4.731
4.733
4.732
4.730
4.737
4.741
4.736
4.738
4.734
4.741
4.753
4.752
4.744
4.743
4.742
4.754
4.751
4.754
4.750
4.749
4.753
4.758
4.755
4.751
4.745
4.741
4.736
4.730
4.725
4.727
4.726
4.727
4.721
4.718
4.723
4.732
4.725
4.716
4.712
4.713
4.725
4.725
4.726
4.725
4.723
4.722
4.728
4.736
4.731
4.732
4.729
4.727
4.729
4.736
4.732
4.729
4.723
4.725
4.725
4.733
4.742
4.743
4.742
4.735
4.736
4.733
4.739
4.744
4.745
4.746
4.745
4.744
4.740
4.741
4.751
4.762
4.761
4.755
4.748
4.743
4.737
4.735
4.737
4.736
4.734
4.730
4.729
4.736
4.747
4.746
4.744
4.736
4.737
4.733
4.731
4.735
4.731
4.730
4.728
4.727
4.729
4.725
4.732
4.743
4.745
4.743
4.737
4.736
4.732
4.727
4.732
4.741
4.742
4.740
4.737
4.741
4.740
4.740
4.739
4.738
4.747
4.749
4.755
4.754
4.751
4.747
4.751
4.752
4.751
4.751
4.759
4.755
4.756
4.760
4.759
4.752
4.745
4.743
4.750
4.758
4.753
4.755
4.756
4.751
4.753
4.752
4.753
4.752
4.755
4.762
4.767
4.765
4.764
4.763
4.758
4.755
4.758
4.758
4.756
4.765
4.773
4.776
4.773
4.771
4.775
4.771
4.777
4.776
4.772
4.766
4.772
4.779
4.780
4.776
4.769
4.763
4.769
4.765
4.759
4.758
4.762
4.771
4.777
4.771
4.778
4.774
4.769
4.773
4.772
4.763
4.767
4.765
4.767
4.777
4.775
4.774
4.766
4.768
4.772
4.771
4.770
4.768
4.766
4.768
4.770
4.777
4.788
4.790
4.786
4.779
4.781
4.781
4.780
4.782
4.784
4.779
4.777
4.777
4.784
4.792
4.791
4.787
4.784
4.787
4.780
4.777
4.780
4.781
4.780
4.782
4.781
4.785
4.792
4.801
4.802
4.799
4.802
4.795
4.797
4.798
4.797
4.795
4.795
4.793
4.792
4.795
4.795
4.804
4.811
4.817
4.811
4.809
4.807
4.804
4.805
4.799
4.800
4.806
4.802
4.803
4.797
4.801
4.808
4.812
4.811
4.810
4.810
4.806
4.800
4.796
4.794
4.788
4.784
4.779
4.784
4.792
4.792
4.792
4.794
4.788
4.788
4.787
4.784
4.793
4.788
4.787
4.781
4.784
4.781
4.781
4.786
4.792
4.797
4.798
4.794
4.788
4.783
4.777
4.775
4.776
4.772
4.773
4.772
4.773
4.769
4.773
4.780
4.787
4.792
4.796
4.794
4.795
4.794
4.788
4.791
4.787
4.786
4.787
4.786
4.784
4.781
4.782
4.781
4.781
4.783
4.790
4.797
4.804
4.805
4.804
4.802
4.801
4.797
4.796
4.797
4.798
4.800
4.804
4.803
4.799
4.794
4.790
4.784
4.785
4.792
4.799
4.805
4.806
4.800
4.801
4.797
4.801
4.799
4.801
4.800
4.798
4.799
4.795
4.792
4.788
4.788
4.784
4.784
4.787
4.794
4.799
4.803
4.799
4.800
4.799
4.800
4.796
4.795
4.798
4.797
4.798
4.795
4.796
4.795
4.798
4.795
4.795
4.789
4.793
4.795
4.795
4.802
4.807
4.813
4.818
4.819
4.817
4.813
4.809
4.808
4.814
4.814
4.814
4.808
4.810
4.810
4.814
4.813
4.810
4.811
4.810
4.814
4.812
4.805
4.806
4.813
4.817
4.821
4.820
4.822
4.818
4.824
4.825
4.824
4.818
4.813
4.814
4.811
4.809
4.811
4.806
4.803
4.801
4.807
4.812
4.808
4.804
4.807
4.807
4.813
4.818
4.824
4.828
4.832
4.826
4.824
4.825
4.829
4.828
4.827
4.828
4.829
4.832
4.829
4.828
4.825
4.823
4.824
4.820
4.825
4.825
4.825
4.825
4.819
4.818
4.822
4.823
4.829
4.836
4.840
4.847
4.846
4.844
4.843
4.844
4.843
4.842
4.841
4.842
4.838
4.839
4.836
4.832
4.829
4.834
4.832
4.831
4.832
4.832
4.829
4.829
4.829
4.829
4.825
4.828
4.832
4.832
4.829
4.825
4.822
4.825
4.824
4.825
4.824
4.821
4.819
4.815
4.814
4.815
4.818
4.817
4.816
4.818
4.816
4.815
4.816
4.815
4.816
4.820
4.816
4.815
4.816
4.821
4.827
4.831
4.836
4.839
4.835
4.831
4.830
4.826
4.827
4.825
4.821
4.820
4.819
4.820
4.827
4.823
4.818
4.818
4.821
4.820
4.818
4.814
4.813
4.812
4.813
4.812
4.813
4.810
4.810
4.814
4.819
4.825
4.829
4.834
4.838
4.839
4.846
4.850
4.847
4.845
4.846
4.842
4.840
4.844
4.843
4.844
4.843
4.839
4.833
4.829
4.832
4.829
4.830
4.828
4.827
4.829
4.829
4.831
4.829
4.825
4.824
4.823
4.819
4.821
4.825
4.826
4.832
4.836
4.841
4.845
4.851
4.850
4.847
4.850
4.851
4.847
4.847
4.845
4.847
4.848
4.851
4.853
4.855
4.853
4.847
4.845
4.846
4.850
4.852
4.847
4.847
4.847
4.844
4.842
4.836
4.836
4.838
4.834
4.830
4.834
4.836
4.834
4.836
4.839
4.840
4.844
4.849
4.853
4.858
4.862
4.868
4.867
4.866
4.862
4.863
4.862
4.863
4.866
4.862
4.861
4.862
4.866
4.866
4.864
4.865
4.866
4.865
4.866
4.865
4.864
4.862
4.862
4.858
4.858
4.855
4.856
4.855
4.856
4.854
4.850
4.851
4.855
4.851
4.847
4.844
4.845
4.851
4.856
4.858
4.864
4.870
4.873
4.871
4.872
4.874
4.875
4.877
