2.984
3.298
3.446
3.540
3.681
3.690
3.691
3.743
3.772
3.813
3.847
3.882
3.918
3.925
3.952
3.994
3.984
4.005
4.029
4.062
4.065
4.063
4.064
4.094
4.097
4.125
4.146
4.141
4.159
4.131
4.132
4.142
4.145
4.171
4.181
4.180
4.203
4.190
4.210
4.212
4.220
4.244
4.251
4.270
4.259
4.231
4.257
4.264
4.281
4.294
4.305
4.294
4.299
4.304
4.268
4.281
4.291
4.281
4.285
4.262
4.260
4.274
4.286
4.286
4.281
4.270
4.316
4.293
4.321
4.310
4.319
4.297
4.310
4.316
4.308
4.338
4.339
4.327
4.357
4.356
4.349
4.354
4.345
4.361
4.374
4.342
4.332
4.324
4.319
4.353
4.339
4.337
4.334
4.343
4.337
4.328
4.349
4.363
4.356
4.345
4.350
4.375
4.372
4.370
4.364
4.379
4.409
4.385
4.382
4.386
4.391
4.413
4.406
4.376
4.357
4.385
4.391
4.384
4.385
4.361
4.363
4.399
4.419
4.404
4.392
4.401
4.389
4.392
4.426
4.427
4.450
4.434
4.423
4.403
4.406
4.429
4.428
4.428
4.423
4.410
4.409
4.397
4.408
4.439
4.465
4.464
4.462
4.465
4.438
4.456
4.445
4.421
4.450
4.479
4.483
4.493
4.462
4.450
4.466
4.445
4.465
4.461
4.464
4.485
4.468
4.457
4.440
4.426
4.409
4.388
4.388
4.407
4.432
4.458
4.472
4.459
4.455
4.445
4.429
4.435
4.436
4.426
4.404
4.396
4.420
4.444
4.463
4.464
4.448
4.449
4.440
4.444
4.431
4.411
4.413
4.422
4.425
4.411
4.411
4.433
4.455
4.463
4.474
4.464
4.460
4.451
4.438
4.457
4.449
4.442
4.433
4.410
4.415
4.412
4.407
4.416
4.436
4.457
4.477
4.485
4.475
4.469
4.468
4.467
4.452
4.447
4.445
4.450
4.453
4.455
4.450
4.438
4.451
4.459
4.436
4.424
4.438
4.456
4.475
4.494
4.507
4.503
4.510
4.505
4.504
4.512
4.525
4.502
4.494
4.505
4.499
4.488
4.495
4.485
4.465
4.485
4.481
4.480
4.482
4.490
4.476
4.456
4.473
4.490
4.507
4.519
4.503
4.489
4.503
4.514
4.493
4.476
4.466
4.469
4.465
4.466
4.477
4.468
4.461
4.458
4.465
4.443
4.449
4.449
4.445
4.448
4.441
4.423
4.422
4.435
4.451
4.466
4.481
4.496
4.512
4.527
4.533
4.522
4.522
4.533
4.528
4.526
4.525
4.523
4.512
4.503
4.505
4.508
4.508
4.493
4.494
4.504
4.506
4.505
4.510
4.518
4.524
4.528
4.517
4.515
4.501
4.513
4.514
4.512
4.504
4.485
4.489
4.485
4.470
4.482
4.496
4.509
4.508
4.509
4.521
4.504
4.505
4.502
4.514
4.509
4.522
4.511
4.520
4.514
4.502
4.493
4.478
4.467
4.466
4.455
4.445
4.463
4.473
4.472
4.476
4.468
4.479
4.465
4.467
4.461
4.460
4.459
4.453
4.454
4.454
4.461
4.479
4.484
4.479
4.476
4.479
4.479
4.466
4.456
4.463
4.465
4.477
4.489
4.501
4.512
4.524
4.536
4.536
4.526
4.525
4.525
4.522
4.504
4.496
4.502
4.495
4.490
4.492
4.503
4.497
4.493
4.493
4.493
4.500
4.504
4.497
4.500
4.517
4.524
4.510
4.500
4.494
4.482
4.475
4.477
4.479
4.473
4.464
4.473
4.474
4.464
4.470
4.455
4.444
4.441
4.450
4.458
4.459
4.457
4.468
4.461
4.471
4.470
4.468
4.464
4.453
4.451
4.447
4.454
4.451
4.446
4.445
4.454
4.465
4.475
4.485
4.495
4.505
4.515
4.526
4.536
4.546
4.556
4.566
4.561
4.548
4.546
4.543
4.538
4.552
4.545
4.544
4.538
4.538
4.530
4.530
4.545
4.545
4.545
4.546
4.547
4.537
4.533
4.520
4.517
4.520
4.512
4.513
4.518
4.523
4.523
4.529
4.524
4.519
4.510
4.506
4.499
4.498
4.500
4.501
4.495
4.496
4.509
4.516
4.525
4.509
4.504
4.513
4.520
4.520
4.506
4.506
4.521
4.523
4.512
4.499
4.498
4.504
4.492
4.491
4.494
4.494
4.503
4.492
4.481
4.476
4.483
4.483
4.491
4.482
4.497
4.500
4.490
4.482
4.485
4.492
4.496
4.499
4.483
4.482
4.481
4.484
4.481
4.479
4.488
4.496
4.505
4.513
4.522
4.530
4.538
4.547
4.555
4.555
4.541
4.535
4.532
4.543
4.540
4.536
4.542
4.542
4.532
4.521
4.509
4.520
4.522
4.516
4.510
4.512
4.524
4.536
4.541
4.537
4.525
4.533
4.534
4.524
4.530
4.517
4.504
4.514
4.529
4.524
4.524
4.529
4.526
4.526
4.526
4.518
4.533
4.522
4.528
4.518
4.511
4.505
4.495
4.502
4.500
4.496
4.489
4.490
4.500
4.490
4.498
4.486
4.490
4.477
4.485
4.472
4.487
4.469
4.469
4.469
4.466
4.478
4.473
4.486
4.474
4.474
4.463
4.460
4.461
4.465
4.468
4.467
4.463
4.461
4.456
4.459
4.473
4.465
4.458
4.465
4.455
4.458
4.466
4.459
4.464
4.463
4.458
4.454
4.459
4.466
4.478
4.479
4.484
4.494
4.505
4.513
4.516
4.517
4.520
4.513
4.505
4.503
4.505
4.493
4.493
4.495
4.488
4.480
4.472
4.468
4.479
4.483
4.488
4.485
4.477
4.477
4.478
4.480
4.474
4.464
4.467
4.474
4.481
4.487
4.494
4.501
4.507
4.514
4.521
4.528
4.535
4.541
4.548
4.555
4.562
4.568
4.575
4.575
4.574
4.577
4.575
4.581
4.564
4.563
4.565
4.563
4.570
4.578
4.577
4.581
4.592
4.578
4.569
4.567
4.563
4.554
4.555
4.551
4.559
4.551
4.560
4.558
4.558
4.553
4.542
4.544
4.546
4.542
4.541
4.535
4.541
4.540
4.548
4.540
4.536
4.540
4.551
4.561
4.568
4.572
4.572
4.567
4.559
4.550
4.556
4.556
4.561
4.567
4.573
4.571
4.568
4.558
4.547
4.548
4.542
4.531
4.529
4.522
4.523
4.522
4.520
4.520
4.528
4.530
4.538
4.547
4.556
4.564
4.557
4.547
4.538
4.528
4.518
4.518
4.524
4.520
4.521
4.515
4.520
4.528
4.531
4.533
4.525
4.526
4.520
4.524
4.521
4.515
4.509
4.503
4.496
4.490
4.487
4.488
4.483
4.480
4.475
4.468
4.466
4.473
4.469
4.466
4.470
4.478
4.479
4.485
4.482
4.477
4.480
4.484
4.481
4.483
4.487
4.489
4.489
4.492
4.504
4.502
4.502
4.496
4.495
4.492
4.488
4.498
4.486
4.479
4.467
4.468
4.462
4.459
4.468
4.477
4.471
4.463
4.455
4.448
4.450
4.444
4.438
4.436
4.442
4.443
4.440
4.442
4.438
4.440
4.446
4.447
4.445
4.445
4.453
4.451
4.453
4.454
4.454
4.454
4.449
4.451
4.443
4.448
4.443
4.441
4.436
4.438
4.435
4.437
4.447
4.453
4.462
4.454
4.450
4.460
4.455
4.452
4.452
4.449
4.448
4.439
4.435
4.432
4.425
4.423
4.428
4.418
4.420
4.423
4.434
4.429
4.421
4.432
4.431
4.426
4.426
4.428
4.433
4.438
4.443
4.448
4.453
4.458
4.463
4.468
4.473
4.478
4.484
4.489
4.494
4.499
4.504
4.509
4.514
4.519
4.524
4.529
4.534
4.539
4.544
4.550
4.555
4.560
4.565
4.570
4.575
4.580
4.585
4.590
4.595
4.600
4.605
4.610
4.615
4.620
4.625
4.631
4.636
4.641
4.638
4.634
4.626
4.621
4.621
4.620
4.615
4.608
4.615
4.607
4.597
4.593
4.590
4.592
4.593
4.590
4.580
4.585
4.588
4.587
4.589
4.588
4.589
4.588
4.586
4.585
4.586
4.590
4.593
4.578
4.578
4.573
4.576
4.572
4.574
4.565
4.568
4.566
4.563
4.570
4.564
4.560
4.560
4.554
4.567
4.568
4.569
4.571
4.568
4.570
4.572
4.567
4.571
4.560
4.562
4.552
4.547
4.556
4.562
4.555
4.554
4.548
4.540
4.548
4.557
4.566
4.573
4.573
4.567
4.569
4.570
4.568
4.565
4.568
4.575
4.583
4.581
4.588
4.576
4.568
4.563
4.568
4.562
4.573
4.572
