2.985
3.305
3.496
3.561
3.670
3.616
3.674
3.730
3.771
3.826
3.841
3.872
3.898
3.914
3.948
3.964
3.991
3.973
3.991
4.036
4.033
4.058
4.068
4.103
4.068
4.082
4.084
4.116
4.126
4.134
4.117
4.146
4.148
4.171
4.179
4.196
4.207
4.178
4.202
4.217
4.223
4.242
4.255
4.275
4.235
4.223
4.234
4.229
4.200
4.177
4.213
4.217
4.215
4.237
4.226
4.265
4.245
4.237
4.248
4.269
4.255
4.267
4.264
4.288
4.286
4.306
4.292
4.284
4.335
4.309
4.284
4.273
4.272
4.280
4.279
4.278
4.293
4.266
4.283
4.325
4.299
4.285
4.303
4.334
4.309
4.329
4.318
4.339
4.341
4.336
4.326
4.363
4.325
4.297
4.296
4.341
4.340
4.319
4.324
4.321
4.345
4.345
4.367
4.357
4.337
4.352
4.368
4.380
4.373
4.385
4.359
4.344
4.365
4.391
4.388
4.366
4.358
4.379
4.368
4.374
4.410
4.419
4.409
4.397
4.388
4.395
4.395
4.393
4.420
4.447
4.438
4.444
4.423
4.402
4.382
4.364
4.381
4.392
4.385
4.370
4.360
4.389
4.386
4.365
4.350
4.368
4.398
4.386
4.378
4.375
4.365
4.392
4.375
4.353
4.346
4.369
4.357
4.384
4.412
4.404
4.388
4.360
4.368
4.386
4.394
4.394
4.371
4.355
4.350
4.350
4.376
4.401
4.424
4.418
4.414
4.415
4.409
4.401
4.386
4.384
4.386
4.375
4.370
4.365
4.391
4.380
4.382
4.405
4.428
4.430
4.444
4.444
4.430
4.445
4.449
4.425
4.427
4.434
4.412
4.413
4.414
4.400
4.406
4.413
4.435
4.427
4.414
4.426
4.447
4.468
4.485
4.467
4.466
4.470
4.448
4.435
4.441
4.432
4.414
4.415
4.397
4.389
4.402
4.384
4.388
4.385
4.386
4.366
4.381
4.400
4.419
4.438
4.457
4.476
4.474
4.464
4.451
4.458
4.454
4.460
4.449
4.426
4.434
4.435
4.428
4.426
4.423
4.423
4.437
4.454
4.440
4.438
4.440
4.436
4.432
4.433
4.443
4.451
4.435
4.426
4.433
4.450
4.467
4.473
4.480
4.473
4.464
4.443
4.459
4.463
4.456
4.452
4.432
4.431
4.424
4.419
4.416
4.410
4.405
4.421
4.430
4.411
4.395
4.388
4.386
4.378
4.381
4.372
4.383
4.402
4.407
4.393
4.395
4.394
4.404
4.400
4.409
4.424
4.439
4.454
4.469
4.484
4.498
4.503
4.494
4.486
4.483
4.482
4.466
4.469
4.465
4.463
4.448
4.433
4.421
4.417
4.412
4.432
4.440
4.450
4.453
4.465
4.466
4.463
4.454
4.446
4.445
4.433
4.433
4.415
4.396
4.384
4.375
4.387
4.382
4.382
4.384
4.388
4.381
4.371
4.367
4.378
4.377
4.398
4.388
4.398
4.411
4.424
4.437
4.449
4.462
4.475
4.487
4.500
4.513
4.525
4.521
4.515
4.513
4.509
4.509
4.506
4.494
4.478
4.473
4.464
4.459
4.456
4.474
4.475
4.479
4.466
4.454
4.461
4.458
4.459
4.454
4.448
4.447
4.438
4.438
4.437
4.436
4.436
4.448
4.458
4.442
4.446
4.458
4.447
4.459
4.465
4.461
4.467
4.472
4.461
4.447
4.437
4.435
4.426
4.420
4.410
4.428
4.432
4.413
4.408
4.419
4.414
4.431
4.449
4.432
4.429
4.428
4.438
4.450
4.462
4.453
4.447
4.445
4.445
4.455
4.466
4.476
4.487
4.497
4.508
4.513
4.509
4.510
4.500
4.505
4.484
4.477
4.483
4.472
4.463
4.444
4.446
4.462
4.455
4.470
4.484
4.492
4.478
4.473
4.478
4.462
4.457
4.465
4.455
4.470
4.473
4.476
4.474
4.478
4.465
4.458
4.459
4.450
4.450
4.446
4.437
4.447
4.438
4.434
4.429
4.442
4.437
4.432
4.415
4.423
4.426
4.417
4.422
4.404
4.405
4.411
4.423
4.409
4.405
4.388
4.396
4.401
4.403
4.403
4.392
4.402
4.403
4.409
4.403
4.386
4.391
4.390
4.394
4.393
4.392
4.383
4.398
4.405
4.417
4.425
4.438
4.451
4.445
4.446
4.443
4.432
4.433
4.438
4.427
4.423
4.434
4.436
4.423
4.414
4.422
4.429
4.427
4.438
4.427
4.428
4.436
4.423
4.431
4.440
4.448
4.457
4.465
4.474
4.482
4.490
4.499
4.507
4.516
4.524
4.533
4.527
4.520
4.507
4.509
4.521
4.507
4.497
4.501
4.514
4.519
4.529
4.523
4.519
4.506
4.498
4.493
4.487
4.484
4.479
4.485
4.498
4.495
4.487
4.478
4.479
4.471
4.459
4.473
4.471
4.476
4.476
4.487
4.493
4.499
4.501
4.503
4.505
4.487
4.480
4.482
4.480
4.488
4.499
4.510
4.493
4.491
4.480
4.469
4.464
4.473
4.478
4.482
4.480
4.480
4.491
4.500
4.501
4.507
4.497
4.496
4.497
4.492
4.481
4.473
4.467
4.463
4.473
4.487
4.480
4.474
4.471
4.459
4.459
4.469
4.475
4.474
4.471
4.461
4.455
4.453
4.451
4.451
4.439
4.433
4.439
4.437
4.434
4.445
4.437
4.430
4.422
4.415
4.409
4.410
4.409
4.413
4.427
4.420
4.414
4.414
4.418
4.416
4.417
4.417
4.409
4.411
4.409
4.420
4.432
4.436
4.431
4.433
4.424
4.415
4.415
4.410
4.408
4.414
4.410
4.406
4.400
4.401
4.394
4.385
4.379
4.392
4.395
4.395
4.395
4.387
4.390
4.379
4.377
4.377
4.378
4.387
4.380
4.372
4.369
4.370
4.367
4.363
4.366
4.361
4.367
4.358
4.358
4.367
4.362
4.362
4.364
4.370
4.379
4.386
4.378
4.384
4.391
4.397
4.404
4.410
4.416
4.422
4.429
4.435
4.441
4.448
4.454
4.460
4.467
4.473
4.479
4.486
4.492
4.498
4.505
4.511
4.517
4.524
4.530
4.536
4.543
4.549
4.555
4.562
4.568
4.574
4.581
4.587
4.593
4.593
4.588
4.589
4.587
4.582
4.570
4.558
4.556
4.554
4.550
4.553
4.555
4.555
4.540
4.544
4.534
4.523
4.526
4.526
4.519
4.522
4.512
4.513
4.508
4.506
4.506
4.498
4.505
4.500
4.505
4.510
4.506
4.503
4.510
4.511
4.514
4.521
4.526
4.521
4.522
4.527
4.522
4.516
4.518
4.515
4.518
4.508
4.509
4.500
4.501
4.501
4.499
4.502
4.504
4.511
4.519
4.514
4.505
4.506
4.515
4.507
4.511
4.521
4.515
4.518
4.521
4.513
4.513
4.513
4.507
4.505
4.502
4.494
4.485
4.484
4.486
4.489
4.494
4.486
4.485
4.483
4.485
4.483
4.479
4.476
4.472
4.474
4.465
4.465
4.458
4.447
4.455
4.455
4.452
4.455
4.453
4.448
4.453
4.447
4.443
4.448
4.445
4.452
4.451
4.449
4.448
4.443
4.450
4.446
4.444
4.441
4.434
4.428
4.422
4.420
4.409
4.403
4.397
4.391
4.395
4.396
4.393
4.397
4.394
4.394
4.388
4.391
4.395
4.396
4.401
4.408
4.393
4.401
4.395
4.392
4.396
4.398
4.399
4.397
4.395
4.384
4.393
4.396
4.397
4.396
4.394
4.393
4.400
4.407
4.396
4.402
4.409
4.417
4.424
4.431
4.438
4.446
4.453
4.458
4.461
4.455
4.460
4.455
4.448
4.451
4.449
4.448
4.444
4.454
4.455
4.458
4.443
4.444
4.444
4.438
4.428
4.432
4.439
4.447
4.443
4.452
4.467
4.465
4.469
4.463
4.453
4.446
4.443
4.445
4.447
4.442
4.432
4.423
4.430
4.430
4.426
4.432
4.426
4.429
4.432
4.440
4.444
4.432
4.427
4.426
4.423
4.419
4.421
4.417
4.429
4.419
4.417
4.421
4.418
4.423
4.412
4.420
4.412
4.422
4.408
4.407
4.418
4.414
4.412
4.424
4.417
4.428
4.427
4.430
4.426
4.427
4.413
4.419
4.407
4.410
4.407
4.411
4.416
4.411
4.413
4.401
4.413
4.421
4.409
4.414
4.409
4.404
4.410
4.414
4.414
4.414
4.410
4.407
4.402
4.403
4.404
4.392
4.388
4.399
4.388
4.391
4.391
4.386
4.383
4.386
4.389
4.384
4.390
4.382
4.376
4.378
4.379
4.387
4.380
4.380
