2.991
3.329
3.511
3.634
3.724
3.761
3.849
3.867
3.931
3.911
3.957
3.996
4.030
4.064
4.102
4.106
4.045
4.049
4.066
4.081
4.096
4.108
4.129
4.134
4.154
4.157
4.178
4.179
4.190
4.205
4.205
4.220
4.228
4.246
4.239
4.248
4.263
4.275
4.283
4.273
4.279
4.292
4.296
4.308
4.318
4.325
4.315
4.317
4.331
4.333
4.343
4.349
4.357
4.361
4.375
4.368
4.356
4.360
4.373
4.375
4.384
4.383
4.389
4.396
4.408
4.402
4.405
4.415
4.422
4.427
4.433
4.431
4.405
4.407
4.419
4.426
4.422
4.434
4.438
4.431
4.438
4.435
4.452
4.457
4.455
4.462
4.469
4.467
4.468
4.464
4.469
4.479
4.488
4.492
4.490
4.494
4.496
4.501
4.508
4.500
4.504
4.505
4.507
4.497
4.477
4.482
4.483
4.494
4.501
4.497
4.494
4.500
4.502
4.514
4.515
4.498
4.497
4.500
4.504
4.512
4.508
4.512
4.520
4.516
4.523
4.534
4.535
4.528
4.529
4.528
4.538
4.536
4.543
4.549
4.551
4.550
4.542
4.544
4.549
4.536
4.548
4.547
4.554
4.544
4.554
4.552
4.565
4.564
4.571
4.568
4.575
4.574
4.576
4.571
4.573
4.585
4.573
4.586
4.581
4.591
4.595
4.585
4.601
4.591
4.601
4.607
4.594
4.596
4.595
4.602
4.598
4.588
4.597
4.585
4.597
4.599
4.595
4.602
4.611
4.607
4.609
4.613
4.612
4.612
4.628
4.627
4.611
4.629
4.631
4.631
4.631
4.637
4.630
4.620
4.611
4.602
4.592
4.588
4.587
4.601
4.597
4.596
4.597
4.601
4.592
4.596
4.603
4.605
4.601
4.594
4.609
4.618
4.616
4.620
4.614
4.631
4.623
4.621
4.612
4.621
4.611
4.604
4.605
4.607
4.605
4.607
4.601
4.605
4.612
4.601
4.595
4.602
4.606
4.607
4.603
4.601
4.606
4.621
4.617
4.615
4.625
4.613
4.622
4.629
4.627
4.626
4.622
4.620
4.628
4.624
4.625
4.624
4.617
4.631
4.634
4.632
4.628
4.626
4.623
4.637
4.649
4.648
4.647
4.642
4.639
4.642
4.653
4.656
4.647
4.637
4.633
4.634
4.649
4.645
4.644
4.643
4.639
4.629
4.641
4.645
4.653
4.651
4.645
4.640
4.641
4.645
4.658
4.665
4.658
4.664
4.658
4.649
4.642
4.654
4.669
4.667
4.663
4.660
4.664
4.656
4.657
4.662
4.677
4.689
4.685
4.681
4.682
4.673
4.671
4.667
4.677
4.690
4.685
4.678
4.682
4.678
4.680
4.676
4.679
4.684
4.693
4.684
4.677
4.668
4.660
4.651
4.657
4.670
4.669
4.676
4.674
4.665
4.658
4.657
4.657
4.653
4.664
4.664
4.661
4.662
4.664
4.657
4.652
4.656
4.652
4.653
4.664
4.678
4.675
4.679
4.675
4.676
4.675
4.671
4.672
4.662
4.658
4.670
4.677
4.673
4.677
4.681
4.677
4.675
4.674
4.671
4.663
4.657
4.666
4.670
4.675
4.678
4.674
4.670
4.680
4.679
4.674
4.673
4.666
4.667
4.668
4.679
4.691
4.701
4.702
4.697
4.697
4.694
4.688
4.689
4.688
4.678
4.680
4.673
4.683
4.694
4.701
4.694
4.696
4.689
4.691
4.689
4.688
4.687
4.685
4.679
4.688
4.686
4.686
4.698
4.707
4.714
4.712
4.716
4.710
4.711
4.712
4.717
4.712
4.716
4.705
4.698
4.697
4.698
4.701
4.711
4.721
4.725
4.724
4.720
4.716
4.720
4.720
4.716
4.710
4.703
4.702
4.703
4.708
4.705
4.701
4.709
4.707
4.706
4.708
4.716
4.716
4.714
4.708
4.700
4.697
4.697
4.697
4.692
4.688
4.686
4.691
4.700
4.710
4.714
4.708
4.705
4.705
4.711
4.704
4.705
4.710
4.712
4.712
4.709
4.705
4.708
4.710
4.708
4.702
4.698
4.707
4.716
4.721
4.722
4.715
4.720
4.723
4.720
4.715
4.716
4.713
4.711
4.712
4.709
4.718
4.728
4.721
4.719
4.718
4.714
4.708
4.717
4.726
4.734
4.737
4.736
4.737
4.733
4.734
4.738
4.740
4.738
4.740
4.741
4.735
4.733
4.737
4.739
4.731
4.731
4.723
4.730
4.727
4.725
4.729
4.738
4.745
4.752
4.759
4.755
4.759
4.753
4.753
4.744
4.745
4.738
4.742
4.742
4.742
4.741
4.735
4.736
4.740
4.733
4.726
4.719
4.713
4.722
4.729
4.738
4.746
4.750
4.754
4.749
4.751
4.747
4.745
4.741
4.738
4.741
4.745
4.738
4.737
4.736
4.734
4.731
4.734
4.738
4.737
4.736
4.732
4.733
4.732
4.730
4.732
4.738
4.746
4.753
4.762
4.768
4.767
4.764
4.764
4.764
4.764
4.764
4.773
4.771
4.768
4.766
4.767
4.764
4.764
4.764
4.764
4.757
4.759
4.758
4.754
4.760
4.762
4.766
4.759
4.763
4.760
4.763
4.756
4.764
4.770
4.779
4.786
4.790
4.789
4.783
4.784
4.779
4.778
4.772
4.770
4.771
4.776
4.775
4.776
4.775
4.778
4.774
4.768
4.764
4.760
4.757
4.751
4.747
4.743
4.738
4.734
4.734
4.742
4.749
4.756
4.763
4.759
4.755
4.764
4.760
4.760
4.764
4.762
4.763
4.760
4.757
4.757
4.758
4.756
4.753
4.748
4.744
4.738
4.733
4.727
4.722
4.729
4.728
4.729
4.730
4.727
4.728
4.732
4.728
4.726
4.730
4.734
4.741
4.746
4.753
4.760
4.766
4.759
4.753
4.753
4.750
4.746
4.742
4.735
4.734
4.743
4.752
4.753
4.745
4.743
4.741
4.743
4.742
4.737
4.736
4.738
4.734
4.742
4.738
4.731
4.730
4.727
4.731
4.734
4.736
4.734
4.731
4.734
4.731
4.737
4.741
4.737
4.744
4.751
4.757
4.762
4.769
4.770
4.764
4.759
4.753
4.754
4.750
4.751
4.750
4.754
4.750
4.748
4.741
4.738
4.738
4.734
4.734
4.732
4.727
4.731
4.734
4.737
4.733
4.734
4.734
4.729
4.731
4.726
4.730
4.734
4.728
4.727
4.727
4.721
4.716
4.720
4.719
4.723
4.728
4.735
4.741
4.746
4.753
4.759
4.766
4.771
4.772
4.768
4.769
4.768
4.769
4.770
4.777
4.773
4.772
4.770
4.769
4.770
4.769
4.765
4.760
4.754
4.750
4.748
4.750
4.746
4.742
4.745
4.747
4.745
4.742
4.738
4.734
4.737
4.733
4.729
4.723
4.729
4.733
4.731
4.736
4.737
4.730
4.734
4.734
4.734
4.733
4.727
4.728
4.734
4.739
4.746
4.750
4.756
4.761
4.768
4.769
4.768
4.769
4.764
4.763
4.764
4.763
4.762
4.769
4.770
4.761
4.762
4.760
4.754
4.758
4.759
4.758
4.756
4.763
4.770
4.768
4.773
4.769
4.767
4.764
4.757
4.752
4.753
4.755
4.759
4.755
4.753
4.753
4.748
4.753
4.751
4.755
4.751
4.745
4.740
4.734
4.731
4.730
4.732
4.727
4.727
4.727
4.724
4.720
4.726
4.731
4.737
4.742
4.748
4.753
4.759
4.763
4.768
4.774
4.779
4.785
4.790
4.788
4.787
4.786
4.784
4.783
4.781
4.780
4.775
4.777
4.776
4.779
4.779
4.774
4.775
4.771
4.775
4.768
4.768
4.769
4.770
4.774
4.775
4.777
4.775
4.771
4.768
4.763
4.762
4.760
4.757
4.755
4.756
4.755
4.756
4.755
4.757
4.753
4.753
4.750
4.751
4.749
4.753
4.752
4.759
4.761
4.762
4.761
4.764
4.760
4.754
4.747
4.743
4.742
4.742
4.741
4.738
4.744
4.746
4.752
4.756
4.761
4.767
4.772
4.775
4.780
4.786
4.791
4.795
4.791
4.790
4.791
4.797
4.794
4.792
4.794
4.794
4.794
4.789
4.791
4.795
4.801
4.801
4.801
4.797
4.797
4.797
4.793
4.787
4.783
4.782
4.780
4.779
4.780
4.782
4.785
4.786
4.786
4.786
4.786
4.784
4.782
4.784
4.783
4.781
4.777
4.779
4.786
4.786
4.783
4.781
4.779
4.781
4.777
4.781
4.783
4.779
4.780
4.779
4.777
4.775
4.771
4.770
4.772
4.770
4.775
4.778
4.772
4.768
4.769
4.768
4.774
