2.975
3.330
3.425
3.568
3.538
3.592
3.644
3.715
3.736
3.802
3.818
3.867
3.886
3.883
3.944
3.956
3.962
3.996
3.982
3.973
3.993
4.036
4.018
4.061
4.067
4.068
4.108
4.070
4.110
4.134
4.142
4.149
4.165
4.120
4.137
4.101
4.109
4.108
4.115
4.160
4.142
4.155
4.145
4.154
4.162
4.191
4.182
4.216
4.186
4.228
4.223
4.171
4.156
4.202
4.176
4.189
4.205
4.193
4.223
4.207
4.192
4.238
4.230
4.225
4.234
4.252
4.247
4.212
4.260
4.227
4.192
4.230
4.260
4.258
4.250
4.226
4.279
4.276
4.284
4.258
4.260
4.292
4.290
4.297
4.283
4.267
4.284
4.333
4.311
4.317
4.313
4.309
4.286
4.333
4.377
4.354
4.326
4.298
4.275
4.295
4.318
4.304
4.299
4.292
4.261
4.252
4.267
4.301
4.324
4.318
4.265
4.285
4.278
4.276
4.274
4.257
4.294
4.331
4.344
4.292
4.307
4.286
4.283
4.273
4.268
4.260
4.293
4.300
4.333
4.331
4.312
4.321
4.332
4.305
4.315
4.301
4.277
4.280
4.281
4.303
4.300
4.330
4.360
4.390
4.380
4.371
4.391
4.379
4.367
4.365
4.358
4.335
4.328
4.330
4.312
4.300
4.302
4.329
4.356
4.359
4.374
4.351
4.347
4.349
4.344
4.318
4.318
4.302
4.307
4.299
4.332
4.335
4.309
4.287
4.310
4.317
4.306
4.329
4.353
4.377
4.401
4.425
4.418
4.430
4.434
4.415
4.421
4.412
4.401
4.385
4.373
4.355
4.337
4.319
4.302
4.292
4.284
4.268
4.299
4.297
4.283
4.292
4.313
4.334
4.355
4.376
4.398
4.419
4.426
4.412
4.415
4.418
4.389
4.376
4.371
4.363
4.335
4.353
4.346
4.362
4.355
4.375
4.368
4.352
4.335
4.323
4.305
4.298
4.290
4.292
4.310
4.303
4.310
4.297
4.279
4.291
4.309
4.327
4.346
4.364
4.382
4.400
4.418
4.422
4.446
4.444
4.423
4.414
4.400
4.390
4.384
4.378
4.379
4.367
4.376
4.370
4.376
4.358
4.359
4.344
4.337
4.328
4.315
4.303
4.334
4.334
4.336
4.343
4.361
4.357
4.354
4.351
4.353
4.338
4.340
4.332
4.320
4.315
4.316
4.306
4.316
4.335
4.314
4.319
4.318
4.335
4.342
4.357
4.372
4.387
4.403
4.418
4.433
4.448
4.463
4.462
4.445
4.431
4.417
4.432
4.419
4.402
4.384
4.404
4.404
4.416
4.403
4.390
4.376
4.380
4.367
4.370
4.393
4.382
4.364
4.367
4.374
4.348
4.349
4.352
4.332
4.325
4.323
4.321
4.324
4.322
4.333
4.305
4.299
4.294
4.297
4.292
4.300
4.302
4.296
4.274
4.299
4.291
4.297
4.282
4.282
4.282
4.292
4.310
4.325
4.343
4.351
4.317
4.327
4.342
4.313
4.312
4.326
4.313
4.297
4.310
4.314
4.326
4.338
4.351
4.363
4.375
4.387
4.399
4.411
4.423
4.435
4.447
4.459
4.465
4.450
4.451
4.452
4.452
4.436
4.421
4.416
4.412
4.419
4.412
4.401
4.390
4.384
4.379
4.392
4.382
4.370
4.362
4.354
4.365
4.371
4.387
4.398
4.387
4.387
4.387
4.364
4.371
4.365
4.371
4.382
4.363
4.353
4.344
4.359
4.375
4.391
4.391
4.389
4.397
4.411
4.412
4.398
4.386
4.371
4.396
4.383
4.401
4.402
4.395
4.391
4.382
4.377
4.396
4.384
4.367
4.347
4.343
4.342
4.346
4.341
4.347
4.347
4.344
4.330
4.326
4.324
4.327
4.346
4.336
4.327
4.343
4.330
4.323
4.331
4.347
4.351
4.340
4.330
4.320
4.309
4.303
4.304
4.295
4.300
4.308
4.313
4.318
4.328
4.326
4.331
4.315
4.307
4.299
4.300
4.318
4.300
4.285
4.286
4.282
4.273
4.273
4.281
4.290
4.299
4.308
4.317
4.326
4.335
4.344
4.353
4.362
4.371
4.380
4.389
4.398
4.407
4.416
4.425
4.434
4.443
4.452
4.443
4.456
4.469
4.482
4.490
4.507
4.511
4.510
4.507
4.504
4.500
4.490
4.473
4.470
4.453
4.454
4.449
4.435
4.429
4.427
4.428
4.425
4.417
4.416
4.415
4.412
4.422
4.419
4.418
4.405
4.411
4.404
4.406
4.412
4.420
4.411
4.414
4.413
4.413
4.400
4.400
4.404
4.400
4.408
4.408
4.421
4.419
4.425
4.423
4.435
4.434
4.427
4.433
4.442
4.444
4.446
4.434
4.421
4.419
4.416
4.406
4.397
4.392
4.381
4.391
4.386
4.377
4.377
4.381
4.378
4.369
4.363
4.354
4.348
4.348
4.345
4.347
4.353
4.358
4.352
4.346
4.345
4.338
4.336
4.335
4.342
4.328
4.338
4.325
4.322
4.327
4.315
4.324
4.318
4.327
4.335
4.325
4.317
4.328
4.324
4.318
4.325
4.330
4.325
4.314
4.306
4.322
4.324
4.315
4.307
4.298
4.306
4.317
4.327
4.337
4.344
4.340
4.356
4.349
4.343
4.344
4.338
4.337
4.331
4.351
4.346
4.360
4.370
4.362
4.359
4.357
4.357
4.348
4.362
4.369
4.373
4.384
4.389
4.383
4.384
4.372
4.370
4.356
4.358
4.358
4.350
4.358
4.355
4.341
4.344
4.358
4.347
4.345
4.343
4.341
4.348
4.338
4.335
4.327
4.316
4.305
4.294
4.297
4.306
4.312
4.304
4.300
4.314
4.304
4.294
4.291
4.298
4.291
4.291
4.289
4.293
4.282
4.289
4.284
4.290
4.299
4.306
4.303
4.315
4.314
4.307
4.307
4.297
4.293
4.304
4.299
4.298
4.292
4.289
4.293
4.292
4.299
4.314
4.292
4.289
4.288
4.302
4.304
4.301
4.290
4.285
4.292
4.287
4.290
4.279
4.285
4.273
4.280
4.282
4.271
4.265
4.271
4.279
4.283
4.289
4.295
4.301
4.307
4.313
4.319
4.325
4.331
4.337
4.343
4.350
4.356
4.361
4.368
4.374
4.380
4.386
4.392
4.398
4.404
4.410
4.416
4.422
4.428
4.434
4.440
4.446
4.452
4.458
4.464
4.470
4.471
4.470
4.463
4.465
4.475
4.476
4.469
4.481
4.480
4.484
4.475
4.470
4.470
4.466
4.455
4.447
4.439
4.451
4.461
4.459
4.453
4.455
4.452
4.440
4.441
4.440
4.428
4.427
4.438
4.438
4.430
4.427
4.434
4.428
4.430
4.437
4.434
4.435
4.447
4.439
4.440
4.441
4.433
4.432
4.424
4.414
4.420
4.411
4.421
4.430
4.431
4.440
4.440
4.444
4.449
4.457
4.458
4.457
4.445
4.435
4.433
4.424
4.416
4.419
4.415
4.413
4.417
4.424
4.423
4.421
4.424
4.437
4.433
4.439
4.433
4.420
4.417
4.417
4.428
4.433
4.436
4.444
4.452
4.460
4.459
4.454
4.455
4.455
4.464
4.465
4.456
4.449
4.446
4.445
4.439
4.427
4.418
4.420
4.413
4.411
4.406
4.399
4.396
4.388
4.400
4.396
4.399
4.400
4.392
4.405
4.400
4.393
4.395
4.398
4.405
4.411
4.409
4.408
4.403
4.400
4.399
4.396
4.384
4.380
4.374
4.373
4.387
4.377
4.387
4.397
4.399
4.399
4.388
4.385
4.384
4.385
4.382
4.396
4.398
4.398
4.391
4.394
4.387
4.387
4.387
4.389
4.402
4.410
4.412
4.400
4.394
4.394
4.391
4.386
4.388
4.396
4.395
4.386
4.375
4.369
4.368
4.359
4.368
4.379
4.390
4.384
4.383
4.387
4.380
4.379
4.375
4.365
4.356
4.353
4.348
4.349
4.353
4.349
4.358
4.353
4.361
4.364
4.371
4.372
4.365
4.359
4.352
4.348
4.339
4.332
4.332
4.337
4.339
4.331
4.327
4.334
4.343
4.352
4.355
4.366
4.358
4.355
4.346
4.344
4.341
4.337
4.324
4.321
4.320
4.319
4.322
4.321
4.319
4.306
4.315
4.319
4.320
4.320
4.330
4.317
4.309
4.312
4.310
4.319
4.322
4.318
4.319
4.312
4.315
4.309
4.314
4.307
4.316
4.316
4.318
4.320
4.320
4.324
4.316
4.318
4.308
4.307
4.320
4.324
4.336
4.328
4.339
4.338
4.330
4.328
4.327
4.328
4.324
4.327
4.326
4.327
4.325
4.329
