2.994
3.332
3.505
3.627
3.714
3.773
3.832
3.871
3.936
3.942
3.985
4.030
4.024
4.031
4.064
4.093
4.117
4.140
4.169
4.184
4.204
4.173
4.130
4.140
4.160
4.167
4.174
4.192
4.197
4.212
4.216
4.228
4.231
4.245
4.257
4.257
4.268
4.279
4.279
4.285
4.295
4.304
4.311
4.307
4.316
4.327
4.333
4.345
4.331
4.342
4.347
4.359
4.363
4.375
4.379
4.364
4.374
4.383
4.385
4.394
4.394
4.405
4.410
4.412
4.407
4.408
4.412
4.412
4.418
4.425
4.429
4.434
4.442
4.444
4.448
4.453
4.451
4.463
4.456
4.444
4.453
4.453
4.457
4.458
4.468
4.469
4.473
4.471
4.473
4.480
4.490
4.490
4.492
4.494
4.497
4.502
4.501
4.512
4.512
4.516
4.517
4.510
4.501
4.502
4.500
4.502
4.509
4.510
4.509
4.520
4.517
4.521
4.527
4.524
4.528
4.523
4.527
4.527
4.531
4.538
4.541
4.542
4.545
4.549
4.553
4.554
4.553
4.556
4.555
4.556
4.555
4.564
4.564
4.573
4.577
4.578
4.575
4.576
4.586
4.583
4.591
4.589
4.580
4.587
4.597
4.589
4.582
4.570
4.560
4.559
4.568
4.576
4.568
4.571
4.579
4.576
4.583
4.583
4.579
4.583
4.585
4.587
4.596
4.590
4.596
4.590
4.590
4.587
4.586
4.587
4.590
4.590
4.596
4.595
4.601
4.597
4.605
4.605
4.608
4.608
4.612
4.617
4.615
4.617
4.613
4.612
4.613
4.622
4.616
4.630
4.627
4.631
4.627
4.630
4.634
4.622
4.621
4.617
4.631
4.630
4.631
4.627
4.623
4.631
4.629
4.634
4.635
4.631
4.634
4.639
4.634
4.645
4.642
4.642
4.653
4.657
4.649
4.658
4.654
4.652
4.662
4.653
4.654
4.660
4.657
4.657
4.665
4.664
4.662
4.672
4.668
4.671
4.675
4.677
4.676
4.672
4.686
4.677
4.676
4.675
4.667
4.663
4.678
4.680
4.675
4.680
4.683
4.675
4.668
4.677
4.676
4.669
4.668
4.683
4.684
4.679
4.678
4.688
4.686
4.690
4.690
4.691
4.701
4.693
4.694
4.691
4.703
4.705
4.703
4.702
4.705
4.705
4.708
4.707
4.703
4.697
4.692
4.685
4.678
4.671
4.668
4.669
4.673
4.663
4.668
4.664
4.673
4.677
4.678
4.672
4.673
4.679
4.689
4.685
4.684
4.679
4.676
4.679
4.683
4.682
4.684
4.679
4.689
4.688
4.687
4.688
4.686
4.686
4.700
4.701
4.700
4.704
4.703
4.693
4.706
4.704
4.695
4.688
4.681
4.686
4.689
4.691
4.687
4.690
4.684
4.691
4.689
4.688
4.681
4.672
4.678
4.686
4.689
4.688
4.687
4.682
4.675
4.686
4.689
4.685
4.683
4.685
4.681
4.685
4.692
4.696
4.698
4.697
4.697
4.697
4.695
4.699
4.705
4.707
4.700
4.705
4.703
4.701
4.701
4.702
4.709
4.705
4.705
4.699
4.698
4.697
4.700
4.708
4.717
4.712
4.712
4.707
4.709
4.705
4.705
4.710
4.719
4.724
4.723
4.721
4.722
4.720
4.723
4.721
4.720
4.731
4.733
4.732
4.730
4.721
4.714
4.705
4.712
4.723
4.727
4.724
4.720
4.720
4.722
4.716
4.716
4.716
4.723
4.726
4.719
4.720
4.719
4.721
4.716
4.721
4.720
4.720
4.730
4.737
4.733
4.731
4.733
4.737
4.736
4.731
4.727
4.724
4.733
4.742
4.736
4.735
4.728
4.734
4.734
4.729
4.731
4.732
4.731
4.738
4.749
4.749
4.753
4.749
4.747
4.749
4.747
4.746
4.745
4.749
4.752
4.751
4.760
4.762
4.758
4.757
4.757
4.756
4.753
4.756
4.755
4.751
4.749
4.754
4.764
4.764
4.764
4.765
4.763
4.759
4.753
4.748
4.741
4.737
4.742
4.742
4.741
4.748
4.747
4.742
4.738
4.732
4.733
4.735
4.733
4.732
4.738
4.745
4.749
4.742
4.736
4.729
4.727
4.726
4.723
4.724
4.725
4.723
4.723
4.734
4.741
4.748
4.742
4.743
4.742
4.742
4.742
4.735
4.733
4.737
4.734
4.734
4.733
4.735
4.741
4.748
4.755
4.760
4.760
4.757
4.763
4.757
4.752
4.745
4.745
4.738
4.739
4.743
4.739
4.740
4.747
4.757
4.761
4.760
4.757
4.757
4.753
4.748
4.745
4.749
4.745
4.743
4.739
4.732
4.731
4.742
4.749
4.751
4.758
4.764
4.760
4.754
4.755
4.754
4.753
4.759
4.750
4.749
4.753
4.753
4.749
4.746
4.747
4.749
4.758
4.765
4.774
4.770
4.774
4.773
4.771
4.776
4.774
4.775
4.768
4.762
4.763
4.760
4.760
4.753
4.753
4.760
4.758
4.765
4.772
4.779
4.772
4.768
4.769
4.767
4.766
4.764
4.763
4.768
4.764
4.768
4.766
4.765
4.760
4.760
4.763
4.764
4.763
4.771
4.777
4.786
4.785
4.790
4.786
4.786
4.786
4.787
4.790
4.790
4.788
4.787
4.782
4.781
4.783
4.787
4.782
4.781
4.774
4.773
4.777
4.781
4.788
4.795
4.794
4.792
4.794
4.790
4.791
4.797
4.797
4.797
4.794
4.787
4.782
4.779
4.777
4.776
4.775
4.775
4.774
4.768
4.771
4.778
4.785
4.786
4.783
4.783
4.782
4.784
4.782
4.778
4.780
4.783
4.780
4.778
4.783
4.781
4.779
4.776
4.779
4.776
4.771
4.765
4.760
4.765
4.772
4.778
4.777
4.781
4.777
4.783
4.785
4.786
4.785
4.781
4.779
4.775
4.777
4.778
4.779
4.779
4.774
4.775
4.777
4.773
4.779
4.781
4.780
4.783
4.782
4.778
4.777
4.783
4.788
4.794
4.794
4.795
4.796
4.792
4.790
4.789
4.791
4.790
4.791
4.784
4.785
4.784
4.785
4.786
4.786
4.786
4.785
4.781
4.783
4.783
4.785
4.784
4.779
4.781
4.783
4.786
4.790
4.797
4.802
4.809
4.813
4.816
4.807
4.809
4.810
4.806
4.802
4.800
4.802
4.801
4.799
4.800
4.799
4.800
4.804
4.805
4.801
4.800
4.805
4.803
4.802
4.798
4.801
4.805
4.805
4.803
4.797
4.800
4.802
4.808
4.813
4.820
4.826
4.825
4.821
4.823
4.829
4.828
4.823
4.820
4.821
4.817
4.813
4.809
4.807
4.814
4.818
4.814
4.815
4.817
4.812
4.808
4.805
4.806
4.812
4.811
4.805
4.809
4.807
4.806
4.804
4.803
4.807
4.814
4.820
4.817
4.818
4.822
4.820
4.814
4.810
4.808
4.801
4.806
4.807
4.809
4.810
4.812
4.818
4.816
4.810
4.811
4.816
4.809
4.807
4.806
4.805
4.805
4.799
4.798
4.797
4.800
4.799
4.797
4.799
4.797
4.799
4.805
4.810
4.816
4.821
4.825
4.832
4.838
4.835
4.833
4.834
4.833
4.831
4.834
4.835
4.833
4.829
4.825
4.823
4.827
4.826
4.830
4.826
4.828
4.827
4.822
4.820
4.825
4.827
4.827
4.829
4.828
4.824
4.825
4.827
4.825
4.831
4.828
4.826
4.825
4.821
4.823
4.824
4.823
4.824
4.830
4.835
4.841
4.846
4.852
4.857
4.863
4.864
4.860
4.860
4.855
4.859
4.855
4.851
4.844
4.843
4.847
4.846
4.842
4.848
4.845
4.840
4.836
4.834
4.834
4.834
4.834
4.838
4.838
4.840
4.838
4.834
4.831
4.832
4.830
4.835
4.833
4.831
4.828
4.824
4.822
4.818
4.822
4.827
4.831
4.837
4.838
4.832
4.828
4.824
4.819
4.818
4.820
4.820
4.816
4.816
4.822
4.818
4.822
4.816
4.814
4.820
4.823
4.821
4.817
4.820
4.819
4.816
4.816
4.813
4.812
4.816
4.819
4.815
4.817
4.815
4.809
4.807
4.814
4.813
4.816
4.812
4.809
4.805
4.801
4.797
4.803
4.807
4.812
4.816
4.820
4.821
4.827
4.834
4.834
4.831
4.828
4.829
4.828
4.826
4.823
4.824
4.823
4.823
4.828
4.826
4.825
4.824
4.825
4.821
4.823
4.824
4.820
4.815
4.814
4.810
4.809
4.807
4.808
4.805
4.801
4.807
4.812
4.816
4.814
4.810
4.805
4.807
4.801
4.799
4.797
4.797
4.800
4.797
4.795
