1.610
1.833
2.749
2.043
2.554
3.065
2.327
2.021
2.008
2.263
2.455
2.678
2.901
3.124
2.687
2.696
2.107
2.603
2.398
2.093
2.124
2.429
2.405
2.585
2.616
2.446
2.091
2.436
2.462
2.229
2.274
2.432
2.591
2.443
2.309
2.509
2.292
2.259
2.285
2.429
2.235
2.457
2.580
2.381
2.211
2.220
2.353
2.393
2.269
2.160
2.373
2.308
2.197
2.323
2.449
2.285
2.348
2.133
2.430
2.268
2.320
2.441
2.413
2.258
2.151
2.340
2.401
2.336
2.451
2.534
2.393
2.348
2.160
2.255
2.364
2.468
2.238
2.364
2.278
2.253
2.317
2.402
2.392
2.386
2.396
2.229
2.397
2.343
2.446
2.412
2.404
2.277
2.198
2.296
2.395
2.386
2.188
2.298
2.229
2.302
2.317
2.451
2.310
2.316
2.201
2.227
2.356
2.331
2.224
2.376
2.462
2.286
2.292
2.384
2.476
2.368
2.254
2.291
2.270
2.359
2.314
2.462
2.312
2.337
2.294
2.340
2.393
2.420
2.315
2.263
2.239
2.324
2.408
2.344
2.293
2.385
2.229
2.312
2.396
2.466
2.343
2.281
2.234
2.303
2.385
2.304
2.394
2.264
2.286
2.304
2.377
2.344
2.445
2.352
2.258
2.292
2.371
2.376
2.310
2.263
2.350
2.290
2.367
2.418
2.430
2.317
2.334
2.290
2.366
2.443
2.359
2.371
2.254
2.291
2.366
2.297
2.302
2.191
2.371
2.323
2.368
2.269
2.357
2.308
2.264
2.298
2.371
2.377
2.292
2.209
2.286
2.303
2.324
2.348
2.363
2.259
2.347
2.309
2.380
2.404
2.374
2.316
2.247
2.317
2.387
2.320
2.258
2.372
2.325
2.325
2.364
2.234
2.315
2.272
2.296
2.333
2.402
2.347
2.325
2.248
2.276
2.343
2.353
2.317
2.333
2.236
2.345
2.305
2.265
2.373
2.410
2.320
2.298
2.357
2.322
2.362
2.287
2.246
2.310
2.376
2.345
2.243
2.301
2.262
2.323
2.329
2.435
2.335
2.357
2.301
2.281
2.386
2.289
2.330
2.258
2.287
2.349
2.359
2.288
2.281
2.240
2.301
2.363
2.353
2.320
2.390
2.274
2.316
2.310
2.277
2.375
2.305
2.305
2.331
2.392
2.333
2.266
2.263
2.286
2.346
2.295
2.390
2.299
2.319
2.325
2.258
2.347
2.260
2.354
2.287
2.318
2.329
2.384
2.317
2.256
2.276
2.334
2.362
2.325
2.294
2.360
2.293
2.323
2.288
2.256
2.322
2.339
2.310
2.368
2.392
2.312
2.303
2.271
2.328
2.385
2.333
2.269
2.284
2.302
2.345
2.298
2.331
2.249
2.266
2.307
2.363
2.316
2.386
2.351
2.294
2.325
2.282
2.350
2.324
2.262
2.288
2.343
2.353
2.291
2.252
2.316
2.306
2.321
2.260
2.383
2.308
2.350
2.316
2.335
2.349
2.274
2.318
2.290
2.344
2.391
2.348
2.329
2.256
2.309
2.357
2.317
2.296
2.223
2.275
2.328
2.382
2.286
2.351
2.319
2.295
2.348
2.256
2.319
2.345
2.287
2.315
2.367
2.354
2.316
2.258
2.291
2.334
2.345
2.287
2.230
2.284
2.369
2.317
2.312
2.326
2.255
2.339
2.322
2.374
2.366
2.375
2.317
2.291
2.342
2.336
2.347
2.290
2.261
2.311
2.362
2.364
2.272
2.333
2.304
2.332
2.336
2.245
2.305
2.276
2.302
2.331
2.402
2.339
2.350
2.295
2.303
2.372
2.312
2.324
2.269
2.293
2.343
2.353
2.302
2.316
2.265
2.329
2.327
2.275
2.290
2.238
2.302
2.335
2.352
2.328
2.383
2.295
2.307
2.326
2.302
2.357
2.305
2.280
2.328
2.376
2.334
2.281
2.302
2.301
2.349
2.310
2.257
2.277
2.274
2.322
2.303
2.381
2.311
2.329
2.314
2.278
2.355
2.287
2.304
2.291
2.316
2.348
2.372
2.319
2.293
2.291
2.323
2.348
2.296
2.270
2.266
2.312
2.357
2.329
2.306
2.360
2.287
2.333
2.306
2.283
2.336
2.263
2.308
2.354
2.396
2.334
2.308
2.285
2.330
2.372
2.311
2.286
2.262
2.305
2.351
2.314
2.362
2.297
2.313
2.327
2.292
2.339
2.275
2.290
2.304
2.348
2.333
2.390
2.349
2.299
2.324
2.311
2.367
2.327
2.278
2.301
2.346
2.355
2.306
2.258
2.278
2.323
2.334
2.297
2.275
2.326
2.300
2.313
2.276
2.254
2.325
2.341
2.321
2.351
2.363
2.304
2.321
2.299
2.329
2.342
2.283
2.301
2.278
2.321
2.365
2.328
2.333
2.271
2.299
2.343
2.309
2.312
2.252
2.278
2.321
2.364
2.308
2.362
2.337
2.316
2.342
2.288
2.341
2.317
2.295
2.321
2.364
2.372
2.325
2.278
2.325
2.343
2.352
2.306
2.260
2.305
2.322
2.333
2.287
2.241
2.286
2.301
2.314
2.330
2.342
2.285
2.341
2.296
2.310
2.323
2.266
2.323
2.303
2.345
2.359
2.350
2.315
2.283
2.324
2.340
2.332
2.296
2.263
2.305
2.346
2.314
2.277
2.345
2.321
2.326
2.349
2.275
2.326
2.303
2.307
2.330
2.258
2.307
2.350
2.305
2.329
2.370
2.339
2.332
2.287
2.310
2.351
2.321
2.315
2.270
2.291
2.331
2.341
2.318
2.330
2.276
2.343
2.324
2.300
2.313
2.259
2.325
2.307
2.283
2.295
2.241
2.322
2.316
2.349
2.330
2.361
2.305
2.297
2.332
2.313
2.344
2.300
2.280
2.319
2.359
2.341
2.283
2.319
2.301
2.341
2.324
2.268
2.302
2.284
2.323
2.307
2.251
2.285
2.349
2.320
2.308
2.373
2.317
2.332
2.304
2.292
2.356
2.301
2.315
2.288
2.309
2.349
2.357
2.314
2.310
2.292
2.331
2.341
2.299
2.294
2.275
2.314
2.325
2.283
2.278
2.259
2.304
2.336
2.330
2.312
2.356
2.288
2.319
2.314
2.296
2.340
2.273
2.302
2.340
2.379
2.343
2.305
2.303
2.324
2.362
2.327
2.290
2.287
2.307
2.346
2.316
2.275
2.272
2.291
2.329
2.300
2.357
2.303
2.318
2.326
2.286
2.341
2.288
2.302
2.312
2.334
2.339
2.379
2.337
2.297
2.318
2.324
2.363
2.323
2.283
2.302
2.309
2.349
2.308
2.269
2.287
2.324
2.340
2.319
2.302
2.345
2.308
2.325
2.305
2.287
2.330
2.293
2.310
2.290
2.272
2.315
2.331
2.314
2.351
2.366
2.317
2.316
2.299
2.336
2.351
2.303
2.302
2.284
2.320
2.357
2.328
2.288
2.269
2.311
2.342
2.314
2.333
2.283
2.296
2.327
2.300
2.319
2.269
2.282
2.312
2.348
2.318
2.364
2.343
2.312
2.333
2.304
2.349
2.329
2.298
2.319
2.291
2.335
2.323
2.285
2.304
2.340
2.349
2.310
2.284
2.326
2.325
2.335
2.297
2.270
2.312
2.311
2.322
2.283
2.257
2.299
2.297
2.323
2.337
2.348
2.301
2.333
2.310
2.323
2.334
2.287
2.320
2.304
2.339
2.368
2.345
2.307
2.290
2.325
2.354
2.332
2.318
2.276
2.311
2.340
2.319
2.304
2.263
2.297
2.332
2.306
2.291
2.249
2.329
2.319
2.353
2.292
2.335
2.316
2.305
2.340
2.279
2.322
2.303
2.291
2.326
2.361
2.351
2.330
2.293
2.313
2.347
2.338
2.318
2.281
2.301
2.334
2.325
2.306
2.269
2.289
2.320
2.330
2.326
2.336
2.291
2.348
2.318
2.313
2.324
2.278
2.335
2.306
2.300
2.311
2.266
2.322
2.315
2.349
2.343
2.355
2.318
2.302
2.336
2.331
2.343
2.306
2.289
2.323
2.318
2.330
2.294
2.277
2.310
2.344
2.345
2.285
2.327
2.309
2.331
2.332
2.273
2.314
2.297
2.319
2.320
2.262
2.302
2.285
2.306
2.324
2.374
2.331
2.343
2.307
2.311
2.361
2.320
2.331
2.295
2.299
2.348
2.308
2.320
2.284
2.302
2.335
2.344
2.308
2.319
2.289
2.330
2.332
2.297
2.307
2.278
2.318
2.321
2.285
2.296
2.266
2.306
2.331
2.342
2.327
2.365
2.307
2.319
2.330
2.315
2.353
2.295
2.307
2.318
2.303
2.342
2.284
2.295
2.328
2.361
