2.977
3.314
3.495
3.572
3.701
3.728
3.813
3.881
3.789
3.828
3.867
3.895
3.915
3.966
3.971
3.979
4.017
4.019
4.042
4.069
4.061
4.079
4.111
4.127
4.129
4.128
4.136
4.158
4.162
4.187
4.189
4.190
4.191
4.200
4.203
4.221
4.231
4.228
4.237
4.255
4.269
4.279
4.274
4.284
4.297
4.265
4.260
4.286
4.284
4.268
4.282
4.296
4.309
4.295
4.314
4.323
4.341
4.316
4.315
4.317
4.334
4.343
4.353
4.356
4.362
4.371
4.374
4.366
4.387
4.396
4.385
4.381
4.370
4.398
4.400
4.396
4.404
4.416
4.409
4.434
4.415
4.426
4.431
4.409
4.387
4.389
4.385
4.412
4.405
4.419
4.411
4.418
4.393
4.398
4.370
4.385
4.388
4.393
4.400
4.395
4.419
4.403
4.397
4.429
4.410
4.413
4.433
4.431
4.429
4.451
4.438
4.425
4.440
4.425
4.421
4.449
4.458
4.434
4.449
4.450
4.446
4.439
4.469
4.476
4.461
4.462
4.480
4.480
4.475
4.472
4.482
4.488
4.487
4.480
4.470
4.469
4.466
4.451
4.463
4.449
4.461
4.450
4.446
4.472
4.468
4.454
4.465
4.455
4.471
4.462
4.475
4.460
4.456
4.459
4.488
4.483
4.489
4.478
4.469
4.476
4.493
4.490
4.481
4.481
4.485
4.479
4.486
4.513
4.525
4.512
4.499
4.502
4.498
4.492
4.517
4.536
4.519
4.520
4.519
4.513
4.498
4.508
4.516
4.491
4.483
4.493
4.486
4.487
4.489
4.508
4.521
4.509
4.508
4.502
4.503
4.499
4.509
4.511
4.514
4.536
4.534
4.519
4.543
4.532
4.538
4.525
4.525
4.518
4.523
4.544
4.566
4.552
4.559
4.541
4.542
4.540
4.535
4.543
4.525
4.531
4.545
4.554
4.560
4.549
4.538
4.534
4.529
4.535
4.549
4.536
4.529
4.537
4.557
4.576
4.583
4.577
4.577
4.589
4.584
4.576
4.570
4.574
4.560
4.544
4.557
4.556
4.574
4.593
4.601
4.596
4.597
4.578
4.576
4.577
4.583
4.587
4.577
4.565
4.569
4.559
4.562
4.580
4.583
4.584
4.571
4.558
4.546
4.537
4.526
4.529
4.528
4.528
4.521
4.510
4.522
4.539
4.555
4.572
4.564
4.569
4.569
4.567
4.562
4.557
4.561
4.563
4.556
4.552
4.545
4.534
4.537
4.518
4.521
4.530
4.546
4.561
4.567
4.564
4.569
4.557
4.561
4.551
4.557
4.565
4.563
4.545
4.555
4.549
4.541
4.546
4.532
4.530
4.526
4.526
4.530
4.542
4.556
4.571
4.577
4.563
4.567
4.571
4.564
4.566
4.560
4.566
4.560
4.548
4.553
4.553
4.555
4.555
4.556
4.541
4.540
4.543
4.537
4.544
4.541
4.537
4.549
4.563
4.576
4.589
4.590
4.579
4.575
4.571
4.572
4.573
4.576
4.580
4.585
4.587
4.581
4.573
4.569
4.558
4.552
4.553
4.554
4.542
4.554
4.548
4.549
4.535
4.537
4.546
4.555
4.554
4.566
4.579
4.591
4.603
4.615
4.614
4.612
4.608
4.594
4.596
4.601
4.592
4.596
4.602
4.588
4.596
4.590
4.589
4.582
4.587
4.597
4.589
4.583
4.586
4.589
4.591
4.590
4.580
4.572
4.580
4.584
4.566
4.569
4.574
4.576
4.578
4.590
4.601
4.612
4.623
4.635
4.646
4.640
4.629
4.638
4.649
4.638
4.627
4.614
4.615
4.623
4.625
4.626
4.626
4.613
4.610
4.610
4.606
4.603
4.589
4.584
4.583
4.573
4.564
4.568
4.580
4.572
4.573
4.577
4.572
4.567
4.560
4.555
4.549
4.559
4.570
4.580
4.590
4.600
4.611
4.615
4.614
4.608
4.620
4.622
4.611
4.616
4.609
4.610
4.610
4.604
4.610
4.595
4.591
4.605
4.596
4.601
4.600
4.595
4.596
4.602
4.596
4.597
4.592
4.593
4.592
4.590
4.581
4.581
4.582
4.588
4.589
4.586
4.593
4.580
4.572
4.563
4.560
4.557
4.560
4.564
4.570
4.574
4.578
4.589
4.587
4.586
4.590
4.599
4.608
4.618
4.627
4.636
4.645
4.654
4.664
4.673
4.677
4.675
4.664
4.671
4.680
4.673
4.666
4.659
4.653
4.646
4.639
4.633
4.626
4.619
4.613
4.613
4.617
4.615
4.615
4.607
4.601
4.598
4.590
4.594
4.606
4.611
4.601
4.599
4.595
4.587
4.576
4.570
4.572
4.573
4.574
4.571
4.575
4.573
4.563
4.567
4.563
4.557
4.563
4.555
4.544
4.551
4.546
4.545
4.553
4.561
4.569
4.577
4.586
4.593
4.602
4.610
4.618
4.626
4.626
4.618
4.620
4.624
4.624
4.634
4.630
4.624
4.628
4.628
4.638
4.637
4.636
4.647
4.633
4.627
4.624
4.628
4.630
4.623
4.618
4.623
4.620
4.621
4.618
4.621
4.617
4.609
4.614
4.620
4.621
4.626
4.635
4.634
4.627
4.628
4.631
4.615
4.610
4.616
4.612
4.606
4.600
4.592
4.591
4.585
4.585
4.584
4.585
4.581
4.584
4.585
4.573
4.583
4.591
4.586
4.579
4.591
4.593
4.589
4.581
4.574
4.566
4.559
4.556
4.556
4.560
4.568
4.564
4.565
4.559
4.562
4.569
4.576
4.583
4.590
4.598
4.605
4.612
4.619
4.626
4.633
4.640
4.647
4.655
4.662
4.665
4.661
4.658
4.648
4.645
4.638
4.639
4.633
4.630
4.628
4.627
4.628
4.623
4.616
4.613
4.607
4.612
4.601
4.600
4.610
4.609
4.607
4.608
4.605
4.610
4.602
4.606
4.616
4.626
4.621
4.629
4.624
4.635
4.633
4.633
4.627
4.619
4.620
4.616
4.617
4.630
4.630
4.629
4.631
4.635
4.642
4.640
4.633
4.624
4.619
4.614
4.612
4.608
4.601
4.599
4.594
4.597
4.590
4.582
4.592
4.592
4.591
4.590
4.587
4.579
4.577
4.578
4.572
4.575
4.565
4.563
4.561
4.562
4.557
4.570
4.573
4.572
4.563
4.563
4.573
4.583
4.589
4.586
4.578
4.579
4.576
4.577
4.575
4.568
4.568
4.570
4.579
4.587
4.585
4.587
4.585
4.589
4.595
4.601
4.607
4.614
4.620
4.626
4.632
4.638
4.644
4.650
4.656
4.662
4.669
4.675
4.681
4.683
4.682
4.680
4.676
4.682
4.683
4.675
4.677
4.674
4.674
4.672
4.671
4.677
4.681
4.681
4.675
4.666
4.664
4.671
4.667
4.662
4.659
4.657
4.656
4.651
4.648
4.649
4.651
4.651
4.651
4.647
4.649
4.655
4.650
4.650
4.646
4.647
4.644
4.639
4.635
4.635
4.629
4.631
4.632
4.627
4.625
4.624
4.628
4.633
4.640
4.636
4.637
4.630
4.633
4.637
4.636
4.641
4.638
4.637
4.637
4.647
4.649
4.642
4.648
4.653
4.645
4.638
4.637
4.631
4.635
4.634
4.635
4.640
4.633
4.636
4.633
4.639
4.634
4.628
4.625
4.627
4.631
4.627
4.620
4.614
4.610
4.610
4.615
4.620
4.610
4.608
4.602
4.597
4.605
4.601
4.597
4.592
4.587
4.582
4.578
4.573
4.569
4.570
4.570
4.576
4.580
4.584
4.585
4.580
4.579
4.581
4.582
4.592
4.595
4.589
4.581
4.577
4.572
4.565
4.561
4.560
4.559
4.558
4.556
4.555
4.544
4.548
4.554
4.558
4.563
4.568
4.573
4.579
4.584
4.589
4.594
4.599
4.604
4.609
4.614
4.619
4.624
4.629
4.635
4.640
4.645
4.650
4.655
4.660
4.665
4.659
4.654
4.653
4.651
4.646
4.643
4.649
4.649
4.635
4.633
4.633
4.637
4.637
4.642
4.650
4.650
4.635
4.635
4.641
4.640
4.637
4.632
4.634
4.631
4.639
4.646
4.653
4.654
4.654
4.653
4.651
4.650
4.654
4.652
4.649
4.646
4.642
4.651
4.652
4.647
4.649
4.644
4.653
4.656
4.648
4.641
4.642
4.650
4.653
4.644
4.646
4.638
4.644
4.647
4.642
4.650
4.648
4.660
4.644
4.646
4.645
4.646
4.642
4.640
4.638
4.645
4.637
4.638
4.632
4.628
4.621
4.625
4.620
4.620
4.624
4.622
4.622
4.622
4.618
4.618
4.617
4.620
4.623
4.625
4.628
4.621
4.613
