2.989
3.327
3.505
3.631
3.704
3.782
3.833
3.855
3.914
3.971
3.949
3.989
4.024
4.060
4.090
4.115
4.146
4.096
4.062
4.081
4.103
4.111
4.123
4.142
4.152
4.161
4.175
4.185
4.193
4.206
4.207
4.221
4.234
4.232
4.243
4.259
4.268
4.265
4.276
4.281
4.290
4.302
4.309
4.301
4.308
4.322
4.324
4.333
4.345
4.347
4.339
4.344
4.344
4.357
4.363
4.366
4.379
4.385
4.385
4.393
4.403
4.383
4.385
4.388
4.396
4.398
4.409
4.405
4.414
4.425
4.422
4.430
4.427
4.429
4.439
4.445
4.453
4.460
4.460
4.436
4.435
4.439
4.442
4.455
4.451
4.455
4.462
4.454
4.466
4.465
4.466
4.480
4.481
4.476
4.486
4.496
4.495
4.484
4.493
4.492
4.501
4.505
4.511
4.514
4.515
4.521
4.524
4.523
4.534
4.520
4.531
4.527
4.529
4.527
4.510
4.501
4.507
4.507
4.517
4.521
4.514
4.518
4.521
4.530
4.526
4.529
4.541
4.532
4.530
4.528
4.529
4.536
4.528
4.538
4.540
4.538
4.550
4.545
4.551
4.559
4.554
4.554
4.553
4.558
4.564
4.564
4.574
4.570
4.578
4.573
4.561
4.564
4.569
4.568
4.558
4.571
4.574
4.572
4.575
4.572
4.580
4.578
4.589
4.587
4.595
4.595
4.590
4.597
4.598
4.594
4.592
4.603
4.605
4.599
4.610
4.605
4.609
4.622
4.609
4.622
4.621
4.611
4.632
4.626
4.614
4.619
4.614
4.624
4.625
4.613
4.622
4.616
4.608
4.624
4.624
4.616
4.630
4.630
4.628
4.631
4.635
4.630
4.632
4.648
4.648
4.647
4.644
4.651
4.650
4.651
4.657
4.658
4.650
4.641
4.633
4.624
4.615
4.606
4.610
4.618
4.624
4.614
4.616
4.622
4.628
4.625
4.609
4.623
4.633
4.623
4.626
4.620
4.636
4.636
4.633
4.632
4.635
4.653
4.644
4.642
4.639
4.646
4.648
4.636
4.625
4.634
4.634
4.633
4.619
4.623
4.637
4.623
4.621
4.625
4.621
4.631
4.633
4.623
4.622
4.618
4.636
4.633
4.636
4.631
4.633
4.630
4.647
4.653
4.644
4.640
4.640
4.637
4.654
4.653
4.640
4.646
4.637
4.639
4.656
4.655
4.651
4.650
4.643
4.649
4.654
4.661
4.660
4.656
4.662
4.657
4.658
4.664
4.676
4.672
4.675
4.674
4.669
4.665
4.667
4.668
4.668
4.662
4.659
4.657
4.656
4.668
4.666
4.666
4.658
4.661
4.660
4.656
4.663
4.677
4.679
4.675
4.671
4.672
4.675
4.671
4.668
4.683
4.686
4.679
4.674
4.677
4.672
4.672
4.677
4.681
4.695
4.695
4.690
4.690
4.697
4.692
4.689
4.691
4.689
4.701
4.709
4.701
4.698
4.700
4.699
4.703
4.702
4.697
4.701
4.711
4.708
4.710
4.714
4.707
4.698
4.696
4.699
4.694
4.692
4.687
4.681
4.679
4.678
4.675
4.680
4.676
4.682
4.694
4.692
4.690
4.680
4.671
4.668
4.665
4.674
4.673
4.675
4.687
4.689
4.687
4.688
4.689
4.686
4.677
4.680
4.681
4.676
4.674
4.685
4.697
4.709
4.707
4.703
4.696
4.690
4.689
4.689
4.691
4.686
4.679
4.687
4.698
4.706
4.708
4.704
4.697
4.691
4.684
4.683
4.682
4.680
4.676
4.680
4.691
4.703
4.708
4.714
4.704
4.698
4.704
4.702
4.701
4.696
4.696
4.694
4.693
4.690
4.699
4.709
4.719
4.730
4.722
4.717
4.714
4.710
4.705
4.705
4.711
4.708
4.711
4.705
4.702
4.705
4.715
4.723
4.718
4.720
4.721
4.720
4.714
4.719
4.716
4.717
4.712
4.706
4.715
4.711
4.719
4.715
4.721
4.732
4.742
4.745
4.745
4.739
4.738
4.733
4.734
4.734
4.737
4.733
4.731
4.724
4.725
4.723
4.716
4.726
4.736
4.746
4.752
4.743
4.735
4.737
4.734
4.733
4.732
4.731
4.724
4.717
4.711
4.711
4.710
4.709
4.719
4.728
4.738
4.738
4.736
4.732
4.731
4.731
4.733
4.723
4.714
4.713
4.714
4.709
4.705
4.707
4.709
4.707
4.709
4.718
4.727
4.736
4.739
4.734
4.734
4.738
4.741
4.739
4.737
4.733
4.742
4.741
4.736
4.729
4.723
4.716
4.716
4.712
4.716
4.718
4.722
4.730
4.739
4.747
4.747
4.745
4.749
4.753
4.749
4.749
4.749
4.746
4.744
4.743
4.741
4.744
4.743
4.746
4.738
4.733
4.734
4.731
4.728
4.732
4.736
4.744
4.752
4.761
4.761
4.767
4.767
4.761
4.763
4.771
4.770
4.770
4.771
4.768
4.762
4.755
4.755
4.755
4.752
4.752
4.756
4.748
4.751
4.760
4.754
4.748
4.749
4.757
4.765
4.773
4.778
4.780
4.776
4.771
4.773
4.766
4.769
4.763
4.758
4.765
4.761
4.755
4.748
4.747
4.749
4.751
4.745
4.744
4.735
4.732
4.736
4.738
4.744
4.751
4.759
4.767
4.775
4.776
4.776
4.777
4.772
4.770
4.764
4.763
4.765
4.766
4.766
4.763
4.764
4.761
4.760
4.758
4.756
4.762
4.765
4.766
4.768
4.761
4.761
4.760
4.754
4.755
4.763
4.759
4.765
4.772
4.780
4.787
4.794
4.795
4.798
4.798
4.794
4.794
4.788
4.797
4.789
4.787
4.791
4.788
4.789
4.792
4.792
4.793
4.797
4.794
4.791
4.795
4.789
4.788
4.781
4.776
4.773
4.775
4.778
4.780
4.778
4.771
4.778
4.784
4.792
4.799
4.806
4.810
4.802
4.803
4.802
4.798
4.799
4.798
4.797
4.793
4.789
4.785
4.781
4.777
4.773
4.770
4.768
4.764
4.759
4.753
4.753
4.747
4.742
4.747
4.746
4.743
4.744
4.746
4.753
4.759
4.766
4.773
4.779
4.782
4.781
4.783
4.789
4.792
4.787
4.782
4.777
4.772
4.768
4.763
4.758
4.755
4.758
4.751
4.757
4.751
4.756
4.751
4.752
4.749
4.748
4.749
4.754
4.758
4.757
4.754
4.753
4.757
4.758
4.755
4.751
4.747
4.743
4.750
4.756
4.762
4.769
4.775
4.774
4.771
4.772
4.767
4.764
4.763
4.766
4.766
4.763
4.761
4.765
4.769
4.776
4.776
4.775
4.771
4.772
4.769
4.765
4.766
4.763
4.765
4.763
4.765
4.765
4.766
4.758
4.756
4.755
4.760
4.760
4.762
4.764
4.757
4.750
4.749
4.749
4.757
4.765
4.764
4.757
4.761
4.767
4.773
4.779
4.785
4.782
4.783
4.780
4.777
4.776
4.769
4.769
4.767
4.769
4.775
4.775
4.767
4.759
4.756
4.756
4.754
4.752
4.755
4.753
4.749
4.754
4.760
4.761
4.758
4.761
4.759
4.759
4.759
4.757
4.749
4.750
4.749
4.747
4.748
4.748
4.745
4.748
4.743
4.746
4.746
4.742
4.751
4.747
4.751
4.757
4.763
4.769
4.774
4.780
4.785
4.791
4.797
4.799
4.795
4.792
4.787
4.789
4.796
4.793
4.786
4.779
4.781
4.779
4.781
4.784
4.782
4.784
4.781
4.778
4.778
4.777
4.772
4.768
4.764
4.759
4.753
4.750
4.748
4.749
4.747
4.744
4.744
4.748
4.751
4.750
4.749
4.756
4.761
4.765
4.766
4.762
4.759
4.764
4.756
4.757
4.754
4.754
4.748
4.751
4.750
4.756
4.761
4.766
4.771
4.777
4.782
4.787
4.789
4.792
4.788
4.791
4.788
4.787
4.787
4.788
4.789
4.793
4.793
4.791
4.789
4.786
4.788
4.791
4.789
4.786
4.785
4.782
4.786
4.786
4.792
4.791
4.790
4.788
4.786
4.787
4.782
4.783
4.782
4.781
4.777
4.773
4.771
4.765
4.765
4.765
4.765
4.763
4.764
4.762
4.762
4.764
4.760
4.754
4.753
4.748
4.746
4.745
4.747
4.746
4.742
4.742
4.747
4.753
4.755
4.762
4.760
4.764
4.769
4.774
4.779
4.784
4.788
4.793
4.798
4.803
4.807
4.808
4.808
4.805
4.807
4.804
4.807
4.807
4.804
4.805
4.802
4.799
4.804
4.800
4.801
4.795
4.793
4.793
4.793
4.795
4.798
4.800
4.800
4.801
4.800
4.794
4.788
4.782
