2.989
3.334
3.504
3.628
3.705
3.777
3.807
3.883
3.882
3.919
3.964
4.012
4.040
4.086
4.040
4.010
4.028
4.049
4.062
4.076
4.104
4.110
4.115
4.137
4.144
4.160
4.180
4.175
4.188
4.207
4.203
4.213
4.224
4.244
4.254
4.245
4.257
4.263
4.275
4.286
4.292
4.279
4.292
4.299
4.306
4.318
4.325
4.334
4.340
4.331
4.327
4.338
4.342
4.347
4.347
4.363
4.366
4.380
4.377
4.383
4.393
4.394
4.405
4.401
4.377
4.384
4.388
4.389
4.405
4.409
4.407
4.406
4.412
4.422
4.424
4.432
4.434
4.437
4.443
4.437
4.447
4.454
4.454
4.460
4.473
4.467
4.475
4.467
4.473
4.475
4.481
4.473
4.454
4.457
4.460
4.462
4.463
4.462
4.464
4.469
4.481
4.479
4.470
4.475
4.477
4.478
4.481
4.482
4.496
4.492
4.496
4.509
4.499
4.496
4.501
4.512
4.513
4.518
4.526
4.520
4.509
4.521
4.510
4.511
4.521
4.514
4.523
4.518
4.531
4.531
4.541
4.534
4.552
4.535
4.547
4.539
4.547
4.543
4.555
4.547
4.566
4.562
4.573
4.566
4.570
4.567
4.572
4.560
4.563
4.575
4.570
4.570
4.556
4.568
4.568
4.564
4.584
4.584
4.578
4.588
4.582
4.580
4.598
4.596
4.589
4.604
4.602
4.598
4.611
4.605
4.598
4.593
4.582
4.571
4.560
4.569
4.573
4.565
4.565
4.567
4.569
4.563
4.582
4.574
4.579
4.572
4.592
4.593
4.587
4.583
4.600
4.599
4.590
4.594
4.585
4.577
4.576
4.578
4.581
4.578
4.571
4.578
4.574
4.570
4.567
4.582
4.584
4.573
4.574
4.582
4.597
4.599
4.586
4.584
4.592
4.605
4.598
4.595
4.584
4.598
4.608
4.600
4.596
4.592
4.599
4.607
4.606
4.606
4.603
4.607
4.616
4.623
4.617
4.621
4.615
4.617
4.622
4.614
4.607
4.608
4.603
4.614
4.621
4.613
4.610
4.603
4.612
4.615
4.627
4.623
4.626
4.624
4.621
4.622
4.628
4.636
4.628
4.618
4.631
4.627
4.618
4.635
4.641
4.648
4.647
4.644
4.640
4.647
4.641
4.653
4.656
4.651
4.655
4.657
4.649
4.644
4.647
4.664
4.666
4.664
4.653
4.655
4.658
4.650
4.650
4.640
4.633
4.627
4.632
4.627
4.632
4.632
4.648
4.643
4.632
4.629
4.624
4.621
4.620
4.622
4.637
4.643
4.639
4.641
4.633
4.631
4.637
4.639
4.637
4.634
4.649
4.651
4.648
4.646
4.646
4.636
4.632
4.636
4.639
4.638
4.652
4.647
4.644
4.638
4.636
4.638
4.638
4.634
4.633
4.637
4.646
4.657
4.660
4.659
4.656
4.654
4.652
4.654
4.656
4.660
4.654
4.650
4.658
4.670
4.670
4.668
4.675
4.668
4.670
4.660
4.648
4.645
4.647
4.649
4.660
4.672
4.685
4.678
4.674
4.677
4.669
4.677
4.678
4.675
4.682
4.670
4.668
4.674
4.675
4.688
4.697
4.704
4.695
4.692
4.688
4.682
4.679
4.679
4.685
4.678
4.679
4.683
4.679
4.690
4.698
4.692
4.683
4.677
4.672
4.672
4.671
4.668
4.668
4.668
4.665
4.665
4.669
4.680
4.685
4.682
4.671
4.667
4.674
4.664
4.669
4.673
4.672
4.667
4.668
4.672
4.667
4.670
4.669
4.680
4.691
4.693
4.689
4.686
4.692
4.689
4.684
4.681
4.674
4.671
4.675
4.677
4.687
4.687
4.681
4.676
4.678
4.687
4.698
4.709
4.708
4.698
4.702
4.705
4.705
4.703
4.705
4.699
4.695
4.696
4.695
4.692
4.696
4.699
4.701
4.699
4.702
4.699
4.709
4.720
4.729
4.727
4.734
4.731
4.723
4.721
4.711
4.713
4.710
4.719
4.722
4.714
4.707
4.707
4.706
4.700
4.694
4.692
4.702
4.712
4.722
4.720
4.722
4.718
4.722
4.716
4.712
4.709
4.705
4.707
4.708
4.711
4.699
4.698
4.701
4.708
4.704
4.708
4.698
4.699
4.696
4.706
4.715
4.725
4.734
4.737
4.736
4.733
4.736
4.735
4.729
4.735
4.729
4.729
4.727
4.731
4.737
4.738
4.739
4.734
4.729
4.722
4.719
4.718
4.722
4.718
4.726
4.728
4.735
4.740
4.743
4.751
4.761
4.755
4.757
4.756
4.750
4.745
4.741
4.740
4.744
4.745
4.746
4.747
4.745
4.745
4.745
4.743
4.740
4.732
4.735
4.739
4.742
4.742
4.738
4.734
4.728
4.732
4.727
4.724
4.730
4.730
4.735
4.732
4.727
4.727
4.723
4.721
4.725
4.724
4.720
4.720
4.723
4.722
4.721
4.717
4.717
4.720
4.723
4.717
4.711
4.705
4.699
4.697
4.705
4.714
4.721
4.730
4.738
4.740
4.736
4.725
4.720
4.719
4.717
4.715
4.712
4.714
4.726
4.727
4.718
4.707
4.709
4.711
4.708
4.705
4.700
4.700
4.705
4.702
4.695
4.693
4.697
4.701
4.701
4.695
4.693
4.700
4.708
4.712
4.719
4.727
4.734
4.742
4.744
4.742
4.742
4.738
4.737
4.741
4.738
4.734
4.735
4.738
4.731
4.724
4.718
4.712
4.712
4.706
4.704
4.709
4.710
4.712
4.708
4.705
4.695
4.696
4.695
4.698
4.695
4.694
4.692
4.689
4.687
4.693
4.701
4.708
4.715
4.722
4.729
4.736
4.738
4.734
4.736
4.735
4.732
4.730
4.738
4.741
4.739
4.738
4.746
4.740
4.742
4.743
4.741
4.740
4.738
4.736
4.729
4.727
4.728
4.719
4.720
4.714
4.708
4.706
4.709
4.705
4.712
4.710
4.711
4.715
4.714
4.712
4.705
4.699
4.698
4.697
4.703
4.710
4.717
4.723
4.730
4.737
4.744
4.746
4.740
4.742
4.741
4.738
4.736
4.732
4.733
4.740
4.734
4.730
4.728
4.723
4.725
4.726
4.726
4.733
4.731
4.730
4.735
4.735
4.731
4.731
4.728
4.724
4.725
4.733
4.727
4.723
4.723
4.723
4.720
4.724
4.729
4.728
4.725
4.715
4.718
4.712
4.711
4.707
4.708
4.702
4.705
4.711
4.717
4.723
4.730
4.736
4.742
4.749
4.755
4.753
4.756
4.758
4.758
4.760
4.762
4.758
4.759
4.756
4.751
4.748
4.745
4.749
4.748
4.738
4.734
4.734
4.733
4.740
4.734
4.743
4.743
4.745
4.745
4.736
4.730
4.731
4.725
4.729
4.728
4.736
4.738
4.739
4.743
4.741
4.733
4.732
4.727
4.720
4.716
4.717
4.719
4.720
4.725
4.720
4.718
4.715
4.716
4.715
4.717
4.716
4.719
4.725
4.731
4.737
4.743
4.749
4.754
4.760
4.766
4.770
4.771
4.767
4.765
4.767
4.774
4.772
4.768
4.763
4.768
4.765
4.765
4.774
4.776
4.772
4.768
4.770
4.762
4.756
4.753
4.754
4.757
4.756
4.754
4.753
4.754
4.753
4.749
4.746
4.743
4.740
4.742
4.742
4.743
4.749
4.755
4.760
4.757
4.757
4.752
4.753
4.750
4.754
4.751
4.748
4.744
4.736
4.738
4.739
4.741
4.746
4.754
4.753
4.750
4.744
4.743
4.741
4.742
4.742
4.742
4.742
4.739
4.747
4.745
4.750
4.756
4.761
4.767
4.772
4.777
4.783
4.788
4.793
4.799
4.804
4.803
4.797
4.797
4.797
4.795
4.801
4.800
4.798
4.803
4.798
4.801
4.798
4.796
4.797
4.797
4.792
4.787
4.782
4.776
4.771
4.771
4.770
4.766
4.768
4.771
4.779
4.786
4.787
4.781
4.778
4.772
4.770
4.772
4.775
4.784
4.777
4.773
4.765
4.763
4.762
4.763
4.763
4.764
4.762
4.759
4.755
4.756
4.757
4.755
4.751
4.746
4.742
4.737
4.733
4.734
4.741
4.735
4.732
4.733
4.731
4.725
4.719
4.715
4.720
4.725
4.730
4.735
4.740
4.745
4.750
4.755
4.760
4.765
4.770
4.775
4.780
4.784
4.786
4.787
4.787
4.785
4.782
4.780
4.774
4.776
4.782
4.778
4.775
4.776
4.776
4.780
4.773
4.775
4.775
4.771
4.765
4.761
4.763
4.766
4.767
4.763
4.763
4.764
4.765
4.761
4.758
4.756
4.758
4.752
4.749
4.752
4.753
