2.989
3.287
3.457
3.532
3.671
3.760
3.692
3.730
3.780
3.826
3.861
3.888
3.904
3.940
3.943
3.978
4.017
4.005
4.022
4.028
4.073
4.094
4.064
4.073
4.092
4.120
4.126
4.136
4.170
4.170
4.192
4.137
4.156
4.150
4.161
4.198
4.184
4.209
4.217
4.206
4.206
4.235
4.245
4.234
4.252
4.262
4.279
4.269
4.263
4.272
4.264
4.291
4.306
4.329
4.316
4.317
4.324
4.299
4.289
4.301
4.296
4.315
4.297
4.265
4.274
4.287
4.290
4.303
4.293
4.310
4.311
4.315
4.331
4.320
4.327
4.312
4.325
4.321
4.340
4.336
4.320
4.369
4.355
4.343
4.381
4.367
4.366
4.380
4.388
4.365
4.377
4.351
4.340
4.355
4.361
4.339
4.367
4.365
4.356
4.341
4.377
4.367
4.354
4.361
4.383
4.386
4.374
4.371
4.371
4.399
4.402
4.399
4.397
4.385
4.424
4.413
4.416
4.422
4.393
4.420
4.409
4.390
4.377
4.370
4.401
4.422
4.404
4.407
4.386
4.373
4.399
4.432
4.429
4.416
4.412
4.428
4.407
4.409
4.441
4.472
4.459
4.445
4.427
4.416
4.439
4.428
4.452
4.454
4.435
4.439
4.440
4.443
4.412
4.422
4.450
4.479
4.493
4.490
4.482
4.471
4.472
4.466
4.460
4.443
4.470
4.496
4.497
4.494
4.486
4.480
4.481
4.488
4.471
4.479
4.464
4.484
4.479
4.460
4.442
4.432
4.427
4.419
4.415
4.413
4.415
4.439
4.463
4.487
4.487
4.476
4.460
4.454
4.452
4.443
4.428
4.411
4.411
4.407
4.430
4.452
4.474
4.483
4.468
4.475
4.464
4.457
4.460
4.446
4.441
4.451
4.433
4.433
4.419
4.420
4.440
4.461
4.481
4.495
4.497
4.472
4.457
4.453
4.460
4.470
4.460
4.453
4.445
4.436
4.428
4.430
4.429
4.426
4.438
4.457
4.476
4.495
4.506
4.491
4.487
4.486
4.482
4.479
4.477
4.483
4.478
4.471
4.465
4.472
4.476
4.469
4.471
4.467
4.460
4.461
4.449
4.466
4.484
4.501
4.519
4.536
4.530
4.513
4.517
4.540
4.535
4.521
4.516
4.516
4.526
4.528
4.514
4.509
4.511
4.496
4.499
4.507
4.493
4.501
4.490
4.490
4.492
4.481
4.485
4.501
4.517
4.511
4.503
4.504
4.518
4.519
4.500
4.482
4.480
4.484
4.488
4.500
4.498
4.490
4.482
4.471
4.473
4.477
4.483
4.472
4.470
4.466
4.465
4.463
4.447
4.441
4.442
4.447
4.461
4.475
4.489
4.504
4.518
4.532
4.546
4.550
4.547
4.560
4.556
4.541
4.538
4.544
4.544
4.533
4.535
4.529
4.526
4.524
4.517
4.520
4.523
4.524
4.523
4.524
4.530
4.534
4.551
4.541
4.538
4.543
4.546
4.527
4.528
4.511
4.511
4.502
4.492
4.482
4.472
4.481
4.494
4.506
4.519
4.532
4.529
4.536
4.525
4.519
4.526
4.527
4.529
4.528
4.538
4.535
4.520
4.506
4.492
4.502
4.495
4.486
4.483
4.487
4.479
4.474
4.487
4.499
4.498
4.498
4.492
4.499
4.485
4.490
4.490
4.484
4.489
4.478
4.475
4.484
4.481
4.489
4.498
4.514
4.492
4.491
4.485
4.490
4.483
4.470
4.474
4.477
4.482
4.493
4.504
4.515
4.527
4.538
4.549
4.555
4.549
4.535
4.532
4.530
4.527
4.521
4.517
4.524
4.517
4.521
4.517
4.530
4.526
4.520
4.514
4.513
4.526
4.529
4.531
4.522
4.525
4.523
4.514
4.521
4.515
4.506
4.501
4.491
4.495
4.500
4.489
4.494
4.499
4.493
4.479
4.479
4.483
4.476
4.470
4.474
4.478
4.490
4.481
4.478
4.489
4.490
4.501
4.494
4.483
4.475
4.467
4.466
4.460
4.465
4.471
4.471
4.460
4.458
4.465
4.474
4.484
4.493
4.502
4.512
4.521
4.531
4.540
4.550
4.559
4.569
4.578
4.576
4.570
4.567
4.568
4.559
4.569
4.569
4.567
4.562
4.554
4.564
4.560
4.559
4.569
4.556
4.555
4.565
4.556
4.553
4.559
4.549
4.544
4.546
4.538
4.535
4.529
4.539
4.554
4.549
4.545
4.533
4.534
4.531
4.530
4.517
4.504
4.508
4.516
4.530
4.528
4.530
4.529
4.530
4.529
4.518
4.516
4.525
4.538
4.544
4.547
4.544
4.536
4.535
4.534
4.529
4.518
4.517
4.525
4.528
4.527
4.526
4.512
4.515
4.511
4.507
4.504
4.508
4.507
4.521
4.510
4.503
4.502
4.504
4.508
4.511
4.504
4.507
4.506
4.501
4.505
4.503
4.501
4.505
4.496
4.485
4.491
4.499
4.507
4.515
4.523
4.530
4.538
4.546
4.554
4.562
4.570
4.578
4.568
4.560
4.557
4.563
4.563
4.560
4.554
4.550
4.555
4.548
4.531
4.530
4.537
4.536
4.527
4.526
4.536
4.540
4.551
4.558
4.551
4.547
4.548
4.538
4.534
4.538
4.541
4.531
4.535
4.539
4.543
4.539
4.541
4.554
4.554
4.547
4.547
4.555
4.543
4.533
4.531
4.527
4.537
4.527
4.530
4.521
4.518
4.522
4.511
4.516
4.507
4.519
4.511
4.504
4.491
4.494
4.503
4.509
4.503
4.502
4.499
4.494
4.487
4.494
4.492
4.494
4.503
4.488
4.491
4.481
4.477
4.477
4.481
4.495
4.494
4.490
4.492
4.476
4.479
4.476
4.476
4.486
4.490
4.486
4.482
4.492
4.481
4.485
4.489
4.479
4.478
4.470
4.474
4.471
4.483
4.484
4.490
4.501
4.502
4.503
4.512
4.522
4.531
4.541
4.534
4.537
4.524
4.518
4.522
4.513
4.504
4.501
4.500
4.502
4.511
4.503
4.498
4.495
4.490
4.494
4.504
4.505
4.499
4.497
4.490
4.499
4.491
4.482
4.474
4.480
4.486
4.492
4.499
4.505
4.511
4.517
4.524
4.530
4.536
4.542
4.549
4.555
4.561
4.568
4.574
4.580
4.587
4.590
4.591
4.588
4.594
4.595
4.581
4.578
4.577
4.576
4.585
4.596
4.605
4.601
4.605
4.606
4.592
4.584
4.584
4.576
4.576
4.573
4.569
4.574
4.578
4.576
4.578
4.568
4.581
4.574
4.564
4.568
4.566
4.567
4.561
4.562
4.551
4.552
4.563
4.570
4.557
4.559
4.559
4.569
4.579
4.588
4.587
4.582
4.581
4.579
4.580
4.581
4.589
4.584
4.585
4.584
4.581
4.576
4.565
4.557
4.552
4.552
4.542
4.536
4.536
4.533
4.545
4.550
4.549
4.544
4.534
4.539
4.545
4.553
4.561
4.569
4.566
4.558
4.553
4.551
4.550
4.539
4.539
4.537
4.543
4.535
4.539
4.536
4.538
4.549
4.546
4.540
4.535
4.529
4.523
4.518
4.523
4.530
4.531
4.525
4.518
4.512
4.504
4.503
4.506
4.510
4.501
4.496
4.490
4.490
4.495
4.492
4.490
4.484
4.492
4.499
4.504
4.505
4.502
4.502
4.502
4.506
4.505
4.506
4.508
4.511
4.515
4.517
4.521
4.531
4.527
4.518
4.515
4.508
4.501
4.502
4.505
4.496
4.486
4.493
4.491
4.485
4.480
4.477
4.475
4.465
4.476
4.473
4.468
4.461
4.460
4.459
4.469
4.456
4.464
4.459
4.465
4.464
4.459
4.462
4.463
4.466
4.470
4.468
4.462
4.462
4.463
4.467
4.472
4.477
4.482
4.473
4.475
4.470
4.468
4.468
4.466
4.466
4.458
4.462
4.463
4.462
4.464
4.469
4.478
4.488
4.480
4.479
4.475
4.470
4.472
4.466
4.455
4.455
4.451
4.446
4.450
4.445
4.444
4.438
4.439
4.435
4.435
4.442
4.452
4.450
4.445
4.455
4.453
4.445
4.436
4.435
4.440
4.445
4.449
4.454
4.459
4.463
4.468
4.473
4.478
4.482
4.487
4.492
4.497
4.501
4.506
4.511
4.515
4.520
4.525
4.530
4.534
4.539
4.544
4.549
4.553
4.558
4.563
4.567
4.572
4.577
4.582
4.586
4.591
4.596
4.600
4.605
4.610
4.615
4.619
4.624
4.629
4.633
4.638
4.643
4.648
4.652
4.647
4.647
4.640
4.643
4.638
4.627
4.621
4.620
4.619
4.625
4.620
4.619
4.609
4.614
4.610
4.612
