2.992
3.334
3.513
3.629
3.718
3.777
3.841
3.887
3.915
3.968
3.968
4.012
4.050
4.084
4.052
4.079
4.102
4.127
4.151
4.171
4.192
4.212
4.225
4.242
4.214
4.175
4.181
4.188
4.205
4.212
4.217
4.231
4.234
4.245
4.261
4.262
4.271
4.275
4.282
4.292
4.304
4.300
4.312
4.319
4.326
4.322
4.334
4.339
4.348
4.347
4.349
4.358
4.360
4.374
4.378
4.380
4.375
4.382
4.387
4.394
4.400
4.405
4.416
4.415
4.406
4.413
4.414
4.420
4.428
4.432
4.438
4.440
4.447
4.448
4.452
4.440
4.447
4.454
4.452
4.457
4.463
4.467
4.466
4.473
4.475
4.481
4.483
4.489
4.494
4.492
4.501
4.489
4.486
4.489
4.488
4.492
4.494
4.497
4.502
4.503
4.513
4.511
4.510
4.512
4.520
4.520
4.531
4.527
4.534
4.533
4.534
4.539
4.538
4.541
4.551
4.552
4.553
4.558
4.543
4.536
4.537
4.538
4.537
4.536
4.543
4.547
4.551
4.553
4.554
4.553
4.556
4.563
4.556
4.560
4.564
4.561
4.568
4.569
4.570
4.572
4.576
4.582
4.578
4.585
4.584
4.594
4.595
4.588
4.589
4.588
4.595
4.593
4.594
4.599
4.598
4.602
4.611
4.613
4.608
4.615
4.614
4.618
4.617
4.624
4.625
4.626
4.617
4.623
4.623
4.627
4.619
4.608
4.598
4.599
4.592
4.602
4.600
4.605
4.611
4.604
4.611
4.608
4.614
4.615
4.612
4.620
4.617
4.621
4.619
4.624
4.622
4.634
4.628
4.621
4.620
4.627
4.623
4.623
4.627
4.623
4.625
4.627
4.627
4.634
4.630
4.640
4.633
4.643
4.638
4.643
4.645
4.643
4.647
4.648
4.655
4.646
4.649
4.651
4.642
4.654
4.652
4.654
4.660
4.662
4.664
4.670
4.663
4.673
4.661
4.660
4.657
4.653
4.661
4.660
4.660
4.664
4.657
4.664
4.664
4.665
4.668
4.673
4.666
4.670
4.672
4.667
4.671
4.676
4.675
4.673
4.686
4.684
4.683
4.689
4.693
4.686
4.686
4.694
4.691
4.690
4.690
4.689
4.682
4.694
4.699
4.697
4.694
4.703
4.701
4.701
4.696
4.709
4.710
4.712
4.702
4.712
4.710
4.709
4.710
4.716
4.710
4.701
4.707
4.706
4.702
4.700
4.712
4.716
4.715
4.714
4.710
4.712
4.707
4.705
4.710
4.709
4.710
4.703
4.707
4.720
4.721
4.714
4.715
4.716
4.723
4.725
4.723
4.727
4.726
4.733
4.731
4.731
4.727
4.730
4.740
4.739
4.738
4.731
4.732
4.742
4.737
4.730
4.724
4.720
4.713
4.708
4.702
4.712
4.707
4.705
4.705
4.701
4.702
4.700
4.699
4.698
4.697
4.708
4.715
4.709
4.710
4.711
4.705
4.712
4.721
4.719
4.720
4.712
4.708
4.716
4.713
4.717
4.716
4.714
4.716
4.717
4.729
4.723
4.721
4.719
4.721
4.720
4.726
4.733
4.738
4.733
4.731
4.736
4.735
4.734
4.734
4.727
4.720
4.712
4.715
4.723
4.721
4.719
4.716
4.720
4.721
4.717
4.726
4.725
4.718
4.719
4.712
4.705
4.713
4.722
4.718
4.719
4.720
4.720
4.720
4.711
4.721
4.722
4.721
4.720
4.716
4.716
4.713
4.716
4.724
4.731
4.729
4.730
4.727
4.725
4.727
4.727
4.726
4.736
4.746
4.739
4.732
4.734
4.731
4.730
4.734
4.734
4.740
4.741
4.742
4.738
4.732
4.728
4.732
4.727
4.737
4.747
4.748
4.752
4.745
4.744
4.738
4.734
4.742
4.738
4.746
4.750
4.754
4.749
4.748
4.752
4.749
4.750
4.746
4.745
4.754
4.763
4.768
4.764
4.759
4.755
4.760
4.755
4.749
4.745
4.753
4.752
4.754
4.757
4.754
4.750
4.753
4.749
4.745
4.749
4.753
4.761
4.757
4.752
4.749
4.752
4.754
4.745
4.743
4.742
4.745
4.755
4.764
4.768
4.767
4.766
4.764
4.764
4.759
4.760
4.759
4.757
4.757
4.761
4.770
4.775
4.771
4.772
4.776
4.774
4.767
4.758
4.757
4.755
4.759
4.764
4.771
4.780
4.778
4.775
4.776
4.775
4.776
4.779
4.775
4.772
4.773
4.772
4.770
4.779
4.786
4.793
4.795
4.794
4.794
4.799
4.789
4.785
4.783
4.785
4.787
4.780
4.778
4.786
4.794
4.791
4.792
4.793
4.794
4.786
4.787
4.785
4.783
4.785
4.784
4.782
4.779
4.779
4.779
4.772
4.765
4.769
4.765
4.768
4.764
4.769
4.765
4.766
4.765
4.768
4.775
4.779
4.776
4.780
4.779
4.777
4.778
4.777
4.771
4.768
4.764
4.758
4.753
4.758
4.765
4.772
4.767
4.772
4.765
4.768
4.770
4.772
4.773
4.771
4.768
4.768
4.765
4.760
4.759
4.760
4.765
4.774
4.781
4.779
4.778
4.779
4.778
4.780
4.776
4.777
4.775
4.775
4.779
4.782
4.778
4.780
4.776
4.775
4.775
4.780
4.789
4.788
4.786
4.790
4.790
4.785
4.783
4.777
4.776
4.775
4.771
4.775
4.773
4.779
4.776
4.775
4.776
4.780
4.787
4.793
4.789
4.786
4.781
4.775
4.775
4.779
4.783
4.780
4.773
4.774
4.770
4.771
4.771
4.768
4.771
4.774
4.781
4.788
4.794
4.801
4.800
4.797
4.794
4.793
4.792
4.793
4.794
4.788
4.783
4.786
4.794
4.791
4.787
4.790
4.789
4.791
4.794
4.786
4.794
4.801
4.806
4.808
4.801
4.805
4.805
4.802
4.801
4.799
4.797
4.801
4.801
4.799
4.798
4.791
4.787
4.785
4.792
4.786
4.784
4.788
4.795
4.801
4.808
4.807
4.808
4.807
4.806
4.807
4.808
4.804
4.801
4.804
4.808
4.812
4.808
4.808
4.803
4.801
4.798
4.805
4.805
4.804
4.800
4.797
4.801
4.808
4.814
4.820
4.827
4.834
4.831
4.832
4.830
4.829
4.825
4.823
4.817
4.816
4.812
4.815
4.819
4.815
4.820
4.821
4.819
4.813
4.808
4.808
4.806
4.810
4.809
4.816
4.822
4.823
4.820
4.816
4.820
4.821
4.817
4.813
4.809
4.804
4.800
4.794
4.797
4.796
4.795
4.793
4.790
4.793
4.794
4.796
4.801
4.797
4.798
4.801
4.806
4.812
4.817
4.824
4.825
4.824
4.825
4.824
4.820
4.816
4.819
4.812
4.806
4.802
4.801
4.797
4.801
4.804
4.808
4.808
4.803
4.797
4.792
4.793
4.789
4.788
4.792
4.797
4.803
4.808
4.814
4.820
4.819
4.820
4.825
4.826
4.827
4.823
4.823
4.821
4.820
4.820
4.822
4.821
4.822
4.821
4.817
4.818
4.819
4.818
4.814
4.815
4.812
4.813
4.812
4.807
4.805
4.804
4.801
4.805
4.811
4.816
4.822
4.827
4.827
4.831
4.828
4.824
4.828
4.829
4.828
4.824
4.828
4.829
4.828
4.831
4.828
4.829
4.827
4.824
4.830
4.829
4.828
4.827
4.830
4.827
4.830
4.831
4.825
4.820
4.819
4.815
4.819
4.820
4.817
4.821
4.827
4.832
4.836
4.842
4.847
4.846
4.847
4.845
4.844
4.843
4.842
4.842
4.839
4.834
4.838
4.840
4.845
4.845
4.839
4.842
4.842
4.848
4.849
4.849
4.849
4.848
4.847
4.845
4.839
4.840
4.836
4.835
4.834
4.831
4.831
4.832
4.833
4.832
4.838
4.842
4.847
4.853
4.852
4.856
4.852
4.857
4.860
4.862
4.861
4.856
4.850
4.849
4.849
4.849
4.845
4.845
4.852
4.856
4.852
4.849
4.847
4.845
4.841
4.837
4.833
4.829
4.825
4.824
4.825
4.823
4.823
4.826
4.825
4.824
4.823
4.827
4.831
4.835
4.839
4.845
4.850
4.854
4.853
4.851
4.852
4.856
4.853
4.851
4.849
4.848
4.845
4.846
4.844
4.848
4.850
4.849
4.850
4.849
4.845
4.849
4.850
4.845
4.839
4.840
4.838
4.835
4.836
4.835
4.839
4.837
4.836
4.837
4.839
4.837
4.839
4.837
4.838
4.837
4.839
4.843
4.842
4.842
4.847
4.851
4.857
4.860
4.864
4.870
4.871
4.868
4.866
4.865
4.872
4.876
4.875
4.870
4.869
4.867
