2.923
3.157
3.201
3.375
3.520
3.488
3.600
3.608
3.649
3.660
3.772
3.767
3.693
3.779
3.714
3.844
3.812
3.776
3.799
3.776
3.836
3.870
3.808
3.902
3.882
3.915
3.865
3.868
3.967
3.864
3.930
3.955
3.869
3.868
3.974
3.868
3.841
3.868
3.935
3.920
3.891
3.857
3.868
3.958
4.038
4.003
4.002
3.938
3.950
3.915
3.991
4.005
3.963
3.933
3.949
3.984
4.016
3.954
3.935
4.001
4.017
4.023
3.966
3.947
4.008
3.959
3.872
3.940
3.939
3.897
3.924
3.979
4.034
4.073
4.088
4.010
3.952
3.990
4.003
3.981
3.948
3.980
3.932
3.873
3.937
3.892
3.877
3.923
3.957
4.003
4.001
4.045
4.088
4.091
4.052
4.005
4.002
3.998
3.975
3.941
3.931
3.985
3.925
3.970
3.966
3.966
3.911
3.945
3.969
3.979
3.904
3.943
3.925
3.892
3.930
3.873
3.876
3.869
3.902
3.935
3.968
4.000
4.033
4.066
4.099
4.113
4.098
4.101
4.141
4.140
4.161
4.150
4.114
4.079
4.044
4.021
4.038
4.004
3.986
3.995
3.998
3.996
4.013
4.012
3.966
3.938
3.906
3.909
3.886
3.912
3.879
3.885
3.841
3.849
3.877
3.914
3.951
3.938
3.934
3.958
3.961
3.941
3.974
3.998
4.016
3.998
3.959
3.960
3.934
3.904
3.926
3.889
3.898
3.901
3.895
3.861
3.896
3.882
3.892
3.913
3.935
3.957
3.979
4.000
4.022
4.044
4.065
4.087
4.109
4.110
4.096
4.126
4.104
4.122
4.093
4.071
4.115
4.081
4.101
4.098
4.080
4.065
4.082
4.050
4.036
4.038
4.050
4.070
4.070
4.085
4.096
4.085
4.046
4.055
4.083
4.111
4.088
4.093
4.071
4.058
4.092
4.096
4.025
4.034
4.013
4.031
4.007
3.982
3.972
3.981
3.964
3.942
3.938
3.941
3.963
3.973
3.958
3.911
3.934
3.923
3.917
3.908
3.914
3.912
3.901
3.934
3.964
3.984
3.986
3.959
3.943
3.917
3.886
3.864
3.880
3.859
3.893
3.915
3.901
3.900
3.902
3.921
3.939
3.970
3.922
3.934
3.935
3.931
3.922
3.906
3.886
3.903
3.929
3.954
3.937
3.957
3.950
3.970
3.949
3.931
3.910
3.892
3.870
3.892
3.902
3.907
3.924
3.903
3.923
3.921
3.911
3.915
3.881
3.889
3.902
3.904
3.873
3.870
3.867
3.858
3.888
3.882
3.869
3.859
3.883
3.871
3.871
3.866
3.881
3.868
3.868
3.883
3.878
3.896
3.915
3.933
3.952
3.970
3.978
3.969
3.980
3.990
3.962
3.979
3.966
3.977
3.985
4.013
3.993
3.974
3.960
3.984
3.985
3.992
3.981
3.982
3.942
3.957
3.949
3.930
3.926
3.903
3.926
3.926
3.941
3.932
3.932
3.910
3.881
3.897
3.907
3.916
3.923
3.900
3.914
3.911
3.917
3.887
3.898
3.903
3.929
3.914
3.924
3.935
3.946
3.957
3.968
3.978
3.989
4.000
4.011
4.022
4.033
4.043
4.054
4.065
4.076
4.086
4.097
4.108
4.119
4.130
4.140
4.151
4.162
4.173
4.184
4.195
4.205
4.171
4.181
4.196
4.165
4.169
4.159
4.138
4.147
4.170
4.141
4.122
4.140
4.147
4.133
4.150
4.168
4.183
4.161
4.150
4.155
4.158
4.148
4.125
4.135
4.118
4.143
4.135
4.113
4.089
4.091
4.083
4.094
4.111
4.128
4.145
4.140
4.138
4.139
4.111
4.098
4.117
4.115
4.098
4.084
4.073
4.075
4.067
4.068
4.045
4.054
4.075
4.069
4.081
4.075
4.098
4.069
4.045
4.044
4.056
4.048
4.049
4.046
4.041
4.044
4.054
4.044
4.014
4.025
4.006
4.009
4.013
4.036
4.041
4.018
4.015
4.009
4.005
3.990
3.992
3.986
3.986
3.983
3.984
3.997
3.978
3.960
3.961
3.973
3.973
3.983
3.991
4.011
3.989
3.990
3.975
3.993
4.014
4.034
4.028
4.015
3.989
3.975
3.988
3.983
3.972
3.992
3.976
3.961
3.953
3.966
3.984
4.000
3.999
4.008
4.030
4.046
4.022
3.999
3.991
4.010
3.997
3.989
3.977
3.961
3.961
3.955
3.946
3.929
3.936
3.945
3.961
3.953
3.949
3.946
3.957
3.958
3.960
3.970
3.949
3.946
3.947
3.958
3.962
3.985
3.995
3.994
3.979
3.963
3.954
3.956
3.960
3.955
3.964
3.960
3.945
3.950
3.933
3.948
3.926
3.928
3.932
3.953
3.960
3.976
3.942
3.949
3.938
3.935
3.920
3.906
3.905
3.909
3.905
3.928
3.925
3.934
3.915
3.895
3.875
3.872
3.871
3.878
3.869
3.884
3.899
3.913
3.928
3.943
3.957
3.962
3.979
3.997
3.995
3.971
3.970
3.940
3.939
3.943
3.934
3.934
3.942
3.935
3.918
3.930
3.938
3.940
3.946
3.949
3.941
3.950
3.949
3.956
3.943
3.969
3.942
3.918
3.913
3.925
3.937
3.914
3.893
3.903
3.908
3.925
3.925
3.911
3.919
3.910
3.906
3.901
3.900
3.913
3.893
3.899
3.902
3.922
3.921
3.929
3.950
3.923
3.929
3.942
3.922
3.915
3.925
3.934
3.943
3.952
3.961
3.971
3.980
3.989
3.998
4.008
4.017
4.024
4.036
4.025
4.005
4.013
3.996
3.999
4.013
4.007
4.017
4.010
4.012
4.000
4.014
4.028
4.026
4.021
4.011
4.027
4.029
4.027
4.030
4.033
4.056
4.043
4.029
4.020
4.004
4.003
3.986
3.984
4.008
3.987
3.972
3.975
3.986
3.988
3.999
3.984
3.969
3.969
3.970
3.971
3.968
3.966
3.961
3.974
3.974
3.966
3.962
3.955
3.949
3.974
3.967
3.964
3.969
3.964
3.962
3.943
3.941
3.939
3.934
3.940
3.927
3.922
3.938
3.956
3.956
3.935
3.951
3.947
3.941
3.949
3.962
3.953
3.951
3.939
3.958
3.973
3.977
3.985
3.965
3.974
3.967
3.980
3.988
3.989
3.972
3.973
3.973
3.963
3.969
3.956
3.944
3.931
3.919
3.937
3.907
3.899
3.921
3.943
3.926
3.928
3.916
3.923
3.924
3.940
3.934
3.931
3.946
3.931
3.946
3.936
3.945
3.934
3.929
3.946
3.943
3.948
3.957
3.946
3.955
3.942
3.938
3.930
3.913
3.901
3.913
3.892
3.908
3.905
3.917
3.911
3.905
3.896
3.896
3.906
3.924
3.917
3.902
3.914
3.908
3.903
3.886
3.905
3.899
3.898
3.913
3.912
3.931
3.934
3.933
3.949
3.952
3.960
3.949
3.937
3.925
3.928
3.925
3.909
3.897
3.907
3.902
3.911
3.900
3.899
3.909
3.914
3.916
3.926
3.932
3.925
3.936
3.928
3.921
3.909
3.916
3.921
3.917
3.921
3.929
3.937
3.946
3.954
3.962
3.971
3.979
3.988
3.996
3.988
3.972
3.974
3.966
3.975
3.981
3.995
3.989
4.005
3.998
3.990
3.993
3.999
3.997
3.985
3.994
3.991
4.000
3.993
3.998
3.997
3.986
3.987
3.989
3.987
3.985
3.974
3.962
3.953
3.940
3.946
3.941
3.943
3.955
3.968
3.980
3.972
3.964
3.949
3.962
3.968
3.965
3.949
3.950
3.955
3.952
3.943
3.955
3.956
3.968
3.961
3.967
3.969
3.967
3.970
3.967
3.967
3.974
3.976
3.966
3.962
3.969
3.958
3.963
3.957
3.935
3.940
3.937
3.933
3.943
3.947
3.951
3.956
3.945
3.944
3.953
3.933
3.925
3.940
3.943
3.942
3.925
3.937
3.928
3.928
3.939
3.922
3.942
3.932
3.938
3.923
3.932
3.940
3.939
3.928
3.917
3.907
3.919
3.924
3.928
3.940
3.952
3.964
3.972
3.955
3.946
3.934
3.932
3.950
3.936
3.936
3.926
3.921
3.923
3.910
3.907
3.903
3.900
3.902
3.916
3.925
3.926
3.914
3.907
3.910
3.900
3.908
3.907
3.922
3.934
3.951
3.953
3.943
3.945
3.954
3.946
3.934
3.943
3.925
3.908
3.919
3.923
3.923
3.929
3.919
3.930
3.916
3.901
3.906
3.919
3.897
3.901
3.903
3.904
3.898
3.906
3.911
3.919
3.925
3.909
3.914
3.922
3.930
3.938
3.945
3.953
