2.992
3.335
3.511
3.626
3.713
3.774
3.833
3.868
3.934
3.938
3.987
4.027
4.033
4.037
4.063
4.092
4.115
4.139
4.164
4.188
4.205
4.182
4.137
4.147
4.157
4.169
4.175
4.191
4.198
4.208
4.216
4.229
4.238
4.242
4.257
4.256
4.269
4.276
4.288
4.284
4.293
4.306
4.315
4.309
4.316
4.325
4.331
4.342
4.332
4.342
4.348
4.358
4.365
4.371
4.378
4.363
4.373
4.375
4.384
4.393
4.394
4.404
4.406
4.413
4.417
4.405
4.411
4.410
4.417
4.424
4.430
4.429
4.434
4.445
4.445
4.449
4.455
4.459
4.466
4.451
4.453
4.449
4.455
4.459
4.468
4.470
4.477
4.470
4.480
4.479
4.485
4.490
4.496
4.501
4.497
4.501
4.502
4.506
4.513
4.516
4.520
4.522
4.508
4.498
4.499
4.498
4.505
4.511
4.510
4.514
4.520
4.520
4.526
4.528
4.526
4.531
4.526
4.531
4.531
4.533
4.543
4.545
4.543
4.547
4.549
4.553
4.554
4.552
4.554
4.555
4.556
4.555
4.565
4.569
4.576
4.579
4.576
4.572
4.579
4.588
4.587
4.588
4.592
4.585
4.589
4.597
4.589
4.583
4.573
4.561
4.562
4.566
4.571
4.574
4.573
4.575
4.583
4.588
4.578
4.582
4.586
4.582
4.590
4.590
4.592
4.599
4.586
4.591
4.590
4.586
4.592
4.585
4.597
4.593
4.603
4.596
4.600
4.597
4.606
4.602
4.616
4.610
4.614
4.616
4.617
4.615
4.619
4.608
4.623
4.623
4.623
4.631
4.627
4.637
4.633
4.637
4.628
4.627
4.623
4.626
4.633
4.627
4.628
4.626
4.630
4.632
4.633
4.638
4.636
4.634
4.639
4.638
4.641
4.649
4.647
4.648
4.657
4.654
4.653
4.660
4.653
4.657
4.660
4.651
4.658
4.660
4.658
4.660
4.669
4.667
4.661
4.673
4.671
4.675
4.677
4.679
4.675
4.676
4.686
4.679
4.680
4.675
4.668
4.664
4.679
4.684
4.679
4.681
4.683
4.678
4.671
4.678
4.677
4.671
4.671
4.683
4.685
4.679
4.679
4.687
4.690
4.692
4.693
4.689
4.701
4.695
4.696
4.692
4.705
4.708
4.705
4.705
4.704
4.711
4.707
4.708
4.705
4.698
4.693
4.686
4.680
4.673
4.669
4.665
4.675
4.665
4.666
4.667
4.671
4.679
4.683
4.679
4.675
4.673
4.686
4.687
4.686
4.684
4.672
4.686
4.688
4.686
4.685
4.683
4.685
4.690
4.691
4.689
4.688
4.689
4.694
4.705
4.705
4.706
4.705
4.700
4.699
4.709
4.701
4.692
4.685
4.686
4.688
4.692
4.691
4.689
4.690
4.687
4.693
4.692
4.686
4.678
4.674
4.683
4.690
4.695
4.691
4.686
4.683
4.678
4.690
4.692
4.690
4.686
4.690
4.687
4.686
4.695
4.701
4.700
4.701
4.700
4.701
4.698
4.701
4.706
4.707
4.705
4.707
4.705
4.702
4.703
4.704
4.711
4.705
4.706
4.702
4.701
4.699
4.701
4.710
4.717
4.712
4.714
4.707
4.711
4.707
4.706
4.710
4.720
4.724
4.727
4.723
4.723
4.721
4.723
4.723
4.722
4.729
4.734
4.735
4.731
4.723
4.714
4.708
4.711
4.721
4.728
4.727
4.723
4.724
4.722
4.721
4.719
4.716
4.720
4.727
4.722
4.723
4.723
4.723
4.719
4.720
4.723
4.721
4.727
4.737
4.738
4.732
4.736
4.737
4.738
4.737
4.731
4.726
4.731
4.738
4.739
4.738
4.731
4.735
4.736
4.732
4.738
4.734
4.734
4.734
4.744
4.753
4.752
4.751
4.753
4.749
4.752
4.751
4.745
4.748
4.755
4.757
4.755
4.764
4.761
4.762
4.758
4.760
4.758
4.759
4.758
4.756
4.749
4.749
4.758
4.767
4.768
4.767
4.766
4.764
4.757
4.751
4.745
4.742
4.736
4.745
4.744
4.742
4.750
4.748
4.739
4.738
4.736
4.734
4.733
4.737
4.734
4.738
4.747
4.749
4.742
4.735
4.728
4.729
4.728
4.724
4.727
4.726
4.725
4.724
4.733
4.742
4.749
4.743
4.745
4.743
4.745
4.745
4.736
4.735
4.738
4.738
4.736
4.735
4.739
4.740
4.747
4.756
4.761
4.765
4.760
4.764
4.758
4.753
4.747
4.746
4.742
4.743
4.744
4.742
4.739
4.746
4.755
4.764
4.763
4.760
4.758
4.757
4.750
4.746
4.752
4.748
4.747
4.742
4.734
4.731
4.738
4.745
4.753
4.754
4.764
4.762
4.758
4.757
4.757
4.754
4.757
4.756
4.752
4.749
4.755
4.751
4.750
4.749
4.750
4.754
4.763
4.770
4.774
4.775
4.774
4.770
4.775
4.776
4.779
4.771
4.766
4.764
4.763
4.764
4.758
4.751
4.760
4.764
4.761
4.768
4.775
4.778
4.772
4.768
4.774
4.768
4.768
4.765
4.766
4.771
4.768
4.771
4.771
4.765
4.760
4.760
4.766
4.764
4.764
4.773
4.779
4.787
4.788
4.792
4.790
4.789
4.790
4.790
4.791
4.790
4.790
4.787
4.785
4.783
4.785
4.787
4.783
4.781
4.777
4.776
4.779
4.781
4.790
4.795
4.797
4.794
4.797
4.792
4.791
4.797
4.799
4.798
4.794
4.787
4.783
4.779
4.779
4.779
4.779
4.776
4.774
4.770
4.771
4.776
4.783
4.790
4.786
4.784
4.782
4.786
4.785
4.783
4.780
4.786
4.783
4.781
4.783
4.784
4.780
4.776
4.780
4.779
4.774
4.767
4.761
4.764
4.771
4.776
4.777
4.783
4.782
4.783
4.785
4.787
4.788
4.784
4.780
4.776
4.779
4.781
4.780
4.781
4.780
4.776
4.777
4.776
4.777
4.784
4.782
4.783
4.786
4.784
4.780
4.781
4.785
4.790
4.793
4.794
4.796
4.795
4.791
4.790
4.794
4.797
4.791
4.789
4.786
4.787
4.785
4.786
4.788
4.787
4.790
4.786
4.783
4.784
4.785
4.787
4.785
4.783
4.783
4.786
4.790
4.792
4.799
4.803
4.810
4.817
4.813
4.809
4.812
4.812
4.807
4.805
4.802
4.805
4.802
4.801
4.801
4.801
4.801
4.805
4.805
4.803
4.802
4.808
4.805
4.805
4.799
4.803
4.807
4.809
4.805
4.801
4.802
4.805
4.808
4.814
4.820
4.825
4.826
4.825
4.827
4.830
4.829
4.823
4.823
4.820
4.818
4.816
4.812
4.809
4.815
4.820
4.816
4.817
4.818
4.812
4.808
4.806
4.808
4.809
4.813
4.809
4.810
4.806
4.807
4.805
4.805
4.806
4.812
4.819
4.820
4.820
4.821
4.823
4.816
4.812
4.810
4.806
4.807
4.809
4.807
4.814
4.815
4.817
4.820
4.814
4.813
4.816
4.813
4.809
4.810
4.808
4.807
4.803
4.799
4.800
4.799
4.803
4.801
4.798
4.801
4.798
4.802
4.806
4.812
4.819
4.824
4.828
4.834
4.839
4.835
4.836
4.835
4.833
4.832
4.836
4.835
4.833
4.829
4.827
4.826
4.830
4.831
4.830
4.829
4.831
4.827
4.825
4.823
4.828
4.827
4.831
4.834
4.830
4.826
4.827
4.829
4.828
4.832
4.831
4.827
4.827
4.823
4.825
4.826
4.825
4.826
4.831
4.837
4.841
4.846
4.852
4.857
4.863
4.867
4.863
4.859
4.855
4.859
4.857
4.853
4.845
4.845
4.847
4.848
4.845
4.848
4.847
4.843
4.839
4.835
4.838
4.837
4.836
4.838
4.842
4.840
4.839
4.837
4.834
4.835
4.831
4.835
4.834
4.831
4.828
4.824
4.822
4.820
4.822
4.826
4.831
4.835
4.839
4.834
4.830
4.826
4.820
4.820
4.822
4.823
4.819
4.818
4.822
4.820
4.822
4.821
4.817
4.818
4.823
4.826
4.822
4.820
4.820
4.820
4.820
4.816
4.816
4.818
4.819
4.820
4.817
4.818
4.814
4.810
4.811
4.816
4.817
4.815
4.811
4.807
4.803
4.801
4.800
4.804
4.809
4.813
4.819
4.824
4.823
4.829
4.834
4.834
4.831
4.832
4.833
4.831
4.827
4.826
4.827
4.826
4.827
4.829
4.825
4.827
4.827
4.823
4.825
4.824
4.825
4.820
4.816
4.815
4.812
4.810
4.808
4.810
4.806
4.802
4.808
4.813
4.817
4.815
4.811
4.808
