2.992
3.334
3.509
3.636
3.712
3.781
3.835
3.891
3.901
3.956
4.002
3.978
4.016
4.044
4.078
4.105
4.128
4.154
4.172
4.121
4.103
4.116
4.131
4.140
4.158
4.168
4.172
4.187
4.193
4.208
4.218
4.219
4.235
4.249
4.246
4.257
4.268
4.268
4.276
4.286
4.295
4.308
4.298
4.308
4.316
4.321
4.334
4.340
4.331
4.340
4.342
4.354
4.357
4.364
4.374
4.376
4.374
4.375
4.374
4.384
4.390
4.394
4.397
4.405
4.412
4.414
4.415
4.427
4.427
4.414
4.415
4.414
4.424
4.434
4.435
4.434
4.442
4.447
4.453
4.458
4.460
4.463
4.464
4.463
4.473
4.480
4.481
4.486
4.486
4.464
4.462
4.469
4.470
4.475
4.484
4.482
4.489
4.493
4.490
4.493
4.487
4.496
4.501
4.507
4.509
4.512
4.511
4.518
4.523
4.518
4.520
4.526
4.522
4.529
4.531
4.538
4.542
4.545
4.545
4.548
4.557
4.554
4.558
4.553
4.552
4.560
4.555
4.559
4.544
4.531
4.531
4.542
4.538
4.537
4.545
4.553
4.547
4.546
4.550
4.556
4.550
4.559
4.563
4.559
4.558
4.557
4.552
4.556
4.564
4.557
4.564
4.562
4.566
4.571
4.572
4.579
4.574
4.589
4.585
4.586
4.579
4.579
4.583
4.594
4.590
4.600
4.594
4.605
4.596
4.601
4.591
4.592
4.591
4.600
4.593
4.594
4.590
4.608
4.604
4.603
4.604
4.601
4.612
4.608
4.616
4.620
4.619
4.627
4.623
4.622
4.627
4.628
4.623
4.623
4.621
4.634
4.631
4.628
4.634
4.633
4.637
4.650
4.642
4.639
4.656
4.645
4.643
4.655
4.642
4.642
4.646
4.642
4.643
4.657
4.646
4.641
4.649
4.641
4.635
4.655
4.649
4.642
4.651
4.657
4.657
4.658
4.662
4.664
4.664
4.660
4.670
4.675
4.673
4.674
4.676
4.675
4.676
4.679
4.684
4.677
4.668
4.663
4.654
4.647
4.646
4.638
4.634
4.634
4.643
4.650
4.642
4.645
4.640
4.657
4.654
4.655
4.645
4.650
4.654
4.657
4.651
4.649
4.657
4.657
4.659
4.657
4.657
4.663
4.675
4.679
4.671
4.669
4.665
4.679
4.673
4.663
4.654
4.661
4.662
4.663
4.664
4.650
4.657
4.660
4.657
4.647
4.645
4.650
4.665
4.658
4.653
4.655
4.649
4.653
4.662
4.660
4.657
4.655
4.656
4.657
4.670
4.671
4.673
4.672
4.670
4.664
4.668
4.683
4.678
4.677
4.678
4.668
4.662
4.675
4.679
4.674
4.676
4.677
4.675
4.669
4.679
4.686
4.684
4.685
4.679
4.677
4.681
4.680
4.694
4.701
4.697
4.699
4.694
4.688
4.690
4.690
4.703
4.696
4.686
4.682
4.686
4.688
4.681
4.693
4.697
4.699
4.697
4.694
4.686
4.682
4.681
4.691
4.697
4.699
4.698
4.701
4.697
4.696
4.689
4.688
4.701
4.712
4.716
4.707
4.706
4.710
4.708
4.702
4.694
4.702
4.711
4.710
4.716
4.712
4.712
4.710
4.709
4.705
4.706
4.712
4.722
4.729
4.725
4.729
4.733
4.731
4.725
4.724
4.717
4.715
4.723
4.737
4.742
4.735
4.728
4.721
4.719
4.723
4.722
4.723
4.725
4.734
4.733
4.726
4.720
4.715
4.708
4.701
4.703
4.702
4.709
4.715
4.716
4.712
4.719
4.712
4.714
4.718
4.711
4.708
4.703
4.704
4.705
4.713
4.709
4.713
4.711
4.705
4.708
4.697
4.705
4.701
4.703
4.704
4.714
4.715
4.714
4.721
4.717
4.718
4.716
4.716
4.719
4.719
4.717
4.712
4.717
4.716
4.725
4.732
4.727
4.723
4.719
4.715
4.714
4.718
4.720
4.716
4.716
4.716
4.719
4.718
4.725
4.721
4.725
4.726
4.719
4.710
4.709
4.715
4.717
4.712
4.717
4.716
4.714
4.716
4.723
4.734
4.742
4.734
4.730
4.729
4.736
4.734
4.733
4.734
4.734
4.734
4.731
4.729
4.731
4.729
4.730
4.740
4.745
4.743
4.750
4.745
4.742
4.743
4.744
4.735
4.734
4.731
4.733
4.726
4.719
4.727
4.725
4.735
4.744
4.751
4.752
4.753
4.757
4.754
4.749
4.753
4.753
4.748
4.747
4.743
4.742
4.743
4.749
4.749
4.755
4.746
4.747
4.756
4.763
4.767
4.768
4.764
4.764
4.765
4.766
4.770
4.760
4.760
4.753
4.748
4.752
4.753
4.753
4.748
4.752
4.756
4.755
4.762
4.764
4.759
4.752
4.748
4.745
4.745
4.742
4.742
4.742
4.743
4.744
4.738
4.742
4.749
4.747
4.743
4.738
4.743
4.750
4.759
4.753
4.749
4.755
4.756
4.755
4.749
4.742
4.738
4.738
4.742
4.739
4.738
4.734
4.735
4.739
4.742
4.742
4.742
4.741
4.745
4.752
4.759
4.766
4.771
4.771
4.771
4.774
4.765
4.763
4.759
4.761
4.754
4.752
4.753
4.753
4.753
4.755
4.753
4.747
4.742
4.745
4.746
4.744
4.746
4.755
4.762
4.768
4.776
4.782
4.784
4.788
4.786
4.790
4.787
4.780
4.771
4.766
4.768
4.766
4.764
4.766
4.770
4.774
4.768
4.766
4.768
4.764
4.760
4.760
4.760
4.760
4.764
4.771
4.776
4.785
4.792
4.799
4.803
4.799
4.798
4.797
4.795
4.794
4.792
4.791
4.789
4.786
4.787
4.785
4.789
4.788
4.782
4.775
4.771
4.772
4.776
4.780
4.779
4.775
4.779
4.777
4.778
4.785
4.790
4.797
4.801
4.801
4.795
4.788
4.784
4.780
4.775
4.772
4.776
4.785
4.779
4.782
4.773
4.774
4.773
4.777
4.776
4.775
4.773
4.771
4.767
4.768
4.765
4.766
4.762
4.769
4.773
4.780
4.786
4.793
4.798
4.805
4.806
4.802
4.801
4.802
4.800
4.796
4.795
4.799
4.800
4.794
4.790
4.796
4.795
4.796
4.794
4.786
4.792
4.790
4.795
4.796
4.795
4.799
4.792
4.786
4.787
4.790
4.784
4.790
4.789
4.785
4.789
4.796
4.803
4.808
4.814
4.819
4.827
4.824
4.827
4.826
4.819
4.816
4.823
4.826
4.823
4.826
4.827
4.827
4.833
4.831
4.825
4.824
4.816
4.815
4.808
4.802
4.800
4.805
4.803
4.804
4.797
4.791
4.798
4.802
4.811
4.813
4.806
4.804
4.806
4.802
4.808
4.813
4.819
4.816
4.814
4.810
4.806
4.802
4.800
4.799
4.795
4.793
4.798
4.799
4.795
4.790
4.789
4.790
4.790
4.785
4.782
4.779
4.775
4.775
4.781
4.780
4.779
4.782
4.781
4.780
4.781
4.782
4.779
4.774
4.773
4.775
4.778
4.783
4.790
4.794
4.800
4.794
4.795
4.793
4.797
4.793
4.795
4.794
4.795
4.791
4.790
4.786
4.789
4.786
4.786
4.788
4.789
4.786
4.789
4.788
4.790
4.786
4.786
4.785
4.781
4.783
4.782
4.782
4.784
4.780
4.779
4.775
4.776
4.777
4.773
4.777
4.776
4.775
4.773
4.774
4.773
4.775
4.781
4.785
4.790
4.796
4.803
4.802
4.801
4.797
4.797
4.794
4.795
4.796
4.792
4.793
4.795
4.796
4.798
4.801
4.808
4.808
4.803
4.804
4.806
4.799
4.798
4.796
4.797
4.796
4.797
4.799
4.798
4.794
4.789
4.782
4.778
4.779
4.781
4.783
4.782
4.785
4.786
4.785
4.784
4.780
4.782
4.786
4.782
4.779
4.775
4.772
4.778
4.783
4.789
4.791
4.797
4.802
4.805
4.801
4.798
4.804
4.801
4.794
4.790
4.791
4.794
4.794
4.798
4.796
4.794
4.793
4.790
4.788
4.786
4.788
4.787
4.783
4.784
4.780
4.781
4.782
4.784
4.788
4.784
4.785
4.784
4.782
4.782
4.788
4.782
4.783
4.782
4.780
4.782
4.783
4.779
4.779
4.781
4.782
4.781
4.782
4.781
4.777
4.779
4.780
4.784
4.782
4.781
4.780
4.782
4.788
4.792
4.797
4.803
4.805
4.811
4.815
4.814
4.807
4.806
4.805
4.811
4.815
4.811
4.812
4.811
4.812
4.809
4.805
4.801
4.799
4.797
4.791
4.790
4.786
4.786
4.788
4.786
4.783
4.784
4.785
4.781
