2.991
3.332
3.502
3.637
3.702
3.782
3.828
3.862
3.916
3.972
3.948
3.984
4.018
4.055
4.084
4.113
4.142
4.111
4.069
4.085
4.103
4.113
4.125
4.145
4.151
4.167
4.174
4.190
4.193
4.207
4.215
4.223
4.235
4.249
4.244
4.255
4.264
4.279
4.270
4.280
4.292
4.301
4.311
4.303
4.310
4.313
4.325
4.330
4.343
4.343
4.353
4.340
4.343
4.354
4.363
4.364
4.372
4.383
4.390
4.391
4.396
4.406
4.386
4.385
4.390
4.398
4.404
4.410
4.412
4.413
4.424
4.426
4.434
4.436
4.438
4.447
4.450
4.454
4.461
4.466
4.442
4.438
4.440
4.450
4.450
4.458
4.455
4.468
4.460
4.462
4.464
4.472
4.477
4.480
4.484
4.486
4.493
4.497
4.493
4.502
4.497
4.499
4.504
4.509
4.512
4.518
4.514
4.523
4.522
4.529
4.534
4.527
4.534
4.529
4.532
4.524
4.507
4.507
4.507
4.512
4.522
4.523
4.516
4.523
4.526
4.533
4.527
4.535
4.540
4.534
4.527
4.531
4.532
4.535
4.534
4.544
4.538
4.542
4.554
4.550
4.558
4.554
4.559
4.561
4.546
4.563
4.559
4.572
4.571
4.575
4.570
4.581
4.568
4.565
4.580
4.572
4.570
4.568
4.580
4.580
4.582
4.577
4.583
4.586
4.581
4.597
4.591
4.601
4.598
4.599
4.601
4.600
4.598
4.597
4.610
4.610
4.602
4.614
4.610
4.613
4.622
4.613
4.625
4.626
4.619
4.634
4.625
4.618
4.623
4.620
4.624
4.628
4.613
4.626
4.617
4.611
4.629
4.628
4.621
4.628
4.636
4.636
4.633
4.643
4.640
4.641
4.644
4.653
4.654
4.646
4.656
4.653
4.658
4.650
4.663
4.654
4.645
4.636
4.627
4.618
4.614
4.613
4.612
4.625
4.623
4.621
4.623
4.630
4.633
4.618
4.612
4.630
4.632
4.629
4.628
4.626
4.641
4.640
4.637
4.637
4.639
4.652
4.647
4.642
4.641
4.648
4.646
4.635
4.626
4.636
4.640
4.631
4.622
4.626
4.636
4.625
4.629
4.626
4.623
4.631
4.638
4.630
4.626
4.625
4.633
4.640
4.640
4.634
4.639
4.635
4.642
4.659
4.649
4.643
4.645
4.642
4.647
4.658
4.649
4.651
4.644
4.639
4.648
4.664
4.656
4.658
4.647
4.650
4.650
4.661
4.663
4.663
4.663
4.668
4.665
4.664
4.669
4.678
4.678
4.680
4.674
4.673
4.667
4.672
4.673
4.669
4.666
4.663
4.659
4.663
4.670
4.667
4.663
4.662
4.664
4.666
4.663
4.664
4.678
4.687
4.681
4.678
4.676
4.678
4.679
4.675
4.680
4.694
4.680
4.683
4.678
4.675
4.678
4.676
4.677
4.691
4.705
4.695
4.695
4.697
4.697
4.694
4.695
4.695
4.696
4.709
4.707
4.705
4.706
4.703
4.706
4.709
4.701
4.694
4.707
4.715
4.715
4.716
4.715
4.707
4.699
4.701
4.697
4.697
4.695
4.691
4.687
4.682
4.681
4.683
4.683
4.680
4.684
4.696
4.692
4.688
4.679
4.675
4.675
4.670
4.680
4.678
4.675
4.687
4.697
4.691
4.691
4.690
4.686
4.684
4.685
4.684
4.681
4.678
4.684
4.695
4.706
4.711
4.709
4.699
4.694
4.694
4.695
4.693
4.690
4.683
4.682
4.694
4.705
4.710
4.708
4.704
4.698
4.689
4.684
4.687
4.683
4.681
4.681
4.685
4.696
4.707
4.714
4.713
4.706
4.706
4.706
4.704
4.705
4.699
4.700
4.697
4.697
4.695
4.702
4.710
4.721
4.731
4.722
4.724
4.719
4.712
4.711
4.710
4.715
4.715
4.713
4.711
4.706
4.704
4.714
4.725
4.723
4.719
4.726
4.723
4.719
4.724
4.720
4.721
4.718
4.712
4.712
4.716
4.721
4.718
4.718
4.728
4.738
4.748
4.745
4.748
4.744
4.737
4.738
4.742
4.739
4.742
4.739
4.730
4.729
4.729
4.718
4.721
4.730
4.740
4.749
4.748
4.740
4.737
4.740
4.738
4.734
4.736
4.729
4.722
4.715
4.714
4.715
4.714
4.711
4.720
4.730
4.739
4.743
4.736
4.733
4.735
4.733
4.732
4.723
4.717
4.718
4.718
4.715
4.708
4.708
4.714
4.712
4.708
4.717
4.726
4.735
4.743
4.743
4.736
4.739
4.744
4.745
4.740
4.737
4.741
4.745
4.742
4.733
4.728
4.723
4.722
4.717
4.719
4.723
4.722
4.726
4.735
4.743
4.752
4.751
4.748
4.755
4.757
4.756
4.750
4.755
4.749
4.746
4.749
4.745
4.747
4.744
4.748
4.741
4.734
4.737
4.735
4.734
4.735
4.737
4.745
4.753
4.762
4.764
4.771
4.770
4.766
4.765
4.774
4.776
4.775
4.776
4.769
4.767
4.759
4.757
4.757
4.757
4.755
4.758
4.753
4.756
4.760
4.757
4.753
4.747
4.755
4.763
4.771
4.778
4.784
4.782
4.775
4.774
4.773
4.772
4.770
4.761
4.761
4.765
4.758
4.753
4.751
4.752
4.754
4.752
4.748
4.740
4.735
4.736
4.741
4.743
4.746
4.754
4.761
4.769
4.774
4.779
4.780
4.782
4.777
4.768
4.768
4.768
4.769
4.771
4.773
4.767
4.767
4.764
4.764
4.761
4.759
4.762
4.770
4.769
4.769
4.765
4.766
4.761
4.757
4.761
4.764
4.762
4.763
4.771
4.778
4.785
4.792
4.800
4.797
4.801
4.798
4.796
4.795
4.793
4.795
4.795
4.790
4.793
4.794
4.796
4.797
4.797
4.800
4.801
4.800
4.798
4.797
4.791
4.787
4.781
4.781
4.775
4.777
4.779
4.784
4.777
4.775
4.779
4.786
4.793
4.800
4.807
4.811
4.808
4.808
4.809
4.804
4.804
4.800
4.796
4.792
4.788
4.785
4.781
4.777
4.777
4.777
4.771
4.766
4.759
4.755
4.755
4.752
4.747
4.747
4.752
4.748
4.747
4.747
4.751
4.758
4.764
4.771
4.777
4.784
4.788
4.788
4.788
4.794
4.789
4.784
4.779
4.774
4.770
4.765
4.762
4.761
4.759
4.759
4.756
4.757
4.756
4.762
4.756
4.756
4.753
4.753
4.752
4.758
4.762
4.761
4.759
4.759
4.759
4.760
4.754
4.752
4.749
4.746
4.750
4.757
4.763
4.769
4.775
4.780
4.779
4.773
4.770
4.767
4.768
4.771
4.773
4.768
4.763
4.765
4.773
4.776
4.780
4.782
4.775
4.774
4.774
4.774
4.769
4.769
4.767
4.768
4.769
4.771
4.771
4.763
4.762
4.760
4.761
4.764
4.763
4.766
4.760
4.754
4.755
4.753
4.754
4.761
4.769
4.768
4.760
4.763
4.769
4.775
4.781
4.787
4.787
4.788
4.783
4.780
4.776
4.772
4.769
4.769
4.773
4.778
4.774
4.765
4.760
4.765
4.757
4.756
4.758
4.755
4.758
4.753
4.754
4.762
4.764
4.766
4.763
4.764
4.764
4.761
4.758
4.751
4.752
4.756
4.750
4.753
4.751
4.748
4.749
4.749
4.749
4.750
4.747
4.749
4.753
4.750
4.755
4.761
4.766
4.772
4.777
4.783
4.788
4.794
4.799
4.799
4.797
4.794
4.792
4.793
4.796
4.790
4.785
4.785
4.784
4.784
4.783
4.788
4.783
4.788
4.784
4.784
4.783
4.778
4.774
4.768
4.763
4.758
4.752
4.754
4.752
4.752
4.749
4.750
4.749
4.750
4.756
4.755
4.752
4.756
4.763
4.769
4.769
4.768
4.764
4.764
4.762
4.760
4.761
4.757
4.755
4.757
4.754
4.755
4.759
4.765
4.770
4.775
4.780
4.785
4.791
4.796
4.796
4.794
4.791
4.790
4.792
4.791
4.792
4.793
4.797
4.796
4.795
4.792
4.792
4.792
4.795
4.791
4.789
4.787
4.788
4.788
4.791
4.796
4.797
4.794
4.794
4.790
4.790
4.788
4.784
4.784
4.783
4.778
4.775
4.770
4.765
4.767
4.766
4.769
4.768
4.768
4.770
4.766
4.766
4.762
4.755
4.755
4.754
4.749
4.749
4.752
4.751
4.749
4.748
4.747
4.753
4.755
4.760
4.766
4.765
4.767
4.772
4.777
4.782
4.787
4.792
4.796
4.801
4.806
4.811
4.814
4.812
4.810
4.811
4.807
4.813
4.811
4.810
4.806
4.802
4.804
