2.989
3.222
3.430
3.458
3.526
3.583
3.669
3.728
3.754
3.789
3.813
3.874
3.848
3.878
3.938
3.939
3.951
3.929
3.958
3.998
3.979
4.032
4.039
4.056
4.056
4.052
4.102
4.113
4.123
4.140
4.110
4.120
4.065
4.094
4.105
4.090
4.117
4.139
4.122
4.110
4.149
4.144
4.163
4.179
4.170
4.199
4.151
4.156
4.130
4.169
4.132
4.177
4.170
4.144
4.199
4.188
4.176
4.236
4.229
4.194
4.207
4.192
4.167
4.216
4.218
4.214
4.181
4.237
4.284
4.255
4.219
4.229
4.246
4.243
4.220
4.209
4.249
4.304
4.309
4.275
4.255
4.237
4.287
4.326
4.354
4.320
4.293
4.293
4.270
4.259
4.250
4.263
4.250
4.227
4.237
4.282
4.260
4.242
4.258
4.249
4.244
4.202
4.234
4.275
4.277
4.279
4.271
4.275
4.241
4.245
4.253
4.221
4.250
4.288
4.303
4.291
4.278
4.291
4.280
4.287
4.259
4.253
4.252
4.252
4.270
4.301
4.335
4.360
4.341
4.335
4.339
4.333
4.325
4.335
4.321
4.315
4.296
4.281
4.276
4.293
4.324
4.319
4.348
4.339
4.322
4.293
4.307
4.279
4.284
4.262
4.267
4.304
4.282
4.258
4.260
4.263
4.272
4.300
4.327
4.354
4.378
4.389
4.376
4.385
4.379
4.398
4.411
4.384
4.362
4.341
4.345
4.334
4.324
4.313
4.295
4.275
4.264
4.259
4.255
4.279
4.303
4.326
4.350
4.371
4.386
4.374
4.368
4.371
4.360
4.353
4.360
4.343
4.313
4.311
4.325
4.325
4.329
4.324
4.305
4.315
4.306
4.319
4.287
4.274
4.265
4.244
4.246
4.275
4.265
4.271
4.292
4.312
4.332
4.353
4.361
4.371
4.390
4.415
4.423
4.408
4.383
4.371
4.356
4.345
4.348
4.328
4.351
4.347
4.331
4.315
4.328
4.331
4.301
4.300
4.280
4.296
4.276
4.301
4.324
4.346
4.327
4.300
4.307
4.286
4.287
4.300
4.276
4.292
4.265
4.277
4.299
4.286
4.288
4.298
4.315
4.332
4.349
4.366
4.382
4.399
4.416
4.433
4.441
4.441
4.422
4.405
4.401
4.383
4.371
4.362
4.374
4.388
4.404
4.413
4.389
4.377
4.372
4.358
4.357
4.336
4.326
4.318
4.326
4.316
4.308
4.303
4.292
4.281
4.290
4.281
4.289
4.258
4.271
4.281
4.271
4.257
4.255
4.255
4.262
4.265
4.267
4.243
4.241
4.238
4.259
4.279
4.292
4.308
4.302
4.295
4.312
4.287
4.275
4.262
4.274
4.274
4.284
4.297
4.311
4.325
4.338
4.352
4.365
4.379
4.392
4.405
4.419
4.432
4.439
4.433
4.433
4.418
4.422
4.395
4.394
4.408
4.408
4.400
4.383
4.366
4.352
4.351
4.363
4.344
4.332
4.323
4.319
4.338
4.355
4.358
4.356
4.346
4.336
4.332
4.325
4.332
4.349
4.325
4.314
4.323
4.340
4.358
4.361
4.348
4.356
4.366
4.356
4.351
4.338
4.347
4.344
4.358
4.350
4.358
4.352
4.352
4.364
4.375
4.360
4.342
4.326
4.315
4.307
4.309
4.302
4.318
4.305
4.298
4.306
4.310
4.306
4.297
4.299
4.288
4.288
4.296
4.315
4.303
4.295
4.314
4.300
4.299
4.297
4.302
4.296
4.284
4.273
4.265
4.277
4.288
4.308
4.300
4.292
4.277
4.286
4.271
4.268
4.251
4.253
4.251
4.260
4.270
4.280
4.290
4.300
4.310
4.320
4.330
4.340
4.351
4.361
4.371
4.381
4.391
4.401
4.411
4.421
4.420
4.431
4.430
4.445
4.449
4.457
4.462
4.473
4.473
4.465
4.462
4.460
4.449
4.436
4.430
4.435
4.418
4.410
4.398
4.398
4.388
4.381
4.371
4.369
4.371
4.371
4.364
4.364
4.368
4.371
4.383
4.399
4.394
4.385
4.375
4.372
4.369
4.366
4.370
4.367
4.365
4.367
4.376
4.393
4.387
4.407
4.398
4.399
4.404
4.410
4.417
4.408
4.408
4.401
4.390
4.395
4.398
4.387
4.374
4.360
4.347
4.343
4.333
4.332
4.339
4.330
4.328
4.343
4.336
4.321
4.315
4.305
4.296
4.299
4.300
4.314
4.313
4.311
4.295
4.300
4.290
4.297
4.292
4.288
4.297
4.284
4.280
4.269
4.286
4.284
4.292
4.297
4.290
4.281
4.287
4.283
4.293
4.298
4.280
4.278
4.281
4.292
4.304
4.306
4.307
4.313
4.331
4.319
4.312
4.305
4.302
4.308
4.303
4.318
4.322
4.324
4.324
4.315
4.318
4.321
4.328
4.338
4.351
4.345
4.358
4.377
4.370
4.353
4.345
4.343
4.335
4.323
4.321
4.307
4.312
4.326
4.316
4.307
4.305
4.291
4.304
4.308
4.307
4.298
4.292
4.284
4.288
4.287
4.290
4.277
4.267
4.267
4.281
4.267
4.261
4.253
4.253
4.241
4.240
4.245
4.254
4.254
4.264
4.255
4.268
4.260
4.275
4.261
4.260
4.262
4.253
4.261
4.248
4.251
4.239
4.244
4.263
4.262
4.252
4.266
4.266
4.278
4.281
4.269
4.254
4.253
4.247
4.248
4.250
4.238
4.235
4.246
4.244
4.249
4.256
4.263
4.269
4.276
4.283
4.290
4.296
4.303
4.310
4.317
4.323
4.330
4.337
4.344
4.350
4.357
4.364
4.370
4.377
4.384
4.391
4.397
4.404
4.411
4.417
4.424
4.431
4.438
4.444
4.451
4.458
4.465
4.470
4.463
4.462
4.453
4.445
4.436
4.432
4.435
4.434
4.445
4.449
4.437
4.431
4.423
4.430
4.438
4.431
4.436
4.439
4.426
4.416
4.420
4.410
4.397
4.390
4.406
4.394
4.401
4.399
4.393
4.395
4.398
4.397
4.398
4.408
4.409
4.426
4.404
4.399
4.392
4.384
4.395
4.405
4.405
4.407
4.410
4.420
4.413
4.417
4.400
4.400
4.398
4.390
4.387
4.387
4.393
4.393
4.388
4.390
4.385
4.385
4.387
4.388
4.390
4.387
4.384
4.382
4.391
4.400
4.409
4.417
4.426
4.435
4.434
4.426
4.421
4.426
4.427
4.427
4.428
4.428
4.438
4.439
4.434
4.432
4.421
4.408
4.400
4.390
4.379
4.368
4.363
4.358
4.355
4.357
4.363
4.372
4.375
4.376
4.379
4.384
4.377
4.371
4.354
4.351
4.345
4.346
4.345
4.340
4.344
4.341
4.355
4.353
4.364
4.367
4.358
4.361
4.346
4.342
4.338
4.350
4.353
4.351
4.346
4.351
4.348
4.360
4.363
4.369
4.370
4.367
4.358
4.356
4.346
4.347
4.343
4.350
4.352
4.336
4.336
4.339
4.333
4.335
4.337
4.350
4.344
4.336
4.340
4.349
4.346
4.348
4.343
4.341
4.343
4.341
4.336
4.340
4.329
4.330
4.320
4.320
4.333
4.320
4.322
4.332
4.338
4.345
4.349
4.341
4.334
4.335
4.327
4.319
4.314
4.324
4.332
4.330
4.332
4.322
4.318
4.305
4.309
4.315
4.320
4.299
4.297
4.307
4.305
4.295
4.285
4.275
4.279
4.276
4.271
4.276
4.265
4.273
4.276
4.277
4.279
4.282
4.269
4.274
4.275
4.281
4.285
4.294
4.295
4.298
4.286
4.290
4.285
4.280
4.278
4.277
4.291
4.291
4.296
4.303
4.307
4.309
4.303
4.310
4.292
4.296
4.301
4.300
4.288
4.282
4.277
4.271
4.272
4.273
4.276
4.289
4.286
4.276
4.268
4.273
4.271
4.283
4.281
4.271
4.274
4.282
4.285
4.275
4.269
4.255
4.259
4.269
4.268
4.254
4.250
4.254
4.253
4.259
4.259
4.257
4.249
4.257
4.265
4.273
4.281
4.289
4.297
4.305
4.298
4.309
4.313
4.320
4.316
4.327
4.323
4.315
4.314
4.311
4.315
4.303
4.310
4.304
4.295
4.288
4.286
4.285
4.285
4.287
4.289
4.298
4.289
4.299
4.297
4.298
4.299
4.288
4.287
4.283
4.292
4.292
4.283
4.286
4.295
4.304
4.311
4.322
4.332
4.328
4.326
4.324
4.326
4.323
4.332
4.326
4.317
4.310
4.311
4.318
4.310
4.309
4.306
4.308
4.306
4.303
4.311
4.310
4.302
4.305
4.301
4.303
4.303
4.312
4.310
4.305
4.299
4.305
4.304
4.297
