2.994
3.316
3.485
3.624
3.719
3.767
3.772
3.840
3.902
3.960
3.980
3.903
3.933
3.959
3.984
4.004
4.020
4.051
4.058
4.081
4.087
4.106
4.106
4.129
4.149
4.139
4.167
4.173
4.188
4.186
4.195
4.201
4.217
4.221
4.238
4.242
4.233
4.250
4.250
4.262
4.273
4.280
4.289
4.299
4.322
4.312
4.287
4.300
4.310
4.313
4.312
4.323
4.330
4.334
4.345
4.341
4.347
4.365
4.362
4.375
4.376
4.396
4.385
4.384
4.397
4.385
4.366
4.376
4.365
4.379
4.392
4.393
4.383
4.380
4.386
4.384
4.400
4.400
4.416
4.407
4.416
4.425
4.439
4.434
4.437
4.420
4.414
4.429
4.431
4.438
4.440
4.451
4.458
4.454
4.465
4.469
4.459
4.468
4.472
4.476
4.485
4.481
4.495
4.488
4.477
4.487
4.474
4.484
4.474
4.492
4.492
4.505
4.493
4.522
4.504
4.522
4.515
4.519
4.531
4.514
4.528
4.522
4.507
4.491
4.486
4.481
4.485
4.488
4.491
4.495
4.498
4.514
4.507
4.499
4.524
4.518
4.509
4.492
4.488
4.501
4.486
4.478
4.494
4.495
4.484
4.496
4.511
4.505
4.494
4.517
4.514
4.513
4.503
4.519
4.513
4.506
4.515
4.528
4.524
4.523
4.521
4.546
4.539
4.540
4.530
4.541
4.527
4.521
4.520
4.540
4.529
4.533
4.526
4.532
4.548
4.550
4.543
4.544
4.541
4.555
4.549
4.547
4.546
4.548
4.568
4.577
4.570
4.566
4.559
4.563
4.585
4.580
4.573
4.569
4.564
4.575
4.593
4.577
4.574
4.577
4.563
4.564
4.559
4.556
4.555
4.559
4.553
4.557
4.547
4.552
4.552
4.536
4.541
4.563
4.578
4.567
4.568
4.558
4.553
4.547
4.563
4.583
4.579
4.575
4.558
4.541
4.546
4.554
4.574
4.575
4.570
4.573
4.567
4.572
4.570
4.568
4.575
4.591
4.592
4.583
4.584
4.582
4.579
4.571
4.564
4.583
4.594
4.595
4.599
4.595
4.589
4.589
4.591
4.594
4.585
4.598
4.615
4.619
4.610
4.605
4.610
4.603
4.595
4.596
4.596
4.602
4.616
4.626
4.624
4.611
4.598
4.592
4.594
4.587
4.578
4.586
4.603
4.592
4.597
4.589
4.595
4.593
4.587
4.594
4.582
4.597
4.604
4.598
4.609
4.617
4.610
4.611
4.603
4.609
4.602
4.604
4.600
4.605
4.608
4.604
4.599
4.614
4.629
4.634
4.634
4.627
4.633
4.625
4.626
4.625
4.630
4.625
4.629
4.622
4.618
4.616
4.631
4.645
4.653
4.649
4.657
4.650
4.640
4.632
4.635
4.623
4.627
4.628
4.631
4.628
4.626
4.628
4.642
4.642
4.646
4.637
4.635
4.642
4.639
4.639
4.631
4.626
4.630
4.632
4.630
4.629
4.620
4.622
4.632
4.645
4.658
4.671
4.677
4.678
4.672
4.666
4.663
4.657
4.653
4.658
4.670
4.668
4.674
4.664
4.662
4.651
4.653
4.651
4.651
4.663
4.676
4.684
4.683
4.678
4.686
4.681
4.689
4.682
4.683
4.675
4.669
4.657
4.658
4.666
4.659
4.659
4.659
4.652
4.645
4.655
4.667
4.666
4.666
4.667
4.663
4.655
4.655
4.659
4.652
4.647
4.642
4.631
4.632
4.626
4.629
4.626
4.625
4.610
4.610
4.621
4.632
4.643
4.651
4.654
4.660
4.658
4.652
4.650
4.647
4.643
4.641
4.643
4.646
4.648
4.642
4.638
4.636
4.639
4.648
4.638
4.635
4.636
4.629
4.634
4.639
4.632
4.634
4.644
4.655
4.649
4.650
4.640
4.640
4.634
4.645
4.642
4.645
4.646
4.645
4.635
4.638
4.633
4.637
4.629
4.626
4.628
4.620
4.622
4.623
4.624
4.627
4.632
4.642
4.641
4.637
4.637
4.641
4.651
4.660
4.670
4.667
4.664
4.664
4.656
4.655
4.657
4.656
4.646
4.640
4.638
4.638
4.640
4.650
4.651
4.649
4.647
4.649
4.640
4.630
4.627
4.629
4.627
4.624
4.622
4.628
4.632
4.623
4.619
4.627
4.636
4.645
4.654
4.664
4.673
4.669
4.679
4.684
4.677
4.675
4.677
4.672
4.673
4.663
4.655
4.653
4.649
4.647
4.638
4.640
4.649
4.646
4.645
4.644
4.644
4.643
4.639
4.648
4.643
4.647
4.648
4.646
4.644
4.640
4.636
4.642
4.645
4.648
4.649
4.642
4.648
4.656
4.665
4.673
4.682
4.678
4.672
4.674
4.675
4.669
4.669
4.678
4.683
4.679
4.676
4.684
4.684
4.685
4.681
4.678
4.672
4.675
4.674
4.671
4.675
4.675
4.672
4.666
4.659
4.657
4.653
4.660
4.660
4.664
4.658
4.664
4.664
4.659
4.652
4.649
4.651
4.647
4.659
4.653
4.652
4.657
4.654
4.662
4.670
4.678
4.686
4.693
4.701
4.709
4.717
4.719
4.718
4.713
4.716
4.711
4.710
4.700
4.705
4.711
4.705
4.701
4.702
4.701
4.700
4.700
4.700
4.701
4.691
4.694
4.699
4.698
4.697
4.704
4.703
4.698
4.698
4.698
4.704
4.715
4.713
4.709
4.701
4.691
4.697
4.695
4.693
4.688
4.680
4.673
4.677
4.679
4.680
4.679
4.679
4.675
4.668
4.665
4.672
4.680
4.687
4.694
4.701
4.709
4.702
4.701
4.706
4.709
4.703
4.702
4.704
4.697
4.694
4.693
4.692
4.692
4.695
4.694
4.690
4.690
4.689
4.685
4.682
4.685
4.686
4.684
4.684
4.675
4.669
4.662
4.658
4.660
4.665
4.667
4.669
4.658
4.659
4.654
4.663
4.662
4.663
4.671
4.681
4.686
4.682
4.673
4.666
4.657
4.659
4.655
4.650
4.660
4.651
4.652
4.649
4.644
4.646
4.636
4.643
4.649
4.656
4.663
4.669
4.676
4.683
4.689
4.696
4.702
4.709
4.716
4.722
4.727
4.726
4.723
4.717
4.717
4.709
4.712
4.713
4.715
4.714
4.706
4.707
4.702
4.701
4.696
4.695
4.699
4.708
4.711
4.713
4.714
4.710
4.708
4.713
4.715
4.707
4.699
4.698
4.701
4.703
4.698
4.698
4.702
4.705
4.704
4.708
4.707
4.703
4.700
4.706
4.706
4.698
4.696
4.690
4.701
4.700
4.697
4.691
4.688
4.686
4.686
4.683
4.688
4.686
4.686
4.686
4.681
4.680
4.686
4.693
4.691
4.691
4.692
4.693
4.690
4.699
4.703
4.698
4.700
4.694
4.692
4.697
4.697
4.692
4.695
4.701
4.707
4.713
4.719
4.724
4.730
4.736
4.736
4.740
4.741
4.737
4.739
4.731
4.728
4.723
4.719
4.718
4.717
4.713
4.710
4.704
4.710
4.707
4.700
4.693
4.695
4.688
4.688
4.689
4.688
4.684
4.680
4.687
4.684
4.686
4.690
4.687
4.683
4.680
4.680
4.683
4.677
4.679
4.680
4.683
4.691
4.693
4.690
4.686
4.686
4.687
4.678
4.680
4.680
4.679
4.677
4.677
4.680
4.680
4.683
4.683
4.677
4.671
4.667
4.663
4.658
4.659
4.658
4.656
4.648
4.650
4.653
4.656
4.646
4.643
4.643
4.646
4.641
4.642
4.636
4.642
4.640
4.634
4.643
4.645
4.643
4.649
4.655
4.647
4.648
4.653
4.658
4.664
4.669
4.674
4.680
4.685
4.690
4.695
4.701
4.706
4.711
4.716
4.722
4.727
4.732
4.738
4.743
4.748
4.750
4.749
4.744
4.736
4.741
4.745
4.742
4.750
4.747
4.755
4.762
4.756
4.753
4.755
4.753
4.751
4.746
4.737
4.739
4.733
4.731
4.734
4.733
4.730
4.722
4.716
4.716
4.717
4.710
4.712
4.709
4.713
4.713
4.712
4.707
4.707
4.710
4.710
4.708
4.706
4.704
4.713
4.710
4.705
4.699
4.694
4.690
4.684
4.679
4.674
4.677
4.678
4.672
4.672
4.668
4.670
4.666
4.664
4.661
4.666
4.663
4.667
4.669
4.668
4.670
4.667
4.660
4.653
4.646
4.645
4.652
4.658
4.665
4.664
4.662
4.669
4.675
4.676
4.677
4.675
4.669
4.674
4.673
4.665
4.669
4.671
4.665
4.667
4.664
4.671
4.672
4.673
4.674
4.677
4.679
4.678
4.683
4.691
4.692
4.691
4.688
4.686
