2.991
3.335
3.510
3.615
3.708
3.789
3.833
3.856
3.919
3.971
3.945
3.988
4.023
4.056
4.087
4.122
4.135
4.077
4.065
4.083
4.097
4.119
4.129
4.134
4.158
4.160
4.177
4.178
4.198
4.211
4.211
4.228
4.239
4.237
4.245
4.256
4.271
4.267
4.270
4.286
4.292
4.302
4.296
4.302
4.312
4.317
4.325
4.339
4.340
4.336
4.337
4.338
4.353
4.357
4.357
4.368
4.377
4.383
4.390
4.397
4.378
4.378
4.380
4.392
4.394
4.405
4.405
4.410
4.418
4.423
4.429
4.426
4.427
4.436
4.448
4.451
4.457
4.449
4.428
4.426
4.436
4.443
4.450
4.450
4.456
4.461
4.451
4.457
4.457
4.469
4.474
4.477
4.477
4.490
4.490
4.478
4.488
4.491
4.495
4.497
4.507
4.508
4.512
4.508
4.519
4.516
4.526
4.518
4.525
4.525
4.526
4.525
4.508
4.505
4.502
4.499
4.509
4.515
4.510
4.519
4.513
4.521
4.525
4.531
4.533
4.522
4.518
4.527
4.522
4.527
4.531
4.532
4.531
4.541
4.538
4.542
4.548
4.556
4.550
4.544
4.553
4.556
4.563
4.567
4.564
4.576
4.571
4.565
4.560
4.565
4.565
4.556
4.567
4.566
4.572
4.568
4.572
4.574
4.572
4.587
4.581
4.593
4.588
4.595
4.590
4.590
4.591
4.586
4.599
4.600
4.602
4.603
4.600
4.616
4.614
4.607
4.621
4.613
4.619
4.621
4.620
4.614
4.610
4.613
4.618
4.617
4.619
4.614
4.604
4.619
4.616
4.612
4.625
4.622
4.621
4.625
4.635
4.629
4.630
4.642
4.640
4.640
4.642
4.644
4.643
4.643
4.657
4.650
4.651
4.642
4.632
4.624
4.614
4.605
4.600
4.620
4.616
4.610
4.610
4.625
4.623
4.621
4.608
4.628
4.623
4.618
4.619
4.628
4.633
4.627
4.625
4.626
4.644
4.643
4.638
4.634
4.637
4.649
4.642
4.630
4.627
4.635
4.632
4.623
4.617
4.633
4.628
4.618
4.617
4.617
4.629
4.626
4.625
4.617
4.616
4.631
4.632
4.630
4.626
4.627
4.630
4.647
4.648
4.639
4.632
4.632
4.639
4.652
4.652
4.638
4.640
4.633
4.643
4.653
4.651
4.647
4.642
4.636
4.643
4.660
4.656
4.655
4.657
4.653
4.652
4.656
4.671
4.669
4.668
4.666
4.663
4.664
4.663
4.663
4.666
4.657
4.654
4.654
4.651
4.665
4.671
4.660
4.653
4.655
4.654
4.652
4.662
4.670
4.676
4.673
4.669
4.670
4.673
4.667
4.669
4.683
4.683
4.678
4.668
4.668
4.666
4.666
4.670
4.684
4.696
4.688
4.683
4.688
4.691
4.684
4.684
4.686
4.693
4.704
4.703
4.694
4.695
4.690
4.693
4.698
4.696
4.695
4.706
4.703
4.703
4.710
4.707
4.700
4.691
4.693
4.695
4.687
4.687
4.683
4.674
4.674
4.670
4.672
4.669
4.681
4.693
4.689
4.690
4.681
4.672
4.662
4.664
4.670
4.667
4.676
4.684
4.684
4.680
4.680
4.686
4.681
4.673
4.676
4.675
4.669
4.677
4.689
4.701
4.704
4.703
4.698
4.690
4.685
4.686
4.685
4.682
4.677
4.681
4.693
4.702
4.702
4.706
4.698
4.690
4.683
4.681
4.677
4.678
4.675
4.677
4.688
4.700
4.704
4.707
4.700
4.694
4.702
4.698
4.698
4.692
4.688
4.691
4.683
4.687
4.698
4.709
4.720
4.725
4.718
4.712
4.709
4.704
4.702
4.706
4.705
4.703
4.706
4.697
4.700
4.708
4.713
4.716
4.712
4.710
4.715
4.712
4.713
4.711
4.710
4.710
4.705
4.708
4.711
4.712
4.710
4.717
4.728
4.738
4.740
4.739
4.735
4.734
4.732
4.733
4.729
4.728
4.727
4.724
4.723
4.720
4.721
4.716
4.726
4.736
4.746
4.748
4.744
4.735
4.732
4.730
4.726
4.726
4.725
4.723
4.716
4.709
4.706
4.702
4.712
4.721
4.731
4.736
4.730
4.733
4.730
4.726
4.726
4.727
4.720
4.710
4.708
4.707
4.706
4.703
4.702
4.703
4.705
4.715
4.724
4.733
4.734
4.729
4.728
4.733
4.736
4.733
4.732
4.730
4.737
4.734
4.732
4.731
4.722
4.714
4.709
4.711
4.711
4.713
4.722
4.731
4.736
4.746
4.745
4.741
4.744
4.745
4.743
4.745
4.740
4.738
4.735
4.740
4.737
4.741
4.745
4.736
4.733
4.729
4.724
4.725
4.727
4.731
4.740
4.748
4.757
4.753
4.761
4.765
4.756
4.758
4.765
4.768
4.765
4.765
4.764
4.760
4.754
4.753
4.751
4.746
4.748
4.750
4.744
4.750
4.756
4.751
4.745
4.748
4.757
4.765
4.773
4.771
4.776
4.771
4.766
4.769
4.763
4.763
4.757
4.756
4.760
4.756
4.754
4.747
4.742
4.746
4.742
4.739
4.737
4.731
4.728
4.731
4.739
4.747
4.755
4.763
4.771
4.773
4.771
4.772
4.766
4.763
4.765
4.756
4.760
4.763
4.761
4.755
4.761
4.759
4.756
4.751
4.752
4.760
4.759
4.762
4.760
4.759
4.752
4.753
4.752
4.751
4.754
4.758
4.765
4.772
4.780
4.788
4.791
4.790
4.792
4.795
4.792
4.790
4.789
4.790
4.785
4.786
4.784
4.788
4.787
4.789
4.788
4.792
4.787
4.786
4.786
4.786
4.784
4.784
4.775
4.766
4.773
4.771
4.777
4.775
4.769
4.775
4.782
4.789
4.797
4.804
4.811
4.802
4.796
4.795
4.793
4.793
4.796
4.798
4.793
4.789
4.785
4.781
4.777
4.773
4.769
4.765
4.761
4.757
4.753
4.749
4.745
4.741
4.743
4.739
4.739
4.741
4.747
4.754
4.761
4.768
4.775
4.775
4.774
4.777
4.783
4.786
4.789
4.785
4.780
4.775
4.770
4.765
4.761
4.756
4.752
4.754
4.751
4.748
4.751
4.745
4.744
4.744
4.745
4.746
4.751
4.749
4.752
4.751
4.746
4.755
4.755
4.750
4.749
4.747
4.743
4.750
4.756
4.762
4.769
4.775
4.772
4.766
4.766
4.762
4.758
4.760
4.758
4.758
4.759
4.758
4.763
4.769
4.774
4.770
4.768
4.766
4.767
4.761
4.759
4.759
4.760
4.756
4.759
4.760
4.758
4.757
4.752
4.749
4.753
4.754
4.759
4.757
4.755
4.753
4.746
4.746
4.755
4.758
4.758
4.754
4.760
4.766
4.772
4.778
4.776
4.777
4.777
4.774
4.776
4.773
4.768
4.765
4.763
4.768
4.771
4.771
4.764
4.758
4.750
4.752
4.748
4.745
4.751
4.745
4.748
4.752
4.759
4.756
4.753
4.755
4.755
4.753
4.757
4.751
4.747
4.748
4.742
4.740
4.745
4.740
4.741
4.742
4.740
4.739
4.738
4.744
4.746
4.750
4.756
4.761
4.767
4.773
4.779
4.784
4.790
4.795
4.795
4.793
4.792
4.784
4.789
4.790
4.790
4.786
4.779
4.778
4.778
4.773
4.778
4.780
4.775
4.774
4.772
4.774
4.773
4.771
4.762
4.762
4.757
4.752
4.746
4.744
4.743
4.743
4.739
4.745
4.743
4.745
4.745
4.752
4.754
4.757
4.763
4.756
4.756
4.760
4.759
4.752
4.749
4.747
4.746
4.744
4.749
4.755
4.760
4.765
4.771
4.776
4.781
4.787
4.788
4.786
4.786
4.784
4.786
4.780
4.783
4.785
4.789
4.789
4.787
4.785
4.783
4.780
4.784
4.783
4.781
4.782
4.783
4.781
4.782
4.785
4.786
4.785
4.784
4.780
4.779
4.776
4.780
4.780
4.778
4.774
4.772
4.767
4.768
4.762
4.759
4.762
4.759
4.759
4.756
4.756
4.757
4.757
4.754
4.749
4.741
4.740
4.742
4.738
4.739
4.739
4.737
4.744
4.750
4.755
4.755
4.759
4.764
4.769
4.774
4.779
4.784
4.789
4.794
4.799
4.804
4.805
4.804
4.802
4.802
4.799
4.806
4.801
4.799
4.799
4.797
4.797
4.798
4.796
4.794
4.792
4.791
4.786
4.789
4.788
4.794
4.793
4.796
4.798
4.795
4.794
4.787
4.784
4.778
4.772
4.766
4.764
4.762
4.762
4.768
4.773
4.773
4.778
4.780
4.776
4.779
4.779
4.777
4.776
4.777
4.776
4.777
