2.989
3.316
3.486
3.621
3.724
3.768
3.776
3.841
3.905
3.960
3.988
3.908
3.927
3.957
3.977
3.999
4.020
4.049
4.057
4.078
4.086
4.116
4.108
4.124
4.146
4.149
4.162
4.179
4.189
4.190
4.191
4.203
4.224
4.231
4.248
4.257
4.230
4.247
4.254
4.265
4.274
4.278
4.285
4.301
4.317
4.315
4.286
4.299
4.304
4.318
4.313
4.324
4.332
4.337
4.339
4.339
4.344
4.356
4.363
4.367
4.382
4.385
4.392
4.378
4.397
4.400
4.371
4.367
4.378
4.380
4.382
4.398
4.384
4.385
4.391
4.393
4.404
4.407
4.410
4.407
4.409
4.413
4.422
4.431
4.440
4.430
4.435
4.426
4.430
4.433
4.448
4.445
4.453
4.465
4.452
4.456
4.466
4.459
4.479
4.481
4.479
4.490
4.479
4.500
4.485
4.486
4.482
4.471
4.487
4.479
4.497
4.492
4.508
4.497
4.519
4.501
4.524
4.517
4.521
4.532
4.515
4.529
4.522
4.507
4.494
4.488
4.480
4.489
4.491
4.498
4.500
4.503
4.512
4.508
4.504
4.522
4.521
4.513
4.494
4.486
4.497
4.491
4.484
4.496
4.496
4.488
4.492
4.512
4.510
4.500
4.511
4.518
4.517
4.500
4.526
4.520
4.512
4.513
4.528
4.530
4.526
4.526
4.540
4.539
4.546
4.534
4.539
4.532
4.528
4.521
4.533
4.538
4.538
4.521
4.529
4.547
4.555
4.553
4.540
4.531
4.555
4.557
4.554
4.548
4.546
4.556
4.576
4.576
4.569
4.560
4.561
4.575
4.588
4.576
4.578
4.569
4.570
4.585
4.586
4.574
4.585
4.571
4.565
4.566
4.560
4.561
4.554
4.552
4.560
4.554
4.549
4.553
4.546
4.537
4.547
4.569
4.578
4.570
4.568
4.556
4.557
4.547
4.568
4.582
4.578
4.572
4.554
4.545
4.548
4.558
4.577
4.573
4.575
4.576
4.571
4.571
4.576
4.568
4.577
4.595
4.595
4.586
4.583
4.583
4.581
4.569
4.565
4.584
4.595
4.596
4.600
4.596
4.590
4.594
4.590
4.597
4.591
4.597
4.614
4.619
4.613
4.610
4.611
4.604
4.604
4.595
4.598
4.602
4.614
4.630
4.626
4.613
4.600
4.592
4.598
4.590
4.582
4.583
4.599
4.597
4.596
4.598
4.594
4.599
4.596
4.592
4.589
4.590
4.598
4.603
4.604
4.615
4.614
4.610
4.602
4.604
4.613
4.610
4.606
4.607
4.607
4.602
4.605
4.608
4.623
4.637
4.639
4.624
4.634
4.631
4.627
4.630
4.629
4.636
4.625
4.631
4.614
4.619
4.623
4.638
4.652
4.647
4.650
4.664
4.649
4.637
4.635
4.630
4.630
4.629
4.627
4.633
4.634
4.621
4.633
4.647
4.646
4.650
4.636
4.635
4.642
4.641
4.641
4.629
4.632
4.632
4.632
4.630
4.630
4.623
4.624
4.635
4.648
4.661
4.672
4.681
4.682
4.670
4.669
4.666
4.656
4.655
4.662
4.672
4.669
4.673
4.665
4.664
4.649
4.655
4.650
4.652
4.664
4.677
4.683
4.683
4.680
4.687
4.682
4.688
4.682
4.683
4.677
4.669
4.658
4.661
4.670
4.663
4.657
4.659
4.652
4.645
4.654
4.666
4.670
4.675
4.668
4.668
4.658
4.659
4.660
4.655
4.649
4.644
4.636
4.634
4.629
4.633
4.626
4.628
4.615
4.613
4.618
4.629
4.640
4.651
4.657
4.656
4.662
4.655
4.648
4.645
4.647
4.647
4.641
4.651
4.649
4.650
4.643
4.642
4.638
4.648
4.642
4.639
4.638
4.636
4.634
4.642
4.642
4.635
4.639
4.650
4.656
4.652
4.652
4.644
4.641
4.637
4.649
4.646
4.646
4.646
4.641
4.640
4.634
4.638
4.637
4.630
4.631
4.629
4.625
4.625
4.626
4.627
4.632
4.636
4.645
4.646
4.637
4.634
4.644
4.654
4.663
4.673
4.670
4.666
4.663
4.658
4.656
4.659
4.654
4.649
4.647
4.643
4.639
4.642
4.656
4.655
4.646
4.648
4.649
4.637
4.632
4.632
4.631
4.628
4.626
4.625
4.632
4.631
4.626
4.626
4.627
4.636
4.645
4.654
4.664
4.673
4.674
4.678
4.687
4.680
4.677
4.679
4.676
4.674
4.667
4.659
4.659
4.647
4.650
4.645
4.640
4.652
4.644
4.649
4.651
4.650
4.649
4.641
4.649
4.647
4.648
4.651
4.649
4.650
4.646
4.641
4.644
4.647
4.649
4.648
4.646
4.645
4.654
4.662
4.671
4.679
4.681
4.672
4.675
4.678
4.674
4.669
4.677
4.683
4.684
4.678
4.679
4.688
4.686
4.688
4.679
4.681
4.679
4.677
4.676
4.675
4.680
4.676
4.674
4.661
4.662
4.658
4.658
4.664
4.662
4.665
4.661
4.667
4.665
4.659
4.653
4.649
4.655
4.651
4.661
4.654
4.653
4.654
4.657
4.665
4.673
4.680
4.688
4.696
4.704
4.712
4.719
4.720
4.720
4.710
4.720
4.716
4.707
4.702
4.709
4.709
4.706
4.704
4.703
4.704
4.702
4.703
4.703
4.701
4.693
4.696
4.701
4.699
4.703
4.707
4.703
4.700
4.700
4.700
4.704
4.717
4.715
4.709
4.700
4.692
4.699
4.698
4.695
4.688
4.680
4.674
4.678
4.680
4.684
4.682
4.681
4.677
4.668
4.664
4.672
4.679
4.686
4.693
4.700
4.707
4.705
4.702
4.708
4.710
4.703
4.703
4.704
4.700
4.697
4.689
4.695
4.694
4.696
4.695
4.694
4.695
4.693
4.688
4.686
4.689
4.691
4.684
4.687
4.678
4.673
4.668
4.660
4.663
4.665
4.665
4.671
4.666
4.659
4.659
4.663
4.663
4.667
4.669
4.676
4.686
4.687
4.677
4.670
4.663
4.663
4.657
4.655
4.654
4.659
4.655
4.658
4.650
4.645
4.643
4.640
4.648
4.652
4.659
4.666
4.672
4.679
4.685
4.692
4.698
4.705
4.711
4.718
4.724
4.725
4.728
4.725
4.722
4.716
4.710
4.714
4.713
4.719
4.711
4.708
4.712
4.701
4.703
4.699
4.695
4.700
4.709
4.714
4.715
4.716
4.708
4.711
4.716
4.714
4.710
4.701
4.699
4.702
4.703
4.700
4.703
4.702
4.710
4.710
4.708
4.711
4.702
4.701
4.706
4.706
4.698
4.697
4.694
4.700
4.700
4.696
4.692
4.689
4.687
4.690
4.689
4.686
4.686
4.691
4.687
4.683
4.682
4.685
4.691
4.695
4.691
4.694
4.698
4.694
4.697
4.704
4.700
4.702
4.698
4.695
4.696
4.698
4.693
4.693
4.699
4.705
4.711
4.717
4.723
4.729
4.735
4.738
4.740
4.742
4.741
4.740
4.736
4.729
4.728
4.723
4.722
4.723
4.718
4.716
4.707
4.706
4.710
4.703
4.699
4.693
4.692
4.689
4.689
4.687
4.688
4.682
4.685
4.689
4.685
4.688
4.691
4.684
4.686
4.683
4.683
4.681
4.679
4.682
4.681
4.686
4.694
4.696
4.686
4.689
4.688
4.685
4.681
4.681
4.679
4.680
4.679
4.681
4.684
4.682
4.684
4.682
4.675
4.669
4.667
4.663
4.663
4.661
4.663
4.654
4.652
4.653
4.654
4.656
4.645
4.645
4.648
4.647
4.647
4.640
4.642
4.643
4.640
4.635
4.644
4.645
4.645
4.652
4.655
4.651
4.648
4.653
4.658
4.664
4.669
4.674
4.680
4.685
4.690
4.695
4.700
4.705
4.711
4.716
4.721
4.727
4.732
4.737
4.742
4.747
4.750
4.753
4.748
4.740
4.743
4.749
4.743
4.749
4.746
4.753
4.761
4.760
4.756
4.756
4.755
4.754
4.748
4.739
4.741
4.738
4.734
4.737
4.734
4.733
4.724
4.717
4.720
4.718
4.714
4.711
4.706
4.713
4.717
4.715
4.711
4.711
4.714
4.711
4.713
4.710
4.706
4.709
4.712
4.707
4.702
4.697
4.692
4.687
4.682
4.677
4.676
4.683
4.677
4.670
4.674
4.668
4.671
4.666
4.667
4.663
4.665
4.666
4.669
4.670
4.671
4.671
4.664
4.657
4.650
4.648
4.647
4.654
4.660
4.667
4.664
4.665
4.672
4.677
4.674
4.680
4.676
4.674
4.677
4.673
4.669
4.670
4.671
4.667
4.667
4.666
4.674
4.676
4.674
4.676
4.677
