2.992
3.335
3.516
3.633
3.719
3.792
3.834
3.879
3.942
3.959
4.007
4.005
4.042
4.077
4.109
4.079
4.098
4.124
4.142
4.168
4.183
4.205
4.224
4.242
4.257
4.241
4.204
4.190
4.205
4.212
4.218
4.230
4.235
4.250
4.253
4.263
4.276
4.277
4.287
4.297
4.297
4.307
4.317
4.312
4.322
4.329
4.338
4.335
4.341
4.349
4.357
4.364
4.360
4.365
4.372
4.376
4.388
4.390
4.397
4.389
4.394
4.401
4.407
4.411
4.415
4.422
4.432
4.423
4.418
4.430
4.432
4.436
4.443
4.445
4.449
4.453
4.459
4.463
4.465
4.460
4.454
4.466
4.467
4.466
4.470
4.479
4.478
4.482
4.484
4.486
4.497
4.502
4.503
4.501
4.508
4.510
4.512
4.499
4.503
4.505
4.505
4.505
4.506
4.510
4.519
4.523
4.520
4.524
4.525
4.529
4.533
4.534
4.541
4.542
4.545
4.546
4.544
4.548
4.557
4.553
4.557
4.564
4.566
4.570
4.572
4.559
4.549
4.551
4.549
4.554
4.550
4.554
4.555
4.559
4.563
4.565
4.571
4.570
4.572
4.576
4.574
4.576
4.579
4.581
4.580
4.581
4.582
4.582
4.586
4.592
4.597
4.594
4.599
4.600
4.602
4.608
4.599
4.598
4.605
4.608
4.604
4.606
4.607
4.616
4.613
4.616
4.624
4.623
4.626
4.628
4.629
4.625
4.632
4.638
4.634
4.639
4.634
4.631
4.635
4.644
4.637
4.627
4.616
4.606
4.613
4.606
4.616
4.611
4.618
4.619
4.624
4.622
4.621
4.630
4.626
4.633
4.624
4.633
4.627
4.633
4.631
4.638
4.637
4.642
4.642
4.638
4.634
4.639
4.635
4.638
4.634
4.638
4.634
4.641
4.642
4.645
4.645
4.647
4.649
4.644
4.649
4.650
4.656
4.658
4.654
4.664
4.656
4.664
4.667
4.657
4.665
4.661
4.665
4.663
4.662
4.677
4.671
4.668
4.679
4.679
4.678
4.680
4.679
4.669
4.667
4.668
4.676
4.671
4.671
4.682
4.678
4.674
4.678
4.672
4.675
4.683
4.678
4.680
4.686
4.683
4.682
4.688
4.684
4.686
4.689
4.694
4.694
4.691
4.701
4.702
4.700
4.699
4.705
4.702
4.700
4.707
4.700
4.697
4.700
4.702
4.705
4.705
4.708
4.715
4.711
4.710
4.712
4.719
4.714
4.716
4.717
4.724
4.719
4.719
4.719
4.731
4.730
4.723
4.719
4.713
4.712
4.715
4.717
4.719
4.720
4.721
4.723
4.729
4.727
4.719
4.717
4.724
4.725
4.721
4.716
4.719
4.725
4.727
4.723
4.727
4.727
4.734
4.733
4.734
4.728
4.731
4.742
4.745
4.742
4.740
4.736
4.746
4.749
4.743
4.745
4.742
4.749
4.753
4.749
4.753
4.747
4.742
4.736
4.731
4.727
4.721
4.717
4.723
4.719
4.712
4.720
4.724
4.722
4.715
4.708
4.713
4.719
4.719
4.720
4.716
4.714
4.718
4.728
4.727
4.722
4.726
4.722
4.719
4.730
4.734
4.727
4.721
4.719
4.719
4.727
4.734
4.734
4.738
4.731
4.729
4.728
4.734
4.738
4.735
4.738
4.740
4.736
4.737
4.739
4.751
4.755
4.754
4.752
4.748
4.741
4.737
4.730
4.729
4.728
4.726
4.725
4.729
4.738
4.738
4.738
4.737
4.733
4.729
4.725
4.734
4.731
4.723
4.722
4.721
4.722
4.724
4.728
4.738
4.736
4.738
4.734
4.729
4.727
4.723
4.730
4.738
4.734
4.734
4.731
4.731
4.734
4.732
4.734
4.738
4.744
4.743
4.745
4.749
4.742
4.743
4.742
4.748
4.744
4.753
4.752
4.748
4.750
4.754
4.752
4.746
4.742
4.743
4.753
4.754
4.749
4.746
4.747
4.746
4.747
4.745
4.745
4.751
4.760
4.757
4.761
4.756
4.758
4.754
4.750
4.754
4.752
4.754
4.763
4.765
4.769
4.767
4.766
4.765
4.768
4.768
4.768
4.765
4.764
4.773
4.779
4.775
4.772
4.767
4.758
4.765
4.761
4.753
4.758
4.767
4.772
4.771
4.769
4.770
4.764
4.767
4.768
4.762
4.760
4.760
4.766
4.771
4.768
4.767
4.763
4.764
4.764
4.764
4.763
4.767
4.758
4.762
4.771
4.779
4.782
4.782
4.779
4.776
4.772
4.773
4.775
4.776
4.775
4.776
4.772
4.779
4.788
4.790
4.785
4.782
4.779
4.776
4.772
4.771
4.772
4.775
4.775
4.775
4.783
4.790
4.793
4.792
4.793
4.794
4.790
4.790
4.793
4.789
4.788
4.789
4.786
4.786
4.790
4.798
4.805
4.812
4.810
4.806
4.805
4.800
4.796
4.794
4.797
4.797
4.796
4.795
4.794
4.797
4.804
4.808
4.807
4.803
4.805
4.805
4.802
4.798
4.793
4.789
4.785
4.781
4.783
4.790
4.786
4.789
4.785
4.782
4.783
4.779
4.783
4.782
4.785
4.779
4.777
4.776
4.774
4.779
4.786
4.792
4.791
4.797
4.791
4.787
4.780
4.775
4.771
4.771
4.766
4.767
4.764
4.765
4.769
4.776
4.783
4.786
4.791
4.787
4.788
4.787
4.786
4.787
4.783
4.779
4.779
4.781
4.775
4.778
4.775
4.779
4.779
4.782
4.790
4.797
4.797
4.798
4.799
4.797
4.791
4.792
4.790
4.790
4.791
4.798
4.797
4.797
4.796
4.789
4.783
4.782
4.790
4.795
4.802
4.803
4.801
4.794
4.793
4.790
4.794
4.790
4.796
4.790
4.791
4.792
4.790
4.787
4.783
4.779
4.780
4.787
4.794
4.800
4.797
4.794
4.794
4.790
4.793
4.792
4.794
4.794
4.790
4.789
4.790
4.789
4.791
4.790
4.786
4.786
4.785
4.787
4.791
4.798
4.804
4.811
4.813
4.811
4.812
4.809
4.804
4.801
4.807
4.806
4.807
4.805
4.805
4.808
4.805
4.805
4.807
4.806
4.805
4.808
4.805
4.805
4.807
4.812
4.818
4.812
4.815
4.816
4.816
4.816
4.818
4.819
4.815
4.811
4.807
4.805
4.802
4.803
4.801
4.797
4.801
4.808
4.805
4.801
4.802
4.806
4.812
4.817
4.823
4.825
4.823
4.823
4.818
4.819
4.819
4.820
4.821
4.822
4.826
4.827
4.823
4.819
4.816
4.817
4.816
4.819
4.818
4.819
4.818
4.817
4.813
4.814
4.819
4.827
4.832
4.838
4.843
4.839
4.843
4.838
4.837
4.838
4.835
4.833
4.837
4.831
4.832
4.833
4.831
4.827
4.829
4.830
4.826
4.823
4.823
4.825
4.819
4.823
4.824
4.823
4.827
4.833
4.831
4.827
4.823
4.819
4.819
4.819
4.818
4.817
4.815
4.811
4.812
4.808
4.810
4.809
4.812
4.809
4.810
4.811
4.808
4.812
4.815
4.814
4.815
4.811
4.815
4.820
4.826
4.830
4.835
4.834
4.832
4.830
4.826
4.822
4.821
4.820
4.815
4.811
4.813
4.820
4.818
4.820
4.816
4.816
4.813
4.809
4.810
4.806
4.807
4.806
4.807
4.805
4.804
4.806
4.812
4.817
4.821
4.827
4.832
4.833
4.835
4.842
4.846
4.841
4.838
4.838
4.835
4.838
4.837
4.838
4.837
4.839
4.837
4.831
4.827
4.828
4.826
4.822
4.821
4.823
4.823
4.823
4.826
4.822
4.819
4.816
4.813
4.814
4.818
4.823
4.827
4.833
4.838
4.844
4.845
4.844
4.842
4.844
4.846
4.841
4.840
4.838
4.843
4.844
4.846
4.845
4.846
4.849
4.843
4.839
4.845
4.844
4.845
4.845
4.843
4.841
4.842
4.836
4.832
4.830
4.829
4.831
4.829
4.831
4.827
4.831
4.832
4.836
4.842
4.847
4.849
4.855
4.860
4.864
4.864
4.860
4.859
4.855
4.854
4.858
4.856
4.855
4.854
4.858
4.859
4.858
4.857
4.858
4.862
4.860
4.865
4.864
4.859
4.857
4.854
4.852
4.851
4.853
4.853
4.849
4.846
4.845
4.845
4.847
4.848
4.847
4.845
4.842
4.848
4.853
4.856
4.861
4.867
4.872
4.870
4.869
4.870
4.868
4.871
4.871
4.871
4.869
4.864
4.864
4.865
4.866
4.862
4.858
4.856
4.852
4.848
4.845
4.843
4.839
4.840
4.839
4.838
4.836
4.835
4.841
4.840
4.839
4.842
4.841
