2.991
3.333
3.505
3.622
3.718
3.784
3.815
3.893
3.877
3.925
3.971
4.008
4.043
4.058
3.987
4.003
4.027
4.049
4.060
4.087
4.096
4.103
4.123
4.124
4.151
4.168
4.170
4.181
4.196
4.191
4.210
4.221
4.233
4.229
4.238
4.249
4.260
4.265
4.283
4.272
4.277
4.288
4.290
4.302
4.313
4.317
4.331
4.313
4.315
4.329
4.336
4.338
4.343
4.352
4.361
4.360
4.368
4.375
4.381
4.394
4.391
4.362
4.366
4.379
4.380
4.392
4.395
4.393
4.389
4.407
4.408
4.409
4.421
4.428
4.427
4.421
4.431
4.440
4.440
4.446
4.458
4.458
4.464
4.456
4.466
4.463
4.472
4.459
4.438
4.443
4.452
4.448
4.451
4.458
4.463
4.470
4.470
4.462
4.463
4.458
4.456
4.472
4.476
4.481
4.474
4.490
4.494
4.482
4.486
4.500
4.509
4.496
4.506
4.512
4.502
4.502
4.508
4.503
4.508
4.510
4.501
4.515
4.512
4.524
4.524
4.526
4.534
4.533
4.533
4.527
4.548
4.537
4.546
4.546
4.555
4.554
4.555
4.558
4.553
4.568
4.550
4.554
4.551
4.557
4.550
4.554
4.553
4.558
4.557
4.561
4.577
4.570
4.569
4.578
4.579
4.583
4.585
4.583
4.587
4.593
4.591
4.594
4.592
4.584
4.573
4.561
4.561
4.553
4.552
4.567
4.561
4.546
4.565
4.563
4.560
4.563
4.577
4.574
4.575
4.579
4.587
4.581
4.577
4.591
4.586
4.571
4.575
4.567
4.566
4.559
4.567
4.564
4.556
4.558
4.565
4.564
4.565
4.556
4.579
4.579
4.579
4.576
4.573
4.587
4.584
4.587
4.579
4.585
4.587
4.585
4.582
4.581
4.592
4.598
4.590
4.587
4.592
4.594
4.615
4.607
4.607
4.603
4.599
4.612
4.621
4.606
4.598
4.593
4.604
4.608
4.612
4.604
4.591
4.592
4.611
4.610
4.606
4.608
4.610
4.604
4.613
4.631
4.630
4.615
4.612
4.606
4.609
4.627
4.628
4.628
4.627
4.631
4.621
4.629
4.634
4.652
4.644
4.640
4.641
4.638
4.633
4.635
4.653
4.649
4.651
4.647
4.646
4.636
4.637
4.646
4.644
4.634
4.624
4.614
4.614
4.617
4.633
4.634
4.630
4.631
4.619
4.606
4.609
4.614
4.626
4.630
4.627
4.625
4.622
4.616
4.616
4.621
4.622
4.634
4.645
4.641
4.637
4.635
4.624
4.624
4.619
4.621
4.630
4.646
4.649
4.641
4.627
4.627
4.624
4.623
4.616
4.618
4.633
4.647
4.650
4.648
4.640
4.642
4.636
4.637
4.647
4.646
4.640
4.640
4.654
4.661
4.661
4.655
4.653
4.656
4.654
4.655
4.647
4.634
4.637
4.650
4.664
4.668
4.662
4.663
4.659
4.653
4.662
4.665
4.660
4.660
4.652
4.656
4.662
4.676
4.684
4.687
4.684
4.680
4.675
4.680
4.672
4.665
4.671
4.662
4.668
4.667
4.675
4.686
4.683
4.681
4.680
4.676
4.666
4.657
4.650
4.658
4.653
4.655
4.659
4.662
4.674
4.677
4.670
4.660
4.661
4.657
4.655
4.655
4.658
4.651
4.657
4.654
4.651
4.655
4.660
4.672
4.684
4.690
4.690
4.677
4.678
4.675
4.672
4.672
4.660
4.660
4.662
4.669
4.668
4.665
4.665
4.668
4.679
4.690
4.702
4.702
4.695
4.691
4.688
4.689
4.688
4.685
4.690
4.684
4.676
4.679
4.683
4.677
4.685
4.687
4.685
4.691
4.702
4.713
4.711
4.716
4.714
4.715
4.711
4.709
4.708
4.705
4.700
4.705
4.708
4.710
4.703
4.695
4.689
4.685
4.685
4.696
4.706
4.714
4.709
4.713
4.708
4.701
4.700
4.695
4.698
4.696
4.697
4.695
4.690
4.693
4.688
4.691
4.694
4.697
4.684
4.686
4.691
4.701
4.711
4.721
4.729
4.724
4.721
4.722
4.719
4.714
4.723
4.720
4.716
4.712
4.719
4.716
4.719
4.720
4.721
4.720
4.713
4.709
4.706
4.704
4.714
4.711
4.717
4.724
4.734
4.743
4.752
4.752
4.751
4.745
4.737
4.732
4.730
4.730
4.731
4.733
4.731
4.734
4.737
4.737
4.725
4.725
4.723
4.721
4.720
4.725
4.725
4.728
4.728
4.722
4.731
4.730
4.725
4.720
4.715
4.716
4.720
4.720
4.712
4.707
4.710
4.708
4.704
4.708
4.709
4.709
4.708
4.703
4.697
4.706
4.714
4.707
4.706
4.705
4.702
4.696
4.704
4.712
4.721
4.724
4.728
4.733
4.726
4.718
4.713
4.705
4.703
4.702
4.708
4.712
4.716
4.712
4.708
4.703
4.693
4.690
4.692
4.693
4.691
4.685
4.683
4.683
4.684
4.686
4.690
4.685
4.684
4.692
4.700
4.708
4.716
4.724
4.732
4.738
4.729
4.726
4.723
4.722
4.727
4.723
4.720
4.723
4.730
4.731
4.730
4.723
4.716
4.709
4.702
4.699
4.699
4.696
4.696
4.694
4.692
4.689
4.687
4.686
4.686
4.677
4.674
4.677
4.681
4.689
4.697
4.704
4.712
4.719
4.727
4.725
4.719
4.720
4.719
4.719
4.718
4.729
4.727
4.725
4.726
4.727
4.723
4.731
4.730
4.730
4.733
4.729
4.723
4.717
4.716
4.709
4.711
4.708
4.702
4.707
4.698
4.691
4.695
4.695
4.705
4.706
4.699
4.702
4.700
4.701
4.696
4.695
4.702
4.709
4.716
4.723
4.730
4.736
4.734
4.726
4.728
4.722
4.728
4.730
4.725
4.726
4.726
4.723
4.721
4.715
4.710
4.711
4.713
4.722
4.721
4.720
4.718
4.721
4.717
4.713
4.709
4.709
4.715
4.717
4.713
4.712
4.712
4.712
4.715
4.712
4.713
4.710
4.709
4.709
4.702
4.704
4.697
4.693
4.693
4.700
4.707
4.713
4.720
4.727
4.733
4.740
4.743
4.743
4.746
4.744
4.742
4.744
4.742
4.743
4.750
4.748
4.742
4.737
4.732
4.736
4.733
4.731
4.725
4.724
4.722
4.726
4.729
4.729
4.728
4.728
4.723
4.724
4.723
4.720
4.716
4.721
4.725
4.727
4.732
4.729
4.727
4.726
4.726
4.718
4.713
4.714
4.709
4.705
4.709
4.705
4.704
4.702
4.698
4.701
4.703
4.709
4.716
4.722
4.728
4.734
4.740
4.746
4.752
4.759
4.754
4.754
4.752
4.748
4.756
4.764
4.759
4.757
4.758
4.757
4.753
4.761
4.761
4.759
4.754
4.757
4.756
4.752
4.751
4.749
4.742
4.739
4.739
4.743
4.744
4.745
4.738
4.734
4.731
4.727
4.724
4.727
4.736
4.739
4.743
4.738
4.743
4.740
4.743
4.738
4.740
4.736
4.734
4.734
4.727
4.729
4.726
4.734
4.738
4.735
4.738
4.742
4.733
4.730
4.732
4.732
4.733
4.729
4.729
4.737
4.740
4.745
4.751
4.757
4.762
4.768
4.774
4.779
4.785
4.791
4.793
4.800
4.797
4.792
4.786
4.783
4.788
4.784
4.782
4.786
4.786
4.791
4.785
4.782
4.783
4.780
4.777
4.778
4.775
4.775
4.771
4.769
4.763
4.758
4.763
4.764
4.772
4.774
4.770
4.768
4.770
4.767
4.766
4.768
4.768
4.761
4.760
4.762
4.755
4.753
4.748
4.746
4.743
4.742
4.744
4.746
4.743
4.741
4.742
4.743
4.746
4.741
4.737
4.732
4.728
4.723
4.722
4.721
4.719
4.712
4.712
4.715
4.720
4.725
4.730
4.736
4.741
4.746
4.751
4.756
4.760
4.767
4.768
4.769
4.776
4.784
4.779
4.772
4.769
4.768
4.764
4.765
4.768
4.762
4.764
4.769
4.767
4.761
4.764
4.762
4.758
4.755
4.759
4.757
4.753
4.748
4.746
4.749
4.754
4.750
4.744
4.744
4.745
4.738
4.742
4.743
4.745
4.738
4.734
4.740
4.746
4.740
4.738
4.734
4.733
4.730
4.730
4.735
4.738
4.739
4.737
4.732
4.737
4.741
4.748
4.751
4.748
4.748
4.747
4.745
4.744
4.739
4.734
4.732
4.737
4.735
4.734
4.730
4.727
4.729
4.721
4.722
4.719
4.717
4.721
4.718
4.720
4.722
4.726
4.727
4.728
4.724
4.721
4.727
4.729
4.732
4.736
4.741
4.746
4.751
