2.989
3.206
3.240
3.362
3.497
3.609
3.605
3.630
3.734
3.776
3.753
3.784
3.773
3.854
3.851
3.866
3.917
3.960
3.907
3.874
3.908
3.928
3.934
3.927
3.961
3.996
4.012
3.966
3.929
4.009
3.945
4.013
3.990
4.056
4.007
4.020
3.994
4.030
4.054
4.062
4.063
4.045
4.019
4.056
4.144
4.125
4.085
4.094
4.163
4.113
4.100
4.080
4.103
4.062
4.049
4.030
4.086
4.119
4.062
4.036
4.066
4.027
4.092
4.157
4.098
4.073
4.085
4.064
4.054
4.079
4.137
4.178
4.210
4.170
4.163
4.140
4.118
4.119
4.105
4.130
4.152
4.115
4.123
4.159
4.127
4.093
4.085
4.106
4.070
4.074
4.122
4.142
4.187
4.232
4.229
4.207
4.169
4.157
4.122
4.125
4.124
4.094
4.068
4.049
4.054
4.077
4.116
4.154
4.193
4.212
4.209
4.200
4.158
4.155
4.147
4.139
4.129
4.112
4.058
4.054
4.080
4.117
4.156
4.117
4.084
4.058
4.058
4.090
4.122
4.154
4.185
4.217
4.249
4.260
4.214
4.219
4.216
4.196
4.183
4.216
4.196
4.166
4.177
4.217
4.185
4.181
4.211
4.163
4.159
4.153
4.118
4.131
4.092
4.102
4.105
4.122
4.094
4.124
4.101
4.077
4.102
4.128
4.153
4.179
4.204
4.229
4.255
4.259
4.241
4.225
4.194
4.192
4.204
4.194
4.192
4.198
4.158
4.156
4.178
4.180
4.175
4.186
4.206
4.195
4.165
4.170
4.164
4.172
4.170
4.140
4.132
4.120
4.093
4.108
4.126
4.094
4.075
4.092
4.082
4.071
4.072
4.091
4.093
4.101
4.125
4.105
4.119
4.102
4.102
4.098
4.098
4.083
4.109
4.080
4.105
4.114
4.133
4.153
4.172
4.190
4.210
4.229
4.248
4.267
4.272
4.262
4.258
4.268
4.260
4.274
4.276
4.272
4.237
4.223
4.212
4.223
4.210
4.208
4.184
4.170
4.173
4.191
4.180
4.179
4.179
4.153
4.150
4.174
4.206
4.177
4.184
4.195
4.199
4.171
4.164
4.189
4.172
4.179
4.164
4.133
4.119
4.098
4.117
4.102
4.092
4.109
4.106
4.088
4.099
4.091
4.101
4.117
4.093
4.103
4.086
4.086
4.106
4.115
4.127
4.123
4.147
4.130
4.141
4.125
4.120
4.138
4.136
4.136
4.150
4.173
4.172
4.157
4.191
4.166
4.143
4.158
4.160
4.141
4.125
4.108
4.091
4.074
4.070
4.091
4.084
4.088
4.091
4.082
4.057
4.065
4.070
4.087
4.096
4.071
4.057
4.035
4.060
4.027
4.043
4.051
4.063
4.076
4.089
4.102
4.114
4.127
4.139
4.152
4.165
4.177
4.190
4.202
4.215
4.228
4.240
4.253
4.266
4.278
4.291
4.286
4.294
4.310
4.284
4.268
4.274
4.284
4.281
4.271
4.288
4.306
4.298
4.295
4.271
4.293
4.287
4.262
4.269
4.271
4.266
4.277
4.245
4.241
4.239
4.244
4.252
4.238
4.246
4.266
4.265
4.250
4.234
4.219
4.205
4.188
4.179
4.185
4.202
4.218
4.234
4.240
4.248
4.240
4.225
4.217
4.208
4.210
4.221
4.224
4.220
4.193
4.195
4.197
4.190
4.173
4.162
4.168
4.172
4.169
4.186
4.203
4.203
4.194
4.165
4.178
4.189
4.175
4.170
4.175
4.177
4.186
4.184
4.173
4.160
4.170
4.156
4.137
4.140
4.129
4.116
4.124
4.109
4.112
4.107
4.113
4.099
4.080
4.106
4.108
4.109
4.103
4.110
4.127
4.131
4.139
4.135
4.154
4.172
4.160
4.150
4.163
4.141
4.131
4.136
4.136
4.143
4.144
4.134
4.122
4.122
4.118
4.098
4.095
4.107
4.128
4.123
4.110
4.126
4.131
4.117
4.122
4.135
4.121
4.122
4.104
4.110
4.100
4.092
4.087
4.073
4.076
4.049
4.057
4.060
4.067
4.072
4.054
4.046
4.059
4.073
4.088
4.103
4.108
4.086
4.096
4.101
4.091
4.093
4.076
4.092
4.071
4.084
4.095
4.099
4.109
4.094
4.081
4.084
4.087
4.091
4.101
4.088
4.106
4.123
4.125
4.129
4.133
4.144
4.149
4.149
4.135
4.132
4.113
4.108
4.112
4.114
4.119
4.111
4.095
4.104
4.096
4.094
4.081
4.087
4.078
4.076
4.063
4.071
4.067
4.080
4.077
4.066
4.063
4.056
4.075
4.072
4.069
4.064
4.064
4.053
4.056
4.076
4.091
4.084
4.083
4.092
4.069
4.055
4.054
4.056
4.070
4.082
4.090
4.078
4.066
4.071
4.081
4.092
4.103
4.114
4.125
4.136
4.146
4.147
4.149
4.137
4.142
4.130
4.116
4.111
4.130
4.137
4.155
4.146
4.136
4.113
4.105
4.116
4.137
4.123
4.125
4.130
4.144
4.158
4.165
4.177
4.181
4.191
4.170
4.148
4.155
4.148
4.152
4.147
4.143
4.125
4.109
4.116
4.113
4.120
4.122
4.123
4.142
4.156
4.146
4.155
4.149
4.136
4.139
4.143
4.121
4.130
4.138
4.123
4.121
4.131
4.125
4.129
4.123
4.117
4.115
4.100
4.093
4.115
4.111
4.119
4.100
4.108
4.096
4.109
4.102
4.115
4.131
4.115
4.113
4.117
4.119
4.096
4.095
4.089
4.103
4.086
4.076
4.086
4.078
4.071
4.076
4.082
4.088
4.095
4.101
4.107
4.114
4.120
4.126
4.133
4.139
4.145
4.152
4.158
4.164
4.170
4.177
4.183
4.189
4.196
4.202
4.208
4.215
4.221
4.227
4.233
4.240
4.246
4.252
4.259
4.265
4.271
4.277
4.284
4.290
4.297
4.303
4.309
4.315
4.322
4.328
4.334
4.332
4.345
4.353
4.359
4.366
4.364
4.366
4.355
4.350
4.342
4.346
4.336
4.331
4.345
4.341
4.338
4.329
4.322
4.334
4.351
4.357
4.353
4.347
4.333
4.322
4.335
4.324
4.315
4.304
4.294
4.283
4.273
4.262
4.276
4.274
4.271
4.284
4.269
4.262
4.259
4.246
4.246
4.245
4.247
4.240
4.252
4.252
4.229
4.229
4.239
4.249
4.259
4.265
4.273
4.268
4.269
4.281
4.286
4.268
4.252
4.268
4.270
4.278
4.275
4.285
4.286
4.272
4.273
4.272
4.266
4.258
4.247
4.258
4.247
4.260
4.253
4.243
4.245
4.265
4.252
4.245
4.268
4.259
4.267
4.280
4.290
4.292
4.269
4.254
4.249
4.233
4.230
4.229
4.226
4.218
4.211
4.220
4.218
4.227
4.234
4.246
4.237
4.235
4.242
4.229
4.237
4.224
4.217
4.197
4.212
4.199
4.202
4.189
4.199
4.197
4.205
4.215
4.221
4.223
4.203
4.212
4.216
4.223
4.219
4.208
4.215
4.208
4.207
4.195
4.210
4.219
4.224
4.214
4.202
4.195
4.185
4.176
4.166
4.157
4.147
4.150
4.139
4.154
4.162
4.159
4.153
4.153
4.147
4.136
4.150
4.136
4.138
4.146
4.154
4.152
4.142
4.133
4.139
4.151
4.162
4.171
4.170
4.177
4.169
4.163
4.155
4.155
4.163
4.160
4.146
4.162
4.153
4.142
4.143
4.126
4.128
4.129
4.143
4.133
4.108
4.115
4.125
4.137
4.150
4.160
4.164
4.159
4.163
4.174
4.168
4.172
4.181
4.190
4.199
4.208
4.212
4.197
4.186
4.182
4.195
4.180
4.166
4.154
4.163
4.160
4.157
4.158
4.174
4.184
4.175
4.159
4.165
4.151
4.148
4.141
4.150
4.157
4.166
4.158
4.157
4.157
4.153
4.140
4.135
4.134
4.137
4.135
4.153
4.147
4.144
4.144
4.148
4.142
4.134
4.146
4.150
4.150
4.148
4.139
4.141
4.152
4.163
4.164
4.155
4.154
4.153
4.147
4.146
4.138
4.137
4.145
4.141
4.143
4.146
4.152
4.158
4.147
4.135
4.123
4.114
4.099
4.096
4.109
4.105
4.089
4.092
4.084
4.091
4.096
4.104
4.108
4.123
4.124
4.124
4.109
4.104
4.097
4.090
4.098
4.087
4.088
4.088
4.097
4.104
4.098
4.106
4.102
4.096
4.091
4.085
4.104
4.104
4.114
4.120
4.117
4.112
4.115
4.111
4.102
4.103
4.099
4.101
4.093
4.094
4.091
4.090
4.100
4.080
4.081
4.077
4.076
4.083
4.098
