2.992
3.332
3.510
3.637
3.713
3.785
3.841
3.889
3.901
3.953
4.006
3.979
4.014
4.045
4.075
4.101
4.126
4.155
4.178
4.127
4.102
4.117
4.127
4.139
4.157
4.166
4.175
4.190
4.198
4.205
4.220
4.221
4.233
4.245
4.245
4.257
4.269
4.275
4.275
4.286
4.293
4.306
4.294
4.306
4.315
4.325
4.329
4.339
4.329
4.334
4.342
4.352
4.356
4.368
4.371
4.374
4.383
4.371
4.371
4.382
4.390
4.396
4.398
4.404
4.411
4.416
4.419
4.426
4.433
4.412
4.420
4.416
4.425
4.432
4.431
4.445
4.442
4.442
4.452
4.459
4.463
4.465
4.464
4.467
4.471
4.478
4.486
4.486
4.491
4.475
4.463
4.467
4.468
4.476
4.477
4.486
4.483
4.489
4.497
4.486
4.493
4.498
4.496
4.501
4.508
4.512
4.518
4.519
4.524
4.527
4.515
4.522
4.521
4.523
4.527
4.530
4.537
4.538
4.545
4.544
4.553
4.555
4.559
4.564
4.557
4.558
4.560
4.553
4.554
4.541
4.532
4.531
4.542
4.538
4.543
4.547
4.553
4.550
4.546
4.549
4.560
4.553
4.559
4.571
4.557
4.557
4.557
4.560
4.553
4.560
4.562
4.566
4.568
4.568
4.576
4.575
4.584
4.577
4.587
4.585
4.584
4.582
4.581
4.586
4.592
4.593
4.600
4.593
4.608
4.597
4.600
4.591
4.594
4.593
4.601
4.590
4.595
4.591
4.609
4.604
4.605
4.604
4.603
4.612
4.608
4.616
4.623
4.623
4.628
4.626
4.622
4.629
4.630
4.624
4.623
4.623
4.634
4.634
4.630
4.638
4.634
4.637
4.652
4.645
4.638
4.656
4.647
4.645
4.655
4.643
4.639
4.648
4.645
4.646
4.657
4.648
4.638
4.651
4.642
4.635
4.652
4.651
4.649
4.648
4.657
4.660
4.657
4.659
4.668
4.668
4.663
4.667
4.677
4.671
4.675
4.675
4.677
4.676
4.679
4.678
4.679
4.671
4.663
4.657
4.649
4.642
4.642
4.635
4.633
4.638
4.653
4.648
4.647
4.640
4.652
4.657
4.655
4.648
4.644
4.656
4.655
4.656
4.650
4.653
4.661
4.659
4.663
4.660
4.657
4.671
4.679
4.679
4.666
4.668
4.672
4.678
4.668
4.659
4.655
4.665
4.664
4.660
4.658
4.649
4.664
4.664
4.652
4.643
4.649
4.656
4.664
4.656
4.652
4.653
4.647
4.660
4.664
4.662
4.660
4.659
4.653
4.662
4.672
4.676
4.677
4.676
4.669
4.664
4.674
4.683
4.677
4.681
4.675
4.667
4.668
4.679
4.677
4.673
4.679
4.678
4.675
4.673
4.683
4.689
4.686
4.683
4.679
4.676
4.682
4.684
4.697
4.703
4.699
4.701
4.696
4.687
4.688
4.694
4.702
4.694
4.683
4.683
4.690
4.689
4.683
4.695
4.696
4.700
4.697
4.695
4.685
4.684
4.682
4.694
4.699
4.701
4.701
4.701
4.699
4.695
4.688
4.689
4.702
4.714
4.716
4.709
4.708
4.712
4.708
4.703
4.693
4.703
4.712
4.711
4.716
4.712
4.715
4.711
4.710
4.706
4.707
4.711
4.723
4.731
4.729
4.730
4.735
4.731
4.727
4.725
4.718
4.716
4.724
4.736
4.745
4.736
4.731
4.722
4.723
4.723
4.723
4.725
4.726
4.731
4.734
4.727
4.721
4.716
4.708
4.701
4.707
4.705
4.708
4.716
4.720
4.716
4.720
4.714
4.715
4.717
4.713
4.709
4.705
4.701
4.707
4.711
4.713
4.716
4.710
4.708
4.708
4.700
4.705
4.705
4.704
4.701
4.712
4.717
4.716
4.723
4.721
4.722
4.720
4.716
4.720
4.722
4.718
4.714
4.716
4.717
4.721
4.733
4.729
4.725
4.723
4.717
4.715
4.719
4.720
4.720
4.718
4.717
4.716
4.716
4.724
4.722
4.726
4.727
4.721
4.714
4.713
4.714
4.716
4.714
4.718
4.717
4.718
4.716
4.720
4.730
4.738
4.739
4.734
4.730
4.731
4.736
4.737
4.738
4.738
4.736
4.732
4.731
4.732
4.731
4.732
4.734
4.743
4.742
4.748
4.749
4.743
4.745
4.742
4.739
4.735
4.733
4.734
4.731
4.724
4.720
4.727
4.728
4.738
4.745
4.753
4.753
4.753
4.757
4.756
4.752
4.753
4.753
4.749
4.749
4.745
4.744
4.746
4.752
4.751
4.755
4.749
4.749
4.757
4.764
4.768
4.771
4.764
4.768
4.765
4.768
4.767
4.760
4.762
4.755
4.751
4.753
4.754
4.753
4.751
4.753
4.754
4.757
4.764
4.764
4.759
4.753
4.746
4.747
4.746
4.745
4.745
4.742
4.746
4.745
4.738
4.744
4.749
4.749
4.743
4.739
4.743
4.750
4.759
4.753
4.751
4.757
4.756
4.757
4.751
4.744
4.742
4.739
4.743
4.742
4.740
4.734
4.737
4.739
4.743
4.744
4.743
4.742
4.743
4.752
4.757
4.766
4.773
4.772
4.775
4.775
4.767
4.761
4.760
4.760
4.757
4.753
4.754
4.755
4.754
4.757
4.753
4.749
4.743
4.745
4.748
4.747
4.745
4.752
4.760
4.768
4.775
4.782
4.781
4.786
4.790
4.791
4.787
4.783
4.775
4.769
4.770
4.766
4.764
4.764
4.768
4.777
4.771
4.769
4.767
4.768
4.765
4.760
4.762
4.761
4.760
4.769
4.776
4.782
4.789
4.796
4.803
4.804
4.800
4.794
4.798
4.794
4.795
4.793
4.792
4.791
4.790
4.785
4.789
4.791
4.786
4.779
4.775
4.774
4.775
4.780
4.784
4.780
4.781
4.780
4.775
4.782
4.789
4.794
4.801
4.804
4.798
4.791
4.787
4.782
4.778
4.775
4.775
4.780
4.783
4.783
4.778
4.775
4.776
4.777
4.781
4.779
4.776
4.775
4.770
4.766
4.767
4.769
4.767
4.764
4.773
4.775
4.783
4.788
4.794
4.801
4.808
4.807
4.805
4.802
4.805
4.799
4.795
4.797
4.800
4.799
4.794
4.793
4.797
4.796
4.798
4.793
4.789
4.793
4.792
4.797
4.797
4.797
4.800
4.793
4.787
4.788
4.789
4.786
4.792
4.791
4.786
4.790
4.797
4.804
4.809
4.815
4.820
4.827
4.825
4.827
4.827
4.821
4.820
4.824
4.827
4.823
4.828
4.827
4.830
4.832
4.831
4.827
4.825
4.818
4.814
4.808
4.801
4.801
4.806
4.805
4.806
4.797
4.792
4.799
4.801
4.810
4.814
4.810
4.806
4.807
4.801
4.807
4.814
4.820
4.817
4.813
4.809
4.807
4.803
4.799
4.798
4.797
4.795
4.799
4.800
4.794
4.789
4.790
4.789
4.794
4.786
4.785
4.781
4.775
4.778
4.780
4.779
4.782
4.783
4.782
4.783
4.782
4.784
4.777
4.776
4.777
4.775
4.777
4.783
4.788
4.794
4.797
4.797
4.796
4.795
4.796
4.795
4.797
4.797
4.797
4.795
4.791
4.787
4.791
4.789
4.788
4.789
4.790
4.786
4.790
4.790
4.790
4.789
4.786
4.787
4.783
4.784
4.785
4.784
4.785
4.783
4.780
4.776
4.777
4.778
4.775
4.778
4.779
4.776
4.774
4.771
4.772
4.773
4.779
4.784
4.788
4.794
4.799
4.805
4.805
4.800
4.797
4.795
4.797
4.798
4.794
4.792
4.793
4.798
4.797
4.798
4.805
4.811
4.805
4.803
4.805
4.805
4.801
4.801
4.797
4.797
4.797
4.797
4.801
4.797
4.793
4.786
4.782
4.781
4.780
4.783
4.785
4.784
4.786
4.787
4.785
4.784
4.782
4.786
4.785
4.783
4.779
4.773
4.774
4.779
4.785
4.789
4.793
4.798
4.804
4.806
4.802
4.801
4.805
4.800
4.794
4.790
4.791
4.795
4.794
4.800
4.796
4.795
4.793
4.792
4.790
4.787
4.788
4.787
4.785
4.787
4.782
4.783
4.783
4.786
4.790
4.784
4.786
4.786
4.782
4.783
4.788
4.786
4.783
4.783
4.782
4.783
4.783
4.779
4.780
4.783
4.780
4.781
4.782
4.784
4.780
4.781
4.782
4.786
4.782
4.783
4.782
4.783
4.786
4.792
4.797
4.801
4.805
4.809
4.815
4.814
4.808
4.806
4.805
4.809
4.816
4.814
4.813
4.811
4.813
4.809
4.805
4.801
4.801
4.797
4.794
4.794
4.786
4.787
4.790
