2.992
3.332
3.512
3.630
3.716
3.791
3.831
3.876
3.941
3.958
4.007
4.002
4.042
4.076
4.111
4.076
4.102
4.121
4.147
4.166
4.185
4.202
4.221
4.238
4.256
4.251
4.214
4.191
4.203
4.211
4.226
4.230
4.237
4.247
4.261
4.263
4.273
4.274
4.284
4.296
4.294
4.303
4.313
4.317
4.318
4.329
4.340
4.344
4.341
4.348
4.355
4.366
4.370
4.366
4.371
4.375
4.384
4.389
4.398
4.394
4.393
4.402
4.404
4.410
4.417
4.422
4.429
4.433
4.418
4.425
4.433
4.432
4.437
4.446
4.451
4.452
4.455
4.463
4.467
4.470
4.456
4.458
4.464
4.465
4.470
4.474
4.480
4.484
4.484
4.490
4.489
4.498
4.505
4.509
4.502
4.507
4.511
4.514
4.499
4.501
4.507
4.503
4.508
4.509
4.514
4.518
4.525
4.526
4.527
4.523
4.535
4.533
4.536
4.540
4.546
4.545
4.554
4.547
4.552
4.551
4.557
4.558
4.563
4.566
4.574
4.570
4.565
4.550
4.554
4.548
4.552
4.553
4.554
4.559
4.565
4.567
4.568
4.577
4.573
4.573
4.576
4.581
4.573
4.575
4.582
4.575
4.585
4.588
4.585
4.592
4.592
4.597
4.598
4.595
4.604
4.603
4.607
4.610
4.598
4.599
4.606
4.614
4.609
4.608
4.610
4.618
4.617
4.619
4.628
4.627
4.626
4.630
4.631
4.629
4.636
4.641
4.636
4.643
4.636
4.635
4.639
4.644
4.636
4.627
4.617
4.607
4.614
4.608
4.618
4.614
4.621
4.621
4.626
4.621
4.625
4.629
4.631
4.633
4.628
4.635
4.634
4.636
4.634
4.641
4.640
4.646
4.647
4.640
4.631
4.641
4.640
4.641
4.637
4.641
4.634
4.644
4.645
4.643
4.651
4.646
4.653
4.647
4.653
4.654
4.650
4.662
4.658
4.662
4.664
4.663
4.672
4.663
4.667
4.665
4.664
4.668
4.664
4.666
4.675
4.674
4.675
4.682
4.681
4.682
4.686
4.676
4.669
4.670
4.672
4.676
4.673
4.676
4.684
4.674
4.677
4.681
4.672
4.679
4.684
4.681
4.681
4.690
4.688
4.685
4.689
4.688
4.688
4.692
4.699
4.696
4.697
4.703
4.705
4.706
4.702
4.707
4.703
4.703
4.708
4.703
4.700
4.699
4.705
4.707
4.708
4.706
4.718
4.714
4.716
4.710
4.722
4.717
4.721
4.718
4.727
4.723
4.724
4.723
4.730
4.736
4.729
4.721
4.716
4.717
4.718
4.715
4.725
4.723
4.722
4.721
4.725
4.729
4.724
4.720
4.721
4.731
4.724
4.720
4.719
4.726
4.727
4.729
4.727
4.726
4.732
4.739
4.735
4.736
4.729
4.737
4.749
4.750
4.743
4.742
4.738
4.751
4.747
4.750
4.746
4.747
4.752
4.753
4.751
4.751
4.746
4.740
4.733
4.729
4.724
4.723
4.721
4.725
4.719
4.714
4.722
4.728
4.724
4.715
4.708
4.715
4.722
4.721
4.722
4.723
4.719
4.721
4.729
4.733
4.727
4.729
4.722
4.723
4.730
4.736
4.732
4.723
4.722
4.723
4.727
4.737
4.736
4.740
4.735
4.729
4.730
4.733
4.741
4.742
4.743
4.744
4.740
4.740
4.736
4.747
4.757
4.756
4.755
4.751
4.744
4.737
4.732
4.734
4.733
4.729
4.727
4.726
4.733
4.744
4.743
4.742
4.736
4.734
4.730
4.731
4.733
4.728
4.725
4.725
4.724
4.725
4.722
4.734
4.741
4.737
4.738
4.734
4.733
4.726
4.724
4.734
4.741
4.737
4.735
4.736
4.736
4.737
4.736
4.736
4.741
4.747
4.746
4.750
4.751
4.745
4.744
4.744
4.751
4.745
4.754
4.753
4.751
4.753
4.755
4.755
4.749
4.742
4.744
4.753
4.755
4.751
4.749
4.748
4.747
4.750
4.749
4.748
4.751
4.759
4.762
4.764
4.758
4.761
4.757
4.751
4.754
4.756
4.754
4.761
4.770
4.772
4.770
4.767
4.771
4.769
4.771
4.770
4.770
4.766
4.771
4.778
4.781
4.773
4.768
4.762
4.766
4.764
4.755
4.755
4.763
4.772
4.776
4.770
4.771
4.770
4.768
4.770
4.766
4.761
4.765
4.762
4.771
4.772
4.770
4.769
4.763
4.769
4.766
4.766
4.766
4.764
4.762
4.766
4.774
4.783
4.784
4.784
4.782
4.778
4.776
4.777
4.777
4.781
4.777
4.778
4.774
4.781
4.790
4.791
4.787
4.783
4.782
4.780
4.774
4.775
4.776
4.777
4.777
4.777
4.784
4.791
4.796
4.799
4.795
4.797
4.790
4.794
4.796
4.792
4.792
4.792
4.792
4.789
4.792
4.797
4.804
4.813
4.812
4.808
4.807
4.803
4.801
4.799
4.796
4.800
4.799
4.799
4.798
4.795
4.803
4.810
4.809
4.807
4.809
4.807
4.804
4.800
4.795
4.791
4.787
4.783
4.781
4.786
4.788
4.788
4.790
4.786
4.785
4.783
4.782
4.788
4.785
4.784
4.781
4.778
4.777
4.777
4.784
4.789
4.793
4.794
4.795
4.789
4.784
4.778
4.773
4.773
4.770
4.770
4.770
4.767
4.768
4.772
4.779
4.786
4.788
4.794
4.788
4.791
4.790
4.788
4.788
4.783
4.781
4.781
4.782
4.778
4.781
4.780
4.779
4.780
4.784
4.791
4.798
4.800
4.801
4.800
4.798
4.795
4.793
4.792
4.793
4.794
4.799
4.802
4.799
4.797
4.792
4.788
4.782
4.789
4.796
4.802
4.804
4.802
4.799
4.794
4.795
4.797
4.795
4.799
4.795
4.794
4.792
4.795
4.788
4.784
4.782
4.781
4.785
4.792
4.798
4.802
4.796
4.797
4.795
4.794
4.793
4.794
4.795
4.794
4.792
4.794
4.795
4.792
4.795
4.792
4.788
4.786
4.788
4.791
4.795
4.802
4.807
4.814
4.814
4.814
4.815
4.811
4.804
4.805
4.810
4.810
4.810
4.807
4.807
4.811
4.809
4.808
4.807
4.807
4.807
4.810
4.809
4.803
4.809
4.813
4.820
4.818
4.817
4.818
4.820
4.819
4.818
4.821
4.815
4.811
4.809
4.807
4.807
4.807
4.799
4.799
4.803
4.810
4.806
4.802
4.803
4.805
4.812
4.816
4.823
4.827
4.828
4.825
4.820
4.819
4.826
4.824
4.823
4.822
4.828
4.830
4.825
4.824
4.821
4.821
4.821
4.818
4.821
4.821
4.823
4.821
4.815
4.813
4.817
4.824
4.829
4.836
4.840
4.843
4.845
4.841
4.840
4.838
4.840
4.840
4.837
4.838
4.833
4.836
4.834
4.830
4.829
4.833
4.831
4.829
4.826
4.827
4.825
4.824
4.826
4.825
4.825
4.829
4.834
4.829
4.826
4.822
4.821
4.821
4.820
4.821
4.818
4.816
4.814
4.811
4.810
4.813
4.812
4.814
4.814
4.813
4.814
4.811
4.814
4.814
4.818
4.816
4.814
4.814
4.820
4.825
4.831
4.836
4.836
4.833
4.831
4.825
4.825
4.824
4.821
4.816
4.814
4.814
4.820
4.822
4.821
4.816
4.815
4.816
4.814
4.813
4.809
4.810
4.809
4.808
4.809
4.808
4.807
4.810
4.815
4.821
4.825
4.830
4.836
4.835
4.840
4.847
4.847
4.843
4.842
4.840
4.837
4.840
4.840
4.841
4.839
4.841
4.836
4.830
4.828
4.829
4.825
4.825
4.825
4.825
4.825
4.827
4.828
4.822
4.820
4.818
4.815
4.818
4.820
4.825
4.829
4.835
4.839
4.844
4.847
4.847
4.842
4.847
4.847
4.844
4.844
4.841
4.845
4.846
4.850
4.849
4.850
4.851
4.844
4.841
4.845
4.846
4.850
4.846
4.842
4.844
4.844
4.838
4.833
4.832
4.834
4.830
4.829
4.835
4.831
4.833
4.834
4.836
4.840
4.846
4.850
4.855
4.859
4.865
4.867
4.862
4.861
4.858
4.858
4.858
4.861
4.858
4.858
4.858
4.861
4.862
4.859
4.860
4.864
4.863
4.864
4.865
4.862
4.860
4.858
4.855
4.855
4.855
4.855
4.852
4.851
4.851
4.848
4.849
4.851
4.851
4.847
4.843
4.845
4.851
4.855
4.858
4.864
4.870
4.873
4.870
4.870
4.871
4.872
4.874
4.875
4.873
4.869
4.868
4.869
4.868
4.866
4.862
4.859
4.855
4.850
4.847
4.847
4.843
