2.995
3.323
3.499
3.628
3.719
3.796
3.841
3.864
3.923
3.941
3.955
3.995
4.026
4.064
4.092
4.127
4.081
4.046
4.064
4.078
4.101
4.115
4.122
4.141
4.151
4.169
4.170
4.185
4.189
4.202
4.216
4.211
4.226
4.236
4.256
4.249
4.255
4.271
4.278
4.285
4.278
4.287
4.299
4.305
4.315
4.325
4.328
4.319
4.325
4.333
4.343
4.349
4.353
4.362
4.363
4.371
4.385
4.368
4.363
4.369
4.384
4.382
4.391
4.393
4.399
4.403
4.409
4.416
4.418
4.422
4.429
4.434
4.442
4.441
4.420
4.418
4.421
4.429
4.435
4.432
4.447
4.443
4.446
4.446
4.453
4.457
4.466
4.463
4.466
4.476
4.475
4.473
4.477
4.485
4.483
4.492
4.496
4.500
4.498
4.502
4.503
4.513
4.509
4.512
4.514
4.515
4.508
4.490
4.494
4.491
4.499
4.505
4.500
4.498
4.501
4.508
4.514
4.515
4.519
4.503
4.512
4.513
4.511
4.512
4.523
4.522
4.523
4.532
4.529
4.538
4.547
4.532
4.528
4.545
4.539
4.552
4.551
4.556
4.555
4.558
4.549
4.541
4.554
4.547
4.551
4.553
4.562
4.558
4.555
4.561
4.568
4.564
4.576
4.572
4.583
4.581
4.588
4.583
4.583
4.583
4.581
4.588
4.586
4.594
4.597
4.596
4.600
4.602
4.610
4.603
4.602
4.610
4.595
4.606
4.606
4.599
4.605
4.599
4.604
4.599
4.595
4.611
4.605
4.603
4.615
4.622
4.615
4.617
4.624
4.622
4.623
4.641
4.630
4.626
4.638
4.649
4.637
4.633
4.640
4.630
4.621
4.611
4.602
4.601
4.599
4.594
4.602
4.609
4.605
4.606
4.608
4.606
4.607
4.604
4.613
4.615
4.611
4.610
4.614
4.628
4.626
4.629
4.619
4.633
4.634
4.628
4.628
4.621
4.619
4.617
4.609
4.619
4.616
4.617
4.611
4.607
4.618
4.613
4.603
4.606
4.612
4.614
4.618
4.615
4.611
4.612
4.630
4.631
4.628
4.630
4.624
4.627
4.639
4.635
4.634
4.631
4.622
4.635
4.630
4.636
4.635
4.628
4.630
4.644
4.642
4.640
4.638
4.635
4.635
4.646
4.657
4.656
4.656
4.647
4.650
4.650
4.659
4.657
4.647
4.646
4.644
4.641
4.651
4.658
4.654
4.654
4.642
4.635
4.638
4.654
4.660
4.659
4.657
4.651
4.652
4.651
4.652
4.668
4.673
4.670
4.671
4.661
4.651
4.650
4.660
4.675
4.681
4.674
4.670
4.674
4.669
4.669
4.665
4.677
4.692
4.696
4.686
4.690
4.674
4.678
4.680
4.682
4.687
4.689
4.687
4.689
4.692
4.693
4.686
4.686
4.680
4.690
4.689
4.681
4.673
4.668
4.662
4.658
4.658
4.672
4.680
4.680
4.679
4.672
4.674
4.668
4.657
4.653
4.662
4.675
4.676
4.667
4.670
4.674
4.665
4.663
4.663
4.657
4.657
4.670
4.683
4.691
4.688
4.687
4.687
4.678
4.678
4.675
4.670
4.663
4.670
4.683
4.686
4.686
4.687
4.694
4.691
4.685
4.674
4.667
4.663
4.662
4.674
4.682
4.687
4.690
4.683
4.684
4.689
4.683
4.685
4.679
4.675
4.677
4.669
4.681
4.693
4.705
4.710
4.705
4.710
4.702
4.699
4.696
4.694
4.692
4.689
4.686
4.682
4.689
4.701
4.707
4.702
4.703
4.701
4.697
4.698
4.700
4.699
4.693
4.685
4.694
4.695
4.697
4.698
4.709
4.720
4.720
4.723
4.729
4.718
4.716
4.724
4.726
4.719
4.714
4.709
4.707
4.711
4.710
4.706
4.717
4.727
4.737
4.732
4.732
4.727
4.730
4.724
4.715
4.711
4.712
4.712
4.710
4.711
4.704
4.702
4.712
4.717
4.718
4.716
4.719
4.725
4.719
4.715
4.710
4.707
4.706
4.707
4.697
4.689
4.695
4.694
4.695
4.705
4.715
4.725
4.717
4.717
4.715
4.720
4.716
4.715
4.715
4.725
4.720
4.713
4.718
4.717
4.720
4.714
4.703
4.696
4.704
4.714
4.723
4.726
4.727
4.731
4.729
4.729
4.727
4.726
4.730
4.725
4.720
4.721
4.721
4.723
4.732
4.736
4.730
4.724
4.718
4.711
4.716
4.725
4.734
4.743
4.740
4.744
4.743
4.742
4.744
4.746
4.748
4.748
4.752
4.748
4.748
4.747
4.746
4.741
4.737
4.737
4.732
4.732
4.738
4.734
4.732
4.738
4.746
4.755
4.764
4.769
4.766
4.764
4.755
4.758
4.751
4.751
4.744
4.749
4.746
4.748
4.751
4.741
4.744
4.737
4.730
4.724
4.720
4.722
4.723
4.732
4.740
4.748
4.757
4.756
4.760
4.761
4.760
4.752
4.750
4.747
4.749
4.750
4.749
4.743
4.748
4.743
4.745
4.740
4.740
4.747
4.749
4.745
4.744
4.746
4.740
4.740
4.739
4.744
4.748
4.756
4.763
4.771
4.773
4.776
4.777
4.773
4.776
4.777
4.776
4.781
4.778
4.769
4.773
4.775
4.773
4.773
4.772
4.772
4.771
4.769
4.769
4.766
4.771
4.779
4.772
4.768
4.766
4.764
4.770
4.762
4.764
4.772
4.779
4.787
4.794
4.799
4.798
4.791
4.794
4.782
4.776
4.779
4.781
4.782
4.787
4.783
4.785
4.780
4.776
4.772
4.768
4.763
4.759
4.755
4.751
4.746
4.742
4.738
4.734
4.735
4.742
4.749
4.756
4.763
4.767
4.766
4.764
4.768
4.773
4.773
4.775
4.776
4.773
4.768
4.763
4.764
4.761
4.756
4.751
4.746
4.741
4.736
4.732
4.727
4.725
4.731
4.741
4.737
4.737
4.735
4.733
4.742
4.738
4.735
4.738
4.737
4.738
4.745
4.752
4.758
4.765
4.768
4.766
4.760
4.757
4.753
4.751
4.745
4.740
4.740
4.748
4.758
4.756
4.757
4.753
4.752
4.755
4.752
4.746
4.747
4.745
4.744
4.746
4.746
4.745
4.741
4.741
4.737
4.742
4.740
4.747
4.747
4.742
4.739
4.740
4.742
4.745
4.741
4.746
4.752
4.758
4.765
4.771
4.769
4.763
4.760
4.759
4.767
4.763
4.760
4.760
4.756
4.759
4.754
4.753
4.750
4.749
4.745
4.739
4.737
4.735
4.731
4.740
4.741
4.744
4.741
4.742
4.740
4.740
4.738
4.738
4.737
4.741
4.740
4.736
4.729
4.722
4.725
4.729
4.728
4.727
4.728
4.733
4.739
4.745
4.751
4.757
4.763
4.770
4.776
4.779
4.780
4.780
4.781
4.780
4.777
4.780
4.779
4.777
4.777
4.775
4.776
4.772
4.766
4.763
4.770
4.763
4.762
4.756
4.755
4.756
4.754
4.756
4.756
4.749
4.746
4.748
4.742
4.736
4.730
4.730
4.730
4.732
4.738
4.744
4.744
4.743
4.740
4.741
4.747
4.744
4.741
4.742
4.739
4.738
4.739
4.744
4.750
4.756
4.761
4.767
4.773
4.778
4.772
4.769
4.773
4.771
4.774
4.771
4.775
4.773
4.774
4.774
4.770
4.767
4.765
4.769
4.769
4.763
4.768
4.768
4.770
4.778
4.776
4.780
4.772
4.766
4.763
4.764
4.762
4.762
4.764
4.768
4.765
4.762
4.758
4.754
4.760
4.761
4.755
4.749
4.748
4.742
4.741
4.741
4.740
4.743
4.736
4.734
4.734
4.727
4.724
4.725
4.731
4.737
4.744
4.748
4.752
4.757
4.763
4.768
4.773
4.778
4.784
4.789
4.794
4.795
4.796
4.794
4.789
4.785
4.792
4.791
4.790
4.788
4.787
4.784
4.789
4.790
4.787
4.782
4.777
4.774
4.775
4.777
4.776
4.778
4.787
4.786
4.786
4.782
4.775
4.775
4.773
4.767
4.766
4.763
4.757
4.760
4.759
4.763
4.766
4.762
4.766
4.767
4.763
4.757
4.761
4.757
4.763
4.763
4.768
4.770
4.771
4.773
4.766
4.762
4.758
4.755
4.754
4.754
4.751
4.749
4.750
4.750
4.751
4.753
4.758
4.762
4.767
4.772
4.777
4.782
4.787
4.792
4.797
4.800
4.796
4.796
4.799
4.805
4.802
4.803
4.801
4.797
4.795
4.798
4.801
4.799
4.806
4.812
4.806
4.805
4.809
4.800
4.796
4.793
4.794
4.790
4.792
4.790
4.789
4.793
4.793
4.795
