2.975
3.303
3.473
3.594
3.643
3.742
3.840
3.753
3.786
3.822
3.858
3.896
3.910
3.956
3.965
4.004
4.004
4.033
4.035
4.050
4.074
4.109
4.083
4.089
4.121
4.139
4.157
4.160
4.152
4.160
4.154
4.183
4.199
4.193
4.211
4.217
4.235
4.240
4.250
4.263
4.232
4.232
4.243
4.239
4.250
4.246
4.278
4.265
4.274
4.290
4.310
4.285
4.288
4.301
4.312
4.320
4.326
4.329
4.330
4.335
4.348
4.362
4.349
4.339
4.355
4.352
4.348
4.376
4.378
4.378
4.406
4.391
4.402
4.407
4.382
4.356
4.358
4.373
4.365
4.387
4.381
4.389
4.355
4.357
4.350
4.361
4.362
4.380
4.374
4.386
4.371
4.372
4.388
4.392
4.398
4.401
4.407
4.418
4.399
4.391
4.399
4.396
4.394
4.420
4.406
4.396
4.425
4.433
4.426
4.427
4.450
4.439
4.434
4.450
4.452
4.446
4.426
4.464
4.461
4.441
4.432
4.436
4.411
4.403
4.428
4.445
4.433
4.432
4.415
4.449
4.448
4.430
4.422
4.425
4.450
4.439
4.449
4.439
4.431
4.455
4.458
4.451
4.454
4.440
4.441
4.471
4.482
4.471
4.470
4.477
4.464
4.474
4.491
4.487
4.489
4.492
4.480
4.470
4.490
4.481
4.469
4.465
4.456
4.436
4.462
4.489
4.491
4.487
4.480
4.463
4.466
4.452
4.473
4.498
4.510
4.493
4.504
4.492
4.480
4.482
4.485
4.490
4.513
4.532
4.517
4.531
4.526
4.513
4.505
4.492
4.490
4.507
4.528
4.517
4.516
4.504
4.502
4.503
4.493
4.496
4.494
4.502
4.525
4.536
4.546
4.546
4.540
4.535
4.537
4.548
4.536
4.525
4.534
4.536
4.537
4.558
4.567
4.556
4.561
4.559
4.536
4.549
4.550
4.542
4.526
4.524
4.527
4.542
4.555
4.550
4.553
4.547
4.536
4.550
4.541
4.527
4.510
4.498
4.492
4.497
4.515
4.534
4.531
4.525
4.524
4.528
4.528
4.525
4.529
4.535
4.522
4.520
4.510
4.519
4.502
4.502
4.515
4.529
4.544
4.539
4.538
4.523
4.511
4.511
4.517
4.526
4.515
4.529
4.531
4.523
4.513
4.503
4.499
4.501
4.503
4.520
4.536
4.552
4.536
4.536
4.541
4.539
4.533
4.527
4.526
4.514
4.507
4.510
4.508
4.504
4.507
4.517
4.516
4.522
4.516
4.499
4.513
4.529
4.543
4.554
4.561
4.544
4.540
4.538
4.536
4.534
4.537
4.544
4.544
4.547
4.556
4.548
4.526
4.517
4.524
4.524
4.517
4.521
4.518
4.509
4.509
4.518
4.528
4.542
4.556
4.570
4.584
4.569
4.573
4.572
4.574
4.575
4.585
4.567
4.548
4.542
4.554
4.550
4.554
4.543
4.556
4.559
4.560
4.550
4.553
4.553
4.557
4.545
4.543
4.547
4.535
4.524
4.534
4.546
4.559
4.572
4.585
4.598
4.611
4.611
4.617
4.604
4.615
4.628
4.616
4.603
4.596
4.602
4.593
4.592
4.578
4.575
4.568
4.572
4.567
4.558
4.564
4.574
4.567
4.562
4.556
4.559
4.549
4.538
4.527
4.518
4.516
4.528
4.539
4.551
4.562
4.574
4.584
4.580
4.586
4.592
4.595
4.590
4.580
4.566
4.564
4.569
4.563
4.570
4.563
4.570
4.580
4.569
4.564
4.561
4.556
4.564
4.557
4.556
4.557
4.561
4.558
4.557
4.554
4.551
4.552
4.540
4.543
4.536
4.535
4.529
4.532
4.530
4.533
4.534
4.535
4.550
4.560
4.555
4.566
4.576
4.587
4.597
4.608
4.618
4.629
4.639
4.639
4.637
4.636
4.633
4.640
4.647
4.637
4.627
4.623
4.629
4.620
4.616
4.625
4.630
4.624
4.611
4.612
4.604
4.597
4.589
4.582
4.582
4.577
4.579
4.566
4.560
4.567
4.564
4.553
4.546
4.561
4.557
4.552
4.540
4.538
4.534
4.533
4.531
4.529
4.515
4.509
4.514
4.522
4.532
4.541
4.550
4.559
4.569
4.578
4.587
4.597
4.597
4.590
4.583
4.582
4.589
4.596
4.593
4.588
4.590
4.603
4.602
4.602
4.601
4.602
4.588
4.584
4.585
4.592
4.585
4.580
4.579
4.583
4.581
4.582
4.575
4.570
4.573
4.579
4.591
4.597
4.588
4.593
4.596
4.606
4.597
4.596
4.597
4.587
4.581
4.571
4.571
4.564
4.553
4.562
4.549
4.547
4.555
4.552
4.564
4.560
4.558
4.558
4.547
4.557
4.554
4.549
4.546
4.548
4.555
4.547
4.549
4.541
4.538
4.542
4.550
4.558
4.566
4.574
4.582
4.591
4.599
4.607
4.615
4.623
4.631
4.637
4.641
4.638
4.632
4.631
4.625
4.631
4.625
4.624
4.613
4.608
4.601
4.602
4.593
4.584
4.579
4.576
4.574
4.580
4.577
4.576
4.575
4.563
4.569
4.580
4.591
4.595
4.589
4.589
4.593
4.589
4.588
4.583
4.587
4.582
4.583
4.585
4.591
4.589
4.585
4.586
4.595
4.591
4.591
4.589
4.590
4.583
4.590
4.583
4.577
4.565
4.564
4.564
4.563
4.567
4.564
4.567
4.561
4.558
4.561
4.559
4.554
4.548
4.547
4.546
4.537
4.528
4.529
4.518
4.526
4.538
4.542
4.538
4.542
4.536
4.545
4.546
4.547
4.551
4.545
4.544
4.554
4.564
4.566
4.561
4.568
4.575
4.582
4.589
4.596
4.603
4.610
4.617
4.624
4.631
4.638
4.645
4.652
4.659
4.654
4.653
4.649
4.654
4.645
4.648
4.642
4.642
4.644
4.638
4.627
4.633
4.638
4.634
4.638
4.641
4.644
4.651
4.659
4.650
4.644
4.634
4.624
4.617
4.615
4.612
4.606
4.599
4.602
4.600
4.603
4.610
4.621
4.627
4.625
4.623
4.618
4.618
4.608
4.596
4.596
4.593
4.589
4.586
4.587
4.592
4.592
4.598
4.603
4.608
4.612
4.611
4.602
4.614
4.610
4.600
4.605
4.606
4.610
4.609
4.609
4.612
4.621
4.622
4.623
4.624
4.617
4.609
4.602
4.595
4.588
4.593
4.593
4.594
4.591
4.585
4.581
4.581
4.582
4.590
4.585
4.576
4.568
4.577
4.572
4.569
4.566
4.563
4.566
4.561
4.567
4.570
4.570
4.564
4.559
4.554
4.548
4.544
4.553
4.558
4.559
4.548
4.551
4.549
4.550
4.548
4.558
4.548
4.535
4.530
4.530
4.532
4.538
4.543
4.549
4.555
4.561
4.567
4.572
4.578
4.584
4.590
4.596
4.601
4.607
4.613
4.619
4.625
4.631
4.626
4.630
4.633
4.635
4.632
4.633
4.634
4.638
4.631
4.625
4.615
4.614
4.612
4.603
4.606
4.605
4.606
4.597
4.599
4.607
4.610
4.603
4.603
4.608
4.616
4.620
4.626
4.619
4.618
4.629
4.623
4.623
4.634
4.625
4.620
4.622
4.611
4.607
4.614
4.616
4.619
4.625
4.618
4.615
4.623
4.628
4.633
4.623
4.621
4.613
4.605
4.612
4.608
4.611
4.603
4.613
4.605
4.601
4.606
4.605
4.610
4.600
4.600
4.592
4.598
4.588
4.596
4.589
4.600
4.600
4.596
4.585
4.586
4.581
4.582
4.588
4.584
4.590
4.583
4.583
4.578
4.579
4.581
4.574
4.576
4.570
4.569
4.566
4.574
4.570
4.570
4.571
4.572
4.573
4.570
4.569
4.572
4.572
4.573
4.578
4.577
4.575
4.577
4.565
4.558
4.565
4.564
4.563
4.556
4.560
4.565
4.574
4.574
4.575
4.567
4.565
4.566
4.569
4.567
4.568
4.568
4.571
4.565
4.562
4.563
4.570
4.571
4.567
4.572
4.570
4.564
4.565
4.574
4.574
4.573
4.580
4.580
4.582
4.589
4.596
4.591
4.592
4.584
4.586
4.584
4.584
4.578
4.572
4.567
4.564
4.553
4.554
4.552
4.556
4.554
4.543
4.543
4.544
4.546
4.548
4.556
4.554
4.546
4.545
4.551
4.549
4.548
4.549
4.559
4.550
4.549
4.541
4.533
4.534
4.528
4.530
4.532
4.532
4.542
4.540
4.544
4.549
4.554
4.558
4.563
4.568
4.572
4.577
4.582
4.586
4.591
4.595
4.600
4.605
4.609
4.614
4.619
4.623
4.628
4.633
4.637
4.642
4.646
4.651
