2.992
3.335
3.506
3.627
3.715
3.775
3.834
3.870
3.937
3.941
3.986
4.031
4.028
4.034
4.063
4.094
4.120
4.141
4.167
4.182
4.205
4.175
4.132
4.142
4.157
4.168
4.175
4.190
4.197
4.212
4.216
4.229
4.230
4.243
4.258
4.256
4.266
4.279
4.283
4.287
4.296
4.303
4.316
4.306
4.316
4.328
4.334
4.344
4.335
4.342
4.348
4.358
4.360
4.374
4.375
4.366
4.373
4.379
4.384
4.391
4.392
4.401
4.409
4.410
4.411
4.408
4.412
4.415
4.420
4.426
4.431
4.432
4.434
4.446
4.449
4.448
4.457
4.462
4.460
4.446
4.453
4.451
4.458
4.460
4.471
4.471
4.479
4.473
4.475
4.482
4.483
4.489
4.496
4.500
4.496
4.500
4.502
4.508
4.515
4.516
4.526
4.516
4.504
4.495
4.501
4.500
4.504
4.511
4.513
4.517
4.516
4.525
4.529
4.517
4.523
4.528
4.531
4.534
4.537
4.539
4.545
4.547
4.548
4.547
4.554
4.557
4.545
4.550
4.559
4.557
4.557
4.564
4.570
4.572
4.571
4.575
4.576
4.580
4.586
4.586
4.586
4.593
4.584
4.588
4.592
4.591
4.587
4.574
4.562
4.561
4.567
4.566
4.573
4.571
4.571
4.580
4.586
4.574
4.581
4.586
4.584
4.588
4.586
4.593
4.595
4.588
4.590
4.588
4.586
4.593
4.582
4.594
4.592
4.599
4.594
4.601
4.595
4.604
4.600
4.612
4.609
4.615
4.614
4.618
4.614
4.618
4.609
4.623
4.620
4.623
4.630
4.626
4.636
4.631
4.636
4.627
4.627
4.623
4.625
4.629
4.628
4.627
4.623
4.632
4.631
4.632
4.636
4.635
4.633
4.637
4.638
4.642
4.647
4.648
4.650
4.657
4.653
4.656
4.657
4.651
4.661
4.657
4.649
4.660
4.661
4.656
4.663
4.667
4.663
4.665
4.672
4.667
4.674
4.676
4.675
4.671
4.679
4.681
4.677
4.676
4.671
4.668
4.666
4.678
4.680
4.676
4.677
4.679
4.675
4.667
4.683
4.675
4.671
4.673
4.686
4.686
4.675
4.679
4.691
4.689
4.688
4.690
4.696
4.698
4.694
4.695
4.696
4.705
4.704
4.705
4.699
4.709
4.704
4.711
4.705
4.703
4.696
4.690
4.683
4.676
4.672
4.671
4.672
4.670
4.664
4.665
4.664
4.678
4.677
4.676
4.675
4.675
4.680
4.687
4.683
4.686
4.677
4.679
4.682
4.682
4.683
4.681
4.679
4.692
4.691
4.689
4.686
4.689
4.688
4.701
4.702
4.701
4.705
4.700
4.694
4.708
4.702
4.694
4.686
4.684
4.688
4.689
4.693
4.689
4.690
4.684
4.690
4.689
4.688
4.681
4.674
4.679
4.688
4.690
4.690
4.684
4.683
4.675
4.688
4.690
4.686
4.684
4.688
4.682
4.685
4.694
4.697
4.698
4.699
4.698
4.697
4.697
4.699
4.706
4.707
4.703
4.705
4.705
4.702
4.703
4.704
4.709
4.705
4.706
4.699
4.700
4.697
4.700
4.708
4.717
4.710
4.712
4.707
4.709
4.705
4.706
4.710
4.720
4.726
4.723
4.721
4.722
4.720
4.723
4.721
4.720
4.731
4.733
4.734
4.731
4.721
4.714
4.707
4.712
4.723
4.727
4.726
4.720
4.721
4.722
4.718
4.716
4.716
4.722
4.726
4.720
4.721
4.719
4.721
4.719
4.720
4.720
4.720
4.728
4.737
4.734
4.731
4.734
4.735
4.734
4.732
4.728
4.727
4.733
4.742
4.736
4.735
4.730
4.732
4.733
4.729
4.734
4.734
4.733
4.737
4.747
4.749
4.755
4.748
4.750
4.751
4.749
4.746
4.745
4.749
4.755
4.751
4.758
4.764
4.758
4.760
4.757
4.756
4.757
4.757
4.753
4.753
4.747
4.754
4.763
4.768
4.766
4.768
4.764
4.760
4.755
4.749
4.742
4.737
4.741
4.743
4.744
4.746
4.749
4.743
4.738
4.734
4.733
4.734
4.734
4.731
4.734
4.743
4.752
4.745
4.738
4.731
4.731
4.727
4.725
4.724
4.722
4.724
4.723
4.731
4.738
4.748
4.744
4.746
4.742
4.742
4.744
4.737
4.734
4.737
4.736
4.735
4.733
4.738
4.738
4.745
4.755
4.759
4.763
4.759
4.763
4.760
4.755
4.746
4.747
4.742
4.741
4.742
4.742
4.737
4.745
4.753
4.760
4.760
4.760
4.756
4.757
4.751
4.745
4.751
4.747
4.745
4.742
4.734
4.730
4.737
4.744
4.753
4.753
4.762
4.760
4.759
4.757
4.754
4.752
4.756
4.757
4.751
4.749
4.754
4.750
4.748
4.747
4.749
4.753
4.762
4.769
4.773
4.774
4.773
4.769
4.775
4.775
4.775
4.772
4.765
4.764
4.764
4.763
4.756
4.752
4.760
4.763
4.760
4.769
4.775
4.777
4.770
4.768
4.771
4.768
4.765
4.761
4.767
4.769
4.767
4.766
4.768
4.764
4.759
4.761
4.765
4.761
4.767
4.774
4.781
4.786
4.789
4.791
4.787
4.788
4.787
4.790
4.790
4.791
4.787
4.788
4.782
4.783
4.784
4.786
4.784
4.779
4.775
4.775
4.776
4.783
4.792
4.797
4.795
4.791
4.794
4.791
4.792
4.799
4.795
4.794
4.792
4.786
4.781
4.780
4.776
4.777
4.775
4.777
4.771
4.766
4.773
4.780
4.787
4.786
4.782
4.783
4.784
4.786
4.781
4.780
4.781
4.782
4.781
4.780
4.784
4.780
4.778
4.779
4.778
4.774
4.770
4.764
4.760
4.768
4.773
4.779
4.779
4.780
4.779
4.783
4.787
4.788
4.786
4.779
4.779
4.775
4.778
4.780
4.779
4.779
4.776
4.777
4.778
4.774
4.781
4.782
4.781
4.783
4.784
4.777
4.778
4.783
4.789
4.793
4.797
4.796
4.795
4.790
4.790
4.791
4.794
4.791
4.790
4.785
4.786
4.783
4.786
4.786
4.787
4.788
4.784
4.783
4.784
4.783
4.786
4.783
4.781
4.782
4.784
4.786
4.790
4.797
4.805
4.808
4.814
4.815
4.809
4.810
4.811
4.807
4.805
4.801
4.803
4.801
4.800
4.801
4.800
4.801
4.803
4.804
4.803
4.801
4.806
4.804
4.803
4.799
4.801
4.805
4.808
4.804
4.798
4.801
4.805
4.808
4.814
4.820
4.827
4.826
4.822
4.824
4.830
4.827
4.823
4.821
4.820
4.818
4.814
4.810
4.808
4.815
4.819
4.813
4.816
4.818
4.812
4.808
4.805
4.807
4.811
4.812
4.806
4.810
4.806
4.805
4.805
4.804
4.808
4.813
4.819
4.818
4.819
4.821
4.820
4.815
4.811
4.808
4.803
4.805
4.809
4.808
4.811
4.812
4.817
4.818
4.811
4.810
4.816
4.810
4.808
4.807
4.806
4.805
4.800
4.799
4.798
4.802
4.801
4.799
4.800
4.799
4.798
4.804
4.809
4.815
4.820
4.824
4.830
4.837
4.838
4.834
4.836
4.834
4.830
4.834
4.836
4.835
4.833
4.826
4.823
4.826
4.827
4.829
4.830
4.827
4.828
4.824
4.820
4.824
4.827
4.829
4.830
4.831
4.825
4.824
4.828
4.826
4.830
4.827
4.827
4.827
4.823
4.823
4.823
4.826
4.823
4.829
4.834
4.840
4.844
4.849
4.855
4.860
4.864
4.864
4.863
4.857
4.857
4.857
4.852
4.848
4.842
4.846
4.849
4.845
4.847
4.848
4.842
4.837
4.834
4.835
4.834
4.834
4.836
4.842
4.838
4.838
4.836
4.834
4.833
4.831
4.834
4.835
4.831
4.829
4.825
4.823
4.819
4.821
4.825
4.829
4.834
4.840
4.834
4.829
4.827
4.821
4.819
4.823
4.822
4.816
4.817
4.821
4.819
4.821
4.820
4.816
4.817
4.823
4.823
4.821
4.819
4.818
4.819
4.818
4.816
4.813
4.817
4.816
4.819
4.816
4.817
4.813
4.808
4.812
4.816
4.816
4.814
4.810
4.806
4.804
4.800
4.801
4.805
4.808
4.814
4.820
4.823
4.824
4.830
4.832
4.831
4.831
4.830
4.831
4.830
4.826
4.825
4.824
4.823
4.826
4.827
4.824
4.825
4.826
4.822
4.823
4.825
4.823
4.819
4.813
4.812
4.810
4.809
4.808
4.808
4.804
4.803
4.810
4.816
4.816
4.812
4.807
4.805
4.805
4.801
4.799
4.800
4.799
