2.992
3.321
3.510
3.605
3.718
3.786
3.815
3.890
3.873
3.929
3.972
4.011
4.051
4.040
3.986
4.007
4.029
4.043
4.062
4.074
4.097
4.107
4.124
4.134
4.149
4.156
4.165
4.186
4.195
4.189
4.206
4.225
4.235
4.223
4.236
4.251
4.270
4.272
4.263
4.263
4.278
4.284
4.294
4.310
4.309
4.324
4.317
4.309
4.322
4.329
4.332
4.337
4.343
4.353
4.360
4.358
4.370
4.379
4.389
4.382
4.360
4.367
4.373
4.376
4.383
4.389
4.385
4.390
4.399
4.407
4.413
4.420
4.428
4.418
4.422
4.425
4.434
4.441
4.437
4.445
4.458
4.465
4.458
4.452
4.461
4.469
4.447
4.440
4.445
4.450
4.450
4.451
4.457
4.457
4.466
4.455
4.452
4.449
4.458
4.466
4.468
4.476
4.473
4.482
4.494
4.478
4.480
4.491
4.501
4.495
4.504
4.502
4.502
4.493
4.502
4.503
4.499
4.503
4.504
4.508
4.519
4.518
4.529
4.525
4.530
4.526
4.525
4.525
4.537
4.531
4.539
4.541
4.547
4.546
4.552
4.554
4.563
4.559
4.557
4.553
4.562
4.548
4.549
4.545
4.547
4.555
4.554
4.568
4.570
4.561
4.571
4.571
4.578
4.578
4.573
4.582
4.594
4.587
4.591
4.588
4.581
4.574
4.562
4.554
4.545
4.546
4.565
4.555
4.544
4.564
4.557
4.555
4.566
4.569
4.565
4.571
4.582
4.581
4.574
4.573
4.595
4.582
4.567
4.569
4.558
4.555
4.566
4.558
4.558
4.550
4.569
4.557
4.552
4.558
4.568
4.573
4.573
4.570
4.569
4.583
4.579
4.578
4.577
4.578
4.584
4.576
4.580
4.577
4.587
4.591
4.585
4.585
4.583
4.591
4.610
4.605
4.607
4.593
4.597
4.611
4.615
4.606
4.591
4.585
4.605
4.602
4.606
4.601
4.589
4.595
4.613
4.608
4.605
4.602
4.601
4.598
4.618
4.624
4.619
4.606
4.603
4.599
4.615
4.627
4.630
4.622
4.622
4.620
4.622
4.625
4.644
4.645
4.636
4.633
4.630
4.630
4.631
4.646
4.641
4.645
4.647
4.642
4.635
4.631
4.643
4.647
4.636
4.626
4.616
4.608
4.615
4.632
4.626
4.625
4.627
4.620
4.607
4.602
4.614
4.621
4.627
4.621
4.617
4.609
4.615
4.613
4.615
4.622
4.637
4.638
4.635
4.634
4.626
4.617
4.621
4.618
4.620
4.636
4.649
4.644
4.636
4.623
4.619
4.616
4.613
4.611
4.626
4.640
4.645
4.647
4.637
4.637
4.633
4.632
4.639
4.637
4.637
4.636
4.650
4.658
4.653
4.651
4.647
4.649
4.651
4.647
4.644
4.635
4.635
4.649
4.663
4.663
4.655
4.659
4.652
4.654
4.655
4.660
4.654
4.651
4.647
4.652
4.665
4.678
4.682
4.681
4.679
4.675
4.669
4.671
4.667
4.666
4.661
4.659
4.663
4.667
4.680
4.677
4.676
4.675
4.681
4.672
4.662
4.653
4.649
4.651
4.649
4.654
4.657
4.670
4.675
4.669
4.662
4.657
4.652
4.650
4.652
4.649
4.646
4.649
4.651
4.649
4.647
4.659
4.671
4.683
4.688
4.685
4.676
4.671
4.670
4.667
4.668
4.656
4.656
4.658
4.665
4.659
4.655
4.658
4.670
4.681
4.693
4.702
4.693
4.692
4.687
4.687
4.683
4.685
4.681
4.682
4.678
4.672
4.677
4.676
4.678
4.680
4.682
4.686
4.697
4.708
4.713
4.709
4.713
4.712
4.704
4.710
4.702
4.704
4.698
4.697
4.701
4.704
4.699
4.694
4.685
4.678
4.684
4.694
4.705
4.715
4.706
4.712
4.705
4.697
4.690
4.693
4.692
4.688
4.689
4.685
4.685
4.685
4.683
4.684
4.690
4.689
4.682
4.684
4.694
4.704
4.714
4.723
4.721
4.719
4.716
4.713
4.715
4.715
4.721
4.714
4.706
4.711
4.713
4.712
4.713
4.716
4.715
4.709
4.703
4.703
4.701
4.710
4.706
4.712
4.721
4.731
4.741
4.750
4.747
4.743
4.747
4.737
4.727
4.724
4.727
4.724
4.726
4.724
4.734
4.732
4.730
4.725
4.717
4.716
4.722
4.719
4.718
4.718
4.720
4.720
4.724
4.733
4.729
4.724
4.719
4.713
4.712
4.712
4.715
4.707
4.708
4.705
4.702
4.701
4.703
4.702
4.706
4.697
4.698
4.700
4.708
4.706
4.702
4.700
4.704
4.698
4.701
4.709
4.718
4.724
4.722
4.726
4.721
4.714
4.709
4.705
4.697
4.698
4.706
4.710
4.712
4.712
4.704
4.699
4.694
4.687
4.688
4.688
4.686
4.677
4.674
4.681
4.682
4.684
4.680
4.677
4.686
4.694
4.702
4.710
4.718
4.727
4.735
4.736
4.726
4.717
4.719
4.720
4.720
4.717
4.717
4.722
4.726
4.726
4.723
4.719
4.713
4.706
4.699
4.696
4.694
4.689
4.690
4.687
4.686
4.684
4.679
4.678
4.678
4.671
4.672
4.680
4.688
4.695
4.703
4.711
4.719
4.719
4.720
4.715
4.710
4.713
4.712
4.719
4.723
4.722
4.718
4.727
4.721
4.720
4.725
4.720
4.727
4.729
4.725
4.720
4.713
4.710
4.706
4.704
4.705
4.699
4.703
4.695
4.690
4.689
4.700
4.701
4.697
4.696
4.697
4.694
4.695
4.693
4.699
4.706
4.713
4.720
4.728
4.729
4.735
4.727
4.723
4.721
4.724
4.725
4.724
4.724
4.722
4.718
4.715
4.712
4.708
4.705
4.712
4.720
4.716
4.716
4.714
4.713
4.708
4.709
4.704
4.704
4.714
4.710
4.707
4.707
4.711
4.709
4.712
4.709
4.705
4.702
4.706
4.704
4.699
4.692
4.689
4.689
4.696
4.703
4.709
4.716
4.723
4.730
4.737
4.739
4.739
4.738
4.741
4.737
4.735
4.738
4.738
4.747
4.742
4.739
4.734
4.727
4.733
4.727
4.724
4.723
4.725
4.720
4.719
4.724
4.726
4.720
4.720
4.714
4.718
4.715
4.715
4.713
4.720
4.723
4.723
4.730
4.725
4.729
4.722
4.717
4.715
4.711
4.713
4.707
4.701
4.703
4.698
4.697
4.694
4.693
4.699
4.706
4.712
4.718
4.724
4.731
4.737
4.743
4.749
4.755
4.750
4.747
4.748
4.743
4.753
4.761
4.759
4.749
4.754
4.758
4.750
4.759
4.758
4.752
4.749
4.753
4.749
4.747
4.741
4.744
4.744
4.736
4.735
4.738
4.742
4.743
4.732
4.732
4.724
4.721
4.720
4.728
4.731
4.737
4.736
4.733
4.737
4.733
4.739
4.738
4.737
4.731
4.729
4.726
4.720
4.723
4.729
4.736
4.728
4.733
4.737
4.731
4.728
4.729
4.727
4.727
4.728
4.726
4.732
4.737
4.743
4.749
4.755
4.760
4.766
4.772
4.778
4.784
4.785
4.789
4.797
4.793
4.791
4.785
4.778
4.781
4.778
4.778
4.782
4.784
4.783
4.781
4.777
4.778
4.773
4.772
4.772
4.769
4.774
4.771
4.768
4.763
4.757
4.761
4.764
4.767
4.765
4.763
4.766
4.764
4.767
4.765
4.761
4.759
4.756
4.753
4.754
4.751
4.747
4.744
4.738
4.733
4.739
4.742
4.742
4.736
4.734
4.740
4.745
4.742
4.739
4.734
4.729
4.725
4.720
4.716
4.712
4.712
4.709
4.714
4.719
4.725
4.730
4.735
4.740
4.746
4.751
4.756
4.761
4.761
4.762
4.770
4.777
4.779
4.778
4.772
4.765
4.763
4.763
4.762
4.762
4.759
4.764
4.765
4.764
4.757
4.755
4.756
4.751
4.752
4.749
4.753
4.748
4.741
4.742
4.744
4.747
4.743
4.737
4.739
4.738
4.737
4.737
4.741
4.741
4.734
4.736
4.745
4.737
4.733
4.731
4.730
4.728
4.725
4.732
4.734
4.735
4.735
4.729
4.734
4.740
4.743
4.743
4.745
4.739
4.739
4.742
4.737
4.737
4.734
4.730
4.730
4.731
4.727
4.724
4.723
4.724
4.719
4.712
4.715
4.714
4.713
4.717
4.716
4.718
4.723
4.723
4.723
4.720
4.723
4.724
4.729
4.734
4.739
4.744
4.749
4.753
4.758
4.763
4.768
4.773
4.778
4.782
4.787
4.788
4.789
4.790
4.789
4.787
4.788
4.790
4.787
4.784
4.786
