2.959
3.256
3.467
3.393
3.527
3.591
3.620
3.701
3.761
3.784
3.841
3.825
3.843
3.924
3.942
3.917
3.934
3.934
3.978
3.986
4.016
4.014
4.029
4.045
4.052
4.069
4.095
4.089
4.069
4.047
4.041
4.041
4.041
4.110
4.101
4.090
4.079
4.153
4.114
4.150
4.151
4.157
4.132
4.096
4.148
4.112
4.133
4.129
4.165
4.128
4.130
4.205
4.178
4.181
4.216
4.170
4.159
4.176
4.167
4.153
4.208
4.233
4.200
4.213
4.227
4.226
4.201
4.167
4.215
4.276
4.269
4.260
4.236
4.230
4.287
4.291
4.261
4.270
4.275
4.260
4.261
4.220
4.208
4.176
4.213
4.244
4.275
4.232
4.196
4.224
4.203
4.183
4.228
4.273
4.246
4.219
4.232
4.226
4.215
4.200
4.203
4.242
4.283
4.265
4.255
4.264
4.249
4.225
4.231
4.215
4.214
4.239
4.265
4.302
4.323
4.299
4.308
4.300
4.295
4.306
4.282
4.299
4.295
4.290
4.269
4.272
4.305
4.327
4.307
4.279
4.289
4.287
4.263
4.231
4.231
4.248
4.271
4.245
4.230
4.211
4.241
4.271
4.301
4.331
4.355
4.328
4.347
4.340
4.345
4.379
4.361
4.366
4.337
4.319
4.307
4.317
4.298
4.277
4.252
4.267
4.246
4.256
4.282
4.308
4.325
4.335
4.333
4.325
4.327
4.311
4.297
4.317
4.317
4.303
4.291
4.311
4.294
4.308
4.284
4.270
4.261
4.280
4.253
4.245
4.255
4.233
4.238
4.225
4.247
4.270
4.292
4.315
4.333
4.332
4.347
4.368
4.375
4.362
4.339
4.350
4.357
4.322
4.322
4.314
4.318
4.298
4.284
4.313
4.296
4.270
4.271
4.260
4.269
4.259
4.288
4.289
4.295
4.272
4.281
4.254
4.245
4.244
4.237
4.241
4.243
4.269
4.245
4.262
4.281
4.299
4.318
4.337
4.355
4.374
4.392
4.411
4.400
4.412
4.410
4.374
4.379
4.385
4.363
4.342
4.359
4.365
4.365
4.353
4.359
4.379
4.353
4.359
4.342
4.326
4.310
4.294
4.278
4.262
4.282
4.261
4.253
4.250
4.230
4.236
4.231
4.235
4.220
4.232
4.229
4.224
4.221
4.244
4.219
4.225
4.235
4.244
4.271
4.275
4.275
4.262
4.247
4.250
4.243
4.241
4.254
4.269
4.284
4.299
4.314
4.329
4.343
4.358
4.373
4.388
4.403
4.418
4.426
4.416
4.405
4.399
4.377
4.372
4.384
4.382
4.393
4.359
4.357
4.346
4.353
4.334
4.316
4.301
4.293
4.316
4.330
4.327
4.307
4.306
4.308
4.300
4.294
4.315
4.293
4.286
4.305
4.316
4.329
4.320
4.315
4.327
4.332
4.317
4.310
4.302
4.322
4.321
4.320
4.315
4.308
4.326
4.343
4.328
4.317
4.321
4.302
4.285
4.293
4.282
4.274
4.261
4.273
4.280
4.279
4.285
4.283
4.277
4.267
4.264
4.265
4.259
4.264
4.261
4.256
4.260
4.257
4.259
4.268
4.270
4.272
4.260
4.251
4.247
4.240
4.251
4.262
4.266
4.241
4.243
4.235
4.246
4.257
4.268
4.279
4.291
4.302
4.313
4.324
4.335
4.346
4.358
4.369
4.380
4.391
4.402
4.395
4.407
4.408
4.424
4.438
4.436
4.432
4.431
4.431
4.419
4.418
4.411
4.400
4.404
4.412
4.396
4.385
4.376
4.378
4.356
4.358
4.337
4.340
4.334
4.324
4.327
4.335
4.353
4.354
4.369
4.371
4.351
4.367
4.350
4.342
4.338
4.326
4.331
4.347
4.359
4.351
4.350
4.361
4.376
4.382
4.386
4.374
4.378
4.367
4.363
4.356
4.365
4.348
4.346
4.343
4.352
4.344
4.327
4.324
4.310
4.295
4.290
4.282
4.288
4.296
4.302
4.290
4.281
4.272
4.256
4.270
4.258
4.265
4.271
4.267
4.255
4.259
4.262
4.254
4.250
4.263
4.249
4.239
4.249
4.238
4.253
4.252
4.265
4.259
4.252
4.253
4.266
4.279
4.291
4.303
4.292
4.281
4.273
4.278
4.279
4.279
4.277
4.287
4.296
4.284
4.285
4.267
4.283
4.299
4.307
4.318
4.327
4.320
4.335
4.327
4.321
4.300
4.308
4.324
4.304
4.315
4.300
4.299
4.289
4.279
4.269
4.267
4.273
4.275
4.270
4.258
4.249
4.260
4.258
4.272
4.257
4.252
4.250
4.261
4.253
4.240
4.227
4.217
4.211
4.206
4.224
4.212
4.222
4.227
4.242
4.233
4.238
4.216
4.219
4.209
4.208
4.216
4.210
4.212
4.223
4.218
4.213
4.222
4.237
4.254
4.249
4.250
4.245
4.233
4.234
4.229
4.219
4.216
4.223
4.231
4.238
4.245
4.253
4.260
4.268
4.275
4.283
4.290
4.298
4.305
4.312
4.320
4.327
4.334
4.342
4.350
4.357
4.364
4.372
4.379
4.387
4.394
4.401
4.409
4.416
4.424
4.431
4.439
4.442
4.426
4.426
4.428
4.435
4.429
4.426
4.435
4.438
4.430
4.421
4.411
4.402
4.392
4.403
4.417
4.418
4.419
4.409
4.408
4.388
4.384
4.379
4.379
4.376
4.384
4.375
4.365
4.360
4.361
4.370
4.370
4.368
4.365
4.370
4.359
4.357
4.355
4.366
4.378
4.384
4.379
4.384
4.383
4.381
4.390
4.383
4.379
4.369
4.355
4.362
4.348
4.349
4.348
4.360
4.362
4.367
4.366
4.360
4.360
4.352
4.362
4.371
4.381
4.388
4.400
4.409
4.412
4.405
4.398
4.393
4.396
4.399
4.395
4.400
4.406
4.399
4.392
4.380
4.375
4.381
4.382
4.376
4.379
4.377
4.366
4.353
4.350
4.339
4.343
4.338
4.338
4.337
4.347
4.354
4.355
4.344
4.336
4.330
4.316
4.301
4.305
4.318
4.331
4.337
4.343
4.335
4.335
4.323
4.314
4.318
4.323
4.315
4.310
4.310
4.324
4.320
4.327
4.329
4.339
4.338
4.341
4.325
4.332
4.310
4.312
4.297
4.290
4.295
4.300
4.304
4.310
4.319
4.305
4.307
4.312
4.323
4.309
4.297
4.303
4.294
4.299
4.308
4.302
4.305
4.319
4.310
4.315
4.311
4.298
4.299
4.308
4.316
4.305
4.298
4.299
4.319
4.310
4.300
4.304
4.315
4.309
4.301
4.293
4.285
4.283
4.286
4.278
4.276
4.268
4.269
4.267
4.272
4.263
4.254
4.266
4.274
4.266
4.255
4.244
4.237
4.230
4.239
4.235
4.231
4.243
4.247
4.259
4.265
4.256
4.274
4.271
4.273
4.277
4.261
4.255
4.259
4.259
4.273
4.270
4.285
4.269
4.269
4.257
4.257
4.266
4.279
4.264
4.258
4.252
4.250
4.257
4.256
4.251
4.240
4.239
4.223
4.233
4.235
4.239
4.233
4.228
4.246
4.247
4.250
4.241
4.233
4.237
4.237
4.250
4.227
4.229
4.229
4.232
4.231
4.223
4.232
4.241
4.249
4.258
4.267
4.276
4.281
4.272
4.268
4.277
4.271
4.279
4.279
4.277
4.283
4.279
4.289
4.286
4.288
4.276
4.281
4.277
4.283
4.274
4.275
4.269
4.260
4.250
4.252
4.257
4.270
4.269
4.266
4.267
4.273
4.270
4.259
4.265
4.273
4.280
4.293
4.298
4.291
4.293
4.290
4.291
4.286
4.296
4.287
4.278
4.280
4.283
4.282
4.278
4.278
4.273
4.276
4.282
4.283
4.282
4.278
4.274
4.264
4.266
4.268
4.272
4.259
4.260
4.261
4.258
4.260
4.262
4.266
4.273
4.262
4.270
4.270
4.263
4.256
4.248
4.241
4.236
4.227
4.220
4.218
4.221
4.219
4.218
4.221
4.226
4.237
4.240
4.231
4.227
4.234
4.235
4.234
4.226
4.228
4.232
4.237
4.235
4.246
4.240
4.239
4.230
4.228
4.225
4.212
4.211
4.205
4.210
4.211
4.218
4.226
4.232
4.222
4.213
4.215
4.208
4.194
4.195
4.201
4.200
4.202
4.209
4.216
4.216
4.212
4.222
4.227
4.216
4.212
4.214
4.220
4.227
4.233
4.240
4.246
4.252
4.258
4.265
4.271
4.278
4.284
4.291
4.297
4.303
4.305
4.303
4.299
4.302
4.311
4.316
4.314
4.322
4.311
4.312
4.312
4.306
4.290
4.285
4.290
4.284
4.290
4.301
4.298
