2.989
3.335
3.504
3.629
3.714
3.784
3.812
3.888
3.872
3.926
3.971
4.015
4.054
4.065
3.994
4.004
4.025
4.039
4.061
4.081
4.092
4.110
4.126
4.138
4.147
4.166
4.167
4.185
4.197
4.194
4.211
4.216
4.234
4.225
4.232
4.254
4.258
4.271
4.283
4.267
4.273
4.283
4.288
4.304
4.317
4.317
4.330
4.323
4.313
4.323
4.331
4.338
4.338
4.347
4.361
4.366
4.360
4.376
4.382
4.389
4.389
4.375
4.366
4.374
4.388
4.391
4.398
4.395
4.391
4.402
4.411
4.411
4.424
4.421
4.422
4.424
4.433
4.433
4.437
4.451
4.451
4.452
4.461
4.465
4.464
4.459
4.465
4.472
4.450
4.435
4.445
4.449
4.447
4.452
4.457
4.464
4.474
4.465
4.465
4.461
4.470
4.464
4.466
4.474
4.485
4.483
4.491
4.486
4.488
4.491
4.501
4.509
4.502
4.508
4.519
4.505
4.502
4.504
4.508
4.513
4.513
4.503
4.518
4.516
4.525
4.527
4.530
4.535
4.532
4.536
4.529
4.546
4.540
4.549
4.550
4.555
4.558
4.555
4.561
4.556
4.567
4.549
4.557
4.552
4.560
4.551
4.557
4.556
4.557
4.560
4.562
4.574
4.574
4.570
4.583
4.583
4.585
4.586
4.588
4.586
4.599
4.592
4.590
4.595
4.586
4.575
4.563
4.563
4.559
4.556
4.567
4.561
4.550
4.563
4.566
4.566
4.557
4.575
4.575
4.574
4.576
4.594
4.586
4.581
4.584
4.590
4.576
4.567
4.569
4.565
4.563
4.572
4.569
4.562
4.554
4.570
4.568
4.565
4.562
4.569
4.576
4.584
4.583
4.579
4.585
4.592
4.590
4.587
4.583
4.592
4.585
4.586
4.586
4.581
4.599
4.597
4.593
4.586
4.589
4.603
4.613
4.607
4.601
4.605
4.600
4.620
4.614
4.600
4.594
4.596
4.611
4.609
4.614
4.599
4.595
4.598
4.617
4.614
4.609
4.610
4.607
4.609
4.618
4.626
4.626
4.617
4.613
4.609
4.612
4.631
4.632
4.630
4.628
4.630
4.624
4.635
4.638
4.655
4.642
4.640
4.641
4.643
4.631
4.637
4.654
4.653
4.650
4.650
4.644
4.637
4.641
4.648
4.643
4.633
4.623
4.617
4.617
4.618
4.634
4.637
4.630
4.631
4.619
4.608
4.611
4.613
4.629
4.630
4.629
4.630
4.624
4.619
4.621
4.625
4.624
4.633
4.648
4.646
4.641
4.636
4.629
4.627
4.620
4.625
4.628
4.643
4.653
4.643
4.633
4.626
4.624
4.627
4.619
4.616
4.629
4.644
4.649
4.649
4.644
4.643
4.639
4.638
4.642
4.647
4.641
4.647
4.649
4.662
4.659
4.655
4.658
4.659
4.654
4.659
4.649
4.639
4.638
4.645
4.658
4.671
4.663
4.666
4.665
4.656
4.663
4.666
4.661
4.664
4.658
4.659
4.660
4.669
4.682
4.689
4.688
4.688
4.677
4.681
4.678
4.665
4.673
4.666
4.667
4.667
4.670
4.680
4.685
4.686
4.681
4.681
4.672
4.663
4.654
4.656
4.656
4.652
4.656
4.656
4.666
4.678
4.674
4.669
4.661
4.659
4.660
4.658
4.656
4.660
4.654
4.659
4.656
4.654
4.654
4.663
4.674
4.686
4.694
4.688
4.674
4.678
4.676
4.675
4.672
4.663
4.661
4.664
4.672
4.668
4.668
4.667
4.668
4.680
4.691
4.702
4.704
4.694
4.693
4.688
4.692
4.690
4.690
4.692
4.684
4.677
4.682
4.684
4.680
4.688
4.687
4.690
4.697
4.701
4.712
4.715
4.716
4.716
4.719
4.718
4.710
4.710
4.706
4.704
4.706
4.706
4.715
4.704
4.695
4.692
4.687
4.683
4.694
4.704
4.714
4.709
4.716
4.711
4.704
4.702
4.700
4.696
4.696
4.697
4.692
4.693
4.694
4.688
4.691
4.694
4.697
4.687
4.691
4.688
4.698
4.707
4.717
4.727
4.730
4.726
4.723
4.724
4.720
4.722
4.727
4.717
4.713
4.715
4.723
4.721
4.723
4.723
4.723
4.716
4.716
4.706
4.712
4.709
4.707
4.718
4.720
4.728
4.738
4.747
4.750
4.748
4.751
4.744
4.740
4.734
4.731
4.734
4.731
4.732
4.735
4.738
4.736
4.733
4.729
4.729
4.724
4.726
4.725
4.728
4.726
4.730
4.725
4.726
4.733
4.729
4.724
4.718
4.717
4.717
4.721
4.722
4.710
4.709
4.714
4.707
4.706
4.709
4.712
4.711
4.710
4.706
4.698
4.708
4.716
4.708
4.707
4.706
4.701
4.696
4.704
4.713
4.721
4.729
4.729
4.733
4.728
4.717
4.712
4.707
4.709
4.702
4.708
4.715
4.717
4.713
4.709
4.703
4.693
4.690
4.696
4.692
4.691
4.684
4.685
4.684
4.682
4.686
4.693
4.687
4.683
4.692
4.699
4.707
4.715
4.723
4.731
4.739
4.730
4.727
4.724
4.726
4.727
4.728
4.723
4.724
4.726
4.732
4.732
4.725
4.718
4.711
4.704
4.699
4.703
4.699
4.701
4.698
4.692
4.691
4.690
4.688
4.692
4.680
4.678
4.677
4.679
4.686
4.694
4.701
4.708
4.716
4.724
4.727
4.724
4.722
4.716
4.720
4.722
4.723
4.729
4.730
4.725
4.732
4.726
4.726
4.729
4.732
4.729
4.737
4.729
4.722
4.720
4.717
4.709
4.714
4.706
4.707
4.703
4.696
4.695
4.697
4.699
4.706
4.706
4.704
4.705
4.703
4.701
4.694
4.697
4.704
4.711
4.718
4.725
4.732
4.736
4.734
4.730
4.728
4.728
4.732
4.734
4.727
4.728
4.727
4.726
4.723
4.716
4.712
4.712
4.714
4.724
4.724
4.718
4.718
4.723
4.722
4.716
4.712
4.710
4.716
4.720
4.717
4.714
4.712
4.717
4.717
4.716
4.714
4.711
4.712
4.709
4.702
4.705
4.698
4.695
4.693
4.700
4.706
4.713
4.720
4.726
4.733
4.739
4.746
4.743
4.746
4.746
4.743
4.745
4.746
4.746
4.751
4.749
4.744
4.738
4.734
4.736
4.737
4.734
4.729
4.726
4.727
4.726
4.729
4.731
4.730
4.730
4.727
4.725
4.724
4.721
4.719
4.719
4.728
4.730
4.730
4.732
4.730
4.731
4.729
4.721
4.718
4.716
4.711
4.707
4.707
4.711
4.707
4.705
4.702
4.699
4.703
4.707
4.713
4.719
4.725
4.731
4.737
4.743
4.749
4.756
4.760
4.755
4.755
4.755
4.754
4.760
4.762
4.760
4.757
4.758
4.755
4.756
4.764
4.763
4.760
4.757
4.760
4.755
4.755
4.750
4.747
4.743
4.741
4.743
4.746
4.749
4.744
4.738
4.735
4.731
4.727
4.727
4.730
4.739
4.743
4.744
4.740
4.743
4.744
4.746
4.740
4.740
4.738
4.735
4.734
4.730
4.731
4.728
4.735
4.739
4.738
4.741
4.744
4.734
4.731
4.733
4.735
4.732
4.732
4.731
4.736
4.740
4.746
4.751
4.757
4.763
4.768
4.774
4.780
4.785
4.791
4.796
4.800
4.801
4.792
4.787
4.783
4.788
4.786
4.783
4.789
4.788
4.794
4.786
4.784
4.784
4.785
4.780
4.780
4.778
4.777
4.772
4.769
4.764
4.759
4.762
4.768
4.771
4.776
4.774
4.770
4.770
4.771
4.768
4.768
4.771
4.767
4.761
4.764
4.757
4.753
4.755
4.750
4.743
4.744
4.747
4.745
4.744
4.743
4.743
4.743
4.748
4.743
4.738
4.734
4.729
4.725
4.725
4.721
4.723
4.715
4.715
4.713
4.718
4.723
4.728
4.733
4.738
4.744
4.749
4.754
4.759
4.764
4.769
4.769
4.772
4.780
4.783
4.776
4.771
4.771
4.769
4.766
4.767
4.765
4.766
4.768
4.770
4.764
4.762
4.766
4.762
4.759
4.756
4.761
4.756
4.752
4.747
4.749
4.752
4.752
4.749
4.746
4.746
4.747
4.740
4.747
4.746
4.743
4.738
4.737
4.742
4.748
4.742
4.738
4.733
4.736
4.732
4.735
4.737
4.736
4.743
4.737
4.735
4.740
4.742
4.749
4.756
4.750
4.750
4.751
4.746
4.745
4.741
4.734
4.735
4.738
4.739
4.736
4.733
4.728
4.729
4.721
4.725
4.720
4.719
4.723
4.717
4.724
4.725
4.729
4.727
4.729
4.728
4.725
