2.994
3.329
3.505
3.631
3.711
3.798
3.854
3.886
3.898
3.953
3.999
3.979
4.010
4.046
4.070
4.097
4.128
4.151
4.175
4.142
4.100
4.113
4.128
4.143
4.155
4.165
4.182
4.184
4.204
4.206
4.220
4.222
4.234
4.246
4.246
4.257
4.270
4.277
4.271
4.286
4.297
4.302
4.312
4.304
4.311
4.326
4.330
4.343
4.344
4.337
4.346
4.348
4.360
4.364
4.368
4.379
4.383
4.379
4.374
4.378
4.385
4.395
4.404
4.405
4.407
4.414
4.423
4.425
4.426
4.439
4.415
4.425
4.423
4.425
4.431
4.434
4.445
4.444
4.448
4.450
4.459
4.464
4.470
4.468
4.471
4.471
4.479
4.490
4.486
4.493
4.484
4.463
4.471
4.469
4.479
4.480
4.489
4.488
4.489
4.501
4.492
4.496
4.495
4.501
4.498
4.505
4.514
4.520
4.517
4.524
4.530
4.526
4.519
4.524
4.527
4.529
4.531
4.537
4.544
4.546
4.549
4.551
4.557
4.557
4.564
4.565
4.560
4.557
4.564
4.562
4.555
4.543
4.530
4.538
4.550
4.543
4.544
4.554
4.557
4.548
4.552
4.557
4.557
4.559
4.569
4.564
4.561
4.564
4.560
4.559
4.560
4.559
4.564
4.570
4.568
4.573
4.571
4.579
4.577
4.584
4.582
4.590
4.585
4.587
4.588
4.587
4.593
4.597
4.597
4.605
4.599
4.608
4.604
4.595
4.596
4.601
4.599
4.605
4.593
4.603
4.597
4.611
4.605
4.606
4.605
4.609
4.620
4.617
4.616
4.625
4.629
4.627
4.632
4.623
4.635
4.633
4.626
4.630
4.627
4.634
4.638
4.636
4.642
4.642
4.643
4.649
4.648
4.647
4.651
4.653
4.651
4.653
4.649
4.636
4.651
4.650
4.653
4.650
4.654
4.642
4.646
4.652
4.646
4.641
4.659
4.657
4.651
4.653
4.664
4.664
4.662
4.663
4.667
4.669
4.667
4.671
4.681
4.677
4.676
4.677
4.686
4.682
4.683
4.682
4.678
4.671
4.662
4.657
4.648
4.641
4.642
4.644
4.642
4.639
4.654
4.652
4.649
4.649
4.649
4.661
4.662
4.652
4.640
4.657
4.662
4.660
4.656
4.652
4.662
4.664
4.668
4.663
4.664
4.666
4.681
4.682
4.673
4.674
4.671
4.680
4.673
4.664
4.654
4.661
4.670
4.671
4.665
4.652
4.656
4.666
4.660
4.649
4.648
4.650
4.660
4.666
4.657
4.660
4.654
4.649
4.664
4.669
4.667
4.661
4.662
4.658
4.664
4.677
4.679
4.679
4.681
4.674
4.667
4.674
4.686
4.680
4.684
4.675
4.670
4.668
4.678
4.683
4.681
4.683
4.681
4.680
4.676
4.682
4.694
4.690
4.689
4.683
4.683
4.685
4.686
4.693
4.706
4.704
4.698
4.704
4.695
4.694
4.697
4.699
4.700
4.691
4.687
4.688
4.695
4.685
4.687
4.699
4.701
4.704
4.701
4.691
4.686
4.686
4.686
4.697
4.705
4.705
4.706
4.702
4.701
4.697
4.695
4.694
4.703
4.715
4.716
4.715
4.714
4.713
4.709
4.702
4.694
4.702
4.712
4.720
4.720
4.720
4.719
4.716
4.714
4.710
4.711
4.715
4.720
4.731
4.736
4.734
4.738
4.735
4.731
4.729
4.723
4.720
4.720
4.732
4.742
4.740
4.734
4.729
4.727
4.726
4.731
4.729
4.733
4.731
4.734
4.731
4.725
4.720
4.712
4.705
4.705
4.710
4.708
4.712
4.722
4.723
4.720
4.724
4.717
4.718
4.720
4.712
4.712
4.704
4.703
4.713
4.714
4.721
4.720
4.713
4.714
4.713
4.706
4.705
4.708
4.710
4.701
4.710
4.720
4.723
4.722
4.724
4.723
4.724
4.722
4.723
4.723
4.726
4.720
4.720
4.722
4.720
4.728
4.734
4.730
4.727
4.719
4.724
4.717
4.723
4.727
4.724
4.722
4.724
4.717
4.720
4.728
4.723
4.730
4.731
4.722
4.720
4.719
4.718
4.722
4.716
4.720
4.724
4.722
4.718
4.722
4.732
4.739
4.743
4.738
4.737
4.736
4.742
4.742
4.740
4.744
4.738
4.734
4.737
4.738
4.735
4.733
4.734
4.742
4.751
4.750
4.753
4.750
4.749
4.747
4.743
4.736
4.737
4.739
4.737
4.730
4.727
4.728
4.729
4.734
4.743
4.750
4.760
4.752
4.760
4.763
4.753
4.755
4.759
4.753
4.757
4.749
4.749
4.749
4.751
4.755
4.759
4.758
4.753
4.752
4.760
4.768
4.773
4.772
4.771
4.775
4.768
4.771
4.765
4.764
4.765
4.757
4.756
4.757
4.759
4.757
4.756
4.757
4.754
4.757
4.764
4.766
4.759
4.753
4.749
4.753
4.749
4.747
4.749
4.746
4.751
4.747
4.743
4.749
4.753
4.753
4.749
4.746
4.745
4.749
4.756
4.758
4.754
4.758
4.760
4.761
4.754
4.752
4.746
4.744
4.743
4.749
4.746
4.742
4.740
4.742
4.743
4.749
4.748
4.747
4.746
4.746
4.754
4.761
4.768
4.775
4.776
4.779
4.773
4.769
4.765
4.761
4.762
4.761
4.757
4.761
4.759
4.761
4.760
4.753
4.749
4.747
4.751
4.752
4.751
4.747
4.753
4.760
4.767
4.772
4.781
4.788
4.789
4.794
4.795
4.791
4.784
4.779
4.775
4.772
4.771
4.766
4.770
4.769
4.775
4.777
4.775
4.771
4.771
4.768
4.768
4.764
4.768
4.768
4.767
4.772
4.779
4.785
4.792
4.799
4.806
4.807
4.800
4.797
4.800
4.799
4.798
4.796
4.797
4.796
4.794
4.788
4.792
4.791
4.786
4.780
4.778
4.779
4.776
4.782
4.787
4.786
4.783
4.780
4.778
4.782
4.787
4.794
4.800
4.804
4.798
4.793
4.787
4.785
4.781
4.782
4.779
4.780
4.786
4.786
4.781
4.782
4.781
4.782
4.784
4.786
4.781
4.780
4.776
4.771
4.770
4.771
4.771
4.771
4.770
4.774
4.779
4.785
4.792
4.797
4.805
4.808
4.811
4.810
4.808
4.807
4.803
4.797
4.801
4.805
4.803
4.797
4.797
4.801
4.801
4.801
4.794
4.794
4.794
4.794
4.800
4.799
4.805
4.801
4.794
4.793
4.792
4.790
4.794
4.794
4.794
4.791
4.792
4.796
4.803
4.808
4.814
4.820
4.827
4.829
4.831
4.827
4.828
4.823
4.822
4.831
4.830
4.827
4.833
4.834
4.834
4.832
4.831
4.827
4.823
4.816
4.812
4.807
4.806
4.805
4.812
4.807
4.803
4.796
4.798
4.802
4.808
4.813
4.817
4.812
4.811
4.812
4.808
4.808
4.816
4.820
4.816
4.813
4.809
4.805
4.803
4.801
4.800
4.802
4.800
4.802
4.798
4.794
4.792
4.794
4.795
4.796
4.790
4.788
4.786
4.782
4.781
4.780
4.784
4.786
4.786
4.788
4.789
4.783
4.786
4.783
4.784
4.780
4.778
4.777
4.781
4.786
4.792
4.797
4.798
4.794
4.795
4.799
4.801
4.801
4.800
4.804
4.800
4.796
4.794
4.791
4.795
4.793
4.792
4.794
4.792
4.791
4.794
4.793
4.792
4.794
4.792
4.790
4.787
4.786
4.792
4.788
4.786
4.783
4.784
4.782
4.779
4.782
4.781
4.782
4.781
4.782
4.778
4.779
4.778
4.777
4.778
4.783
4.789
4.793
4.798
4.804
4.808
4.805
4.801
4.801
4.798
4.804
4.800
4.797
4.800
4.799
4.801
4.802
4.803
4.808
4.814
4.812
4.808
4.808
4.809
4.805
4.805
4.801
4.800
4.802
4.803
4.799
4.795
4.790
4.787
4.786
4.784
4.783
4.787
4.786
4.787
4.791
4.790
4.790
4.787
4.785
4.789
4.785
4.781
4.777
4.773
4.774
4.779
4.785
4.790
4.794
4.798
4.804
4.809
4.810
4.805
4.807
4.803
4.797
4.795
4.796
4.798
4.797
4.801
4.802
4.803
4.799
4.795
4.794
4.794
4.793
4.792
4.786
4.790
4.788
4.786
4.786
4.784
4.790
4.790
4.788
4.789
4.790
4.787
4.790
4.792
4.788
4.787
4.786
4.786
4.788
4.787
4.786
4.787
4.785
4.784
4.785
4.786
4.786
4.787
4.783
4.786
4.790
4.786
4.786
4.787
4.786
4.787
4.793
4.797
4.802
4.806
4.810
4.816
4.816
4.812
4.810
4.808
