2.971
3.287
3.479
3.564
3.719
3.612
3.673
3.722
3.783
3.821
3.843
3.893
3.886
3.936
3.935
3.954
3.992
4.019
3.997
4.006
4.054
4.042
4.073
4.097
4.118
4.115
4.102
4.096
4.110
4.116
4.140
4.174
4.147
4.152
4.174
4.188
4.190
4.200
4.221
4.187
4.219
4.242
4.247
4.271
4.264
4.275
4.267
4.242
4.237
4.232
4.265
4.217
4.228
4.221
4.249
4.244
4.241
4.272
4.258
4.277
4.258
4.271
4.246
4.293
4.271
4.300
4.297
4.292
4.311
4.306
4.323
4.311
4.300
4.332
4.295
4.307
4.297
4.285
4.309
4.310
4.283
4.315
4.316
4.306
4.300
4.337
4.309
4.307
4.316
4.353
4.359
4.334
4.332
4.364
4.369
4.355
4.339
4.348
4.349
4.328
4.320
4.316
4.357
4.349
4.345
4.349
4.350
4.347
4.387
4.389
4.386
4.372
4.357
4.379
4.392
4.398
4.397
4.399
4.372
4.357
4.374
4.408
4.401
4.400
4.407
4.391
4.399
4.401
4.400
4.433
4.428
4.435
4.426
4.415
4.432
4.411
4.395
4.425
4.457
4.459
4.440
4.424
4.401
4.399
4.388
4.385
4.405
4.412
4.412
4.403
4.400
4.401
4.395
4.384
4.365
4.368
4.396
4.416
4.397
4.403
4.401
4.404
4.399
4.382
4.371
4.372
4.370
4.373
4.390
4.416
4.412
4.410
4.396
4.389
4.401
4.415
4.417
4.400
4.379
4.367
4.374
4.379
4.384
4.407
4.431
4.455
4.455
4.435
4.422
4.428
4.407
4.416
4.401
4.391
4.393
4.391
4.396
4.403
4.391
4.387
4.409
4.431
4.453
4.471
4.456
4.462
4.455
4.466
4.459
4.464
4.442
4.450
4.458
4.440
4.433
4.414
4.433
4.433
4.443
4.453
4.453
4.437
4.442
4.462
4.482
4.498
4.483
4.476
4.472
4.473
4.460
4.442
4.446
4.436
4.430
4.408
4.410
4.414
4.430
4.408
4.410
4.397
4.387
4.375
4.388
4.406
4.424
4.442
4.460
4.478
4.495
4.479
4.483
4.479
4.482
4.476
4.468
4.468
4.458
4.455
4.461
4.453
4.436
4.438
4.449
4.463
4.453
4.477
4.477
4.465
4.459
4.459
4.458
4.467
4.461
4.466
4.467
4.464
4.464
4.454
4.469
4.485
4.477
4.481
4.461
4.460
4.457
4.473
4.480
4.472
4.472
4.466
4.453
4.450
4.439
4.441
4.435
4.424
4.428
4.429
4.424
4.417
4.426
4.412
4.407
4.401
4.401
4.394
4.397
4.410
4.431
4.424
4.415
4.423
4.422
4.431
4.426
4.425
4.437
4.449
4.463
4.477
4.491
4.504
4.517
4.515
4.505
4.506
4.511
4.500
4.485
4.475
4.461
4.452
4.447
4.431
4.426
4.435
4.434
4.439
4.458
4.472
4.472
4.477
4.488
4.493
4.469
4.462
4.460
4.451
4.433
4.426
4.416
4.419
4.412
4.394
4.395
4.412
4.408
4.406
4.397
4.410
4.410
4.403
4.404
4.401
4.403
4.410
4.427
4.422
4.417
4.429
4.441
4.453
4.464
4.476
4.488
4.500
4.512
4.524
4.536
4.548
4.549
4.541
4.530
4.512
4.514
4.506
4.491
4.483
4.475
4.488
4.488
4.483
4.501
4.495
4.496
4.497
4.491
4.479
4.468
4.467
4.476
4.477
4.470
4.464
4.471
4.466
4.460
4.453
4.463
4.465
4.462
4.456
4.463
4.472
4.462
4.466
4.481
4.497
4.491
4.473
4.469
4.470
4.455
4.441
4.449
4.447
4.449
4.454
4.440
4.446
4.437
4.429
4.435
4.444
4.455
4.451
4.451
4.454
4.454
4.453
4.463
4.466
4.469
4.457
4.445
4.440
4.454
4.460
4.470
4.480
4.490
4.500
4.509
4.519
4.529
4.539
4.527
4.504
4.501
4.501
4.487
4.492
4.482
4.469
4.480
4.473
4.473
4.482
4.473
4.484
4.498
4.503
4.496
4.484
4.491
4.492
4.483
4.483
4.480
4.476
4.492
4.496
4.496
4.481
4.481
4.475
4.478
4.475
4.465
4.472
4.473
4.469
4.467
4.460
4.474
4.456
4.453
4.442
4.435
4.443
4.436
4.445
4.441
4.445
4.431
4.432
4.422
4.427
4.422
4.418
4.420
4.416
4.415
4.412
4.427
4.429
4.431
4.421
4.407
4.408
4.421
4.418
4.429
4.418
4.412
4.413
4.410
4.414
4.407
4.404
4.410
4.420
4.434
4.439
4.450
4.461
4.459
4.463
4.473
4.462
4.451
4.452
4.464
4.452
4.446
4.451
4.464
4.455
4.445
4.437
4.441
4.440
4.453
4.448
4.436
4.440
4.446
4.436
4.444
4.452
4.459
4.467
4.475
4.483
4.491
4.499
4.507
4.515
4.523
4.531
4.538
4.542
4.539
4.534
4.526
4.519
4.525
4.520
4.525
4.521
4.531
4.537
4.535
4.537
4.543
4.535
4.520
4.509
4.499
4.504
4.507
4.514
4.510
4.515
4.512
4.502
4.495
4.503
4.501
4.488
4.485
4.485
4.487
4.502
4.493
4.506
4.513
4.520
4.520
4.515
4.508
4.505
4.504
4.509
4.511
4.516
4.516
4.522
4.507
4.506
4.500
4.494
4.502
4.495
4.499
4.495
4.509
4.496
4.491
4.501
4.511
4.520
4.527
4.530
4.519
4.505
4.503
4.487
4.484
4.493
4.501
4.497
4.488
4.490
4.479
4.475
4.482
4.475
4.477
4.486
4.491
4.500
4.498
4.483
4.480
4.478
4.473
4.470
4.468
4.466
4.462
4.458
4.451
4.444
4.437
4.431
4.425
4.429
4.431
4.427
4.431
4.429
4.435
4.440
4.447
4.451
4.443
4.441
4.435
4.443
4.445
4.444
4.438
4.438
4.433
4.430
4.435
4.446
4.446
4.436
4.442
4.437
4.438
4.434
4.426
4.422
4.426
4.423
4.414
4.405
4.396
4.393
4.396
4.403
4.399
4.411
4.413
4.426
4.416
4.417
4.410
4.411
4.401
4.402
4.393
4.392
4.403
4.400
4.400
4.391
4.395
4.393
4.393
4.395
4.385
4.390
4.396
4.383
4.391
4.394
4.391
4.391
4.390
4.387
4.393
4.389
4.386
4.392
4.398
4.404
4.410
4.416
4.422
4.427
4.433
4.439
4.445
4.451
4.457
4.463
4.469
4.475
4.481
4.487
4.493
4.498
4.504
4.510
4.516
4.522
4.528
4.534
4.540
4.546
4.552
4.558
4.564
4.570
4.576
4.582
4.588
4.593
4.599
4.605
4.604
4.597
4.586
4.581
4.584
4.585
4.581
4.585
4.582
4.580
4.574
4.572
4.562
4.552
4.556
4.552
4.545
4.542
4.545
4.540
4.536
4.526
4.526
4.531
4.524
4.528
4.526
4.528
4.525
4.532
4.533
4.533
4.530
4.530
4.528
4.530
4.524
4.525
4.535
4.544
4.541
4.539
4.546
4.541
4.538
4.528
4.524
4.518
4.513
4.514
4.510
4.513
4.527
4.527
4.515
4.507
4.513
4.522
4.532
4.532
4.536
4.525
4.518
4.514
4.525
4.536
4.543
4.546
4.550
4.544
4.531
4.527
4.520
4.521
4.518
4.518
4.520
4.514
4.513
4.509
4.507
4.505
4.514
4.515
4.512
4.501
4.501
4.494
4.494
4.487
4.485
4.475
4.477
4.477
4.476
4.476
4.483
4.484
4.475
4.464
4.471
4.471
4.470
4.478
4.474
4.473
4.468
4.481
4.474
4.467
4.466
4.463
4.459
4.453
4.448
4.442
4.436
4.430
4.431
4.422
4.424
4.418
4.407
4.410
4.411
4.415
4.422
4.429
4.420
4.408
4.399
4.400
4.412
4.423
4.422
4.428
4.416
4.415
4.423
4.413
4.418
4.418
4.422
4.411
4.418
4.406
4.416
4.416
4.417
4.410
4.408
4.410
4.412
4.426
4.429
4.426
4.421
4.419
4.417
4.420
4.422
4.426
4.428
4.435
4.441
4.448
4.455
4.462
4.469
4.472
4.463
4.464
4.460
4.465
4.457
4.457
4.461
4.463
4.468
4.468
4.473
4.468
4.462
4.460
4.463
4.461
4.450
4.443
4.447
4.456
4.464
4.471
4.476
4.469
4.473
4.481
4.480
4.470
4.470
4.461
4.450
4.446
4.455
4.448
4.446
4.460
4.454
4.455
4.461
4.451
4.448
4.459
4.446
4.456
4.452
4.440
4.446
4.439
4.435
4.438
4.441
4.445
4.445
4.453
