2.994
3.332
3.515
3.617
3.718
3.768
3.819
3.892
3.906
3.960
4.005
3.981
4.016
4.045
4.076
4.105
4.136
4.154
4.142
4.091
4.100
4.113
4.129
4.141
4.152
4.170
4.177
4.192
4.196
4.207
4.211
4.223
4.240
4.237
4.248
4.259
4.260
4.270
4.276
4.288
4.303
4.292
4.298
4.311
4.317
4.329
4.334
4.324
4.328
4.343
4.348
4.354
4.366
4.368
4.375
4.363
4.369
4.371
4.377
4.385
4.394
4.396
4.403
4.409
4.410
4.418
4.426
4.406
4.410
4.407
4.418
4.426
4.429
4.429
4.435
4.439
4.448
4.450
4.457
4.453
4.462
4.464
4.468
4.477
4.478
4.483
4.471
4.456
4.460
4.459
4.471
4.469
4.478
4.477
4.481
4.488
4.481
4.486
4.489
4.488
4.495
4.503
4.507
4.508
4.512
4.515
4.511
4.516
4.518
4.515
4.523
4.526
4.534
4.537
4.542
4.540
4.545
4.546
4.545
4.554
4.545
4.548
4.552
4.551
4.547
4.533
4.518
4.527
4.531
4.537
4.534
4.540
4.539
4.543
4.537
4.543
4.550
4.549
4.556
4.554
4.552
4.543
4.552
4.552
4.548
4.559
4.553
4.563
4.564
4.563
4.570
4.568
4.575
4.574
4.580
4.574
4.569
4.581
4.580
4.587
4.588
4.592
4.592
4.595
4.599
4.587
4.580
4.596
4.588
4.592
4.585
4.593
4.596
4.596
4.600
4.593
4.600
4.598
4.605
4.609
4.610
4.618
4.616
4.615
4.619
4.617
4.619
4.612
4.618
4.625
4.624
4.628
4.632
4.625
4.637
4.639
4.632
4.642
4.643
4.641
4.648
4.650
4.638
4.633
4.637
4.633
4.648
4.644
4.637
4.644
4.641
4.629
4.643
4.642
4.640
4.645
4.649
4.644
4.649
4.659
4.662
4.652
4.652
4.666
4.665
4.666
4.662
4.674
4.665
4.666
4.670
4.683
4.674
4.667
4.660
4.652
4.644
4.637
4.632
4.625
4.635
4.642
4.637
4.637
4.635
4.650
4.648
4.642
4.644
4.644
4.643
4.647
4.643
4.642
4.657
4.650
4.651
4.652
4.648
4.663
4.666
4.667
4.665
4.658
4.668
4.669
4.671
4.661
4.652
4.653
4.652
4.655
4.651
4.650
4.651
4.655
4.651
4.639
4.646
4.652
4.652
4.648
4.640
4.639
4.652
4.650
4.651
4.645
4.651
4.644
4.657
4.666
4.665
4.664
4.663
4.661
4.659
4.672
4.671
4.667
4.666
4.669
4.660
4.669
4.670
4.666
4.666
4.669
4.670
4.666
4.676
4.675
4.681
4.675
4.668
4.667
4.671
4.678
4.690
4.691
4.690
4.694
4.687
4.683
4.679
4.692
4.701
4.694
4.682
4.675
4.679
4.677
4.685
4.691
4.692
4.689
4.685
4.686
4.681
4.675
4.687
4.692
4.689
4.689
4.690
4.692
4.689
4.681
4.687
4.699
4.709
4.705
4.703
4.697
4.703
4.700
4.698
4.692
4.704
4.703
4.704
4.707
4.706
4.702
4.700
4.697
4.698
4.705
4.717
4.721
4.718
4.718
4.722
4.726
4.720
4.715
4.714
4.711
4.722
4.733
4.731
4.732
4.726
4.716
4.715
4.713
4.715
4.713
4.723
4.733
4.729
4.726
4.718
4.711
4.706
4.699
4.696
4.705
4.712
4.708
4.704
4.707
4.704
4.708
4.707
4.705
4.704
4.699
4.700
4.699
4.704
4.703
4.701
4.702
4.698
4.692
4.696
4.694
4.695
4.696
4.704
4.715
4.706
4.711
4.711
4.713
4.709
4.707
4.709
4.710
4.707
4.705
4.711
4.713
4.722
4.722
4.723
4.718
4.712
4.711
4.711
4.711
4.711
4.708
4.709
4.703
4.711
4.719
4.722
4.718
4.715
4.715
4.709
4.705
4.704
4.708
4.704
4.708
4.707
4.702
4.709
4.719
4.728
4.733
4.729
4.722
4.722
4.729
4.728
4.727
4.725
4.724
4.728
4.727
4.717
4.719
4.726
4.730
4.737
4.741
4.736
4.737
4.736
4.735
4.734
4.733
4.734
4.726
4.723
4.724
4.712
4.716
4.720
4.730
4.737
4.748
4.744
4.746
4.744
4.744
4.744
4.741
4.744
4.744
4.736
4.737
4.734
4.741
4.741
4.746
4.744
4.741
4.747
4.755
4.763
4.763
4.756
4.759
4.755
4.759
4.763
4.759
4.758
4.749
4.744
4.743
4.742
4.748
4.744
4.740
4.748
4.752
4.759
4.766
4.761
4.755
4.748
4.743
4.737
4.735
4.734
4.737
4.734
4.735
4.736
4.735
4.737
4.737
4.733
4.737
4.745
4.752
4.755
4.752
4.747
4.749
4.747
4.746
4.742
4.737
4.731
4.733
4.731
4.732
4.731
4.726
4.733
4.735
4.731
4.735
4.737
4.743
4.750
4.759
4.766
4.762
4.764
4.765
4.766
4.763
4.758
4.754
4.752
4.748
4.747
4.744
4.742
4.746
4.747
4.746
4.741
4.735
4.734
4.735
4.744
4.751
4.758
4.765
4.774
4.776
4.775
4.782
4.778
4.776
4.780
4.778
4.770
4.763
4.759
4.760
4.756
4.762
4.764
4.762
4.759
4.759
4.755
4.757
4.752
4.757
4.752
4.760
4.767
4.773
4.781
4.789
4.796
4.793
4.791
4.790
4.796
4.787
4.788
4.787
4.783
4.781
4.777
4.774
4.780
4.781
4.778
4.782
4.775
4.768
4.769
4.773
4.769
4.766
4.772
4.771
4.774
4.781
4.786
4.793
4.797
4.795
4.792
4.792
4.786
4.781
4.775
4.768
4.772
4.774
4.774
4.781
4.775
4.768
4.770
4.770
4.764
4.763
4.767
4.763
4.758
4.759
4.761
4.757
4.761
4.768
4.775
4.781
4.788
4.795
4.799
4.801
4.796
4.792
4.794
4.790
4.789
4.790
4.791
4.790
4.786
4.787
4.788
4.785
4.786
4.784
4.786
4.782
4.789
4.785
4.788
4.789
4.786
4.785
4.783
4.779
4.778
4.779
4.780
4.778
4.785
4.792
4.799
4.804
4.810
4.815
4.819
4.818
4.816
4.817
4.813
4.812
4.816
4.815
4.815
4.818
4.818
4.822
4.824
4.826
4.822
4.822
4.815
4.806
4.803
4.801
4.796
4.793
4.799
4.793
4.791
4.792
4.796
4.801
4.807
4.801
4.797
4.796
4.799
4.804
4.810
4.815
4.818
4.814
4.811
4.807
4.803
4.800
4.797
4.793
4.791
4.792
4.792
4.793
4.789
4.784
4.781
4.779
4.780
4.774
4.769
4.766
4.772
4.771
4.770
4.770
4.772
4.770
4.775
4.776
4.774
4.766
4.764
4.770
4.775
4.782
4.788
4.792
4.799
4.796
4.792
4.789
4.786
4.787
4.786
4.785
4.783
4.784
4.780
4.785
4.781
4.776
4.778
4.778
4.778
4.781
4.780
4.785
4.778
4.776
4.775
4.774
4.777
4.773
4.777
4.784
4.778
4.774
4.769
4.770
4.770
4.770
4.766
4.766
4.767
4.766
4.764
4.770
4.777
4.782
4.786
4.792
4.796
4.795
4.797
4.792
4.789
4.787
4.788
4.784
4.786
4.785
4.788
4.790
4.792
4.796
4.802
4.798
4.794
4.796
4.796
4.793
4.791
4.789
4.789
4.790
4.789
4.792
4.792
4.790
4.786
4.782
4.775
4.774
4.777
4.776
4.780
4.774
4.774
4.776
4.774
4.778
4.780
4.779
4.781
4.776
4.772
4.776
4.780
4.785
4.789
4.795
4.799
4.800
4.792
4.793
4.797
4.798
4.794
4.789
4.786
4.784
4.792
4.790
4.789
4.785
4.781
4.781
4.778
4.779
4.778
4.778
4.778
4.773
4.774
4.774
4.780
4.782
4.777
4.779
4.777
4.773
4.777
4.774
4.775
4.774
4.775
4.774
4.772
4.774
4.772
4.770
4.772
4.774
4.772
4.773
4.772
4.768
4.774
4.774
4.775
4.776
4.774
4.779
4.785
4.789
4.794
4.798
4.803
4.807
4.813
4.811
4.805
4.803
4.800
4.804
4.805
4.803
4.803
4.807
4.803
4.804
4.805
4.801
4.797
4.795
4.788
4.782
4.780
4.778
4.778
4.776
4.777
4.776
4.774
4.776
4.772
4.776
4.775
4.774
4.774
4.774
4.772
4.770
4.774
4.778
4.778
4.773
4.777
4.781
4.783
4.787
4.786
4.784
4.783
4.785
4.788
4.787
4.781
4.776
4.775
4.768
4.767
4.770
4.770
4.776
