2.996
3.329
3.511
3.621
3.703
3.718
3.798
3.872
3.889
3.838
3.867
3.904
3.933
3.961
3.974
3.986
4.023
4.028
4.056
4.065
4.078
4.092
4.122
4.111
4.124
4.144
4.162
4.158
4.166
4.160
4.185
4.201
4.206
4.229
4.230
4.212
4.223
4.231
4.225
4.254
4.253
4.270
4.268
4.284
4.297
4.302
4.308
4.301
4.314
4.330
4.306
4.299
4.295
4.314
4.324
4.312
4.319
4.324
4.325
4.334
4.343
4.352
4.362
4.373
4.355
4.351
4.350
4.360
4.379
4.384
4.380
4.386
4.389
4.394
4.407
4.400
4.406
4.435
4.422
4.410
4.400
4.403
4.414
4.426
4.433
4.434
4.441
4.439
4.448
4.447
4.450
4.460
4.465
4.445
4.425
4.413
4.425
4.421
4.429
4.440
4.431
4.454
4.439
4.445
4.418
4.433
4.407
4.429
4.418
4.415
4.442
4.431
4.425
4.448
4.440
4.434
4.448
4.446
4.438
4.470
4.456
4.452
4.473
4.477
4.463
4.466
4.462
4.459
4.453
4.475
4.469
4.467
4.468
4.476
4.470
4.471
4.476
4.501
4.491
4.494
4.485
4.508
4.509
4.500
4.504
4.501
4.513
4.517
4.497
4.504
4.516
4.504
4.486
4.478
4.493
4.480
4.477
4.474
4.464
4.491
4.504
4.506
4.502
4.480
4.482
4.507
4.507
4.499
4.496
4.476
4.486
4.512
4.505
4.500
4.496
4.506
4.502
4.507
4.523
4.525
4.526
4.513
4.506
4.497
4.515
4.527
4.534
4.521
4.532
4.535
4.529
4.523
4.533
4.551
4.553
4.544
4.530
4.536
4.541
4.534
4.537
4.560
4.556
4.539
4.529
4.515
4.509
4.520
4.527
4.545
4.534
4.534
4.528
4.542
4.541
4.524
4.514
4.523
4.544
4.552
4.551
4.542
4.554
4.554
4.538
4.546
4.532
4.535
4.543
4.563
4.583
4.573
4.574
4.584
4.564
4.563
4.560
4.559
4.560
4.574
4.562
4.580
4.580
4.575
4.583
4.575
4.582
4.574
4.557
4.546
4.551
4.541
4.559
4.577
4.582
4.586
4.593
4.590
4.580
4.580
4.567
4.567
4.580
4.582
4.577
4.572
4.568
4.585
4.602
4.619
4.627
4.617
4.614
4.616
4.607
4.595
4.594
4.593
4.586
4.588
4.586
4.590
4.591
4.602
4.617
4.634
4.623
4.620
4.620
4.612
4.612
4.602
4.593
4.584
4.574
4.565
4.570
4.568
4.573
4.589
4.600
4.596
4.594
4.579
4.569
4.571
4.566
4.572
4.565
4.555
4.552
4.555
4.557
4.554
4.550
4.550
4.561
4.576
4.590
4.604
4.599
4.594
4.607
4.600
4.598
4.604
4.591
4.593
4.581
4.574
4.561
4.549
4.538
4.540
4.536
4.550
4.554
4.558
4.571
4.584
4.598
4.611
4.615
4.612
4.603
4.601
4.589
4.587
4.595
4.587
4.585
4.578
4.578
4.577
4.570
4.574
4.566
4.568
4.570
4.560
4.554
4.558
4.566
4.579
4.591
4.600
4.592
4.594
4.600
4.603
4.599
4.604
4.602
4.610
4.605
4.602
4.596
4.589
4.580
4.580
4.578
4.575
4.577
4.579
4.578
4.572
4.558
4.566
4.563
4.559
4.565
4.577
4.588
4.600
4.612
4.623
4.613
4.614
4.611
4.619
4.609
4.610
4.609
4.604
4.615
4.614
4.611
4.607
4.593
4.587
4.584
4.588
4.585
4.590
4.579
4.580
4.584
4.583
4.585
4.582
4.586
4.591
4.588
4.581
4.583
4.589
4.600
4.610
4.621
4.632
4.632
4.635
4.642
4.645
4.645
4.644
4.639
4.633
4.631
4.635
4.628
4.628
4.633
4.625
4.615
4.615
4.608
4.621
4.631
4.622
4.615
4.619
4.617
4.631
4.637
4.633
4.627
4.621
4.617
4.610
4.609
4.603
4.605
4.610
4.612
4.606
4.610
4.619
4.629
4.639
4.649
4.659
4.668
4.659
4.648
4.662
4.660
4.663
4.664
4.660
4.655
4.656
4.655
4.658
4.650
4.641
4.633
4.624
4.616
4.607
4.599
4.591
4.590
4.597
4.597
4.598
4.592
4.594
4.598
4.607
4.614
4.601
4.593
4.590
4.581
4.580
4.580
4.583
4.587
4.574
4.583
4.592
4.601
4.610
4.619
4.628
4.637
4.642
4.648
4.654
4.656
4.658
4.655
4.652
4.639
4.638
4.638
4.633
4.636
4.632
4.630
4.623
4.626
4.638
4.635
4.639
4.640
4.630
4.627
4.634
4.627
4.624
4.623
4.624
4.623
4.629
4.628
4.625
4.629
4.627
4.624
4.624
4.616
4.615
4.613
4.611
4.613
4.608
4.604
4.605
4.606
4.605
4.602
4.604
4.604
4.615
4.608
4.617
4.624
4.631
4.625
4.621
4.623
4.631
4.639
4.647
4.655
4.663
4.671
4.680
4.687
4.694
4.688
4.682
4.676
4.674
4.677
4.674
4.669
4.664
4.657
4.651
4.654
4.657
4.660
4.653
4.651
4.641
4.634
4.632
4.632
4.627
4.627
4.631
4.627
4.623
4.631
4.624
4.622
4.627
4.622
4.611
4.607
4.616
4.611
4.611
4.603
4.603
4.603
4.602
4.606
4.607
4.602
4.610
4.605
4.602
4.598
4.600
4.595
4.593
4.596
4.589
4.583
4.587
4.586
4.580
4.573
4.580
4.588
4.588
4.595
4.602
4.609
4.617
4.623
4.631
4.638
4.645
4.652
4.658
4.659
4.655
4.666
4.660
4.669
4.666
4.663
4.666
4.662
4.659
4.669
4.679
4.676
4.684
4.674
4.664
4.664
4.669
4.668
4.666
4.664
4.661
4.664
4.661
4.662
4.658
4.658
4.661
4.658
4.656
4.657
4.660
4.656
4.655
4.655
4.651
4.650
4.651
4.648
4.646
4.643
4.636
4.643
4.637
4.634
4.634
4.632
4.633
4.626
4.621
4.615
4.609
4.612
4.609
4.610
4.619
4.613
4.606
4.601
4.609
4.604
4.597
4.599
4.596
4.603
4.601
4.603
4.599
4.596
4.592
4.587
4.585
4.585
4.581
4.591
4.598
4.597
4.599
4.600
4.601
4.592
4.598
4.596
4.602
4.608
4.615
4.621
4.627
4.633
4.640
4.646
4.652
4.658
4.664
4.671
4.677
4.683
4.677
4.671
4.667
4.669
4.666
4.658
4.665
4.663
4.660
4.659
4.657
4.657
4.656
4.650
4.645
4.642
4.638
4.641
4.635
4.635
4.635
4.641
4.638
4.642
4.639
4.641
4.636
4.638
4.641
4.645
4.643
4.645
4.653
4.658
4.658
4.656
4.661
4.669
4.667
4.664
4.665
4.666
4.669
4.665
4.664
4.665
4.670
4.668
4.662
4.662
4.663
4.664
4.658
4.657
4.648
4.646
4.640
4.634
4.631
4.628
4.624
4.623
4.621
4.620
4.614
4.608
4.607
4.609
4.608
4.613
4.612
4.607
4.614
4.616
4.620
4.616
4.615
4.614
4.615
4.613
4.606
4.604
4.607
4.603
4.604
4.609
4.618
4.618
4.609
4.608
4.600
4.608
4.610
4.605
4.602
4.593
4.586
4.595
4.586
4.587
4.596
4.593
4.596
4.604
4.604
4.612
4.619
4.627
4.623
4.620
4.616
4.617
4.620
4.625
4.630
4.636
4.641
4.647
4.652
4.657
4.663
4.668
4.673
4.678
4.684
4.689
4.695
4.700
4.705
4.710
4.707
4.715
4.717
4.727
4.725
4.721
4.713
4.707
4.709
4.700
4.697
4.696
4.693
4.694
4.697
4.688
4.687
4.696
4.699
4.701
4.696
4.700
4.701
4.699
4.699
4.698
4.698
4.701
4.697
4.690
4.687
4.683
4.676
4.674
4.667
4.669
4.663
4.661
4.666
4.675
4.674
4.669
4.666
4.673
4.672
4.676
4.678
4.681
4.675
4.674
4.675
4.671
4.669
4.671
4.663
4.659
4.661
4.658
4.659
4.667
4.674
4.677
4.676
4.681
4.678
4.672
4.667
4.661
4.656
4.663
4.659
4.653
4.652
4.649
4.648
4.646
4.653
4.660
4.667
4.674
4.677
4.675
4.672
4.664
4.661
4.655
4.657
4.652
4.658
4.654
4.649
4.645
4.641
4.637
4.632
4.628
4.624
4.620
4.616
4.611
4.607
4.603
4.601
4.602
4.600
4.599
4.599
4.597
4.593
4.594
4.590
4.591
4.591
4.599
4.606
4.609
4.615
4.619
4.613
4.618
4.619
4.613
4.606
