2.992
3.332
3.513
3.611
3.723
3.792
3.817
3.899
3.880
3.928
3.973
4.020
4.059
4.021
3.985
4.011
4.031
4.045
4.064
4.076
4.098
4.106
4.130
4.127
4.153
4.153
4.172
4.186
4.184
4.198
4.209
4.220
4.220
4.230
4.241
4.248
4.260
4.268
4.257
4.276
4.275
4.285
4.296
4.300
4.320
4.321
4.306
4.309
4.316
4.326
4.327
4.342
4.347
4.347
4.357
4.364
4.371
4.386
4.381
4.353
4.360
4.365
4.368
4.382
4.378
4.382
4.392
4.394
4.407
4.407
4.414
4.414
4.414
4.421
4.425
4.430
4.445
4.442
4.442
4.452
4.451
4.452
4.447
4.457
4.454
4.431
4.436
4.441
4.442
4.446
4.451
4.452
4.460
4.454
4.451
4.448
4.448
4.459
4.461
4.471
4.472
4.473
4.484
4.475
4.486
4.480
4.491
4.495
4.499
4.496
4.496
4.498
4.491
4.488
4.501
4.494
4.501
4.503
4.507
4.513
4.517
4.526
4.517
4.532
4.517
4.532
4.524
4.534
4.533
4.552
4.536
4.551
4.546
4.555
4.556
4.547
4.548
4.555
4.547
4.551
4.540
4.545
4.548
4.547
4.567
4.566
4.557
4.568
4.564
4.572
4.569
4.571
4.586
4.588
4.581
4.590
4.583
4.577
4.572
4.560
4.548
4.542
4.555
4.555
4.547
4.555
4.553
4.551
4.552
4.564
4.561
4.561
4.572
4.571
4.570
4.565
4.582
4.583
4.573
4.562
4.564
4.549
4.559
4.562
4.558
4.542
4.565
4.555
4.549
4.554
4.566
4.566
4.564
4.565
4.563
4.573
4.572
4.572
4.572
4.580
4.583
4.567
4.575
4.569
4.581
4.589
4.582
4.572
4.577
4.597
4.599
4.600
4.596
4.585
4.598
4.616
4.607
4.601
4.587
4.595
4.595
4.599
4.596
4.591
4.586
4.604
4.606
4.596
4.599
4.594
4.593
4.612
4.617
4.611
4.608
4.606
4.593
4.612
4.619
4.624
4.617
4.616
4.612
4.612
4.625
4.644
4.638
4.632
4.627
4.624
4.615
4.631
4.640
4.634
4.638
4.635
4.639
4.631
4.630
4.648
4.644
4.634
4.623
4.613
4.604
4.622
4.634
4.619
4.620
4.627
4.614
4.602
4.607
4.617
4.621
4.615
4.615
4.613
4.608
4.606
4.606
4.617
4.634
4.636
4.630
4.633
4.622
4.618
4.613
4.616
4.619
4.635
4.640
4.642
4.638
4.624
4.613
4.610
4.605
4.612
4.627
4.640
4.640
4.642
4.632
4.629
4.623
4.625
4.633
4.631
4.631
4.641
4.654
4.655
4.644
4.646
4.639
4.640
4.642
4.642
4.633
4.630
4.643
4.657
4.662
4.651
4.651
4.652
4.648
4.655
4.650
4.651
4.645
4.641
4.652
4.662
4.676
4.679
4.672
4.671
4.671
4.668
4.664
4.661
4.657
4.655
4.657
4.657
4.668
4.680
4.670
4.669
4.673
4.675
4.671
4.661
4.651
4.641
4.644
4.648
4.649
4.662
4.672
4.676
4.665
4.652
4.659
4.646
4.652
4.647
4.640
4.644
4.645
4.644
4.642
4.655
4.667
4.679
4.678
4.682
4.677
4.669
4.665
4.657
4.662
4.651
4.652
4.655
4.662
4.652
4.646
4.658
4.669
4.681
4.693
4.698
4.693
4.688
4.679
4.677
4.676
4.675
4.677
4.677
4.673
4.666
4.668
4.671
4.669
4.681
4.679
4.690
4.701
4.707
4.706
4.706
4.707
4.701
4.702
4.698
4.697
4.699
4.692
4.697
4.695
4.693
4.697
4.687
4.680
4.681
4.692
4.703
4.713
4.709
4.702
4.700
4.698
4.686
4.687
4.685
4.686
4.682
4.681
4.679
4.679
4.683
4.681
4.685
4.681
4.681
4.685
4.695
4.706
4.715
4.715
4.713
4.714
4.713
4.710
4.711
4.717
4.712
4.706
4.704
4.707
4.707
4.708
4.707
4.710
4.702
4.702
4.702
4.694
4.703
4.701
4.708
4.718
4.728
4.738
4.748
4.749
4.739
4.741
4.737
4.729
4.722
4.726
4.722
4.723
4.722
4.732
4.727
4.728
4.719
4.713
4.710
4.717
4.713
4.712
4.718
4.716
4.716
4.725
4.734
4.728
4.723
4.718
4.712
4.707
4.708
4.708
4.704
4.703
4.697
4.696
4.694
4.698
4.702
4.694
4.689
4.695
4.699
4.699
4.702
4.695
4.697
4.697
4.698
4.707
4.716
4.716
4.716
4.719
4.716
4.709
4.706
4.704
4.697
4.694
4.703
4.706
4.706
4.701
4.700
4.695
4.687
4.683
4.679
4.685
4.679
4.676
4.672
4.675
4.676
4.677
4.675
4.680
4.688
4.696
4.705
4.713
4.721
4.730
4.733
4.728
4.723
4.714
4.713
4.717
4.711
4.713
4.718
4.715
4.720
4.718
4.713
4.709
4.708
4.701
4.695
4.693
4.686
4.685
4.682
4.679
4.678
4.681
4.670
4.673
4.668
4.672
4.680
4.688
4.696
4.703
4.711
4.717
4.711
4.715
4.710
4.706
4.706
4.710
4.720
4.716
4.713
4.719
4.716
4.714
4.716
4.716
4.717
4.729
4.717
4.717
4.714
4.708
4.701
4.699
4.700
4.701
4.693
4.695
4.691
4.686
4.696
4.698
4.690
4.696
4.690
4.690
4.690
4.690
4.698
4.705
4.712
4.720
4.727
4.725
4.723
4.721
4.718
4.716
4.716
4.718
4.723
4.722
4.719
4.713
4.707
4.706
4.703
4.705
4.714
4.710
4.707
4.714
4.711
4.703
4.702
4.702
4.698
4.707
4.708
4.699
4.698
4.706
4.706
4.705
4.710
4.704
4.695
4.697
4.698
4.697
4.690
4.685
4.687
4.694
4.701
4.708
4.715
4.722
4.729
4.735
4.732
4.731
4.733
4.735
4.738
4.732
4.730
4.738
4.736
4.736
4.733
4.728
4.728
4.728
4.721
4.715
4.717
4.719
4.715
4.718
4.718
4.718
4.715
4.710
4.710
4.709
4.710
4.710
4.717
4.715
4.718
4.726
4.722
4.721
4.721
4.712
4.711
4.712
4.709
4.706
4.703
4.695
4.692
4.687
4.687
4.692
4.698
4.705
4.711
4.717
4.724
4.730
4.737
4.743
4.749
4.746
4.744
4.741
4.737
4.743
4.753
4.753
4.750
4.749
4.752
4.753
4.752
4.757
4.754
4.746
4.747
4.743
4.742
4.740
4.737
4.737
4.738
4.733
4.731
4.734
4.740
4.736
4.728
4.722
4.717
4.714
4.724
4.725
4.732
4.728
4.728
4.730
4.729
4.731
4.736
4.729
4.726
4.722
4.720
4.719
4.720
4.728
4.729
4.727
4.724
4.726
4.726
4.723
4.724
4.721
4.725
4.722
4.727
4.733
4.738
4.744
4.750
4.756
4.762
4.768
4.774
4.780
4.779
4.783
4.790
4.792
4.785
4.785
4.779
4.774
4.774
4.775
4.772
4.779
4.778
4.775
4.775
4.772
4.767
4.766
4.766
4.764
4.766
4.767
4.765
4.759
4.756
4.754
4.759
4.761
4.757
4.756
4.764
4.760
4.763
4.765
4.759
4.752
4.750
4.747
4.747
4.751
4.744
4.735
4.733
4.730
4.731
4.735
4.733
4.733
4.734
4.737
4.737
4.737
4.737
4.732
4.727
4.723
4.718
4.713
4.708
4.707
4.712
4.717
4.722
4.728
4.733
4.739
4.744
4.750
4.754
4.759
4.756
4.760
4.768
4.774
4.774
4.774
4.770
4.766
4.759
4.755
4.757
4.755
4.757
4.759
4.763
4.760
4.756
4.747
4.748
4.745
4.745
4.745
4.749
4.745
4.736
4.736
4.737
4.739
4.735
4.732
4.730
4.734
4.731
4.734
4.739
4.737
4.732
4.739
4.735
4.729
4.728
4.729
4.725
4.722
4.727
4.728
4.732
4.724
4.726
4.732
4.739
4.740
4.736
4.736
4.736
4.735
4.734
4.731
4.733
4.731
4.728
4.729
4.727
4.720
4.717
4.719
4.714
4.719
4.709
4.709
4.707
4.713
4.711
4.712
4.716
4.718
4.719
4.715
4.718
4.721
4.726
4.731
4.736
4.741
4.746
4.751
4.756
4.761
4.766
4.770
4.775
4.780
4.785
4.780
4.781
4.784
4.788
4.784
4.785
4.779
4.779
4.782
4.775
4.774
4.774
4.774
4.770
4.767
4.765
4.761
4.762
4.762
4.765
4.772
4.779
4.781
4.781
4.786
4.785
4.781
4.778
4.777
4.774
