2.992
3.334
3.506
3.635
3.700
3.780
3.831
3.866
3.914
3.973
3.949
3.984
4.020
4.051
4.084
4.115
4.140
4.114
4.070
4.085
4.100
4.110
4.124
4.144
4.152
4.169
4.174
4.188
4.190
4.210
4.220
4.224
4.234
4.249
4.245
4.254
4.264
4.279
4.270
4.281
4.291
4.299
4.311
4.309
4.308
4.314
4.327
4.331
4.341
4.347
4.355
4.344
4.344
4.350
4.360
4.366
4.371
4.381
4.387
4.388
4.396
4.410
4.387
4.386
4.390
4.400
4.403
4.414
4.412
4.418
4.426
4.433
4.434
4.433
4.440
4.443
4.448
4.460
4.464
4.463
4.448
4.438
4.442
4.444
4.451
4.457
4.459
4.462
4.467
4.463
4.467
4.468
4.475
4.484
4.483
4.482
4.492
4.499
4.496
4.493
4.496
4.501
4.505
4.512
4.518
4.521
4.518
4.523
4.529
4.533
4.540
4.529
4.538
4.531
4.536
4.529
4.514
4.507
4.514
4.518
4.516
4.517
4.521
4.525
4.525
4.526
4.533
4.537
4.536
4.528
4.524
4.536
4.533
4.528
4.538
4.539
4.540
4.545
4.541
4.551
4.554
4.558
4.568
4.553
4.552
4.559
4.560
4.569
4.571
4.578
4.576
4.584
4.576
4.564
4.566
4.572
4.571
4.569
4.571
4.583
4.573
4.580
4.573
4.586
4.582
4.594
4.595
4.592
4.599
4.596
4.607
4.603
4.598
4.599
4.596
4.611
4.604
4.610
4.610
4.613
4.623
4.619
4.614
4.630
4.618
4.621
4.633
4.619
4.623
4.619
4.621
4.632
4.623
4.613
4.628
4.614
4.615
4.629
4.625
4.622
4.636
4.636
4.636
4.635
4.644
4.638
4.637
4.651
4.655
4.651
4.645
4.657
4.659
4.657
4.656
4.658
4.650
4.643
4.634
4.625
4.617
4.614
4.617
4.614
4.628
4.621
4.620
4.619
4.636
4.630
4.615
4.616
4.634
4.630
4.629
4.627
4.633
4.638
4.637
4.636
4.639
4.644
4.650
4.652
4.645
4.641
4.651
4.643
4.633
4.624
4.640
4.640
4.631
4.625
4.628
4.635
4.626
4.629
4.631
4.624
4.636
4.638
4.629
4.622
4.626
4.635
4.642
4.641
4.636
4.635
4.636
4.646
4.656
4.646
4.647
4.643
4.645
4.651
4.656
4.649
4.651
4.644
4.640
4.651
4.662
4.657
4.658
4.649
4.653
4.652
4.662
4.665
4.664
4.663
4.669
4.666
4.667
4.671
4.680
4.679
4.681
4.674
4.673
4.665
4.672
4.674
4.672
4.668
4.664
4.660
4.664
4.671
4.667
4.665
4.666
4.665
4.667
4.665
4.664
4.677
4.686
4.682
4.678
4.677
4.678
4.681
4.677
4.681
4.694
4.681
4.684
4.679
4.677
4.681
4.677
4.677
4.691
4.704
4.697
4.695
4.697
4.699
4.694
4.696
4.697
4.695
4.707
4.709
4.707
4.706
4.703
4.707
4.708
4.703
4.692
4.704
4.718
4.717
4.714
4.717
4.708
4.703
4.700
4.698
4.696
4.696
4.692
4.690
4.680
4.684
4.684
4.681
4.683
4.682
4.694
4.695
4.691
4.681
4.677
4.674
4.672
4.677
4.678
4.677
4.684
4.696
4.696
4.690
4.691
4.690
4.688
4.684
4.686
4.684
4.680
4.682
4.692
4.704
4.711
4.709
4.702
4.693
4.697
4.695
4.694
4.693
4.684
4.685
4.691
4.701
4.713
4.709
4.703
4.703
4.694
4.687
4.688
4.687
4.683
4.682
4.681
4.693
4.702
4.714
4.716
4.707
4.703
4.704
4.708
4.703
4.703
4.701
4.697
4.703
4.699
4.699
4.707
4.718
4.727
4.726
4.722
4.723
4.716
4.707
4.713
4.714
4.716
4.715
4.713
4.709
4.700
4.710
4.719
4.728
4.722
4.726
4.727
4.721
4.722
4.720
4.724
4.723
4.713
4.712
4.718
4.718
4.722
4.721
4.724
4.733
4.743
4.748
4.751
4.745
4.741
4.737
4.741
4.736
4.740
4.740
4.735
4.726
4.732
4.725
4.721
4.726
4.735
4.744
4.752
4.745
4.740
4.739
4.741
4.736
4.736
4.731
4.725
4.720
4.713
4.714
4.716
4.714
4.716
4.725
4.733
4.742
4.741
4.736
4.738
4.737
4.736
4.729
4.722
4.718
4.721
4.714
4.711
4.707
4.711
4.717
4.713
4.712
4.721
4.729
4.736
4.744
4.741
4.737
4.743
4.747
4.741
4.740
4.740
4.745
4.743
4.737
4.730
4.725
4.721
4.725
4.719
4.720
4.725
4.720
4.727
4.736
4.744
4.751
4.752
4.750
4.758
4.758
4.757
4.753
4.755
4.750
4.747
4.748
4.747
4.748
4.746
4.748
4.740
4.736
4.738
4.736
4.733
4.737
4.740
4.748
4.754
4.762
4.766
4.770
4.771
4.766
4.768
4.775
4.776
4.777
4.777
4.770
4.765
4.759
4.758
4.758
4.758
4.758
4.760
4.756
4.757
4.761
4.758
4.751
4.749
4.756
4.765
4.770
4.779
4.784
4.782
4.775
4.774
4.775
4.771
4.769
4.763
4.762
4.763
4.759
4.754
4.751
4.752
4.756
4.754
4.748
4.740
4.736
4.738
4.742
4.744
4.747
4.755
4.761
4.768
4.775
4.781
4.780
4.782
4.777
4.770
4.770
4.768
4.770
4.771
4.775
4.768
4.767
4.766
4.764
4.762
4.759
4.762
4.772
4.771
4.770
4.765
4.766
4.760
4.759
4.762
4.764
4.763
4.764
4.771
4.777
4.784
4.791
4.798
4.800
4.801
4.799
4.796
4.797
4.793
4.797
4.796
4.791
4.795
4.794
4.795
4.799
4.796
4.800
4.804
4.802
4.799
4.797
4.792
4.786
4.781
4.781
4.776
4.777
4.781
4.786
4.779
4.777
4.779
4.786
4.793
4.799
4.806
4.811
4.810
4.808
4.809
4.807
4.804
4.800
4.796
4.792
4.788
4.786
4.782
4.778
4.776
4.778
4.773
4.767
4.760
4.755
4.757
4.751
4.749
4.748
4.752
4.751
4.747
4.750
4.751
4.756
4.763
4.770
4.774
4.781
4.788
4.789
4.787
4.794
4.790
4.784
4.779
4.777
4.771
4.767
4.765
4.762
4.762
4.761
4.757
4.759
4.755
4.761
4.760
4.756
4.755
4.755
4.754
4.756
4.760
4.761
4.762
4.762
4.760
4.761
4.758
4.755
4.749
4.747
4.749
4.755
4.762
4.766
4.773
4.778
4.781
4.778
4.774
4.769
4.770
4.770
4.773
4.772
4.766
4.762
4.770
4.773
4.781
4.783
4.781
4.777
4.776
4.773
4.773
4.770
4.765
4.770
4.766
4.769
4.773
4.767
4.763
4.762
4.760
4.762
4.765
4.764
4.763
4.756
4.752
4.751
4.751
4.758
4.765
4.766
4.762
4.761
4.766
4.772
4.777
4.783
4.788
4.786
4.787
4.781
4.781
4.777
4.773
4.772
4.773
4.777
4.777
4.770
4.763
4.762
4.762
4.758
4.758
4.759
4.758
4.756
4.754
4.758
4.763
4.764
4.763
4.766
4.766
4.766
4.762
4.755
4.752
4.753
4.755
4.753
4.754
4.751
4.751
4.750
4.751
4.751
4.751
4.748
4.752
4.753
4.752
4.758
4.763
4.769
4.774
4.778
4.784
4.789
4.795
4.800
4.799
4.797
4.792
4.792
4.796
4.796
4.788
4.784
4.784
4.784
4.787
4.784
4.787
4.783
4.790
4.786
4.785
4.781
4.777
4.772
4.766
4.761
4.757
4.751
4.754
4.755
4.752
4.751
4.751
4.750
4.752
4.758
4.755
4.751
4.757
4.764
4.768
4.770
4.768
4.766
4.765
4.764
4.762
4.761
4.757
4.758
4.758
4.755
4.755
4.761
4.766
4.772
4.774
4.780
4.785
4.791
4.796
4.796
4.795
4.791
4.792
4.792
4.792
4.794
4.795
4.799
4.798
4.796
4.793
4.792
4.793
4.796
4.792
4.788
4.788
4.786
4.787
4.791
4.796
4.797
4.795
4.794
4.790
4.789
4.788
4.784
4.784
4.783
4.779
4.775
4.771
4.766
4.766
4.767
4.770
4.769
4.768
4.770
4.766
4.767
4.762
4.756
4.755
4.756
4.751
4.750
4.754
4.751
4.749
4.750
4.749
4.753
4.755
4.761
4.766
4.766
4.768
4.772
4.777
4.783
4.787
4.792
4.795
4.800
4.804
4.810
4.815
4.813
4.812
4.813
4.807
4.813
4.812
4.810
