2.988
3.327
3.511
3.634
3.724
3.758
3.847
3.867
3.931
3.909
3.955
4.000
4.030
4.064
4.101
4.105
4.043
4.052
4.072
4.083
4.095
4.108
4.125
4.135
4.154
4.158
4.176
4.177
4.190
4.206
4.202
4.216
4.230
4.247
4.243
4.252
4.257
4.272
4.280
4.275
4.283
4.294
4.302
4.310
4.313
4.321
4.319
4.317
4.332
4.336
4.340
4.354
4.354
4.360
4.371
4.364
4.358
4.361
4.373
4.376
4.379
4.381
4.391
4.401
4.402
4.405
4.409
4.417
4.428
4.432
4.441
4.426
4.413
4.411
4.416
4.424
4.425
4.434
4.442
4.436
4.433
4.444
4.451
4.451
4.454
4.461
4.463
4.465
4.466
4.467
4.476
4.481
4.486
4.490
4.482
4.491
4.494
4.501
4.503
4.508
4.505
4.504
4.509
4.491
4.477
4.475
4.487
4.491
4.493
4.495
4.497
4.499
4.501
4.511
4.510
4.498
4.508
4.498
4.503
4.507
4.514
4.509
4.519
4.524
4.519
4.535
4.532
4.525
4.531
4.531
4.540
4.547
4.543
4.552
4.546
4.545
4.544
4.543
4.547
4.537
4.546
4.548
4.550
4.550
4.556
4.554
4.562
4.563
4.574
4.567
4.574
4.570
4.576
4.570
4.580
4.580
4.578
4.582
4.581
4.599
4.588
4.593
4.597
4.593
4.605
4.600
4.597
4.592
4.593
4.606
4.594
4.598
4.591
4.583
4.603
4.595
4.591
4.611
4.610
4.610
4.617
4.621
4.606
4.621
4.629
4.619
4.621
4.636
4.630
4.624
4.638
4.634
4.626
4.616
4.606
4.597
4.587
4.584
4.597
4.599
4.595
4.591
4.607
4.592
4.596
4.594
4.610
4.609
4.597
4.600
4.617
4.613
4.618
4.616
4.620
4.626
4.620
4.621
4.618
4.616
4.603
4.603
4.613
4.607
4.607
4.602
4.604
4.610
4.605
4.598
4.596
4.609
4.602
4.604
4.606
4.600
4.615
4.619
4.613
4.619
4.614
4.617
4.626
4.626
4.619
4.622
4.621
4.632
4.618
4.621
4.627
4.617
4.624
4.638
4.635
4.630
4.627
4.623
4.630
4.648
4.648
4.651
4.642
4.639
4.638
4.648
4.657
4.652
4.640
4.633
4.632
4.644
4.648
4.644
4.642
4.642
4.633
4.635
4.647
4.652
4.655
4.644
4.642
4.646
4.640
4.654
4.664
4.662
4.666
4.654
4.652
4.645
4.651
4.665
4.672
4.661
4.660
4.668
4.658
4.654
4.658
4.673
4.686
4.686
4.683
4.679
4.674
4.674
4.667
4.673
4.688
4.690
4.678
4.680
4.677
4.679
4.674
4.680
4.681
4.695
4.686
4.678
4.669
4.661
4.652
4.654
4.668
4.671
4.672
4.671
4.668
4.659
4.659
4.658
4.649
4.662
4.666
4.662
4.660
4.663
4.656
4.653
4.651
4.653
4.649
4.663
4.676
4.678
4.676
4.679
4.675
4.675
4.671
4.671
4.664
4.656
4.668
4.677
4.670
4.678
4.680
4.676
4.674
4.675
4.674
4.663
4.657
4.666
4.673
4.676
4.677
4.672
4.668
4.680
4.680
4.674
4.671
4.668
4.666
4.666
4.679
4.691
4.701
4.701
4.694
4.696
4.695
4.687
4.688
4.689
4.677
4.677
4.673
4.681
4.693
4.701
4.694
4.696
4.688
4.689
4.689
4.687
4.688
4.685
4.680
4.687
4.685
4.685
4.697
4.708
4.713
4.711
4.714
4.709
4.711
4.712
4.716
4.710
4.714
4.704
4.698
4.697
4.699
4.700
4.711
4.722
4.724
4.724
4.720
4.717
4.718
4.720
4.716
4.709
4.700
4.700
4.702
4.708
4.705
4.702
4.709
4.706
4.705
4.709
4.715
4.714
4.714
4.710
4.699
4.697
4.695
4.696
4.693
4.687
4.683
4.692
4.702
4.712
4.711
4.709
4.702
4.706
4.709
4.703
4.703
4.712
4.712
4.710
4.708
4.705
4.710
4.710
4.706
4.700
4.699
4.708
4.718
4.720
4.720
4.714
4.724
4.721
4.718
4.715
4.715
4.713
4.711
4.711
4.711
4.720
4.728
4.721
4.716
4.715
4.713
4.709
4.718
4.728
4.737
4.735
4.736
4.738
4.730
4.737
4.740
4.738
4.736
4.739
4.741
4.736
4.731
4.738
4.736
4.730
4.728
4.722
4.726
4.725
4.721
4.730
4.739
4.748
4.755
4.754
4.753
4.757
4.751
4.751
4.746
4.743
4.737
4.743
4.738
4.740
4.738
4.736
4.735
4.739
4.732
4.724
4.716
4.715
4.724
4.732
4.741
4.749
4.747
4.752
4.749
4.753
4.747
4.745
4.737
4.736
4.738
4.744
4.735
4.734
4.737
4.733
4.732
4.738
4.736
4.737
4.734
4.733
4.730
4.731
4.732
4.734
4.741
4.749
4.757
4.765
4.766
4.766
4.764
4.765
4.764
4.767
4.766
4.772
4.768
4.763
4.765
4.769
4.764
4.765
4.764
4.763
4.758
4.756
4.757
4.758
4.762
4.762
4.765
4.758
4.762
4.758
4.758
4.759
4.767
4.775
4.783
4.784
4.788
4.790
4.784
4.778
4.778
4.775
4.770
4.770
4.775
4.775
4.779
4.771
4.779
4.777
4.772
4.768
4.763
4.759
4.754
4.750
4.746
4.741
4.737
4.733
4.738
4.745
4.753
4.760
4.761
4.755
4.760
4.761
4.761
4.765
4.763
4.764
4.765
4.758
4.755
4.756
4.754
4.756
4.751
4.746
4.740
4.735
4.730
4.724
4.725
4.727
4.728
4.730
4.726
4.727
4.727
4.730
4.727
4.726
4.730
4.737
4.743
4.751
4.758
4.765
4.763
4.753
4.751
4.748
4.747
4.745
4.737
4.730
4.738
4.748
4.755
4.750
4.743
4.738
4.742
4.741
4.737
4.733
4.737
4.737
4.738
4.736
4.731
4.728
4.727
4.732
4.729
4.738
4.734
4.729
4.731
4.730
4.735
4.744
4.737
4.741
4.748
4.754
4.761
4.768
4.772
4.766
4.761
4.755
4.755
4.751
4.750
4.748
4.752
4.752
4.749
4.742
4.737
4.738
4.736
4.735
4.729
4.728
4.733
4.733
4.736
4.732
4.732
4.732
4.730
4.730
4.726
4.727
4.733
4.729
4.727
4.726
4.723
4.715
4.716
4.716
4.720
4.727
4.733
4.739
4.746
4.752
4.758
4.764
4.770
4.770
4.769
4.768
4.768
4.770
4.768
4.776
4.775
4.773
4.770
4.766
4.771
4.769
4.765
4.761
4.756
4.750
4.749
4.752
4.747
4.740
4.742
4.745
4.743
4.741
4.740
4.735
4.737
4.735
4.729
4.723
4.728
4.733
4.728
4.735
4.734
4.732
4.731
4.732
4.733
4.733
4.729
4.727
4.733
4.738
4.744
4.750
4.756
4.762
4.768
4.769
4.768
4.770
4.763
4.762
4.763
4.761
4.761
4.768
4.768
4.762
4.761
4.760
4.754
4.757
4.758
4.756
4.755
4.762
4.769
4.767
4.774
4.768
4.767
4.763
4.758
4.751
4.752
4.755
4.758
4.754
4.752
4.753
4.749
4.751
4.750
4.754
4.751
4.746
4.740
4.734
4.730
4.729
4.729
4.725
4.727
4.726
4.724
4.720
4.726
4.731
4.737
4.742
4.748
4.753
4.759
4.764
4.770
4.775
4.781
4.786
4.790
4.787
4.786
4.786
4.783
4.782
4.780
4.779
4.775
4.775
4.775
4.779
4.779
4.773
4.773
4.770
4.772
4.767
4.771
4.768
4.771
4.773
4.774
4.776
4.773
4.771
4.768
4.763
4.762
4.760
4.759
4.753
4.754
4.753
4.757
4.753
4.756
4.754
4.751
4.749
4.751
4.746
4.751
4.752
4.760
4.760
4.761
4.761
4.762
4.759
4.753
4.747
4.742
4.743
4.741
4.739
4.740
4.744
4.746
4.752
4.757
4.762
4.767
4.772
4.777
4.782
4.787
4.792
4.795
4.791
4.790
4.792
4.797
4.792
4.791
4.796
4.794
4.793
4.787
4.790
4.796
4.800
4.801
4.798
4.799
4.798
4.797
4.790
4.784
4.782
4.786
4.779
4.779
4.781
4.784
4.783
4.788
4.786
4.783
4.786
4.785
4.778
4.782
4.781
4.777
4.779
4.782
4.787
4.782
4.780
4.778
4.777
4.777
4.778
4.781
4.780
4.779
4.779
4.777
4.776
4.774
4.768
4.772
4.769
4.772
4.779
4.775
4.768
4.769
4.768
4.769
4.774
4.777
4.779
