2.994
3.337
3.514
3.628
3.723
3.791
3.852
3.898
3.924
3.979
3.978
4.019
4.056
4.037
4.056
4.086
4.112
4.131
4.159
4.177
4.200
4.218
4.217
4.175
4.156
4.166
4.182
4.190
4.197
4.212
4.216
4.231
4.233
4.246
4.258
4.260
4.268
4.281
4.280
4.292
4.302
4.303
4.304
4.312
4.324
4.333
4.326
4.334
4.342
4.350
4.357
4.366
4.356
4.364
4.368
4.379
4.382
4.391
4.398
4.385
4.394
4.401
4.400
4.408
4.414
4.415
4.423
4.426
4.436
4.432
4.427
4.426
4.430
4.434
4.442
4.446
4.449
4.454
4.458
4.465
4.468
4.470
4.474
4.476
4.482
4.468
4.469
4.465
4.472
4.475
4.479
4.487
4.488
4.498
4.490
4.497
4.497
4.503
4.512
4.511
4.513
4.512
4.516
4.520
4.523
4.528
4.529
4.542
4.535
4.534
4.519
4.514
4.523
4.519
4.519
4.527
4.529
4.531
4.538
4.536
4.540
4.547
4.543
4.538
4.545
4.539
4.546
4.549
4.549
4.556
4.559
4.561
4.562
4.564
4.571
4.575
4.567
4.569
4.575
4.577
4.579
4.579
4.579
4.582
4.589
4.597
4.594
4.594
4.595
4.601
4.606
4.604
4.606
4.608
4.606
4.604
4.609
4.613
4.601
4.590
4.578
4.577
4.581
4.590
4.586
4.593
4.594
4.593
4.600
4.597
4.595
4.604
4.598
4.601
4.600
4.608
4.606
4.610
4.614
4.601
4.609
4.604
4.605
4.605
4.606
4.608
4.611
4.612
4.614
4.615
4.616
4.615
4.622
4.621
4.628
4.627
4.633
4.632
4.634
4.634
4.631
4.634
4.628
4.638
4.638
4.643
4.645
4.643
4.653
4.648
4.652
4.648
4.642
4.640
4.638
4.648
4.647
4.646
4.642
4.642
4.649
4.649
4.644
4.657
4.652
4.648
4.655
4.649
4.653
4.662
4.660
4.659
4.672
4.668
4.669
4.675
4.672
4.673
4.677
4.679
4.669
4.676
4.669
4.673
4.675
4.682
4.682
4.681
4.690
4.687
4.685
4.684
4.701
4.689
4.690
4.695
4.702
4.700
4.690
4.697
4.688
4.682
4.693
4.689
4.691
4.692
4.699
4.701
4.693
4.687
4.699
4.695
4.693
4.689
4.697
4.697
4.697
4.695
4.704
4.705
4.701
4.698
4.702
4.716
4.716
4.711
4.707
4.714
4.718
4.717
4.716
4.714
4.723
4.723
4.723
4.717
4.716
4.720
4.713
4.708
4.702
4.697
4.690
4.686
4.691
4.695
4.693
4.684
4.679
4.692
4.693
4.692
4.691
4.687
4.691
4.700
4.697
4.695
4.693
4.695
4.702
4.700
4.693
4.690
4.688
4.695
4.708
4.708
4.701
4.703
4.701
4.700
4.712
4.716
4.713
4.709
4.708
4.711
4.715
4.728
4.726
4.720
4.713
4.712
4.708
4.703
4.702
4.700
4.697
4.697
4.708
4.716
4.708
4.701
4.699
4.695
4.702
4.700
4.693
4.700
4.696
4.697
4.693
4.705
4.708
4.705
4.701
4.700
4.696
4.694
4.704
4.709
4.710
4.712
4.710
4.705
4.704
4.703
4.713
4.720
4.721
4.719
4.721
4.723
4.712
4.709
4.716
4.728
4.731
4.725
4.719
4.714
4.718
4.714
4.716
4.723
4.724
4.727
4.724
4.727
4.727
4.720
4.723
4.727
4.735
4.730
4.731
4.728
4.731
4.727
4.726
4.725
4.731
4.741
4.749
4.752
4.748
4.744
4.740
4.741
4.734
4.739
4.742
4.744
4.738
4.733
4.727
4.730
4.732
4.730
4.731
4.738
4.746
4.747
4.740
4.741
4.738
4.734
4.727
4.725
4.727
4.738
4.745
4.749
4.745
4.744
4.742
4.744
4.743
4.742
4.742
4.736
4.745
4.755
4.759
4.756
4.754
4.752
4.753
4.752
4.749
4.753
4.746
4.747
4.756
4.760
4.757
4.755
4.757
4.755
4.757
4.758
4.753
4.752
4.754
4.753
4.762
4.772
4.773
4.772
4.773
4.771
4.770
4.774
4.770
4.771
4.771
4.768
4.765
4.774
4.776
4.777
4.778
4.780
4.778
4.771
4.770
4.768
4.765
4.766
4.765
4.768
4.776
4.775
4.771
4.766
4.760
4.755
4.749
4.749
4.745
4.741
4.746
4.755
4.764
4.763
4.760
4.764
4.762
4.756
4.756
4.750
4.754
4.760
4.756
4.753
4.754
4.755
4.753
4.750
4.751
4.747
4.746
4.749
4.749
4.749
4.751
4.750
4.749
4.745
4.743
4.750
4.757
4.766
4.768
4.768
4.764
4.763
4.756
4.752
4.751
4.755
4.760
4.758
4.753
4.755
4.753
4.753
4.762
4.769
4.778
4.777
4.768
4.772
4.767
4.766
4.767
4.768
4.765
4.758
4.757
4.753
4.756
4.755
4.757
4.766
4.773
4.774
4.767
4.764
4.768
4.764
4.764
4.766
4.760
4.756
4.756
4.758
4.756
4.752
4.748
4.753
4.762
4.768
4.776
4.783
4.782
4.783
4.779
4.775
4.773
4.771
4.776
4.772
4.771
4.769
4.771
4.766
4.765
4.771
4.770
4.771
4.773
4.780
4.786
4.793
4.794
4.793
4.790
4.793
4.784
4.790
4.787
4.782
4.781
4.775
4.775
4.775
4.776
4.771
4.781
4.777
4.773
4.780
4.787
4.794
4.792
4.788
4.789
4.786
4.784
4.786
4.784
4.786
4.792
4.786
4.786
4.783
4.782
4.782
4.781
4.788
4.787
4.782
4.781
4.786
4.792
4.801
4.808
4.812
4.811
4.812
4.811
4.812
4.817
4.812
4.808
4.807
4.805
4.801
4.798
4.796
4.800
4.802
4.800
4.801
4.800
4.799
4.798
4.796
4.803
4.808
4.814
4.813
4.814
4.810
4.809
4.805
4.803
4.805
4.806
4.801
4.800
4.794
4.789
4.786
4.781
4.775
4.771
4.779
4.776
4.780
4.787
4.791
4.798
4.805
4.806
4.801
4.801
4.804
4.805
4.807
4.805
4.807
4.803
4.797
4.794
4.797
4.794
4.790
4.786
4.785
4.781
4.782
4.782
4.782
4.778
4.779
4.784
4.791
4.797
4.804
4.803
4.801
4.803
4.807
4.808
4.805
4.803
4.802
4.800
4.799
4.805
4.797
4.800
4.797
4.794
4.799
4.798
4.797
4.800
4.804
4.801
4.802
4.797
4.793
4.790
4.791
4.797
4.802
4.809
4.812
4.812
4.816
4.814
4.808
4.808
4.807
4.801
4.807
4.808
4.810
4.809
4.808
4.808
4.805
4.805
4.807
4.808
4.805
4.809
4.810
4.808
4.807
4.805
4.802
4.803
4.805
4.809
4.807
4.808
4.813
4.817
4.824
4.830
4.831
4.830
4.831
4.831
4.829
4.825
4.821
4.820
4.818
4.817
4.819
4.820
4.818
4.820
4.821
4.827
4.827
4.823
4.827
4.823
4.827
4.828
4.824
4.827
4.827
4.825
4.824
4.819
4.813
4.817
4.818
4.823
4.831
4.834
4.840
4.839
4.835
4.838
4.840
4.841
4.840
4.841
4.840
4.839
4.838
4.836
4.832
4.833
4.832
4.833
4.829
4.830
4.831
4.834
4.832
4.827
4.826
4.823
4.827
4.822
4.819
4.816
4.812
4.808
4.807
4.812
4.818
4.823
4.827
4.833
4.835
4.833
4.832
4.828
4.832
4.834
4.832
4.828
4.831
4.831
4.831
4.828
4.831
4.831
4.835
4.830
4.831
4.831
4.834
4.830
4.827
4.823
4.819
4.823
4.819
4.820
4.816
4.816
4.819
4.816
4.815
4.819
4.818
4.819
4.818
4.823
4.826
4.827
4.832
4.838
4.842
4.847
4.853
4.858
4.856
4.852
4.849
4.845
4.853
4.853
4.851
4.849
4.851
4.849
4.851
4.850
4.846
4.845
4.843
4.842
4.846
4.841
4.842
4.844
4.846
4.850
4.854
4.852
4.851
4.850
4.849
4.845
4.845
4.845
4.845
4.842
4.846
4.842
4.843
4.842
4.845
4.838
4.840
4.842
4.848
4.852
4.857
4.863
4.867
4.871
4.875
4.871
4.867
4.863
4.865
4.864
4.864
4.866
4.862
4.863
4.862
4.863
4.860
4.861
4.867
4.861
4.862
4.860
4.859
4.860
4.860
4.856
4.856
4.852
4.849
4.847
4.845
4.841
4.838
4.836
4.834
4.831
4.829
4.827
4.823
4.820
4.821
4.825
4.829
4.834
4.840
4.842
4.848
4.849
4.843
