2.993
3.331
3.516
3.611
3.713
3.763
3.806
3.841
3.898
3.951
4.005
3.928
3.936
3.957
3.976
3.999
4.029
4.042
4.053
4.076
4.084
4.101
4.129
4.127
4.149
4.160
4.154
4.170
4.190
4.202
4.196
4.204
4.215
4.226
4.239
4.254
4.261
4.238
4.254
4.261
4.273
4.283
4.294
4.295
4.310
4.314
4.314
4.302
4.304
4.305
4.320
4.320
4.318
4.333
4.338
4.357
4.358
4.355
4.352
4.368
4.373
4.383
4.387
4.399
4.393
4.395
4.401
4.400
4.381
4.383
4.382
4.381
4.391
4.401
4.392
4.391
4.388
4.401
4.406
4.406
4.427
4.423
4.422
4.432
4.428
4.442
4.439
4.445
4.435
4.436
4.437
4.431
4.444
4.458
4.453
4.467
4.470
4.457
4.460
4.477
4.465
4.480
4.481
4.488
4.492
4.487
4.506
4.487
4.494
4.488
4.480
4.495
4.492
4.500
4.507
4.503
4.513
4.511
4.518
4.515
4.533
4.522
4.531
4.530
4.523
4.534
4.518
4.503
4.497
4.495
4.483
4.502
4.494
4.496
4.516
4.513
4.507
4.516
4.514
4.514
4.531
4.517
4.502
4.501
4.506
4.500
4.498
4.491
4.511
4.501
4.496
4.503
4.522
4.515
4.509
4.519
4.527
4.518
4.505
4.530
4.525
4.527
4.515
4.537
4.542
4.535
4.531
4.538
4.551
4.555
4.547
4.542
4.539
4.534
4.538
4.537
4.542
4.545
4.536
4.536
4.535
4.560
4.561
4.558
4.547
4.543
4.564
4.564
4.561
4.558
4.560
4.562
4.583
4.588
4.578
4.567
4.572
4.575
4.591
4.582
4.583
4.581
4.575
4.582
4.595
4.587
4.587
4.574
4.561
4.575
4.570
4.572
4.566
4.558
4.550
4.568
4.561
4.557
4.559
4.555
4.550
4.554
4.575
4.586
4.575
4.568
4.568
4.558
4.558
4.569
4.588
4.585
4.570
4.554
4.552
4.560
4.564
4.574
4.589
4.582
4.578
4.587
4.580
4.584
4.580
4.572
4.587
4.605
4.608
4.596
4.597
4.584
4.578
4.572
4.574
4.589
4.604
4.606
4.610
4.606
4.602
4.605
4.600
4.601
4.602
4.600
4.614
4.631
4.619
4.618
4.616
4.618
4.611
4.610
4.608
4.608
4.608
4.624
4.629
4.617
4.604
4.607
4.604
4.600
4.590
4.589
4.591
4.605
4.607
4.605
4.608
4.607
4.607
4.606
4.607
4.595
4.594
4.607
4.604
4.604
4.619
4.618
4.619
4.618
4.609
4.620
4.621
4.613
4.617
4.617
4.615
4.613
4.607
4.616
4.631
4.646
4.634
4.637
4.644
4.641
4.643
4.638
4.642
4.638
4.637
4.629
4.623
4.627
4.627
4.639
4.653
4.658
4.663
4.664
4.653
4.650
4.648
4.633
4.637
4.638
4.639
4.633
4.636
4.624
4.628
4.641
4.654
4.653
4.654
4.649
4.647
4.644
4.648
4.645
4.638
4.638
4.644
4.645
4.646
4.639
4.634
4.632
4.636
4.649
4.662
4.674
4.687
4.690
4.677
4.674
4.675
4.675
4.667
4.666
4.677
4.675
4.679
4.676
4.670
4.670
4.661
4.655
4.652
4.658
4.670
4.682
4.694
4.691
4.685
4.692
4.696
4.693
4.694
4.688
4.679
4.668
4.663
4.667
4.674
4.664
4.663
4.659
4.652
4.645
4.652
4.664
4.675
4.682
4.679
4.675
4.678
4.672
4.668
4.660
4.651
4.652
4.653
4.645
4.642
4.644
4.638
4.633
4.629
4.618
4.620
4.624
4.631
4.642
4.653
4.658
4.669
4.672
4.667
4.658
4.657
4.654
4.654
4.657
4.651
4.663
4.657
4.655
4.651
4.648
4.648
4.646
4.647
4.649
4.646
4.648
4.645
4.650
4.649
4.644
4.643
4.653
4.662
4.654
4.661
4.650
4.648
4.647
4.653
4.655
4.656
4.653
4.653
4.643
4.645
4.644
4.648
4.643
4.640
4.638
4.635
4.637
4.635
4.634
4.639
4.642
4.644
4.654
4.647
4.642
4.640
4.648
4.657
4.667
4.676
4.679
4.669
4.673
4.667
4.666
4.661
4.653
4.661
4.653
4.655
4.649
4.645
4.655
4.659
4.658
4.654
4.653
4.651
4.640
4.637
4.638
4.634
4.636
4.635
4.634
4.639
4.635
4.634
4.631
4.631
4.640
4.649
4.658
4.667
4.675
4.684
4.681
4.692
4.689
4.688
4.687
4.682
4.672
4.672
4.671
4.664
4.655
4.654
4.660
4.653
4.654
4.660
4.655
4.659
4.660
4.658
4.649
4.644
4.656
4.656
4.655
4.654
4.655
4.657
4.651
4.645
4.650
4.658
4.658
4.653
4.654
4.651
4.655
4.663
4.671
4.680
4.682
4.680
4.686
4.685
4.688
4.682
4.683
4.689
4.693
4.687
4.680
4.688
4.697
4.691
4.694
4.688
4.691
4.691
4.686
4.685
4.687
4.684
4.674
4.677
4.674
4.671
4.668
4.661
4.670
4.673
4.678
4.675
4.673
4.667
4.666
4.661
4.654
4.654
4.662
4.664
4.669
4.667
4.667
4.669
4.663
4.670
4.678
4.686
4.693
4.701
4.708
4.716
4.724
4.730
4.723
4.719
4.724
4.715
4.718
4.717
4.718
4.718
4.715
4.706
4.715
4.715
4.713
4.714
4.717
4.706
4.706
4.702
4.707
4.700
4.708
4.714
4.706
4.712
4.707
4.710
4.711
4.715
4.724
4.714
4.708
4.705
4.704
4.706
4.699
4.692
4.684
4.685
4.683
4.682
4.693
4.696
4.686
4.682
4.675
4.669
4.670
4.672
4.679
4.686
4.693
4.700
4.707
4.713
4.709
4.708
4.711
4.716
4.708
4.712
4.710
4.706
4.703
4.700
4.698
4.700
4.702
4.709
4.703
4.706
4.701
4.696
4.697
4.698
4.697
4.693
4.686
4.686
4.678
4.668
4.666
4.666
4.669
4.676
4.679
4.672
4.664
4.669
4.668
4.669
4.674
4.675
4.679
4.683
4.689
4.688
4.682
4.671
4.670
4.668
4.659
4.663
4.660
4.670
4.669
4.661
4.657
4.653
4.655
4.653
4.653
4.661
4.660
4.666
4.672
4.679
4.685
4.691
4.698
4.704
4.710
4.717
4.723
4.729
4.733
4.738
4.728
4.718
4.720
4.720
4.724
4.724
4.724
4.724
4.719
4.719
4.708
4.708
4.708
4.700
4.703
4.711
4.720
4.723
4.721
4.716
4.720
4.724
4.720
4.714
4.710
4.705
4.708
4.712
4.717
4.712
4.711
4.710
4.718
4.715
4.715
4.709
4.705
4.710
4.712
4.708
4.708
4.706
4.708
4.705
4.705
4.704
4.701
4.698
4.696
4.701
4.699
4.693
4.698
4.699
4.693
4.687
4.690
4.692
4.697
4.701
4.705
4.703
4.706
4.705
4.697
4.703
4.711
4.707
4.708
4.707
4.703
4.699
4.695
4.691
4.696
4.702
4.708
4.714
4.719
4.725
4.730
4.736
4.742
4.747
4.746
4.746
4.748
4.745
4.737
4.735
4.733
4.731
4.731
4.726
4.717
4.716
4.714
4.711
4.709
4.708
4.710
4.700
4.700
4.700
4.696
4.689
4.696
4.695
4.691
4.696
4.697
4.700
4.700
4.695
4.689
4.684
4.687
4.687
4.692
4.694
4.689
4.689
4.694
4.698
4.698
4.693
4.696
4.694
4.694
4.693
4.690
4.687
4.686
4.686
4.685
4.690
4.689
4.683
4.677
4.671
4.673
4.673
4.674
4.671
4.669
4.662
4.670
4.666
4.662
4.662
4.659
4.656
4.654
4.655
4.654
4.653
4.654
4.654
4.647
4.645
4.649
4.644
4.651
4.656
4.654
4.661
4.660
4.657
4.653
4.657
4.662
4.667
4.672
4.677
4.682
4.687
4.692
4.697
4.702
4.707
4.712
4.717
4.723
4.728
4.733
4.738
4.743
4.748
4.753
4.758
4.756
4.755
4.753
4.750
4.754
4.751
4.759
4.755
4.759
4.766
4.767
4.764
4.763
4.758
4.753
4.748
4.751
4.743
4.740
4.744
4.742
4.736
4.729
4.730
4.727
4.726
4.727
4.721
4.714
4.719
4.718
4.722
4.719
4.718
4.716
4.719
4.712
4.716
4.714
4.712
4.716
4.712
4.707
4.702
4.698
4.693
4.690
4.688
4.690
4.688
4.688
4.685
4.688
4.683
4.683
4.680
4.680
4.674
4.675
4.671
4.672
4.675
4.678
4.676
4.676
