2.994
3.329
3.508
3.629
3.715
3.779
3.836
3.870
3.934
3.939
3.987
4.034
4.017
4.034
4.066
4.089
4.121
4.142
4.165
4.183
4.208
4.168
4.129
4.139
4.160
4.169
4.176
4.193
4.198
4.213
4.217
4.231
4.231
4.245
4.255
4.254
4.266
4.278
4.274
4.289
4.297
4.305
4.304
4.312
4.318
4.330
4.334
4.338
4.334
4.342
4.349
4.358
4.362
4.372
4.367
4.368
4.375
4.377
4.389
4.390
4.398
4.405
4.405
4.416
4.401
4.405
4.406
4.413
4.423
4.429
4.427
4.434
4.438
4.446
4.444
4.449
4.460
4.462
4.444
4.453
4.447
4.449
4.457
4.464
4.468
4.473
4.471
4.471
4.479
4.481
4.486
4.492
4.497
4.494
4.501
4.500
4.504
4.511
4.515
4.522
4.515
4.500
4.494
4.497
4.496
4.505
4.509
4.509
4.513
4.514
4.521
4.525
4.521
4.525
4.524
4.525
4.527
4.531
4.535
4.539
4.540
4.544
4.546
4.552
4.554
4.552
4.553
4.555
4.554
4.553
4.562
4.561
4.570
4.574
4.576
4.575
4.575
4.585
4.583
4.590
4.589
4.582
4.584
4.594
4.584
4.580
4.568
4.560
4.560
4.563
4.575
4.569
4.565
4.574
4.576
4.580
4.581
4.577
4.578
4.585
4.586
4.594
4.587
4.593
4.589
4.585
4.584
4.588
4.584
4.594
4.587
4.596
4.590
4.601
4.595
4.604
4.601
4.609
4.605
4.613
4.612
4.620
4.614
4.615
4.606
4.618
4.617
4.621
4.627
4.623
4.631
4.626
4.633
4.629
4.625
4.621
4.627
4.627
4.627
4.623
4.620
4.634
4.627
4.627
4.633
4.631
4.636
4.632
4.634
4.645
4.641
4.642
4.653
4.651
4.650
4.656
4.658
4.646
4.663
4.653
4.649
4.656
4.657
4.656
4.666
4.665
4.663
4.670
4.668
4.670
4.671
4.676
4.671
4.668
4.685
4.675
4.674
4.678
4.666
4.660
4.674
4.679
4.674
4.675
4.685
4.673
4.668
4.675
4.677
4.668
4.668
4.681
4.680
4.679
4.677
4.687
4.685
4.687
4.688
4.690
4.699
4.689
4.693
4.690
4.702
4.705
4.701
4.701
4.705
4.703
4.705
4.701
4.702
4.697
4.691
4.683
4.677
4.670
4.666
4.670
4.671
4.660
4.663
4.660
4.675
4.676
4.675
4.671
4.671
4.679
4.686
4.681
4.683
4.676
4.680
4.679
4.680
4.681
4.679
4.679
4.693
4.687
4.685
4.683
4.688
4.690
4.701
4.700
4.701
4.703
4.697
4.698
4.705
4.701
4.693
4.686
4.685
4.686
4.686
4.687
4.686
4.684
4.686
4.686
4.683
4.686
4.677
4.671
4.685
4.689
4.688
4.686
4.682
4.676
4.682
4.690
4.688
4.683
4.685
4.683
4.680
4.686
4.699
4.695
4.696
4.694
4.697
4.695
4.694
4.701
4.704
4.703
4.704
4.701
4.699
4.697
4.699
4.711
4.704
4.703
4.699
4.697
4.693
4.695
4.705
4.714
4.709
4.709
4.704
4.708
4.704
4.705
4.709
4.717
4.723
4.720
4.718
4.719
4.716
4.723
4.720
4.719
4.729
4.731
4.729
4.730
4.723
4.714
4.707
4.711
4.723
4.727
4.723
4.717
4.715
4.720
4.715
4.712
4.713
4.722
4.723
4.719
4.716
4.716
4.721
4.714
4.718
4.719
4.720
4.730
4.735
4.731
4.729
4.730
4.735
4.733
4.729
4.725
4.726
4.734
4.743
4.733
4.734
4.728
4.731
4.730
4.732
4.728
4.729
4.730
4.740
4.750
4.748
4.749
4.746
4.744
4.748
4.746
4.742
4.742
4.751
4.750
4.754
4.763
4.759
4.757
4.756
4.752
4.753
4.755
4.751
4.753
4.748
4.750
4.759
4.763
4.762
4.764
4.760
4.763
4.757
4.750
4.745
4.739
4.738
4.741
4.740
4.744
4.745
4.742
4.737
4.731
4.732
4.730
4.734
4.728
4.734
4.742
4.751
4.746
4.738
4.731
4.727
4.725
4.720
4.723
4.721
4.722
4.721
4.730
4.738
4.746
4.743
4.741
4.742
4.739
4.740
4.734
4.732
4.736
4.734
4.733
4.731
4.733
4.738
4.747
4.753
4.758
4.759
4.757
4.760
4.757
4.751
4.746
4.743
4.738
4.737
4.741
4.740
4.739
4.746
4.757
4.759
4.758
4.756
4.755
4.753
4.749
4.745
4.749
4.742
4.741
4.738
4.730
4.732
4.741
4.748
4.749
4.759
4.760
4.757
4.752
4.751
4.752
4.751
4.758
4.749
4.746
4.754
4.750
4.745
4.747
4.746
4.752
4.759
4.766
4.770
4.769
4.770
4.771
4.771
4.771
4.771
4.774
4.765
4.760
4.760
4.757
4.757
4.750
4.757
4.758
4.760
4.768
4.773
4.777
4.768
4.766
4.765
4.766
4.762
4.761
4.765
4.764
4.764
4.763
4.762
4.761
4.759
4.758
4.760
4.760
4.767
4.774
4.781
4.783
4.789
4.790
4.784
4.788
4.789
4.786
4.786
4.785
4.784
4.783
4.781
4.780
4.783
4.783
4.781
4.777
4.770
4.774
4.778
4.785
4.792
4.794
4.790
4.790
4.790
4.786
4.794
4.796
4.794
4.793
4.789
4.783
4.778
4.775
4.776
4.774
4.771
4.774
4.770
4.769
4.776
4.783
4.784
4.783
4.781
4.779
4.781
4.782
4.776
4.777
4.779
4.775
4.776
4.783
4.779
4.779
4.775
4.777
4.775
4.768
4.765
4.760
4.765
4.772
4.778
4.775
4.779
4.777
4.779
4.782
4.784
4.785
4.776
4.775
4.773
4.775
4.776
4.777
4.776
4.774
4.775
4.772
4.771
4.779
4.778
4.777
4.783
4.780
4.775
4.775
4.783
4.788
4.792
4.793
4.794
4.791
4.789
4.788
4.789
4.790
4.789
4.788
4.784
4.785
4.781
4.782
4.781
4.782
4.786
4.783
4.781
4.783
4.781
4.785
4.779
4.779
4.779
4.785
4.786
4.793
4.800
4.804
4.811
4.815
4.811
4.805
4.808
4.805
4.805
4.801
4.798
4.802
4.795
4.799
4.798
4.794
4.798
4.807
4.800
4.797
4.803
4.801
4.805
4.797
4.798
4.802
4.803
4.802
4.798
4.797
4.800
4.805
4.812
4.818
4.823
4.823
4.822
4.823
4.827
4.827
4.823
4.820
4.816
4.818
4.812
4.809
4.805
4.812
4.816
4.812
4.812
4.815
4.812
4.807
4.803
4.804
4.809
4.810
4.803
4.805
4.805
4.804
4.805
4.802
4.806
4.813
4.819
4.815
4.816
4.820
4.817
4.815
4.809
4.807
4.800
4.804
4.805
4.809
4.809
4.810
4.816
4.813
4.811
4.809
4.816
4.807
4.805
4.805
4.805
4.802
4.798
4.797
4.795
4.797
4.797
4.797
4.797
4.793
4.800
4.805
4.811
4.816
4.822
4.827
4.833
4.838
4.834
4.832
4.830
4.829
4.827
4.832
4.833
4.831
4.825
4.824
4.822
4.824
4.823
4.826
4.822
4.826
4.827
4.821
4.822
4.827
4.827
4.827
4.827
4.824
4.820
4.823
4.825
4.826
4.825
4.827
4.827
4.823
4.822
4.820
4.823
4.821
4.827
4.832
4.838
4.843
4.849
4.854
4.860
4.862
4.860
4.859
4.857
4.854
4.858
4.853
4.847
4.842
4.844
4.843
4.842
4.845
4.847
4.842
4.836
4.834
4.831
4.832
4.831
4.835
4.836
4.837
4.838
4.834
4.831
4.829
4.828
4.834
4.834
4.832
4.828
4.826
4.822
4.820
4.820
4.826
4.831
4.835
4.838
4.834
4.828
4.824
4.820
4.816
4.819
4.818
4.814
4.816
4.820
4.818
4.819
4.816
4.812
4.818
4.822
4.820
4.816
4.816
4.817
4.813
4.814
4.813
4.812
4.816
4.816
4.813
4.816
4.813
4.808
4.807
4.814
4.812
4.812
4.810
4.809
4.805
4.801
4.799
4.801
4.807
4.812
4.818
4.819
4.821
4.827
4.832
4.831
4.827
4.827
4.827
4.827
4.824
4.822
4.820
4.822
4.824
4.825
4.823
4.823
4.823
4.822
4.820
4.822
4.823
4.819
4.813
4.811
4.807
4.806
4.805
4.805
4.804
4.801
4.807
4.812
4.815
4.809
4.807
4.805
4.805
4.800
4.797
4.795
4.797
4.798
4.794
4.794
4.797
4.798
4.797
4.800
4.805
4.811
4.813
