2.991
3.330
3.509
3.618
3.711
3.787
3.834
3.859
3.920
3.977
3.948
3.987
4.023
4.056
4.088
4.119
4.128
4.070
4.065
4.083
4.099
4.113
4.129
4.136
4.157
4.160
4.177
4.183
4.199
4.201
4.211
4.222
4.237
4.235
4.248
4.262
4.267
4.266
4.271
4.283
4.293
4.303
4.295
4.301
4.313
4.319
4.329
4.336
4.343
4.329
4.335
4.345
4.349
4.354
4.363
4.371
4.380
4.375
4.390
4.394
4.383
4.383
4.384
4.394
4.397
4.396
4.403
4.413
4.419
4.423
4.426
4.429
4.432
4.437
4.447
4.449
4.460
4.435
4.432
4.428
4.438
4.445
4.443
4.456
4.456
4.453
4.457
4.464
4.461
4.468
4.474
4.472
4.475
4.488
4.487
4.485
4.484
4.493
4.498
4.501
4.505
4.509
4.511
4.519
4.516
4.525
4.522
4.520
4.525
4.522
4.529
4.511
4.499
4.499
4.496
4.507
4.512
4.511
4.514
4.509
4.519
4.524
4.528
4.531
4.522
4.518
4.529
4.520
4.525
4.527
4.529
4.528
4.540
4.535
4.539
4.548
4.553
4.546
4.544
4.549
4.557
4.558
4.568
4.562
4.575
4.567
4.564
4.562
4.565
4.568
4.557
4.564
4.564
4.573
4.568
4.574
4.570
4.577
4.584
4.580
4.589
4.585
4.599
4.589
4.595
4.587
4.589
4.592
4.593
4.606
4.597
4.599
4.613
4.608
4.614
4.615
4.608
4.624
4.619
4.614
4.608
4.606
4.621
4.616
4.612
4.618
4.609
4.608
4.614
4.615
4.611
4.623
4.624
4.621
4.635
4.628
4.627
4.633
4.641
4.636
4.642
4.641
4.643
4.640
4.646
4.656
4.649
4.646
4.637
4.628
4.619
4.610
4.600
4.612
4.617
4.613
4.610
4.618
4.621
4.622
4.609
4.620
4.625
4.619
4.616
4.621
4.625
4.627
4.623
4.627
4.638
4.646
4.637
4.634
4.632
4.649
4.643
4.634
4.622
4.632
4.633
4.623
4.611
4.629
4.630
4.617
4.614
4.614
4.626
4.623
4.621
4.617
4.614
4.628
4.632
4.627
4.625
4.621
4.628
4.645
4.646
4.639
4.630
4.629
4.637
4.651
4.653
4.638
4.639
4.634
4.643
4.651
4.651
4.647
4.640
4.635
4.644
4.656
4.652
4.652
4.654
4.650
4.649
4.657
4.669
4.667
4.665
4.665
4.661
4.661
4.663
4.659
4.667
4.655
4.651
4.652
4.652
4.667
4.667
4.655
4.651
4.654
4.650
4.650
4.665
4.672
4.673
4.669
4.664
4.666
4.669
4.667
4.673
4.685
4.681
4.674
4.669
4.667
4.662
4.668
4.674
4.689
4.688
4.685
4.681
4.688
4.686
4.681
4.680
4.684
4.698
4.707
4.697
4.696
4.690
4.691
4.697
4.694
4.692
4.702
4.704
4.701
4.706
4.706
4.704
4.693
4.690
4.695
4.691
4.684
4.679
4.676
4.676
4.672
4.668
4.670
4.675
4.688
4.688
4.690
4.685
4.676
4.666
4.659
4.668
4.666
4.672
4.684
4.683
4.678
4.680
4.683
4.678
4.673
4.672
4.678
4.665
4.674
4.686
4.698
4.701
4.701
4.695
4.691
4.683
4.685
4.686
4.677
4.674
4.679
4.691
4.699
4.699
4.703
4.700
4.690
4.682
4.679
4.675
4.676
4.673
4.676
4.688
4.699
4.703
4.705
4.700
4.694
4.699
4.696
4.695
4.691
4.688
4.689
4.681
4.687
4.698
4.709
4.721
4.724
4.716
4.711
4.706
4.703
4.700
4.707
4.702
4.700
4.702
4.693
4.700
4.709
4.712
4.713
4.714
4.711
4.715
4.710
4.710
4.710
4.707
4.705
4.702
4.708
4.708
4.708
4.710
4.720
4.730
4.736
4.737
4.735
4.734
4.730
4.734
4.731
4.725
4.726
4.723
4.722
4.720
4.716
4.717
4.719
4.730
4.740
4.748
4.746
4.740
4.732
4.731
4.726
4.725
4.726
4.727
4.720
4.713
4.705
4.701
4.707
4.716
4.726
4.732
4.732
4.728
4.730
4.730
4.725
4.721
4.721
4.715
4.708
4.706
4.704
4.701
4.701
4.700
4.702
4.711
4.720
4.730
4.735
4.732
4.725
4.730
4.732
4.728
4.731
4.729
4.733
4.732
4.730
4.731
4.724
4.717
4.707
4.707
4.708
4.711
4.720
4.729
4.734
4.743
4.742
4.739
4.743
4.742
4.742
4.744
4.741
4.735
4.733
4.736
4.736
4.739
4.743
4.736
4.731
4.728
4.723
4.723
4.725
4.730
4.739
4.748
4.756
4.752
4.760
4.764
4.753
4.758
4.765
4.765
4.762
4.763
4.764
4.759
4.752
4.749
4.750
4.746
4.746
4.744
4.744
4.749
4.752
4.748
4.744
4.749
4.758
4.766
4.774
4.770
4.774
4.767
4.767
4.765
4.762
4.759
4.755
4.759
4.756
4.758
4.753
4.746
4.741
4.741
4.738
4.736
4.735
4.729
4.727
4.734
4.742
4.750
4.758
4.765
4.768
4.770
4.767
4.767
4.765
4.764
4.762
4.755
4.759
4.763
4.758
4.757
4.758
4.753
4.751
4.747
4.754
4.756
4.757
4.761
4.757
4.754
4.752
4.749
4.749
4.756
4.754
4.762
4.769
4.777
4.784
4.790
4.786
4.786
4.789
4.791
4.788
4.785
4.790
4.787
4.781
4.787
4.788
4.785
4.785
4.786
4.787
4.785
4.785
4.785
4.786
4.783
4.786
4.778
4.769
4.771
4.772
4.775
4.772
4.769
4.773
4.781
4.788
4.795
4.802
4.807
4.804
4.794
4.790
4.791
4.791
4.793
4.797
4.794
4.790
4.786
4.782
4.778
4.774
4.770
4.766
4.762
4.758
4.754
4.749
4.745
4.741
4.740
4.738
4.736
4.741
4.747
4.754
4.761
4.768
4.775
4.775
4.773
4.777
4.782
4.787
4.788
4.785
4.780
4.775
4.770
4.765
4.760
4.755
4.751
4.750
4.748
4.749
4.748
4.742
4.742
4.740
4.746
4.746
4.748
4.749
4.749
4.751
4.747
4.750
4.752
4.747
4.747
4.745
4.745
4.751
4.758
4.764
4.771
4.777
4.770
4.764
4.765
4.759
4.757
4.758
4.756
4.756
4.757
4.760
4.766
4.768
4.770
4.764
4.762
4.766
4.765
4.758
4.757
4.758
4.757
4.758
4.760
4.757
4.753
4.756
4.748
4.751
4.751
4.755
4.758
4.754
4.753
4.749
4.742
4.751
4.756
4.757
4.752
4.758
4.764
4.770
4.775
4.776
4.774
4.777
4.772
4.773
4.774
4.768
4.764
4.764
4.765
4.768
4.769
4.766
4.757
4.752
4.747
4.746
4.744
4.747
4.745
4.746
4.752
4.758
4.757
4.753
4.753
4.751
4.750
4.755
4.749
4.748
4.745
4.740
4.739
4.741
4.738
4.740
4.742
4.736
4.738
4.737
4.742
4.744
4.750
4.755
4.761
4.767
4.773
4.778
4.784
4.790
4.794
4.792
4.793
4.788
4.784
4.789
4.789
4.787
4.786
4.779
4.774
4.775
4.775
4.774
4.779
4.772
4.770
4.769
4.772
4.770
4.768
4.762
4.760
4.757
4.751
4.745
4.743
4.743
4.739
4.738
4.743
4.741
4.742
4.747
4.753
4.753
4.758
4.761
4.756
4.756
4.758
4.757
4.750
4.745
4.746
4.744
4.746
4.751
4.756
4.762
4.767
4.773
4.778
4.783
4.787
4.785
4.782
4.785
4.785
4.783
4.782
4.784
4.785
4.784
4.785
4.784
4.781
4.781
4.781
4.781
4.777
4.779
4.780
4.779
4.785
4.782
4.783
4.783
4.782
4.779
4.776
4.777
4.776
4.779
4.774
4.774
4.770
4.767
4.768
4.765
4.759
4.760
4.758
4.759
4.756
4.753
4.757
4.755
4.752
4.751
4.744
4.739
4.741
4.737
4.739
4.736
4.735
4.742
4.748
4.753
4.753
4.758
4.763
4.768
4.773
4.778
4.783
4.788
4.793
4.798
4.803
4.803
4.802
4.800
4.800
4.797
4.805
4.801
4.796
4.797
4.794
4.796
4.796
4.794
4.790
4.790
4.790
4.787
4.787
4.786
4.792
4.793
4.795
4.798
4.794
4.792
4.787
4.784
4.777
4.772
4.767
4.761
4.760
4.762
4.769
4.772
4.771
4.778
4.776
4.778
4.778
4.776
4.775
4.775
4.775
4.774
4.778
4.778
4.781
4.779
4.779
4.776
4.773
4.771
