2.995
3.313
3.480
3.600
3.678
3.765
3.783
3.862
3.925
3.910
3.878
3.898
3.924
3.958
3.972
3.993
4.027
4.036
4.058
4.061
4.087
4.111
4.104
4.125
4.141
4.135
4.149
4.168
4.185
4.198
4.205
4.191
4.204
4.211
4.227
4.237
4.248
4.258
4.261
4.259
4.252
4.263
4.272
4.262
4.279
4.294
4.307
4.304
4.306
4.324
4.325
4.329
4.351
4.347
4.338
4.354
4.343
4.330
4.323
4.330
4.349
4.352
4.334
4.348
4.357
4.363
4.376
4.364
4.370
4.385
4.397
4.400
4.394
4.387
4.392
4.390
4.398
4.402
4.411
4.415
4.425
4.412
4.417
4.433
4.433
4.433
4.450
4.445
4.453
4.448
4.442
4.430
4.444
4.440
4.461
4.455
4.470
4.468
4.474
4.477
4.476
4.483
4.480
4.487
4.486
4.468
4.449
4.445
4.438
4.452
4.450
4.466
4.470
4.458
4.481
4.475
4.475
4.458
4.455
4.456
4.437
4.446
4.446
4.444
4.475
4.467
4.455
4.481
4.476
4.473
4.480
4.476
4.467
4.474
4.492
4.489
4.488
4.496
4.501
4.502
4.491
4.497
4.486
4.477
4.490
4.502
4.494
4.487
4.494
4.524
4.509
4.503
4.492
4.518
4.522
4.510
4.508
4.519
4.539
4.538
4.528
4.526
4.523
4.550
4.541
4.535
4.532
4.527
4.551
4.553
4.542
4.526
4.522
4.533
4.528
4.518
4.498
4.510
4.529
4.513
4.521
4.514
4.518
4.515
4.531
4.527
4.523
4.520
4.517
4.520
4.533
4.519
4.522
4.532
4.519
4.516
4.518
4.541
4.551
4.557
4.540
4.542
4.537
4.525
4.538
4.555
4.550
4.548
4.543
4.539
4.533
4.539
4.545
4.566
4.571
4.572
4.566
4.565
4.560
4.557
4.552
4.559
4.580
4.587
4.585
4.584
4.569
4.568
4.569
4.563
4.564
4.574
4.563
4.570
4.561
4.554
4.538
4.525
4.538
4.546
4.565
4.582
4.585
4.579
4.566
4.569
4.559
4.553
4.552
4.542
4.555
4.573
4.591
4.606
4.595
4.590
4.578
4.570
4.568
4.573
4.571
4.576
4.573
4.581
4.598
4.606
4.599
4.605
4.618
4.614
4.607
4.606
4.598
4.593
4.586
4.580
4.586
4.602
4.619
4.617
4.603
4.593
4.587
4.596
4.593
4.582
4.586
4.589
4.581
4.571
4.587
4.602
4.618
4.634
4.628
4.622
4.613
4.617
4.618
4.613
4.612
4.616
4.618
4.613
4.613
4.610
4.609
4.610
4.625
4.640
4.647
4.640
4.633
4.643
4.640
4.638
4.634
4.629
4.623
4.622
4.630
4.630
4.619
4.625
4.619
4.621
4.635
4.646
4.638
4.630
4.621
4.613
4.607
4.614
4.617
4.624
4.619
4.614
4.607
4.608
4.610
4.601
4.591
4.603
4.616
4.613
4.627
4.619
4.616
4.605
4.599
4.594
4.595
4.601
4.596
4.591
4.583
4.596
4.598
4.595
4.595
4.596
4.593
4.601
4.595
4.608
4.620
4.633
4.644
4.638
4.636
4.624
4.613
4.606
4.603
4.596
4.586
4.588
4.592
4.593
4.585
4.584
4.578
4.578
4.570
4.580
4.589
4.586
4.589
4.601
4.613
4.624
4.636
4.647
4.636
4.629
4.630
4.619
4.614
4.615
4.619
4.612
4.604
4.609
4.617
4.615
4.603
4.596
4.590
4.590
4.593
4.594
4.590
4.584
4.587
4.579
4.590
4.601
4.612
4.623
4.634
4.629
4.630
4.640
4.651
4.642
4.643
4.637
4.634
4.635
4.627
4.618
4.618
4.617
4.611
4.620
4.613
4.601
4.596
4.594
4.603
4.601
4.603
4.608
4.610
4.602
4.593
4.596
4.596
4.597
4.608
4.618
4.628
4.638
4.648
4.657
4.651
4.646
4.644
4.643
4.635
4.637
4.634
4.635
4.640
4.643
4.645
4.646
4.639
4.629
4.621
4.618
4.618
4.621
4.623
4.619
4.619
4.619
4.630
4.631
4.622
4.612
4.613
4.617
4.606
4.617
4.617
4.624
4.626
4.619
4.629
4.638
4.647
4.657
4.666
4.676
4.680
4.680
4.678
4.675
4.675
4.674
4.671
4.669
4.665
4.663
4.660
4.662
4.664
4.659
4.655
4.647
4.640
4.648
4.659
4.662
4.656
4.658
4.659
4.661
4.662
4.660
4.668
4.662
4.651
4.649
4.652
4.650
4.649
4.641
4.643
4.649
4.645
4.641
4.643
4.649
4.642
4.647
4.656
4.664
4.673
4.681
4.688
4.682
4.681
4.690
4.699
4.692
4.684
4.677
4.669
4.668
4.661
4.656
4.655
4.647
4.641
4.640
4.638
4.633
4.634
4.630
4.629
4.624
4.619
4.627
4.638
4.640
4.642
4.632
4.623
4.618
4.624
4.636
4.635
4.629
4.628
4.628
4.621
4.618
4.614
4.621
4.628
4.630
4.625
4.616
4.608
4.616
4.623
4.631
4.639
4.647
4.655
4.662
4.670
4.678
4.679
4.683
4.682
4.679
4.680
4.675
4.669
4.671
4.673
4.672
4.677
4.668
4.670
4.658
4.662
4.657
4.667
4.669
4.668
4.668
4.663
4.664
4.665
4.663
4.660
4.658
4.661
4.670
4.660
4.662
4.665
4.659
4.656
4.653
4.650
4.658
4.661
4.656
4.658
4.654
4.659
4.651
4.645
4.640
4.638
4.636
4.636
4.637
4.640
4.634
4.636
4.641
4.653
4.653
4.646
4.647
4.657
4.654
4.651
4.650
4.655
4.651
4.660
4.661
4.668
4.675
4.682
4.689
4.696
4.703
4.710
4.713
4.711
4.713
4.709
4.708
4.708
4.706
4.701
4.695
4.692
4.683
4.681
4.675
4.675
4.673
4.672
4.662
4.662
4.659
4.664
4.661
4.667
4.661
4.656
4.648
4.647
4.641
4.648
4.640
4.636
4.640
4.648
4.658
4.654
4.650
4.644
4.643
4.644
4.638
4.640
4.635
4.635
4.639
4.633
4.639
4.640
4.637
4.639
4.642
4.643
4.638
4.633
4.639
4.632
4.628
4.625
4.626
4.621
4.617
4.610
4.603
4.596
4.595
4.596
4.600
4.599
4.606
4.612
4.618
4.624
4.631
4.637
4.643
4.649
4.656
4.662
4.668
4.674
4.681
4.687
4.693
4.697
4.697
4.701
4.703
4.701
4.706
4.703
4.696
4.690
4.694
4.701
4.710
4.719
4.715
4.709
4.705
4.706
4.704
4.708
4.708
4.704
4.705
4.699
4.702
4.703
4.705
4.700
4.692
4.694
4.683
4.681
4.677
4.678
4.682
4.678
4.670
4.677
4.675
4.670
4.675
4.679
4.682
4.682
4.677
4.671
4.670
4.661
4.659
4.657
4.657
4.663
4.654
4.646
4.649
4.647
4.646
4.642
4.636
4.631
4.626
4.624
4.622
4.614
4.615
4.623
4.631
4.630
4.627
4.631
4.628
4.623
4.627
4.622
4.629
4.624
4.617
4.617
4.618
4.617
4.626
4.620
4.622
4.625
4.624
4.634
4.642
4.639
4.638
4.640
4.640
4.632
4.637
4.636
4.636
4.631
4.632
4.638
4.643
4.648
4.654
4.659
4.665
4.670
4.676
4.681
4.687
4.692
4.698
4.703
4.701
4.696
4.698
4.700
4.693
4.684
4.695
4.690
4.688
4.694
4.688
4.691
4.690
4.697
4.692
4.684
4.674
4.672
4.669
4.668
4.669
4.666
4.661
4.669
4.678
4.681
4.684
4.678
4.683
4.679
4.684
4.679
4.680
4.675
4.676
4.673
4.674
4.682
4.689
4.697
4.700
4.698
4.699
4.706
4.711
4.710
4.702
4.700
4.696
4.689
4.691
4.687
4.692
4.692
4.687
4.683
4.687
4.682
4.677
4.678
4.672
4.665
4.659
4.653
4.652
4.648
4.639
4.639
4.638
4.637
4.636
4.636
4.636
4.639
4.633
4.637
4.646
4.645
4.646
4.652
4.651
4.653
4.652
4.654
4.662
4.658
4.661
4.658
4.658
4.656
4.658
4.659
4.656
4.650
4.643
4.638
4.639
4.639
4.636
4.631
4.625
4.617
4.619
4.627
4.628
4.626
4.620
4.624
4.628
4.626
4.629
4.630
4.627
4.628
4.631
4.633
4.638
4.638
4.640
4.633
4.635
4.642
4.649
4.656
4.662
4.666
4.669
4.661
4.655
4.652
4.649
4.651
4.655
4.660
4.665
4.669
4.674
4.679
4.684
4.688
4.693
4.697
4.702
