2.989
3.321
3.510
3.622
3.700
3.770
3.806
3.877
3.917
3.917
3.961
4.001
4.042
4.072
4.075
4.010
4.026
4.046
4.061
4.087
4.095
4.104
4.125
4.136
4.151
4.152
4.172
4.185
4.189
4.202
4.215
4.209
4.223
4.236
4.249
4.257
4.255
4.264
4.269
4.282
4.290
4.302
4.293
4.290
4.302
4.311
4.321
4.334
4.333
4.347
4.353
4.334
4.334
4.344
4.351
4.356
4.362
4.371
4.378
4.386
4.388
4.390
4.399
4.404
4.412
4.409
4.384
4.387
4.394
4.408
4.410
4.412
4.406
4.411
4.421
4.427
4.434
4.431
4.441
4.449
4.442
4.442
4.445
4.453
4.464
4.465
4.465
4.475
4.474
4.483
4.478
4.486
4.480
4.486
4.480
4.463
4.457
4.469
4.478
4.470
4.475
4.478
4.476
4.482
4.496
4.471
4.483
4.481
4.489
4.483
4.486
4.496
4.501
4.499
4.506
4.515
4.502
4.507
4.515
4.515
4.525
4.529
4.528
4.532
4.521
4.521
4.526
4.521
4.524
4.530
4.526
4.534
4.529
4.542
4.540
4.550
4.547
4.556
4.554
4.551
4.546
4.562
4.555
4.564
4.565
4.568
4.569
4.569
4.578
4.576
4.588
4.582
4.572
4.576
4.572
4.579
4.568
4.569
4.572
4.577
4.579
4.573
4.590
4.592
4.587
4.600
4.591
4.593
4.608
4.596
4.599
4.613
4.612
4.607
4.615
4.616
4.604
4.596
4.585
4.575
4.569
4.570
4.580
4.580
4.578
4.575
4.580
4.577
4.575
4.588
4.587
4.588
4.581
4.599
4.606
4.593
4.599
4.606
4.602
4.602
4.599
4.595
4.586
4.580
4.587
4.594
4.587
4.577
4.584
4.579
4.590
4.575
4.577
4.598
4.588
4.584
4.590
4.588
4.609
4.606
4.591
4.595
4.594
4.615
4.606
4.603
4.595
4.596
4.616
4.611
4.608
4.604
4.599
4.613
4.618
4.617
4.618
4.617
4.617
4.626
4.628
4.633
4.628
4.629
4.621
4.630
4.620
4.623
4.616
4.616
4.616
4.626
4.627
4.619
4.618
4.616
4.615
4.630
4.636
4.634
4.637
4.633
4.630
4.627
4.639
4.640
4.633
4.631
4.642
4.634
4.632
4.642
4.655
4.660
4.653
4.653
4.655
4.650
4.646
4.655
4.664
4.665
4.667
4.666
4.659
4.650
4.647
4.661
4.677
4.670
4.661
4.662
4.670
4.662
4.653
4.644
4.643
4.645
4.643
4.642
4.640
4.640
4.636
4.651
4.639
4.634
4.637
4.637
4.633
4.628
4.629
4.636
4.647
4.652
4.652
4.644
4.645
4.645
4.651
4.650
4.650
4.643
4.658
4.659
4.652
4.657
4.648
4.642
4.643
4.644
4.649
4.648
4.655
4.651
4.652
4.649
4.641
4.648
4.646
4.645
4.647
4.643
4.645
4.658
4.666
4.672
4.668
4.667
4.668
4.666
4.665
4.666
4.668
4.663
4.664
4.664
4.676
4.680
4.684
4.680
4.680
4.669
4.663
4.661
4.656
4.652
4.664
4.659
4.672
4.685
4.685
4.685
4.684
4.683
4.677
4.689
4.686
4.688
4.686
4.682
4.679
4.684
4.681
4.693
4.705
4.709
4.705
4.696
4.692
4.697
4.691
4.690
4.692
4.688
4.691
4.688
4.678
4.690
4.701
4.692
4.683
4.688
4.686
4.685
4.684
4.682
4.677
4.681
4.676
4.669
4.675
4.674
4.685
4.689
4.685
4.681
4.676
4.683
4.681
4.680
4.686
4.682
4.676
4.680
4.677
4.683
4.678
4.676
4.678
4.689
4.697
4.697
4.697
4.698
4.703
4.696
4.690
4.688
4.690
4.681
4.682
4.684
4.694
4.696
4.691
4.686
4.690
4.689
4.700
4.710
4.714
4.712
4.711
4.713
4.707
4.714
4.711
4.706
4.710
4.710
4.706
4.706
4.706
4.709
4.708
4.713
4.707
4.706
4.708
4.714
4.723
4.733
4.740
4.741
4.735
4.728
4.723
4.723
4.727
4.721
4.725
4.722
4.722
4.720
4.713
4.717
4.709
4.704
4.697
4.699
4.709
4.718
4.727
4.726
4.732
4.732
4.728
4.721
4.718
4.716
4.718
4.717
4.719
4.712
4.711
4.710
4.711
4.713
4.716
4.713
4.713
4.707
4.704
4.704
4.714
4.723
4.732
4.741
4.743
4.744
4.744
4.746
4.739
4.738
4.741
4.744
4.740
4.738
4.738
4.746
4.745
4.743
4.740
4.737
4.733
4.728
4.729
4.729
4.730
4.728
4.736
4.740
4.748
4.745
4.750
4.758
4.764
4.764
4.764
4.759
4.757
4.755
4.750
4.750
4.755
4.753
4.753
4.751
4.753
4.754
4.757
4.751
4.748
4.746
4.743
4.751
4.752
4.750
4.742
4.737
4.729
4.732
4.734
4.732
4.729
4.739
4.745
4.742
4.739
4.737
4.739
4.729
4.729
4.734
4.732
4.729
4.729
4.728
4.726
4.734
4.730
4.731
4.722
4.722
4.716
4.710
4.705
4.705
4.706
4.704
4.712
4.720
4.727
4.735
4.743
4.741
4.737
4.733
4.732
4.727
4.727
4.724
4.719
4.718
4.729
4.725
4.722
4.720
4.719
4.724
4.718
4.709
4.707
4.709
4.715
4.711
4.708
4.705
4.704
4.705
4.707
4.710
4.707
4.707
4.707
4.714
4.720
4.723
4.730
4.738
4.745
4.752
4.751
4.749
4.749
4.750
4.746
4.749
4.746
4.743
4.737
4.732
4.731
4.726
4.723
4.719
4.715
4.710
4.710
4.720
4.716
4.717
4.709
4.705
4.705
4.705
4.701
4.709
4.707
4.702
4.699
4.696
4.701
4.700
4.702
4.709
4.716
4.723
4.730
4.737
4.744
4.750
4.745
4.740
4.742
4.740
4.741
4.745
4.748
4.748
4.750
4.752
4.752
4.749
4.750
4.745
4.744
4.749
4.743
4.740
4.735
4.732
4.728
4.719
4.719
4.715
4.716
4.716
4.717
4.714
4.718
4.711
4.720
4.719
4.713
4.706
4.705
4.706
4.707
4.704
4.707
4.714
4.720
4.727
4.733
4.740
4.746
4.753
4.753
4.755
4.747
4.743
4.744
4.742
4.744
4.743
4.746
4.742
4.739
4.735
4.734
4.734
4.734
4.733
4.739
4.741
4.742
4.744
4.744
4.747
4.743
4.735
4.736
4.739
4.737
4.736
4.733
4.727
4.726
4.732
4.731
4.737
4.734
4.727
4.728
4.725
4.723
4.720
4.722
4.713
4.712
4.705
4.710
4.715
4.722
4.727
4.734
4.740
4.746
4.752
4.758
4.764
4.767
4.768
4.770
4.769
4.770
4.764
4.763
4.764
4.760
4.756
4.756
4.755
4.753
4.750
4.750
4.744
4.746
4.746
4.748
4.747
4.753
4.753
4.748
4.746
4.744
4.740
4.738
4.740
4.739
4.741
4.739
4.747
4.745
4.748
4.741
4.740
4.733
4.725
4.725
4.724
4.726
4.730
4.730
4.732
4.733
4.732
4.729
4.728
4.729
4.726
4.728
4.726
4.723
4.728
4.734
4.740
4.745
4.751
4.756
4.762
4.768
4.774
4.779
4.776
4.773
4.773
4.778
4.779
4.773
4.770
4.773
4.771
4.771
4.773
4.780
4.783
4.778
4.771
4.771
4.768
4.769
4.764
4.767
4.769
4.767
4.758
4.759
4.757
4.761
4.759
4.755
4.756
4.753
4.751
4.754
4.753
4.752
4.758
4.767
4.768
4.761
4.762
4.758
4.762
4.759
4.761
4.754
4.750
4.751
4.749
4.744
4.746
4.750
4.752
4.757
4.757
4.755
4.757
4.753
4.747
4.753
4.752
4.748
4.749
4.747
4.751
4.758
4.753
4.755
4.760
4.766
4.771
4.776
4.781
4.786
4.792
4.797
4.802
4.807
4.810
4.811
4.804
4.808
4.804
4.808
4.809
4.812
4.806
4.806
4.810
4.808
4.806
4.802
4.797
4.792
4.788
4.781
4.777
4.775
4.776
4.781
4.781
4.778
4.779
4.777
4.783
4.790
4.786
4.780
4.775
4.778
4.776
4.780
4.786
4.786
4.783
4.777
4.776
4.772
4.768
4.775
4.779
4.775
4.771
4.766
4.763
4.764
4.760
4.755
4.751
4.747
4.749
4.743
4.742
4.739
4.743
4.742
4.742
4.740
4.734
4.728
4.722
4.722
4.722
4.723
4.726
4.731
4.736
4.741
4.745
4.750
4.755
4.760
4.764
4.769
4.774
4.779
4.784
