2.988
3.324
3.498
3.610
3.692
3.764
3.830
3.873
3.936
3.915
3.954
4.001
4.035
4.066
4.108
4.058
4.029
4.050
4.065
4.078
4.104
4.115
4.119
4.141
4.146
4.161
4.164
4.183
4.199
4.196
4.211
4.224
4.237
4.235
4.243
4.256
4.265
4.260
4.268
4.281
4.282
4.296
4.307
4.316
4.306
4.305
4.316
4.324
4.335
4.337
4.345
4.352
4.358
4.343
4.347
4.352
4.359
4.367
4.374
4.374
4.387
4.393
4.394
4.391
4.406
4.416
4.420
4.428
4.417
4.398
4.400
4.406
4.413
4.412
4.424
4.426
4.424
4.430
4.431
4.445
4.445
4.454
4.458
4.454
4.456
4.449
4.461
4.469
4.477
4.477
4.476
4.483
4.486
4.493
4.491
4.496
4.489
4.499
4.494
4.475
4.476
4.477
4.478
4.477
4.477
4.480
4.489
4.493
4.504
4.501
4.491
4.489
4.487
4.497
4.505
4.501
4.503
4.514
4.508
4.518
4.529
4.517
4.508
4.526
4.522
4.533
4.539
4.536
4.542
4.536
4.524
4.537
4.529
4.528
4.536
4.540
4.544
4.537
4.551
4.546
4.557
4.554
4.561
4.565
4.563
4.562
4.563
4.563
4.565
4.572
4.562
4.583
4.581
4.584
4.586
4.580
4.592
4.587
4.592
4.580
4.587
4.587
4.584
4.587
4.580
4.587
4.585
4.580
4.593
4.593
4.593
4.608
4.601
4.599
4.614
4.608
4.613
4.610
4.614
4.615
4.619
4.621
4.620
4.618
4.616
4.605
4.595
4.585
4.583
4.587
4.581
4.576
4.596
4.594
4.582
4.587
4.594
4.593
4.588
4.596
4.602
4.601
4.597
4.602
4.613
4.616
4.607
4.607
4.621
4.613
4.600
4.603
4.600
4.592
4.590
4.599
4.592
4.590
4.590
4.591
4.599
4.595
4.583
4.585
4.601
4.607
4.602
4.602
4.598
4.606
4.615
4.610
4.607
4.608
4.611
4.616
4.613
4.607
4.604
4.607
4.623
4.622
4.617
4.622
4.611
4.616
4.634
4.633
4.636
4.626
4.629
4.631
4.640
4.643
4.645
4.635
4.633
4.624
4.640
4.634
4.632
4.630
4.631
4.626
4.630
4.637
4.637
4.636
4.633
4.635
4.629
4.646
4.652
4.647
4.649
4.647
4.639
4.638
4.648
4.652
4.653
4.651
4.649
4.650
4.648
4.645
4.661
4.667
4.670
4.672
4.670
4.662
4.668
4.655
4.667
4.682
4.681
4.675
4.669
4.662
4.655
4.666
4.667
4.682
4.680
4.679
4.677
4.669
4.660
4.651
4.658
4.653
4.660
4.658
4.654
4.654
4.645
4.650
4.647
4.654
4.655
4.646
4.651
4.649
4.645
4.642
4.639
4.639
4.653
4.667
4.663
4.662
4.661
4.663
4.659
4.661
4.661
4.655
4.653
4.666
4.670
4.664
4.667
4.664
4.661
4.658
4.661
4.662
4.660
4.657
4.667
4.663
4.663
4.660
4.656
4.662
4.662
4.665
4.662
4.654
4.655
4.665
4.678
4.685
4.687
4.684
4.684
4.676
4.681
4.677
4.680
4.676
4.671
4.663
4.676
4.688
4.695
4.692
4.683
4.678
4.672
4.676
4.671
4.672
4.666
4.676
4.671
4.676
4.688
4.700
4.699
4.699
4.700
4.694
4.694
4.705
4.702
4.698
4.701
4.696
4.691
4.689
4.688
4.700
4.711
4.715
4.708
4.706
4.706
4.704
4.708
4.703
4.703
4.706
4.696
4.691
4.694
4.692
4.699
4.694
4.694
4.692
4.699
4.701
4.698
4.697
4.695
4.689
4.684
4.684
4.684
4.687
4.680
4.686
4.697
4.702
4.699
4.690
4.686
4.697
4.695
4.693
4.696
4.698
4.694
4.694
4.696
4.695
4.691
4.691
4.693
4.693
4.702
4.707
4.713
4.715
4.707
4.705
4.707
4.705
4.704
4.698
4.692
4.696
4.695
4.705
4.710
4.708
4.706
4.704
4.704
4.703
4.712
4.722
4.723
4.719
4.724
4.727
4.721
4.721
4.722
4.723
4.726
4.720
4.722
4.722
4.721
4.724
4.725
4.722
4.716
4.717
4.716
4.716
4.725
4.735
4.744
4.745
4.738
4.742
4.737
4.739
4.738
4.742
4.734
4.732
4.730
4.731
4.730
4.726
4.725
4.723
4.716
4.720
4.715
4.714
4.720
4.729
4.731
4.743
4.743
4.738
4.739
4.732
4.728
4.730
4.731
4.726
4.730
4.723
4.726
4.724
4.719
4.719
4.726
4.725
4.727
4.719
4.720
4.717
4.715
4.722
4.731
4.739
4.748
4.757
4.760
4.754
4.752
4.752
4.752
4.752
4.758
4.755
4.754
4.753
4.756
4.758
4.755
4.751
4.752
4.745
4.744
4.739
4.742
4.748
4.746
4.746
4.748
4.757
4.755
4.754
4.753
4.761
4.770
4.771
4.772
4.776
4.776
4.769
4.766
4.764
4.762
4.767
4.761
4.760
4.762
4.762
4.768
4.767
4.764
4.764
4.761
4.760
4.757
4.753
4.749
4.744
4.740
4.735
4.735
4.743
4.748
4.748
4.749
4.749
4.747
4.754
4.753
4.746
4.750
4.750
4.744
4.745
4.747
4.747
4.741
4.739
4.745
4.743
4.738
4.732
4.726
4.721
4.716
4.715
4.713
4.717
4.717
4.712
4.713
4.717
4.724
4.731
4.739
4.746
4.750
4.749
4.748
4.743
4.743
4.735
4.737
4.736
4.732
4.730
4.735
4.736
4.743
4.742
4.736
4.729
4.726
4.723
4.724
4.725
4.723
4.726
4.724
4.720
4.720
4.716
4.716
4.725
4.725
4.721
4.716
4.718
4.725
4.731
4.734
4.735
4.742
4.749
4.756
4.764
4.765
4.765
4.760
4.759
4.753
4.747
4.740
4.739
4.746
4.744
4.740
4.735
4.726
4.723
4.722
4.721
4.720
4.726
4.725
4.721
4.722
4.722
4.719
4.716
4.721
4.716
4.720
4.715
4.714
4.712
4.710
4.713
4.713
4.708
4.715
4.721
4.728
4.734
4.741
4.747
4.754
4.759
4.755
4.757
4.755
4.757
4.755
4.756
4.764
4.764
4.767
4.763
4.759
4.757
4.759
4.756
4.757
4.757
4.751
4.745
4.738
4.736
4.732
4.731
4.727
4.728
4.733
4.731
4.725
4.726
4.722
4.727
4.725
4.721
4.716
4.723
4.721
4.720
4.720
4.719
4.718
4.717
4.717
4.723
4.730
4.736
4.742
4.748
4.754
4.761
4.761
4.756
4.754
4.755
4.756
4.752
4.752
4.751
4.758
4.755
4.754
4.749
4.747
4.746
4.745
4.740
4.743
4.751
4.754
4.754
4.760
4.760
4.758
4.757
4.749
4.745
4.748
4.746
4.743
4.739
4.739
4.740
4.741
4.746
4.742
4.745
4.740
4.740
4.734
4.737
4.730
4.723
4.717
4.712
4.712
4.711
4.715
4.721
4.727
4.732
4.738
4.744
4.750
4.756
4.761
4.767
4.773
4.779
4.784
4.780
4.776
4.776
4.772
4.773
4.774
4.774
4.764
4.762
4.761
4.768
4.766
4.763
4.758
4.756
4.759
4.757
4.763
4.757
4.762
4.761
4.759
4.756
4.755
4.757
4.754
4.753
4.751
4.747
4.746
4.754
4.752
4.747
4.744
4.742
4.741
4.738
4.734
4.735
4.740
4.740
4.744
4.745
4.747
4.749
4.749
4.747
4.743
4.741
4.738
4.736
4.728
4.727
4.733
4.738
4.743
4.749
4.754
4.760
4.765
4.770
4.776
4.781
4.787
4.792
4.785
4.784
4.784
4.787
4.780
4.778
4.780
4.784
4.783
4.785
4.785
4.788
4.784
4.782
4.785
4.785
4.786
4.785
4.778
4.777
4.775
4.770
4.768
4.769
4.769
4.771
4.773
4.770
4.773
4.770
4.768
4.767
4.768
4.766
4.767
4.773
4.777
4.774
4.776
4.772
4.769
4.767
4.768
4.770
4.766
4.763
4.762
4.764
4.760
4.762
4.762
4.761
4.762
4.768
4.765
4.769
4.763
4.764
4.757
4.759
4.760
4.761
4.765
4.766
4.764
4.767
4.762
4.761
4.765
4.770
4.775
4.780
4.785
4.790
4.795
4.800
4.805
4.810
4.815
4.820
4.821
4.819
4.822
4.816
4.821
4.820
4.818
4.819
4.816
4.811
4.806
4.806
4.804
4.800
4.796
4.793
4.791
4.787
4.788
4.790
4.788
4.793
4.796
4.792
4.795
4.791
4.791
4.796
4.791
4.788
