2.991
3.335
3.508
3.619
3.721
3.769
3.817
3.895
3.903
3.964
4.009
3.982
4.017
4.046
4.082
4.104
4.136
4.159
4.136
4.083
4.099
4.113
4.123
4.146
4.150
4.167
4.177
4.186
4.195
4.207
4.211
4.228
4.241
4.240
4.250
4.262
4.258
4.272
4.279
4.291
4.298
4.295
4.299
4.313
4.318
4.333
4.327
4.324
4.332
4.342
4.344
4.354
4.363
4.370
4.369
4.359
4.367
4.372
4.381
4.382
4.389
4.397
4.403
4.407
4.409
4.419
4.413
4.405
4.406
4.413
4.418
4.419
4.429
4.432
4.430
4.439
4.445
4.452
4.457
4.452
4.453
4.464
4.472
4.471
4.478
4.479
4.457
4.453
4.460
4.462
4.468
4.474
4.475
4.480
4.481
4.478
4.477
4.488
4.487
4.493
4.497
4.503
4.504
4.511
4.515
4.514
4.509
4.516
4.517
4.521
4.526
4.533
4.535
4.538
4.539
4.541
4.542
4.541
4.552
4.542
4.544
4.552
4.547
4.549
4.533
4.518
4.524
4.532
4.536
4.528
4.539
4.539
4.544
4.537
4.542
4.552
4.546
4.554
4.554
4.552
4.540
4.552
4.553
4.546
4.558
4.554
4.562
4.565
4.561
4.571
4.566
4.574
4.573
4.577
4.579
4.567
4.582
4.574
4.588
4.585
4.592
4.591
4.598
4.596
4.582
4.578
4.595
4.587
4.586
4.583
4.593
4.595
4.597
4.596
4.594
4.598
4.596
4.609
4.608
4.607
4.617
4.608
4.622
4.616
4.615
4.612
4.610
4.622
4.620
4.622
4.630
4.625
4.624
4.641
4.639
4.631
4.642
4.641
4.637
4.647
4.645
4.634
4.629
4.635
4.643
4.644
4.638
4.640
4.639
4.635
4.640
4.639
4.642
4.637
4.646
4.644
4.645
4.652
4.657
4.654
4.649
4.665
4.663
4.662
4.659
4.671
4.663
4.663
4.662
4.682
4.676
4.670
4.662
4.654
4.645
4.637
4.635
4.621
4.632
4.639
4.636
4.633
4.633
4.647
4.644
4.642
4.646
4.644
4.643
4.645
4.642
4.640
4.656
4.648
4.647
4.648
4.646
4.660
4.662
4.664
4.660
4.656
4.668
4.667
4.671
4.661
4.652
4.650
4.651
4.655
4.646
4.651
4.651
4.652
4.650
4.638
4.646
4.650
4.651
4.645
4.638
4.639
4.654
4.647
4.649
4.645
4.651
4.644
4.659
4.664
4.659
4.660
4.660
4.661
4.661
4.669
4.666
4.670
4.665
4.665
4.658
4.673
4.665
4.662
4.662
4.665
4.664
4.666
4.676
4.675
4.680
4.672
4.670
4.670
4.670
4.684
4.689
4.690
4.689
4.688
4.682
4.680
4.684
4.698
4.698
4.690
4.679
4.677
4.676
4.678
4.688
4.689
4.685
4.684
4.682
4.680
4.675
4.682
4.688
4.689
4.689
4.688
4.687
4.684
4.682
4.680
4.694
4.707
4.705
4.702
4.697
4.697
4.703
4.696
4.690
4.700
4.704
4.699
4.705
4.704
4.699
4.699
4.700
4.695
4.701
4.713
4.722
4.718
4.714
4.718
4.726
4.720
4.714
4.713
4.710
4.720
4.732
4.729
4.729
4.728
4.717
4.714
4.711
4.715
4.710
4.721
4.733
4.728
4.727
4.720
4.713
4.706
4.699
4.695
4.703
4.709
4.707
4.703
4.703
4.704
4.707
4.703
4.701
4.704
4.695
4.699
4.698
4.700
4.701
4.698
4.701
4.696
4.691
4.697
4.694
4.692
4.695
4.706
4.713
4.704
4.709
4.708
4.711
4.705
4.703
4.705
4.708
4.704
4.705
4.709
4.713
4.719
4.721
4.720
4.716
4.711
4.710
4.707
4.709
4.706
4.704
4.709
4.703
4.712
4.717
4.719
4.714
4.712
4.711
4.708
4.702
4.702
4.705
4.706
4.705
4.702
4.702
4.713
4.723
4.733
4.729
4.726
4.722
4.723
4.726
4.723
4.723
4.723
4.722
4.724
4.720
4.716
4.722
4.726
4.734
4.744
4.736
4.733
4.731
4.733
4.730
4.734
4.730
4.729
4.725
4.721
4.718
4.713
4.716
4.725
4.735
4.744
4.741
4.742
4.746
4.743
4.743
4.744
4.742
4.740
4.737
4.734
4.734
4.738
4.740
4.742
4.743
4.741
4.744
4.753
4.763
4.763
4.754
4.755
4.752
4.755
4.764
4.757
4.756
4.750
4.744
4.741
4.743
4.742
4.744
4.738
4.747
4.751
4.760
4.764
4.761
4.755
4.749
4.743
4.737
4.734
4.733
4.733
4.732
4.731
4.734
4.735
4.737
4.732
4.730
4.736
4.745
4.754
4.750
4.752
4.746
4.749
4.745
4.746
4.740
4.736
4.730
4.732
4.729
4.730
4.729
4.726
4.731
4.731
4.729
4.734
4.736
4.744
4.752
4.761
4.764
4.761
4.761
4.763
4.763
4.761
4.755
4.755
4.749
4.744
4.744
4.742
4.743
4.742
4.746
4.742
4.738
4.732
4.733
4.738
4.746
4.754
4.761
4.769
4.775
4.773
4.777
4.777
4.775
4.778
4.778
4.774
4.768
4.759
4.758
4.758
4.756
4.766
4.759
4.760
4.756
4.757
4.756
4.754
4.755
4.752
4.756
4.763
4.771
4.778
4.786
4.793
4.795
4.789
4.788
4.792
4.790
4.786
4.785
4.785
4.778
4.776
4.773
4.778
4.779
4.776
4.780
4.778
4.770
4.765
4.772
4.768
4.763
4.770
4.770
4.771
4.778
4.786
4.793
4.798
4.796
4.791
4.791
4.784
4.781
4.775
4.769
4.771
4.773
4.770
4.777
4.775
4.768
4.767
4.767
4.762
4.763
4.765
4.761
4.758
4.758
4.759
4.753
4.760
4.767
4.774
4.781
4.788
4.795
4.798
4.800
4.794
4.791
4.791
4.788
4.787
4.790
4.790
4.785
4.782
4.785
4.787
4.783
4.782
4.782
4.785
4.783
4.787
4.786
4.785
4.787
4.783
4.784
4.780
4.778
4.776
4.777
4.776
4.779
4.786
4.793
4.799
4.806
4.813
4.817
4.815
4.819
4.815
4.813
4.810
4.814
4.813
4.810
4.816
4.814
4.815
4.820
4.823
4.822
4.819
4.816
4.811
4.803
4.802
4.798
4.795
4.793
4.792
4.788
4.788
4.789
4.797
4.802
4.801
4.796
4.796
4.795
4.801
4.808
4.814
4.819
4.816
4.812
4.809
4.805
4.801
4.798
4.794
4.790
4.790
4.790
4.791
4.788
4.785
4.779
4.777
4.778
4.776
4.771
4.766
4.770
4.769
4.773
4.768
4.768
4.768
4.772
4.775
4.770
4.768
4.763
4.768
4.774
4.780
4.786
4.792
4.798
4.796
4.792
4.788
4.783
4.785
4.784
4.784
4.779
4.781
4.781
4.783
4.781
4.775
4.776
4.778
4.777
4.779
4.778
4.782
4.777
4.774
4.772
4.774
4.776
4.770
4.776
4.781
4.778
4.775
4.767
4.768
4.767
4.766
4.765
4.766
4.765
4.766
4.764
4.770
4.776
4.781
4.787
4.793
4.794
4.795
4.796
4.790
4.789
4.787
4.786
4.781
4.783
4.784
4.787
4.792
4.792
4.798
4.798
4.797
4.795
4.794
4.793
4.789
4.787
4.786
4.788
4.787
4.789
4.788
4.789
4.787
4.786
4.780
4.774
4.772
4.775
4.778
4.775
4.771
4.770
4.774
4.774
4.775
4.778
4.782
4.780
4.775
4.772
4.777
4.782
4.788
4.793
4.797
4.797
4.796
4.790
4.794
4.793
4.793
4.791
4.784
4.784
4.789
4.790
4.787
4.783
4.781
4.780
4.778
4.776
4.777
4.776
4.779
4.772
4.771
4.771
4.779
4.784
4.778
4.777
4.775
4.773
4.774
4.774
4.770
4.773
4.772
4.775
4.770
4.771
4.771
4.770
4.770
4.772
4.772
4.770
4.769
4.768
4.771
4.774
4.772
4.774
4.772
4.778
4.783
4.788
4.793
4.798
4.803
4.808
4.813
4.811
4.805
4.802
4.801
4.802
4.803
4.798
4.804
4.806
4.804
4.803
4.802
4.802
4.797
4.792
4.787
4.782
4.780
4.775
4.776
4.773
4.775
4.774
4.771
4.774
4.771
4.774
4.773
4.771
4.771
4.772
4.771
4.767
4.774
4.776
4.775
4.771
4.775
4.781
4.784
4.785
4.784
4.782
4.782
4.783
4.785
4.783
4.779
4.775
4.773
4.768
4.767
4.768
4.772
4.776
4.781
4.786
4.791
4.795
4.800
4.805
4.810
