2.994
3.332
3.515
3.636
3.721
3.795
3.833
3.880
3.942
3.962
4.013
4.004
4.044
4.080
4.099
4.075
4.101
4.125
4.147
4.165
4.186
4.207
4.224
4.239
4.258
4.226
4.191
4.190
4.199
4.214
4.219
4.232
4.240
4.248
4.254
4.266
4.265
4.277
4.287
4.288
4.296
4.308
4.314
4.313
4.325
4.333
4.339
4.335
4.345
4.351
4.361
4.366
4.358
4.366
4.370
4.381
4.384
4.395
4.388
4.388
4.399
4.401
4.407
4.412
4.418
4.426
4.427
4.415
4.425
4.431
4.432
4.436
4.441
4.445
4.447
4.453
4.460
4.464
4.457
4.453
4.460
4.464
4.465
4.469
4.476
4.480
4.477
4.486
4.484
4.491
4.498
4.502
4.498
4.502
4.507
4.507
4.495
4.497
4.499
4.500
4.504
4.507
4.512
4.518
4.517
4.522
4.520
4.525
4.521
4.530
4.531
4.541
4.540
4.546
4.547
4.543
4.545
4.551
4.550
4.555
4.562
4.565
4.564
4.563
4.550
4.547
4.540
4.547
4.553
4.549
4.553
4.557
4.558
4.558
4.566
4.565
4.569
4.571
4.575
4.573
4.575
4.577
4.573
4.581
4.580
4.582
4.583
4.588
4.594
4.593
4.594
4.596
4.600
4.601
4.597
4.596
4.600
4.607
4.607
4.603
4.602
4.610
4.616
4.612
4.621
4.628
4.622
4.623
4.622
4.629
4.629
4.639
4.635
4.634
4.629
4.636
4.632
4.636
4.633
4.623
4.613
4.603
4.608
4.610
4.611
4.614
4.614
4.621
4.614
4.618
4.622
4.626
4.629
4.623
4.629
4.626
4.633
4.626
4.636
4.632
4.641
4.640
4.640
4.628
4.633
4.634
4.636
4.629
4.640
4.628
4.638
4.637
4.643
4.644
4.643
4.645
4.643
4.648
4.646
4.656
4.652
4.651
4.660
4.655
4.665
4.666
4.658
4.661
4.657
4.661
4.657
4.661
4.673
4.667
4.671
4.677
4.674
4.677
4.677
4.678
4.668
4.661
4.671
4.670
4.665
4.675
4.679
4.673
4.673
4.673
4.666
4.680
4.676
4.677
4.681
4.684
4.677
4.683
4.679
4.683
4.681
4.695
4.688
4.689
4.695
4.699
4.696
4.699
4.701
4.702
4.696
4.702
4.704
4.694
4.695
4.699
4.701
4.700
4.703
4.713
4.709
4.708
4.709
4.716
4.712
4.713
4.714
4.724
4.717
4.716
4.717
4.727
4.726
4.722
4.718
4.713
4.707
4.710
4.717
4.716
4.715
4.714
4.720
4.730
4.726
4.716
4.714
4.722
4.723
4.716
4.712
4.721
4.721
4.722
4.718
4.722
4.729
4.732
4.728
4.729
4.723
4.735
4.744
4.740
4.740
4.735
4.739
4.747
4.744
4.743
4.739
4.741
4.753
4.747
4.748
4.747
4.744
4.738
4.732
4.727
4.723
4.718
4.717
4.716
4.715
4.716
4.723
4.719
4.717
4.710
4.709
4.714
4.715
4.718
4.714
4.711
4.717
4.725
4.725
4.722
4.723
4.719
4.715
4.727
4.734
4.725
4.721
4.716
4.717
4.725
4.729
4.732
4.736
4.729
4.725
4.724
4.734
4.735
4.734
4.735
4.736
4.733
4.731
4.740
4.750
4.749
4.748
4.747
4.748
4.738
4.736
4.729
4.728
4.724
4.721
4.721
4.731
4.735
4.734
4.733
4.734
4.730
4.723
4.729
4.732
4.729
4.720
4.719
4.715
4.718
4.723
4.733
4.734
4.735
4.736
4.730
4.728
4.721
4.725
4.735
4.736
4.732
4.729
4.727
4.732
4.729
4.731
4.735
4.745
4.740
4.742
4.743
4.742
4.738
4.739
4.743
4.742
4.751
4.747
4.746
4.748
4.747
4.748
4.746
4.742
4.743
4.753
4.754
4.747
4.743
4.742
4.743
4.747
4.743
4.742
4.752
4.761
4.754
4.758
4.754
4.751
4.751
4.747
4.751
4.748
4.757
4.762
4.763
4.764
4.762
4.766
4.760
4.766
4.763
4.764
4.760
4.767
4.776
4.773
4.773
4.769
4.762
4.761
4.760
4.756
4.754
4.761
4.766
4.767
4.768
4.764
4.763
4.762
4.762
4.761
4.758
4.758
4.763
4.769
4.766
4.766
4.760
4.761
4.760
4.759
4.757
4.762
4.757
4.761
4.768
4.778
4.779
4.777
4.776
4.775
4.771
4.769
4.773
4.772
4.771
4.773
4.771
4.780
4.788
4.788
4.782
4.781
4.776
4.772
4.771
4.767
4.769
4.772
4.771
4.775
4.784
4.791
4.790
4.788
4.790
4.789
4.787
4.788
4.787
4.786
4.785
4.786
4.782
4.783
4.792
4.799
4.807
4.811
4.807
4.803
4.801
4.795
4.790
4.792
4.796
4.792
4.790
4.791
4.793
4.800
4.804
4.803
4.801
4.805
4.803
4.800
4.799
4.795
4.790
4.786
4.782
4.781
4.787
4.783
4.784
4.781
4.777
4.781
4.777
4.780
4.779
4.783
4.779
4.777
4.773
4.770
4.779
4.786
4.788
4.789
4.795
4.791
4.785
4.780
4.774
4.769
4.769
4.766
4.765
4.762
4.763
4.770
4.777
4.781
4.784
4.788
4.782
4.784
4.784
4.786
4.782
4.780
4.777
4.777
4.777
4.772
4.771
4.773
4.774
4.778
4.785
4.791
4.795
4.794
4.795
4.794
4.793
4.786
4.787
4.786
4.788
4.794
4.796
4.794
4.793
4.792
4.785
4.780
4.787
4.792
4.799
4.803
4.798
4.797
4.788
4.789
4.792
4.789
4.790
4.788
4.787
4.789
4.787
4.788
4.784
4.778
4.779
4.786
4.793
4.800
4.795
4.791
4.792
4.788
4.787
4.788
4.790
4.789
4.787
4.786
4.788
4.784
4.787
4.788
4.782
4.781
4.782
4.786
4.793
4.800
4.806
4.813
4.810
4.807
4.807
4.807
4.801
4.802
4.803
4.800
4.799
4.803
4.803
4.805
4.801
4.802
4.804
4.802
4.804
4.800
4.799
4.803
4.810
4.816
4.817
4.811
4.810
4.816
4.810
4.813
4.815
4.813
4.812
4.807
4.801
4.800
4.798
4.799
4.795
4.799
4.804
4.802
4.798
4.799
4.804
4.810
4.815
4.821
4.821
4.822
4.820
4.818
4.815
4.816
4.817
4.818
4.820
4.824
4.823
4.819
4.814
4.813
4.815
4.813
4.817
4.813
4.815
4.814
4.812
4.810
4.814
4.821
4.826
4.833
4.837
4.843
4.839
4.840
4.836
4.832
4.832
4.832
4.831
4.832
4.828
4.827
4.831
4.829
4.826
4.824
4.825
4.822
4.821
4.822
4.820
4.818
4.821
4.819
4.825
4.830
4.832
4.829
4.825
4.821
4.817
4.814
4.814
4.813
4.810
4.810
4.809
4.807
4.806
4.805
4.809
4.808
4.806
4.808
4.807
4.808
4.809
4.810
4.810
4.808
4.814
4.819
4.823
4.829
4.836
4.835
4.829
4.830
4.825
4.821
4.818
4.816
4.814
4.808
4.812
4.814
4.815
4.816
4.815
4.814
4.809
4.807
4.806
4.803
4.804
4.803
4.803
4.800
4.801
4.807
4.812
4.818
4.823
4.829
4.829
4.832
4.837
4.840
4.842
4.836
4.836
4.832
4.831
4.835
4.832
4.835
4.834
4.833
4.832
4.829
4.825
4.824
4.821
4.819
4.823
4.819
4.820
4.822
4.820
4.818
4.815
4.810
4.812
4.816
4.821
4.827
4.831
4.836
4.840
4.841
4.840
4.840
4.840
4.841
4.840
4.838
4.837
4.843
4.840
4.844
4.842
4.843
4.844
4.841
4.837
4.841
4.844
4.841
4.842
4.841
4.836
4.838
4.834
4.830
4.826
4.827
4.828
4.827
4.825
4.827
4.828
4.832
4.837
4.843
4.847
4.851
4.856
4.858
4.861
4.858
4.856
4.854
4.851
4.852
4.853
4.851
4.853
4.854
4.856
4.855
4.851
4.852
4.858
4.858
4.861
4.862
4.861
4.855
4.853
4.851
4.850
4.849
4.851
4.847
4.844
4.843
4.842
4.843
4.844
4.846
4.845
4.841
4.847
4.851
4.855
4.860
4.866
4.866
4.864
4.869
4.866
4.866
4.866
4.868
4.866
4.866
4.861
4.860
4.861
4.862
4.862
4.858
4.855
4.852
4.848
4.844
4.842
4.836
4.834
4.836
4.837
4.833
4.836
4.840
4.837
4.836
4.837
4.836
4.839
4.838
4.834
4.835
4.839
4.844
4.848
4.852
4.858
4.862
4.867
4.868
4.864
