2.994
3.332
3.514
3.629
3.719
3.776
3.843
3.886
3.912
3.968
3.969
4.011
4.051
4.083
4.051
4.082
4.101
4.126
4.152
4.168
4.193
4.214
4.227
4.245
4.216
4.179
4.182
4.189
4.204
4.212
4.220
4.231
4.238
4.247
4.257
4.261
4.270
4.279
4.279
4.291
4.303
4.304
4.312
4.320
4.325
4.321
4.333
4.340
4.345
4.353
4.350
4.359
4.363
4.371
4.375
4.386
4.374
4.383
4.385
4.395
4.401
4.405
4.413
4.417
4.407
4.414
4.420
4.420
4.427
4.433
4.432
4.441
4.449
4.449
4.453
4.438
4.445
4.449
4.449
4.455
4.462
4.464
4.470
4.469
4.471
4.479
4.486
4.491
4.487
4.493
4.500
4.494
4.487
4.488
4.487
4.491
4.494
4.497
4.505
4.507
4.508
4.510
4.512
4.513
4.516
4.526
4.531
4.529
4.531
4.537
4.533
4.538
4.538
4.543
4.547
4.551
4.560
4.556
4.547
4.540
4.534
4.534
4.541
4.537
4.542
4.545
4.545
4.549
4.557
4.559
4.560
4.565
4.561
4.559
4.561
4.565
4.563
4.568
4.568
4.575
4.580
4.584
4.585
4.586
4.585
4.586
4.593
4.587
4.585
4.590
4.597
4.597
4.594
4.592
4.602
4.606
4.605
4.608
4.612
4.617
4.612
4.612
4.621
4.623
4.620
4.625
4.621
4.622
4.624
4.630
4.626
4.614
4.604
4.594
4.596
4.598
4.599
4.605
4.604
4.611
4.607
4.611
4.615
4.619
4.616
4.611
4.621
4.620
4.621
4.620
4.626
4.625
4.631
4.628
4.618
4.630
4.626
4.625
4.623
4.622
4.624
4.633
4.629
4.633
4.634
4.633
4.634
4.633
4.640
4.639
4.646
4.645
4.645
4.649
4.649
4.655
4.649
4.653
4.651
4.649
4.653
4.657
4.659
4.661
4.662
4.671
4.667
4.663
4.670
4.658
4.660
4.658
4.659
4.663
4.665
4.664
4.660
4.657
4.665
4.664
4.665
4.672
4.675
4.666
4.675
4.674
4.664
4.675
4.676
4.675
4.676
4.686
4.687
4.682
4.692
4.693
4.686
4.690
4.692
4.693
4.687
4.690
4.689
4.685
4.697
4.696
4.697
4.696
4.706
4.704
4.701
4.699
4.708
4.710
4.711
4.705
4.714
4.712
4.711
4.712
4.717
4.708
4.700
4.710
4.706
4.702
4.700
4.713
4.717
4.715
4.712
4.712
4.714
4.708
4.708
4.710
4.711
4.712
4.705
4.707
4.722
4.720
4.716
4.715
4.717
4.724
4.727
4.724
4.728
4.726
4.734
4.731
4.733
4.727
4.730
4.742
4.741
4.738
4.733
4.732
4.742
4.737
4.730
4.724
4.720
4.713
4.708
4.702
4.712
4.707
4.706
4.705
4.703
4.702
4.701
4.699
4.700
4.697
4.708
4.716
4.711
4.712
4.712
4.705
4.712
4.720
4.720
4.718
4.714
4.708
4.714
4.715
4.716
4.720
4.716
4.718
4.716
4.727
4.723
4.723
4.720
4.723
4.722
4.724
4.731
4.737
4.736
4.734
4.733
4.737
4.733
4.734
4.727
4.721
4.714
4.712
4.723
4.723
4.723
4.720
4.723
4.724
4.719
4.724
4.725
4.720
4.720
4.712
4.705
4.712
4.723
4.721
4.720
4.721
4.722
4.721
4.714
4.718
4.723
4.721
4.722
4.718
4.719
4.713
4.716
4.723
4.733
4.729
4.731
4.727
4.727
4.726
4.727
4.729
4.734
4.745
4.744
4.735
4.738
4.734
4.731
4.734
4.731
4.740
4.742
4.742
4.742
4.735
4.731
4.732
4.728
4.734
4.744
4.748
4.749
4.748
4.744
4.740
4.738
4.738
4.739
4.745
4.752
4.753
4.752
4.748
4.752
4.749
4.750
4.748
4.749
4.749
4.760
4.767
4.769
4.759
4.757
4.757
4.758
4.751
4.745
4.751
4.755
4.753
4.757
4.756
4.757
4.751
4.752
4.746
4.749
4.748
4.757
4.762
4.753
4.751
4.749
4.753
4.750
4.745
4.745
4.742
4.750
4.759
4.766
4.770
4.769
4.764
4.763
4.764
4.758
4.759
4.761
4.756
4.757
4.767
4.774
4.773
4.774
4.776
4.779
4.771
4.764
4.757
4.758
4.759
4.760
4.768
4.775
4.781
4.780
4.775
4.779
4.775
4.779
4.779
4.774
4.773
4.772
4.771
4.772
4.783
4.790
4.795
4.794
4.797
4.794
4.795
4.790
4.783
4.783
4.787
4.786
4.781
4.780
4.789
4.796
4.792
4.793
4.794
4.793
4.789
4.788
4.786
4.785
4.789
4.785
4.781
4.779
4.781
4.779
4.770
4.766
4.768
4.768
4.768
4.764
4.767
4.768
4.768
4.764
4.768
4.777
4.778
4.777
4.783
4.780
4.778
4.779
4.778
4.772
4.767
4.763
4.757
4.752
4.759
4.766
4.771
4.769
4.771
4.768
4.770
4.769
4.775
4.774
4.771
4.769
4.768
4.763
4.760
4.760
4.759
4.768
4.775
4.782
4.779
4.780
4.781
4.780
4.783
4.777
4.776
4.774
4.776
4.780
4.781
4.779
4.781
4.777
4.776
4.775
4.781
4.790
4.789
4.786
4.790
4.791
4.786
4.783
4.776
4.777
4.776
4.774
4.776
4.774
4.778
4.779
4.776
4.775
4.781
4.788
4.794
4.790
4.787
4.782
4.776
4.775
4.781
4.785
4.781
4.775
4.775
4.771
4.771
4.772
4.768
4.771
4.773
4.780
4.787
4.794
4.801
4.801
4.800
4.796
4.794
4.793
4.792
4.794
4.789
4.785
4.789
4.793
4.794
4.788
4.790
4.790
4.792
4.794
4.787
4.793
4.800
4.805
4.809
4.802
4.806
4.805
4.803
4.801
4.800
4.797
4.800
4.802
4.800
4.799
4.792
4.786
4.784
4.793
4.787
4.785
4.787
4.794
4.800
4.807
4.808
4.808
4.809
4.805
4.808
4.807
4.806
4.802
4.805
4.810
4.811
4.808
4.809
4.804
4.803
4.801
4.805
4.805
4.806
4.802
4.800
4.801
4.806
4.812
4.819
4.826
4.831
4.834
4.830
4.831
4.830
4.827
4.823
4.820
4.819
4.813
4.816
4.820
4.816
4.818
4.823
4.821
4.816
4.810
4.809
4.808
4.809
4.810
4.814
4.821
4.823
4.821
4.817
4.818
4.823
4.818
4.814
4.810
4.806
4.801
4.797
4.796
4.798
4.794
4.794
4.793
4.792
4.796
4.794
4.799
4.798
4.799
4.798
4.804
4.809
4.815
4.820
4.826
4.827
4.824
4.827
4.823
4.816
4.818
4.814
4.808
4.803
4.805
4.801
4.801
4.801
4.804
4.811
4.807
4.798
4.794
4.790
4.791
4.790
4.788
4.795
4.801
4.806
4.812
4.817
4.818
4.817
4.823
4.828
4.831
4.825
4.823
4.825
4.818
4.820
4.821
4.823
4.821
4.820
4.821
4.817
4.820
4.820
4.818
4.814
4.815
4.812
4.815
4.809
4.804
4.806
4.805
4.801
4.807
4.814
4.818
4.823
4.827
4.830
4.831
4.827
4.824
4.830
4.829
4.827
4.824
4.830
4.829
4.830
4.829
4.830
4.831
4.827
4.826
4.831
4.829
4.828
4.829
4.830
4.827
4.833
4.831
4.825
4.821
4.819
4.818
4.820
4.820
4.817
4.823
4.828
4.834
4.838
4.843
4.849
4.846
4.849
4.845
4.844
4.843
4.842
4.842
4.839
4.835
4.839
4.843
4.847
4.843
4.839
4.842
4.844
4.851
4.850
4.851
4.847
4.848
4.847
4.843
4.841
4.840
4.838
4.835
4.833
4.834
4.833
4.832
4.833
4.834
4.838
4.842
4.847
4.853
4.853
4.857
4.853
4.857
4.860
4.860
4.860
4.856
4.850
4.851
4.849
4.849
4.845
4.846
4.853
4.857
4.852
4.851
4.847
4.845
4.841
4.837
4.833
4.829
4.827
4.824
4.827
4.823
4.823
4.826
4.825
4.824
4.825
4.827
4.831
4.837
4.839
4.845
4.850
4.856
4.853
4.851
4.852
4.857
4.857
4.853
4.849
4.848
4.847
4.848
4.844
4.848
4.850
4.849
4.850
4.849
4.847
4.849
4.852
4.845
4.839
4.840
4.839
4.837
4.838
4.835
4.839
4.838
4.836
4.838
4.839
4.837
4.839
4.837
4.838
4.837
4.838
4.843
4.844
4.842
4.845
4.851
4.857
4.859
4.864
4.868
4.872
4.870
4.866
4.867
4.871
4.875
4.875
