2.948
3.305
3.409
3.541
3.504
3.594
3.655
3.701
3.739
3.825
3.817
3.854
3.885
3.901
3.902
3.956
3.993
3.995
3.971
3.994
3.994
4.027
4.024
4.038
4.082
4.083
4.063
4.087
4.129
4.132
4.137
4.173
4.117
4.123
4.106
4.115
4.103
4.086
4.145
4.160
4.139
4.127
4.159
4.136
4.178
4.162
4.204
4.177
4.234
4.205
4.162
4.176
4.179
4.156
4.192
4.169
4.197
4.203
4.183
4.219
4.231
4.214
4.222
4.263
4.243
4.213
4.248
4.226
4.193
4.230
4.244
4.230
4.250
4.230
4.287
4.271
4.264
4.254
4.258
4.269
4.279
4.263
4.273
4.268
4.305
4.322
4.292
4.299
4.296
4.281
4.313
4.354
4.367
4.336
4.309
4.280
4.285
4.293
4.287
4.297
4.284
4.255
4.245
4.259
4.300
4.321
4.298
4.270
4.287
4.266
4.251
4.255
4.265
4.302
4.320
4.327
4.283
4.300
4.273
4.274
4.256
4.246
4.259
4.283
4.317
4.322
4.304
4.303
4.330
4.304
4.299
4.313
4.273
4.267
4.274
4.290
4.296
4.327
4.358
4.389
4.360
4.362
4.367
4.373
4.357
4.369
4.347
4.326
4.328
4.317
4.303
4.290
4.310
4.338
4.344
4.373
4.348
4.335
4.336
4.335
4.320
4.306
4.292
4.290
4.298
4.321
4.322
4.316
4.283
4.289
4.289
4.300
4.325
4.350
4.375
4.400
4.412
4.415
4.425
4.405
4.422
4.413
4.407
4.384
4.379
4.366
4.343
4.334
4.316
4.298
4.289
4.261
4.281
4.302
4.270
4.285
4.303
4.325
4.346
4.368
4.390
4.412
4.414
4.409
4.403
4.415
4.386
4.372
4.361
4.347
4.320
4.334
4.346
4.345
4.357
4.361
4.342
4.341
4.331
4.322
4.301
4.284
4.271
4.292
4.296
4.295
4.305
4.282
4.281
4.299
4.318
4.336
4.355
4.374
4.392
4.406
4.411
4.438
4.442
4.417
4.403
4.395
4.389
4.370
4.360
4.372
4.371
4.370
4.364
4.358
4.354
4.355
4.341
4.320
4.320
4.308
4.311
4.324
4.318
4.338
4.345
4.356
4.347
4.335
4.341
4.345
4.320
4.335
4.316
4.301
4.303
4.297
4.310
4.322
4.315
4.310
4.310
4.324
4.339
4.355
4.370
4.386
4.401
4.417
4.432
4.448
4.455
4.453
4.438
4.411
4.407
4.421
4.416
4.380
4.382
4.402
4.410
4.413
4.400
4.386
4.372
4.365
4.361
4.377
4.373
4.361
4.354
4.347
4.362
4.335
4.334
4.338
4.320
4.318
4.316
4.304
4.316
4.308
4.316
4.294
4.290
4.275
4.277
4.276
4.307
4.283
4.279
4.280
4.293
4.268
4.267
4.268
4.280
4.298
4.312
4.329
4.352
4.324
4.322
4.326
4.307
4.304
4.299
4.309
4.302
4.298
4.311
4.323
4.336
4.348
4.360
4.373
4.385
4.398
4.410
4.422
4.435
4.447
4.460
4.456
4.452
4.431
4.445
4.429
4.422
4.420
4.409
4.407
4.400
4.380
4.381
4.377
4.376
4.386
4.385
4.362
4.361
4.344
4.345
4.364
4.381
4.372
4.386
4.365
4.365
4.364
4.357
4.359
4.366
4.376
4.358
4.335
4.344
4.360
4.376
4.392
4.379
4.374
4.392
4.409
4.403
4.384
4.374
4.377
4.374
4.391
4.385
4.391
4.383
4.377
4.382
4.383
4.374
4.362
4.359
4.335
4.326
4.338
4.336
4.330
4.338
4.334
4.336
4.320
4.317
4.325
4.332
4.327
4.328
4.321
4.317
4.316
4.333
4.337
4.333
4.330
4.329
4.318
4.308
4.297
4.289
4.289
4.303
4.297
4.306
4.306
4.326
4.326
4.316
4.302
4.292
4.294
4.313
4.303
4.290
4.270
4.272
4.271
4.270
4.279
4.288
4.298
4.307
4.316
4.326
4.335
4.344
4.353
4.363
4.372
4.381
4.391
4.400
4.409
4.418
4.428
4.437
4.447
4.446
4.448
4.461
4.475
4.481
4.497
4.497
4.506
4.493
4.494
4.486
4.481
4.474
4.462
4.452
4.438
4.434
4.432
4.419
4.419
4.413
4.405
4.413
4.401
4.403
4.401
4.401
4.407
4.401
4.403
4.409
4.395
4.410
4.411
4.407
4.399
4.404
4.402
4.402
4.395
4.399
4.387
4.394
4.400
4.415
4.404
4.420
4.418
4.418
4.427
4.424
4.425
4.432
4.440
4.428
4.437
4.424
4.411
4.418
4.394
4.392
4.380
4.379
4.374
4.374
4.369
4.365
4.368
4.375
4.363
4.353
4.344
4.345
4.335
4.330
4.339
4.340
4.340
4.340
4.340
4.332
4.326
4.323
4.337
4.321
4.317
4.323
4.320
4.315
4.304
4.305
4.311
4.317
4.320
4.313
4.317
4.317
4.325
4.308
4.315
4.317
4.315
4.309
4.310
4.309
4.307
4.314
4.304
4.300
4.310
4.321
4.332
4.340
4.333
4.341
4.343
4.338
4.337
4.322
4.324
4.328
4.332
4.343
4.358
4.362
4.361
4.343
4.341
4.348
4.348
4.351
4.361
4.373
4.383
4.384
4.384
4.368
4.358
4.354
4.346
4.343
4.344
4.344
4.341
4.342
4.335
4.337
4.344
4.332
4.329
4.335
4.322
4.338
4.331
4.318
4.318
4.304
4.299
4.295
4.297
4.304
4.296
4.297
4.293
4.305
4.286
4.278
4.274
4.272
4.273
4.282
4.270
4.276
4.283
4.281
4.285
4.295
4.291
4.303
4.305
4.298
4.304
4.287
4.286
4.284
4.288
4.292
4.281
4.284
4.279
4.283
4.296
4.289
4.282
4.291
4.286
4.294
4.295
4.294
4.275
4.279
4.278
4.278
4.271
4.280
4.261
4.267
4.269
4.265
4.270
4.266
4.273
4.279
4.285
4.291
4.297
4.304
4.310
4.316
4.322
4.328
4.335
4.341
4.347
4.353
4.359
4.366
4.372
4.378
4.384
4.390
4.396
4.403
4.409
4.415
4.421
4.427
4.433
4.440
4.446
4.452
4.458
4.464
4.471
4.469
4.461
4.454
4.454
4.465
4.460
4.469
4.465
4.473
4.475
4.471
4.472
4.455
4.447
4.449
4.435
4.446
4.458
4.450
4.453
4.441
4.447
4.432
4.425
4.423
4.424
4.416
4.436
4.435
4.427
4.423
4.419
4.413
4.422
4.425
4.424
4.436
4.438
4.434
4.434
4.427
4.419
4.418
4.415
4.402
4.406
4.416
4.425
4.427
4.427
4.432
4.434
4.439
4.449
4.443
4.436
4.440
4.437
4.421
4.421
4.408
4.411
4.405
4.402
4.413
4.410
4.416
4.415
4.425
4.423
4.425
4.423
4.416
4.417
4.408
4.418
4.423
4.431
4.439
4.447
4.454
4.445
4.449
4.445
4.442
4.458
4.463
4.461
4.452
4.444
4.432
4.432
4.427
4.414
4.413
4.411
4.397
4.398
4.389
4.388
4.388
4.379
4.388
4.387
4.384
4.394
4.400
4.389
4.392
4.385
4.392
4.398
4.398
4.396
4.394
4.388
4.382
4.394
4.388
4.379
4.364
4.368
4.376
4.373
4.384
4.387
4.378
4.390
4.385
4.376
4.372
4.378
4.380
4.382
4.385
4.385
4.386
4.387
4.387
4.378
4.384
4.387
4.388
4.395
4.397
4.398
4.385
4.381
4.374
4.376
4.381
4.378
4.377
4.379
4.372
4.358
4.351
4.362
4.374
4.386
4.379
4.375
4.381
4.376
4.369
4.368
4.369
4.358
4.347
4.346
4.345
4.338
4.349
4.344
4.348
4.347
4.359
4.362
4.356
4.358
4.356
4.352
4.345
4.338
4.331
4.327
4.328
4.324
4.320
4.329
4.339
4.347
4.349
4.346
4.347
4.350
4.339
4.335
4.340
4.331
4.322
4.313
4.311
4.318
4.319
4.308
4.303
4.305
4.298
4.308
4.315
4.313
4.308
4.314
4.299
4.302
4.312
4.300
4.304
4.317
4.309
4.309
4.301
4.307
4.301
4.311
4.304
4.318
4.304
4.310
4.316
4.309
4.311
4.300
4.304
4.310
4.323
4.324
4.326
4.326
4.330
4.333
4.323
4.313
4.317
4.315
4.316
4.318
4.306
4.307
4.309
4.313
4.313
4.310
4.302
4.304
4.312
4.325
4.314
4.311
4.304
4.308
4.312
4.307
4.313
4.299
4.297
4.301
4.296
4.296
4.285
4.285
4.281
4.284
4.287
4.279
4.284
4.283
