2.994
3.331
3.511
3.633
3.712
3.779
3.844
3.888
3.915
3.971
3.970
4.012
4.051
4.084
4.055
4.080
4.106
4.129
4.150
4.173
4.189
4.210
4.229
4.240
4.200
4.165
4.184
4.192
4.199
4.214
4.218
4.231
4.236
4.247
4.251
4.264
4.274
4.277
4.285
4.297
4.295
4.303
4.310
4.322
4.320
4.325
4.336
4.343
4.351
4.341
4.353
4.360
4.367
4.371
4.381
4.370
4.378
4.381
4.389
4.398
4.399
4.409
4.410
4.398
4.407
4.412
4.416
4.423
4.429
4.436
4.438
4.442
4.446
4.450
4.435
4.447
4.449
4.451
4.454
4.461
4.463
4.466
4.470
4.475
4.481
4.481
4.482
4.486
4.490
4.496
4.481
4.484
4.490
4.488
4.490
4.497
4.498
4.503
4.503
4.511
4.504
4.513
4.510
4.518
4.523
4.527
4.529
4.532
4.531
4.530
4.534
4.536
4.545
4.549
4.553
4.555
4.544
4.532
4.529
4.532
4.533
4.533
4.540
4.544
4.547
4.549
4.551
4.547
4.553
4.558
4.556
4.557
4.564
4.557
4.564
4.566
4.570
4.574
4.578
4.579
4.578
4.579
4.580
4.585
4.591
4.582
4.584
4.590
4.592
4.590
4.586
4.596
4.599
4.603
4.605
4.604
4.613
4.610
4.608
4.614
4.624
4.617
4.619
4.620
4.622
4.618
4.622
4.623
4.611
4.601
4.594
4.592
4.599
4.595
4.600
4.606
4.603
4.606
4.605
4.612
4.611
4.609
4.613
4.614
4.616
4.614
4.619
4.618
4.625
4.621
4.621
4.623
4.621
4.623
4.618
4.626
4.614
4.625
4.624
4.629
4.627
4.629
4.635
4.629
4.635
4.633
4.641
4.637
4.644
4.645
4.641
4.653
4.643
4.647
4.646
4.650
4.647
4.648
4.658
4.655
4.657
4.666
4.662
4.667
4.666
4.656
4.652
4.653
4.658
4.658
4.658
4.666
4.655
4.658
4.658
4.659
4.663
4.669
4.665
4.667
4.668
4.666
4.670
4.673
4.671
4.672
4.681
4.681
4.679
4.688
4.687
4.683
4.687
4.688
4.685
4.688
4.685
4.684
4.679
4.694
4.695
4.691
4.692
4.700
4.695
4.697
4.699
4.703
4.703
4.705
4.707
4.707
4.707
4.703
4.714
4.710
4.706
4.700
4.703
4.700
4.695
4.703
4.712
4.711
4.709
4.707
4.707
4.707
4.704
4.705
4.706
4.707
4.703
4.702
4.717
4.716
4.710
4.711
4.712
4.719
4.720
4.718
4.723
4.722
4.729
4.727
4.728
4.722
4.728
4.735
4.733
4.736
4.731
4.732
4.742
4.736
4.729
4.724
4.720
4.713
4.707
4.703
4.706
4.703
4.701
4.699
4.703
4.699
4.695
4.692
4.692
4.699
4.710
4.708
4.706
4.705
4.704
4.705
4.712
4.716
4.715
4.711
4.710
4.708
4.710
4.711
4.714
4.707
4.710
4.711
4.723
4.722
4.717
4.718
4.715
4.714
4.723
4.729
4.731
4.730
4.725
4.730
4.731
4.733
4.736
4.727
4.720
4.714
4.714
4.719
4.718
4.714
4.714
4.714
4.717
4.716
4.723
4.724
4.715
4.716
4.709
4.703
4.715
4.718
4.710
4.716
4.715
4.716
4.714
4.713
4.723
4.716
4.715
4.716
4.714
4.711
4.709
4.719
4.729
4.725
4.725
4.725
4.720
4.718
4.723
4.721
4.731
4.741
4.742
4.735
4.729
4.729
4.725
4.729
4.729
4.740
4.736
4.738
4.737
4.730
4.726
4.727
4.726
4.733
4.744
4.741
4.747
4.746
4.739
4.735
4.733
4.736
4.736
4.746
4.747
4.749
4.744
4.746
4.744
4.747
4.744
4.741
4.744
4.755
4.764
4.766
4.762
4.755
4.750
4.754
4.755
4.749
4.748
4.749
4.748
4.752
4.750
4.751
4.750
4.746
4.744
4.744
4.747
4.755
4.762
4.754
4.745
4.744
4.748
4.747
4.740
4.740
4.740
4.751
4.759
4.765
4.761
4.763
4.759
4.758
4.756
4.755
4.753
4.751
4.755
4.760
4.767
4.771
4.767
4.768
4.770
4.776
4.767
4.760
4.753
4.754
4.753
4.763
4.772
4.774
4.773
4.776
4.773
4.771
4.773
4.776
4.770
4.770
4.767
4.765
4.770
4.779
4.788
4.792
4.791
4.792
4.791
4.795
4.786
4.779
4.783
4.782
4.780
4.777
4.781
4.788
4.796
4.788
4.786
4.790
4.789
4.784
4.783
4.779
4.780
4.781
4.780
4.781
4.777
4.776
4.775
4.766
4.764
4.762
4.764
4.760
4.764
4.762
4.762
4.762
4.766
4.773
4.775
4.774
4.777
4.777
4.775
4.773
4.772
4.771
4.769
4.763
4.758
4.752
4.758
4.765
4.766
4.765
4.769
4.762
4.764
4.766
4.772
4.770
4.766
4.765
4.767
4.762
4.756
4.754
4.759
4.768
4.775
4.781
4.773
4.774
4.773
4.774
4.773
4.773
4.773
4.771
4.777
4.774
4.773
4.774
4.773
4.771
4.770
4.779
4.784
4.787
4.783
4.785
4.788
4.784
4.780
4.777
4.772
4.770
4.769
4.771
4.770
4.774
4.772
4.771
4.773
4.779
4.786
4.787
4.784
4.784
4.780
4.774
4.773
4.774
4.778
4.774
4.772
4.770
4.767
4.768
4.767
4.765
4.767
4.774
4.780
4.788
4.796
4.799
4.796
4.793
4.791
4.787
4.786
4.793
4.788
4.785
4.783
4.787
4.788
4.787
4.783
4.785
4.786
4.790
4.788
4.790
4.797
4.803
4.805
4.804
4.799
4.803
4.800
4.796
4.797
4.792
4.796
4.796
4.796
4.793
4.792
4.787
4.783
4.790
4.786
4.781
4.788
4.795
4.800
4.807
4.805
4.804
4.803
4.803
4.800
4.806
4.802
4.799
4.803
4.804
4.807
4.803
4.802
4.799
4.800
4.796
4.800
4.801
4.800
4.798
4.796
4.803
4.810
4.815
4.822
4.829
4.829
4.828
4.827
4.828
4.824
4.823
4.818
4.815
4.808
4.810
4.813
4.814
4.814
4.820
4.818
4.814
4.810
4.807
4.803
4.804
4.807
4.814
4.819
4.825
4.819
4.814
4.816
4.818
4.818
4.814
4.810
4.806
4.800
4.796
4.794
4.792
4.792
4.790
4.786
4.790
4.789
4.793
4.796
4.793
4.794
4.799
4.807
4.810
4.818
4.820
4.819
4.823
4.822
4.823
4.818
4.814
4.814
4.810
4.805
4.803
4.800
4.795
4.797
4.801
4.807
4.803
4.799
4.793
4.789
4.787
4.786
4.788
4.794
4.798
4.805
4.810
4.814
4.814
4.816
4.820
4.822
4.823
4.821
4.818
4.818
4.815
4.818
4.817
4.816
4.818
4.814
4.814
4.814
4.817
4.816
4.814
4.811
4.810
4.810
4.812
4.805
4.801
4.800
4.799
4.805
4.809
4.814
4.821
4.827
4.825
4.825
4.823
4.821
4.823
4.822
4.820
4.821
4.828
4.824
4.825
4.824
4.825
4.824
4.821
4.822
4.825
4.829
4.823
4.822
4.826
4.824
4.823
4.824
4.823
4.818
4.814
4.816
4.814
4.814
4.818
4.824
4.829
4.833
4.839
4.846
4.847
4.843
4.840
4.840
4.837
4.838
4.837
4.836
4.831
4.833
4.836
4.841
4.840
4.836
4.837
4.840
4.844
4.843
4.848
4.844
4.844
4.841
4.842
4.840
4.837
4.832
4.829
4.829
4.828
4.829
4.831
4.829
4.833
4.838
4.842
4.847
4.853
4.849
4.851
4.852
4.855
4.857
4.858
4.858
4.853
4.849
4.844
4.844
4.842
4.841
4.847
4.851
4.850
4.849
4.844
4.844
4.840
4.840
4.834
4.830
4.826
4.822
4.823
4.821
4.818
4.819
4.823
4.821
4.818
4.824
4.829
4.833
4.839
4.843
4.848
4.852
4.850
4.847
4.847
4.854
4.850
4.851
4.845
4.844
4.840
4.840
4.842
4.843
4.847
4.847
4.844
4.846
4.844
4.846
4.845
4.844
4.837
4.833
4.834
4.832
4.833
4.835
4.834
4.833
4.834
4.832
4.834
4.833
4.836
4.833
4.834
4.835
4.837
4.841
4.839
4.844
4.848
4.854
4.858
4.862
4.866
4.863
4.866
4.862
4.861
4.866
4.872
4.871
4.870
4.865
4.864
4.862
4.859
4.860
4.859
4.858
4.861
4.860
4.864
4.858
4.858
4.858
4.858
4.863
4.870
4.868
4.862
