2.911
3.239
3.409
3.370
3.466
3.592
3.646
3.686
3.757
3.743
3.800
3.859
3.821
3.826
3.879
3.904
3.929
3.956
3.960
4.001
3.996
4.014
3.970
3.939
3.963
4.004
4.029
4.006
3.996
4.038
4.072
4.048
4.080
4.036
4.036
4.021
4.061
4.057
4.066
4.090
4.050
4.140
4.099
4.106
4.079
4.070
4.132
4.128
4.115
4.126
4.157
4.098
4.090
4.166
4.206
4.165
4.141
4.166
4.230
4.219
4.218
4.171
4.162
4.158
4.133
4.122
4.103
4.165
4.178
4.137
4.124
4.108
4.109
4.144
4.199
4.158
4.171
4.160
4.119
4.114
4.120
4.163
4.214
4.219
4.187
4.196
4.172
4.166
4.161
4.156
4.151
4.193
4.239
4.261
4.247
4.244
4.211
4.195
4.191
4.176
4.156
4.123
4.162
4.202
4.243
4.243
4.224
4.200
4.241
4.236
4.212
4.196
4.196
4.219
4.241
4.202
4.212
4.212
4.197
4.232
4.243
4.254
4.226
4.243
4.202
4.201
4.172
4.174
4.196
4.207
4.224
4.200
4.218
4.189
4.152
4.137
4.136
4.161
4.191
4.221
4.251
4.275
4.272
4.298
4.287
4.243
4.228
4.196
4.207
4.200
4.207
4.204
4.225
4.198
4.171
4.172
4.170
4.207
4.226
4.189
4.194
4.165
4.134
4.132
4.136
4.164
4.186
4.211
4.236
4.261
4.286
4.311
4.336
4.304
4.306
4.275
4.257
4.272
4.263
4.272
4.297
4.293
4.285
4.284
4.290
4.287
4.251
4.227
4.256
4.235
4.224
4.225
4.205
4.232
4.199
4.199
4.187
4.169
4.148
4.128
4.115
4.145
4.176
4.178
4.179
4.162
4.160
4.160
4.180
4.200
4.220
4.240
4.260
4.280
4.300
4.320
4.340
4.337
4.310
4.317
4.297
4.267
4.286
4.319
4.311
4.291
4.284
4.285
4.272
4.254
4.256
4.253
4.257
4.257
4.259
4.235
4.227
4.203
4.218
4.225
4.221
4.219
4.222
4.219
4.197
4.207
4.200
4.190
4.198
4.198
4.214
4.205
4.202
4.178
4.178
4.192
4.185
4.177
4.184
4.193
4.215
4.206
4.198
4.199
4.188
4.181
4.179
4.156
4.164
4.162
4.176
4.150
4.159
4.164
4.160
4.169
4.189
4.160
4.175
4.190
4.205
4.220
4.235
4.249
4.264
4.279
4.294
4.309
4.303
4.302
4.303
4.317
4.339
4.356
4.356
4.370
4.378
4.370
4.343
4.336
4.319
4.307
4.295
4.291
4.289
4.266
4.261
4.240
4.230
4.240
4.264
4.279
4.269
4.249
4.244
4.237
4.237
4.229
4.246
4.272
4.262
4.281
4.278
4.279
4.277
4.269
4.257
4.254
4.250
4.236
4.230
4.243
4.238
4.232
4.218
4.224
4.203
4.213
4.213
4.207
4.211
4.211
4.199
4.198
4.190
4.188
4.182
4.163
4.183
4.174
4.171
4.158
4.148
4.155
4.165
4.163
4.166
4.183
4.200
4.208
4.209
4.205
4.221
4.239
4.221
4.204
4.207
4.222
4.226
4.226
4.207
4.225
4.215
4.215
4.223
4.230
4.213
4.190
4.198
4.191
4.186
4.200
4.203
4.194
4.202
4.188
4.183
4.195
4.177
4.174
4.193
4.191
4.177
4.157
4.155
4.147
4.135
4.148
4.136
4.141
4.155
4.155
4.148
4.165
4.133
4.154
4.128
4.119
4.102
4.108
4.115
4.131
4.135
4.131
4.129
4.139
4.149
4.159
4.169
4.179
4.189
4.199
4.209
4.219
4.229
4.239
4.249
4.259
4.269
4.278
4.289
4.298
4.308
4.318
4.328
4.338
4.348
4.358
4.368
4.378
4.388
4.396
4.381
4.371
4.375
4.361
4.350
4.365
4.363
4.376
4.354
4.366
4.342
4.341
4.347
4.336
4.328
4.335
4.335
4.327
4.334
4.340
4.327
4.315
4.303
4.291
4.286
4.302
4.274
4.289
4.305
4.302
4.282
4.279
4.285
4.296
4.279
4.274
4.257
4.260
4.266
4.267
4.261
4.256
4.269
4.282
4.294
4.307
4.302
4.307
4.313
4.321
4.310
4.299
4.296
4.290
4.295
4.299
4.305
4.285
4.275
4.287
4.288
4.278
4.273
4.268
4.255
4.262
4.263
4.273
4.267
4.270
4.286
4.290
4.287
4.278
4.267
4.253
4.256
4.250
4.235
4.225
4.226
4.223
4.237
4.225
4.214
4.209
4.217
4.235
4.243
4.244
4.235
4.217
4.200
4.210
4.202
4.198
4.215
4.196
4.201
4.189
4.199
4.197
4.201
4.191
4.185
4.188
4.203
4.211
4.197
4.202
4.203
4.216
4.227
4.227
4.220
4.233
4.238
4.226
4.241
4.255
4.247
4.230
4.212
4.216
4.222
4.203
4.193
4.204
4.216
4.200
4.177
4.193
4.189
4.184
4.197
4.196
4.184
4.179
4.176
4.171
4.174
4.179
4.178
4.186
4.173
4.164
4.179
4.185
4.195
4.191
4.178
4.192
4.182
4.194
4.181
4.177
4.156
4.158
4.160
4.146
4.151
4.124
4.136
4.130
4.135
4.134
4.149
4.122
4.131
4.129
4.138
4.129
4.138
4.150
4.161
4.173
4.185
4.189
4.188
4.195
4.183
4.178
4.177
4.174
4.171
4.159
4.162
4.176
4.167
4.177
4.190
4.180
4.169
4.179
4.163
4.159
4.175
4.185
4.200
4.198
4.194
4.183
4.189
4.203
4.212
4.213
4.199
4.198
4.205
4.216
4.198
4.211
4.201
4.204
4.189
4.177
4.176
4.186
4.178
4.169
4.178
4.162
4.167
4.173
4.166
4.156
4.159
4.153
4.159
4.173
4.171
4.170
4.165
4.152
4.164
4.160
4.159
4.159
4.146
4.158
4.152
4.152
4.159
4.171
4.164
4.153
4.165
4.163
4.154
4.151
4.160
4.151
4.141
4.133
4.147
4.144
4.128
4.119
4.114
4.120
4.121
4.128
4.135
4.150
4.142
4.141
4.129
4.129
4.127
4.128
4.131
4.140
4.148
4.157
4.165
4.174
4.182
4.191
4.199
4.208
4.202
4.201
4.185
4.183
4.192
4.190
4.197
4.209
4.222
4.234
4.245
4.240
4.226
4.227
4.217
4.215
4.220
4.226
4.221
4.224
4.209
4.213
4.219
4.211
4.215
4.226
4.234
4.238
4.231
4.231
4.237
4.232
4.216
4.210
4.225
4.222
4.220
4.210
4.219
4.211
4.212
4.202
4.215
4.224
4.217
4.211
4.224
4.226
4.224
4.246
4.241
4.243
4.253
4.241
4.228
4.217
4.208
4.192
4.189
4.179
4.176
4.174
4.182
4.168
4.184
4.193
4.180
4.188
4.181
4.185
4.187
4.197
4.192
4.202
4.202
4.201
4.220
4.214
4.203
4.200
4.190
4.190
4.174
4.176
4.167
4.167
4.150
4.154
4.153
4.154
4.147
4.145
4.157
4.148
4.155
4.156
4.164
4.156
4.144
4.151
4.141
4.150
4.156
4.147
4.154
4.152
4.157
4.159
4.157
4.172
4.166
4.175
4.189
4.190
4.189
4.184
4.188
4.187
4.180
4.179
4.184
4.189
4.194
4.199
4.204
4.209
4.213
4.218
4.223
4.228
4.233
4.238
4.243
4.248
4.253
4.258
4.263
4.268
4.273
4.278
4.283
4.288
4.293
4.298
4.303
4.308
4.313
4.318
4.323
4.327
4.332
4.337
4.342
4.347
4.352
4.357
4.362
4.367
4.372
4.377
4.382
4.387
4.392
4.397
4.402
4.407
4.412
4.417
4.422
4.427
4.426
4.420
4.412
4.405
4.402
4.393
4.385
4.377
4.368
4.373
4.383
4.389
4.387
4.381
4.387
4.385
4.390
4.388
4.378
4.375
4.375
4.377
4.377
4.384
4.373
4.367
4.366
4.350
4.337
4.345
4.364
4.358
4.351
4.338
4.335
4.343
4.331
4.326
4.326
4.313
4.305
4.304
4.311
4.308
4.317
4.318
4.329
4.333
4.312
4.310
4.306
4.305
4.305
4.307
4.315
4.323
4.331
4.339
4.346
4.354
4.362
4.353
4.344
4.342
4.341
4.346
4.340
4.338
4.353
4.349
4.340
4.349
4.352
4.359
4.362
4.352
4.342
4.331
4.323
4.328
4.321
4.322
4.326
4.337
4.346
4.333
4.329
4.319
4.308
4.314
4.314
4.325
4.320
4.322
4.328
4.338
4.340
4.344
4.336
4.332
4.338
4.328
4.327
4.330
4.321
4.329
4.323
4.323
