2.992
3.334
3.504
3.623
3.717
3.795
3.840
3.860
3.924
3.952
3.950
3.990
4.024
4.060
4.093
4.121
4.092
4.051
4.065
4.085
4.104
4.112
4.123
4.141
4.147
4.167
4.168
4.187
4.198
4.204
4.213
4.229
4.229
4.241
4.253
4.252
4.257
4.272
4.273
4.290
4.292
4.287
4.298
4.309
4.314
4.324
4.330
4.332
4.330
4.330
4.345
4.348
4.347
4.359
4.371
4.369
4.379
4.385
4.373
4.373
4.377
4.382
4.396
4.391
4.391
4.404
4.409
4.416
4.412
4.413
4.426
4.434
4.438
4.446
4.442
4.419
4.423
4.426
4.433
4.441
4.440
4.451
4.441
4.449
4.447
4.456
4.464
4.464
4.464
4.469
4.475
4.477
4.478
4.473
4.482
4.489
4.499
4.502
4.506
4.501
4.509
4.511
4.516
4.505
4.516
4.510
4.512
4.513
4.495
4.497
4.496
4.495
4.499
4.506
4.505
4.508
4.513
4.512
4.516
4.527
4.514
4.516
4.511
4.514
4.525
4.518
4.523
4.528
4.525
4.531
4.541
4.536
4.544
4.541
4.535
4.545
4.545
4.556
4.552
4.557
4.563
4.558
4.550
4.549
4.557
4.554
4.549
4.561
4.561
4.565
4.557
4.567
4.569
4.568
4.578
4.577
4.587
4.583
4.590
4.584
4.586
4.587
4.583
4.594
4.591
4.597
4.602
4.602
4.603
4.603
4.610
4.610
4.608
4.611
4.595
4.610
4.608
4.605
4.606
4.603
4.602
4.604
4.601
4.607
4.613
4.608
4.611
4.627
4.627
4.616
4.628
4.626
4.625
4.634
4.633
4.630
4.630
4.651
4.643
4.639
4.643
4.634
4.624
4.615
4.605
4.605
4.608
4.599
4.604
4.614
4.613
4.611
4.606
4.615
4.609
4.609
4.604
4.623
4.617
4.617
4.614
4.623
4.631
4.635
4.626
4.625
4.640
4.640
4.628
4.629
4.619
4.623
4.618
4.613
4.624
4.622
4.619
4.608
4.611
4.623
4.617
4.609
4.611
4.614
4.618
4.624
4.615
4.614
4.614
4.632
4.633
4.632
4.633
4.624
4.628
4.639
4.642
4.638
4.631
4.626
4.637
4.635
4.640
4.637
4.632
4.632
4.642
4.646
4.641
4.640
4.641
4.639
4.642
4.659
4.659
4.660
4.651
4.655
4.655
4.655
4.660
4.656
4.652
4.646
4.641
4.645
4.661
4.657
4.660
4.647
4.642
4.642
4.647
4.662
4.666
4.662
4.655
4.655
4.659
4.652
4.660
4.675
4.677
4.671
4.666
4.657
4.654
4.655
4.666
4.680
4.680
4.676
4.672
4.676
4.674
4.676
4.670
4.681
4.696
4.695
4.692
4.688
4.681
4.683
4.682
4.683
4.689
4.694
4.690
4.692
4.698
4.696
4.689
4.687
4.685
4.691
4.688
4.680
4.672
4.670
4.665
4.659
4.658
4.672
4.683
4.682
4.679
4.674
4.678
4.668
4.658
4.655
4.660
4.673
4.678
4.669
4.672
4.674
4.667
4.669
4.664
4.664
4.662
4.667
4.680
4.692
4.693
4.692
4.690
4.682
4.682
4.676
4.677
4.669
4.668
4.678
4.690
4.685
4.690
4.698
4.696
4.690
4.679
4.673
4.669
4.667
4.668
4.680
4.687
4.691
4.690
4.689
4.689
4.689
4.688
4.688
4.680
4.678
4.679
4.675
4.685
4.696
4.708
4.713
4.711
4.710
4.700
4.700
4.700
4.697
4.692
4.691
4.687
4.689
4.691
4.702
4.708
4.703
4.706
4.703
4.700
4.703
4.700
4.699
4.698
4.691
4.694
4.697
4.698
4.700
4.709
4.720
4.726
4.727
4.732
4.723
4.721
4.723
4.727
4.722
4.717
4.713
4.709
4.715
4.716
4.705
4.714
4.725
4.735
4.736
4.737
4.732
4.729
4.726
4.717
4.716
4.715
4.716
4.714
4.714
4.707
4.699
4.708
4.717
4.722
4.724
4.719
4.721
4.724
4.718
4.714
4.714
4.709
4.712
4.702
4.694
4.693
4.698
4.690
4.699
4.709
4.718
4.726
4.722
4.719
4.717
4.721
4.719
4.718
4.719
4.728
4.721
4.716
4.721
4.721
4.722
4.712
4.702
4.699
4.706
4.715
4.724
4.727
4.731
4.733
4.733
4.731
4.732
4.730
4.731
4.730
4.725
4.723
4.725
4.729
4.732
4.741
4.729
4.725
4.719
4.716
4.715
4.724
4.733
4.742
4.747
4.744
4.746
4.749
4.745
4.750
4.751
4.752
4.754
4.753
4.753
4.751
4.746
4.742
4.742
4.740
4.737
4.732
4.740
4.738
4.736
4.737
4.743
4.751
4.760
4.768
4.771
4.767
4.758
4.759
4.756
4.753
4.750
4.745
4.752
4.747
4.755
4.748
4.745
4.741
4.734
4.726
4.726
4.723
4.721
4.726
4.735
4.743
4.751
4.759
4.759
4.766
4.765
4.760
4.753
4.754
4.750
4.753
4.748
4.752
4.749
4.748
4.747
4.747
4.743
4.741
4.749
4.750
4.750
4.746
4.748
4.745
4.744
4.743
4.747
4.748
4.756
4.763
4.771
4.778
4.780
4.776
4.777
4.779
4.782
4.783
4.781
4.779
4.774
4.775
4.772
4.778
4.778
4.776
4.774
4.778
4.774
4.771
4.773
4.773
4.779
4.773
4.774
4.766
4.763
4.769
4.764
4.761
4.769
4.776
4.784
4.791
4.797
4.800
4.798
4.798
4.788
4.778
4.779
4.784
4.787
4.783
4.788
4.787
4.783
4.778
4.774
4.770
4.766
4.762
4.757
4.753
4.749
4.745
4.741
4.736
4.732
4.737
4.744
4.751
4.758
4.765
4.771
4.769
4.767
4.771
4.774
4.775
4.778
4.776
4.775
4.769
4.768
4.765
4.761
4.755
4.750
4.745
4.741
4.741
4.734
4.732
4.728
4.735
4.740
4.741
4.740
4.738
4.738
4.743
4.743
4.739
4.740
4.738
4.740
4.744
4.750
4.757
4.764
4.771
4.773
4.767
4.763
4.755
4.752
4.749
4.744
4.743
4.747
4.755
4.760
4.761
4.759
4.757
4.754
4.756
4.753
4.750
4.748
4.749
4.747
4.750
4.747
4.745
4.744
4.741
4.742
4.740
4.745
4.751
4.749
4.742
4.742
4.744
4.745
4.747
4.744
4.748
4.754
4.760
4.767
4.772
4.767
4.765
4.764
4.763
4.769
4.766
4.762
4.760
4.756
4.760
4.758
4.757
4.756
4.751
4.747
4.744
4.740
4.736
4.733
4.740
4.744
4.746
4.746
4.746
4.744
4.741
4.741
4.743
4.741
4.741
4.744
4.736
4.729
4.726
4.730
4.731
4.731
4.731
4.726
4.732
4.738
4.744
4.750
4.756
4.762
4.768
4.774
4.780
4.783
4.784
4.782
4.783
4.782
4.779
4.781
4.780
4.778
4.782
4.780
4.775
4.768
4.766
4.767
4.770
4.768
4.761
4.759
4.758
4.760
4.757
4.759
4.753
4.747
4.751
4.745
4.739
4.733
4.732
4.733
4.733
4.735
4.743
4.743
4.745
4.747
4.745
4.745
4.748
4.748
4.743
4.746
4.743
4.736
4.740
4.746
4.751
4.757
4.762
4.768
4.774
4.779
4.775
4.775
4.774
4.773
4.777
4.775
4.777
4.773
4.781
4.778
4.775
4.772
4.771
4.771
4.772
4.767
4.768
4.771
4.771
4.777
4.776
4.780
4.773
4.771
4.770
4.765
4.766
4.766
4.769
4.768
4.770
4.765
4.760
4.759
4.757
4.763
4.757
4.751
4.752
4.745
4.745
4.744
4.746
4.744
4.743
4.739
4.736
4.730
4.729
4.724
4.728
4.733
4.740
4.748
4.749
4.755
4.760
4.765
4.770
4.775
4.781
4.786
4.791
4.796
4.799
4.799
4.794
4.790
4.787
4.793
4.795
4.793
4.792
4.787
4.786
4.793
4.792
4.788
4.780
4.777
4.777
4.778
4.779
4.780
4.783
4.789
4.789
4.790
4.785
4.777
4.780
4.773
4.772
4.765
4.763
4.756
4.761
4.763
4.763
4.767
4.765
4.768
4.768
4.767
4.764
4.763
4.764
4.763
4.767
4.770
4.771
4.773
4.775
4.769
4.766
4.760
4.759
4.756
4.756
4.755
4.755
4.753
4.751
4.752
4.754
4.756
4.761
4.765
4.770
4.775
4.780
4.785
4.790
4.795
4.800
4.799
4.798
4.800
4.802
4.809
4.806
4.801
4.798
4.800
4.800
4.802
4.803
4.803
4.808
4.811
4.810
4.809
