2.994
3.337
3.509
3.637
3.723
3.797
3.836
3.879
3.934
3.961
4.009
4.007
4.042
4.081
4.091
4.078
4.104
4.127
4.148
4.166
4.190
4.207
4.222
4.240
4.255
4.219
4.182
4.193
4.200
4.215
4.220
4.234
4.238
4.251
4.255
4.265
4.268
4.279
4.291
4.289
4.299
4.309
4.305
4.314
4.323
4.333
4.329
4.334
4.345
4.352
4.356
4.356
4.360
4.369
4.375
4.382
4.387
4.394
4.382
4.391
4.397
4.399
4.409
4.412
4.417
4.424
4.414
4.416
4.425
4.424
4.431
4.438
4.442
4.448
4.452
4.459
4.460
4.465
4.450
4.454
4.455
4.459
4.464
4.468
4.477
4.479
4.477
4.484
4.490
4.493
4.496
4.497
4.504
4.505
4.510
4.493
4.497
4.498
4.496
4.501
4.504
4.508
4.512
4.517
4.519
4.519
4.519
4.525
4.527
4.531
4.540
4.536
4.543
4.545
4.542
4.544
4.551
4.547
4.553
4.560
4.562
4.563
4.565
4.550
4.546
4.541
4.546
4.550
4.545
4.552
4.553
4.555
4.557
4.564
4.565
4.569
4.573
4.574
4.568
4.572
4.576
4.571
4.579
4.579
4.584
4.583
4.586
4.590
4.590
4.591
4.595
4.601
4.603
4.594
4.595
4.599
4.603
4.602
4.608
4.602
4.608
4.613
4.616
4.616
4.620
4.623
4.622
4.618
4.628
4.629
4.631
4.629
4.634
4.624
4.633
4.635
4.633
4.629
4.620
4.608
4.605
4.602
4.606
4.608
4.611
4.616
4.620
4.616
4.612
4.626
4.622
4.629
4.622
4.624
4.627
4.624
4.631
4.632
4.634
4.635
4.639
4.632
4.630
4.632
4.638
4.630
4.638
4.629
4.639
4.634
4.638
4.638
4.638
4.643
4.642
4.648
4.645
4.649
4.652
4.649
4.660
4.657
4.658
4.665
4.656
4.662
4.656
4.662
4.658
4.656
4.669
4.665
4.666
4.675
4.672
4.675
4.675
4.676
4.669
4.659
4.668
4.667
4.664
4.673
4.677
4.673
4.671
4.673
4.668
4.679
4.675
4.675
4.680
4.682
4.675
4.681
4.679
4.679
4.680
4.690
4.686
4.687
4.694
4.697
4.693
4.697
4.697
4.698
4.694
4.701
4.704
4.692
4.697
4.698
4.699
4.698
4.705
4.708
4.707
4.706
4.712
4.712
4.710
4.709
4.716
4.722
4.716
4.714
4.719
4.723
4.726
4.719
4.719
4.711
4.707
4.708
4.715
4.719
4.712
4.712
4.721
4.725
4.723
4.712
4.716
4.723
4.719
4.716
4.713
4.722
4.721
4.717
4.719
4.722
4.727
4.728
4.729
4.725
4.727
4.738
4.740
4.738
4.737
4.731
4.743
4.742
4.740
4.739
4.738
4.747
4.751
4.744
4.745
4.745
4.742
4.736
4.729
4.725
4.719
4.714
4.715
4.711
4.713
4.719
4.718
4.714
4.713
4.706
4.713
4.711
4.713
4.712
4.708
4.714
4.723
4.723
4.723
4.719
4.718
4.714
4.724
4.734
4.727
4.719
4.715
4.714
4.724
4.728
4.729
4.733
4.726
4.725
4.723
4.733
4.735
4.731
4.732
4.733
4.730
4.728
4.740
4.747
4.748
4.745
4.745
4.747
4.738
4.736
4.729
4.727
4.724
4.720
4.721
4.731
4.734
4.731
4.730
4.734
4.729
4.722
4.729
4.730
4.726
4.719
4.716
4.716
4.715
4.723
4.732
4.731
4.732
4.733
4.727
4.723
4.719
4.727
4.735
4.733
4.729
4.728
4.727
4.730
4.726
4.728
4.737
4.741
4.738
4.739
4.742
4.738
4.738
4.739
4.740
4.745
4.749
4.741
4.745
4.747
4.746
4.745
4.743
4.738
4.746
4.755
4.751
4.742
4.738
4.742
4.738
4.741
4.738
4.747
4.756
4.756
4.757
4.755
4.751
4.749
4.748
4.749
4.748
4.752
4.760
4.761
4.762
4.758
4.764
4.760
4.764
4.763
4.760
4.758
4.764
4.772
4.775
4.769
4.771
4.764
4.759
4.756
4.757
4.750
4.759
4.766
4.764
4.769
4.760
4.761
4.762
4.761
4.757
4.758
4.754
4.763
4.765
4.764
4.765
4.758
4.759
4.758
4.757
4.755
4.759
4.756
4.760
4.768
4.776
4.777
4.776
4.775
4.773
4.769
4.767
4.772
4.768
4.768
4.770
4.771
4.779
4.785
4.786
4.783
4.781
4.774
4.768
4.769
4.764
4.766
4.773
4.771
4.776
4.783
4.787
4.788
4.787
4.790
4.786
4.786
4.786
4.785
4.782
4.783
4.784
4.782
4.786
4.793
4.801
4.808
4.809
4.804
4.801
4.799
4.792
4.788
4.795
4.794
4.789
4.791
4.787
4.796
4.801
4.805
4.803
4.801
4.800
4.799
4.797
4.797
4.793
4.788
4.784
4.780
4.782
4.785
4.781
4.782
4.778
4.779
4.776
4.775
4.778
4.777
4.781
4.775
4.773
4.768
4.775
4.782
4.786
4.786
4.792
4.793
4.789
4.782
4.776
4.772
4.767
4.766
4.760
4.761
4.760
4.768
4.775
4.782
4.779
4.783
4.781
4.782
4.782
4.785
4.781
4.779
4.776
4.775
4.775
4.771
4.768
4.771
4.773
4.777
4.784
4.790
4.790
4.793
4.793
4.793
4.790
4.786
4.784
4.783
4.786
4.791
4.795
4.793
4.792
4.790
4.786
4.780
4.786
4.793
4.800
4.801
4.798
4.796
4.789
4.786
4.789
4.788
4.789
4.785
4.784
4.786
4.784
4.788
4.782
4.777
4.779
4.788
4.793
4.799
4.793
4.791
4.787
4.783
4.782
4.788
4.790
4.786
4.786
4.783
4.784
4.783
4.786
4.785
4.781
4.782
4.781
4.788
4.793
4.801
4.806
4.810
4.806
4.805
4.806
4.802
4.798
4.802
4.800
4.802
4.800
4.801
4.805
4.802
4.797
4.802
4.801
4.802
4.800
4.799
4.800
4.805
4.811
4.815
4.812
4.810
4.812
4.813
4.809
4.812
4.811
4.813
4.809
4.804
4.800
4.797
4.795
4.797
4.795
4.802
4.798
4.797
4.797
4.801
4.808
4.813
4.819
4.818
4.822
4.816
4.819
4.815
4.812
4.815
4.817
4.816
4.819
4.821
4.820
4.813
4.811
4.813
4.811
4.815
4.816
4.812
4.812
4.810
4.808
4.813
4.819
4.826
4.831
4.837
4.841
4.838
4.839
4.837
4.831
4.830
4.830
4.829
4.830
4.827
4.825
4.829
4.828
4.827
4.823
4.823
4.820
4.818
4.820
4.821
4.816
4.818
4.819
4.824
4.830
4.832
4.828
4.824
4.822
4.816
4.812
4.813
4.811
4.808
4.808
4.807
4.806
4.802
4.803
4.807
4.808
4.802
4.808
4.807
4.806
4.808
4.808
4.808
4.808
4.815
4.820
4.824
4.831
4.837
4.833
4.829
4.830
4.824
4.819
4.816
4.812
4.812
4.808
4.813
4.811
4.813
4.816
4.812
4.812
4.807
4.803
4.802
4.801
4.802
4.801
4.801
4.798
4.804
4.809
4.815
4.819
4.824
4.828
4.827
4.834
4.838
4.839
4.837
4.834
4.830
4.828
4.832
4.831
4.834
4.833
4.832
4.830
4.829
4.827
4.821
4.820
4.818
4.822
4.821
4.819
4.821
4.819
4.816
4.814
4.810
4.808
4.815
4.820
4.824
4.830
4.835
4.839
4.838
4.839
4.837
4.839
4.838
4.838
4.837
4.834
4.840
4.838
4.843
4.839
4.842
4.841
4.840
4.836
4.838
4.841
4.840
4.841
4.838
4.838
4.837
4.831
4.829
4.825
4.824
4.827
4.826
4.822
4.826
4.827
4.832
4.836
4.842
4.845
4.851
4.855
4.859
4.860
4.856
4.856
4.853
4.850
4.851
4.850
4.848
4.850
4.853
4.853
4.853
4.850
4.853
4.855
4.856
4.860
4.860
4.860
4.854
4.852
4.848
4.847
4.848
4.849
4.845
4.841
4.842
4.842
4.842
4.841
4.845
4.844
4.843
4.847
4.851
4.856
4.862
4.866
4.864
4.864
4.867
4.863
4.865
4.864
4.865
4.864
4.862
4.858
4.857
4.858
4.862
4.861
4.857
4.853
4.849
4.845
4.842
4.839
4.834
4.833
4.835
4.836
4.830
4.836
4.837
4.836
4.834
4.834
4.837
4.836
4.835
4.833
4.837
4.842
4.846
4.850
4.856
4.860
4.865
4.864
4.864
4.864
4.862
4.860
4.857
4.860
4.856
4.853
4.851
