2.823
3.239
3.244
3.340
3.417
3.473
3.572
3.526
3.606
3.695
3.723
3.747
3.759
3.743
3.779
3.730
3.811
3.838
3.799
3.789
3.870
3.820
3.900
3.859
3.826
3.880
3.924
3.858
3.960
3.983
3.921
4.047
3.998
3.973
3.964
3.900
3.866
3.962
3.947
3.892
3.884
3.920
3.984
3.961
3.956
3.905
3.897
3.961
4.043
4.037
4.017
3.955
3.959
3.931
3.951
4.022
4.045
4.060
3.988
3.966
4.033
4.042
3.961
3.939
3.981
4.042
4.000
4.084
4.023
4.036
4.011
3.961
3.910
3.934
3.999
3.941
3.922
3.960
4.011
4.062
4.112
4.057
4.039
4.006
4.031
3.985
3.976
4.046
4.014
3.945
3.979
3.974
3.918
3.919
3.927
3.934
3.989
4.009
4.001
4.041
4.081
4.122
4.083
4.097
4.015
4.027
4.050
4.000
3.996
3.987
3.987
4.024
3.960
4.012
4.006
3.993
3.956
4.009
3.999
4.023
3.989
3.950
3.916
3.949
3.930
3.941
3.895
3.860
3.890
3.920
3.950
3.980
4.010
4.041
4.071
4.101
4.131
4.139
4.111
4.125
4.169
4.188
4.163
4.129
4.127
4.114
4.070
4.025
4.039
4.024
4.012
3.990
4.002
3.996
4.034
4.061
4.027
3.998
3.975
3.956
3.945
3.945
3.942
3.926
3.893
3.886
3.881
3.893
3.928
3.925
3.960
3.972
3.990
3.987
3.995
3.977
3.989
4.018
4.021
4.027
4.023
3.979
3.966
3.951
3.986
3.949
3.940
3.924
3.926
3.929
3.945
3.903
3.914
3.927
3.946
3.937
3.940
3.960
3.980
4.000
4.020
4.040
4.060
4.080
4.100
4.120
4.140
4.133
4.130
4.170
4.147
4.145
4.166
4.116
4.136
4.130
4.116
4.104
4.133
4.110
4.101
4.099
4.049
4.047
4.080
4.116
4.095
4.126
4.124
4.110
4.103
4.065
4.063
4.089
4.115
4.141
4.118
4.125
4.125
4.103
4.115
4.107
4.083
4.060
4.037
4.014
4.010
4.017
4.009
4.004
4.000
3.985
3.981
3.985
3.973
3.991
3.981
3.985
3.971
3.958
3.990
3.988
3.951
3.935
3.933
3.970
3.977
3.968
3.981
3.993
4.002
3.975
3.954
3.921
3.958
3.922
3.927
3.896
3.904
3.909
3.936
3.946
3.925
3.941
3.948
3.966
3.976
4.004
3.987
3.984
3.957
3.961
3.937
3.922
3.913
3.919
3.934
3.957
3.981
3.994
3.987
3.968
3.948
3.944
3.917
3.932
3.946
3.915
3.908
3.911
3.933
3.952
3.953
3.970
3.963
3.954
3.941
3.940
3.957
3.941
3.916
3.931
3.915
3.887
3.911
3.895
3.920
3.917
3.933
3.927
3.913
3.906
3.901
3.909
3.910
3.914
3.928
3.918
3.893
3.891
3.892
3.909
3.926
3.943
3.960
3.977
3.994
4.006
4.014
4.039
4.051
4.021
3.999
3.983
4.010
4.012
4.028
4.008
3.974
3.974
3.990
4.008
3.995
3.997
4.012
4.018
4.001
3.977
3.953
3.939
3.938
3.946
3.927
3.956
3.980
3.977
3.979
3.989
3.969
3.950
3.962
3.943
3.945
3.933
3.936
3.918
3.924
3.928
3.937
3.932
3.934
3.940
3.962
3.972
3.967
3.954
3.975
3.960
3.970
3.980
3.990
4.000
4.010
4.020
4.030
4.040
4.050
4.060
4.070
4.080
4.089
4.099
4.109
4.119
4.129
4.139
4.149
4.159
4.169
4.179
4.189
4.199
4.209
4.219
4.208
4.188
4.167
4.178
4.199
4.212
4.202
4.185
4.188
4.191
4.168
4.158
4.166
4.185
4.176
4.169
4.189
4.194
4.214
4.193
4.194
4.208
4.186
4.176
4.165
4.167
4.149
4.154
4.152
4.129
4.104
4.099
4.114
4.136
4.125
4.133
4.148
4.164
4.153
4.155
4.157
4.143
4.127
4.111
4.105
4.122
4.119
4.096
4.095
4.082
4.099
4.111
4.103
4.079
4.090
4.097
4.109
4.126
4.157
4.130
4.113
4.120
4.095
4.097
4.078
4.063
4.076
4.067
4.060
4.097
4.078
4.099
4.074
4.083
4.072
4.068
4.050
4.036
4.049
4.031
4.026
4.029
4.015
4.016
4.031
4.047
4.045
4.044
4.020
4.000
3.989
4.010
3.986
4.003
4.006
4.024
4.032
4.022
4.018
4.046
4.030
4.027
4.051
4.046
4.037
4.046
4.039
4.027
4.024
4.034
4.025
4.010
4.008
3.982
3.967
3.968
3.950
3.965
3.979
3.994
4.008
4.022
4.037
4.051
4.056
4.063
4.035
4.049
4.026
4.028
4.012
3.989
3.989
3.986
3.991
3.994
4.004
3.982
3.990
3.979
3.989
3.999
4.005
4.000
4.011
4.003
3.986
3.979
3.987
3.996
3.977
3.958
3.972
3.980
3.995
4.014
4.016
4.039
4.029
4.013
3.995
3.995
3.972
3.979
3.984
4.006
4.010
3.985
3.987
3.976
3.966
3.990
3.979
3.978
3.968
3.975
3.983
3.970
3.956
3.943
3.940
3.926
3.939
3.935
3.937
3.926
3.927
3.928
3.941
3.931
3.923
3.934
3.929
3.924
3.921
3.900
3.908
3.892
3.897
3.904
3.921
3.939
3.956
3.956
3.970
3.983
3.997
4.000
4.004
4.009
3.981
3.998
4.020
3.991
3.986
3.982
3.966
3.974
3.988
3.991
3.982
3.969
3.971
3.958
3.970
3.980
3.988
3.964
3.971
3.976
3.977
3.985
3.994
3.973
3.952
3.947
3.952
3.972
3.966
3.954
3.944
3.954
3.959
3.950
3.938
3.925
3.912
3.904
3.928
3.917
3.933
3.937
3.949
3.934
3.939
3.961
3.966
3.960
3.958
3.965
3.945
3.931
3.918
3.919
3.927
3.935
3.944
3.952
3.961
3.969
3.978
3.986
3.994
4.003
4.011
4.020
4.028
4.037
4.046
4.051
4.063
4.040
4.040
4.028
4.030
4.040
4.045
4.047
4.055
4.046
4.037
4.027
4.040
4.053
4.049
4.051
4.049
4.052
4.068
4.070
4.057
4.045
4.046
4.046
4.028
4.040
4.056
4.035
4.023
4.007
4.005
4.016
4.022
4.008
4.009
4.013
4.024
4.030
4.041
4.032
4.024
4.012
4.023
4.028
4.016
4.004
3.986
3.976
3.990
4.005
4.008
3.992
3.976
3.979
3.997
3.994
3.991
3.991
3.991
3.989
4.004
3.979
3.956
3.961
3.967
3.974
3.961
3.963
3.961
3.976
3.990
4.008
4.007
3.998
3.979
3.978
3.981
3.992
3.994
3.985
3.979
3.996
4.000
4.011
4.013
4.012
3.994
3.995
3.991
4.003
4.014
4.002
3.991
3.990
3.981
3.964
3.952
3.957
3.960
3.959
3.958
3.968
3.977
3.972
3.955
3.954
3.968
3.973
3.957
3.958
3.952
3.946
3.949
3.949
3.967
3.957
3.973
3.978
3.985
3.988
3.987
3.973
3.973
3.969
3.993
3.987
3.985
3.985
3.963
3.941
3.950
3.952
3.938
3.952
3.948
3.933
3.951
3.933
3.939
3.939
3.950
3.965
3.946
3.956
3.942
3.945
3.945
3.958
3.953
3.946
3.938
3.941
3.929
3.923
3.933
3.953
3.943
3.957
3.962
3.962
3.970
3.969
3.962
3.961
3.972
3.968
3.964
3.955
3.950
3.950
3.952
3.959
3.946
3.925
3.925
3.935
3.939
3.934
3.934
3.944
3.960
3.962
3.964
3.967
3.972
3.957
3.957
3.968
3.956
3.949
3.947
3.936
3.948
3.934
3.942
3.950
3.957
3.965
3.973
3.980
3.988
3.996
4.003
4.011
4.019
4.027
4.026
4.018
4.007
4.009
4.007
4.019
4.018
4.025
4.023
4.017
4.015
4.033
4.029
4.037
4.041
4.040
4.055
4.044
4.032
4.023
4.013
4.002
3.991
3.985
3.982
3.977
3.989
3.977
3.972
3.992
3.987
3.987
3.986
3.977
3.977
3.988
3.999
3.985
3.987
3.984
3.982
3.989
4.003
4.001
3.989
3.988
3.991
3.992
3.982
3.993
3.991
4.005
4.016
4.004
3.986
3.997
4.006
4.010
4.008
4.016
4.006
4.004
4.016
4.000
3.989
3.979
3.983
3.976
3.964
3.970
3.976
3.992
3.980
3.967
3.968
3.965
3.963
3.973
3.974
3.982
3.985
3.976
3.989
3.988
3.987
3.982
3.967
3.966
3.958
3.961
