2.992
3.320
3.490
3.620
3.723
3.769
3.780
3.839
3.903
3.958
3.992
3.902
3.925
3.958
3.977
4.000
4.016
4.047
4.055
4.076
4.086
4.110
4.112
4.129
4.143
4.142
4.156
4.179
4.182
4.197
4.189
4.208
4.215
4.229
4.240
4.254
4.230
4.241
4.260
4.258
4.275
4.288
4.289
4.303
4.309
4.315
4.293
4.301
4.301
4.318
4.315
4.315
4.330
4.332
4.343
4.349
4.346
4.354
4.361
4.371
4.375
4.393
4.385
4.387
4.388
4.400
4.378
4.376
4.369
4.375
4.388
4.400
4.395
4.386
4.387
4.393
4.390
4.400
4.411
4.415
4.411
4.428
4.429
4.438
4.433
4.437
4.426
4.422
4.439
4.435
4.434
4.447
4.454
4.452
4.461
4.469
4.461
4.461
4.477
4.470
4.482
4.483
4.484
4.500
4.493
4.486
4.486
4.479
4.489
4.474
4.501
4.497
4.506
4.499
4.507
4.513
4.507
4.521
4.515
4.530
4.525
4.534
4.530
4.514
4.499
4.491
4.484
4.497
4.485
4.480
4.506
4.501
4.500
4.518
4.510
4.504
4.530
4.523
4.507
4.492
4.493
4.497
4.490
4.480
4.497
4.490
4.489
4.503
4.517
4.507
4.500
4.523
4.516
4.516
4.508
4.525
4.512
4.513
4.518
4.531
4.530
4.526
4.522
4.550
4.542
4.543
4.532
4.540
4.532
4.529
4.525
4.540
4.533
4.542
4.529
4.530
4.552
4.556
4.549
4.544
4.538
4.562
4.556
4.548
4.549
4.550
4.563
4.578
4.576
4.564
4.561
4.565
4.580
4.589
4.579
4.575
4.570
4.570
4.590
4.584
4.575
4.582
4.569
4.569
4.565
4.559
4.566
4.556
4.549
4.564
4.554
4.550
4.555
4.546
4.541
4.551
4.572
4.579
4.572
4.564
4.559
4.558
4.550
4.570
4.584
4.581
4.570
4.552
4.550
4.550
4.559
4.579
4.574
4.577
4.578
4.570
4.572
4.574
4.569
4.578
4.597
4.595
4.589
4.585
4.583
4.583
4.568
4.566
4.584
4.597
4.598
4.601
4.597
4.591
4.597
4.592
4.598
4.591
4.596
4.614
4.619
4.614
4.613
4.617
4.607
4.607
4.599
4.600
4.603
4.612
4.629
4.626
4.614
4.601
4.595
4.602
4.591
4.585
4.583
4.598
4.600
4.599
4.600
4.597
4.602
4.598
4.593
4.591
4.587
4.599
4.604
4.602
4.617
4.616
4.613
4.605
4.605
4.612
4.609
4.611
4.606
4.604
4.608
4.608
4.605
4.620
4.635
4.640
4.628
4.635
4.634
4.627
4.635
4.626
4.636
4.629
4.635
4.618
4.620
4.620
4.634
4.648
4.649
4.652
4.660
4.653
4.644
4.635
4.634
4.627
4.635
4.628
4.634
4.632
4.625
4.629
4.642
4.642
4.645
4.640
4.639
4.643
4.638
4.644
4.635
4.626
4.633
4.633
4.637
4.634
4.627
4.623
4.630
4.643
4.656
4.669
4.682
4.685
4.678
4.667
4.666
4.663
4.658
4.659
4.669
4.669
4.677
4.670
4.670
4.657
4.651
4.656
4.654
4.658
4.671
4.683
4.683
4.683
4.678
4.688
4.689
4.691
4.688
4.677
4.676
4.663
4.654
4.661
4.670
4.658
4.663
4.656
4.649
4.648
4.659
4.669
4.670
4.673
4.671
4.667
4.660
4.661
4.662
4.653
4.645
4.646
4.637
4.633
4.631
4.631
4.628
4.622
4.612
4.612
4.622
4.633
4.644
4.655
4.657
4.662
4.666
4.657
4.650
4.647
4.645
4.649
4.644
4.652
4.650
4.650
4.640
4.641
4.641
4.650
4.639
4.640
4.639
4.637
4.636
4.643
4.643
4.634
4.642
4.652
4.654
4.651
4.649
4.647
4.639
4.641
4.645
4.648
4.645
4.651
4.643
4.642
4.634
4.641
4.636
4.631
4.629
4.625
4.629
4.626
4.627
4.630
4.635
4.639
4.646
4.646
4.639
4.635
4.645
4.655
4.664
4.674
4.671
4.669
4.665
4.659
4.656
4.658
4.653
4.649
4.647
4.646
4.643
4.643
4.655
4.654
4.645
4.651
4.648
4.641
4.633
4.636
4.633
4.629
4.626
4.626
4.632
4.633
4.625
4.626
4.627
4.636
4.645
4.655
4.663
4.673
4.677
4.678
4.689
4.680
4.678
4.681
4.676
4.674
4.670
4.660
4.660
4.647
4.649
4.647
4.641
4.653
4.646
4.650
4.650
4.650
4.652
4.643
4.647
4.648
4.649
4.653
4.650
4.650
4.646
4.642
4.642
4.650
4.647
4.649
4.647
4.644
4.652
4.661
4.669
4.678
4.683
4.672
4.676
4.676
4.676
4.674
4.675
4.681
4.685
4.679
4.677
4.689
4.687
4.691
4.683
4.681
4.679
4.681
4.677
4.677
4.680
4.679
4.671
4.667
4.663
4.661
4.655
4.663
4.664
4.670
4.662
4.669
4.666
4.661
4.656
4.650
4.652
4.652
4.659
4.658
4.653
4.657
4.656
4.662
4.670
4.678
4.686
4.693
4.701
4.709
4.717
4.722
4.723
4.716
4.715
4.719
4.711
4.704
4.705
4.715
4.709
4.705
4.704
4.706
4.703
4.706
4.706
4.705
4.698
4.695
4.703
4.699
4.705
4.704
4.706
4.704
4.696
4.700
4.701
4.711
4.716
4.714
4.705
4.694
4.697
4.702
4.699
4.691
4.684
4.676
4.676
4.683
4.686
4.681
4.676
4.681
4.673
4.665
4.668
4.675
4.682
4.689
4.696
4.703
4.709
4.706
4.704
4.707
4.709
4.706
4.708
4.702
4.700
4.694
4.695
4.695
4.694
4.696
4.696
4.696
4.696
4.693
4.689
4.687
4.689
4.689
4.685
4.684
4.676
4.671
4.666
4.662
4.662
4.669
4.670
4.674
4.660
4.660
4.662
4.663
4.664
4.667
4.670
4.679
4.689
4.684
4.674
4.671
4.661
4.661
4.657
4.653
4.657
4.657
4.657
4.656
4.653
4.648
4.642
4.642
4.650
4.654
4.660
4.667
4.673
4.680
4.686
4.693
4.699
4.706
4.712
4.719
4.725
4.727
4.732
4.723
4.721
4.714
4.712
4.718
4.715
4.720
4.714
4.709
4.713
4.700
4.703
4.702
4.695
4.701
4.710
4.716
4.717
4.718
4.708
4.713
4.717
4.713
4.709
4.703
4.700
4.702
4.704
4.702
4.701
4.704
4.713
4.711
4.711
4.713
4.701
4.701
4.706
4.705
4.698
4.699
4.696
4.700
4.701
4.698
4.692
4.693
4.689
4.693
4.691
4.687
4.690
4.691
4.687
4.684
4.683
4.687
4.690
4.696
4.695
4.697
4.699
4.693
4.696
4.705
4.703
4.702
4.703
4.697
4.697
4.698
4.694
4.693
4.698
4.704
4.710
4.716
4.722
4.728
4.734
4.739
4.739
4.745
4.742
4.743
4.739
4.731
4.730
4.725
4.725
4.722
4.721
4.717
4.709
4.703
4.712
4.705
4.698
4.696
4.695
4.690
4.693
4.690
4.690
4.686
4.684
4.688
4.688
4.690
4.695
4.687
4.685
4.680
4.686
4.683
4.679
4.685
4.683
4.684
4.691
4.694
4.689
4.688
4.689
4.688
4.681
4.682
4.684
4.681
4.678
4.679
4.680
4.682
4.683
4.684
4.678
4.672
4.670
4.667
4.665
4.661
4.664
4.660
4.655
4.654
4.656
4.655
4.650
4.644
4.646
4.648
4.650
4.646
4.642
4.643
4.642
4.638
4.640
4.648
4.648
4.651
4.656
4.656
4.647
4.651
4.656
4.661
4.666
4.672
4.677
4.682
4.687
4.693
4.698
4.703
4.708
4.713
4.718
4.724
4.729
4.734
4.739
4.745
4.750
4.754
4.749
4.745
4.741
4.744
4.747
4.746
4.752
4.749
4.756
4.764
4.761
4.755
4.759
4.756
4.752
4.746
4.740
4.744
4.735
4.737
4.739
4.736
4.730
4.721
4.718
4.724
4.721
4.717
4.712
4.710
4.715
4.718
4.715
4.709
4.714
4.715
4.711
4.714
4.708
4.704
4.713
4.710
4.705
4.700
4.695
4.690
4.685
4.680
4.678
4.677
4.681
4.680
4.673
4.674
4.671
4.673
4.667
4.665
4.666
4.668
4.668
4.672
4.670
4.672
4.670
4.663
4.656
4.649
4.648
4.648
4.655
4.661
4.668
4.666
4.666
4.673
4.676
4.676
4.680
4.673
4.675
4.677
4.671
4.670
4.672
4.672
4.670
4.669
4.666
4.675
