2.992
3.332
3.517
3.629
3.722
3.777
3.842
3.885
3.911
3.969
3.973
4.010
4.050
4.082
4.055
4.081
4.102
4.126
4.151
4.169
4.192
4.213
4.231
4.247
4.220
4.181
4.181
4.189
4.204
4.213
4.223
4.229
4.242
4.244
4.259
4.260
4.273
4.279
4.281
4.292
4.300
4.303
4.311
4.318
4.327
4.325
4.332
4.340
4.346
4.356
4.346
4.358
4.362
4.375
4.377
4.388
4.373
4.380
4.385
4.392
4.401
4.402
4.412
4.418
4.406
4.413
4.418
4.422
4.423
4.433
4.434
4.440
4.447
4.451
4.453
4.443
4.447
4.447
4.450
4.454
4.461
4.466
4.470
4.470
4.472
4.482
4.488
4.490
4.491
4.495
4.497
4.499
4.483
4.485
4.492
4.490
4.492
4.499
4.502
4.512
4.510
4.514
4.505
4.518
4.519
4.521
4.530
4.529
4.533
4.536
4.532
4.537
4.538
4.539
4.551
4.548
4.552
4.559
4.552
4.539
4.538
4.536
4.538
4.537
4.543
4.547
4.547
4.550
4.557
4.555
4.554
4.559
4.565
4.562
4.563
4.569
4.565
4.570
4.573
4.575
4.576
4.580
4.582
4.578
4.587
4.586
4.596
4.595
4.592
4.592
4.590
4.594
4.595
4.595
4.603
4.600
4.604
4.613
4.614
4.608
4.615
4.614
4.620
4.621
4.626
4.625
4.626
4.619
4.625
4.624
4.629
4.619
4.609
4.599
4.599
4.595
4.604
4.599
4.607
4.610
4.606
4.611
4.610
4.616
4.615
4.614
4.617
4.619
4.623
4.622
4.629
4.624
4.634
4.629
4.623
4.619
4.628
4.622
4.626
4.625
4.623
4.622
4.633
4.625
4.634
4.632
4.640
4.636
4.639
4.640
4.639
4.646
4.645
4.651
4.651
4.649
4.650
4.652
4.653
4.647
4.655
4.654
4.658
4.666
4.661
4.658
4.672
4.666
4.669
4.666
4.656
4.662
4.656
4.663
4.664
4.663
4.669
4.658
4.658
4.663
4.662
4.662
4.672
4.671
4.669
4.676
4.672
4.665
4.680
4.679
4.677
4.682
4.688
4.685
4.684
4.696
4.691
4.685
4.694
4.695
4.692
4.688
4.691
4.685
4.688
4.699
4.697
4.698
4.694
4.706
4.703
4.701
4.702
4.707
4.713
4.707
4.708
4.715
4.713
4.712
4.713
4.717
4.707
4.699
4.710
4.707
4.702
4.701
4.716
4.718
4.718
4.714
4.711
4.714
4.711
4.710
4.711
4.712
4.711
4.706
4.710
4.723
4.719
4.717
4.716
4.718
4.725
4.728
4.725
4.729
4.727
4.733
4.732
4.733
4.727
4.731
4.743
4.742
4.740
4.733
4.733
4.742
4.736
4.729
4.724
4.720
4.713
4.707
4.703
4.712
4.707
4.706
4.707
4.704
4.703
4.703
4.700
4.703
4.697
4.707
4.716
4.712
4.711
4.712
4.705
4.712
4.721
4.721
4.719
4.714
4.710
4.714
4.716
4.717
4.719
4.715
4.719
4.715
4.727
4.723
4.724
4.720
4.722
4.723
4.725
4.733
4.738
4.737
4.735
4.734
4.738
4.733
4.735
4.728
4.722
4.714
4.711
4.721
4.725
4.725
4.721
4.723
4.724
4.720
4.724
4.728
4.721
4.720
4.713
4.707
4.711
4.721
4.722
4.720
4.722
4.721
4.721
4.715
4.718
4.723
4.724
4.721
4.719
4.718
4.716
4.715
4.721
4.731
4.732
4.733
4.729
4.728
4.727
4.726
4.732
4.733
4.741
4.745
4.736
4.737
4.733
4.731
4.733
4.733
4.738
4.744
4.740
4.744
4.738
4.731
4.732
4.731
4.732
4.740
4.746
4.750
4.751
4.744
4.743
4.739
4.736
4.740
4.741
4.750
4.754
4.755
4.747
4.751
4.752
4.751
4.749
4.748
4.746
4.756
4.766
4.770
4.763
4.761
4.758
4.761
4.754
4.748
4.747
4.755
4.752
4.756
4.758
4.756
4.751
4.753
4.747
4.747
4.752
4.755
4.763
4.756
4.754
4.751
4.752
4.755
4.746
4.744
4.744
4.747
4.755
4.764
4.768
4.769
4.766
4.762
4.766
4.759
4.760
4.761
4.758
4.759
4.762
4.772
4.777
4.773
4.773
4.778
4.774
4.767
4.758
4.759
4.755
4.761
4.763
4.770
4.781
4.780
4.777
4.777
4.777
4.775
4.779
4.777
4.773
4.773
4.774
4.770
4.777
4.784
4.793
4.795
4.798
4.799
4.799
4.792
4.788
4.783
4.784
4.791
4.784
4.778
4.785
4.792
4.793
4.791
4.795
4.795
4.790
4.789
4.788
4.784
4.787
4.788
4.784
4.778
4.781
4.780
4.774
4.769
4.770
4.767
4.770
4.766
4.768
4.769
4.766
4.767
4.765
4.772
4.781
4.777
4.782
4.783
4.781
4.780
4.781
4.775
4.771
4.766
4.760
4.756
4.754
4.762
4.770
4.770
4.773
4.770
4.770
4.772
4.771
4.778
4.773
4.769
4.771
4.769
4.762
4.762
4.762
4.761
4.770
4.775
4.782
4.781
4.779
4.781
4.781
4.781
4.779
4.775
4.774
4.778
4.781
4.781
4.781
4.781
4.777
4.775
4.776
4.783
4.790
4.789
4.787
4.792
4.788
4.786
4.781
4.777
4.779
4.775
4.774
4.777
4.774
4.780
4.777
4.777
4.776
4.781
4.790
4.794
4.790
4.786
4.782
4.777
4.777
4.781
4.785
4.780
4.776
4.775
4.771
4.773
4.773
4.769
4.773
4.775
4.782
4.789
4.795
4.802
4.801
4.799
4.798
4.794
4.792
4.792
4.795
4.789
4.785
4.789
4.793
4.792
4.788
4.791
4.792
4.792
4.795
4.788
4.793
4.800
4.806
4.810
4.804
4.807
4.804
4.803
4.803
4.800
4.798
4.800
4.804
4.800
4.799
4.792
4.787
4.784
4.793
4.788
4.787
4.788
4.795
4.802
4.807
4.810
4.809
4.810
4.806
4.808
4.807
4.807
4.803
4.803
4.810
4.811
4.810
4.810
4.806
4.803
4.803
4.803
4.806
4.805
4.803
4.800
4.799
4.807
4.812
4.818
4.825
4.832
4.834
4.830
4.833
4.830
4.828
4.825
4.820
4.819
4.815
4.818
4.818
4.816
4.818
4.825
4.821
4.816
4.810
4.808
4.809
4.808
4.812
4.813
4.820
4.824
4.823
4.819
4.818
4.822
4.818
4.816
4.810
4.807
4.803
4.799
4.796
4.799
4.795
4.795
4.793
4.792
4.796
4.794
4.798
4.799
4.799
4.797
4.803
4.808
4.814
4.819
4.826
4.829
4.828
4.827
4.823
4.818
4.818
4.816
4.810
4.805
4.804
4.802
4.801
4.802
4.806
4.808
4.807
4.802
4.795
4.791
4.795
4.791
4.790
4.792
4.798
4.805
4.810
4.814
4.821
4.819
4.821
4.827
4.828
4.827
4.825
4.827
4.821
4.822
4.821
4.824
4.823
4.824
4.823
4.819
4.818
4.821
4.820
4.814
4.815
4.814
4.814
4.813
4.807
4.807
4.806
4.802
4.806
4.811
4.817
4.821
4.826
4.829
4.831
4.829
4.825
4.829
4.831
4.830
4.826
4.827
4.829
4.829
4.833
4.829
4.829
4.829
4.828
4.829
4.831
4.830
4.828
4.830
4.829
4.829
4.833
4.827
4.821
4.821
4.817
4.821
4.821
4.818
4.820
4.825
4.831
4.835
4.840
4.846
4.847
4.847
4.847
4.844
4.845
4.843
4.842
4.843
4.837
4.838
4.842
4.844
4.847
4.843
4.842
4.843
4.847
4.851
4.851
4.852
4.848
4.851
4.847
4.843
4.840
4.840
4.837
4.835
4.834
4.833
4.834
4.835
4.833
4.835
4.840
4.844
4.850
4.854
4.855
4.857
4.856
4.858
4.862
4.862
4.858
4.854
4.853
4.852
4.850
4.849
4.847
4.849
4.856
4.855
4.851
4.851
4.848
4.843
4.839
4.836
4.831
4.830
4.826
4.827
4.826
4.825
4.826
4.827
4.826
4.825
4.826
4.829
4.833
4.838
4.840
4.846
4.851
4.857
4.855
4.852
4.853
4.858
4.856
4.852
4.848
4.849
4.848
4.847
4.845
4.851
4.851
4.851
4.850
4.849
4.848
4.851
4.850
4.844
4.840
4.841
4.839
4.838
4.837
4.836
4.839
4.836
4.837
4.840
4.840
4.838
4.840
4.838
4.837
4.836
4.839
4.844
4.844
4.841
4.847
4.852
4.856
4.860
4.864
4.870
4.872
4.870
4.867
4.868
