2.994
3.334
3.513
3.623
3.714
3.792
3.842
3.861
3.923
3.962
3.949
3.987
4.029
4.061
4.094
4.121
4.101
4.055
4.071
4.085
4.098
4.112
4.128
4.138
4.147
4.165
4.169
4.183
4.204
4.200
4.218
4.231
4.226
4.238
4.246
4.261
4.257
4.264
4.275
4.288
4.294
4.290
4.292
4.304
4.311
4.326
4.327
4.340
4.328
4.331
4.341
4.343
4.355
4.359
4.371
4.367
4.377
4.389
4.377
4.368
4.375
4.383
4.386
4.397
4.394
4.403
4.409
4.414
4.420
4.422
4.427
4.433
4.438
4.441
4.453
4.436
4.420
4.425
4.431
4.438
4.438
4.442
4.454
4.447
4.449
4.452
4.457
4.466
4.467
4.471
4.473
4.479
4.476
4.482
4.476
4.483
4.490
4.499
4.505
4.507
4.506
4.513
4.514
4.523
4.509
4.520
4.512
4.518
4.514
4.497
4.495
4.491
4.495
4.505
4.509
4.509
4.512
4.509
4.514
4.524
4.528
4.516
4.509
4.520
4.516
4.521
4.517
4.531
4.528
4.529
4.539
4.534
4.544
4.551
4.536
4.538
4.546
4.549
4.558
4.559
4.564
4.557
4.569
4.553
4.555
4.562
4.557
4.557
4.550
4.570
4.557
4.564
4.558
4.571
4.571
4.579
4.582
4.579
4.586
4.578
4.593
4.581
4.591
4.587
4.593
4.595
4.591
4.605
4.604
4.603
4.605
4.608
4.612
4.612
4.609
4.608
4.597
4.614
4.610
4.606
4.610
4.603
4.604
4.608
4.604
4.609
4.613
4.612
4.613
4.630
4.626
4.620
4.632
4.630
4.627
4.634
4.635
4.633
4.631
4.652
4.643
4.642
4.643
4.633
4.624
4.616
4.607
4.601
4.607
4.605
4.604
4.609
4.615
4.612
4.610
4.614
4.613
4.612
4.607
4.617
4.620
4.620
4.615
4.617
4.637
4.636
4.632
4.627
4.632
4.644
4.632
4.631
4.626
4.622
4.623
4.612
4.616
4.622
4.621
4.612
4.604
4.620
4.623
4.614
4.612
4.609
4.621
4.620
4.623
4.619
4.615
4.623
4.638
4.636
4.632
4.633
4.620
4.634
4.642
4.644
4.640
4.627
4.627
4.642
4.638
4.644
4.640
4.633
4.631
4.646
4.648
4.642
4.646
4.644
4.645
4.647
4.662
4.661
4.660
4.653
4.657
4.655
4.657
4.658
4.659
4.655
4.646
4.644
4.648
4.661
4.659
4.660
4.649
4.644
4.645
4.649
4.662
4.668
4.665
4.658
4.654
4.661
4.657
4.660
4.673
4.683
4.671
4.672
4.659
4.657
4.654
4.664
4.678
4.688
4.679
4.675
4.679
4.679
4.679
4.672
4.678
4.691
4.698
4.699
4.690
4.688
4.686
4.686
4.684
4.688
4.694
4.693
4.690
4.697
4.703
4.696
4.689
4.685
4.686
4.693
4.684
4.677
4.668
4.669
4.664
4.660
4.665
4.677
4.687
4.685
4.681
4.679
4.673
4.663
4.657
4.661
4.665
4.677
4.678
4.671
4.675
4.675
4.670
4.666
4.665
4.666
4.665
4.671
4.683
4.694
4.694
4.694
4.694
4.683
4.683
4.677
4.679
4.672
4.668
4.679
4.692
4.690
4.692
4.701
4.698
4.688
4.678
4.672
4.670
4.669
4.670
4.680
4.690
4.693
4.694
4.693
4.690
4.690
4.692
4.690
4.684
4.682
4.681
4.677
4.684
4.696
4.706
4.715
4.714
4.712
4.705
4.702
4.700
4.694
4.695
4.694
4.695
4.693
4.689
4.701
4.711
4.707
4.703
4.705
4.703
4.704
4.706
4.704
4.701
4.696
4.698
4.702
4.700
4.705
4.705
4.715
4.725
4.729
4.730
4.731
4.722
4.723
4.730
4.726
4.720
4.718
4.714
4.713
4.716
4.710
4.709
4.720
4.728
4.738
4.738
4.740
4.734
4.731
4.723
4.720
4.717
4.718
4.719
4.718
4.711
4.704
4.701
4.710
4.720
4.726
4.723
4.721
4.725
4.724
4.720
4.716
4.712
4.712
4.709
4.701
4.697
4.696
4.697
4.691
4.701
4.710
4.719
4.729
4.725
4.721
4.717
4.724
4.722
4.723
4.720
4.727
4.725
4.721
4.725
4.721
4.722
4.712
4.703
4.702
4.706
4.715
4.722
4.727
4.734
4.734
4.733
4.735
4.734
4.734
4.734
4.737
4.728
4.726
4.725
4.729
4.731
4.740
4.733
4.727
4.723
4.721
4.714
4.723
4.731
4.738
4.747
4.748
4.747
4.751
4.750
4.749
4.753
4.756
4.760
4.756
4.753
4.756
4.752
4.746
4.746
4.742
4.741
4.735
4.738
4.742
4.741
4.740
4.742
4.748
4.755
4.764
4.771
4.768
4.764
4.764
4.763
4.756
4.757
4.753
4.749
4.753
4.749
4.756
4.752
4.745
4.739
4.734
4.730
4.729
4.728
4.723
4.728
4.737
4.744
4.751
4.760
4.762
4.769
4.765
4.761
4.757
4.757
4.754
4.755
4.753
4.755
4.753
4.752
4.753
4.749
4.743
4.742
4.751
4.750
4.753
4.750
4.753
4.749
4.745
4.746
4.746
4.747
4.756
4.763
4.770
4.777
4.781
4.780
4.781
4.782
4.784
4.786
4.779
4.782
4.779
4.775
4.778
4.780
4.779
4.777
4.776
4.780
4.778
4.775
4.775
4.777
4.776
4.780
4.778
4.771
4.768
4.769
4.768
4.764
4.767
4.774
4.779
4.786
4.795
4.802
4.803
4.801
4.794
4.785
4.781
4.783
4.789
4.788
4.787
4.786
4.784
4.780
4.776
4.774
4.768
4.764
4.760
4.757
4.753
4.749
4.745
4.739
4.735
4.733
4.740
4.747
4.754
4.760
4.767
4.772
4.771
4.768
4.776
4.779
4.778
4.782
4.778
4.779
4.771
4.769
4.764
4.760
4.756
4.750
4.746
4.741
4.743
4.738
4.735
4.733
4.735
4.741
4.745
4.741
4.742
4.742
4.743
4.742
4.745
4.742
4.742
4.741
4.743
4.750
4.756
4.763
4.768
4.775
4.770
4.763
4.756
4.757
4.753
4.749
4.746
4.747
4.753
4.758
4.762
4.761
4.760
4.760
4.759
4.758
4.754
4.752
4.751
4.752
4.753
4.753
4.749
4.747
4.746
4.747
4.745
4.742
4.751
4.753
4.748
4.744
4.745
4.744
4.748
4.746
4.745
4.752
4.757
4.764
4.768
4.771
4.768
4.766
4.768
4.764
4.771
4.768
4.764
4.761
4.759
4.758
4.762
4.761
4.756
4.753
4.746
4.742
4.740
4.739
4.737
4.742
4.746
4.750
4.751
4.749
4.748
4.744
4.743
4.749
4.743
4.744
4.742
4.736
4.731
4.730
4.732
4.733
4.732
4.733
4.727
4.736
4.738
4.746
4.751
4.757
4.760
4.768
4.773
4.779
4.786
4.785
4.786
4.786
4.787
4.780
4.784
4.782
4.784
4.780
4.781
4.775
4.770
4.769
4.768
4.774
4.771
4.764
4.762
4.761
4.762
4.761
4.762
4.755
4.753
4.750
4.746
4.742
4.735
4.731
4.737
4.734
4.737
4.739
4.746
4.747
4.749
4.752
4.749
4.749
4.751
4.747
4.748
4.747
4.740
4.738
4.743
4.749
4.754
4.760
4.764
4.769
4.775
4.779
4.776
4.780
4.778
4.777
4.781
4.779
4.779
4.775
4.781
4.780
4.776
4.774
4.775
4.774
4.775
4.772
4.773
4.774
4.771
4.779
4.779
4.779
4.775
4.772
4.770
4.771
4.768
4.768
4.773
4.771
4.771
4.768
4.762
4.763
4.759
4.761
4.757
4.752
4.753
4.749
4.746
4.747
4.746
4.747
4.746
4.742
4.737
4.734
4.731
4.727
4.729
4.734
4.740
4.747
4.751
4.755
4.759
4.764
4.770
4.775
4.781
4.783
4.789
4.794
4.800
4.801
4.800
4.793
4.794
4.794
4.798
4.796
4.792
4.790
4.789
4.790
4.797
4.790
4.784
4.779
4.784
4.782
4.779
4.783
4.784
4.786
4.794
4.793
4.790
4.783
4.779
4.779
4.776
4.769
4.765
4.760
4.757
4.763
4.765
4.766
4.770
4.768
4.773
4.771
4.768
4.766
4.767
4.766
4.767
4.769
4.773
4.774
4.776
4.774
4.771
4.768
4.765
4.763
4.757
4.758
4.757
4.758
4.753
4.752
4.754
4.758
4.757
4.761
4.767
4.772
4.776
4.782
4.786
4.790
4.794
4.799
4.800
4.799
4.801
4.804
4.808
4.810
4.805
