2.994
3.331
3.517
3.636
3.723
3.782
3.840
3.875
3.940
3.946
3.991
4.034
4.008
4.039
4.069
4.092
4.123
4.143
4.170
4.190
4.175
4.130
4.134
4.144
4.155
4.163
4.180
4.185
4.203
4.207
4.222
4.223
4.236
4.248
4.247
4.259
4.268
4.267
4.281
4.291
4.301
4.295
4.306
4.314
4.320
4.330
4.321
4.333
4.337
4.347
4.351
4.360
4.366
4.362
4.366
4.369
4.381
4.381
4.389
4.398
4.399
4.407
4.394
4.401
4.402
4.407
4.414
4.420
4.424
4.426
4.433
4.440
4.441
4.444
4.452
4.444
4.436
4.439
4.443
4.445
4.452
4.458
4.465
4.461
4.463
4.470
4.477
4.478
4.482
4.488
4.487
4.489
4.490
4.499
4.503
4.507
4.512
4.502
4.488
4.486
4.490
4.491
4.495
4.505
4.510
4.505
4.512
4.519
4.510
4.513
4.518
4.519
4.520
4.524
4.529
4.533
4.531
4.535
4.539
4.543
4.544
4.544
4.548
4.549
4.550
4.552
4.555
4.558
4.562
4.568
4.567
4.574
4.575
4.576
4.575
4.584
4.573
4.581
4.583
4.576
4.575
4.562
4.550
4.551
4.559
4.562
4.555
4.563
4.570
4.569
4.567
4.574
4.572
4.574
4.577
4.576
4.586
4.584
4.575
4.584
4.572
4.579
4.581
4.577
4.583
4.585
4.589
4.587
4.591
4.587
4.597
4.595
4.603
4.596
4.611
4.606
4.605
4.603
4.605
4.606
4.616
4.614
4.622
4.618
4.622
4.625
4.619
4.612
4.613
4.615
4.614
4.621
4.614
4.620
4.619
4.618
4.627
4.620
4.630
4.625
4.622
4.636
4.629
4.632
4.641
4.637
4.643
4.647
4.643
4.648
4.649
4.648
4.646
4.644
4.646
4.655
4.654
4.651
4.662
4.658
4.654
4.662
4.669
4.662
4.663
4.673
4.674
4.661
4.677
4.666
4.657
4.664
4.663
4.662
4.671
4.672
4.669
4.664
4.671
4.667
4.658
4.670
4.669
4.669
4.668
4.680
4.674
4.672
4.674
4.686
4.690
4.683
4.681
4.689
4.692
4.689
4.687
4.691
4.703
4.694
4.690
4.692
4.703
4.695
4.688
4.683
4.676
4.669
4.662
4.670
4.662
4.653
4.655
4.669
4.669
4.664
4.662
4.662
4.676
4.670
4.673
4.669
4.669
4.669
4.666
4.666
4.669
4.672
4.682
4.680
4.676
4.670
4.677
4.683
4.688
4.689
4.688
4.688
4.688
4.692
4.695
4.695
4.690
4.686
4.682
4.677
4.677
4.673
4.674
4.675
4.684
4.678
4.674
4.677
4.673
4.675
4.677
4.678
4.673
4.675
4.673
4.673
4.684
4.675
4.676
4.672
4.668
4.670
4.684
4.689
4.687
4.678
4.687
4.681
4.679
4.689
4.703
4.695
4.690
4.688
4.687
4.691
4.692
4.702
4.698
4.697
4.693
4.688
4.685
4.688
4.699
4.710
4.701
4.703
4.698
4.695
4.698
4.695
4.706
4.708
4.710
4.710
4.706
4.703
4.710
4.711
4.710
4.721
4.720
4.718
4.721
4.721
4.717
4.708
4.706
4.716
4.718
4.716
4.710
4.708
4.710
4.708
4.701
4.711
4.715
4.713
4.712
4.705
4.706
4.707
4.709
4.708
4.712
4.724
4.726
4.727
4.718
4.721
4.723
4.722
4.717
4.718
4.720
4.730
4.742
4.735
4.725
4.721
4.721
4.719
4.720
4.716
4.721
4.730
4.737
4.740
4.740
4.736
4.736
4.736
4.736
4.730
4.736
4.738
4.739
4.751
4.756
4.749
4.751
4.752
4.744
4.740
4.740
4.743
4.744
4.743
4.748
4.755
4.753
4.754
4.751
4.751
4.750
4.755
4.750
4.743
4.737
4.732
4.729
4.733
4.736
4.733
4.732
4.724
4.721
4.725
4.721
4.722
4.731
4.741
4.742
4.740
4.739
4.730
4.725
4.718
4.714
4.714
4.709
4.714
4.723
4.732
4.737
4.736
4.736
4.730
4.731
4.729
4.725
4.724
4.729
4.727
4.720
4.721
4.729
4.736
4.742
4.746
4.748
4.744
4.751
4.747
4.747
4.746
4.742
4.735
4.729
4.732
4.736
4.735
4.744
4.746
4.748
4.746
4.744
4.746
4.740
4.743
4.744
4.736
4.734
4.732
4.729
4.725
4.731
4.741
4.742
4.747
4.747
4.744
4.742
4.743
4.742
4.740
4.745
4.744
4.742
4.741
4.740
4.736
4.736
4.740
4.750
4.757
4.764
4.758
4.759
4.757
4.762
4.763
4.759
4.762
4.761
4.762
4.756
4.746
4.747
4.746
4.748
4.747
4.756
4.763
4.772
4.766
4.759
4.762
4.753
4.757
4.758
4.754
4.756
4.755
4.759
4.752
4.747
4.749
4.753
4.749
4.751
4.760
4.767
4.776
4.772
4.782
4.781
4.774
4.777
4.781
4.777
4.774
4.775
4.773
4.772
4.774
4.772
4.777
4.777
4.777
4.769
4.765
4.770
4.777
4.784
4.793
4.791
4.785
4.778
4.779
4.784
4.784
4.784
4.785
4.781
4.777
4.778
4.774
4.769
4.763
4.766
4.765
4.770
4.768
4.775
4.773
4.773
4.771
4.770
4.771
4.772
4.771
4.769
4.768
4.764
4.768
4.772
4.769
4.769
4.769
4.770
4.763
4.761
4.757
4.758
4.762
4.769
4.776
4.775
4.766
4.770
4.773
4.773
4.773
4.770
4.771
4.766
4.765
4.767
4.766
4.764
4.763
4.766
4.765
4.766
4.768
4.767
4.769
4.772
4.771
4.767
4.774
4.781
4.787
4.786
4.784
4.786
4.785
4.780
4.779
4.778
4.781
4.784
4.782
4.778
4.773
4.770
4.771
4.770
4.776
4.775
4.774
4.770
4.771
4.769
4.768
4.769
4.776
4.778
4.785
4.791
4.796
4.803
4.807
4.800
4.804
4.800
4.796
4.794
4.792
4.789
4.790
4.786
4.790
4.791
4.788
4.792
4.795
4.792
4.790
4.789
4.788
4.789
4.788
4.791
4.788
4.786
4.787
4.789
4.793
4.800
4.806
4.811
4.818
4.814
4.814
4.814
4.820
4.814
4.821
4.819
4.817
4.811
4.804
4.803
4.799
4.802
4.806
4.803
4.804
4.805
4.806
4.805
4.799
4.799
4.799
4.799
4.801
4.795
4.795
4.795
4.798
4.803
4.807
4.810
4.809
4.807
4.809
4.808
4.804
4.807
4.804
4.799
4.795
4.797
4.799
4.799
4.806
4.805
4.803
4.805
4.803
4.800
4.801
4.795
4.795
4.792
4.790
4.791
4.788
4.789
4.787
4.789
4.793
4.789
4.796
4.802
4.809
4.813
4.818
4.825
4.829
4.824
4.823
4.824
4.821
4.818
4.821
4.825
4.828
4.822
4.817
4.814
4.815
4.814
4.814
4.813
4.814
4.818
4.817
4.816
4.815
4.819
4.818
4.813
4.814
4.814
4.814
4.814
4.815
4.813
4.817
4.819
4.814
4.813
4.814
4.816
4.823
4.829
4.832
4.838
4.844
4.851
4.853
4.851
4.845
4.846
4.847
4.852
4.848
4.851
4.848
4.843
4.837
4.833
4.834
4.838
4.836
4.833
4.831
4.827
4.823
4.821
4.825
4.827
4.826
4.825
4.823
4.824
4.820
4.824
4.828
4.835
4.828
4.822
4.823
4.819
4.820
4.819
4.825
4.830
4.834
4.830
4.826
4.824
4.821
4.819
4.815
4.811
4.809
4.808
4.809
4.810
4.814
4.807
4.809
4.813
4.812
4.810
4.807
4.805
4.804
4.802
4.803
4.802
4.807
4.808
4.809
4.805
4.804
4.803
4.801
4.802
4.799
4.800
4.798
4.800
4.801
4.802
4.801
4.799
4.804
4.810
4.809
4.811
4.815
4.822
4.823
4.822
4.821
4.819
4.815
4.813
4.814
4.813
4.812
4.814
4.817
4.814
4.814
4.813
4.812
4.813
4.814
4.814
4.814
4.814
4.809
4.803
4.799
4.797
4.796
4.795
4.798
4.799
4.801
4.802
4.803
4.799
4.799
4.799
4.799
4.795
4.788
4.788
4.788
4.789
4.788
4.788
4.792
4.797
4.803
4.807
4.810
4.816
4.820
4.825
4.825
4.824
4.820
4.821
4.818
4.816
4.818
4.816
4.820
4.822
4.821
4.822
4.825
4.830
4.828
4.829
4.829
4.829
4.825
4.819
4.815
4.811
4.814
4.813
4.814
4.814
4.812
4.807
4.810
4.808
4.804
4.803
4.804
4.810
4.809
