2.994
3.333
3.511
3.632
3.727
3.765
3.849
3.864
3.928
3.915
3.955
3.997
4.028
4.064
4.098
4.111
4.049
4.050
4.069
4.083
4.094
4.115
4.129
4.133
4.156
4.157
4.174
4.185
4.192
4.203
4.209
4.215
4.234
4.245
4.238
4.246
4.262
4.275
4.285
4.274
4.281
4.290
4.296
4.312
4.320
4.330
4.316
4.320
4.327
4.339
4.338
4.350
4.363
4.357
4.369
4.375
4.363
4.359
4.370
4.377
4.379
4.385
4.389
4.398
4.401
4.410
4.413
4.416
4.423
4.427
4.433
4.434
4.412
4.414
4.413
4.423
4.429
4.427
4.440
4.439
4.435
4.443
4.446
4.454
4.460
4.456
4.470
4.472
4.463
4.471
4.471
4.475
4.479
4.482
4.490
4.497
4.500
4.505
4.511
4.500
4.508
4.503
4.509
4.503
4.484
4.486
4.488
4.486
4.495
4.488
4.497
4.502
4.510
4.503
4.514
4.503
4.501
4.512
4.507
4.507
4.513
4.518
4.509
4.526
4.530
4.525
4.534
4.534
4.520
4.536
4.537
4.543
4.551
4.545
4.554
4.546
4.542
4.550
4.543
4.544
4.541
4.548
4.548
4.550
4.552
4.558
4.556
4.566
4.564
4.573
4.570
4.575
4.574
4.575
4.574
4.581
4.582
4.578
4.584
4.582
4.600
4.589
4.592
4.600
4.596
4.606
4.604
4.597
4.593
4.594
4.608
4.596
4.595
4.592
4.585
4.604
4.596
4.595
4.611
4.611
4.611
4.615
4.620
4.609
4.617
4.629
4.623
4.617
4.633
4.631
4.627
4.638
4.638
4.628
4.619
4.609
4.599
4.592
4.590
4.591
4.602
4.599
4.595
4.601
4.598
4.595
4.597
4.608
4.609
4.602
4.599
4.611
4.619
4.618
4.621
4.615
4.628
4.624
4.623
4.616
4.621
4.609
4.606
4.605
4.605
4.605
4.606
4.605
4.608
4.612
4.601
4.596
4.603
4.608
4.609
4.604
4.601
4.607
4.624
4.620
4.616
4.626
4.617
4.626
4.629
4.628
4.627
4.625
4.621
4.626
4.625
4.627
4.623
4.618
4.631
4.636
4.633
4.630
4.629
4.626
4.636
4.650
4.648
4.647
4.641
4.639
4.642
4.653
4.655
4.649
4.637
4.636
4.632
4.649
4.646
4.646
4.642
4.641
4.629
4.639
4.648
4.657
4.654
4.644
4.642
4.645
4.642
4.657
4.667
4.661
4.666
4.658
4.652
4.643
4.653
4.668
4.670
4.663
4.663
4.668
4.661
4.658
4.659
4.674
4.688
4.689
4.685
4.683
4.675
4.674
4.667
4.673
4.688
4.689
4.678
4.681
4.681
4.682
4.675
4.683
4.681
4.695
4.686
4.678
4.670
4.661
4.653
4.653
4.667
4.673
4.673
4.674
4.669
4.662
4.663
4.659
4.650
4.660
4.669
4.665
4.661
4.660
4.659
4.656
4.653
4.656
4.651
4.660
4.674
4.681
4.678
4.682
4.678
4.674
4.672
4.671
4.667
4.659
4.665
4.678
4.676
4.676
4.681
4.679
4.679
4.675
4.676
4.666
4.659
4.662
4.674
4.678
4.682
4.676
4.671
4.675
4.681
4.678
4.675
4.671
4.665
4.663
4.674
4.686
4.698
4.705
4.698
4.698
4.697
4.691
4.692
4.688
4.685
4.683
4.677
4.675
4.687
4.699
4.696
4.693
4.691
4.692
4.688
4.688
4.690
4.689
4.685
4.681
4.689
4.687
4.690
4.701
4.712
4.714
4.714
4.718
4.713
4.711
4.716
4.717
4.714
4.713
4.703
4.697
4.703
4.701
4.703
4.714
4.725
4.728
4.727
4.717
4.720
4.719
4.718
4.715
4.706
4.703
4.703
4.704
4.709
4.703
4.704
4.712
4.704
4.705
4.712
4.715
4.714
4.713
4.707
4.698
4.699
4.700
4.696
4.691
4.690
4.685
4.693
4.703
4.713
4.711
4.710
4.703
4.708
4.710
4.705
4.705
4.713
4.713
4.710
4.710
4.707
4.710
4.709
4.709
4.701
4.698
4.708
4.718
4.720
4.720
4.716
4.723
4.723
4.720
4.716
4.718
4.714
4.711
4.713
4.710
4.718
4.730
4.724
4.719
4.717
4.714
4.708
4.717
4.726
4.736
4.739
4.735
4.739
4.732
4.735
4.738
4.741
4.739
4.741
4.743
4.737
4.734
4.739
4.739
4.730
4.731
4.724
4.730
4.729
4.726
4.727
4.737
4.745
4.755
4.759
4.756
4.762
4.752
4.754
4.747
4.746
4.739
4.740
4.744
4.741
4.742
4.736
4.735
4.739
4.734
4.727
4.719
4.712
4.720
4.729
4.737
4.746
4.752
4.753
4.751
4.751
4.748
4.745
4.744
4.738
4.741
4.742
4.741
4.739
4.737
4.734
4.732
4.732
4.739
4.738
4.740
4.736
4.735
4.730
4.730
4.735
4.736
4.744
4.752
4.760
4.765
4.766
4.764
4.765
4.767
4.765
4.768
4.770
4.775
4.771
4.765
4.767
4.768
4.766
4.767
4.765
4.761
4.761
4.759
4.757
4.759
4.767
4.766
4.765
4.760
4.761
4.760
4.760
4.760
4.768
4.776
4.784
4.787
4.790
4.789
4.786
4.779
4.778
4.773
4.772
4.772
4.776
4.779
4.781
4.772
4.780
4.776
4.772
4.767
4.763
4.758
4.754
4.750
4.745
4.741
4.737
4.732
4.738
4.745
4.753
4.760
4.763
4.757
4.760
4.763
4.762
4.766
4.768
4.765
4.766
4.760
4.758
4.762
4.756
4.757
4.751
4.746
4.741
4.735
4.730
4.725
4.724
4.731
4.727
4.732
4.729
4.726
4.733
4.731
4.729
4.727
4.734
4.735
4.742
4.749
4.756
4.763
4.765
4.756
4.754
4.751
4.750
4.747
4.740
4.733
4.737
4.745
4.755
4.754
4.745
4.743
4.744
4.745
4.741
4.739
4.738
4.738
4.736
4.741
4.738
4.732
4.731
4.730
4.731
4.736
4.736
4.734
4.734
4.733
4.730
4.740
4.740
4.738
4.745
4.751
4.758
4.765
4.771
4.769
4.763
4.758
4.755
4.757
4.750
4.751
4.753
4.756
4.750
4.748
4.739
4.738
4.740
4.737
4.734
4.733
4.727
4.730
4.737
4.737
4.734
4.733
4.734
4.729
4.732
4.727
4.730
4.734
4.729
4.728
4.726
4.720
4.717
4.721
4.720
4.722
4.728
4.735
4.741
4.747
4.753
4.760
4.766
4.772
4.773
4.770
4.770
4.770
4.773
4.769
4.778
4.775
4.773
4.771
4.770
4.772
4.771
4.766
4.761
4.755
4.753
4.749
4.753
4.748
4.744
4.747
4.748
4.745
4.743
4.739
4.738
4.739
4.735
4.729
4.723
4.728
4.733
4.732
4.736
4.735
4.733
4.734
4.736
4.735
4.734
4.730
4.727
4.732
4.738
4.744
4.750
4.756
4.762
4.767
4.770
4.769
4.771
4.765
4.762
4.766
4.761
4.766
4.767
4.770
4.765
4.763
4.762
4.755
4.759
4.761
4.757
4.757
4.760
4.768
4.769
4.773
4.769
4.771
4.765
4.759
4.754
4.754
4.756
4.761
4.758
4.756
4.756
4.752
4.753
4.752
4.756
4.754
4.748
4.742
4.737
4.732
4.730
4.733
4.728
4.727
4.727
4.726
4.723
4.723
4.729
4.735
4.740
4.746
4.751
4.757
4.762
4.767
4.773
4.778
4.784
4.789
4.792
4.788
4.792
4.786
4.785
4.782
4.781
4.779
4.777
4.777
4.775
4.780
4.777
4.777
4.772
4.774
4.771
4.765
4.772
4.771
4.774
4.774
4.777
4.775
4.773
4.772
4.766
4.762
4.762
4.763
4.759
4.755
4.753
4.756
4.757
4.754
4.757
4.757
4.753
4.750
4.754
4.749
4.753
4.755
4.762
4.763
4.764
4.764
4.763
4.760
4.753
4.745
4.747
4.745
4.744
4.740
4.742
4.743
4.747
4.752
4.758
4.763
4.768
4.773
4.778
4.783
4.788
4.793
4.795
4.792
4.792
4.793
4.798
4.792
4.792
4.796
4.794
4.793
4.790
4.791
4.797
4.802
4.803
4.802
4.800
4.798
4.797
4.792
4.787
4.782
4.785
4.781
4.779
4.782
4.785
4.784
4.787
4.788
4.787
4.787
4.788
4.782
4.785
4.784
4.780
4.778
4.781
4.788
4.786
4.781
4.781
4.778
4.782
4.780
4.782
4.783
4.781
4.781
4.780
4.779
4.775
4.771
4.770
4.772
4.770
4.777
4.777
4.772
