2.995
3.328
3.502
3.629
3.721
3.788
3.845
3.864
3.927
3.934
3.955
3.993
4.029
4.065
4.095
4.129
4.074
4.049
4.064
4.077
4.101
4.117
4.125
4.145
4.148
4.169
4.173
4.187
4.186
4.206
4.216
4.212
4.229
4.239
4.251
4.249
4.259
4.265
4.277
4.289
4.279
4.285
4.299
4.303
4.319
4.325
4.337
4.321
4.321
4.335
4.344
4.346
4.356
4.363
4.367
4.375
4.384
4.368
4.370
4.371
4.382
4.389
4.385
4.391
4.401
4.403
4.414
4.414
4.413
4.422
4.433
4.438
4.447
4.432
4.417
4.420
4.420
4.435
4.433
4.438
4.450
4.439
4.444
4.445
4.456
4.457
4.464
4.466
4.470
4.474
4.473
4.477
4.474
4.484
4.491
4.491
4.495
4.495
4.508
4.503
4.510
4.504
4.508
4.507
4.507
4.513
4.495
4.489
4.488
4.499
4.498
4.499
4.494
4.501
4.512
4.512
4.511
4.522
4.506
4.509
4.509
4.508
4.514
4.518
4.519
4.520
4.532
4.527
4.534
4.546
4.531
4.527
4.545
4.537
4.551
4.547
4.553
4.553
4.556
4.549
4.541
4.551
4.549
4.551
4.555
4.557
4.560
4.553
4.564
4.561
4.566
4.574
4.568
4.579
4.577
4.585
4.579
4.581
4.578
4.586
4.585
4.586
4.591
4.596
4.600
4.598
4.597
4.606
4.602
4.606
4.607
4.592
4.603
4.602
4.604
4.600
4.598
4.602
4.597
4.595
4.606
4.606
4.601
4.619
4.620
4.616
4.625
4.625
4.619
4.626
4.634
4.622
4.624
4.645
4.639
4.636
4.643
4.636
4.626
4.616
4.607
4.597
4.601
4.594
4.596
4.608
4.605
4.605
4.602
4.604
4.602
4.607
4.604
4.616
4.609
4.610
4.610
4.627
4.623
4.631
4.621
4.625
4.633
4.634
4.626
4.622
4.614
4.618
4.608
4.613
4.616
4.614
4.611
4.602
4.617
4.614
4.606
4.604
4.607
4.609
4.615
4.615
4.606
4.608
4.627
4.625
4.625
4.631
4.622
4.624
4.635
4.632
4.630
4.630
4.618
4.633
4.630
4.633
4.632
4.625
4.626
4.643
4.640
4.637
4.637
4.634
4.629
4.645
4.657
4.657
4.654
4.646
4.649
4.649
4.659
4.657
4.644
4.645
4.641
4.638
4.652
4.654
4.652
4.651
4.641
4.633
4.640
4.656
4.661
4.656
4.654
4.647
4.654
4.649
4.655
4.670
4.671
4.668
4.668
4.657
4.648
4.649
4.663
4.675
4.674
4.671
4.670
4.670
4.665
4.665
4.666
4.681
4.693
4.693
4.688
4.686
4.676
4.679
4.673
4.677
4.692
4.685
4.685
4.690
4.692
4.691
4.680
4.686
4.681
4.694
4.686
4.678
4.669
4.664
4.656
4.652
4.664
4.678
4.677
4.683
4.674
4.670
4.668
4.663
4.653
4.655
4.668
4.675
4.667
4.668
4.670
4.664
4.658
4.659
4.660
4.653
4.665
4.678
4.688
4.686
4.688
4.684
4.680
4.675
4.676
4.672
4.668
4.666
4.679
4.686
4.683
4.686
4.691
4.689
4.683
4.677
4.668
4.667
4.660
4.672
4.684
4.685
4.685
4.681
4.678
4.686
4.683
4.683
4.680
4.674
4.674
4.671
4.680
4.691
4.703
4.708
4.701
4.706
4.700
4.697
4.692
4.693
4.691
4.686
4.683
4.679
4.689
4.700
4.703
4.698
4.698
4.700
4.694
4.697
4.699
4.695
4.690
4.684
4.695
4.692
4.695
4.699
4.710
4.721
4.720
4.722
4.724
4.716
4.716
4.725
4.723
4.717
4.712
4.706
4.706
4.710
4.708
4.708
4.719
4.729
4.734
4.729
4.729
4.726
4.729
4.722
4.713
4.709
4.708
4.710
4.710
4.709
4.702
4.705
4.715
4.717
4.717
4.714
4.718
4.719
4.716
4.713
4.704
4.703
4.707
4.702
4.693
4.693
4.694
4.689
4.699
4.709
4.719
4.719
4.717
4.710
4.715
4.717
4.713
4.712
4.718
4.720
4.715
4.717
4.715
4.716
4.714
4.709
4.698
4.700
4.710
4.719
4.725
4.725
4.724
4.727
4.732
4.727
4.723
4.725
4.723
4.721
4.719
4.720
4.724
4.728
4.737
4.730
4.720
4.718
4.710
4.714
4.723
4.732
4.741
4.743
4.739
4.742
4.739
4.741
4.746
4.745
4.745
4.750
4.745
4.746
4.744
4.744
4.740
4.739
4.735
4.731
4.731
4.738
4.734
4.728
4.737
4.746
4.754
4.763
4.764
4.765
4.764
4.755
4.755
4.751
4.748
4.742
4.749
4.745
4.748
4.748
4.739
4.744
4.737
4.729
4.722
4.716
4.716
4.724
4.732
4.741
4.749
4.758
4.757
4.757
4.761
4.755
4.749
4.748
4.744
4.745
4.749
4.745
4.740
4.746
4.742
4.742
4.737
4.743
4.744
4.743
4.741
4.741
4.742
4.742
4.738
4.738
4.742
4.750
4.758
4.766
4.774
4.770
4.772
4.773
4.773
4.774
4.777
4.775
4.776
4.774
4.771
4.772
4.773
4.772
4.772
4.770
4.770
4.769
4.766
4.767
4.764
4.772
4.773
4.769
4.762
4.762
4.765
4.766
4.761
4.768
4.776
4.783
4.791
4.796
4.796
4.791
4.791
4.787
4.778
4.776
4.781
4.780
4.782
4.781
4.784
4.778
4.778
4.773
4.769
4.765
4.761
4.756
4.752
4.748
4.743
4.739
4.735
4.733
4.740
4.747
4.754
4.762
4.764
4.764
4.763
4.766
4.770
4.770
4.771
4.771
4.770
4.769
4.762
4.763
4.762
4.757
4.752
4.746
4.741
4.736
4.731
4.726
4.724
4.731
4.740
4.736
4.735
4.731
4.732
4.740
4.738
4.733
4.736
4.736
4.738
4.745
4.752
4.759
4.766
4.765
4.762
4.760
4.757
4.753
4.750
4.743
4.739
4.740
4.748
4.755
4.756
4.756
4.749
4.748
4.753
4.749
4.744
4.744
4.744
4.742
4.746
4.743
4.741
4.738
4.737
4.737
4.738
4.742
4.744
4.744
4.740
4.736
4.740
4.744
4.741
4.741
4.748
4.754
4.760
4.767
4.773
4.767
4.761
4.756
4.759
4.762
4.760
4.756
4.756
4.757
4.756
4.753
4.747
4.749
4.745
4.742
4.739
4.734
4.731
4.735
4.741
4.742
4.741
4.741
4.743
4.738
4.735
4.737
4.735
4.736
4.739
4.736
4.732
4.723
4.724
4.727
4.727
4.725
4.725
4.731
4.737
4.743
4.749
4.755
4.761
4.767
4.774
4.776
4.777
4.776
4.778
4.778
4.776
4.778
4.781
4.778
4.775
4.774
4.773
4.774
4.767
4.762
4.766
4.763
4.760
4.759
4.755
4.754
4.751
4.754
4.751
4.751
4.744
4.745
4.743
4.737
4.731
4.728
4.728
4.732
4.737
4.741
4.740
4.741
4.739
4.738
4.744
4.741
4.740
4.738
4.738
4.736
4.739
4.745
4.750
4.756
4.762
4.767
4.773
4.777
4.771
4.768
4.772
4.771
4.770
4.768
4.771
4.773
4.771
4.771
4.768
4.764
4.763
4.767
4.766
4.761
4.766
4.767
4.772
4.776
4.776
4.778
4.771
4.763
4.760
4.760
4.760
4.763
4.764
4.767
4.763
4.759
4.755
4.754
4.759
4.759
4.753
4.747
4.745
4.740
4.739
4.738
4.738
4.738
4.732
4.733
4.731
4.724
4.722
4.727
4.733
4.740
4.745
4.749
4.754
4.760
4.765
4.770
4.775
4.781
4.786
4.792
4.794
4.794
4.795
4.790
4.787
4.789
4.788
4.786
4.785
4.783
4.782
4.786
4.788
4.783
4.781
4.778
4.770
4.774
4.774
4.776
4.777
4.783
4.785
4.784
4.783
4.777
4.775
4.772
4.766
4.766
4.762
4.759
4.759
4.756
4.761
4.763
4.759
4.765
4.765
4.762
4.758
4.759
4.756
4.761
4.761
4.767
4.770
4.768
4.771
4.766
4.761
4.757
4.754
4.750
4.750
4.749
4.747
4.747
4.749
4.750
4.752
4.757
4.762
4.767
4.772
4.777
4.782
4.787
4.792
4.797
4.799
4.796
4.793
4.798
4.804
4.799
4.799
4.799
4.797
4.793
4.798
4.798
4.800
4.806
4.810
4.806
4.804
4.805
4.799
4.795
4.792
4.791
4.788
4.790
4.784
4.791
4.791
4.792
4.793
4.794
4.794
4.795
4.794
4.794
4.789
4.791
