2.991
3.296
3.477
3.406
3.520
3.608
3.652
3.722
3.725
3.782
3.786
3.817
3.866
3.907
3.853
3.886
3.923
3.941
3.963
3.983
3.962
4.030
4.060
4.037
4.080
4.013
4.012
4.017
4.029
4.024
4.049
4.036
4.066
4.076
4.069
4.111
4.099
4.147
4.097
4.072
4.097
4.056
4.141
4.108
4.138
4.150
4.108
4.195
4.145
4.142
4.135
4.104
4.150
4.144
4.139
4.145
4.206
4.195
4.172
4.167
4.204
4.189
4.201
4.196
4.213
4.257
4.215
4.219
4.222
4.225
4.286
4.248
4.210
4.173
4.195
4.237
4.210
4.174
4.186
4.133
4.173
4.224
4.234
4.235
4.186
4.144
4.169
4.165
4.194
4.239
4.211
4.212
4.233
4.198
4.197
4.179
4.157
4.189
4.231
4.274
4.272
4.240
4.257
4.247
4.261
4.231
4.229
4.249
4.227
4.222
4.261
4.299
4.307
4.310
4.274
4.238
4.206
4.201
4.188
4.227
4.203
4.180
4.188
4.222
4.256
4.290
4.301
4.287
4.291
4.280
4.311
4.305
4.288
4.291
4.269
4.277
4.292
4.278
4.240
4.235
4.243
4.221
4.251
4.280
4.299
4.307
4.277
4.265
4.258
4.242
4.249
4.264
4.235
4.254
4.293
4.283
4.269
4.242
4.229
4.234
4.212
4.190
4.197
4.203
4.211
4.221
4.246
4.271
4.297
4.322
4.301
4.319
4.330
4.299
4.281
4.291
4.275
4.275
4.291
4.292
4.269
4.251
4.259
4.229
4.234
4.222
4.244
4.223
4.256
4.256
4.244
4.230
4.208
4.213
4.202
4.203
4.175
4.209
4.209
4.229
4.250
4.271
4.292
4.313
4.334
4.355
4.376
4.360
4.366
4.356
4.333
4.335
4.345
4.322
4.317
4.344
4.341
4.311
4.305
4.292
4.316
4.341
4.336
4.307
4.314
4.309
4.286
4.263
4.255
4.237
4.220
4.202
4.207
4.195
4.174
4.201
4.175
4.204
4.191
4.185
4.182
4.208
4.218
4.227
4.233
4.217
4.233
4.201
4.206
4.220
4.237
4.253
4.270
4.287
4.304
4.321
4.338
4.355
4.371
4.388
4.374
4.366
4.374
4.376
4.349
4.350
4.357
4.363
4.354
4.338
4.317
4.332
4.302
4.303
4.291
4.289
4.290
4.288
4.276
4.268
4.253
4.257
4.273
4.260
4.255
4.277
4.278
4.282
4.268
4.279
4.295
4.275
4.252
4.268
4.269
4.266
4.264
4.258
4.277
4.295
4.276
4.258
4.255
4.249
4.251
4.270
4.269
4.247
4.242
4.237
4.241
4.231
4.247
4.230
4.253
4.252
4.230
4.223
4.200
4.207
4.205
4.207
4.220
4.213
4.226
4.232
4.251
4.244
4.235
4.228
4.214
4.200
4.206
4.219
4.232
4.244
4.257
4.270
4.282
4.295
4.307
4.320
4.333
4.345
4.358
4.353
4.364
4.362
4.380
4.389
4.407
4.412
4.411
4.419
4.418
4.399
4.382
4.361
4.339
4.333
4.337
4.327
4.326
4.325
4.324
4.335
4.313
4.313
4.296
4.291
4.310
4.310
4.306
4.312
4.298
4.308
4.301
4.310
4.313
4.309
4.313
4.312
4.315
4.305
4.320
4.328
4.321
4.333
4.343
4.331
4.323
4.323
4.312
4.297
4.303
4.299
4.287
4.286
4.299
4.279
4.300
4.274
4.265
4.277
4.261
4.247
4.235
4.243
4.247
4.255
4.237
4.230
4.213
4.210
4.219
4.226
4.225
4.216
4.214
4.216
4.208
4.217
4.222
4.215
4.209
4.210
4.225
4.239
4.254
4.268
4.277
4.274
4.273
4.277
4.275
4.268
4.256
4.250
4.247
4.254
4.250
4.248
4.262
4.278
4.266
4.263
4.288
4.295
4.273
4.279
4.269
4.262
4.263
4.262
4.250
4.266
4.278
4.260
4.266
4.256
4.240
4.220
4.232
4.212
4.219
4.219
4.214
4.222
4.214
4.233
4.217
4.212
4.195
4.191
4.194
4.193
4.195
4.183
4.189
4.192
4.173
4.173
4.167
4.171
4.168
4.168
4.160
4.173
4.170
4.171
4.190
4.199
4.194
4.200
4.186
4.195
4.191
4.193
4.193
4.202
4.210
4.219
4.227
4.235
4.244
4.252
4.261
4.269
4.277
4.286
4.294
4.303
4.311
4.319
4.328
4.336
4.344
4.353
4.361
4.370
4.378
4.386
4.395
4.403
4.412
4.420
4.424
4.427
4.418
4.426
4.419
4.404
4.392
4.382
4.390
4.403
4.396
4.379
4.383
4.384
4.394
4.383
4.373
4.374
4.371
4.365
4.353
4.347
4.351
4.339
4.336
4.335
4.334
4.350
4.335
4.329
4.329
4.315
4.319
4.332
4.345
4.341
4.335
4.346
4.355
4.355
4.354
4.342
4.329
4.324
4.312
4.312
4.311
4.317
4.319
4.322
4.313
4.322
4.323
4.330
4.341
4.351
4.348
4.364
4.360
4.351
4.349
4.350
4.344
4.361
4.374
4.366
4.365
4.374
4.360
4.341
4.331
4.339
4.331
4.325
4.316
4.313
4.317
4.325
4.322
4.334
4.336
4.322
4.322
4.309
4.296
4.297
4.282
4.271
4.276
4.276
4.289
4.302
4.292
4.274
4.274
4.267
4.280
4.278
4.290
4.293
4.278
4.273
4.280
4.283
4.282
4.289
4.295
4.282
4.275
4.268
4.267
4.268
4.261
4.262
4.268
4.270
4.265
4.254
4.249
4.261
4.268
4.254
4.249
4.260
4.247
4.263
4.257
4.267
4.265
4.256
4.266
4.280
4.264
4.280
4.284
4.294
4.280
4.265
4.261
4.265
4.272
4.284
4.289
4.296
4.290
4.272
4.263
4.266
4.280
4.257
4.264
4.256
4.247
4.238
4.229
4.229
4.217
4.205
4.210
4.211
4.217
4.217
4.218
4.214
4.213
4.213
4.211
4.215
4.222
4.224
4.231
4.214
4.217
4.226
4.236
4.242
4.243
4.248
4.237
4.226
4.221
4.222
4.234
4.214
4.214
4.209
4.209
4.209
4.210
4.217
4.204
4.194
4.198
4.202
4.208
4.192
4.187
4.182
4.188
4.191
4.181
4.182
4.189
4.203
4.191
4.196
4.199
4.201
4.204
4.214
4.224
4.234
4.230
4.225
4.242
4.228
4.228
4.246
4.235
4.238
4.239
4.229
4.232
4.232
4.228
4.230
4.244
4.250
4.244
4.244
4.242
4.239
4.231
4.229
4.242
4.244
4.246
4.234
4.223
4.213
4.224
4.236
4.237
4.253
4.264
4.255
4.246
4.251
4.263
4.264
4.259
4.242
4.232
4.240
4.227
4.227
4.227
4.226
4.234
4.240
4.243
4.244
4.243
4.237
4.232
4.240
4.236
4.228
4.222
4.212
4.212
4.199
4.221
4.212
4.218
4.224
4.225
4.231
4.221
4.233
4.239
4.247
4.232
4.218
4.219
4.214
4.211
4.204
4.195
4.187
4.180
4.191
4.202
4.200
4.205
4.198
4.193
4.203
4.203
4.203
4.196
4.199
4.198
4.190
4.194
4.181
4.177
4.176
4.179
4.182
4.178
4.172
4.185
4.196
4.197
4.203
4.194
4.182
4.184
4.173
4.165
4.162
4.173
4.182
4.189
4.188
4.195
4.202
4.209
4.217
4.224
4.231
4.238
4.245
4.253
4.258
4.257
4.260
4.255
4.245
4.255
4.255
4.268
4.282
4.288
4.292
4.294
4.280
4.289
4.273
4.272
4.259
4.269
4.264
4.265
4.268
4.252
4.250
4.245
4.255
4.255
4.260
4.258
4.265
4.274
4.284
4.293
4.302
4.293
4.302
4.292
4.293
4.280
4.284
4.287
4.288
4.286
4.282
4.292
4.286
4.276
4.286
4.279
4.281
4.285
4.281
4.275
4.275
4.270
4.265
4.272
4.269
4.276
4.267
4.274
4.269
4.253
4.255
4.265
4.249
4.244
4.257
4.246
4.249
4.242
4.244
4.256
4.245
4.238
4.251
4.248
4.249
4.242
4.253
4.250
4.244
4.247
4.243
4.235
4.228
4.224
4.227
4.224
4.231
4.216
4.211
4.196
4.205
4.200
4.198
4.199
4.196
4.200
4.210
4.221
4.228
4.219
4.226
4.214
4.224
4.229
4.215
4.222
4.219
4.209
4.217
4.206
4.202
4.204
4.201
4.204
4.200
4.198
4.198
4.205
4.204
4.198
4.209
4.221
4.226
4.225
4.240
4.236
4.236
4.234
4.233
4.238
4.237
4.233
4.225
4.227
4.221
4.212
4.202
