2.993
3.337
3.508
3.629
3.708
3.773
3.809
3.885
3.886
3.924
3.964
4.008
4.046
4.084
4.043
4.010
4.029
4.046
4.064
4.075
4.102
4.109
4.119
4.140
4.151
4.158
4.176
4.176
4.190
4.204
4.206
4.208
4.230
4.242
4.249
4.245
4.256
4.263
4.278
4.288
4.297
4.288
4.289
4.302
4.302
4.316
4.327
4.329
4.342
4.338
4.322
4.332
4.340
4.353
4.351
4.355
4.368
4.369
4.373
4.379
4.388
4.398
4.406
4.405
4.378
4.382
4.388
4.401
4.402
4.406
4.399
4.406
4.413
4.421
4.427
4.424
4.436
4.440
4.439
4.436
4.437
4.452
4.455
4.461
4.459
4.466
4.477
4.478
4.473
4.469
4.476
4.481
4.460
4.447
4.456
4.461
4.458
4.464
4.468
4.476
4.485
4.483
4.473
4.473
4.467
4.478
4.486
4.485
4.484
4.491
4.500
4.503
4.499
4.495
4.506
4.503
4.515
4.524
4.519
4.521
4.516
4.508
4.516
4.514
4.510
4.526
4.516
4.520
4.527
4.530
4.536
4.542
4.544
4.540
4.550
4.542
4.553
4.552
4.556
4.549
4.556
4.567
4.555
4.571
4.560
4.579
4.575
4.569
4.561
4.569
4.572
4.561
4.568
4.556
4.573
4.569
4.566
4.580
4.581
4.579
4.587
4.583
4.590
4.606
4.587
4.598
4.605
4.598
4.603
4.609
4.608
4.601
4.590
4.579
4.568
4.558
4.573
4.570
4.567
4.572
4.567
4.570
4.564
4.585
4.570
4.575
4.578
4.595
4.596
4.588
4.588
4.598
4.593
4.586
4.595
4.586
4.578
4.575
4.582
4.581
4.579
4.575
4.578
4.575
4.574
4.571
4.582
4.582
4.578
4.571
4.585
4.596
4.599
4.589
4.586
4.595
4.608
4.600
4.593
4.587
4.600
4.610
4.600
4.600
4.591
4.601
4.606
4.609
4.609
4.605
4.609
4.617
4.623
4.619
4.622
4.615
4.617
4.621
4.614
4.609
4.611
4.605
4.614
4.622
4.613
4.610
4.603
4.612
4.614
4.627
4.624
4.626
4.627
4.624
4.623
4.627
4.635
4.631
4.619
4.629
4.630
4.620
4.634
4.645
4.648
4.648
4.642
4.644
4.645
4.642
4.651
4.658
4.653
4.658
4.660
4.651
4.645
4.645
4.662
4.669
4.665
4.655
4.654
4.657
4.652
4.648
4.641
4.637
4.631
4.633
4.626
4.631
4.632
4.645
4.645
4.634
4.630
4.626
4.624
4.621
4.618
4.634
4.644
4.642
4.640
4.636
4.632
4.632
4.638
4.639
4.634
4.645
4.654
4.648
4.647
4.651
4.641
4.635
4.635
4.637
4.643
4.648
4.650
4.644
4.641
4.634
4.638
4.637
4.635
4.630
4.635
4.641
4.655
4.661
4.665
4.660
4.654
4.653
4.658
4.655
4.659
4.658
4.656
4.653
4.666
4.673
4.671
4.671
4.670
4.670
4.666
4.652
4.647
4.645
4.651
4.654
4.667
4.680
4.683
4.675
4.678
4.672
4.671
4.677
4.679
4.676
4.677
4.668
4.673
4.671
4.682
4.694
4.705
4.696
4.693
4.694
4.681
4.680
4.684
4.681
4.682
4.680
4.683
4.684
4.684
4.696
4.697
4.688
4.679
4.681
4.672
4.674
4.671
4.668
4.671
4.670
4.665
4.666
4.673
4.685
4.687
4.677
4.667
4.673
4.671
4.666
4.675
4.676
4.674
4.670
4.667
4.672
4.672
4.667
4.673
4.684
4.695
4.691
4.689
4.687
4.693
4.692
4.684
4.682
4.677
4.677
4.675
4.680
4.689
4.689
4.680
4.679
4.679
4.690
4.701
4.711
4.705
4.698
4.700
4.703
4.704
4.707
4.703
4.700
4.696
4.698
4.698
4.695
4.699
4.700
4.699
4.702
4.704
4.701
4.711
4.721
4.731
4.729
4.735
4.730
4.724
4.719
4.712
4.714
4.712
4.722
4.720
4.713
4.707
4.708
4.709
4.701
4.696
4.693
4.703
4.713
4.723
4.721
4.723
4.720
4.722
4.718
4.711
4.709
4.707
4.709
4.709
4.710
4.700
4.700
4.701
4.708
4.705
4.708
4.702
4.701
4.697
4.706
4.715
4.724
4.734
4.737
4.737
4.734
4.739
4.736
4.731
4.734
4.731
4.731
4.728
4.731
4.739
4.739
4.739
4.735
4.733
4.723
4.721
4.719
4.724
4.720
4.728
4.729
4.733
4.742
4.741
4.750
4.759
4.756
4.756
4.758
4.751
4.748
4.740
4.744
4.746
4.746
4.744
4.747
4.747
4.746
4.749
4.745
4.741
4.733
4.735
4.743
4.743
4.743
4.735
4.736
4.727
4.733
4.728
4.726
4.728
4.730
4.736
4.736
4.730
4.729
4.725
4.723
4.725
4.725
4.721
4.721
4.722
4.722
4.722
4.720
4.719
4.718
4.720
4.719
4.713
4.707
4.701
4.695
4.702
4.711
4.719
4.727
4.735
4.742
4.740
4.729
4.721
4.722
4.720
4.719
4.716
4.710
4.721
4.731
4.721
4.712
4.707
4.710
4.713
4.708
4.703
4.700
4.704
4.706
4.697
4.696
4.701
4.700
4.704
4.698
4.695
4.697
4.706
4.708
4.715
4.723
4.731
4.738
4.746
4.744
4.741
4.739
4.742
4.735
4.744
4.734
4.736
4.738
4.735
4.728
4.721
4.715
4.713
4.711
4.705
4.707
4.710
4.712
4.709
4.710
4.701
4.694
4.700
4.698
4.701
4.697
4.694
4.693
4.690
4.691
4.696
4.703
4.710
4.717
4.724
4.732
4.739
4.739
4.736
4.733
4.732
4.733
4.731
4.741
4.743
4.739
4.740
4.744
4.740
4.745
4.745
4.741
4.741
4.739
4.735
4.730
4.730
4.726
4.720
4.720
4.711
4.712
4.705
4.706
4.707
4.712
4.709
4.714
4.717
4.713
4.711
4.704
4.699
4.695
4.698
4.705
4.711
4.718
4.725
4.732
4.738
4.744
4.744
4.744
4.744
4.743
4.741
4.737
4.733
4.734
4.742
4.733
4.732
4.729
4.726
4.727
4.728
4.727
4.733
4.730
4.729
4.738
4.736
4.735
4.732
4.729
4.726
4.726
4.734
4.727
4.725
4.725
4.722
4.723
4.726
4.729
4.729
4.724
4.715
4.717
4.714
4.711
4.709
4.708
4.703
4.705
4.711
4.717
4.723
4.730
4.736
4.742
4.748
4.755
4.755
4.758
4.761
4.759
4.761
4.764
4.759
4.760
4.757
4.751
4.748
4.747
4.749
4.749
4.740
4.737
4.736
4.736
4.742
4.738
4.744
4.744
4.745
4.745
4.737
4.732
4.732
4.728
4.731
4.730
4.735
4.741
4.739
4.744
4.742
4.736
4.735
4.729
4.721
4.716
4.718
4.723
4.721
4.723
4.724
4.719
4.719
4.717
4.716
4.721
4.717
4.718
4.724
4.730
4.735
4.741
4.747
4.753
4.759
4.764
4.770
4.774
4.770
4.768
4.764
4.771
4.774
4.772
4.763
4.767
4.768
4.763
4.771
4.778
4.775
4.770
4.769
4.765
4.758
4.755
4.758
4.756
4.759
4.757
4.756
4.753
4.753
4.752
4.747
4.747
4.744
4.741
4.741
4.741
4.747
4.754
4.758
4.760
4.758
4.757
4.751
4.750
4.753
4.754
4.750
4.748
4.740
4.738
4.741
4.740
4.742
4.750
4.754
4.750
4.749
4.743
4.744
4.744
4.744
4.744
4.746
4.739
4.743
4.745
4.747
4.753
4.758
4.763
4.769
4.774
4.780
4.785
4.790
4.796
4.801
4.806
4.802
4.797
4.799
4.794
4.798
4.803
4.800
4.800
4.803
4.799
4.799
4.799
4.798
4.798
4.796
4.790
4.785
4.780
4.775
4.770
4.772
4.770
4.766
4.767
4.774
4.781
4.787
4.788
4.782
4.776
4.771
4.773
4.774
4.778
4.783
4.779
4.773
4.765
4.763
4.763
4.765
4.766
4.767
4.761
4.757
4.758
4.758
4.759
4.754
4.750
4.745
4.741
4.737
4.732
4.734
4.743
4.737
4.733
4.736
4.730
4.724
4.718
4.716
4.721
4.726
4.731
4.736
4.741
4.746
4.750
4.755
4.760
4.765
4.770
4.775
4.780
4.785
4.786
4.787
4.787
4.788
4.784
4.782
4.774
4.778
4.782
4.778
4.776
4.776
4.776
4.781
4.775
4.776
4.775
4.772
4.768
4.765
4.765
4.767
4.769
4.765
4.763
4.766
4.767
4.762
4.759
4.758
4.759
