2.992
3.335
3.506
3.634
3.723
3.796
3.825
3.902
3.926
3.955
3.981
4.021
4.062
4.029
4.062
4.086
4.110
4.136
4.159
4.184
4.199
4.220
4.188
4.146
4.159
4.168
4.178
4.195
4.199
4.207
4.219
4.231
4.235
4.248
4.251
4.264
4.269
4.272
4.284
4.292
4.296
4.297
4.306
4.319
4.329
4.319
4.331
4.335
4.345
4.352
4.350
4.352
4.361
4.365
4.373
4.377
4.388
4.390
4.380
4.388
4.389
4.398
4.406
4.409
4.413
4.423
4.421
4.429
4.416
4.420
4.421
4.426
4.433
4.440
4.441
4.448
4.451
4.461
4.465
4.462
4.465
4.475
4.474
4.462
4.462
4.466
4.468
4.470
4.479
4.481
4.485
4.486
4.490
4.489
4.493
4.503
4.504
4.506
4.512
4.511
4.514
4.514
4.520
4.525
4.529
4.533
4.532
4.516
4.510
4.508
4.517
4.514
4.517
4.522
4.529
4.533
4.528
4.530
4.537
4.535
4.537
4.540
4.537
4.540
4.542
4.546
4.553
4.557
4.553
4.557
4.561
4.566
4.569
4.555
4.562
4.573
4.569
4.569
4.578
4.579
4.578
4.585
4.586
4.595
4.591
4.590
4.599
4.598
4.603
4.603
4.594
4.599
4.608
4.604
4.595
4.584
4.572
4.573
4.580
4.576
4.588
4.585
4.580
4.588
4.591
4.596
4.592
4.590
4.594
4.596
4.599
4.606
4.606
4.612
4.599
4.603
4.605
4.596
4.605
4.596
4.602
4.601
4.610
4.606
4.614
4.607
4.614
4.610
4.622
4.618
4.627
4.621
4.629
4.631
4.627
4.623
4.624
4.628
4.630
4.636
4.636
4.637
4.646
4.640
4.651
4.642
4.636
4.636
4.638
4.636
4.640
4.645
4.636
4.639
4.640
4.639
4.649
4.650
4.644
4.651
4.646
4.643
4.654
4.651
4.649
4.666
4.662
4.658
4.671
4.667
4.663
4.672
4.673
4.667
4.669
4.662
4.663
4.675
4.676
4.672
4.674
4.683
4.677
4.673
4.687
4.691
4.684
4.683
4.693
4.689
4.693
4.692
4.693
4.684
4.684
4.681
4.682
4.680
4.692
4.695
4.690
4.686
4.690
4.688
4.684
4.684
4.690
4.686
4.687
4.688
4.693
4.697
4.693
4.692
4.703
4.706
4.709
4.706
4.703
4.716
4.710
4.710
4.707
4.713
4.721
4.713
4.714
4.710
4.721
4.718
4.710
4.705
4.699
4.692
4.687
4.686
4.687
4.688
4.680
4.675
4.685
4.681
4.680
4.681
4.679
4.689
4.693
4.688
4.690
4.688
4.690
4.702
4.695
4.688
4.682
4.684
4.698
4.703
4.699
4.695
4.693
4.692
4.703
4.705
4.709
4.702
4.699
4.702
4.710
4.719
4.721
4.714
4.712
4.703
4.710
4.702
4.693
4.694
4.692
4.695
4.703
4.705
4.709
4.697
4.693
4.692
4.703
4.694
4.688
4.691
4.687
4.684
4.696
4.706
4.703
4.695
4.692
4.694
4.687
4.699
4.701
4.700
4.701
4.705
4.698
4.697
4.698
4.710
4.715
4.713
4.710
4.719
4.715
4.711
4.706
4.718
4.725
4.722
4.720
4.714
4.710
4.711
4.710
4.718
4.715
4.718
4.715
4.716
4.715
4.718
4.717
4.721
4.728
4.724
4.725
4.719
4.723
4.721
4.717
4.718
4.728
4.735
4.740
4.741
4.739
4.735
4.734
4.738
4.731
4.732
4.742
4.740
4.736
4.729
4.723
4.725
4.721
4.724
4.729
4.740
4.742
4.738
4.734
4.730
4.734
4.730
4.721
4.722
4.732
4.736
4.739
4.740
4.736
4.733
4.732
4.735
4.736
4.732
4.734
4.743
4.753
4.746
4.748
4.747
4.751
4.746
4.742
4.743
4.745
4.746
4.748
4.749
4.750
4.749
4.747
4.747
4.750
4.752
4.743
4.744
4.743
4.749
4.758
4.763
4.767
4.766
4.766
4.765
4.764
4.760
4.761
4.766
4.769
4.760
4.762
4.771
4.773
4.768
4.772
4.774
4.773
4.769
4.764
4.763
4.761
4.755
4.761
4.769
4.778
4.774
4.769
4.765
4.759
4.754
4.748
4.743
4.737
4.743
4.750
4.760
4.758
4.757
4.756
4.754
4.753
4.744
4.743
4.747
4.747
4.751
4.747
4.747
4.751
4.743
4.743
4.741
4.737
4.743
4.743
4.736
4.740
4.741
4.743
4.738
4.736
4.744
4.751
4.760
4.759
4.760
4.761
4.755
4.755
4.746
4.743
4.749
4.753
4.755
4.748
4.747
4.743
4.752
4.759
4.768
4.777
4.774
4.767
4.763
4.758
4.760
4.759
4.762
4.759
4.752
4.751
4.751
4.745
4.752
4.761
4.768
4.775
4.769
4.762
4.758
4.756
4.757
4.761
4.762
4.753
4.749
4.747
4.749
4.748
4.744
4.751
4.758
4.767
4.773
4.778
4.773
4.772
4.773
4.770
4.765
4.770
4.768
4.764
4.762
4.767
4.765
4.761
4.760
4.762
4.765
4.769
4.776
4.783
4.787
4.784
4.784
4.786
4.788
4.784
4.779
4.778
4.777
4.777
4.771
4.766
4.765
4.767
4.769
4.775
4.776
4.773
4.780
4.788
4.788
4.784
4.784
4.778
4.779
4.780
4.779
4.778
4.782
4.784
4.780
4.778
4.773
4.775
4.774
4.778
4.780
4.778
4.777
4.784
4.790
4.797
4.801
4.806
4.801
4.802
4.803
4.808
4.806
4.806
4.801
4.800
4.799
4.797
4.793
4.794
4.792
4.795
4.792
4.788
4.792
4.794
4.792
4.799
4.804
4.811
4.804
4.805
4.804
4.806
4.806
4.802
4.798
4.797
4.795
4.792
4.792
4.791
4.787
4.781
4.777
4.772
4.771
4.772
4.779
4.786
4.792
4.799
4.799
4.797
4.795
4.794
4.796
4.797
4.796
4.799
4.799
4.794
4.790
4.789
4.787
4.788
4.787
4.780
4.774
4.772
4.771
4.777
4.771
4.777
4.782
4.789
4.793
4.794
4.793
4.799
4.799
4.797
4.798
4.795
4.795
4.791
4.793
4.795
4.792
4.794
4.792
4.788
4.790
4.791
4.790
4.794
4.796
4.797
4.796
4.799
4.793
4.788
4.788
4.794
4.799
4.806
4.804
4.806
4.807
4.806
4.807
4.803
4.799
4.799
4.798
4.799
4.803
4.803
4.801
4.803
4.796
4.797
4.801
4.800
4.799
4.802
4.799
4.803
4.795
4.794
4.796
4.797
4.803
4.803
4.804
4.808
4.815
4.821
4.828
4.824
4.823
4.822
4.821
4.822
4.818
4.814
4.815
4.806
4.812
4.814
4.817
4.811
4.812
4.819
4.821
4.821
4.820
4.818
4.818
4.818
4.817
4.821
4.820
4.816
4.817
4.816
4.815
4.811
4.815
4.821
4.826
4.832
4.837
4.838
4.836
4.833
4.832
4.836
4.834
4.833
4.832
4.830
4.828
4.829
4.825
4.825
4.829
4.824
4.823
4.822
4.823
4.824
4.823
4.822
4.818
4.822
4.820
4.819
4.817
4.814
4.809
4.805
4.809
4.816
4.820
4.825
4.831
4.830
4.829
4.825
4.820
4.824
4.825
4.824
4.820
4.821
4.823
4.821
4.826
4.825
4.826
4.829
4.826
4.824
4.826
4.827
4.825
4.819
4.817
4.813
4.812
4.813
4.814
4.811
4.810
4.810
4.809
4.813
4.815
4.810
4.814
4.819
4.821
4.825
4.831
4.835
4.840
4.846
4.850
4.849
4.851
4.846
4.843
4.843
4.843
4.846
4.843
4.841
4.842
4.843
4.842
4.844
4.842
4.836
4.834
4.838
4.837
4.833
4.837
4.843
4.843
4.846
4.843
4.841
4.840
4.844
4.843
4.841
4.837
4.835
4.839
4.838
4.837
4.836
4.836
4.836
4.832
4.836
4.842
4.847
4.853
4.857
4.861
4.866
4.872
4.873
4.867
4.863
4.862
4.857
4.858
4.858
4.856
4.855
4.861
4.858
4.853
4.857
4.855
4.854
4.853
4.854
4.851
4.851
4.851
4.852
4.855
4.852
4.850
4.847
4.845
4.841
4.839
4.836
4.834
4.832
4.829
4.825
4.823
4.821
4.821
4.825
4.831
4.835
4.839
4.841
4.840
4.836
4.839
4.833
4.829
4.829
4.832
4.835
4.831
4.829
4.831
4.832
4.832
4.833
4.831
4.827
4.831
4.836
4.839
4.835
4.836
4.832
4.832
4.829
4.828
4.827
4.829
4.832
4.829
4.825
4.828
