2.995
3.334
3.506
3.633
3.726
3.785
3.843
3.877
3.940
3.946
3.995
4.039
4.005
4.040
4.066
4.095
4.118
4.147
4.167
4.188
4.162
4.116
4.126
4.146
4.158
4.166
4.184
4.190
4.199
4.210
4.221
4.223
4.238
4.239
4.251
4.262
4.269
4.270
4.280
4.291
4.293
4.297
4.304
4.316
4.325
4.322
4.326
4.330
4.343
4.343
4.356
4.358
4.348
4.358
4.366
4.369
4.380
4.382
4.392
4.395
4.400
4.388
4.395
4.395
4.402
4.410
4.416
4.420
4.424
4.429
4.435
4.439
4.440
4.448
4.443
4.436
4.433
4.440
4.441
4.450
4.451
4.462
4.455
4.459
4.463
4.472
4.477
4.481
4.485
4.484
4.484
4.494
4.498
4.503
4.507
4.511
4.496
4.480
4.487
4.483
4.493
4.495
4.496
4.508
4.501
4.506
4.514
4.506
4.512
4.511
4.518
4.521
4.526
4.529
4.531
4.532
4.532
4.540
4.542
4.535
4.539
4.543
4.542
4.543
4.548
4.554
4.559
4.562
4.567
4.566
4.570
4.573
4.569
4.580
4.570
4.576
4.580
4.574
4.577
4.562
4.550
4.544
4.553
4.562
4.553
4.562
4.567
4.563
4.564
4.568
4.567
4.569
4.578
4.574
4.580
4.582
4.573
4.580
4.577
4.573
4.577
4.576
4.581
4.580
4.584
4.588
4.583
4.593
4.591
4.599
4.599
4.603
4.603
4.606
4.595
4.604
4.599
4.610
4.611
4.610
4.619
4.617
4.622
4.617
4.619
4.606
4.613
4.612
4.622
4.618
4.616
4.615
4.611
4.623
4.624
4.625
4.624
4.617
4.630
4.626
4.629
4.637
4.638
4.639
4.643
4.637
4.646
4.645
4.643
4.643
4.640
4.642
4.651
4.651
4.649
4.659
4.652
4.651
4.663
4.669
4.657
4.664
4.668
4.672
4.663
4.677
4.665
4.659
4.662
4.656
4.662
4.675
4.668
4.666
4.666
4.667
4.660
4.661
4.665
4.664
4.662
4.669
4.673
4.672
4.671
4.677
4.690
4.684
4.679
4.680
4.688
4.688
4.685
4.686
4.696
4.695
4.688
4.686
4.699
4.699
4.692
4.684
4.679
4.670
4.663
4.667
4.660
4.656
4.651
4.662
4.663
4.659
4.660
4.659
4.674
4.667
4.673
4.667
4.665
4.669
4.663
4.661
4.663
4.667
4.679
4.677
4.676
4.667
4.673
4.681
4.685
4.683
4.682
4.684
4.684
4.694
4.693
4.689
4.687
4.684
4.679
4.673
4.669
4.669
4.669
4.680
4.680
4.670
4.673
4.670
4.671
4.672
4.673
4.670
4.668
4.673
4.666
4.677
4.677
4.675
4.671
4.666
4.663
4.677
4.688
4.684
4.679
4.680
4.685
4.677
4.684
4.697
4.699
4.686
4.687
4.683
4.690
4.688
4.699
4.695
4.693
4.689
4.685
4.681
4.685
4.697
4.709
4.699
4.698
4.697
4.693
4.692
4.693
4.705
4.704
4.706
4.706
4.702
4.701
4.708
4.706
4.710
4.721
4.717
4.715
4.717
4.718
4.716
4.707
4.708
4.712
4.714
4.710
4.706
4.704
4.708
4.704
4.703
4.714
4.713
4.709
4.708
4.701
4.700
4.703
4.705
4.706
4.716
4.725
4.724
4.720
4.716
4.720
4.717
4.715
4.714
4.714
4.725
4.736
4.736
4.728
4.719
4.717
4.716
4.720
4.711
4.717
4.727
4.736
4.736
4.739
4.735
4.732
4.733
4.729
4.727
4.731
4.735
4.737
4.746
4.755
4.747
4.748
4.747
4.743
4.738
4.739
4.740
4.740
4.741
4.748
4.751
4.747
4.751
4.747
4.749
4.745
4.752
4.748
4.741
4.737
4.732
4.726
4.732
4.732
4.729
4.729
4.719
4.721
4.721
4.717
4.724
4.734
4.744
4.739
4.743
4.734
4.729
4.723
4.714
4.710
4.711
4.707
4.717
4.726
4.733
4.734
4.736
4.728
4.725
4.726
4.719
4.720
4.725
4.725
4.722
4.717
4.725
4.732
4.738
4.740
4.743
4.740
4.746
4.745
4.743
4.742
4.741
4.736
4.727
4.728
4.732
4.732
4.741
4.743
4.743
4.740
4.738
4.740
4.736
4.740
4.743
4.737
4.730
4.729
4.729
4.723
4.732
4.740
4.740
4.742
4.743
4.742
4.740
4.739
4.735
4.739
4.740
4.739
4.740
4.739
4.733
4.734
4.733
4.742
4.751
4.759
4.758
4.755
4.755
4.755
4.763
4.758
4.757
4.756
4.758
4.758
4.751
4.742
4.741
4.747
4.744
4.751
4.758
4.767
4.769
4.762
4.758
4.756
4.752
4.753
4.752
4.755
4.751
4.755
4.747
4.743
4.744
4.753
4.749
4.750
4.758
4.766
4.774
4.769
4.777
4.778
4.771
4.773
4.774
4.773
4.773
4.772
4.771
4.767
4.771
4.770
4.774
4.775
4.773
4.767
4.763
4.770
4.777
4.786
4.790
4.788
4.784
4.778
4.779
4.783
4.779
4.781
4.780
4.778
4.774
4.775
4.773
4.767
4.760
4.759
4.766
4.764
4.769
4.772
4.768
4.767
4.768
4.769
4.769
4.767
4.766
4.769
4.762
4.762
4.766
4.767
4.766
4.766
4.771
4.766
4.757
4.755
4.754
4.761
4.766
4.773
4.771
4.769
4.768
4.767
4.769
4.769
4.768
4.767
4.763
4.762
4.762
4.766
4.762
4.758
4.763
4.761
4.765
4.766
4.763
4.764
4.768
4.766
4.766
4.773
4.780
4.786
4.785
4.784
4.780
4.778
4.776
4.777
4.773
4.780
4.777
4.778
4.776
4.770
4.768
4.769
4.769
4.770
4.769
4.770
4.768
4.769
4.763
4.764
4.768
4.775
4.780
4.788
4.793
4.800
4.804
4.803
4.796
4.799
4.798
4.789
4.788
4.786
4.788
4.783
4.787
4.788
4.787
4.791
4.790
4.789
4.788
4.786
4.784
4.784
4.784
4.788
4.787
4.781
4.782
4.784
4.792
4.799
4.804
4.810
4.815
4.813
4.812
4.811
4.817
4.813
4.815
4.817
4.814
4.810
4.806
4.799
4.799
4.800
4.798
4.799
4.799
4.799
4.799
4.800
4.799
4.795
4.795
4.794
4.798
4.794
4.793
4.794
4.798
4.805
4.806
4.803
4.806
4.803
4.803
4.800
4.803
4.803
4.801
4.795
4.793
4.795
4.796
4.799
4.803
4.799
4.803
4.802
4.799
4.794
4.795
4.792
4.790
4.786
4.787
4.789
4.787
4.783
4.785
4.789
4.788
4.794
4.799
4.806
4.810
4.817
4.823
4.825
4.823
4.819
4.821
4.819
4.815
4.819
4.823
4.822
4.818
4.814
4.814
4.816
4.810
4.810
4.809
4.813
4.810
4.811
4.817
4.814
4.815
4.816
4.809
4.810
4.810
4.810
4.810
4.810
4.812
4.816
4.814
4.813
4.810
4.813
4.818
4.824
4.828
4.835
4.840
4.846
4.847
4.849
4.845
4.843
4.842
4.846
4.851
4.846
4.848
4.846
4.840
4.835
4.831
4.832
4.832
4.829
4.826
4.827
4.825
4.817
4.821
4.821
4.823
4.819
4.820
4.819
4.818
4.821
4.826
4.833
4.829
4.822
4.818
4.814
4.817
4.819
4.823
4.829
4.828
4.827
4.821
4.819
4.817
4.816
4.814
4.810
4.804
4.808
4.804
4.806
4.809
4.805
4.807
4.810
4.810
4.805
4.806
4.802
4.799
4.799
4.799
4.800
4.806
4.805
4.803
4.802
4.799
4.795
4.799
4.799
4.798
4.794
4.795
4.799
4.798
4.795
4.798
4.800
4.806
4.806
4.807
4.813
4.817
4.821
4.817
4.819
4.818
4.814
4.810
4.808
4.809
4.808
4.810
4.813
4.812
4.813
4.810
4.806
4.807
4.811
4.809
4.811
4.809
4.810
4.804
4.799
4.795
4.792
4.792
4.797
4.796
4.797
4.796
4.797
4.795
4.799
4.795
4.795
4.795
4.789
4.784
4.784
4.787
4.784
4.787
4.792
4.798
4.802
4.806
4.811
4.817
4.821
4.821
4.819
4.818
4.819
4.820
4.813
4.814
4.813
4.817
4.817
4.818
4.819
4.820
4.825
4.826
4.822
4.826
4.827
4.823
4.821
4.817
4.813
4.810
4.808
4.809
4.813
4.809
4.806
4.804
4.805
4.803
4.799
4.799
4.806
4.807
4.805
4.803
4.799
4.795
4.792
4.787
4.788
4.788
4.794
4.796
4.795
4.795
4.791
4.790
