2.977
3.302
3.446
3.541
3.683
3.684
3.684
3.741
3.780
3.820
3.847
3.869
3.910
3.925
3.960
3.990
3.982
4.003
4.025
4.063
4.052
4.064
4.073
4.104
4.096
4.121
4.154
4.143
4.176
4.131
4.148
4.127
4.154
4.171
4.166
4.209
4.186
4.178
4.194
4.222
4.223
4.238
4.239
4.255
4.243
4.252
4.257
4.267
4.277
4.287
4.291
4.310
4.310
4.291
4.270
4.259
4.282
4.291
4.266
4.234
4.268
4.254
4.292
4.268
4.285
4.282
4.300
4.293
4.312
4.302
4.312
4.292
4.330
4.308
4.324
4.329
4.332
4.345
4.337
4.347
4.364
4.350
4.340
4.389
4.356
4.342
4.324
4.315
4.335
4.337
4.331
4.318
4.355
4.344
4.332
4.334
4.368
4.364
4.344
4.343
4.374
4.366
4.367
4.365
4.368
4.401
4.389
4.375
4.384
4.382
4.411
4.414
4.383
4.363
4.378
4.386
4.384
4.389
4.370
4.357
4.393
4.418
4.403
4.390
4.392
4.385
4.390
4.422
4.433
4.444
4.439
4.425
4.400
4.406
4.427
4.430
4.414
4.425
4.404
4.401
4.400
4.407
4.438
4.467
4.465
4.458
4.462
4.439
4.455
4.445
4.423
4.452
4.481
4.481
4.489
4.461
4.451
4.466
4.440
4.462
4.459
4.462
4.486
4.464
4.459
4.438
4.421
4.405
4.386
4.386
4.411
4.437
4.463
4.467
4.454
4.448
4.441
4.432
4.428
4.427
4.422
4.399
4.402
4.426
4.450
4.471
4.462
4.453
4.447
4.441
4.439
4.420
4.417
4.418
4.421
4.422
4.412
4.419
4.441
4.464
4.471
4.476
4.465
4.452
4.441
4.448
4.450
4.445
4.439
4.423
4.410
4.404
4.410
4.405
4.426
4.446
4.467
4.487
4.474
4.479
4.471
4.468
4.460
4.445
4.444
4.444
4.460
4.450
4.449
4.442
4.437
4.452
4.441
4.432
4.430
4.449
4.468
4.487
4.506
4.501
4.499
4.507
4.497
4.512
4.513
4.506
4.492
4.499
4.491
4.487
4.492
4.486
4.472
4.483
4.481
4.478
4.487
4.482
4.481
4.461
4.469
4.487
4.504
4.521
4.507
4.491
4.497
4.507
4.496
4.475
4.470
4.465
4.464
4.462
4.474
4.465
4.462
4.461
4.453
4.443
4.448
4.443
4.443
4.447
4.440
4.425
4.422
4.435
4.450
4.466
4.481
4.496
4.511
4.527
4.533
4.521
4.518
4.530
4.522
4.520
4.526
4.514
4.513
4.501
4.504
4.507
4.504
4.490
4.489
4.493
4.505
4.504
4.501
4.521
4.528
4.531
4.514
4.508
4.505
4.515
4.513
4.507
4.501
4.483
4.494
4.480
4.472
4.485
4.499
4.513
4.507
4.511
4.510
4.498
4.503
4.508
4.511
4.513
4.515
4.507
4.514
4.505
4.494
4.488
4.473
4.464
4.460
4.455
4.450
4.465
4.474
4.470
4.468
4.469
4.464
4.467
4.460
4.454
4.456
4.452
4.449
4.453
4.452
4.470
4.487
4.479
4.473
4.481
4.474
4.469
4.455
4.464
4.460
4.471
4.483
4.496
4.507
4.519
4.531
4.541
4.528
4.521
4.522
4.529
4.511
4.498
4.494
4.495
4.488
4.491
4.496
4.497
4.489
4.485
4.487
4.493
4.500
4.499
4.499
4.513
4.520
4.516
4.503
4.495
4.478
4.474
4.477
4.476
4.470
4.460
4.476
4.469
4.459
4.465
4.459
4.444
4.440
4.447
4.459
4.453
4.457
4.466
4.457
4.466
4.468
4.463
4.464
4.453
4.448
4.445
4.457
4.450
4.445
4.444
4.454
4.464
4.475
4.485
4.495
4.505
4.516
4.526
4.536
4.546
4.556
4.566
4.561
4.546
4.544
4.532
4.540
4.543
4.537
4.541
4.531
4.541
4.529
4.532
4.545
4.542
4.547
4.542
4.543
4.533
4.529
4.517
4.517
4.515
4.512
4.514
4.522
4.525
4.520
4.524
4.521
4.514
4.509
4.501
4.495
4.501
4.497
4.490
4.489
4.504
4.510
4.515
4.516
4.504
4.504
4.517
4.518
4.513
4.507
4.506
4.519
4.515
4.508
4.497
4.500
4.499
4.490
4.491
4.490
4.493
4.500
4.486
4.480
4.479
4.488
4.481
4.481
4.489
4.504
4.495
4.485
4.477
4.488
4.492
4.499
4.491
4.479
4.472
4.474
4.487
4.476
4.484
4.493
4.501
4.510
4.518
4.527
4.535
4.544
4.552
4.556
4.550
4.537
4.526
4.540
4.537
4.533
4.538
4.539
4.537
4.528
4.512
4.512
4.520
4.517
4.510
4.510
4.522
4.533
4.541
4.541
4.524
4.530
4.529
4.520
4.527
4.520
4.507
4.512
4.527
4.528
4.522
4.531
4.521
4.521
4.528
4.517
4.526
4.518
4.524
4.524
4.506
4.503
4.495
4.498
4.500
4.488
4.491
4.490
4.502
4.488
4.495
4.482
4.484
4.477
4.480
4.470
4.481
4.466
4.467
4.464
4.468
4.473
4.474
4.479
4.474
4.473
4.462
4.461
4.463
4.460
4.471
4.460
4.460
4.457
4.456
4.462
4.468
4.461
4.457
4.462
4.449
4.458
4.464
4.456
4.462
4.462
4.457
4.457
4.464
4.469
4.481
4.477
4.487
4.498
4.508
4.510
4.510
4.518
4.508
4.509
4.504
4.509
4.495
4.495
4.495
4.494
4.484
4.473
4.469
4.470
4.479
4.484
4.486
4.477
4.472
4.477
4.477
4.474
4.466
4.464
4.470
4.477
4.484
4.491
4.497
4.504
4.511
4.518
4.525
4.531
4.538
4.545
4.552
4.559
4.566
4.572
4.578
4.573
4.574
4.577
4.576
4.567
4.558
4.557
4.564
4.567
4.573
4.574
4.578
4.586
4.581
4.569
4.564
4.562
4.555
4.550
4.551
4.551
4.553
4.554
4.553
4.555
4.550
4.544
4.538
4.545
4.536
4.534
4.536
4.533
4.537
4.545
4.538
4.532
4.539
4.550
4.559
4.567
4.572
4.570
4.566
4.559
4.550
4.555
4.555
4.555
4.563
4.571
4.567
4.569
4.557
4.548
4.544
4.539
4.531
4.524
4.520
4.521
4.517
4.515
4.522
4.524
4.530
4.538
4.547
4.556
4.565
4.557
4.547
4.537
4.528
4.519
4.513
4.525
4.516
4.518
4.514
4.522
4.527
4.531
4.526
4.523
4.523
4.519
4.526
4.520
4.514
4.508
4.501
4.495
4.489
4.483
4.484
4.478
4.473
4.471
4.465
4.468
4.467
4.462
4.462
4.474
4.474
4.475
4.481
4.476
4.473
4.479
4.480
4.479
4.479
4.482
4.487
4.492
4.496
4.504
4.499
4.497
4.494
4.490
4.489
4.492
4.491
4.480
4.475
4.463
4.467
4.459
4.463
4.473
4.475
4.467
4.460
4.452
4.444
4.442
4.439
4.433
4.443
4.435
4.446
4.437
4.436
4.435
4.440
4.445
4.443
4.447
4.447
4.450
4.452
4.450
4.454
4.456
4.444
4.449
4.441
4.445
4.439
4.436
4.432
4.437
4.435
4.435
4.444
4.453
4.461
4.452
4.448
4.456
4.447
4.452
4.450
4.446
4.446
4.438
4.433
4.431
4.421
4.428
4.423
4.419
4.417
4.422
4.430
4.423
4.419
4.428
4.427
4.420
4.422
4.427
4.432
4.438
4.443
4.448
4.453
4.458
4.463
4.468
4.473
4.478
4.484
4.489
4.494
4.499
4.504
4.509
4.514
4.519
4.524
4.529
4.535
4.540
4.545
4.550
4.555
4.560
4.565
4.570
4.575
4.580
4.585
4.591
4.596
4.601
4.606
4.611
4.616
4.621
4.626
4.631
4.636
4.642
4.634
4.631
4.627
4.623
4.619
4.616
4.611
4.608
4.607
4.606
4.595
4.585
4.591
4.590
4.594
4.585
4.582
4.582
4.588
4.584
4.587
4.584
4.584
4.588
4.583
4.585
4.585
4.590
4.585
4.577
4.573
4.576
4.574
4.574
4.567
4.566
4.561
4.566
4.570
4.563
4.561
4.559
4.553
4.561
4.564
4.563
4.570
4.565
4.564
4.571
4.571
4.569
4.563
4.559
4.556
4.546
4.551
4.559
4.552
4.550
4.549
4.543
4.545
4.554
4.562
4.569
4.571
4.570
4.566
4.566
4.566
4.564
4.566
4.572
4.579
4.577
4.584
4.576
4.571
4.560
4.568
4.561
4.568
4.568
4.569
4.575
4.565
4.558
4.557
4.554
4.545
