2.994
3.331
3.512
3.629
3.715
3.790
3.835
3.875
3.939
3.955
4.007
4.006
4.041
4.075
4.110
4.073
4.101
4.124
4.145
4.163
4.186
4.199
4.219
4.237
4.254
4.255
4.219
4.196
4.202
4.210
4.224
4.229
4.244
4.247
4.259
4.262
4.271
4.272
4.285
4.294
4.295
4.305
4.314
4.322
4.320
4.330
4.337
4.346
4.342
4.349
4.356
4.366
4.370
4.366
4.367
4.379
4.383
4.390
4.394
4.401
4.392
4.399
4.405
4.410
4.421
4.420
4.427
4.434
4.425
4.426
4.432
4.436
4.441
4.445
4.449
4.453
4.457
4.461
4.466
4.469
4.463
4.458
4.470
4.470
4.468
4.473
4.479
4.486
4.485
4.486
4.490
4.497
4.504
4.507
4.501
4.510
4.512
4.516
4.503
4.503
4.503
4.505
4.507
4.508
4.518
4.519
4.521
4.524
4.529
4.525
4.528
4.532
4.534
4.541
4.547
4.547
4.550
4.552
4.548
4.552
4.558
4.554
4.561
4.568
4.570
4.573
4.572
4.559
4.558
4.551
4.550
4.555
4.553
4.559
4.561
4.562
4.567
4.570
4.575
4.571
4.572
4.579
4.575
4.574
4.575
4.581
4.575
4.584
4.584
4.588
4.592
4.599
4.599
4.598
4.596
4.601
4.605
4.612
4.605
4.606
4.603
4.607
4.611
4.612
4.610
4.610
4.621
4.623
4.619
4.626
4.630
4.628
4.627
4.631
4.632
4.636
4.643
4.636
4.643
4.637
4.638
4.640
4.644
4.634
4.625
4.615
4.607
4.615
4.610
4.620
4.614
4.623
4.622
4.623
4.625
4.628
4.630
4.634
4.633
4.626
4.638
4.636
4.638
4.637
4.641
4.639
4.647
4.645
4.638
4.634
4.644
4.640
4.643
4.637
4.640
4.636
4.644
4.645
4.643
4.650
4.647
4.653
4.647
4.655
4.655
4.650
4.662
4.659
4.663
4.664
4.665
4.673
4.663
4.666
4.666
4.666
4.668
4.666
4.666
4.677
4.676
4.673
4.684
4.684
4.681
4.688
4.677
4.672
4.673
4.670
4.679
4.675
4.676
4.686
4.676
4.675
4.681
4.675
4.676
4.684
4.684
4.684
4.690
4.689
4.685
4.689
4.690
4.692
4.688
4.697
4.698
4.699
4.701
4.707
4.709
4.705
4.710
4.705
4.703
4.703
4.704
4.702
4.703
4.707
4.710
4.710
4.709
4.716
4.714
4.716
4.710
4.721
4.721
4.721
4.718
4.725
4.726
4.725
4.721
4.727
4.737
4.730
4.723
4.719
4.717
4.716
4.717
4.722
4.723
4.725
4.725
4.727
4.734
4.724
4.720
4.721
4.728
4.727
4.723
4.722
4.721
4.730
4.731
4.729
4.729
4.727
4.739
4.738
4.737
4.733
4.731
4.744
4.750
4.747
4.742
4.741
4.747
4.751
4.750
4.752
4.745
4.749
4.756
4.755
4.753
4.747
4.742
4.738
4.733
4.727
4.723
4.724
4.720
4.725
4.717
4.718
4.729
4.727
4.718
4.711
4.707
4.719
4.721
4.725
4.723
4.721
4.720
4.722
4.734
4.729
4.726
4.729
4.723
4.727
4.734
4.732
4.728
4.724
4.721
4.722
4.729
4.738
4.739
4.741
4.734
4.732
4.733
4.736
4.742
4.743
4.744
4.743
4.742
4.738
4.740
4.751
4.759
4.760
4.755
4.749
4.742
4.736
4.733
4.735
4.731
4.730
4.728
4.729
4.736
4.743
4.744
4.743
4.736
4.736
4.731
4.732
4.733
4.727
4.726
4.725
4.723
4.727
4.725
4.735
4.744
4.740
4.739
4.733
4.734
4.729
4.725
4.735
4.742
4.740
4.736
4.738
4.739
4.736
4.736
4.735
4.742
4.747
4.748
4.751
4.751
4.747
4.747
4.744
4.751
4.746
4.755
4.755
4.751
4.754
4.758
4.755
4.748
4.741
4.745
4.754
4.755
4.754
4.751
4.751
4.748
4.749
4.751
4.749
4.750
4.760
4.764
4.763
4.761
4.762
4.759
4.752
4.755
4.759
4.756
4.762
4.769
4.773
4.772
4.768
4.772
4.768
4.773
4.773
4.770
4.765
4.769
4.777
4.781
4.774
4.769
4.762
4.766
4.765
4.758
4.755
4.762
4.771
4.777
4.770
4.775
4.773
4.767
4.771
4.769
4.763
4.764
4.763
4.769
4.774
4.772
4.771
4.762
4.766
4.769
4.768
4.767
4.766
4.761
4.766
4.772
4.781
4.786
4.787
4.781
4.776
4.780
4.777
4.777
4.782
4.780
4.777
4.777
4.779
4.786
4.793
4.788
4.785
4.783
4.784
4.778
4.776
4.775
4.776
4.778
4.779
4.780
4.788
4.796
4.796
4.797
4.796
4.796
4.792
4.797
4.793
4.794
4.792
4.792
4.788
4.791
4.793
4.800
4.809
4.818
4.812
4.808
4.803
4.803
4.801
4.799
4.799
4.802
4.799
4.800
4.798
4.799
4.806
4.811
4.809
4.808
4.809
4.807
4.803
4.797
4.793
4.789
4.785
4.780
4.784
4.791
4.790
4.791
4.788
4.786
4.787
4.784
4.784
4.789
4.788
4.786
4.779
4.780
4.777
4.778
4.785
4.792
4.795
4.797
4.793
4.788
4.782
4.777
4.773
4.775
4.770
4.773
4.770
4.770
4.768
4.775
4.781
4.788
4.792
4.796
4.792
4.792
4.790
4.791
4.788
4.783
4.782
4.783
4.782
4.778
4.782
4.780
4.777
4.783
4.785
4.792
4.799
4.802
4.801
4.800
4.799
4.796
4.793
4.794
4.795
4.796
4.801
4.803
4.799
4.797
4.790
4.786
4.784
4.789
4.796
4.803
4.806
4.802
4.798
4.794
4.796
4.799
4.796
4.799
4.796
4.794
4.792
4.794
4.788
4.784
4.784
4.781
4.785
4.792
4.798
4.802
4.798
4.797
4.796
4.796
4.795
4.794
4.796
4.796
4.795
4.794
4.795
4.792
4.795
4.794
4.792
4.788
4.790
4.792
4.795
4.802
4.807
4.813
4.815
4.816
4.815
4.811
4.806
4.805
4.810
4.811
4.812
4.807
4.809
4.811
4.810
4.810
4.810
4.808
4.807
4.811
4.810
4.805
4.807
4.813
4.818
4.819
4.818
4.819
4.820
4.821
4.821
4.822
4.815
4.813
4.810
4.808
4.806
4.808
4.801
4.799
4.803
4.808
4.809
4.805
4.803
4.803
4.810
4.816
4.821
4.827
4.826
4.827
4.823
4.821
4.825
4.825
4.825
4.824
4.826
4.829
4.828
4.825
4.821
4.821
4.821
4.818
4.821
4.822
4.825
4.822
4.818
4.814
4.820
4.821
4.828
4.833
4.839
4.844
4.845
4.843
4.839
4.840
4.840
4.840
4.839
4.838
4.836
4.835
4.836
4.833
4.828
4.832
4.833
4.827
4.828
4.832
4.826
4.825
4.826
4.829
4.825
4.827
4.833
4.832
4.828
4.824
4.820
4.822
4.821
4.819
4.821
4.819
4.817
4.814
4.810
4.814
4.814
4.814
4.814
4.816
4.814
4.813
4.815
4.811
4.817
4.818
4.812
4.813
4.817
4.822
4.828
4.832
4.839
4.836
4.833
4.829
4.828
4.824
4.826
4.819
4.818
4.816
4.817
4.822
4.825
4.821
4.818
4.816
4.817
4.814
4.814
4.810
4.810
4.811
4.809
4.811
4.809
4.807
4.810
4.816
4.823
4.827
4.833
4.836
4.837
4.843
4.848
4.847
4.842
4.844
4.840
4.838
4.840
4.841
4.840
4.841
4.839
4.835
4.829
4.830
4.829
4.827
4.826
4.825
4.826
4.825
4.829
4.827
4.823
4.821
4.818
4.818
4.818
4.821
4.826
4.830
4.834
4.840
4.845
4.849
4.848
4.844
4.848
4.847
4.845
4.844
4.842
4.846
4.847
4.851
4.850
4.852
4.851
4.844
4.842
4.847
4.847
4.851
4.847
4.843
4.845
4.843
4.839
4.833
4.833
4.835
4.831
4.830
4.836
4.833
4.834
4.835
4.837
4.841
4.845
4.849
4.855
4.860
4.864
4.868
4.864
4.863
4.859
4.859
4.859
4.863
4.861
4.860
4.859
4.860
4.864
4.862
4.861
4.862
4.864
4.863
4.867
4.863
4.861
4.859
4.858
4.855
4.856
4.855
4.855
4.852
4.851
4.849
4.848
4.852
4.851
4.847
4.845
4.844
4.850
4.854
4.858
4.863
4.867
4.873
4.872
4.870
4.872
4.871
4.875
4.874
4.877
4.871
4.869
4.870
4.869
4.866
4.862
4.860
4.856
