2.994
3.334
3.514
3.630
3.716
3.789
3.832
3.877
3.942
3.959
4.008
4.003
4.042
4.075
4.111
4.075
4.101
4.121
4.149
4.167
4.185
4.201
4.221
4.239
4.256
4.250
4.213
4.189
4.204
4.211
4.224
4.230
4.237
4.247
4.260
4.263
4.273
4.274
4.284
4.294
4.295
4.304
4.314
4.315
4.320
4.329
4.341
4.345
4.341
4.349
4.357
4.365
4.371
4.365
4.372
4.376
4.383
4.387
4.394
4.392
4.393
4.401
4.404
4.409
4.420
4.420
4.426
4.434
4.420
4.423
4.432
4.434
4.435
4.445
4.453
4.450
4.457
4.464
4.467
4.472
4.456
4.460
4.464
4.463
4.473
4.472
4.484
4.483
4.483
4.488
4.492
4.499
4.503
4.507
4.503
4.510
4.514
4.512
4.501
4.504
4.506
4.504
4.508
4.510
4.512
4.521
4.523
4.526
4.525
4.526
4.534
4.535
4.536
4.543
4.545
4.548
4.550
4.549
4.553
4.551
4.557
4.557
4.561
4.568
4.572
4.568
4.563
4.551
4.555
4.551
4.553
4.554
4.557
4.560
4.564
4.568
4.569
4.575
4.572
4.573
4.577
4.579
4.571
4.573
4.582
4.571
4.583
4.586
4.588
4.590
4.594
4.595
4.596
4.592
4.602
4.605
4.610
4.606
4.602
4.600
4.607
4.612
4.613
4.609
4.608
4.619
4.620
4.617
4.626
4.630
4.624
4.627
4.629
4.630
4.634
4.642
4.635
4.642
4.635
4.638
4.640
4.645
4.634
4.625
4.615
4.605
4.615
4.608
4.618
4.612
4.621
4.620
4.623
4.627
4.626
4.631
4.631
4.631
4.624
4.636
4.634
4.638
4.635
4.639
4.637
4.647
4.643
4.638
4.632
4.642
4.640
4.641
4.638
4.638
4.635
4.645
4.645
4.645
4.646
4.645
4.653
4.647
4.656
4.657
4.654
4.660
4.657
4.666
4.660
4.661
4.671
4.661
4.668
4.663
4.662
4.668
4.664
4.672
4.675
4.672
4.679
4.680
4.683
4.683
4.684
4.674
4.668
4.669
4.676
4.675
4.673
4.680
4.684
4.672
4.681
4.679
4.673
4.682
4.686
4.685
4.683
4.688
4.686
4.683
4.689
4.690
4.686
4.696
4.697
4.696
4.695
4.704
4.706
4.704
4.703
4.707
4.703
4.699
4.709
4.701
4.700
4.704
4.709
4.710
4.708
4.710
4.716
4.715
4.714
4.715
4.720
4.718
4.717
4.718
4.727
4.723
4.722
4.721
4.733
4.732
4.727
4.720
4.714
4.715
4.717
4.718
4.727
4.724
4.725
4.724
4.730
4.726
4.722
4.720
4.723
4.729
4.723
4.716
4.719
4.727
4.728
4.727
4.730
4.729
4.738
4.735
4.734
4.732
4.731
4.740
4.750
4.748
4.738
4.740
4.742
4.753
4.747
4.749
4.744
4.746
4.755
4.753
4.752
4.749
4.744
4.738
4.733
4.727
4.722
4.721
4.719
4.723
4.716
4.716
4.728
4.727
4.720
4.712
4.708
4.720
4.720
4.723
4.720
4.718
4.719
4.723
4.734
4.729
4.725
4.727
4.722
4.724
4.733
4.731
4.728
4.721
4.720
4.720
4.730
4.735
4.736
4.740
4.733
4.729
4.731
4.737
4.739
4.740
4.741
4.742
4.739
4.735
4.742
4.753
4.758
4.759
4.752
4.748
4.741
4.737
4.730
4.731
4.730
4.727
4.727
4.729
4.739
4.742
4.741
4.740
4.733
4.732
4.728
4.734
4.731
4.724
4.725
4.724
4.722
4.726
4.727
4.737
4.742
4.742
4.736
4.732
4.733
4.724
4.727
4.737
4.739
4.737
4.731
4.735
4.738
4.735
4.736
4.735
4.744
4.745
4.747
4.751
4.747
4.746
4.747
4.748
4.750
4.749
4.752
4.753
4.750
4.757
4.755
4.751
4.745
4.738
4.749
4.759
4.750
4.753
4.750
4.748
4.750
4.751
4.749
4.746
4.757
4.762
4.761
4.760
4.760
4.759
4.755
4.749
4.757
4.754
4.758
4.767
4.769
4.771
4.768
4.768
4.769
4.771
4.771
4.770
4.766
4.765
4.774
4.783
4.777
4.771
4.764
4.762
4.769
4.759
4.752
4.759
4.768
4.773
4.772
4.773
4.772
4.765
4.768
4.770
4.764
4.764
4.764
4.767
4.775
4.773
4.771
4.764
4.764
4.768
4.766
4.765
4.768
4.762
4.766
4.771
4.779
4.786
4.785
4.781
4.777
4.776
4.775
4.778
4.780
4.779
4.775
4.775
4.779
4.786
4.793
4.786
4.785
4.781
4.782
4.775
4.774
4.775
4.774
4.778
4.777
4.779
4.788
4.795
4.796
4.795
4.796
4.795
4.791
4.795
4.791
4.792
4.790
4.792
4.786
4.790
4.793
4.800
4.808
4.816
4.810
4.808
4.802
4.803
4.799
4.798
4.799
4.800
4.799
4.800
4.796
4.798
4.807
4.811
4.807
4.808
4.807
4.806
4.801
4.797
4.791
4.789
4.783
4.779
4.785
4.789
4.788
4.792
4.786
4.784
4.785
4.783
4.785
4.786
4.786
4.784
4.777
4.779
4.777
4.781
4.786
4.794
4.793
4.797
4.790
4.786
4.780
4.775
4.774
4.771
4.768
4.771
4.768
4.768
4.769
4.776
4.783
4.787
4.793
4.790
4.790
4.789
4.786
4.792
4.785
4.781
4.782
4.786
4.779
4.778
4.777
4.781
4.779
4.783
4.788
4.795
4.801
4.800
4.804
4.798
4.797
4.795
4.791
4.792
4.794
4.798
4.801
4.800
4.799
4.794
4.786
4.781
4.786
4.794
4.799
4.806
4.802
4.798
4.794
4.795
4.796
4.795
4.796
4.795
4.793
4.794
4.796
4.790
4.786
4.783
4.780
4.784
4.791
4.798
4.802
4.797
4.796
4.798
4.793
4.795
4.793
4.794
4.796
4.792
4.793
4.792
4.793
4.794
4.793
4.789
4.788
4.790
4.790
4.794
4.799
4.806
4.812
4.814
4.815
4.816
4.812
4.806
4.804
4.811
4.810
4.809
4.807
4.806
4.810
4.809
4.808
4.808
4.807
4.806
4.810
4.808
4.804
4.806
4.812
4.819
4.818
4.816
4.818
4.819
4.818
4.819
4.821
4.816
4.812
4.809
4.807
4.805
4.807
4.801
4.797
4.801
4.808
4.808
4.804
4.801
4.804
4.811
4.815
4.822
4.827
4.827
4.824
4.822
4.820
4.823
4.824
4.823
4.823
4.827
4.829
4.827
4.823
4.820
4.820
4.820
4.818
4.822
4.820
4.822
4.821
4.817
4.812
4.819
4.823
4.828
4.835
4.839
4.843
4.844
4.842
4.841
4.837
4.841
4.838
4.836
4.837
4.833
4.835
4.834
4.832
4.828
4.831
4.831
4.829
4.825
4.829
4.825
4.823
4.827
4.826
4.823
4.827
4.834
4.829
4.825
4.823
4.820
4.821
4.820
4.820
4.819
4.816
4.814
4.813
4.809
4.813
4.812
4.813
4.812
4.813
4.812
4.812
4.814
4.813
4.819
4.815
4.812
4.813
4.819
4.826
4.830
4.835
4.836
4.834
4.830
4.826
4.823
4.823
4.823
4.815
4.814
4.815
4.819
4.821
4.823
4.818
4.814
4.816
4.814
4.812
4.809
4.808
4.809
4.808
4.808
4.808
4.808
4.808
4.814
4.821
4.825
4.831
4.836
4.837
4.841
4.846
4.845
4.843
4.842
4.838
4.836
4.840
4.841
4.840
4.838
4.840
4.836
4.831
4.828
4.829
4.825
4.824
4.825
4.824
4.825
4.827
4.828
4.821
4.820
4.818
4.816
4.816
4.819
4.824
4.828
4.834
4.839
4.845
4.847
4.848
4.842
4.846
4.847
4.843
4.844
4.840
4.845
4.845
4.849
4.849
4.849
4.851
4.844
4.840
4.845
4.846
4.849
4.846
4.842
4.845
4.844
4.838
4.831
4.831
4.833
4.831
4.830
4.835
4.830
4.834
4.833
4.835
4.841
4.846
4.850
4.854
4.860
4.865
4.868
4.862
4.861
4.857
4.857
4.857
4.861
4.859
4.858
4.859
4.861
4.862
4.860
4.859
4.863
4.862
4.864
4.865
4.861
4.859
4.858
4.856
4.853
4.854
4.853
4.851
4.852
4.851
4.847
4.848
4.850
4.849
4.847
4.842
4.845
4.851
4.853
4.859
4.864
4.868
4.874
4.870
4.869
4.870
4.872
4.873
4.874
4.873
4.868
4.868
4.868
4.868
4.866
4.862
4.858
4.854
4.850
4.848
4.847
4.842
4.842
