2.994
3.334
3.511
3.630
3.718
3.786
3.851
3.895
3.919
3.977
3.976
4.018
4.056
4.065
4.055
4.084
4.108
4.131
4.151
4.177
4.199
4.211
4.229
4.203
4.163
4.170
4.181
4.189
4.204
4.208
4.221
4.227
4.239
4.241
4.256
4.268
4.267
4.274
4.288
4.287
4.297
4.307
4.313
4.312
4.322
4.331
4.338
4.332
4.340
4.345
4.355
4.361
4.373
4.358
4.368
4.370
4.381
4.389
4.392
4.403
4.403
4.394
4.403
4.402
4.409
4.416
4.417
4.425
4.431
4.435
4.440
4.435
4.432
4.433
4.434
4.440
4.450
4.454
4.455
4.462
4.464
4.470
4.473
4.474
4.478
4.482
4.491
4.474
4.472
4.482
4.477
4.479
4.481
4.490
4.494
4.499
4.497
4.503
4.500
4.504
4.513
4.514
4.518
4.523
4.518
4.525
4.524
4.529
4.533
4.542
4.546
4.544
4.540
4.525
4.522
4.526
4.525
4.526
4.533
4.534
4.538
4.542
4.540
4.545
4.549
4.555
4.546
4.548
4.551
4.551
4.555
4.553
4.560
4.566
4.571
4.570
4.573
4.573
4.582
4.584
4.576
4.581
4.579
4.580
4.581
4.581
4.590
4.594
4.592
4.599
4.601
4.603
4.601
4.600
4.609
4.614
4.609
4.614
4.607
4.613
4.610
4.619
4.610
4.599
4.588
4.586
4.582
4.588
4.592
4.595
4.596
4.592
4.599
4.602
4.604
4.602
4.603
4.610
4.606
4.611
4.612
4.613
4.620
4.621
4.609
4.611
4.615
4.611
4.615
4.613
4.614
4.616
4.618
4.618
4.620
4.622
4.628
4.624
4.631
4.629
4.637
4.640
4.636
4.643
4.642
4.643
4.636
4.638
4.636
4.643
4.647
4.643
4.658
4.654
4.653
4.655
4.656
4.652
4.642
4.651
4.650
4.646
4.658
4.657
4.651
4.654
4.647
4.658
4.656
4.655
4.664
4.657
4.659
4.662
4.662
4.660
4.670
4.671
4.669
4.674
4.677
4.679
4.675
4.684
4.677
4.676
4.686
4.674
4.673
4.682
4.681
4.682
4.684
4.690
4.686
4.685
4.695
4.693
4.692
4.695
4.700
4.696
4.697
4.699
4.711
4.701
4.699
4.696
4.692
4.690
4.694
4.699
4.700
4.699
4.697
4.707
4.695
4.695
4.699
4.701
4.697
4.692
4.697
4.704
4.705
4.706
4.697
4.710
4.713
4.707
4.707
4.710
4.722
4.720
4.718
4.712
4.718
4.729
4.724
4.725
4.722
4.725
4.732
4.732
4.724
4.723
4.721
4.714
4.710
4.703
4.702
4.693
4.692
4.688
4.702
4.698
4.688
4.681
4.686
4.699
4.700
4.699
4.695
4.698
4.697
4.704
4.705
4.704
4.702
4.703
4.705
4.703
4.705
4.699
4.699
4.698
4.710
4.715
4.710
4.710
4.707
4.704
4.711
4.721
4.722
4.718
4.718
4.720
4.719
4.725
4.732
4.725
4.722
4.717
4.710
4.710
4.711
4.706
4.705
4.706
4.702
4.712
4.716
4.715
4.711
4.704
4.703
4.703
4.707
4.707
4.703
4.704
4.705
4.704
4.705
4.714
4.713
4.710
4.703
4.707
4.705
4.701
4.711
4.718
4.718
4.717
4.714
4.714
4.710
4.712
4.719
4.729
4.732
4.729
4.730
4.725
4.716
4.717
4.721
4.731
4.736
4.728
4.727
4.723
4.724
4.721
4.718
4.728
4.732
4.732
4.733
4.736
4.735
4.726
4.724
4.725
4.735
4.737
4.740
4.739
4.733
4.736
4.733
4.736
4.733
4.736
4.746
4.756
4.758
4.753
4.752
4.747
4.746
4.745
4.744
4.744
4.747
4.740
4.741
4.737
4.738
4.742
4.740
4.734
4.735
4.745
4.754
4.748
4.749
4.744
4.740
4.737
4.733
4.734
4.733
4.742
4.752
4.753
4.752
4.751
4.751
4.753
4.746
4.750
4.749
4.744
4.747
4.756
4.766
4.764
4.760
4.759
4.763
4.764
4.762
4.756
4.747
4.748
4.754
4.764
4.766
4.762
4.763
4.766
4.762
4.762
4.765
4.762
4.760
4.759
4.758
4.767
4.776
4.780
4.781
4.780
4.777
4.783
4.781
4.783
4.774
4.777
4.774
4.767
4.774
4.781
4.787
4.786
4.785
4.780
4.782
4.778
4.776
4.772
4.773
4.770
4.773
4.775
4.779
4.773
4.768
4.764
4.760
4.756
4.755
4.755
4.751
4.748
4.752
4.759
4.766
4.766
4.766
4.770
4.766
4.766
4.762
4.758
4.760
4.766
4.758
4.759
4.754
4.753
4.758
4.759
4.757
4.755
4.757
4.755
4.757
4.758
4.757
4.759
4.757
4.753
4.752
4.748
4.754
4.761
4.770
4.775
4.773
4.769
4.763
4.764
4.760
4.759
4.762
4.766
4.765
4.766
4.763
4.766
4.760
4.762
4.770
4.777
4.782
4.773
4.777
4.777
4.770
4.775
4.776
4.770
4.768
4.761
4.760
4.761
4.766
4.762
4.763
4.770
4.776
4.775
4.776
4.773
4.777
4.773
4.771
4.767
4.770
4.764
4.765
4.764
4.760
4.759
4.757
4.753
4.762
4.769
4.776
4.783
4.792
4.791
4.788
4.784
4.782
4.778
4.779
4.783
4.781
4.775
4.776
4.777
4.774
4.773
4.777
4.777
4.779
4.777
4.782
4.789
4.796
4.803
4.796
4.795
4.795
4.795
4.792
4.789
4.785
4.786
4.784
4.783
4.785
4.783
4.782
4.781
4.779
4.778
4.779
4.786
4.792
4.799
4.796
4.794
4.796
4.792
4.792
4.792
4.793
4.795
4.793
4.792
4.796
4.795
4.790
4.789
4.793
4.792
4.790
4.791
4.790
4.788
4.795
4.800
4.807
4.813
4.821
4.821
4.817
4.821
4.820
4.819
4.818
4.816
4.810
4.807
4.804
4.800
4.803
4.810
4.806
4.811
4.809
4.805
4.804
4.799
4.798
4.805
4.810
4.818
4.823
4.819
4.814
4.810
4.810
4.816
4.814
4.810
4.804
4.799
4.795
4.791
4.787
4.783
4.777
4.780
4.779
4.788
4.784
4.786
4.792
4.797
4.803
4.810
4.809
4.810
4.809
4.813
4.815
4.814
4.810
4.810
4.804
4.800
4.798
4.799
4.795
4.789
4.792
4.794
4.793
4.791
4.787
4.786
4.784
4.778
4.785
4.789
4.796
4.802
4.809
4.808
4.806
4.811
4.814
4.813
4.814
4.810
4.809
4.805
4.807
4.808
4.806
4.808
4.806
4.803
4.804
4.808
4.804
4.803
4.809
4.808
4.803
4.803
4.798
4.800
4.792
4.797
4.803
4.808
4.814
4.821
4.820
4.821
4.815
4.813
4.815
4.813
4.809
4.814
4.818
4.816
4.818
4.814
4.814
4.814
4.809
4.814
4.815
4.818
4.817
4.816
4.812
4.816
4.814
4.811
4.812
4.813
4.810
4.811
4.807
4.813
4.817
4.824
4.829
4.835
4.837
4.838
4.839
4.838
4.831
4.825
4.825
4.829
4.826
4.824
4.826
4.827
4.828
4.825
4.831
4.832
4.834
4.832
4.834
4.835
4.837
4.833
4.831
4.830
4.834
4.832
4.826
4.819
4.821
4.822
4.825
4.824
4.829
4.835
4.839
4.844
4.842
4.844
4.844
4.844
4.848
4.846
4.847
4.849
4.848
4.844
4.844
4.836
4.832
4.838
4.840
4.836
4.839
4.841
4.839
4.835
4.834
4.830
4.831
4.829
4.825
4.821
4.817
4.813
4.810
4.811
4.814
4.818
4.823
4.829
4.832
4.838
4.840
4.840
4.840
4.838
4.837
4.841
4.839
4.840
4.837
4.840
4.836
4.830
4.837
4.840
4.839
4.840
4.837
4.838
4.837
4.838
4.831
4.830
4.832
4.830
4.826
4.822
4.821
4.824
4.823
4.829
4.825
4.822
4.825
4.830
4.826
4.829
4.828
4.832
4.831
4.835
4.840
4.846
4.850
4.855
4.859
4.862
4.856
4.851
4.853
4.855
4.859
4.862
4.862
4.858
4.858
4.857
4.853
4.854
4.851
4.851
4.851
4.849
4.853
4.849
4.850
4.847
4.851
4.858
4.862
4.862
4.859
4.854
4.851
4.849
4.853
4.855
4.851
4.849
4.851
4.847
4.848
4.849
4.848
4.847
4.845
4.847
4.848
4.852
4.858
4.863
4.867
4.871
4.877
4.877
4.873
4.866
4.866
4.871
4.870
4.871
4.873
4.868
4.864
4.871
4.867
4.866
4.869
4.874
