2.992
3.337
3.507
3.627
3.718
3.786
3.850
3.894
3.920
3.974
3.973
4.016
4.053
4.062
4.055
4.084
4.110
4.133
4.153
4.177
4.198
4.212
4.231
4.201
4.160
4.171
4.179
4.186
4.203
4.208
4.223
4.229
4.239
4.242
4.257
4.267
4.264
4.276
4.288
4.286
4.299
4.308
4.308
4.312
4.318
4.331
4.338
4.333
4.340
4.345
4.356
4.361
4.371
4.361
4.370
4.374
4.382
4.388
4.390
4.402
4.401
4.391
4.401
4.404
4.409
4.416
4.420
4.423
4.434
4.440
4.439
4.431
4.434
4.438
4.436
4.445
4.449
4.451
4.453
4.460
4.463
4.470
4.475
4.475
4.480
4.482
4.486
4.471
4.475
4.478
4.480
4.481
4.483
4.492
4.494
4.497
4.496
4.500
4.504
4.509
4.510
4.517
4.520
4.522
4.521
4.520
4.524
4.528
4.540
4.539
4.543
4.547
4.537
4.525
4.521
4.522
4.527
4.531
4.529
4.533
4.537
4.544
4.546
4.544
4.549
4.549
4.545
4.549
4.549
4.555
4.557
4.560
4.562
4.566
4.568
4.566
4.571
4.572
4.579
4.579
4.571
4.579
4.584
4.582
4.584
4.583
4.587
4.591
4.601
4.599
4.598
4.604
4.601
4.607
4.609
4.608
4.616
4.613
4.606
4.610
4.619
4.616
4.605
4.594
4.582
4.582
4.592
4.585
4.595
4.594
4.590
4.602
4.598
4.610
4.603
4.602
4.609
4.607
4.612
4.608
4.616
4.613
4.619
4.613
4.608
4.618
4.611
4.616
4.611
4.615
4.612
4.618
4.619
4.624
4.620
4.627
4.620
4.629
4.631
4.629
4.634
4.631
4.644
4.640
4.641
4.635
4.642
4.637
4.636
4.651
4.644
4.649
4.652
4.649
4.658
4.657
4.655
4.646
4.645
4.649
4.641
4.656
4.657
4.651
4.652
4.646
4.652
4.654
4.652
4.659
4.660
4.657
4.658
4.659
4.661
4.665
4.669
4.668
4.668
4.679
4.680
4.676
4.682
4.681
4.674
4.686
4.677
4.673
4.680
4.679
4.683
4.679
4.693
4.690
4.686
4.690
4.693
4.690
4.691
4.701
4.697
4.698
4.694
4.709
4.704
4.698
4.699
4.692
4.690
4.690
4.699
4.695
4.701
4.697
4.708
4.698
4.693
4.695
4.701
4.698
4.693
4.695
4.704
4.706
4.704
4.700
4.708
4.712
4.708
4.706
4.708
4.720
4.721
4.717
4.712
4.716
4.727
4.725
4.723
4.723
4.723
4.730
4.734
4.722
4.726
4.722
4.715
4.711
4.704
4.700
4.694
4.692
4.688
4.700
4.699
4.689
4.680
4.686
4.699
4.698
4.697
4.695
4.697
4.697
4.704
4.706
4.702
4.703
4.702
4.705
4.702
4.703
4.699
4.697
4.696
4.709
4.715
4.709
4.708
4.706
4.704
4.711
4.721
4.720
4.716
4.717
4.720
4.719
4.724
4.731
4.724
4.722
4.718
4.709
4.708
4.711
4.705
4.705
4.705
4.701
4.713
4.716
4.713
4.709
4.704
4.705
4.704
4.706
4.704
4.703
4.704
4.703
4.702
4.705
4.715
4.712
4.710
4.705
4.707
4.705
4.702
4.712
4.718
4.717
4.716
4.714
4.713
4.708
4.713
4.720
4.729
4.731
4.727
4.728
4.721
4.716
4.716
4.722
4.732
4.736
4.726
4.725
4.723
4.722
4.721
4.720
4.731
4.728
4.731
4.731
4.734
4.731
4.726
4.725
4.726
4.736
4.734
4.739
4.737
4.736
4.734
4.734
4.735
4.731
4.738
4.747
4.757
4.757
4.749
4.750
4.743
4.745
4.745
4.745
4.745
4.745
4.738
4.739
4.740
4.738
4.740
4.738
4.734
4.738
4.748
4.752
4.748
4.749
4.742
4.741
4.738
4.731
4.732
4.736
4.746
4.753
4.753
4.753
4.751
4.749
4.749
4.744
4.751
4.745
4.742
4.750
4.759
4.768
4.764
4.760
4.759
4.760
4.760
4.761
4.753
4.745
4.749
4.758
4.768
4.763
4.760
4.761
4.767
4.761
4.762
4.763
4.760
4.761
4.759
4.763
4.770
4.779
4.779
4.782
4.779
4.779
4.781
4.780
4.778
4.774
4.778
4.769
4.768
4.777
4.784
4.785
4.786
4.782
4.778
4.777
4.778
4.771
4.771
4.772
4.768
4.772
4.778
4.775
4.770
4.766
4.764
4.755
4.756
4.752
4.754
4.752
4.751
4.755
4.762
4.764
4.762
4.771
4.768
4.764
4.765
4.760
4.759
4.763
4.762
4.761
4.756
4.752
4.759
4.760
4.757
4.757
4.753
4.752
4.756
4.760
4.756
4.757
4.756
4.755
4.749
4.750
4.751
4.758
4.765
4.774
4.771
4.771
4.764
4.763
4.760
4.760
4.760
4.764
4.767
4.764
4.760
4.763
4.759
4.760
4.767
4.775
4.782
4.775
4.773
4.777
4.771
4.775
4.775
4.771
4.768
4.763
4.757
4.758
4.764
4.760
4.760
4.768
4.775
4.777
4.775
4.771
4.776
4.774
4.771
4.769
4.767
4.764
4.762
4.764
4.764
4.758
4.756
4.752
4.759
4.768
4.773
4.782
4.789
4.791
4.786
4.785
4.781
4.780
4.778
4.780
4.779
4.777
4.775
4.775
4.775
4.775
4.776
4.774
4.778
4.775
4.781
4.786
4.795
4.802
4.798
4.794
4.794
4.794
4.794
4.791
4.786
4.786
4.784
4.785
4.784
4.783
4.781
4.779
4.779
4.775
4.778
4.785
4.790
4.799
4.797
4.794
4.797
4.793
4.792
4.793
4.792
4.794
4.795
4.793
4.795
4.793
4.790
4.786
4.792
4.790
4.789
4.790
4.789
4.786
4.794
4.799
4.806
4.812
4.820
4.820
4.816
4.821
4.819
4.818
4.817
4.816
4.809
4.807
4.805
4.801
4.801
4.808
4.806
4.810
4.809
4.804
4.803
4.799
4.798
4.805
4.811
4.816
4.823
4.818
4.814
4.808
4.811
4.813
4.812
4.808
4.805
4.799
4.795
4.791
4.786
4.783
4.778
4.779
4.779
4.788
4.784
4.785
4.790
4.797
4.803
4.810
4.809
4.808
4.808
4.812
4.812
4.813
4.811
4.810
4.803
4.797
4.798
4.799
4.794
4.790
4.792
4.793
4.792
4.790
4.787
4.786
4.782
4.779
4.786
4.791
4.797
4.804
4.809
4.805
4.806
4.812
4.812
4.812
4.811
4.808
4.808
4.805
4.809
4.808
4.805
4.807
4.805
4.804
4.805
4.807
4.803
4.805
4.809
4.807
4.805
4.802
4.797
4.799
4.792
4.799
4.803
4.808
4.816
4.820
4.820
4.820
4.812
4.813
4.814
4.812
4.809
4.815
4.816
4.815
4.819
4.815
4.814
4.812
4.811
4.815
4.816
4.815
4.817
4.815
4.812
4.816
4.811
4.810
4.812
4.813
4.811
4.810
4.809
4.815
4.819
4.824
4.831
4.837
4.836
4.838
4.839
4.835
4.830
4.824
4.825
4.829
4.825
4.826
4.825
4.827
4.827
4.827
4.830
4.832
4.831
4.831
4.834
4.832
4.838
4.832
4.831
4.834
4.834
4.829
4.823
4.818
4.819
4.821
4.823
4.826
4.831
4.835
4.841
4.843
4.842
4.843
4.844
4.846
4.847
4.846
4.849
4.849
4.847
4.843
4.841
4.835
4.833
4.840
4.836
4.837
4.839
4.838
4.836
4.835
4.831
4.831
4.828
4.826
4.822
4.818
4.814
4.810
4.812
4.812
4.814
4.820
4.825
4.831
4.834
4.838
4.838
4.840
4.839
4.837
4.838
4.838
4.838
4.835
4.838
4.837
4.833
4.834
4.838
4.837
4.839
4.838
4.838
4.835
4.841
4.834
4.830
4.831
4.830
4.827
4.825
4.821
4.822
4.821
4.825
4.824
4.823
4.823
4.827
4.826
4.827
4.826
4.831
4.832
4.833
4.838
4.844
4.848
4.853
4.857
4.858
4.857
4.852
4.849
4.853
4.857
4.860
4.862
4.857
4.854
4.857
4.854
4.855
4.851
4.853
4.849
4.849
4.853
4.850
4.849
4.847
4.851
4.857
4.859
4.863
4.859
4.855
4.853
4.849
4.851
4.853
4.851
4.850
4.851
4.849
4.848
4.850
4.848
4.847
4.843
4.847
4.848
4.852
4.857
4.861
4.867
4.871
4.875
4.877
4.871
4.868
4.864
4.869
4.870
4.871
4.873
4.868
4.865
4.869
4.867
4.864
4.868
4.872
4.871
4.868
4.867
