2.992
3.331
3.510
3.633
3.712
3.781
3.846
3.888
3.917
3.969
3.971
4.014
4.052
4.085
4.054
4.081
4.106
4.130
4.149
4.175
4.191
4.210
4.230
4.239
4.197
4.166
4.184
4.189
4.197
4.214
4.218
4.232
4.236
4.247
4.250
4.263
4.277
4.275
4.285
4.297
4.295
4.304
4.310
4.322
4.318
4.326
4.334
4.343
4.351
4.342
4.353
4.358
4.364
4.372
4.381
4.373
4.379
4.382
4.392
4.397
4.400
4.410
4.412
4.401
4.410
4.408
4.417
4.422
4.430
4.430
4.440
4.446
4.444
4.449
4.437
4.444
4.446
4.448
4.452
4.462
4.463
4.461
4.471
4.474
4.478
4.486
4.479
4.488
4.494
4.497
4.480
4.481
4.489
4.485
4.484
4.492
4.499
4.506
4.507
4.506
4.502
4.509
4.512
4.516
4.527
4.524
4.530
4.531
4.529
4.538
4.533
4.541
4.546
4.545
4.554
4.556
4.541
4.534
4.528
4.530
4.535
4.537
4.540
4.540
4.545
4.546
4.550
4.552
4.559
4.565
4.552
4.556
4.559
4.555
4.561
4.565
4.565
4.572
4.579
4.581
4.575
4.583
4.586
4.586
4.587
4.580
4.584
4.590
4.588
4.593
4.594
4.593
4.598
4.604
4.608
4.602
4.610
4.608
4.615
4.612
4.621
4.619
4.619
4.613
4.617
4.623
4.622
4.620
4.608
4.597
4.594
4.591
4.595
4.598
4.598
4.610
4.601
4.602
4.611
4.609
4.619
4.606
4.615
4.611
4.615
4.618
4.618
4.624
4.627
4.629
4.615
4.623
4.619
4.621
4.618
4.619
4.617
4.626
4.622
4.632
4.626
4.633
4.628
4.637
4.634
4.636
4.641
4.639
4.649
4.642
4.650
4.647
4.645
4.646
4.642
4.649
4.647
4.653
4.656
4.654
4.665
4.664
4.659
4.670
4.660
4.652
4.652
4.655
4.655
4.654
4.662
4.662
4.650
4.660
4.653
4.659
4.665
4.668
4.663
4.670
4.669
4.660
4.676
4.670
4.671
4.680
4.681
4.676
4.680
4.690
4.687
4.679
4.689
4.686
4.684
4.685
4.687
4.681
4.688
4.694
4.692
4.689
4.697
4.699
4.697
4.692
4.704
4.703
4.705
4.701
4.710
4.706
4.705
4.708
4.713
4.711
4.701
4.704
4.702
4.695
4.698
4.713
4.711
4.709
4.710
4.706
4.709
4.701
4.699
4.710
4.706
4.703
4.700
4.710
4.716
4.714
4.709
4.707
4.720
4.721
4.719
4.718
4.721
4.728
4.727
4.723
4.723
4.722
4.737
4.733
4.732
4.734
4.726
4.741
4.736
4.733
4.727
4.721
4.715
4.709
4.703
4.709
4.704
4.698
4.701
4.698
4.701
4.695
4.694
4.693
4.695
4.707
4.709
4.704
4.708
4.705
4.701
4.714
4.714
4.717
4.715
4.710
4.705
4.710
4.708
4.711
4.708
4.710
4.712
4.720
4.720
4.716
4.718
4.715
4.715
4.720
4.729
4.729
4.729
4.727
4.727
4.731
4.729
4.734
4.730
4.722
4.715
4.710
4.722
4.719
4.715
4.711
4.713
4.716
4.713
4.721
4.723
4.716
4.712
4.712
4.703
4.713
4.718
4.710
4.712
4.715
4.714
4.715
4.710
4.721
4.718
4.715
4.713
4.713
4.711
4.707
4.715
4.727
4.726
4.726
4.726
4.720
4.718
4.721
4.723
4.729
4.741
4.741
4.733
4.731
4.728
4.725
4.728
4.727
4.739
4.735
4.737
4.736
4.729
4.728
4.728
4.726
4.733
4.742
4.741
4.746
4.746
4.737
4.734
4.733
4.738
4.734
4.745
4.746
4.749
4.744
4.745
4.743
4.746
4.743
4.742
4.743
4.753
4.764
4.765
4.762
4.755
4.749
4.753
4.755
4.748
4.746
4.749
4.750
4.752
4.751
4.750
4.747
4.746
4.744
4.742
4.745
4.755
4.763
4.754
4.746
4.744
4.748
4.747
4.741
4.739
4.740
4.749
4.759
4.765
4.761
4.762
4.761
4.758
4.755
4.755
4.753
4.751
4.754
4.759
4.768
4.769
4.766
4.769
4.770
4.774
4.766
4.760
4.753
4.754
4.753
4.763
4.772
4.774
4.773
4.774
4.773
4.770
4.772
4.775
4.770
4.769
4.767
4.764
4.770
4.779
4.788
4.790
4.790
4.791
4.791
4.793
4.786
4.778
4.782
4.782
4.780
4.778
4.781
4.790
4.795
4.787
4.787
4.789
4.790
4.782
4.781
4.780
4.780
4.779
4.780
4.780
4.775
4.775
4.774
4.766
4.763
4.761
4.763
4.759
4.761
4.763
4.762
4.760
4.766
4.775
4.774
4.775
4.778
4.775
4.775
4.772
4.770
4.771
4.769
4.763
4.756
4.750
4.758
4.767
4.767
4.766
4.768
4.763
4.763
4.768
4.770
4.767
4.766
4.762
4.765
4.760
4.753
4.754
4.761
4.769
4.777
4.779
4.772
4.775
4.771
4.775
4.772
4.771
4.771
4.771
4.774
4.775
4.774
4.775
4.772
4.770
4.771
4.780
4.787
4.786
4.780
4.786
4.784
4.784
4.780
4.777
4.771
4.768
4.767
4.770
4.768
4.773
4.771
4.771
4.774
4.782
4.787
4.785
4.783
4.786
4.777
4.772
4.774
4.776
4.777
4.776
4.768
4.768
4.767
4.766
4.765
4.765
4.769
4.776
4.784
4.791
4.797
4.797
4.792
4.793
4.791
4.786
4.786
4.791
4.787
4.781
4.781
4.788
4.785
4.784
4.785
4.785
4.788
4.790
4.786
4.791
4.798
4.806
4.803
4.800
4.799
4.804
4.797
4.797
4.796
4.792
4.796
4.795
4.795
4.792
4.791
4.785
4.785
4.791
4.783
4.782
4.789
4.797
4.803
4.806
4.803
4.806
4.801
4.801
4.803
4.803
4.800
4.799
4.802
4.806
4.803
4.801
4.801
4.798
4.795
4.799
4.802
4.802
4.797
4.794
4.798
4.805
4.812
4.819
4.826
4.829
4.827
4.829
4.826
4.828
4.824
4.820
4.815
4.810
4.811
4.810
4.812
4.812
4.820
4.821
4.815
4.813
4.806
4.805
4.801
4.807
4.810
4.816
4.823
4.821
4.815
4.814
4.816
4.818
4.816
4.812
4.807
4.802
4.798
4.793
4.794
4.790
4.790
4.786
4.788
4.788
4.790
4.797
4.794
4.794
4.797
4.803
4.809
4.815
4.820
4.820
4.820
4.820
4.823
4.820
4.814
4.813
4.813
4.808
4.802
4.801
4.796
4.797
4.797
4.803
4.805
4.797
4.797
4.790
4.785
4.786
4.785
4.791
4.797
4.803
4.809
4.815
4.814
4.813
4.820
4.822
4.824
4.822
4.819
4.816
4.815
4.814
4.816
4.816
4.817
4.816
4.814
4.814
4.814
4.814
4.811
4.813
4.811
4.808
4.813
4.808
4.800
4.800
4.796
4.802
4.808
4.814
4.820
4.826
4.825
4.826
4.823
4.820
4.822
4.823
4.821
4.822
4.825
4.827
4.826
4.824
4.824
4.825
4.822
4.820
4.824
4.827
4.824
4.822
4.824
4.822
4.825
4.823
4.822
4.819
4.814
4.816
4.813
4.812
4.816
4.822
4.828
4.833
4.839
4.845
4.847
4.842
4.839
4.838
4.838
4.838
4.836
4.838
4.831
4.832
4.835
4.840
4.841
4.838
4.837
4.838
4.843
4.843
4.846
4.844
4.842
4.842
4.840
4.839
4.837
4.830
4.832
4.829
4.828
4.830
4.829
4.828
4.831
4.836
4.841
4.847
4.852
4.849
4.850
4.851
4.853
4.856
4.856
4.858
4.855
4.849
4.844
4.843
4.842
4.841
4.846
4.850
4.849
4.849
4.845
4.844
4.842
4.840
4.836
4.831
4.827
4.822
4.823
4.821
4.818
4.819
4.821
4.820
4.819
4.823
4.828
4.833
4.838
4.843
4.848
4.852
4.850
4.847
4.846
4.852
4.849
4.850
4.845
4.844
4.841
4.839
4.842
4.842
4.847
4.849
4.843
4.845
4.843
4.847
4.843
4.845
4.839
4.832
4.833
4.831
4.831
4.834
4.834
4.833
4.833
4.830
4.834
4.834
4.837
4.834
4.833
4.833
4.837
4.840
4.838
4.843
4.848
4.853
4.858
4.863
4.865
4.863
4.865
4.861
4.860
4.867
4.873
4.871
4.869
4.864
4.863
4.862
4.858
4.860
4.859
4.858
4.860
4.859
4.863
4.857
4.857
4.859
4.858
4.864
4.869
4.867
4.861
4.858
4.858
