2.988
3.316
3.510
3.607
3.710
3.758
3.838
3.838
3.897
3.951
4.000
3.959
3.931
3.962
3.984
4.004
4.025
4.039
4.068
4.076
4.092
4.099
4.123
4.125
4.143
4.162
4.168
4.168
4.180
4.205
4.218
4.197
4.213
4.222
4.236
4.246
4.262
4.270
4.250
4.257
4.272
4.273
4.284
4.298
4.293
4.314
4.320
4.331
4.323
4.304
4.316
4.327
4.337
4.327
4.335
4.347
4.353
4.360
4.362
4.359
4.366
4.381
4.384
4.392
4.399
4.403
4.397
4.402
4.419
4.404
4.378
4.382
4.392
4.401
4.404
4.413
4.405
4.399
4.398
4.405
4.404
4.413
4.423
4.437
4.421
4.432
4.443
4.437
4.444
4.453
4.443
4.451
4.448
4.445
4.444
4.453
4.453
4.465
4.472
4.464
4.479
4.476
4.477
4.481
4.483
4.495
4.499
4.496
4.506
4.508
4.499
4.495
4.505
4.500
4.489
4.503
4.506
4.509
4.512
4.509
4.523
4.524
4.525
4.530
4.537
4.529
4.529
4.537
4.536
4.534
4.519
4.505
4.494
4.505
4.497
4.504
4.504
4.503
4.515
4.526
4.516
4.522
4.529
4.525
4.527
4.528
4.509
4.514
4.517
4.507
4.507
4.508
4.491
4.514
4.514
4.508
4.513
4.530
4.520
4.518
4.523
4.541
4.526
4.519
4.524
4.534
4.532
4.524
4.527
4.551
4.552
4.541
4.540
4.551
4.561
4.563
4.553
4.543
4.549
4.545
4.548
4.544
4.555
4.556
4.552
4.543
4.545
4.561
4.569
4.568
4.555
4.542
4.561
4.574
4.567
4.568
4.568
4.566
4.578
4.597
4.586
4.578
4.580
4.579
4.587
4.600
4.596
4.597
4.586
4.576
4.589
4.605
4.595
4.583
4.570
4.562
4.579
4.582
4.580
4.572
4.557
4.554
4.569
4.575
4.570
4.567
4.569
4.565
4.565
4.572
4.589
4.586
4.578
4.574
4.568
4.568
4.569
4.579
4.596
4.579
4.572
4.568
4.563
4.572
4.574
4.578
4.596
4.587
4.589
4.598
4.593
4.593
4.591
4.587
4.586
4.604
4.611
4.614
4.599
4.597
4.591
4.588
4.587
4.585
4.600
4.615
4.613
4.623
4.615
4.614
4.612
4.614
4.609
4.615
4.602
4.619
4.635
4.631
4.623
4.625
4.627
4.626
4.618
4.616
4.616
4.610
4.623
4.629
4.620
4.613
4.611
4.610
4.612
4.606
4.597
4.599
4.599
4.615
4.610
4.616
4.619
4.613
4.619
4.619
4.611
4.610
4.609
4.616
4.610
4.607
4.622
4.634
4.624
4.627
4.622
4.628
4.632
4.627
4.632
4.628
4.625
4.623
4.618
4.613
4.627
4.641
4.650
4.649
4.648
4.654
4.654
4.647
4.652
4.642
4.650
4.639
4.644
4.632
4.642
4.634
4.643
4.656
4.668
4.668
4.666
4.659
4.662
4.648
4.644
4.647
4.650
4.653
4.646
4.636
4.627
4.625
4.638
4.651
4.660
4.658
4.670
4.661
4.649
4.649
4.656
4.654
4.648
4.647
4.653
4.653
4.652
4.649
4.641
4.636
4.638
4.651
4.663
4.675
4.688
4.695
4.690
4.686
4.684
4.688
4.680
4.679
4.683
4.683
4.683
4.686
4.680
4.676
4.672
4.658
4.656
4.658
4.663
4.675
4.687
4.699
4.698
4.697
4.697
4.703
4.706
4.698
4.687
4.681
4.677
4.676
4.682
4.679
4.672
4.665
4.659
4.652
4.645
4.650
4.662
4.672
4.683
4.687
4.684
4.685
4.679
4.671
4.663
4.654
4.658
4.658
4.664
4.655
4.651
4.646
4.644
4.637
4.632
4.623
4.629
4.631
4.632
4.643
4.653
4.664
4.673
4.678
4.678
4.671
4.665
4.662
4.663
4.668
4.657
4.662
4.671
4.668
4.666
4.660
4.658
4.650
4.656
4.657
4.657
4.657
4.656
4.653
4.656
4.657
4.649
4.645
4.655
4.664
4.665
4.663
4.660
4.666
4.654
4.656
4.663
4.667
4.659
4.657
4.653
4.652
4.653
4.655
4.657
4.651
4.646
4.650
4.646
4.647
4.643
4.648
4.648
4.648
4.651
4.656
4.651
4.649
4.652
4.650
4.659
4.668
4.677
4.685
4.680
4.680
4.679
4.669
4.660
4.658
4.662
4.669
4.665
4.660
4.660
4.657
4.661
4.668
4.667
4.659
4.659
4.655
4.648
4.644
4.643
4.641
4.643
4.644
4.642
4.644
4.650
4.640
4.641
4.639
4.641
4.650
4.658
4.667
4.675
4.684
4.685
4.692
4.701
4.695
4.692
4.683
4.677
4.680
4.684
4.671
4.664
4.663
4.666
4.670
4.662
4.662
4.665
4.666
4.672
4.671
4.665
4.655
4.654
4.658
4.664
4.661
4.665
4.665
4.661
4.664
4.662
4.657
4.664
4.665
4.661
4.662
4.662
4.653
4.661
4.669
4.677
4.685
4.692
4.690
4.695
4.695
4.697
4.697
4.694
4.693
4.694
4.691
4.685
4.692
4.701
4.702
4.705
4.703
4.701
4.699
4.703
4.701
4.693
4.689
4.679
4.676
4.689
4.677
4.675
4.671
4.671
4.679
4.684
4.686
4.676
4.677
4.672
4.668
4.663
4.658
4.658
4.669
4.673
4.682
4.678
4.677
4.676
4.669
4.671
4.679
4.686
4.693
4.701
4.708
4.715
4.723
4.730
4.735
4.728
4.724
4.726
4.728
4.732
4.725
4.724
4.721
4.716
4.719
4.725
4.727
4.726
4.724
4.721
4.717
4.716
4.707
4.709
4.708
4.712
4.720
4.715
4.717
4.719
4.717
4.720
4.720
4.723
4.724
4.720
4.718
4.713
4.706
4.708
4.702
4.694
4.692
4.692
4.698
4.696
4.701
4.693
4.685
4.678
4.680
4.682
4.681
4.674
4.681
4.688
4.694
4.701
4.708
4.715
4.717
4.709
4.711
4.720
4.720
4.719
4.722
4.717
4.715
4.706
4.707
4.705
4.708
4.713
4.719
4.715
4.712
4.710
4.709
4.706
4.705
4.697
4.692
4.696
4.684
4.681
4.676
4.672
4.672
4.676
4.683
4.682
4.680
4.681
4.676
4.680
4.679
4.680
4.682
4.688
4.688
4.690
4.692
4.688
4.684
4.684
4.672
4.671
4.670
4.670
4.672
4.677
4.673
4.674
4.663
4.671
4.666
4.665
4.663
4.664
4.666
4.667
4.673
4.680
4.686
4.692
4.698
4.704
4.710
4.716
4.722
4.729
4.735
4.738
4.731
4.729
4.730
4.728
4.728
4.731
4.729
4.734
4.730
4.725
4.725
4.717
4.714
4.715
4.711
4.713
4.714
4.722
4.726
4.728
4.730
4.727
4.728
4.726
4.722
4.720
4.715
4.709
4.719
4.723
4.724
4.719
4.723
4.717
4.725
4.718
4.719
4.720
4.717
4.715
4.715
4.720
4.718
4.720
4.718
4.709
4.714
4.714
4.712
4.710
4.708
4.709
4.706
4.702
4.702
4.703
4.701
4.698
4.697
4.698
4.703
4.707
4.710
4.716
4.713
4.714
4.708
4.702
4.709
4.716
4.712
4.709
4.705
4.700
4.697
4.692
4.693
4.698
4.704
4.709
4.715
4.721
4.726
4.732
4.737
4.743
4.748
4.752
4.750
4.753
4.749
4.747
4.744
4.743
4.743
4.735
4.729
4.727
4.725
4.719
4.712
4.716
4.718
4.713
4.715
4.707
4.706
4.704
4.696
4.694
4.702
4.706
4.701
4.705
4.709
4.708
4.707
4.697
4.693
4.694
4.693
4.699
4.701
4.699
4.701
4.699
4.696
4.700
4.705
4.706
4.699
4.706
4.706
4.706
4.700
4.699
4.695
4.692
4.693
4.692
4.692
4.686
4.680
4.681
4.676
4.680
4.682
4.684
4.679
4.673
4.676
4.678
4.677
4.672
4.666
4.665
4.671
4.665
4.660
4.661
4.659
4.670
4.662
4.656
4.654
4.656
4.656
4.651
4.655
4.663
4.661
4.667
4.674
4.667
4.659
4.661
4.663
4.668
4.673
4.678
4.683
4.688
4.693
4.697
4.702
4.707
4.712
4.717
4.722
4.727
4.732
4.737
4.742
4.747
4.752
4.757
4.762
4.766
4.765
4.757
4.759
4.762
4.762
4.767
4.768
4.763
4.768
4.775
4.770
4.763
4.761
4.760
4.758
4.754
4.750
4.757
4.751
4.744
4.738
4.740
4.739
4.736
4.734
4.733
4.732
4.729
4.727
4.731
4.727
4.728
4.725
