2.992
3.326
3.506
3.623
3.723
3.773
3.821
3.898
3.911
3.965
3.992
3.982
4.017
4.055
4.080
4.113
4.132
4.164
4.118
4.086
4.103
4.116
4.125
4.138
4.154
4.161
4.180
4.183
4.201
4.199
4.214
4.228
4.226
4.240
4.249
4.264
4.262
4.269
4.279
4.295
4.285
4.289
4.306
4.312
4.320
4.331
4.321
4.328
4.336
4.345
4.350
4.356
4.363
4.370
4.357
4.361
4.364
4.375
4.379
4.381
4.391
4.397
4.398
4.404
4.416
4.407
4.404
4.404
4.408
4.418
4.419
4.425
4.427
4.427
4.438
4.443
4.447
4.448
4.449
4.453
4.460
4.473
4.471
4.475
4.468
4.452
4.452
4.454
4.458
4.467
4.471
4.473
4.480
4.478
4.477
4.481
4.488
4.486
4.493
4.497
4.501
4.504
4.508
4.509
4.506
4.514
4.512
4.515
4.519
4.527
4.533
4.532
4.530
4.541
4.546
4.547
4.546
4.545
4.543
4.545
4.543
4.545
4.530
4.523
4.519
4.522
4.528
4.536
4.533
4.530
4.539
4.540
4.539
4.541
4.549
4.550
4.544
4.542
4.544
4.544
4.544
4.552
4.547
4.555
4.558
4.555
4.564
4.562
4.565
4.565
4.577
4.571
4.565
4.572
4.571
4.582
4.580
4.591
4.584
4.592
4.589
4.580
4.577
4.587
4.581
4.582
4.577
4.586
4.586
4.590
4.587
4.594
4.591
4.594
4.604
4.602
4.613
4.609
4.607
4.617
4.610
4.623
4.606
4.612
4.618
4.614
4.625
4.624
4.620
4.631
4.632
4.629
4.634
4.636
4.633
4.643
4.642
4.636
4.626
4.628
4.636
4.642
4.635
4.636
4.634
4.629
4.636
4.632
4.636
4.634
4.642
4.639
4.640
4.651
4.654
4.652
4.644
4.659
4.654
4.657
4.656
4.666
4.660
4.660
4.665
4.677
4.669
4.664
4.660
4.652
4.644
4.635
4.631
4.619
4.633
4.632
4.631
4.626
4.638
4.643
4.638
4.635
4.636
4.634
4.636
4.638
4.634
4.648
4.649
4.641
4.640
4.642
4.655
4.660
4.658
4.657
4.657
4.664
4.662
4.663
4.660
4.654
4.648
4.644
4.646
4.645
4.648
4.647
4.647
4.645
4.639
4.646
4.647
4.646
4.640
4.633
4.640
4.652
4.642
4.639
4.641
4.646
4.647
4.655
4.660
4.653
4.657
4.653
4.656
4.665
4.663
4.661
4.665
4.660
4.660
4.664
4.671
4.656
4.658
4.659
4.662
4.660
4.675
4.669
4.672
4.671
4.667
4.666
4.665
4.680
4.683
4.683
4.684
4.684
4.677
4.679
4.681
4.696
4.693
4.691
4.681
4.670
4.670
4.677
4.686
4.684
4.684
4.680
4.677
4.675
4.675
4.683
4.684
4.686
4.678
4.681
4.687
4.682
4.675
4.684
4.697
4.702
4.698
4.696
4.693
4.694
4.695
4.689
4.692
4.699
4.695
4.700
4.697
4.700
4.693
4.692
4.695
4.696
4.708
4.716
4.714
4.710
4.712
4.718
4.717
4.712
4.706
4.706
4.718
4.725
4.726
4.724
4.727
4.719
4.710
4.704
4.708
4.708
4.721
4.733
4.726
4.726
4.720
4.713
4.706
4.698
4.693
4.705
4.706
4.704
4.699
4.696
4.700
4.699
4.695
4.699
4.698
4.695
4.697
4.697
4.695
4.694
4.695
4.693
4.688
4.688
4.691
4.688
4.690
4.701
4.708
4.703
4.702
4.703
4.709
4.701
4.699
4.699
4.701
4.699
4.699
4.705
4.711
4.717
4.716
4.714
4.714
4.705
4.705
4.701
4.705
4.703
4.700
4.700
4.701
4.712
4.710
4.714
4.715
4.706
4.703
4.703
4.700
4.699
4.696
4.702
4.699
4.699
4.705
4.715
4.725
4.728
4.722
4.719
4.716
4.720
4.722
4.720
4.717
4.717
4.720
4.717
4.712
4.715
4.724
4.730
4.739
4.738
4.729
4.724
4.729
4.724
4.728
4.727
4.732
4.723
4.717
4.713
4.710
4.714
4.724
4.733
4.743
4.740
4.739
4.739
4.736
4.739
4.741
4.735
4.733
4.734
4.730
4.731
4.733
4.733
4.737
4.732
4.736
4.746
4.755
4.763
4.756
4.751
4.749
4.749
4.756
4.758
4.751
4.751
4.747
4.739
4.739
4.738
4.734
4.740
4.740
4.746
4.755
4.759
4.757
4.754
4.748
4.746
4.740
4.733
4.726
4.728
4.726
4.726
4.728
4.729
4.728
4.726
4.726
4.735
4.744
4.750
4.748
4.747
4.746
4.742
4.743
4.740
4.733
4.731
4.726
4.722
4.722
4.721
4.725
4.728
4.726
4.726
4.725
4.729
4.737
4.746
4.754
4.761
4.755
4.756
4.760
4.757
4.756
4.757
4.752
4.750
4.742
4.740
4.738
4.736
4.738
4.740
4.738
4.736
4.734
4.727
4.734
4.743
4.751
4.759
4.767
4.770
4.770
4.770
4.770
4.770
4.769
4.773
4.768
4.765
4.760
4.751
4.754
4.755
4.760
4.755
4.752
4.754
4.748
4.749
4.748
4.749
4.748
4.756
4.764
4.772
4.780
4.783
4.791
4.787
4.783
4.784
4.794
4.785
4.780
4.779
4.780
4.773
4.769
4.771
4.777
4.772
4.773
4.775
4.774
4.767
4.766
4.766
4.759
4.764
4.764
4.768
4.775
4.783
4.790
4.793
4.792
4.789
4.788
4.781
4.781
4.777
4.770
4.767
4.765
4.767
4.770
4.771
4.768
4.760
4.762
4.756
4.755
4.756
4.754
4.754
4.756
4.757
4.754
4.761
4.768
4.775
4.782
4.790
4.789
4.792
4.788
4.789
4.788
4.783
4.782
4.785
4.785
4.785
4.779
4.779
4.783
4.778
4.778
4.776
4.778
4.781
4.781
4.782
4.777
4.781
4.777
4.778
4.778
4.775
4.773
4.775
4.771
4.777
4.784
4.791
4.798
4.805
4.812
4.812
4.814
4.815
4.812
4.808
4.807
4.810
4.809
4.806
4.813
4.811
4.815
4.816
4.817
4.818
4.819
4.811
4.804
4.799
4.795
4.796
4.791
4.788
4.787
4.785
4.791
4.788
4.796
4.796
4.794
4.790
4.791
4.798
4.804
4.810
4.817
4.818
4.814
4.810
4.806
4.803
4.799
4.796
4.792
4.788
4.784
4.786
4.783
4.787
4.781
4.774
4.771
4.771
4.770
4.764
4.766
4.766
4.766
4.764
4.761
4.765
4.767
4.768
4.771
4.763
4.762
4.768
4.774
4.780
4.786
4.793
4.799
4.796
4.792
4.787
4.783
4.781
4.779
4.777
4.774
4.776
4.779
4.777
4.773
4.772
4.772
4.771
4.774
4.775
4.779
4.774
4.770
4.768
4.766
4.772
4.769
4.773
4.777
4.777
4.773
4.768
4.764
4.763
4.762
4.765
4.762
4.762
4.762
4.763
4.769
4.775
4.781
4.787
4.792
4.788
4.789
4.788
4.790
4.785
4.783
4.779
4.777
4.778
4.781
4.784
4.787
4.792
4.794
4.791
4.789
4.791
4.789
4.786
4.785
4.783
4.783
4.785
4.784
4.785
4.783
4.782
4.782
4.780
4.777
4.772
4.769
4.774
4.771
4.768
4.764
4.767
4.770
4.773
4.772
4.779
4.782
4.775
4.772
4.775
4.781
4.786
4.792
4.797
4.795
4.791
4.788
4.789
4.789
4.787
4.788
4.785
4.780
4.785
4.786
4.782
4.776
4.778
4.772
4.772
4.774
4.770
4.772
4.772
4.768
4.765
4.773
4.780
4.781
4.776
4.772
4.771
4.767
4.771
4.765
4.767
4.769
4.772
4.770
4.765
4.765
4.763
4.764
4.765
4.768
4.767
4.763
4.763
4.767
4.770
4.768
4.767
4.771
4.776
4.781
4.786
4.792
4.797
4.802
4.807
4.811
4.810
4.806
4.800
4.800
4.799
4.797
4.796
4.800
4.799
4.803
4.799
4.797
4.800
4.797
4.792
4.787
4.781
4.776
4.771
4.768
4.769
4.770
4.767
4.770
4.766
4.767
4.769
4.767
4.765
4.769
4.765
4.764
4.770
4.770
4.770
4.769
4.771
4.778
4.778
4.780
4.778
4.778
4.780
4.776
4.777
4.780
4.774
4.774
4.768
4.766
4.763
4.766
4.771
4.776
4.781
4.785
4.790
4.795
4.800
4.805
4.804
4.810
4.806
4.806
4.806
4.805
4.810
4.809
4.811
4.814
4.812
4.810
4.809
4.804
4.806
4.801
4.794
4.795
4.796
