2.988
3.324
3.509
3.611
3.711
3.765
3.826
3.843
3.901
3.955
4.000
3.947
3.928
3.961
3.990
4.009
4.026
4.039
4.061
4.075
4.096
4.104
4.122
4.120
4.137
4.160
4.153
4.173
4.186
4.200
4.213
4.196
4.217
4.228
4.237
4.251
4.263
4.246
4.252
4.265
4.266
4.278
4.287
4.296
4.304
4.315
4.325
4.328
4.300
4.315
4.312
4.326
4.327
4.331
4.342
4.346
4.354
4.364
4.359
4.365
4.368
4.383
4.383
4.392
4.394
4.401
4.394
4.411
4.409
4.381
4.384
4.387
4.396
4.397
4.409
4.402
4.393
4.393
4.398
4.400
4.405
4.419
4.434
4.414
4.429
4.439
4.443
4.436
4.449
4.436
4.442
4.446
4.445
4.437
4.451
4.463
4.462
4.471
4.473
4.471
4.470
4.476
4.470
4.494
4.485
4.495
4.489
4.502
4.501
4.490
4.506
4.493
4.488
4.485
4.496
4.493
4.519
4.501
4.518
4.517
4.526
4.524
4.521
4.533
4.526
4.542
4.531
4.540
4.525
4.511
4.496
4.507
4.491
4.494
4.506
4.504
4.506
4.526
4.514
4.516
4.524
4.516
4.521
4.532
4.513
4.509
4.512
4.511
4.509
4.504
4.495
4.512
4.508
4.508
4.504
4.526
4.518
4.515
4.516
4.534
4.519
4.511
4.525
4.532
4.527
4.521
4.529
4.547
4.546
4.539
4.537
4.555
4.557
4.555
4.549
4.549
4.547
4.539
4.543
4.537
4.550
4.548
4.540
4.545
4.545
4.569
4.561
4.559
4.553
4.547
4.571
4.569
4.563
4.565
4.561
4.566
4.589
4.589
4.580
4.577
4.581
4.577
4.589
4.592
4.591
4.584
4.574
4.582
4.599
4.594
4.588
4.575
4.562
4.576
4.577
4.584
4.577
4.561
4.549
4.565
4.572
4.568
4.569
4.564
4.558
4.561
4.568
4.586
4.589
4.578
4.572
4.568
4.565
4.564
4.578
4.593
4.580
4.569
4.561
4.559
4.571
4.569
4.579
4.593
4.588
4.588
4.598
4.586
4.588
4.582
4.580
4.589
4.607
4.611
4.602
4.596
4.587
4.587
4.583
4.584
4.588
4.605
4.618
4.614
4.614
4.613
4.610
4.610
4.606
4.613
4.608
4.609
4.626
4.633
4.623
4.619
4.624
4.619
4.622
4.615
4.617
4.609
4.616
4.632
4.623
4.613
4.602
4.614
4.607
4.603
4.591
4.596
4.594
4.610
4.607
4.614
4.614
4.608
4.614
4.610
4.612
4.607
4.600
4.614
4.609
4.604
4.619
4.630
4.620
4.626
4.620
4.621
4.630
4.624
4.627
4.624
4.620
4.615
4.611
4.613
4.628
4.642
4.644
4.643
4.643
4.651
4.654
4.643
4.649
4.639
4.642
4.637
4.635
4.631
4.638
4.632
4.645
4.659
4.665
4.664
4.663
4.655
4.659
4.644
4.641
4.645
4.645
4.646
4.642
4.632
4.626
4.630
4.643
4.656
4.652
4.659
4.658
4.655
4.653
4.649
4.652
4.645
4.642
4.647
4.648
4.648
4.645
4.643
4.634
4.634
4.646
4.659
4.671
4.684
4.692
4.686
4.684
4.681
4.681
4.679
4.676
4.678
4.680
4.679
4.686
4.674
4.673
4.674
4.661
4.659
4.656
4.662
4.674
4.686
4.698
4.696
4.690
4.696
4.698
4.701
4.695
4.687
4.678
4.673
4.672
4.673
4.678
4.672
4.665
4.658
4.652
4.645
4.652
4.663
4.675
4.686
4.684
4.680
4.686
4.677
4.669
4.661
4.652
4.655
4.660
4.655
4.650
4.650
4.641
4.639
4.635
4.627
4.620
4.630
4.626
4.637
4.647
4.658
4.666
4.676
4.679
4.669
4.663
4.661
4.658
4.661
4.658
4.656
4.666
4.663
4.662
4.655
4.652
4.654
4.651
4.651
4.651
4.654
4.652
4.649
4.651
4.654
4.645
4.643
4.653
4.663
4.662
4.661
4.660
4.660
4.653
4.652
4.661
4.661
4.656
4.659
4.649
4.648
4.648
4.652
4.655
4.650
4.642
4.644
4.639
4.640
4.637
4.640
4.646
4.648
4.651
4.654
4.648
4.650
4.648
4.652
4.661
4.670
4.679
4.678
4.675
4.678
4.674
4.667
4.658
4.655
4.664
4.664
4.660
4.656
4.654
4.656
4.658
4.664
4.660
4.656
4.656
4.647
4.641
4.644
4.643
4.636
4.641
4.641
4.644
4.643
4.638
4.634
4.640
4.638
4.646
4.655
4.664
4.673
4.681
4.686
4.688
4.696
4.694
4.689
4.686
4.676
4.678
4.680
4.670
4.661
4.658
4.662
4.664
4.661
4.659
4.662
4.660
4.662
4.668
4.659
4.652
4.647
4.658
4.660
4.656
4.658
4.661
4.660
4.659
4.658
4.652
4.664
4.664
4.654
4.661
4.657
4.654
4.662
4.670
4.678
4.686
4.689
4.687
4.691
4.691
4.693
4.691
4.690
4.694
4.690
4.684
4.686
4.695
4.698
4.699
4.699
4.696
4.699
4.695
4.696
4.694
4.688
4.686
4.676
4.684
4.680
4.676
4.666
4.665
4.674
4.679
4.682
4.681
4.673
4.669
4.669
4.665
4.659
4.655
4.666
4.668
4.679
4.673
4.669
4.678
4.667
4.670
4.677
4.685
4.692
4.700
4.707
4.714
4.722
4.730
4.731
4.728
4.725
4.724
4.724
4.725
4.723
4.720
4.720
4.712
4.714
4.721
4.724
4.719
4.724
4.718
4.711
4.712
4.707
4.708
4.707
4.712
4.714
4.710
4.717
4.714
4.713
4.720
4.718
4.722
4.720
4.715
4.713
4.711
4.704
4.701
4.694
4.686
4.691
4.688
4.691
4.694
4.695
4.690
4.682
4.677
4.673
4.677
4.674
4.678
4.684
4.691
4.698
4.705
4.712
4.715
4.712
4.713
4.717
4.715
4.715
4.720
4.713
4.711
4.708
4.703
4.701
4.705
4.709
4.712
4.714
4.711
4.705
4.703
4.703
4.703
4.698
4.690
4.697
4.686
4.677
4.675
4.671
4.671
4.672
4.677
4.678
4.676
4.672
4.674
4.674
4.675
4.680
4.679
4.681
4.686
4.691
4.690
4.684
4.683
4.678
4.671
4.666
4.667
4.666
4.668
4.672
4.668
4.667
4.663
4.662
4.663
4.657
4.663
4.664
4.664
4.669
4.676
4.682
4.688
4.694
4.700
4.707
4.713
4.719
4.725
4.732
4.738
4.734
4.725
4.725
4.729
4.722
4.730
4.724
4.728
4.730
4.723
4.720
4.715
4.712
4.712
4.711
4.706
4.711
4.720
4.726
4.724
4.724
4.725
4.727
4.723
4.718
4.713
4.714
4.707
4.714
4.721
4.718
4.713
4.719
4.716
4.723
4.718
4.715
4.715
4.715
4.715
4.709
4.718
4.713
4.714
4.716
4.709
4.709
4.712
4.706
4.706
4.705
4.707
4.701
4.698
4.702
4.702
4.693
4.694
4.693
4.698
4.699
4.703
4.712
4.714
4.710
4.708
4.706
4.703
4.711
4.716
4.712
4.707
4.703
4.699
4.695
4.691
4.695
4.701
4.707
4.712
4.718
4.723
4.729
4.734
4.740
4.746
4.749
4.748
4.750
4.752
4.745
4.741
4.738
4.737
4.737
4.730
4.725
4.722
4.721
4.714
4.710
4.714
4.715
4.710
4.704
4.707
4.701
4.697
4.690
4.700
4.698
4.694
4.701
4.706
4.701
4.706
4.698
4.689
4.692
4.693
4.691
4.698
4.696
4.696
4.696
4.693
4.701
4.703
4.699
4.698
4.699
4.702
4.698
4.696
4.695
4.692
4.689
4.690
4.690
4.691
4.685
4.679
4.673
4.676
4.677
4.678
4.680
4.674
4.670
4.671
4.677
4.670
4.666
4.663
4.664
4.664
4.660
4.660
4.656
4.662
4.661
4.658
4.650
4.653
4.655
4.648
4.651
4.658
4.661
4.663
4.667
4.669
4.657
4.656
4.661
4.666
4.671
4.676
4.681
4.686
4.691
4.696
4.701
4.706
4.711
4.716
4.721
4.726
4.731
4.736
4.741
4.746
4.751
4.756
4.761
4.765
4.761
4.755
4.756
4.757
4.760
4.762
4.761
4.762
4.769
4.771
4.767
4.763
4.760
4.758
4.755
4.749
4.749
4.750
4.748
4.742
4.735
4.739
4.732
4.732
4.729
4.730
4.728
4.724
4.724
4.728
4.724
4.723
4.725
4.727
4.719
4.716
4.714
4.721
4.718
4.718
4.713
4.708
4.703
4.699
4.694
