2.994
3.334
3.510
3.632
3.720
3.778
3.838
3.874
3.936
3.943
3.988
4.031
4.007
4.038
4.064
4.094
4.116
4.146
4.163
4.189
4.201
4.154
4.131
4.142
4.152
4.170
4.177
4.189
4.202
4.205
4.219
4.231
4.234
4.245
4.249
4.258
4.270
4.282
4.276
4.286
4.298
4.308
4.301
4.310
4.320
4.327
4.336
4.329
4.336
4.340
4.353
4.357
4.369
4.373
4.361
4.371
4.372
4.381
4.388
4.390
4.401
4.406
4.408
4.397
4.401
4.401
4.408
4.417
4.423
4.422
4.427
4.438
4.440
4.445
4.448
4.452
4.459
4.444
4.445
4.447
4.446
4.452
4.459
4.461
4.471
4.463
4.467
4.474
4.482
4.488
4.489
4.491
4.490
4.496
4.498
4.505
4.509
4.508
4.517
4.508
4.497
4.491
4.497
4.497
4.500
4.508
4.512
4.512
4.512
4.521
4.523
4.512
4.520
4.526
4.527
4.529
4.533
4.540
4.541
4.538
4.539
4.546
4.552
4.543
4.544
4.551
4.549
4.546
4.558
4.560
4.568
4.573
4.572
4.571
4.569
4.579
4.585
4.587
4.586
4.579
4.580
4.589
4.585
4.581
4.569
4.556
4.561
4.557
4.568
4.567
4.561
4.571
4.577
4.576
4.574
4.579
4.574
4.581
4.580
4.587
4.593
4.590
4.583
4.586
4.577
4.587
4.579
4.589
4.586
4.590
4.593
4.598
4.597
4.595
4.602
4.603
4.607
4.608
4.610
4.614
4.610
4.611
4.610
4.614
4.612
4.622
4.623
4.630
4.624
4.628
4.629
4.622
4.615
4.617
4.627
4.622
4.627
4.620
4.626
4.625
4.621
4.636
4.626
4.631
4.627
4.631
4.642
4.636
4.637
4.650
4.646
4.647
4.653
4.655
4.645
4.660
4.654
4.649
4.651
4.652
4.653
4.661
4.660
4.655
4.667
4.664
4.665
4.671
4.671
4.666
4.670
4.682
4.673
4.669
4.676
4.664
4.660
4.671
4.673
4.671
4.673
4.679
4.668
4.664
4.676
4.672
4.665
4.671
4.676
4.677
4.671
4.679
4.684
4.682
4.682
4.682
4.697
4.691
4.689
4.686
4.698
4.699
4.697
4.696
4.698
4.705
4.701
4.702
4.697
4.699
4.692
4.685
4.679
4.672
4.665
4.666
4.673
4.663
4.657
4.658
4.673
4.672
4.671
4.671
4.668
4.677
4.681
4.679
4.678
4.674
4.678
4.677
4.676
4.677
4.678
4.679
4.687
4.685
4.679
4.679
4.684
4.691
4.695
4.694
4.694
4.697
4.694
4.699
4.701
4.701
4.690
4.683
4.682
4.682
4.682
4.682
4.681
4.682
4.687
4.682
4.681
4.682
4.673
4.677
4.681
4.685
4.682
4.680
4.679
4.674
4.686
4.683
4.684
4.677
4.678
4.675
4.684
4.693
4.692
4.688
4.689
4.693
4.690
4.688
4.697
4.702
4.700
4.697
4.697
4.694
4.695
4.696
4.708
4.701
4.701
4.696
4.692
4.690
4.692
4.704
4.714
4.704
4.709
4.702
4.705
4.702
4.700
4.707
4.714
4.721
4.717
4.715
4.717
4.712
4.720
4.715
4.720
4.726
4.727
4.727
4.728
4.719
4.712
4.705
4.712
4.724
4.723
4.716
4.716
4.715
4.716
4.710
4.709
4.716
4.719
4.721
4.714
4.713
4.714
4.715
4.712
4.715
4.714
4.724
4.733
4.732
4.723
4.727
4.730
4.731
4.725
4.724
4.720
4.729
4.739
4.737
4.730
4.726
4.727
4.729
4.727
4.724
4.725
4.727
4.738
4.745
4.747
4.745
4.744
4.742
4.744
4.742
4.738
4.742
4.747
4.743
4.753
4.757
4.758
4.754
4.755
4.749
4.749
4.751
4.747
4.749
4.747
4.751
4.760
4.757
4.758
4.759
4.756
4.762
4.756
4.749
4.744
4.738
4.741
4.737
4.734
4.745
4.742
4.737
4.733
4.726
4.730
4.726
4.727
4.727
4.738
4.746
4.750
4.742
4.734
4.729
4.725
4.718
4.722
4.718
4.716
4.716
4.727
4.734
4.741
4.743
4.738
4.737
4.736
4.735
4.736
4.727
4.734
4.732
4.728
4.726
4.727
4.737
4.744
4.749
4.755
4.754
4.753
4.757
4.752
4.749
4.745
4.738
4.736
4.734
4.738
4.740
4.739
4.746
4.753
4.753
4.755
4.748
4.753
4.749
4.747
4.743
4.742
4.738
4.739
4.734
4.728
4.734
4.741
4.748
4.749
4.757
4.755
4.754
4.749
4.749
4.745
4.753
4.755
4.745
4.747
4.749
4.745
4.742
4.741
4.746
4.755
4.762
4.768
4.765
4.766
4.767
4.766
4.768
4.768
4.771
4.769
4.760
4.755
4.754
4.753
4.751
4.752
4.753
4.756
4.765
4.772
4.771
4.769
4.762
4.761
4.764
4.763
4.759
4.763
4.762
4.761
4.760
4.756
4.759
4.756
4.757
4.756
4.757
4.766
4.773
4.780
4.779
4.788
4.786
4.780
4.782
4.786
4.781
4.785
4.782
4.779
4.781
4.779
4.776
4.783
4.782
4.775
4.773
4.768
4.771
4.780
4.787
4.794
4.792
4.786
4.782
4.790
4.787
4.793
4.790
4.790
4.787
4.786
4.781
4.775
4.771
4.772
4.768
4.771
4.773
4.768
4.773
4.780
4.779
4.780
4.778
4.775
4.778
4.779
4.776
4.774
4.775
4.772
4.773
4.777
4.778
4.774
4.773
4.772
4.770
4.768
4.762
4.761
4.764
4.769
4.778
4.774
4.776
4.775
4.778
4.779
4.781
4.783
4.775
4.771
4.770
4.775
4.773
4.774
4.771
4.768
4.773
4.769
4.771
4.775
4.776
4.774
4.781
4.775
4.773
4.777
4.784
4.790
4.790
4.788
4.792
4.788
4.786
4.785
4.786
4.783
4.792
4.785
4.782
4.779
4.776
4.779
4.781
4.782
4.782
4.777
4.778
4.779
4.779
4.777
4.773
4.777
4.781
4.783
4.790
4.796
4.801
4.808
4.811
4.808
4.805
4.802
4.803
4.801
4.797
4.794
4.797
4.793
4.795
4.796
4.794
4.797
4.801
4.797
4.794
4.797
4.797
4.801
4.795
4.796
4.798
4.797
4.798
4.796
4.794
4.799
4.806
4.812
4.817
4.824
4.819
4.818
4.819
4.826
4.825
4.824
4.819
4.815
4.814
4.810
4.805
4.805
4.809
4.813
4.809
4.810
4.811
4.810
4.805
4.799
4.805
4.808
4.805
4.804
4.801
4.799
4.800
4.801
4.805
4.810
4.816
4.815
4.811
4.813
4.816
4.812
4.811
4.805
4.801
4.797
4.800
4.805
4.805
4.807
4.812
4.812
4.808
4.805
4.811
4.807
4.801
4.801
4.798
4.799
4.797
4.793
4.792
4.796
4.790
4.794
4.795
4.793
4.798
4.804
4.811
4.816
4.820
4.826
4.833
4.832
4.831
4.829
4.828
4.824
4.827
4.832
4.831
4.826
4.823
4.823
4.822
4.819
4.820
4.824
4.820
4.823
4.823
4.816
4.822
4.823
4.823
4.824
4.820
4.821
4.817
4.818
4.822
4.821
4.822
4.824
4.822
4.816
4.817
4.818
4.819
4.824
4.830
4.835
4.839
4.846
4.852
4.857
4.858
4.856
4.856
4.854
4.853
4.854
4.855
4.849
4.844
4.842
4.841
4.838
4.841
4.843
4.841
4.837
4.830
4.827
4.828
4.827
4.833
4.829
4.836
4.834
4.830
4.827
4.825
4.827
4.834
4.835
4.828
4.826
4.825
4.823
4.819
4.819
4.825
4.831
4.836
4.834
4.831
4.829
4.823
4.818
4.817
4.819
4.814
4.810
4.814
4.815
4.816
4.815
4.812
4.813
4.817
4.819
4.814
4.813
4.812
4.810
4.808
4.810
4.811
4.813
4.814
4.810
4.811
4.812
4.809
4.804
4.808
4.807
4.809
4.805
4.805
4.807
4.803
4.799
4.800
4.805
4.811
4.815
4.817
4.819
4.825
4.827
4.828
4.826
4.825
4.824
4.822
4.821
4.820
4.816
4.817
4.821
4.823
4.821
4.819
4.819
4.820
4.816
4.820
4.821
4.819
4.813
4.808
4.802
4.805
4.804
4.801
4.802
4.801
4.807
4.811
4.810
4.808
4.804
4.805
4.804
4.798
4.794
4.790
4.794
4.795
4.791
4.790
4.793
4.794
4.797
4.801
4.807
4.811
4.815
4.820
4.824
4.830
4.832
4.830
4.824
4.825
4.826
4.823
4.824
4.822
4.826
4.823
