2.994
3.332
3.514
3.638
3.723
3.783
3.842
3.878
3.942
3.945
3.992
4.037
4.008
4.038
4.064
4.092
4.126
4.147
4.171
4.188
4.171
4.127
4.129
4.145
4.156
4.163
4.182
4.186
4.205
4.204
4.223
4.223
4.236
4.251
4.249
4.259
4.272
4.270
4.279
4.293
4.302
4.290
4.305
4.317
4.319
4.333
4.323
4.331
4.338
4.347
4.353
4.361
4.360
4.361
4.362
4.371
4.379
4.383
4.390
4.396
4.398
4.404
4.393
4.402
4.401
4.407
4.411
4.415
4.419
4.427
4.433
4.440
4.439
4.448
4.452
4.438
4.439
4.438
4.441
4.448
4.452
4.454
4.464
4.462
4.464
4.468
4.475
4.478
4.486
4.482
4.488
4.486
4.497
4.500
4.508
4.509
4.512
4.495
4.482
4.489
4.486
4.495
4.499
4.500
4.507
4.506
4.510
4.516
4.512
4.516
4.510
4.517
4.521
4.528
4.534
4.534
4.537
4.538
4.546
4.547
4.535
4.541
4.548
4.544
4.546
4.553
4.556
4.566
4.565
4.564
4.564
4.568
4.579
4.574
4.582
4.575
4.573
4.577
4.584
4.582
4.568
4.556
4.553
4.556
4.557
4.561
4.565
4.558
4.570
4.574
4.565
4.572
4.576
4.571
4.579
4.580
4.584
4.583
4.578
4.577
4.579
4.575
4.576
4.580
4.584
4.588
4.589
4.593
4.590
4.599
4.597
4.605
4.598
4.610
4.606
4.608
4.603
4.602
4.601
4.615
4.611
4.615
4.622
4.616
4.625
4.618
4.617
4.607
4.616
4.615
4.623
4.619
4.617
4.618
4.612
4.626
4.625
4.624
4.627
4.619
4.633
4.631
4.628
4.640
4.641
4.638
4.647
4.642
4.644
4.649
4.647
4.646
4.642
4.642
4.655
4.649
4.649
4.657
4.656
4.656
4.660
4.670
4.660
4.660
4.671
4.671
4.663
4.676
4.668
4.657
4.664
4.662
4.663
4.668
4.671
4.671
4.661
4.670
4.666
4.660
4.669
4.670
4.668
4.665
4.679
4.675
4.671
4.673
4.683
4.690
4.683
4.679
4.686
4.690
4.688
4.686
4.690
4.700
4.694
4.689
4.691
4.703
4.696
4.689
4.683
4.676
4.669
4.662
4.671
4.660
4.653
4.656
4.668
4.668
4.664
4.662
4.663
4.675
4.669
4.671
4.668
4.667
4.669
4.664
4.666
4.667
4.669
4.682
4.679
4.676
4.669
4.675
4.682
4.687
4.688
4.686
4.686
4.686
4.693
4.693
4.693
4.689
4.685
4.681
4.675
4.675
4.671
4.673
4.677
4.682
4.675
4.675
4.675
4.673
4.675
4.678
4.674
4.673
4.674
4.670
4.677
4.681
4.674
4.676
4.669
4.668
4.672
4.686
4.685
4.682
4.679
4.687
4.680
4.681
4.693
4.701
4.694
4.690
4.688
4.690
4.688
4.695
4.697
4.695
4.696
4.690
4.685
4.682
4.693
4.705
4.708
4.701
4.699
4.695
4.693
4.698
4.699
4.709
4.710
4.709
4.707
4.708
4.705
4.709
4.708
4.714
4.723
4.717
4.721
4.722
4.723
4.714
4.705
4.711
4.715
4.717
4.713
4.706
4.708
4.711
4.705
4.705
4.716
4.712
4.713
4.709
4.702
4.705
4.707
4.706
4.705
4.716
4.726
4.725
4.719
4.720
4.723
4.719
4.718
4.716
4.718
4.725
4.735
4.739
4.731
4.720
4.718
4.719
4.723
4.714
4.718
4.727
4.737
4.739
4.742
4.738
4.738
4.736
4.732
4.733
4.732
4.738
4.734
4.745
4.754
4.750
4.753
4.747
4.749
4.745
4.743
4.738
4.742
4.741
4.746
4.755
4.751
4.750
4.751
4.747
4.751
4.752
4.753
4.745
4.740
4.734
4.729
4.730
4.734
4.736
4.734
4.727
4.721
4.725
4.723
4.720
4.727
4.738
4.740
4.739
4.742
4.733
4.727
4.720
4.712
4.712
4.710
4.711
4.721
4.730
4.737
4.736
4.735
4.730
4.729
4.728
4.724
4.723
4.729
4.728
4.723
4.719
4.726
4.734
4.740
4.742
4.746
4.744
4.748
4.747
4.745
4.744
4.743
4.734
4.727
4.728
4.734
4.733
4.742
4.745
4.746
4.745
4.743
4.744
4.740
4.741
4.745
4.738
4.732
4.730
4.727
4.725
4.731
4.739
4.743
4.745
4.746
4.745
4.743
4.742
4.740
4.739
4.743
4.742
4.742
4.741
4.740
4.736
4.737
4.739
4.748
4.756
4.764
4.758
4.757
4.755
4.762
4.763
4.759
4.760
4.759
4.761
4.754
4.745
4.746
4.744
4.748
4.747
4.756
4.763
4.771
4.766
4.757
4.761
4.753
4.756
4.756
4.753
4.754
4.755
4.757
4.750
4.746
4.749
4.753
4.749
4.753
4.761
4.767
4.775
4.773
4.780
4.781
4.774
4.775
4.779
4.776
4.774
4.776
4.774
4.770
4.774
4.773
4.777
4.776
4.775
4.767
4.766
4.771
4.779
4.786
4.793
4.790
4.783
4.778
4.780
4.784
4.782
4.784
4.785
4.778
4.775
4.778
4.772
4.767
4.761
4.764
4.766
4.768
4.769
4.775
4.771
4.771
4.771
4.770
4.772
4.770
4.768
4.770
4.766
4.762
4.769
4.773
4.768
4.770
4.772
4.768
4.760
4.759
4.756
4.757
4.764
4.771
4.772
4.773
4.769
4.770
4.772
4.773
4.774
4.770
4.768
4.764
4.768
4.764
4.764
4.764
4.761
4.765
4.763
4.767
4.766
4.765
4.769
4.770
4.769
4.770
4.777
4.782
4.786
4.789
4.783
4.781
4.782
4.779
4.777
4.776
4.783
4.782
4.782
4.775
4.772
4.770
4.772
4.773
4.774
4.773
4.772
4.770
4.771
4.768
4.766
4.770
4.775
4.781
4.788
4.793
4.801
4.806
4.804
4.801
4.801
4.798
4.794
4.790
4.790
4.789
4.785
4.789
4.790
4.790
4.791
4.795
4.793
4.790
4.790
4.787
4.788
4.787
4.791
4.790
4.786
4.787
4.786
4.790
4.797
4.803
4.810
4.816
4.816
4.816
4.812
4.816
4.815
4.819
4.819
4.816
4.812
4.808
4.802
4.801
4.801
4.801
4.801
4.805
4.802
4.803
4.804
4.801
4.797
4.800
4.799
4.798
4.797
4.795
4.794
4.795
4.802
4.806
4.810
4.806
4.807
4.806
4.805
4.805
4.805
4.805
4.799
4.795
4.796
4.801
4.797
4.803
4.805
4.803
4.804
4.803
4.801
4.800
4.796
4.792
4.791
4.787
4.790
4.789
4.788
4.784
4.786
4.792
4.788
4.795
4.801
4.808
4.812
4.817
4.824
4.827
4.824
4.822
4.823
4.820
4.816
4.820
4.824
4.825
4.823
4.817
4.815
4.817
4.813
4.812
4.812
4.814
4.815
4.816
4.815
4.814
4.818
4.817
4.812
4.814
4.813
4.812
4.815
4.816
4.812
4.817
4.816
4.812
4.812
4.812
4.816
4.822
4.829
4.833
4.838
4.844
4.849
4.852
4.849
4.844
4.845
4.845
4.851
4.849
4.849
4.849
4.842
4.838
4.832
4.834
4.837
4.834
4.831
4.831
4.827
4.822
4.819
4.825
4.824
4.825
4.824
4.822
4.821
4.819
4.823
4.830
4.834
4.828
4.821
4.820
4.819
4.819
4.819
4.825
4.831
4.833
4.827
4.823
4.823
4.820
4.818
4.814
4.810
4.806
4.808
4.808
4.808
4.812
4.805
4.809
4.812
4.811
4.810
4.808
4.804
4.801
4.801
4.803
4.802
4.808
4.807
4.806
4.804
4.803
4.801
4.800
4.799
4.800
4.801
4.800
4.799
4.801
4.799
4.800
4.801
4.806
4.808
4.808
4.812
4.817
4.823
4.820
4.823
4.820
4.816
4.816
4.812
4.814
4.812
4.809
4.815
4.814
4.815
4.812
4.810
4.811
4.813
4.811
4.810
4.812
4.812
4.806
4.802
4.797
4.796
4.795
4.796
4.800
4.801
4.801
4.801
4.800
4.799
4.797
4.797
4.797
4.791
4.787
4.786
4.789
4.786
4.786
4.790
4.795
4.799
4.805
4.808
4.812
4.818
4.823
4.823
4.822
4.819
4.822
4.818
4.816
4.816
4.816
4.818
4.820
4.818
4.822
4.823
4.827
4.829
4.828
4.829
4.828
4.826
4.822
4.816
4.812
4.813
4.812
4.813
4.814
4.812
4.809
4.807
4.808
4.805
4.803
4.804
4.806
4.808
4.806
4.802
4.798
4.796
