2.993
3.328
3.503
3.629
3.721
3.786
3.846
3.862
3.926
3.932
3.954
3.992
4.032
4.063
4.095
4.129
4.072
4.049
4.062
4.082
4.098
4.116
4.123
4.148
4.152
4.168
4.172
4.186
4.189
4.205
4.222
4.218
4.228
4.241
4.252
4.249
4.256
4.269
4.281
4.289
4.278
4.289
4.299
4.305
4.315
4.325
4.333
4.320
4.325
4.333
4.343
4.343
4.353
4.365
4.363
4.374
4.383
4.368
4.365
4.374
4.379
4.391
4.391
4.390
4.400
4.409
4.415
4.414
4.414
4.423
4.430
4.432
4.444
4.428
4.416
4.419
4.426
4.428
4.430
4.437
4.447
4.441
4.440
4.448
4.453
4.457
4.461
4.463
4.471
4.481
4.472
4.471
4.478
4.484
4.488
4.491
4.498
4.493
4.499
4.500
4.512
4.507
4.510
4.512
4.514
4.509
4.491
4.487
4.486
4.496
4.503
4.498
4.498
4.501
4.503
4.512
4.517
4.517
4.500
4.509
4.510
4.516
4.510
4.521
4.524
4.519
4.526
4.534
4.532
4.545
4.538
4.529
4.540
4.536
4.547
4.550
4.551
4.556
4.554
4.543
4.550
4.552
4.549
4.543
4.560
4.556
4.560
4.552
4.562
4.560
4.574
4.572
4.575
4.575
4.575
4.582
4.577
4.576
4.575
4.592
4.586
4.588
4.592
4.592
4.601
4.594
4.599
4.600
4.605
4.611
4.602
4.601
4.601
4.598
4.612
4.594
4.596
4.597
4.594
4.603
4.606
4.604
4.608
4.622
4.619
4.611
4.628
4.619
4.618
4.635
4.628
4.620
4.633
4.642
4.633
4.630
4.642
4.632
4.622
4.613
4.603
4.598
4.594
4.591
4.600
4.607
4.607
4.602
4.608
4.603
4.603
4.601
4.613
4.615
4.610
4.606
4.615
4.626
4.625
4.629
4.616
4.634
4.631
4.627
4.627
4.620
4.617
4.615
4.609
4.616
4.617
4.616
4.609
4.610
4.619
4.609
4.599
4.606
4.614
4.613
4.614
4.609
4.606
4.617
4.628
4.624
4.626
4.623
4.618
4.633
4.638
4.633
4.634
4.626
4.627
4.631
4.632
4.637
4.627
4.625
4.634
4.647
4.638
4.633
4.635
4.631
4.637
4.654
4.657
4.655
4.650
4.648
4.652
4.651
4.660
4.650
4.643
4.640
4.635
4.644
4.657
4.651
4.653
4.648
4.640
4.636
4.649
4.655
4.663
4.654
4.649
4.650
4.649
4.649
4.664
4.671
4.668
4.668
4.662
4.653
4.646
4.657
4.672
4.677
4.671
4.667
4.671
4.667
4.667
4.666
4.675
4.690
4.693
4.685
4.688
4.676
4.677
4.676
4.677
4.686
4.690
4.683
4.687
4.688
4.690
4.684
4.685
4.679
4.690
4.689
4.681
4.672
4.664
4.658
4.656
4.660
4.673
4.677
4.683
4.677
4.669
4.671
4.666
4.656
4.651
4.664
4.672
4.672
4.664
4.666
4.669
4.661
4.661
4.662
4.652
4.661
4.674
4.687
4.686
4.686
4.686
4.681
4.675
4.676
4.673
4.666
4.663
4.675
4.684
4.678
4.687
4.688
4.687
4.683
4.681
4.670
4.667
4.658
4.668
4.680
4.686
4.686
4.683
4.678
4.682
4.686
4.680
4.681
4.674
4.673
4.672
4.677
4.688
4.700
4.711
4.701
4.706
4.702
4.694
4.694
4.691
4.690
4.686
4.686
4.678
4.687
4.698
4.703
4.701
4.699
4.698
4.696
4.694
4.698
4.694
4.692
4.684
4.691
4.693
4.696
4.697
4.708
4.719
4.718
4.721
4.725
4.718
4.714
4.723
4.723
4.718
4.713
4.706
4.703
4.708
4.707
4.706
4.717
4.728
4.732
4.729
4.728
4.724
4.726
4.723
4.714
4.709
4.711
4.710
4.708
4.710
4.703
4.703
4.714
4.714
4.716
4.713
4.717
4.719
4.715
4.712
4.704
4.705
4.706
4.702
4.694
4.692
4.693
4.690
4.698
4.708
4.718
4.721
4.716
4.710
4.715
4.715
4.711
4.714
4.717
4.721
4.715
4.717
4.714
4.715
4.712
4.709
4.698
4.699
4.709
4.718
4.725
4.724
4.724
4.726
4.731
4.726
4.723
4.724
4.723
4.721
4.718
4.719
4.723
4.728
4.736
4.730
4.720
4.718
4.711
4.713
4.723
4.732
4.741
4.743
4.738
4.740
4.739
4.741
4.746
4.744
4.745
4.750
4.744
4.744
4.742
4.744
4.739
4.739
4.735
4.731
4.731
4.737
4.732
4.728
4.737
4.746
4.755
4.763
4.763
4.765
4.763
4.754
4.754
4.750
4.747
4.741
4.750
4.744
4.747
4.747
4.740
4.744
4.736
4.729
4.722
4.715
4.717
4.725
4.733
4.741
4.750
4.758
4.758
4.758
4.758
4.754
4.748
4.747
4.743
4.746
4.748
4.746
4.741
4.744
4.739
4.740
4.736
4.741
4.744
4.744
4.740
4.741
4.739
4.743
4.739
4.739
4.743
4.751
4.759
4.767
4.775
4.772
4.771
4.771
4.771
4.772
4.775
4.777
4.775
4.772
4.772
4.770
4.771
4.770
4.771
4.769
4.769
4.768
4.766
4.764
4.766
4.774
4.774
4.767
4.763
4.762
4.767
4.764
4.762
4.770
4.777
4.785
4.793
4.796
4.798
4.790
4.791
4.785
4.776
4.775
4.778
4.779
4.782
4.781
4.780
4.781
4.777
4.772
4.768
4.764
4.759
4.755
4.751
4.747
4.742
4.738
4.734
4.735
4.742
4.749
4.756
4.764
4.765
4.762
4.764
4.765
4.771
4.773
4.773
4.773
4.769
4.765
4.760
4.764
4.761
4.755
4.750
4.745
4.741
4.735
4.729
4.724
4.725
4.733
4.737
4.735
4.734
4.732
4.736
4.736
4.734
4.734
4.735
4.734
4.740
4.747
4.754
4.761
4.768
4.766
4.762
4.760
4.754
4.750
4.749
4.739
4.737
4.742
4.751
4.758
4.755
4.752
4.749
4.750
4.751
4.747
4.743
4.743
4.740
4.745
4.747
4.741
4.737
4.737
4.735
4.742
4.737
4.745
4.743
4.740
4.737
4.736
4.739
4.742
4.740
4.744
4.750
4.757
4.763
4.770
4.770
4.765
4.759
4.754
4.764
4.760
4.758
4.758
4.755
4.754
4.754
4.748
4.746
4.748
4.741
4.740
4.738
4.734
4.730
4.739
4.740
4.742
4.740
4.741
4.740
4.735
4.735
4.733
4.734
4.741
4.736
4.735
4.728
4.722
4.722
4.724
4.725
4.723
4.728
4.734
4.740
4.746
4.752
4.758
4.764
4.771
4.777
4.776
4.777
4.775
4.778
4.777
4.775
4.781
4.777
4.772
4.778
4.774
4.776
4.770
4.764
4.764
4.765
4.760
4.758
4.753
4.751
4.751
4.752
4.753
4.750
4.746
4.743
4.745
4.740
4.734
4.730
4.727
4.728
4.736
4.740
4.738
4.743
4.742
4.739
4.742
4.742
4.741
4.738
4.735
4.737
4.736
4.742
4.748
4.754
4.759
4.765
4.771
4.775
4.775
4.770
4.770
4.771
4.771
4.770
4.772
4.770
4.772
4.774
4.770
4.765
4.764
4.766
4.765
4.762
4.765
4.767
4.769
4.777
4.774
4.776
4.773
4.766
4.759
4.760
4.758
4.761
4.763
4.765
4.763
4.760
4.757
4.752
4.757
4.761
4.755
4.749
4.747
4.739
4.738
4.738
4.739
4.738
4.736
4.730
4.733
4.726
4.720
4.726
4.731
4.737
4.743
4.747
4.753
4.758
4.763
4.769
4.774
4.779
4.785
4.790
4.795
4.793
4.794
4.792
4.787
4.787
4.789
4.786
4.783
4.783
4.782
4.783
4.786
4.784
4.783
4.777
4.772
4.773
4.772
4.776
4.778
4.781
4.782
4.783
4.783
4.778
4.774
4.770
4.768
4.768
4.762
4.760
4.758
4.756
4.759
4.761
4.758
4.765
4.762
4.761
4.758
4.758
4.757
4.759
4.761
4.765
4.769
4.767
4.772
4.768
4.760
4.756
4.753
4.750
4.751
4.750
4.745
4.746
4.748
4.749
4.751
4.756
4.761
4.766
4.771
4.776
4.781
4.786
4.791
4.796
4.800
4.797
4.796
4.797
4.803
4.799
4.800
4.798
4.796
4.793
4.797
4.796
4.799
4.806
4.810
4.807
4.803
4.806
4.800
4.794
4.793
4.790
4.787
4.792
4.784
4.790
4.790
4.791
4.794
4.794
4.792
4.794
4.795
4.793
4.790
4.789
4.786
4.782
