2.992
3.334
3.506
3.618
3.700
3.762
3.840
3.874
3.938
3.914
3.962
3.999
4.033
4.071
4.103
4.070
4.026
4.046
4.061
4.079
4.097
4.109
4.122
4.140
4.143
4.164
4.174
4.183
4.196
4.192
4.209
4.222
4.234
4.230
4.242
4.254
4.270
4.276
4.270
4.274
4.286
4.295
4.308
4.317
4.300
4.309
4.318
4.325
4.329
4.340
4.348
4.350
4.362
4.364
4.349
4.350
4.360
4.367
4.373
4.370
4.388
4.388
4.395
4.399
4.398
4.408
4.415
4.419
4.429
4.410
4.396
4.403
4.412
4.419
4.417
4.430
4.428
4.424
4.426
4.436
4.450
4.443
4.455
4.460
4.459
4.462
4.456
4.460
4.470
4.482
4.480
4.479
4.491
4.488
4.496
4.493
4.499
4.498
4.502
4.496
4.478
4.471
4.470
4.479
4.485
4.484
4.488
4.495
4.497
4.495
4.507
4.485
4.496
4.495
4.500
4.493
4.508
4.507
4.507
4.512
4.522
4.517
4.521
4.517
4.522
4.526
4.535
4.537
4.541
4.537
4.541
4.534
4.532
4.542
4.540
4.534
4.549
4.536
4.540
4.539
4.552
4.550
4.563
4.559
4.566
4.561
4.571
4.566
4.570
4.564
4.570
4.575
4.568
4.586
4.584
4.585
4.590
4.583
4.596
4.591
4.590
4.583
4.590
4.589
4.585
4.589
4.585
4.589
4.587
4.581
4.598
4.597
4.596
4.607
4.609
4.603
4.612
4.614
4.617
4.614
4.620
4.616
4.618
4.629
4.623
4.619
4.617
4.607
4.598
4.588
4.579
4.591
4.585
4.585
4.592
4.602
4.587
4.581
4.601
4.600
4.595
4.589
4.606
4.600
4.604
4.602
4.615
4.618
4.606
4.611
4.615
4.618
4.606
4.599
4.609
4.597
4.592
4.592
4.601
4.597
4.595
4.588
4.599
4.599
4.592
4.591
4.592
4.607
4.604
4.603
4.609
4.603
4.612
4.613
4.615
4.613
4.615
4.613
4.622
4.618
4.609
4.607
4.611
4.625
4.622
4.621
4.620
4.614
4.618
4.635
4.637
4.640
4.634
4.633
4.629
4.641
4.647
4.648
4.642
4.632
4.625
4.640
4.637
4.633
4.633
4.630
4.629
4.635
4.637
4.640
4.639
4.635
4.634
4.629
4.642
4.654
4.651
4.651
4.651
4.644
4.640
4.644
4.655
4.662
4.655
4.651
4.656
4.651
4.645
4.655
4.670
4.676
4.678
4.671
4.670
4.666
4.661
4.662
4.675
4.685
4.680
4.674
4.667
4.665
4.661
4.671
4.675
4.685
4.685
4.679
4.672
4.663
4.656
4.649
4.659
4.660
4.664
4.663
4.658
4.655
4.644
4.652
4.650
4.657
4.656
4.649
4.653
4.649
4.645
4.644
4.642
4.643
4.655
4.668
4.662
4.666
4.664
4.666
4.662
4.666
4.661
4.659
4.655
4.666
4.672
4.663
4.667
4.668
4.664
4.662
4.664
4.668
4.661
4.657
4.669
4.665
4.667
4.663
4.658
4.665
4.667
4.670
4.664
4.659
4.659
4.663
4.675
4.685
4.691
4.688
4.686
4.681
4.683
4.682
4.681
4.681
4.672
4.668
4.672
4.682
4.696
4.698
4.688
4.682
4.677
4.681
4.675
4.674
4.677
4.671
4.677
4.673
4.683
4.693
4.705
4.703
4.703
4.704
4.699
4.698
4.705
4.704
4.702
4.701
4.696
4.693
4.689
4.693
4.703
4.714
4.716
4.712
4.708
4.711
4.708
4.709
4.707
4.706
4.703
4.695
4.694
4.698
4.696
4.699
4.697
4.698
4.692
4.703
4.705
4.703
4.700
4.698
4.694
4.685
4.688
4.685
4.686
4.679
4.686
4.695
4.707
4.704
4.697
4.688
4.700
4.699
4.697
4.695
4.700
4.699
4.696
4.699
4.694
4.696
4.697
4.696
4.696
4.698
4.708
4.711
4.719
4.712
4.710
4.709
4.708
4.707
4.705
4.698
4.700
4.704
4.703
4.712
4.718
4.714
4.707
4.707
4.705
4.709
4.716
4.726
4.727
4.722
4.729
4.725
4.725
4.725
4.729
4.729
4.727
4.725
4.729
4.725
4.724
4.728
4.725
4.723
4.719
4.717
4.716
4.718
4.729
4.736
4.746
4.745
4.743
4.745
4.740
4.744
4.743
4.742
4.733
4.733
4.735
4.733
4.736
4.726
4.727
4.726
4.719
4.723
4.718
4.714
4.721
4.728
4.735
4.744
4.743
4.742
4.741
4.736
4.735
4.736
4.730
4.729
4.732
4.729
4.730
4.726
4.724
4.725
4.727
4.729
4.727
4.723
4.722
4.722
4.719
4.720
4.729
4.737
4.744
4.753
4.762
4.758
4.754
4.755
4.754
4.756
4.754
4.761
4.759
4.758
4.759
4.759
4.757
4.756
4.754
4.755
4.751
4.744
4.744
4.745
4.751
4.750
4.751
4.753
4.754
4.758
4.752
4.756
4.763
4.772
4.774
4.777
4.781
4.775
4.774
4.770
4.765
4.766
4.765
4.762
4.763
4.767
4.766
4.770
4.770
4.767
4.770
4.766
4.762
4.756
4.752
4.748
4.743
4.739
4.733
4.734
4.743
4.750
4.755
4.755
4.749
4.753
4.755
4.755
4.751
4.751
4.754
4.748
4.749
4.751
4.749
4.744
4.746
4.744
4.743
4.737
4.732
4.726
4.722
4.717
4.718
4.717
4.719
4.720
4.718
4.714
4.716
4.722
4.730
4.737
4.743
4.750
4.754
4.753
4.751
4.745
4.740
4.739
4.741
4.736
4.733
4.733
4.741
4.742
4.746
4.740
4.730
4.731
4.729
4.726
4.729
4.725
4.727
4.731
4.724
4.723
4.719
4.720
4.719
4.728
4.730
4.722
4.719
4.722
4.729
4.734
4.736
4.737
4.744
4.750
4.757
4.764
4.770
4.764
4.763
4.758
4.752
4.747
4.741
4.744
4.748
4.747
4.743
4.734
4.729
4.725
4.725
4.725
4.724
4.726
4.725
4.725
4.725
4.723
4.721
4.718
4.722
4.718
4.721
4.720
4.716
4.715
4.716
4.715
4.716
4.711
4.713
4.720
4.727
4.733
4.738
4.745
4.751
4.758
4.759
4.759
4.760
4.761
4.757
4.759
4.763
4.770
4.768
4.767
4.765
4.761
4.760
4.761
4.760
4.759
4.757
4.748
4.743
4.739
4.741
4.736
4.730
4.731
4.733
4.736
4.733
4.729
4.724
4.726
4.729
4.723
4.725
4.718
4.725
4.725
4.722
4.725
4.722
4.722
4.724
4.720
4.725
4.731
4.738
4.742
4.749
4.755
4.760
4.762
4.757
4.758
4.755
4.759
4.754
4.753
4.755
4.759
4.759
4.758
4.754
4.750
4.746
4.747
4.743
4.750
4.751
4.758
4.757
4.761
4.763
4.762
4.759
4.751
4.749
4.748
4.744
4.747
4.744
4.742
4.743
4.744
4.746
4.744
4.748
4.742
4.744
4.737
4.738
4.731
4.725
4.720
4.714
4.715
4.714
4.714
4.719
4.725
4.730
4.736
4.741
4.748
4.754
4.758
4.763
4.769
4.774
4.780
4.785
4.781
4.779
4.778
4.773
4.777
4.777
4.772
4.766
4.766
4.765
4.772
4.770
4.766
4.759
4.762
4.763
4.761
4.762
4.761
4.765
4.762
4.762
4.762
4.760
4.761
4.757
4.755
4.752
4.753
4.748
4.755
4.752
4.750
4.744
4.745
4.744
4.740
4.738
4.740
4.743
4.740
4.748
4.747
4.749
4.751
4.754
4.751
4.749
4.745
4.741
4.737
4.730
4.729
4.732
4.737
4.743
4.748
4.754
4.759
4.765
4.769
4.773
4.778
4.784
4.789
4.788
4.786
4.784
4.789
4.784
4.783
4.782
4.785
4.788
4.788
4.787
4.789
4.788
4.789
4.785
4.789
4.790
4.788
4.784
4.783
4.776
4.775
4.771
4.772
4.773
4.772
4.776
4.777
4.774
4.777
4.773
4.769
4.771
4.772
4.771
4.770
4.774
4.778
4.776
4.777
4.776
4.772
4.768
4.770
4.773
4.767
4.765
4.766
4.765
4.764
4.768
4.764
4.765
4.762
4.768
4.770
4.771
4.769
4.763
4.758
4.762
4.764
4.765
4.767
4.770
4.767
4.768
4.766
4.763
4.766
4.770
4.775
4.781
4.785
4.790
4.796
4.798
4.803
4.807
4.813
4.818
4.822
4.822
4.825
4.822
4.824
4.823
4.822
4.822
4.818
4.814
4.811
4.811
4.807
4.801
4.802
4.796
4.797
4.792
4.791
