2.994
3.329
3.518
3.627
3.705
3.790
3.849
3.885
3.903
3.949
3.998
4.006
4.009
4.039
4.070
4.099
4.122
4.151
4.175
4.168
4.120
4.115
4.131
4.145
4.153
4.172
4.180
4.186
4.198
4.212
4.216
4.230
4.232
4.242
4.254
4.255
4.265
4.275
4.287
4.282
4.292
4.304
4.309
4.320
4.309
4.318
4.330
4.334
4.342
4.349
4.341
4.349
4.353
4.364
4.366
4.373
4.380
4.387
4.393
4.383
4.390
4.389
4.399
4.403
4.401
4.406
4.418
4.427
4.429
4.430
4.435
4.438
4.424
4.428
4.431
4.431
4.440
4.444
4.453
4.447
4.451
4.455
4.464
4.468
4.475
4.474
4.479
4.477
4.487
4.491
4.489
4.501
4.492
4.477
4.478
4.474
4.484
4.485
4.487
4.499
4.490
4.498
4.509
4.498
4.501
4.507
4.509
4.510
4.516
4.520
4.522
4.526
4.531
4.535
4.528
4.531
4.536
4.534
4.536
4.542
4.549
4.556
4.558
4.557
4.557
4.559
4.561
4.564
4.574
4.564
4.571
4.572
4.566
4.564
4.550
4.542
4.538
4.549
4.547
4.549
4.553
4.561
4.558
4.554
4.561
4.565
4.563
4.568
4.572
4.575
4.564
4.570
4.558
4.568
4.569
4.567
4.579
4.570
4.580
4.573
4.582
4.581
4.586
4.587
4.593
4.594
4.593
4.597
4.586
4.597
4.598
4.603
4.607
4.605
4.607
4.606
4.613
4.606
4.599
4.601
4.610
4.605
4.604
4.600
4.612
4.606
4.612
4.611
4.612
4.617
4.613
4.619
4.626
4.622
4.631
4.633
4.629
4.641
4.631
4.631
4.638
4.623
4.638
4.639
4.634
4.646
4.646
4.642
4.649
4.653
4.653
4.653
4.657
4.655
4.656
4.660
4.661
4.658
4.646
4.642
4.654
4.661
4.662
4.653
4.657
4.650
4.653
4.655
4.654
4.650
4.656
4.663
4.661
4.657
4.665
4.675
4.672
4.672
4.673
4.677
4.676
4.672
4.681
4.691
4.683
4.683
4.683
4.693
4.689
4.690
4.684
4.675
4.668
4.661
4.654
4.650
4.648
4.652
4.649
4.649
4.646
4.655
4.662
4.655
4.654
4.652
4.662
4.669
4.654
4.650
4.653
4.668
4.665
4.666
4.664
4.660
4.672
4.677
4.672
4.669
4.673
4.672
4.689
4.685
4.681
4.679
4.676
4.679
4.670
4.661
4.657
4.664
4.678
4.675
4.664
4.661
4.659
4.669
4.664
4.655
4.656
4.660
4.659
4.669
4.662
4.668
4.662
4.658
4.659
4.674
4.676
4.671
4.667
4.669
4.665
4.671
4.684
4.688
4.689
4.683
4.672
4.675
4.678
4.691
4.690
4.685
4.679
4.675
4.676
4.680
4.694
4.691
4.692
4.686
4.684
4.682
4.681
4.693
4.695
4.698
4.695
4.690
4.689
4.694
4.692
4.702
4.714
4.709
4.708
4.705
4.700
4.705
4.703
4.705
4.701
4.699
4.697
4.696
4.695
4.694
4.692
4.704
4.706
4.710
4.701
4.694
4.692
4.690
4.694
4.699
4.709
4.713
4.716
4.705
4.709
4.707
4.706
4.701
4.701
4.713
4.723
4.724
4.727
4.720
4.716
4.707
4.706
4.704
4.709
4.720
4.728
4.723
4.727
4.726
4.722
4.723
4.717
4.718
4.722
4.723
4.733
4.745
4.746
4.742
4.738
4.742
4.731
4.729
4.727
4.726
4.731
4.743
4.744
4.740
4.738
4.734
4.736
4.737
4.735
4.740
4.736
4.734
4.733
4.727
4.720
4.716
4.717
4.712
4.712
4.713
4.709
4.716
4.727
4.731
4.731
4.726
4.723
4.724
4.723
4.718
4.709
4.704
4.705
4.715
4.720
4.727
4.723
4.721
4.723
4.715
4.712
4.709
4.717
4.718
4.712
4.710
4.719
4.727
4.731
4.731
4.731
4.731
4.733
4.731
4.730
4.732
4.731
4.727
4.722
4.720
4.723
4.732
4.739
4.735
4.730
4.727
4.730
4.727
4.731
4.734
4.730
4.729
4.725
4.718
4.720
4.727
4.733
4.734
4.736
4.729
4.727
4.726
4.727
4.727
4.730
4.724
4.730
4.732
4.728
4.723
4.727
4.737
4.744
4.746
4.744
4.745
4.741
4.748
4.749
4.749
4.749
4.743
4.744
4.748
4.746
4.740
4.735
4.742
4.744
4.751
4.760
4.761
4.761
4.756
4.752
4.745
4.742
4.743
4.746
4.740
4.741
4.740
4.735
4.737
4.736
4.740
4.749
4.756
4.764
4.762
4.768
4.765
4.761
4.764
4.764
4.764
4.761
4.757
4.757
4.756
4.757
4.765
4.761
4.762
4.761
4.757
4.761
4.768
4.777
4.784
4.780
4.779
4.774
4.775
4.771
4.773
4.769
4.767
4.768
4.765
4.766
4.762
4.768
4.762
4.755
4.756
4.761
4.768
4.761
4.757
4.755
4.757
4.761
4.756
4.757
4.757
4.755
4.754
4.752
4.754
4.753
4.756
4.761
4.759
4.757
4.748
4.749
4.757
4.763
4.761
4.764
4.762
4.763
4.757
4.758
4.756
4.755
4.753
4.752
4.753
4.750
4.748
4.747
4.749
4.750
4.756
4.755
4.751
4.753
4.756
4.757
4.764
4.771
4.778
4.783
4.779
4.777
4.775
4.768
4.767
4.764
4.768
4.766
4.765
4.769
4.767
4.764
4.757
4.758
4.756
4.758
4.761
4.760
4.756
4.750
4.757
4.764
4.772
4.779
4.786
4.793
4.798
4.802
4.795
4.791
4.787
4.785
4.783
4.777
4.776
4.774
4.775
4.775
4.779
4.785
4.781
4.779
4.776
4.779
4.775
4.768
4.775
4.779
4.776
4.771
4.778
4.785
4.792
4.798
4.805
4.810
4.803
4.801
4.805
4.804
4.805
4.802
4.805
4.805
4.803
4.798
4.797
4.794
4.792
4.788
4.786
4.790
4.787
4.785
4.787
4.793
4.792
4.785
4.786
4.786
4.786
4.788
4.795
4.801
4.805
4.799
4.794
4.794
4.792
4.790
4.792
4.791
4.787
4.788
4.789
4.783
4.790
4.788
4.786
4.791
4.792
4.793
4.787
4.783
4.783
4.780
4.775
4.775
4.778
4.780
4.775
4.779
4.781
4.786
4.794
4.798
4.805
4.812
4.817
4.818
4.816
4.810
4.811
4.805
4.806
4.810
4.809
4.809
4.805
4.805
4.809
4.804
4.801
4.802
4.797
4.799
4.800
4.807
4.811
4.805
4.805
4.801
4.800
4.796
4.800
4.801
4.797
4.802
4.801
4.798
4.801
4.804
4.809
4.816
4.820
4.826
4.833
4.837
4.836
4.837
4.831
4.832
4.831
4.837
4.839
4.838
4.842
4.838
4.836
4.837
4.830
4.826
4.820
4.815
4.816
4.813
4.814
4.813
4.814
4.810
4.808
4.809
4.806
4.807
4.812
4.818
4.825
4.821
4.816
4.815
4.812
4.810
4.816
4.820
4.817
4.816
4.816
4.812
4.811
4.804
4.805
4.809
4.809
4.805
4.801
4.799
4.795
4.794
4.800
4.799
4.801
4.794
4.794
4.791
4.790
4.788
4.786
4.793
4.794
4.794
4.797
4.793
4.792
4.790
4.790
4.790
4.787
4.783
4.784
4.786
4.786
4.793
4.798
4.801
4.800
4.801
4.805
4.807
4.809
4.809
4.809
4.807
4.805
4.801
4.800
4.798
4.800
4.801
4.800
4.799
4.800
4.799
4.798
4.798
4.801
4.804
4.797
4.796
4.795
4.796
4.794
4.788
4.787
4.790
4.789
4.790
4.786
4.783
4.789
4.788
4.787
4.785
4.783
4.785
4.783
4.777
4.778
4.783
4.789
4.793
4.797
4.802
4.808
4.812
4.811
4.809
4.808
4.807
4.808
4.807
4.805
4.805
4.803
4.809
4.808
4.810
4.812
4.818
4.816
4.815
4.816
4.813
4.812
4.810
4.806
4.805
4.809
4.805
4.801
4.801
4.798
4.794
4.795
4.793
4.789
4.790
4.794
4.794
4.794
4.801
4.797
4.793
4.795
4.790
4.787
4.783
4.786
4.782
4.779
4.782
4.781
4.786
4.792
4.796
4.800
4.805
4.809
4.815
4.811
4.809
4.808
4.804
4.803
4.802
4.803
4.804
4.803
4.807
4.811
4.807
4.803
4.802
4.803
4.799
4.795
4.796
4.795
4.798
4.797
4.793
4.787
4.788
4.794
4.798
4.794
4.798
4.797
4.798
4.795
4.798
4.794
4.791
4.794
4.790
4.794
