2.994
3.303
3.462
3.548
3.697
3.609
3.691
3.733
3.769
3.803
3.868
3.883
3.885
3.933
3.961
3.971
4.000
4.019
4.029
4.014
4.025
4.068
4.068
4.101
4.126
4.123
4.155
4.101
4.136
4.110
4.134
4.146
4.167
4.183
4.155
4.174
4.189
4.192
4.212
4.223
4.244
4.220
4.234
4.239
4.255
4.267
4.278
4.282
4.273
4.271
4.240
4.238
4.274
4.272
4.240
4.215
4.257
4.240
4.251
4.267
4.266
4.286
4.283
4.297
4.263
4.292
4.280
4.296
4.287
4.286
4.327
4.312
4.324
4.328
4.313
4.352
4.331
4.340
4.320
4.299
4.321
4.310
4.306
4.317
4.320
4.306
4.301
4.329
4.341
4.317
4.322
4.351
4.330
4.325
4.327
4.367
4.372
4.353
4.342
4.361
4.393
4.394
4.361
4.358
4.359
4.349
4.355
4.355
4.332
4.371
4.376
4.378
4.367
4.359
4.358
4.386
4.404
4.402
4.408
4.407
4.384
4.384
4.414
4.411
4.413
4.385
4.381
4.362
4.382
4.415
4.426
4.437
4.416
4.413
4.432
4.427
4.419
4.423
4.447
4.454
4.457
4.440
4.445
4.426
4.421
4.418
4.430
4.460
4.455
4.438
4.436
4.429
4.412
4.394
4.375
4.403
4.427
4.436
4.436
4.428
4.416
4.413
4.401
4.388
4.390
4.376
4.395
4.421
4.428
4.424
4.429
4.429
4.415
4.412
4.399
4.398
4.379
4.396
4.389
4.402
4.419
4.436
4.441
4.434
4.412
4.421
4.430
4.435
4.419
4.407
4.402
4.394
4.396
4.379
4.391
4.413
4.435
4.458
4.465
4.455
4.445
4.445
4.450
4.427
4.420
4.409
4.408
4.426
4.435
4.412
4.421
4.410
4.415
4.413
4.433
4.454
4.474
4.484
4.481
4.474
4.476
4.492
4.484
4.462
4.465
4.484
4.464
4.455
4.451
4.439
4.450
4.458
4.444
4.469
4.471
4.471
4.449
4.457
4.476
4.494
4.505
4.487
4.487
4.484
4.467
4.450
4.453
4.449
4.451
4.434
4.431
4.430
4.436
4.436
4.441
4.420
4.405
4.413
4.418
4.403
4.395
4.412
4.429
4.445
4.462
4.479
4.496
4.513
4.506
4.505
4.504
4.496
4.486
4.493
4.500
4.484
4.479
4.474
4.476
4.463
4.460
4.473
4.468
4.473
4.483
4.497
4.489
4.476
4.486
4.481
4.483
4.475
4.484
4.493
4.493
4.484
4.470
4.456
4.471
4.486
4.496
4.486
4.490
4.479
4.477
4.477
4.489
4.491
4.490
4.483
4.480
4.475
4.470
4.466
4.459
4.460
4.455
4.438
4.437
4.450
4.443
4.433
4.449
4.432
4.428
4.429
4.428
4.418
4.417
4.420
4.434
4.454
4.446
4.439
4.447
4.451
4.459
4.457
4.444
4.445
4.458
4.471
4.484
4.497
4.510
4.523
4.532
4.530
4.525
4.513
4.499
4.486
4.479
4.479
4.465
4.459
4.468
4.460
4.450
4.461
4.463
4.461
4.463
4.481
4.492
4.502
4.508
4.504
4.488
4.474
4.466
4.449
4.444
4.442
4.451
4.446
4.429
4.427
4.421
4.417
4.421
4.425
4.422
4.423
4.424
4.435
4.441
4.441
4.422
4.416
4.431
4.432
4.439
4.426
4.422
4.433
4.444
4.455
4.467
4.478
4.489
4.500
4.511
4.522
4.533
4.545
4.556
4.562
4.545
4.535
4.521
4.523
4.507
4.507
4.496
4.501
4.500
4.512
4.513
4.499
4.516
4.527
4.517
4.509
4.501
4.491
4.492
4.480
4.491
4.491
4.494
4.495
4.482
4.483
4.486
4.490
4.477
4.472
4.479
4.482
4.474
4.479
4.480
4.480
4.476
4.487
4.501
4.508
4.497
4.479
4.483
4.475
4.469
4.466
4.474
4.479
4.465
4.465
4.455
4.458
4.457
4.463
4.464
4.466
4.456
4.453
4.470
4.468
4.474
4.487
4.478
4.479
4.470
4.462
4.463
4.472
4.468
4.456
4.464
4.474
4.483
4.492
4.502
4.511
4.520
4.529
4.539
4.539
4.526
4.513
4.507
4.507
4.501
4.500
4.512
4.511
4.499
4.497
4.489
4.499
4.490
4.488
4.497
4.510
4.509
4.505
4.506
4.505
4.505
4.504
4.499
4.497
4.499
4.499
4.501
4.499
4.503
4.510
4.501
4.489
4.493
4.488
4.486
4.495
4.488
4.496
4.491
4.489
4.479
4.464
4.455
4.464
4.463
4.460
4.459
4.455
4.462
4.459
4.459
4.459
4.447
4.437
4.430
4.447
4.446
4.441
4.441
4.437
4.439
4.436
4.449
4.449
4.435
4.433
4.420
4.421
4.435
4.446
4.438
4.441
4.434
4.433
4.428
4.425
4.430
4.427
4.425
4.429
4.446
4.448
4.449
4.460
4.471
4.482
4.482
4.482
4.499
4.483
4.474
4.465
4.483
4.470
4.470
4.474
4.475
4.469
4.462
4.454
4.455
4.458
4.465
4.460
4.461
4.460
4.462
4.449
4.447
4.455
4.462
4.469
4.477
4.484
4.492
4.499
4.506
4.514
4.521
4.529
4.536
4.544
4.551
4.546
4.542
4.532
4.538
4.544
4.553
4.547
4.541
4.540
4.544
4.550
4.554
4.550
4.550
4.542
4.539
4.535
4.535
4.531
4.529
4.530
4.527
4.526
4.526
4.532
4.528
4.513
4.514
4.514
4.505
4.507
4.500
4.503
4.516
4.517
4.510
4.522
4.523
4.537
4.535
4.539
4.532
4.531
4.527
4.532
4.530
4.531
4.524
4.535
4.543
4.540
4.533
4.530
4.515
4.516
4.510
4.516
4.511
4.514
4.503
4.500
4.509
4.519
4.529
4.538
4.541
4.527
4.519
4.523
4.521
4.516
4.514
4.511
4.504
4.496
4.500
4.500
4.502
4.497
4.499
4.492
4.497
4.498
4.510
4.510
4.517
4.510
4.503
4.497
4.490
4.483
4.477
4.470
4.463
4.457
4.450
4.443
4.449
4.445
4.449
4.445
4.447
4.451
4.446
4.447
4.446
4.448
4.454
4.463
4.464
4.475
4.471
4.459
4.463
4.463
4.466
4.468
4.462
4.460
4.459
4.458
4.448
4.449
4.459
4.452
4.448
4.461
4.454
4.448
4.448
4.436
4.431
4.423
4.415
4.406
4.407
4.417
4.416
4.414
4.414
4.419
4.419
4.430
4.429
4.439
4.439
4.434
4.426
4.415
4.410
4.407
4.402
4.402
4.408
4.418
4.422
4.423
4.422
4.413
4.417
4.417
4.414
4.413
4.409
4.413
4.418
4.409
4.414
4.413
4.405
4.401
4.398
4.402
4.406
4.402
4.403
4.404
4.404
4.409
4.415
4.421
4.426
4.432
4.437
4.443
4.448
4.454
4.460
4.465
4.471
4.476
4.482
4.488
4.493
4.499
4.504
4.510
4.515
4.521
4.527
4.532
4.538
4.543
4.549
4.554
4.560
4.565
4.571
4.577
4.582
4.588
4.593
4.599
4.605
4.610
4.614
4.612
4.610
4.615
4.607
4.609
4.610
4.605
4.598
4.595
4.585
4.584
4.584
4.576
4.570
4.574
4.574
4.569
4.559
4.553
4.557
4.552
4.558
4.547
4.548
4.548
4.554
4.552
4.554
4.556
4.548
4.548
4.558
4.556
4.556
4.542
4.541
4.541
4.546
4.540
4.541
4.546
4.555
4.561
4.553
4.545
4.538
4.530
4.530
4.533
4.541
4.540
4.540
4.546
4.542
4.534
4.540
4.529
4.525
4.522
4.525
4.534
4.542
4.533
4.527
4.528
4.537
4.536
4.540
4.544
4.553
4.560
4.562
4.557
4.547
4.539
4.537
4.537
4.537
4.547
4.542
4.540
4.533
4.524
4.529
4.531
4.539
4.527
4.529
4.528
4.524
4.514
4.509
4.500
4.494
4.495
4.496
4.500
4.500
4.505
4.510
4.496
4.490
4.492
4.496
4.489
4.481
4.491
4.492
4.494
4.497
4.498
4.492
4.487
4.481
4.476
4.470
4.464
4.459
4.453
4.454
4.450
4.448
4.452
4.442
4.439
4.432
4.427
4.436
4.435
4.432
4.435
4.438
4.440
4.434
4.432
4.432
4.436
4.431
4.432
4.432
4.436
4.438
4.443
4.442
4.432
4.436
4.441
4.445
4.430
4.436
4.428
4.426
4.427
4.432
4.431
4.431
4.429
4.432
4.424
4.428
4.440
4.435
4.438
4.446
4.440
4.450
4.448
4.438
4.432
4.432
4.431
4.441
4.438
