2.994
3.332
3.512
3.630
3.715
3.792
3.832
3.877
3.940
3.958
4.007
4.003
4.043
4.077
4.109
4.075
4.103
4.122
4.147
4.165
4.186
4.201
4.219
4.237
4.254
4.251
4.214
4.192
4.203
4.210
4.224
4.231
4.240
4.247
4.260
4.264
4.273
4.275
4.285
4.296
4.295
4.303
4.312
4.318
4.317
4.329
4.337
4.344
4.342
4.349
4.355
4.363
4.370
4.365
4.370
4.376
4.386
4.388
4.399
4.396
4.394
4.403
4.402
4.410
4.416
4.423
4.429
4.436
4.419
4.425
4.430
4.431
4.438
4.447
4.451
4.453
4.457
4.464
4.468
4.470
4.457
4.461
4.465
4.466
4.470
4.473
4.481
4.484
4.484
4.491
4.488
4.496
4.503
4.510
4.504
4.508
4.510
4.514
4.498
4.502
4.506
4.503
4.507
4.511
4.514
4.518
4.528
4.527
4.528
4.521
4.536
4.530
4.539
4.538
4.547
4.543
4.555
4.547
4.553
4.554
4.555
4.560
4.564
4.563
4.572
4.571
4.564
4.551
4.553
4.547
4.553
4.552
4.553
4.558
4.561
4.566
4.569
4.574
4.573
4.574
4.577
4.584
4.575
4.574
4.581
4.577
4.584
4.588
4.586
4.590
4.591
4.598
4.600
4.595
4.603
4.604
4.605
4.610
4.597
4.601
4.608
4.612
4.607
4.610
4.610
4.620
4.616
4.620
4.627
4.625
4.627
4.633
4.632
4.629
4.640
4.639
4.636
4.642
4.638
4.636
4.640
4.642
4.638
4.628
4.618
4.607
4.611
4.609
4.619
4.615
4.624
4.621
4.627
4.620
4.625
4.626
4.632
4.631
4.630
4.634
4.635
4.636
4.636
4.640
4.641
4.644
4.647
4.642
4.632
4.642
4.643
4.644
4.638
4.642
4.635
4.642
4.646
4.640
4.652
4.648
4.652
4.650
4.652
4.656
4.651
4.661
4.657
4.659
4.666
4.662
4.671
4.662
4.663
4.667
4.665
4.667
4.665
4.664
4.677
4.675
4.673
4.683
4.684
4.678
4.685
4.677
4.671
4.670
4.670
4.678
4.674
4.675
4.684
4.677
4.674
4.680
4.674
4.675
4.685
4.681
4.684
4.689
4.687
4.684
4.688
4.688
4.692
4.688
4.696
4.697
4.698
4.700
4.706
4.707
4.706
4.708
4.706
4.702
4.704
4.705
4.701
4.700
4.704
4.708
4.709
4.707
4.717
4.713
4.715
4.710
4.721
4.719
4.720
4.716
4.726
4.724
4.723
4.724
4.728
4.735
4.729
4.722
4.717
4.716
4.717
4.716
4.725
4.725
4.723
4.722
4.726
4.732
4.723
4.721
4.720
4.730
4.726
4.721
4.720
4.724
4.729
4.730
4.728
4.727
4.729
4.736
4.734
4.735
4.733
4.735
4.747
4.749
4.745
4.744
4.739
4.749
4.747
4.749
4.748
4.744
4.750
4.755
4.751
4.752
4.747
4.741
4.736
4.732
4.726
4.722
4.723
4.724
4.723
4.716
4.720
4.727
4.726
4.718
4.709
4.713
4.721
4.719
4.721
4.722
4.718
4.721
4.728
4.730
4.726
4.730
4.726
4.724
4.726
4.736
4.729
4.724
4.721
4.724
4.723
4.735
4.737
4.741
4.736
4.732
4.731
4.730
4.740
4.741
4.742
4.743
4.740
4.740
4.734
4.744
4.756
4.757
4.756
4.749
4.747
4.740
4.734
4.732
4.734
4.730
4.729
4.725
4.733
4.741
4.744
4.743
4.739
4.735
4.731
4.729
4.736
4.729
4.723
4.725
4.723
4.725
4.723
4.730
4.740
4.740
4.740
4.735
4.733
4.729
4.725
4.730
4.740
4.738
4.739
4.735
4.736
4.738
4.737
4.735
4.737
4.747
4.744
4.747
4.751
4.746
4.745
4.747
4.750
4.747
4.751
4.754
4.751
4.752
4.756
4.757
4.750
4.744
4.742
4.752
4.758
4.751
4.751
4.751
4.747
4.751
4.750
4.749
4.748
4.758
4.762
4.763
4.759
4.760
4.759
4.754
4.751
4.757
4.755
4.760
4.769
4.771
4.773
4.768
4.770
4.768
4.773
4.771
4.769
4.763
4.767
4.776
4.783
4.776
4.770
4.763
4.764
4.766
4.759
4.754
4.761
4.770
4.775
4.770
4.773
4.773
4.766
4.770
4.770
4.763
4.764
4.765
4.767
4.776
4.772
4.771
4.762
4.766
4.769
4.766
4.767
4.766
4.759
4.766
4.772
4.779
4.784
4.785
4.780
4.777
4.777
4.777
4.778
4.781
4.778
4.777
4.775
4.779
4.786
4.792
4.788
4.785
4.781
4.784
4.777
4.774
4.775
4.774
4.780
4.777
4.781
4.788
4.797
4.796
4.796
4.796
4.794
4.790
4.796
4.792
4.792
4.792
4.792
4.787
4.791
4.793
4.800
4.809
4.814
4.810
4.808
4.801
4.802
4.801
4.799
4.799
4.802
4.799
4.800
4.796
4.799
4.807
4.811
4.807
4.808
4.807
4.807
4.801
4.797
4.792
4.789
4.784
4.780
4.785
4.789
4.788
4.791
4.787
4.784
4.785
4.781
4.785
4.786
4.785
4.784
4.777
4.780
4.777
4.780
4.787
4.794
4.793
4.796
4.790
4.786
4.781
4.775
4.773
4.772
4.768
4.772
4.768
4.769
4.770
4.777
4.782
4.789
4.792
4.792
4.790
4.789
4.787
4.792
4.785
4.781
4.782
4.786
4.779
4.778
4.777
4.781
4.777
4.781
4.787
4.796
4.803
4.800
4.803
4.799
4.798
4.796
4.792
4.792
4.796
4.797
4.801
4.800
4.799
4.794
4.787
4.781
4.785
4.794
4.799
4.807
4.803
4.800
4.795
4.796
4.795
4.797
4.795
4.797
4.793
4.792
4.795
4.791
4.787
4.783
4.779
4.783
4.790
4.797
4.803
4.799
4.795
4.797
4.793
4.796
4.793
4.796
4.798
4.794
4.793
4.792
4.795
4.792
4.793
4.791
4.790
4.789
4.790
4.794
4.798
4.805
4.810
4.816
4.815
4.814
4.812
4.805
4.806
4.810
4.810
4.810
4.807
4.807
4.807
4.810
4.809
4.808
4.809
4.807
4.810
4.808
4.806
4.805
4.810
4.818
4.817
4.816
4.818
4.818
4.820
4.821
4.821
4.818
4.812
4.811
4.807
4.807
4.804
4.803
4.799
4.800
4.806
4.808
4.804
4.802
4.803
4.808
4.815
4.819
4.826
4.825
4.826
4.824
4.818
4.822
4.823
4.824
4.823
4.824
4.828
4.829
4.823
4.821
4.820
4.821
4.817
4.821
4.821
4.822
4.821
4.819
4.814
4.818
4.820
4.827
4.833
4.838
4.844
4.844
4.844
4.838
4.839
4.840
4.837
4.838
4.839
4.835
4.834
4.836
4.833
4.829
4.833
4.832
4.828
4.827
4.829
4.825
4.823
4.825
4.828
4.824
4.826
4.832
4.831
4.827
4.825
4.819
4.820
4.819
4.818
4.821
4.820
4.814
4.814
4.810
4.815
4.813
4.812
4.813
4.814
4.813
4.812
4.814
4.812
4.816
4.817
4.813
4.812
4.818
4.823
4.829
4.833
4.838
4.834
4.833
4.828
4.825
4.825
4.824
4.818
4.816
4.814
4.816
4.821
4.822
4.818
4.818
4.817
4.816
4.814
4.811
4.809
4.810
4.809
4.808
4.809
4.808
4.807
4.813
4.818
4.822
4.828
4.833
4.836
4.838
4.844
4.847
4.847
4.841
4.842
4.838
4.839
4.840
4.840
4.840
4.840
4.838
4.833
4.829
4.828
4.827
4.826
4.827
4.826
4.825
4.828
4.830
4.825
4.822
4.818
4.818
4.817
4.818
4.821
4.827
4.831
4.836
4.842
4.847
4.847
4.846
4.845
4.851
4.845
4.843
4.842
4.843
4.848
4.846
4.850
4.849
4.851
4.847
4.842
4.843
4.848
4.847
4.848
4.846
4.844
4.841
4.840
4.836
4.831
4.833
4.834
4.829
4.831
4.833
4.831
4.833
4.836
4.838
4.844
4.847
4.851
4.857
4.862
4.868
4.866
4.865
4.861
4.858
4.859
4.862
4.861
4.858
4.858
4.860
4.864
4.862
4.861
4.862
4.864
4.863
4.866
4.865
4.862
4.858
4.858
4.855
4.855
4.854
4.855
4.851
4.853
4.851
4.847
4.849
4.850
4.847
4.845
4.843
4.848
4.852
4.856
4.860
4.866
4.871
4.873
4.870
4.870
4.871
4.875
4.873
4.875
4.873
4.869
4.868
4.869
4.868
4.864
4.862
4.858
4.854
4.848
4.851
4.845
