2.992
3.332
3.511
3.639
3.709
3.793
3.829
3.888
3.928
3.940
3.981
4.026
4.066
4.034
4.060
4.089
4.114
4.136
4.162
4.181
4.200
4.218
4.175
4.141
4.155
4.171
4.180
4.185
4.202
4.207
4.222
4.225
4.238
4.250
4.252
4.262
4.266
4.272
4.284
4.294
4.292
4.300
4.310
4.316
4.315
4.321
4.328
4.340
4.344
4.357
4.344
4.352
4.358
4.368
4.373
4.381
4.383
4.374
4.384
4.385
4.392
4.401
4.405
4.410
4.419
4.420
4.425
4.410
4.418
4.418
4.424
4.433
4.438
4.439
4.444
4.448
4.455
4.459
4.463
4.462
4.470
4.469
4.455
4.461
4.462
4.464
4.466
4.475
4.477
4.484
4.479
4.488
4.487
4.492
4.501
4.502
4.504
4.503
4.510
4.507
4.515
4.519
4.525
4.525
4.534
4.522
4.510
4.505
4.507
4.510
4.514
4.516
4.523
4.530
4.526
4.525
4.531
4.536
4.531
4.536
4.531
4.536
4.537
4.543
4.545
4.552
4.551
4.555
4.555
4.563
4.564
4.557
4.559
4.566
4.566
4.562
4.573
4.577
4.578
4.581
4.580
4.587
4.588
4.592
4.592
4.593
4.600
4.599
4.595
4.593
4.602
4.599
4.591
4.581
4.569
4.570
4.570
4.584
4.580
4.576
4.588
4.585
4.592
4.590
4.588
4.596
4.588
4.596
4.599
4.599
4.607
4.603
4.595
4.598
4.597
4.603
4.597
4.599
4.599
4.604
4.602
4.610
4.608
4.610
4.608
4.618
4.616
4.621
4.618
4.626
4.630
4.625
4.621
4.621
4.624
4.625
4.633
4.633
4.638
4.640
4.635
4.648
4.640
4.636
4.629
4.636
4.632
4.634
4.643
4.633
4.636
4.636
4.635
4.645
4.644
4.642
4.649
4.640
4.651
4.650
4.649
4.656
4.658
4.658
4.662
4.667
4.658
4.666
4.663
4.666
4.666
4.664
4.655
4.666
4.671
4.667
4.670
4.678
4.677
4.670
4.682
4.684
4.685
4.678
4.688
4.686
4.687
4.689
4.688
4.684
4.682
4.678
4.681
4.675
4.690
4.692
4.690
4.686
4.687
4.686
4.682
4.684
4.684
4.681
4.681
4.689
4.692
4.692
4.688
4.689
4.703
4.703
4.703
4.700
4.704
4.711
4.706
4.708
4.703
4.718
4.718
4.708
4.710
4.713
4.721
4.716
4.709
4.703
4.696
4.691
4.684
4.684
4.682
4.680
4.677
4.678
4.679
4.678
4.676
4.677
4.684
4.688
4.688
4.684
4.684
4.684
4.698
4.694
4.690
4.678
4.681
4.694
4.698
4.699
4.693
4.691
4.690
4.702
4.699
4.702
4.696
4.699
4.696
4.708
4.714
4.716
4.714
4.705
4.699
4.708
4.701
4.694
4.693
4.684
4.696
4.700
4.703
4.702
4.696
4.691
4.693
4.702
4.692
4.688
4.684
4.681
4.688
4.700
4.703
4.699
4.690
4.691
4.688
4.692
4.701
4.695
4.699
4.699
4.699
4.692
4.695
4.703
4.710
4.708
4.706
4.711
4.712
4.710
4.704
4.713
4.718
4.718
4.717
4.713
4.710
4.707
4.707
4.716
4.712
4.714
4.710
4.713
4.709
4.713
4.715
4.719
4.725
4.721
4.723
4.718
4.721
4.718
4.715
4.718
4.728
4.735
4.736
4.735
4.734
4.732
4.731
4.732
4.726
4.733
4.744
4.736
4.733
4.724
4.718
4.719
4.715
4.721
4.731
4.736
4.736
4.733
4.728
4.730
4.729
4.727
4.718
4.727
4.733
4.733
4.734
4.735
4.729
4.732
4.728
4.735
4.729
4.730
4.739
4.749
4.747
4.741
4.747
4.747
4.745
4.736
4.739
4.741
4.744
4.746
4.748
4.744
4.742
4.744
4.740
4.744
4.748
4.743
4.742
4.741
4.748
4.757
4.761
4.763
4.762
4.760
4.761
4.758
4.758
4.755
4.762
4.765
4.758
4.765
4.772
4.768
4.766
4.766
4.770
4.770
4.767
4.760
4.758
4.755
4.753
4.763
4.772
4.777
4.772
4.766
4.761
4.757
4.751
4.746
4.740
4.738
4.745
4.755
4.756
4.752
4.753
4.752
4.750
4.746
4.740
4.743
4.742
4.749
4.745
4.744
4.751
4.744
4.742
4.736
4.736
4.740
4.742
4.733
4.737
4.736
4.737
4.736
4.734
4.743
4.751
4.758
4.756
4.755
4.756
4.751
4.751
4.746
4.740
4.746
4.750
4.749
4.747
4.741
4.745
4.754
4.761
4.770
4.773
4.771
4.767
4.758
4.756
4.755
4.756
4.757
4.753
4.749
4.748
4.746
4.747
4.755
4.762
4.771
4.772
4.766
4.759
4.752
4.753
4.758
4.762
4.755
4.747
4.746
4.744
4.743
4.742
4.749
4.756
4.763
4.769
4.773
4.772
4.766
4.767
4.770
4.762
4.766
4.764
4.762
4.759
4.765
4.758
4.755
4.755
4.758
4.759
4.768
4.773
4.782
4.783
4.779
4.778
4.782
4.786
4.779
4.775
4.771
4.773
4.774
4.766
4.762
4.759
4.762
4.772
4.771
4.769
4.774
4.781
4.784
4.781
4.781
4.778
4.774
4.777
4.776
4.775
4.779
4.778
4.784
4.775
4.771
4.767
4.773
4.773
4.774
4.775
4.773
4.781
4.787
4.794
4.798
4.803
4.799
4.795
4.799
4.803
4.801
4.803
4.799
4.795
4.793
4.794
4.790
4.792
4.788
4.791
4.788
4.786
4.787
4.789
4.790
4.797
4.804
4.808
4.803
4.799
4.803
4.805
4.806
4.800
4.796
4.794
4.792
4.789
4.788
4.788
4.785
4.780
4.776
4.772
4.766
4.773
4.781
4.788
4.795
4.795
4.795
4.794
4.793
4.792
4.792
4.792
4.795
4.795
4.793
4.788
4.792
4.784
4.784
4.784
4.782
4.777
4.770
4.766
4.770
4.769
4.774
4.780
4.787
4.789
4.792
4.788
4.796
4.799
4.795
4.795
4.788
4.792
4.787
4.789
4.792
4.789
4.790
4.786
4.785
4.788
4.787
4.786
4.792
4.792
4.790
4.794
4.793
4.789
4.787
4.789
4.793
4.800
4.804
4.802
4.803
4.805
4.801
4.802
4.801
4.794
4.799
4.794
4.796
4.799
4.798
4.795
4.796
4.794
4.795
4.795
4.793
4.795
4.796
4.797
4.796
4.789
4.790
4.792
4.798
4.799
4.801
4.807
4.812
4.818
4.821
4.822
4.820
4.819
4.817
4.816
4.815
4.813
4.812
4.808
4.809
4.810
4.812
4.810
4.810
4.816
4.815
4.814
4.818
4.813
4.815
4.811
4.814
4.818
4.815
4.813
4.812
4.811
4.814
4.810
4.815
4.822
4.826
4.832
4.836
4.835
4.834
4.830
4.831
4.832
4.829
4.830
4.828
4.824
4.823
4.822
4.821
4.827
4.828
4.822
4.820
4.819
4.818
4.821
4.820
4.819
4.818
4.818
4.814
4.818
4.814
4.811
4.807
4.807
4.812
4.818
4.823
4.829
4.831
4.825
4.823
4.819
4.820
4.819
4.821
4.816
4.817
4.818
4.818
4.825
4.823
4.824
4.823
4.824
4.820
4.824
4.823
4.819
4.817
4.816
4.812
4.807
4.809
4.808
4.809
4.807
4.804
4.808
4.812
4.810
4.809
4.813
4.815
4.821
4.826
4.830
4.836
4.841
4.847
4.847
4.847
4.846
4.842
4.840
4.844
4.840
4.840
4.836
4.837
4.836
4.839
4.838
4.840
4.836
4.834
4.833
4.833
4.833
4.833
4.838
4.842
4.841
4.839
4.838
4.836
4.840
4.839
4.840
4.836
4.832
4.836
4.835
4.833
4.833
4.833
4.830
4.831
4.836
4.840
4.846
4.851
4.855
4.861
4.866
4.870
4.868
4.869
4.863
4.859
4.855
4.856
4.854
4.851
4.855
4.858
4.857
4.851
4.854
4.850
4.847
4.848
4.846
4.848
4.846
4.847
4.847
4.850
4.849
4.847
4.847
4.842
4.841
4.837
4.835
4.833
4.829
4.826
4.825
4.821
4.819
4.823
4.829
4.833
4.836
4.839
4.838
4.834
4.833
4.831
4.829
4.825
4.827
4.831
4.829
4.828
4.827
4.829
4.829
4.829
4.827
4.826
4.829
4.834
4.833
4.833
4.832
4.829
4.827
4.826
4.825
4.823
4.824
4.829
4.825
4.823
4.825
4.821
4.821
4.820
4.818
4.814
4.811
4.809
4.805
4.801
4.799
4.803
4.808
4.812
4.816
4.821
