2.980
3.311
3.466
3.629
3.712
3.718
3.808
3.874
3.837
3.828
3.861
3.893
3.924
3.943
3.985
3.997
4.004
4.037
4.057
4.066
4.085
4.109
4.098
4.120
4.127
4.155
4.137
4.151
4.158
4.172
4.185
4.208
4.229
4.224
4.208
4.220
4.216
4.231
4.242
4.255
4.250
4.270
4.284
4.290
4.306
4.289
4.303
4.315
4.284
4.273
4.295
4.299
4.304
4.287
4.303
4.316
4.333
4.322
4.327
4.341
4.341
4.345
4.347
4.344
4.355
4.363
4.362
4.359
4.366
4.375
4.390
4.399
4.389
4.411
4.421
4.414
4.397
4.388
4.405
4.409
4.401
4.438
4.413
4.439
4.432
4.448
4.450
4.447
4.451
4.430
4.408
4.408
4.399
4.429
4.417
4.435
4.432
4.432
4.433
4.424
4.416
4.412
4.399
4.396
4.427
4.413
4.418
4.433
4.428
4.434
4.427
4.419
4.445
4.442
4.445
4.449
4.458
4.457
4.452
4.447
4.444
4.441
4.463
4.446
4.445
4.464
4.465
4.454
4.453
4.479
4.478
4.474
4.472
4.486
4.499
4.483
4.488
4.486
4.504
4.499
4.493
4.478
4.510
4.510
4.491
4.473
4.493
4.484
4.460
4.453
4.469
4.487
4.486
4.484
4.471
4.473
4.494
4.495
4.489
4.484
4.475
4.481
4.493
4.493
4.479
4.477
4.485
4.485
4.511
4.506
4.503
4.499
4.495
4.489
4.502
4.513
4.516
4.505
4.510
4.516
4.505
4.507
4.532
4.539
4.530
4.530
4.522
4.528
4.520
4.522
4.546
4.547
4.547
4.533
4.515
4.498
4.503
4.522
4.516
4.512
4.513
4.513
4.521
4.516
4.513
4.508
4.528
4.535
4.533
4.527
4.532
4.533
4.527
4.529
4.525
4.517
4.538
4.559
4.556
4.551
4.569
4.561
4.556
4.540
4.545
4.545
4.550
4.551
4.569
4.573
4.568
4.562
4.561
4.564
4.572
4.549
4.547
4.530
4.540
4.559
4.571
4.571
4.569
4.575
4.564
4.564
4.559
4.554
4.562
4.563
4.556
4.560
4.563
4.581
4.599
4.611
4.607
4.599
4.610
4.599
4.600
4.586
4.577
4.571
4.576
4.573
4.568
4.577
4.594
4.611
4.611
4.607
4.608
4.597
4.589
4.591
4.604
4.595
4.585
4.575
4.565
4.555
4.563
4.579
4.595
4.583
4.583
4.583
4.564
4.552
4.553
4.553
4.554
4.550
4.541
4.535
4.541
4.540
4.535
4.550
4.565
4.580
4.595
4.597
4.586
4.584
4.583
4.585
4.589
4.585
4.575
4.571
4.574
4.565
4.551
4.538
4.525
4.534
4.543
4.548
4.562
4.576
4.590
4.591
4.598
4.588
4.590
4.586
4.582
4.575
4.583
4.577
4.566
4.573
4.563
4.560
4.562
4.541
4.551
4.549
4.557
4.549
4.547
4.561
4.574
4.587
4.590
4.579
4.586
4.590
4.592
4.585
4.582
4.593
4.591
4.589
4.579
4.579
4.583
4.570
4.564
4.558
4.556
4.569
4.564
4.569
4.564
4.550
4.541
4.553
4.565
4.578
4.590
4.602
4.609
4.601
4.600
4.598
4.596
4.601
4.601
4.600
4.600
4.607
4.603
4.595
4.589
4.590
4.583
4.568
4.566
4.579
4.568
4.568
4.567
4.569
4.568
4.559
4.568
4.568
4.578
4.580
4.575
4.587
4.598
4.609
4.621
4.626
4.619
4.623
4.622
4.626
4.626
4.629
4.625
4.614
4.621
4.617
4.617
4.616
4.607
4.608
4.595
4.605
4.617
4.616
4.610
4.607
4.605
4.605
4.612
4.616
4.616
4.602
4.604
4.603
4.591
4.589
4.593
4.591
4.587
4.598
4.608
4.619
4.629
4.639
4.650
4.655
4.653
4.656
4.648
4.645
4.644
4.650
4.641
4.636
4.641
4.650
4.649
4.642
4.642
4.632
4.624
4.614
4.609
4.600
4.591
4.583
4.579
4.576
4.578
4.581
4.587
4.601
4.604
4.608
4.594
4.582
4.569
4.562
4.567
4.571
4.565
4.575
4.584
4.594
4.603
4.612
4.622
4.631
4.631
4.634
4.635
4.638
4.650
4.641
4.639
4.628
4.629
4.622
4.620
4.620
4.611
4.605
4.617
4.623
4.621
4.620
4.624
4.619
4.622
4.615
4.610
4.616
4.615
4.611
4.613
4.611
4.605
4.611
4.609
4.612
4.615
4.607
4.603
4.600
4.592
4.589
4.583
4.590
4.588
4.589
4.588
4.587
4.593
4.601
4.593
4.605
4.610
4.609
4.600
4.609
4.617
4.626
4.634
4.643
4.651
4.659
4.668
4.676
4.685
4.693
4.690
4.684
4.678
4.672
4.665
4.659
4.653
4.652
4.643
4.634
4.639
4.640
4.646
4.642
4.635
4.629
4.627
4.625
4.621
4.614
4.612
4.610
4.619
4.614
4.614
4.621
4.614
4.604
4.603
4.596
4.594
4.594
4.593
4.589
4.596
4.591
4.591
4.586
4.596
4.596
4.593
4.588
4.588
4.580
4.579
4.580
4.569
4.569
4.576
4.569
4.567
4.563
4.572
4.578
4.586
4.593
4.601
4.608
4.616
4.623
4.631
4.638
4.645
4.640
4.643
4.645
4.646
4.652
4.654
4.652
4.648
4.648
4.645
4.656
4.661
4.661
4.670
4.662
4.656
4.648
4.648
4.653
4.653
4.651
4.647
4.647
4.644
4.647
4.638
4.647
4.642
4.638
4.636
4.641
4.648
4.645
4.645
4.649
4.643
4.641
4.646
4.642
4.637
4.626
4.627
4.627
4.621
4.617
4.616
4.615
4.610
4.611
4.604
4.608
4.599
4.598
4.600
4.593
4.595
4.592
4.602
4.610
4.603
4.596
4.589
4.586
4.589
4.586
4.580
4.581
4.581
4.583
4.582
4.572
4.581
4.578
4.583
4.588
4.582
4.580
4.579
4.585
4.592
4.598
4.605
4.612
4.618
4.625
4.632
4.638
4.645
4.651
4.658
4.664
4.671
4.678
4.674
4.664
4.659
4.656
4.654
4.651
4.652
4.645
4.646
4.644
4.647
4.649
4.645
4.634
4.628
4.622
4.628
4.619
4.615
4.626
4.635
4.631
4.628
4.624
4.622
4.624
4.626
4.631
4.625
4.634
4.643
4.647
4.650
4.650
4.651
4.651
4.649
4.647
4.646
4.645
4.646
4.642
4.649
4.653
4.658
4.661
4.656
4.652
4.654
4.647
4.644
4.638
4.635
4.629
4.626
4.630
4.622
4.612
4.604
4.603
4.604
4.608
4.607
4.606
4.599
4.595
4.596
4.595
4.599
4.601
4.602
4.599
4.596
4.596
4.595
4.594
4.595
4.594
4.591
4.585
4.592
4.597
4.598
4.596
4.597
4.597
4.598
4.602
4.595
4.595
4.593
4.590
4.586
4.578
4.578
4.578
4.583
4.586
4.592
4.600
4.608
4.613
4.614
4.613
4.609
4.608
4.613
4.619
4.625
4.630
4.636
4.642
4.647
4.653
4.658
4.664
4.670
4.675
4.681
4.687
4.692
4.697
4.695
4.695
4.702
4.702
4.706
4.700
4.701
4.701
4.707
4.703
4.698
4.690
4.687
4.687
4.682
4.687
4.677
4.681
4.685
4.687
4.682
4.684
4.684
4.678
4.680
4.675
4.674
4.677
4.684
4.684
4.682
4.678
4.671
4.665
4.658
4.658
4.651
4.656
4.663
4.655
4.656
4.652
4.657
4.657
4.654
4.657
4.653
4.655
4.659
4.661
4.665
4.658
4.655
4.650
4.650
4.648
4.647
4.656
4.657
4.662
4.665
4.662
4.660
4.660
4.665
4.667
4.661
4.656
4.650
4.644
4.638
4.636
4.636
4.643
4.651
4.658
4.665
4.666
4.668
4.659
4.654
4.655
4.651
4.650
4.641
4.642
4.640
4.641
4.641
4.642
4.640
4.635
4.629
4.626
4.622
4.617
4.613
4.608
4.604
4.600
4.595
4.591
4.594
4.586
4.581
4.576
4.575
4.579
4.587
4.594
4.597
4.605
4.605
4.600
4.599
4.603
4.603
4.602
4.605
4.601
4.595
4.588
4.581
4.584
4.582
4.588
4.588
4.592
4.589
4.582
4.575
4.571
4.576
4.575
4.579
4.571
4.574
4.577
4.578
4.578
4.584
4.583
4.588
4.592
4.597
4.602
4.606
4.611
4.616
4.621
4.625
4.630
4.634
4.639
4.644
4.649
4.653
4.658
4.663
4.665
4.672
4.669
4.672
4.679
4.679
4.673
4.668
4.665
4.674
4.669
