2.994
3.327
3.503
3.625
3.686
3.744
3.828
3.838
3.886
3.937
3.979
4.026
4.018
3.963
3.986
4.013
4.031
4.047
4.058
4.073
4.094
4.101
4.122
4.126
4.146
4.165
4.160
4.175
4.194
4.202
4.203
4.211
4.223
4.239
4.252
4.240
4.247
4.259
4.265
4.277
4.279
4.299
4.301
4.280
4.298
4.306
4.308
4.318
4.326
4.338
4.335
4.341
4.353
4.368
4.359
4.336
4.345
4.359
4.361
4.369
4.366
4.363
4.378
4.383
4.387
4.397
4.397
4.394
4.402
4.409
4.410
4.416
4.423
4.427
4.444
4.431
4.433
4.442
4.443
4.419
4.415
4.422
4.418
4.421
4.429
4.442
4.446
4.425
4.435
4.437
4.436
4.442
4.458
4.454
4.456
4.467
4.450
4.465
4.473
4.471
4.483
4.483
4.486
4.472
4.476
4.474
4.482
4.475
4.482
4.486
4.494
4.505
4.497
4.503
4.498
4.505
4.511
4.509
4.519
4.520
4.532
4.524
4.530
4.528
4.543
4.539
4.538
4.530
4.535
4.523
4.530
4.527
4.538
4.538
4.536
4.546
4.542
4.558
4.557
4.552
4.564
4.561
4.567
4.568
4.560
4.571
4.568
4.558
4.545
4.534
4.533
4.527
4.539
4.523
4.525
4.542
4.532
4.532
4.553
4.552
4.554
4.551
4.563
4.552
4.556
4.564
4.548
4.536
4.545
4.547
4.543
4.542
4.537
4.534
4.533
4.548
4.542
4.534
4.539
4.565
4.557
4.547
4.541
4.565
4.569
4.557
4.553
4.562
4.565
4.559
4.556
4.561
4.576
4.571
4.577
4.572
4.571
4.587
4.589
4.582
4.587
4.584
4.583
4.582
4.572
4.566
4.572
4.583
4.576
4.579
4.576
4.571
4.588
4.598
4.599
4.592
4.591
4.585
4.593
4.592
4.601
4.592
4.593
4.590
4.602
4.618
4.621
4.611
4.613
4.610
4.599
4.619
4.634
4.624
4.620
4.613
4.615
4.611
4.628
4.629
4.629
4.624
4.614
4.609
4.611
4.606
4.602
4.602
4.598
4.590
4.599
4.601
4.603
4.599
4.592
4.586
4.591
4.592
4.594
4.612
4.617
4.611
4.616
4.611
4.604
4.604
4.601
4.609
4.616
4.613
4.617
4.615
4.613
4.612
4.602
4.596
4.613
4.610
4.620
4.621
4.616
4.610
4.605
4.608
4.606
4.608
4.624
4.632
4.639
4.634
4.639
4.621
4.625
4.614
4.615
4.617
4.625
4.631
4.639
4.627
4.631
4.631
4.630
4.631
4.622
4.627
4.617
4.629
4.644
4.659
4.662
4.660
4.658
4.650
4.647
4.650
4.646
4.640
4.639
4.637
4.651
4.665
4.665
4.664
4.658
4.656
4.653
4.649
4.644
4.645
4.639
4.631
4.645
4.659
4.653
4.649
4.644
4.645
4.641
4.631
4.631
4.623
4.618
4.618
4.626
4.639
4.653
4.658
4.658
4.658
4.657
4.662
4.659
4.647
4.640
4.626
4.641
4.638
4.640
4.633
4.646
4.658
4.671
4.670
4.668
4.666
4.672
4.673
4.666
4.659
4.656
4.651
4.652
4.649
4.649
4.646
4.654
4.661
4.673
4.685
4.693
4.695
4.696
4.686
4.680
4.677
4.676
4.673
4.681
4.676
4.684
4.679
4.672
4.668
4.669
4.669
4.681
4.692
4.688
4.694
4.701
4.698
4.688
4.678
4.669
4.669
4.666
4.663
4.659
4.666
4.662
4.664
4.665
4.658
4.669
4.680
4.692
4.696
4.697
4.690
4.686
4.688
4.690
4.695
4.692
4.692
4.686
4.691
4.686
4.686
4.682
4.683
4.677
4.676
4.680
4.682
4.688
4.692
4.703
4.713
4.724
4.733
4.731
4.734
4.732
4.725
4.715
4.707
4.712
4.708
4.704
4.711
4.704
4.704
4.703
4.696
4.695
4.694
4.693
4.693
4.690
4.701
4.711
4.721
4.730
4.720
4.719
4.720
4.714
4.708
4.702
4.697
4.691
4.685
4.679
4.677
4.678
4.670
4.669
4.677
4.676
4.678
4.672
4.681
4.683
4.683
4.693
4.696
4.698
4.695
4.696
4.691
4.690
4.683
4.689
4.682
4.686
4.687
4.692
4.685
4.678
4.672
4.670
4.672
4.668
4.667
4.664
4.655
4.656
4.657
4.656
4.658
4.667
4.677
4.686
4.695
4.704
4.713
4.711
4.708
4.708
4.704
4.704
4.704
4.702
4.693
4.698
4.695
4.698
4.691
4.687
4.684
4.686
4.689
4.697
4.693
4.685
4.678
4.670
4.664
4.663
4.657
4.654
4.657
4.666
4.674
4.683
4.691
4.700
4.703
4.702
4.698
4.687
4.688
4.689
4.693
4.693
4.690
4.699
4.693
4.689
4.697
4.693
4.699
4.699
4.695
4.692
4.694
4.688
4.690
4.686
4.681
4.681
4.675
4.677
4.675
4.685
4.677
4.673
4.678
4.674
4.672
4.678
4.686
4.694
4.702
4.707
4.700
4.702
4.699
4.700
4.698
4.699
4.704
4.698
4.703
4.704
4.704
4.698
4.688
4.687
4.694
4.693
4.687
4.692
4.689
4.690
4.683
4.685
4.680
4.681
4.682
4.676
4.682
4.684
4.683
4.692
4.689
4.686
4.681
4.684
4.681
4.674
4.672
4.679
4.687
4.694
4.702
4.707
4.712
4.723
4.718
4.710
4.712
4.710
4.710
4.714
4.716
4.718
4.709
4.709
4.705
4.706
4.711
4.710
4.700
4.700
4.703
4.700
4.703
4.703
4.697
4.690
4.689
4.688
4.688
4.694
4.700
4.698
4.705
4.702
4.697
4.701
4.701
4.695
4.691
4.695
4.696
4.693
4.691
4.687
4.681
4.677
4.684
4.691
4.698
4.705
4.712
4.719
4.726
4.731
4.731
4.728
4.722
4.722
4.721
4.731
4.727
4.727
4.722
4.733
4.732
4.738
4.746
4.743
4.733
4.732
4.726
4.725
4.719
4.714
4.717
4.713
4.715
4.718
4.724
4.715
4.713
4.709
4.706
4.704
4.709
4.708
4.703
4.701
4.707
4.707
4.705
4.712
4.710
4.707
4.710
4.702
4.703
4.712
4.715
4.708
4.712
4.707
4.703
4.705
4.705
4.703
4.708
4.714
4.721
4.727
4.733
4.740
4.746
4.753
4.759
4.764
4.757
4.762
4.763
4.764
4.762
4.761
4.761
4.769
4.764
4.760
4.760
4.756
4.754
4.751
4.752
4.755
4.749
4.747
4.740
4.741
4.746
4.748
4.744
4.745
4.753
4.750
4.750
4.744
4.739
4.735
4.742
4.750
4.753
4.746
4.744
4.740
4.738
4.738
4.731
4.724
4.725
4.720
4.715
4.711
4.709
4.717
4.720
4.714
4.709
4.714
4.718
4.723
4.722
4.719
4.716
4.712
4.709
4.708
4.714
4.720
4.725
4.731
4.737
4.740
4.741
4.743
4.746
4.751
4.753
4.752
4.752
4.747
4.748
4.747
4.745
4.746
4.747
4.741
4.744
4.743
4.740
4.735
4.736
4.729
4.728
4.723
4.727
4.719
4.723
4.723
4.722
4.716
4.707
4.706
4.711
4.710
4.714
4.713
4.714
4.722
4.723
4.723
4.716
4.714
4.711
4.708
4.712
4.711
4.708
4.708
4.716
4.721
4.717
4.719
4.713
4.712
4.711
4.708
4.707
4.710
4.714
4.717
4.719
4.714
4.711
4.706
4.700
4.695
4.691
4.691
4.689
4.694
4.691
4.694
4.695
4.697
4.701
4.706
4.712
4.717
4.722
4.728
4.733
4.738
4.743
4.749
4.754
4.760
4.765
4.767
4.767
4.768
4.761
4.764
4.766
4.761
4.770
4.767
4.763
4.762
4.755
4.753
4.752
4.750
4.749
4.750
4.749
4.749
4.749
4.756
4.759
4.757
4.756
4.761
4.764
4.763
4.760
4.762
4.761
4.759
4.752
4.754
4.757
4.751
4.755
4.754
4.743
4.751
4.755
4.754
4.760
4.760
4.754
4.754
4.757
4.756
4.758
4.757
4.754
4.751
4.748
4.750
4.751
4.747
4.745
4.739
4.738
4.744
4.738
4.734
4.733
4.739
4.746
4.746
4.742
4.741
4.737
4.741
4.738
4.734
4.730
4.727
4.723
4.720
4.716
4.720
4.722
4.719
4.720
4.714
4.713
4.717
4.717
4.725
4.726
4.727
4.726
4.720
4.720
4.725
4.730
4.734
4.739
4.744
4.749
4.754
4.758
4.763
4.768
4.772
4.770
4.763
4.761
4.758
4.761
4.757
4.758
