2.992
3.329
3.516
3.632
3.705
3.779
3.829
3.882
3.912
3.965
3.952
3.986
4.020
4.058
4.086
4.112
4.136
4.132
4.078
4.082
4.097
4.110
4.135
4.142
4.150
4.168
4.171
4.189
4.191
4.205
4.218
4.217
4.232
4.244
4.243
4.255
4.265
4.277
4.284
4.279
4.289
4.302
4.308
4.313
4.306
4.316
4.322
4.329
4.336
4.346
4.350
4.359
4.344
4.348
4.357
4.365
4.368
4.372
4.385
4.390
4.396
4.401
4.412
4.390
4.391
4.397
4.402
4.408
4.420
4.411
4.421
4.425
4.434
4.436
4.445
4.441
4.442
4.453
4.464
4.463
4.464
4.458
4.445
4.444
4.446
4.457
4.460
4.458
4.464
4.474
4.460
4.474
4.470
4.474
4.486
4.490
4.490
4.490
4.500
4.507
4.495
4.501
4.500
4.505
4.511
4.516
4.522
4.526
4.523
4.532
4.533
4.535
4.538
4.535
4.536
4.534
4.533
4.532
4.517
4.515
4.517
4.512
4.522
4.526
4.528
4.526
4.525
4.532
4.538
4.532
4.542
4.537
4.533
4.531
4.533
4.538
4.536
4.540
4.552
4.543
4.552
4.553
4.555
4.565
4.561
4.565
4.558
4.557
4.568
4.565
4.575
4.576
4.582
4.583
4.588
4.575
4.574
4.572
4.579
4.570
4.575
4.572
4.586
4.576
4.585
4.578
4.594
4.587
4.591
4.600
4.596
4.605
4.605
4.605
4.609
4.601
4.605
4.603
4.612
4.614
4.610
4.617
4.616
4.616
4.626
4.620
4.624
4.627
4.627
4.633
4.624
4.614
4.629
4.627
4.624
4.633
4.620
4.622
4.623
4.620
4.623
4.633
4.631
4.627
4.642
4.642
4.640
4.639
4.648
4.646
4.642
4.652
4.664
4.650
4.645
4.661
4.662
4.664
4.656
4.660
4.651
4.642
4.634
4.625
4.624
4.622
4.621
4.617
4.629
4.631
4.626
4.627
4.631
4.635
4.623
4.622
4.627
4.639
4.634
4.636
4.627
4.641
4.646
4.646
4.642
4.649
4.653
4.652
4.654
4.647
4.651
4.649
4.640
4.633
4.629
4.644
4.640
4.630
4.631
4.635
4.631
4.633
4.634
4.635
4.626
4.639
4.637
4.636
4.631
4.633
4.637
4.646
4.645
4.642
4.642
4.641
4.645
4.658
4.651
4.649
4.653
4.650
4.646
4.660
4.656
4.653
4.648
4.642
4.646
4.660
4.664
4.663
4.659
4.657
4.653
4.657
4.670
4.672
4.672
4.674
4.672
4.669
4.668
4.675
4.684
4.688
4.678
4.677
4.673
4.663
4.676
4.672
4.675
4.672
4.667
4.664
4.667
4.674
4.673
4.671
4.673
4.668
4.672
4.671
4.668
4.677
4.687
4.691
4.687
4.682
4.683
4.685
4.683
4.680
4.690
4.683
4.689
4.685
4.687
4.683
4.684
4.686
4.687
4.699
4.706
4.702
4.701
4.702
4.703
4.705
4.705
4.699
4.701
4.713
4.712
4.713
4.714
4.712
4.714
4.710
4.700
4.698
4.709
4.721
4.723
4.720
4.717
4.713
4.706
4.702
4.697
4.698
4.697
4.693
4.694
4.685
4.689
4.690
4.686
4.685
4.686
4.693
4.698
4.691
4.683
4.682
4.683
4.683
4.676
4.682
4.681
4.683
4.694
4.702
4.692
4.698
4.694
4.691
4.692
4.690
4.692
4.686
4.684
4.691
4.698
4.709
4.714
4.707
4.703
4.699
4.700
4.696
4.698
4.693
4.689
4.688
4.695
4.705
4.716
4.707
4.711
4.704
4.695
4.690
4.692
4.691
4.689
4.691
4.689
4.694
4.703
4.715
4.719
4.713
4.711
4.709
4.712
4.709
4.709
4.707
4.703
4.705
4.703
4.704
4.708
4.715
4.727
4.729
4.725
4.731
4.720
4.713
4.719
4.715
4.722
4.721
4.719
4.713
4.705
4.705
4.714
4.724
4.728
4.727
4.733
4.729
4.722
4.727
4.728
4.727
4.723
4.720
4.720
4.721
4.723
4.726
4.725
4.726
4.736
4.745
4.753
4.753
4.750
4.742
4.739
4.746
4.746
4.746
4.747
4.737
4.733
4.735
4.728
4.723
4.727
4.734
4.744
4.751
4.749
4.745
4.744
4.745
4.741
4.740
4.733
4.727
4.720
4.716
4.717
4.721
4.722
4.713
4.720
4.731
4.738
4.746
4.739
4.742
4.742
4.742
4.733
4.732
4.725
4.721
4.722
4.718
4.711
4.712
4.716
4.718
4.714
4.713
4.722
4.731
4.739
4.748
4.747
4.743
4.746
4.751
4.747
4.746
4.746
4.746
4.747
4.738
4.735
4.729
4.731
4.727
4.727
4.726
4.730
4.724
4.728
4.734
4.742
4.751
4.757
4.756
4.758
4.762
4.761
4.756
4.758
4.759
4.757
4.753
4.755
4.751
4.746
4.751
4.747
4.743
4.742
4.740
4.742
4.735
4.742
4.742
4.750
4.757
4.764
4.773
4.774
4.776
4.774
4.775
4.777
4.783
4.780
4.778
4.772
4.770
4.761
4.760
4.761
4.764
4.764
4.762
4.760
4.762
4.761
4.759
4.753
4.753
4.755
4.764
4.771
4.778
4.785
4.784
4.782
4.781
4.783
4.775
4.774
4.770
4.766
4.767
4.761
4.760
4.760
4.756
4.760
4.760
4.752
4.745
4.744
4.742
4.744
4.748
4.747
4.749
4.758
4.765
4.771
4.778
4.785
4.786
4.783
4.778
4.774
4.779
4.772
4.773
4.777
4.779
4.772
4.768
4.771
4.768
4.771
4.764
4.766
4.772
4.775
4.772
4.772
4.772
4.764
4.767
4.764
4.770
4.769
4.764
4.769
4.776
4.783
4.789
4.796
4.803
4.805
4.803
4.804
4.801
4.801
4.798
4.802
4.800
4.796
4.800
4.799
4.803
4.802
4.803
4.805
4.811
4.807
4.803
4.798
4.790
4.788
4.786
4.785
4.778
4.780
4.783
4.785
4.784
4.780
4.779
4.786
4.794
4.801
4.805
4.812
4.819
4.815
4.812
4.809
4.805
4.801
4.797
4.793
4.790
4.786
4.783
4.782
4.781
4.782
4.775
4.768
4.764
4.757
4.760
4.755
4.756
4.755
4.756
4.755
4.754
4.753
4.756
4.755
4.759
4.766
4.773
4.777
4.784
4.791
4.792
4.791
4.792
4.788
4.784
4.780
4.775
4.771
4.765
4.769
4.768
4.768
4.764
4.763
4.762
4.760
4.764
4.766
4.764
4.761
4.759
4.758
4.756
4.763
4.765
4.764
4.767
4.764
4.764
4.763
4.757
4.752
4.753
4.753
4.754
4.760
4.765
4.772
4.776
4.782
4.784
4.777
4.776
4.774
4.776
4.775
4.776
4.772
4.767
4.768
4.775
4.777
4.784
4.788
4.784
4.777
4.779
4.780
4.778
4.774
4.770
4.774
4.772
4.774
4.775
4.771
4.767
4.771
4.768
4.768
4.768
4.768
4.762
4.761
4.760
4.757
4.757
4.760
4.765
4.772
4.770
4.766
4.768
4.772
4.776
4.782
4.787
4.793
4.790
4.786
4.781
4.783
4.776
4.774
4.776
4.780
4.779
4.775
4.773
4.771
4.767
4.764
4.760
4.763
4.762
4.763
4.762
4.758
4.760
4.766
4.770
4.768
4.770
4.771
4.765
4.760
4.759
4.757
4.756
4.761
4.759
4.758
4.756
4.755
4.754
4.755
4.754
4.755
4.756
4.753
4.759
4.757
4.757
4.763
4.768
4.774
4.779
4.783
4.789
4.794
4.800
4.804
4.801
4.799
4.797
4.796
4.797
4.793
4.787
4.788
4.786
4.793
4.792
4.790
4.789
4.791
4.795
4.790
4.784
4.780
4.775
4.769
4.765
4.760
4.756
4.758
4.759
4.758
4.757
4.753
4.759
4.752
4.754
4.761
4.760
4.757
4.759
4.766
4.772
4.772
4.775
4.769
4.767
4.769
4.767
4.768
4.762
4.763
4.762
4.763
4.759
4.760
4.765
4.771
4.776
4.779
4.784
4.790
4.794
4.799
4.800
4.799
4.797
4.798
4.794
4.798
4.800
4.799
4.805
4.802
4.800
4.799
4.798
4.799
4.798
4.793
4.790
4.790
4.786
4.790
4.795
4.801
4.803
4.802
4.798
4.796
4.795
4.790
4.789
4.790
4.784
4.779
4.775
4.772
4.765
4.768
4.772
4.772
4.773
4.774
4.773
4.774
4.768
4.763
4.760
4.761
4.762
4.758
4.756
4.757
4.760
4.755
4.754
4.755
4.754
4.758
4.760
4.764
4.770
