2.995
3.328
3.517
3.608
3.723
3.790
3.821
3.898
3.879
3.928
3.975
4.019
4.055
4.024
3.986
4.009
4.029
4.048
4.061
4.077
4.103
4.106
4.130
4.130
4.154
4.155
4.169
4.186
4.182
4.196
4.210
4.224
4.220
4.228
4.238
4.254
4.259
4.274
4.260
4.269
4.282
4.291
4.301
4.302
4.317
4.326
4.297
4.310
4.320
4.328
4.330
4.335
4.348
4.355
4.351
4.369
4.370
4.379
4.383
4.359
4.360
4.373
4.375
4.386
4.385
4.385
4.381
4.399
4.404
4.404
4.420
4.420
4.421
4.414
4.427
4.433
4.433
4.447
4.447
4.451
4.455
4.459
4.452
4.453
4.459
4.437
4.428
4.434
4.441
4.443
4.441
4.450
4.460
4.462
4.444
4.455
4.458
4.460
4.465
4.465
4.467
4.474
4.489
4.483
4.473
4.481
4.495
4.491
4.500
4.504
4.502
4.489
4.493
4.491
4.490
4.499
4.506
4.496
4.511
4.512
4.524
4.513
4.525
4.523
4.522
4.529
4.530
4.539
4.531
4.544
4.542
4.546
4.542
4.547
4.557
4.553
4.549
4.543
4.557
4.538
4.543
4.539
4.555
4.548
4.553
4.570
4.559
4.572
4.572
4.571
4.581
4.575
4.572
4.589
4.580
4.583
4.593
4.578
4.577
4.565
4.554
4.543
4.542
4.559
4.552
4.544
4.560
4.552
4.551
4.565
4.561
4.560
4.562
4.578
4.579
4.566
4.575
4.581
4.581
4.566
4.567
4.553
4.553
4.570
4.553
4.550
4.551
4.565
4.551
4.549
4.552
4.566
4.566
4.566
4.570
4.573
4.578
4.577
4.578
4.570
4.584
4.574
4.572
4.576
4.577
4.590
4.589
4.580
4.576
4.584
4.605
4.600
4.600
4.594
4.589
4.606
4.610
4.605
4.595
4.587
4.602
4.598
4.599
4.594
4.589
4.593
4.608
4.604
4.603
4.597
4.592
4.599
4.619
4.619
4.615
4.604
4.600
4.599
4.618
4.621
4.624
4.613
4.617
4.614
4.613
4.630
4.643
4.638
4.631
4.629
4.627
4.623
4.635
4.640
4.637
4.639
4.634
4.638
4.627
4.634
4.652
4.642
4.631
4.621
4.611
4.608
4.625
4.630
4.620
4.620
4.625
4.612
4.599
4.610
4.616
4.624
4.613
4.614
4.614
4.612
4.607
4.609
4.620
4.636
4.638
4.631
4.635
4.622
4.616
4.614
4.614
4.621
4.637
4.641
4.642
4.636
4.622
4.614
4.613
4.607
4.614
4.629
4.637
4.639
4.643
4.630
4.630
4.626
4.627
4.634
4.629
4.632
4.642
4.656
4.654
4.646
4.648
4.640
4.643
4.644
4.643
4.633
4.629
4.643
4.658
4.663
4.650
4.651
4.651
4.648
4.655
4.654
4.652
4.646
4.643
4.653
4.662
4.676
4.681
4.675
4.672
4.672
4.668
4.665
4.662
4.657
4.657
4.656
4.658
4.668
4.681
4.671
4.670
4.672
4.678
4.671
4.661
4.651
4.642
4.646
4.648
4.649
4.661
4.674
4.676
4.666
4.653
4.656
4.647
4.654
4.648
4.641
4.645
4.644
4.646
4.642
4.653
4.666
4.678
4.683
4.683
4.679
4.671
4.666
4.658
4.664
4.654
4.649
4.653
4.665
4.655
4.649
4.656
4.668
4.679
4.691
4.699
4.692
4.690
4.683
4.679
4.677
4.680
4.677
4.676
4.677
4.665
4.668
4.673
4.670
4.679
4.677
4.688
4.699
4.710
4.707
4.709
4.703
4.701
4.699
4.703
4.695
4.698
4.695
4.695
4.696
4.696
4.699
4.690
4.678
4.678
4.689
4.699
4.710
4.711
4.704
4.704
4.702
4.690
4.688
4.687
4.689
4.686
4.684
4.681
4.679
4.689
4.679
4.685
4.683
4.683
4.682
4.692
4.702
4.713
4.719
4.717
4.715
4.713
4.708
4.712
4.714
4.718
4.710
4.703
4.709
4.706
4.708
4.707
4.710
4.706
4.709
4.702
4.700
4.699
4.698
4.704
4.714
4.724
4.734
4.743
4.752
4.744
4.741
4.738
4.733
4.722
4.721
4.721
4.723
4.722
4.727
4.727
4.729
4.723
4.719
4.708
4.717
4.714
4.714
4.711
4.715
4.720
4.721
4.730
4.731
4.726
4.720
4.715
4.710
4.705
4.709
4.706
4.701
4.699
4.695
4.693
4.700
4.700
4.698
4.693
4.690
4.701
4.700
4.702
4.698
4.698
4.701
4.696
4.702
4.711
4.717
4.719
4.716
4.723
4.714
4.709
4.707
4.701
4.693
4.699
4.707
4.706
4.704
4.704
4.697
4.694
4.686
4.680
4.682
4.686
4.679
4.671
4.672
4.680
4.677
4.676
4.674
4.682
4.691
4.699
4.708
4.716
4.724
4.733
4.735
4.728
4.720
4.714
4.715
4.716
4.711
4.712
4.721
4.720
4.720
4.716
4.714
4.711
4.706
4.699
4.693
4.694
4.689
4.687
4.682
4.682
4.682
4.679
4.668
4.670
4.666
4.674
4.682
4.690
4.697
4.705
4.710
4.716
4.713
4.716
4.709
4.710
4.705
4.713
4.720
4.717
4.712
4.722
4.715
4.715
4.719
4.720
4.719
4.728
4.719
4.717
4.713
4.706
4.704
4.700
4.699
4.699
4.695
4.695
4.689
4.687
4.698
4.699
4.692
4.697
4.692
4.692
4.689
4.691
4.698
4.706
4.713
4.720
4.727
4.725
4.725
4.722
4.717
4.717
4.716
4.719
4.724
4.721
4.718
4.715
4.709
4.706
4.705
4.705
4.713
4.711
4.708
4.716
4.712
4.704
4.701
4.703
4.700
4.709
4.708
4.700
4.700
4.706
4.707
4.705
4.711
4.704
4.697
4.699
4.699
4.697
4.691
4.685
4.687
4.694
4.701
4.708
4.715
4.722
4.729
4.735
4.732
4.734
4.735
4.737
4.737
4.731
4.733
4.738
4.738
4.735
4.736
4.729
4.727
4.729
4.725
4.716
4.716
4.718
4.715
4.718
4.718
4.720
4.716
4.711
4.712
4.711
4.712
4.712
4.716
4.714
4.717
4.727
4.725
4.723
4.719
4.712
4.710
4.711
4.711
4.708
4.704
4.696
4.694
4.690
4.690
4.691
4.697
4.704
4.710
4.716
4.722
4.729
4.735
4.742
4.748
4.748
4.745
4.744
4.740
4.741
4.751
4.754
4.754
4.751
4.750
4.753
4.750
4.759
4.757
4.748
4.745
4.745
4.743
4.742
4.737
4.739
4.738
4.735
4.732
4.735
4.741
4.738
4.730
4.725
4.719
4.718
4.721
4.727
4.730
4.731
4.728
4.730
4.728
4.734
4.735
4.733
4.727
4.724
4.722
4.718
4.718
4.725
4.731
4.728
4.727
4.729
4.726
4.726
4.725
4.725
4.722
4.726
4.725
4.730
4.736
4.742
4.748
4.754
4.760
4.766
4.772
4.777
4.782
4.782
4.789
4.793
4.790
4.784
4.786
4.779
4.775
4.774
4.774
4.777
4.782
4.776
4.776
4.772
4.771
4.764
4.767
4.765
4.765
4.771
4.768
4.763
4.755
4.756
4.757
4.762
4.759
4.756
4.762
4.762
4.762
4.764
4.762
4.756
4.751
4.750
4.747
4.753
4.746
4.740
4.736
4.732
4.733
4.734
4.739
4.737
4.731
4.737
4.739
4.736
4.737
4.735
4.730
4.725
4.721
4.716
4.711
4.707
4.709
4.714
4.719
4.725
4.730
4.735
4.741
4.746
4.752
4.753
4.762
4.757
4.764
4.771
4.775
4.777
4.772
4.770
4.763
4.756
4.758
4.756
4.758
4.759
4.761
4.763
4.758
4.752
4.749
4.751
4.746
4.744
4.746
4.751
4.741
4.737
4.738
4.739
4.739
4.735
4.732
4.731
4.735
4.733
4.737
4.739
4.736
4.734
4.741
4.736
4.729
4.727
4.727
4.722
4.725
4.731
4.730
4.730
4.727
4.729
4.734
4.741
4.741
4.737
4.737
4.734
4.737
4.736
4.732
4.734
4.734
4.728
4.729
4.728
4.722
4.717
4.718
4.716
4.717
4.707
4.711
4.707
4.714
4.711
4.714
4.715
4.719
4.719
4.717
4.719
4.723
4.727
4.732
4.737
4.742
4.747
4.752
4.756
4.761
4.766
4.771
4.776
4.781
4.786
4.783
4.781
4.784
4.790
4.784
4.786
4.781
4.778
4.781
4.777
4.775
4.776
4.775
4.771
4.767
4.765
4.760
4.763
4.763
4.766
4.773
4.779
4.781
4.782
4.787
4.787
4.781
