2.994
3.331
3.509
3.633
3.711
3.780
3.843
3.888
3.913
3.969
3.971
4.010
4.052
4.089
4.056
4.080
4.106
4.128
4.149
4.175
4.190
4.210
4.228
4.244
4.203
4.168
4.183
4.190
4.198
4.214
4.218
4.232
4.234
4.249
4.248
4.261
4.272
4.272
4.284
4.294
4.292
4.300
4.312
4.318
4.318
4.326
4.331
4.340
4.349
4.344
4.351
4.357
4.366
4.372
4.381
4.367
4.379
4.384
4.390
4.395
4.398
4.406
4.413
4.401
4.408
4.416
4.419
4.422
4.430
4.432
4.435
4.446
4.446
4.452
4.436
4.443
4.448
4.448
4.453
4.458
4.462
4.465
4.468
4.473
4.478
4.481
4.488
4.488
4.489
4.497
4.488
4.487
4.487
4.483
4.490
4.492
4.497
4.502
4.501
4.507
4.506
4.512
4.513
4.514
4.523
4.525
4.528
4.531
4.526
4.535
4.535
4.538
4.545
4.547
4.552
4.551
4.553
4.537
4.538
4.528
4.534
4.533
4.538
4.539
4.540
4.545
4.551
4.556
4.555
4.560
4.563
4.554
4.558
4.560
4.558
4.562
4.565
4.569
4.575
4.577
4.580
4.579
4.584
4.588
4.587
4.586
4.582
4.585
4.593
4.589
4.595
4.596
4.596
4.601
4.608
4.608
4.606
4.610
4.608
4.614
4.612
4.622
4.621
4.620
4.617
4.620
4.623
4.624
4.621
4.609
4.598
4.596
4.588
4.597
4.601
4.603
4.612
4.601
4.606
4.607
4.613
4.616
4.610
4.616
4.615
4.616
4.615
4.621
4.619
4.630
4.624
4.618
4.626
4.623
4.623
4.618
4.623
4.618
4.625
4.626
4.633
4.628
4.633
4.634
4.631
4.637
4.634
4.641
4.640
4.647
4.648
4.643
4.652
4.644
4.647
4.647
4.649
4.649
4.650
4.659
4.656
4.657
4.665
4.661
4.668
4.667
4.655
4.653
4.653
4.659
4.658
4.659
4.666
4.654
4.659
4.660
4.660
4.664
4.668
4.666
4.667
4.670
4.667
4.669
4.675
4.674
4.670
4.681
4.682
4.680
4.687
4.691
4.684
4.685
4.689
4.686
4.689
4.684
4.686
4.681
4.694
4.694
4.693
4.690
4.703
4.698
4.700
4.697
4.704
4.706
4.706
4.705
4.709
4.709
4.706
4.711
4.711
4.708
4.699
4.703
4.703
4.699
4.700
4.716
4.711
4.711
4.709
4.709
4.709
4.704
4.704
4.708
4.709
4.705
4.703
4.712
4.717
4.714
4.711
4.709
4.723
4.722
4.721
4.722
4.724
4.727
4.727
4.726
4.724
4.723
4.737
4.735
4.734
4.736
4.726
4.741
4.739
4.733
4.727
4.721
4.715
4.709
4.703
4.710
4.706
4.700
4.702
4.700
4.702
4.696
4.697
4.694
4.695
4.705
4.714
4.707
4.709
4.708
4.703
4.712
4.717
4.717
4.718
4.712
4.705
4.714
4.710
4.714
4.712
4.712
4.713
4.717
4.724
4.719
4.717
4.714
4.717
4.716
4.729
4.730
4.731
4.728
4.730
4.734
4.731
4.736
4.732
4.725
4.718
4.710
4.717
4.721
4.720
4.715
4.717
4.717
4.715
4.720
4.724
4.722
4.713
4.716
4.707
4.708
4.719
4.716
4.715
4.718
4.716
4.719
4.714
4.716
4.723
4.716
4.715
4.716
4.714
4.709
4.710
4.721
4.731
4.726
4.726
4.723
4.721
4.721
4.724
4.723
4.734
4.745
4.739
4.733
4.731
4.728
4.727
4.729
4.731
4.737
4.736
4.740
4.737
4.731
4.725
4.727
4.726
4.736
4.743
4.743
4.750
4.744
4.740
4.736
4.731
4.738
4.737
4.748
4.747
4.750
4.745
4.747
4.745
4.749
4.745
4.743
4.744
4.755
4.765
4.766
4.762
4.757
4.750
4.756
4.755
4.747
4.747
4.751
4.748
4.753
4.752
4.752
4.750
4.748
4.743
4.745
4.746
4.756
4.763
4.754
4.746
4.747
4.750
4.750
4.741
4.743
4.739
4.749
4.759
4.764
4.763
4.765
4.761
4.759
4.758
4.756
4.756
4.754
4.754
4.758
4.768
4.773
4.768
4.768
4.773
4.777
4.768
4.762
4.752
4.755
4.753
4.761
4.770
4.776
4.774
4.776
4.775
4.773
4.773
4.775
4.772
4.770
4.770
4.768
4.768
4.777
4.786
4.792
4.794
4.790
4.790
4.797
4.789
4.782
4.780
4.783
4.783
4.778
4.778
4.787
4.796
4.790
4.789
4.792
4.789
4.784
4.786
4.780
4.780
4.782
4.781
4.782
4.777
4.773
4.778
4.770
4.764
4.764
4.766
4.765
4.763
4.763
4.760
4.763
4.762
4.770
4.778
4.774
4.776
4.779
4.775
4.774
4.773
4.772
4.769
4.766
4.760
4.754
4.753
4.762
4.769
4.766
4.770
4.766
4.764
4.765
4.770
4.771
4.767
4.766
4.764
4.763
4.758
4.754
4.757
4.763
4.771
4.779
4.778
4.775
4.777
4.775
4.776
4.773
4.774
4.772
4.773
4.776
4.776
4.775
4.776
4.775
4.773
4.773
4.781
4.789
4.787
4.782
4.789
4.786
4.783
4.781
4.775
4.773
4.771
4.770
4.771
4.769
4.775
4.774
4.773
4.776
4.782
4.789
4.788
4.785
4.785
4.778
4.772
4.776
4.779
4.778
4.778
4.769
4.770
4.769
4.767
4.768
4.765
4.768
4.776
4.783
4.791
4.798
4.799
4.794
4.794
4.793
4.787
4.786
4.792
4.788
4.782
4.783
4.789
4.789
4.784
4.785
4.788
4.788
4.791
4.788
4.790
4.797
4.804
4.806
4.801
4.801
4.804
4.799
4.799
4.798
4.793
4.797
4.798
4.797
4.794
4.793
4.787
4.783
4.792
4.785
4.783
4.787
4.794
4.801
4.808
4.805
4.806
4.805
4.803
4.801
4.806
4.802
4.801
4.804
4.804
4.809
4.804
4.804
4.800
4.800
4.798
4.802
4.801
4.800
4.799
4.795
4.802
4.809
4.815
4.822
4.829
4.830
4.829
4.828
4.828
4.824
4.823
4.818
4.815
4.812
4.812
4.814
4.814
4.814
4.821
4.819
4.815
4.810
4.807
4.805
4.803
4.808
4.812
4.818
4.825
4.819
4.815
4.817
4.820
4.819
4.815
4.810
4.806
4.801
4.796
4.792
4.794
4.791
4.792
4.788
4.790
4.790
4.791
4.799
4.796
4.796
4.798
4.804
4.810
4.817
4.821
4.823
4.823
4.822
4.824
4.820
4.813
4.815
4.813
4.807
4.801
4.801
4.796
4.799
4.801
4.806
4.805
4.801
4.797
4.790
4.787
4.788
4.786
4.791
4.797
4.803
4.809
4.815
4.816
4.813
4.820
4.823
4.825
4.824
4.819
4.819
4.817
4.818
4.817
4.817
4.818
4.818
4.817
4.814
4.815
4.817
4.814
4.814
4.811
4.810
4.811
4.809
4.802
4.804
4.799
4.801
4.807
4.813
4.819
4.824
4.826
4.826
4.825
4.821
4.823
4.825
4.825
4.824
4.823
4.828
4.824
4.827
4.826
4.825
4.825
4.820
4.826
4.826
4.827
4.823
4.825
4.826
4.826
4.825
4.825
4.821
4.815
4.815
4.814
4.816
4.817
4.820
4.825
4.831
4.836
4.842
4.848
4.846
4.844
4.840
4.840
4.838
4.837
4.838
4.835
4.832
4.835
4.838
4.842
4.842
4.837
4.839
4.842
4.844
4.845
4.849
4.844
4.846
4.843
4.843
4.838
4.836
4.833
4.831
4.831
4.830
4.828
4.832
4.829
4.833
4.838
4.843
4.849
4.853
4.851
4.852
4.854
4.855
4.859
4.859
4.859
4.854
4.848
4.845
4.845
4.844
4.843
4.848
4.852
4.850
4.849
4.847
4.846
4.842
4.839
4.835
4.830
4.826
4.821
4.824
4.820
4.820
4.821
4.822
4.820
4.820
4.824
4.829
4.834
4.839
4.844
4.849
4.853
4.851
4.848
4.846
4.854
4.851
4.852
4.846
4.845
4.841
4.842
4.842
4.844
4.849
4.849
4.845
4.845
4.845
4.848
4.847
4.845
4.839
4.835
4.837
4.833
4.834
4.835
4.835
4.835
4.834
4.833
4.833
4.836
4.836
4.835
4.834
4.834
4.839
4.842
4.840
4.842
4.847
4.852
4.857
4.862
4.865
4.865
4.867
4.865
4.863
4.865
4.872
4.872
4.873
4.867
4.866
4.864
4.858
4.862
4.861
4.862
4.859
4.862
4.864
4.860
4.860
4.859
4.861
