2.994
3.331
3.511
3.633
3.712
3.781
3.845
3.888
3.916
3.970
3.971
4.012
4.053
4.085
4.054
4.080
4.106
4.129
4.149
4.175
4.190
4.209
4.229
4.238
4.197
4.165
4.183
4.189
4.199
4.214
4.218
4.233
4.237
4.247
4.251
4.263
4.276
4.275
4.284
4.297
4.295
4.302
4.309
4.321
4.317
4.326
4.333
4.342
4.350
4.343
4.352
4.357
4.364
4.371
4.380
4.373
4.379
4.383
4.391
4.397
4.401
4.411
4.412
4.401
4.410
4.409
4.416
4.422
4.429
4.430
4.438
4.445
4.443
4.449
4.437
4.444
4.446
4.447
4.453
4.461
4.464
4.463
4.470
4.474
4.479
4.485
4.479
4.486
4.494
4.496
4.479
4.480
4.489
4.485
4.486
4.491
4.498
4.507
4.505
4.507
4.503
4.510
4.514
4.516
4.527
4.523
4.531
4.531
4.530
4.537
4.533
4.540
4.545
4.546
4.552
4.556
4.542
4.532
4.528
4.531
4.534
4.537
4.541
4.540
4.544
4.546
4.549
4.553
4.558
4.564
4.552
4.556
4.560
4.556
4.561
4.565
4.566
4.573
4.580
4.583
4.574
4.584
4.585
4.586
4.586
4.579
4.583
4.590
4.588
4.592
4.593
4.594
4.597
4.606
4.607
4.603
4.610
4.608
4.613
4.612
4.621
4.617
4.620
4.614
4.618
4.623
4.621
4.620
4.608
4.598
4.594
4.590
4.594
4.600
4.599
4.609
4.601
4.603
4.608
4.609
4.618
4.608
4.616
4.611
4.615
4.617
4.618
4.622
4.629
4.627
4.616
4.623
4.620
4.622
4.618
4.619
4.616
4.625
4.623
4.630
4.627
4.634
4.631
4.636
4.634
4.636
4.642
4.638
4.648
4.642
4.649
4.647
4.645
4.645
4.643
4.649
4.646
4.652
4.656
4.655
4.664
4.664
4.660
4.669
4.662
4.652
4.651
4.655
4.656
4.655
4.660
4.661
4.651
4.661
4.654
4.660
4.665
4.668
4.662
4.671
4.668
4.660
4.675
4.671
4.671
4.679
4.683
4.677
4.679
4.690
4.689
4.680
4.690
4.686
4.686
4.686
4.687
4.680
4.687
4.694
4.692
4.688
4.697
4.701
4.695
4.691
4.705
4.704
4.706
4.702
4.709
4.705
4.705
4.707
4.712
4.710
4.701
4.704
4.703
4.694
4.698
4.712
4.711
4.710
4.711
4.707
4.708
4.702
4.701
4.710
4.705
4.704
4.701
4.708
4.717
4.713
4.708
4.708
4.720
4.720
4.719
4.718
4.720
4.729
4.728
4.723
4.725
4.723
4.734
4.734
4.731
4.734
4.727
4.740
4.738
4.732
4.727
4.723
4.716
4.710
4.705
4.710
4.705
4.697
4.701
4.697
4.703
4.694
4.695
4.691
4.694
4.705
4.709
4.705
4.708
4.705
4.703
4.713
4.716
4.716
4.714
4.712
4.705
4.712
4.708
4.712
4.709
4.710
4.712
4.720
4.722
4.718
4.717
4.713
4.716
4.720
4.730
4.727
4.730
4.727
4.728
4.732
4.728
4.734
4.730
4.723
4.717
4.708
4.720
4.720
4.716
4.712
4.716
4.718
4.712
4.721
4.722
4.716
4.712
4.712
4.705
4.712
4.719
4.712
4.712
4.715
4.714
4.715
4.709
4.720
4.720
4.715
4.712
4.715
4.711
4.707
4.716
4.726
4.727
4.726
4.727
4.720
4.720
4.721
4.723
4.729
4.739
4.742
4.733
4.731
4.727
4.726
4.727
4.727
4.736
4.735
4.736
4.737
4.731
4.729
4.727
4.726
4.733
4.740
4.741
4.745
4.745
4.737
4.734
4.734
4.738
4.734
4.744
4.746
4.749
4.746
4.744
4.745
4.745
4.745
4.741
4.742
4.752
4.762
4.764
4.762
4.755
4.749
4.755
4.756
4.749
4.746
4.749
4.748
4.750
4.753
4.750
4.748
4.745
4.742
4.742
4.745
4.753
4.764
4.755
4.748
4.744
4.749
4.747
4.742
4.739
4.738
4.749
4.757
4.763
4.760
4.763
4.760
4.758
4.757
4.755
4.756
4.752
4.753
4.758
4.767
4.771
4.767
4.768
4.771
4.774
4.768
4.760
4.751
4.753
4.753
4.763
4.770
4.775
4.773
4.774
4.771
4.771
4.773
4.775
4.770
4.768
4.767
4.764
4.770
4.779
4.787
4.791
4.789
4.790
4.790
4.794
4.786
4.779
4.783
4.782
4.779
4.777
4.781
4.788
4.795
4.790
4.786
4.790
4.789
4.782
4.783
4.779
4.778
4.780
4.779
4.780
4.776
4.775
4.775
4.766
4.762
4.761
4.764
4.760
4.762
4.761
4.762
4.761
4.767
4.774
4.775
4.774
4.776
4.775
4.773
4.772
4.771
4.771
4.768
4.763
4.757
4.752
4.759
4.764
4.765
4.766
4.768
4.763
4.764
4.766
4.771
4.768
4.765
4.764
4.765
4.760
4.754
4.753
4.760
4.769
4.775
4.780
4.773
4.774
4.771
4.774
4.771
4.771
4.771
4.771
4.776
4.774
4.773
4.774
4.773
4.771
4.771
4.779
4.786
4.785
4.781
4.786
4.786
4.783
4.781
4.777
4.771
4.769
4.768
4.769
4.768
4.774
4.771
4.771
4.773
4.780
4.786
4.785
4.783
4.786
4.778
4.774
4.775
4.777
4.778
4.775
4.770
4.769
4.767
4.766
4.765
4.764
4.768
4.775
4.783
4.790
4.797
4.797
4.794
4.793
4.790
4.785
4.786
4.793
4.787
4.783
4.783
4.788
4.787
4.783
4.784
4.786
4.787
4.790
4.787
4.791
4.797
4.804
4.805
4.801
4.800
4.804
4.798
4.799
4.797
4.791
4.797
4.796
4.795
4.793
4.792
4.786
4.784
4.791
4.784
4.782
4.789
4.796
4.801
4.807
4.803
4.805
4.801
4.801
4.801
4.805
4.800
4.799
4.803
4.805
4.805
4.802
4.801
4.797
4.798
4.799
4.800
4.801
4.797
4.796
4.798
4.805
4.811
4.816
4.823
4.831
4.828
4.829
4.827
4.829
4.822
4.820
4.816
4.812
4.809
4.810
4.812
4.812
4.817
4.820
4.816
4.813
4.808
4.805
4.801
4.805
4.809
4.816
4.820
4.823
4.817
4.813
4.816
4.818
4.817
4.812
4.809
4.804
4.800
4.794
4.794
4.791
4.792
4.788
4.786
4.790
4.790
4.796
4.795
4.794
4.797
4.802
4.808
4.813
4.819
4.821
4.820
4.820
4.822
4.821
4.814
4.815
4.814
4.808
4.803
4.802
4.797
4.796
4.798
4.802
4.806
4.799
4.798
4.790
4.786
4.786
4.784
4.790
4.797
4.801
4.808
4.813
4.814
4.813
4.819
4.821
4.825
4.823
4.817
4.818
4.816
4.816
4.814
4.816
4.817
4.816
4.816
4.813
4.812
4.813
4.812
4.813
4.809
4.808
4.811
4.810
4.801
4.801
4.797
4.802
4.808
4.813
4.819
4.824
4.825
4.826
4.825
4.821
4.822
4.824
4.822
4.824
4.823
4.826
4.825
4.826
4.825
4.824
4.820
4.820
4.825
4.826
4.825
4.823
4.823
4.823
4.827
4.823
4.822
4.820
4.816
4.815
4.814
4.812
4.816
4.821
4.827
4.832
4.838
4.843
4.849
4.845
4.841
4.837
4.838
4.837
4.834
4.838
4.831
4.831
4.834
4.838
4.841
4.838
4.839
4.838
4.842
4.843
4.845
4.846
4.844
4.843
4.841
4.840
4.838
4.834
4.831
4.829
4.828
4.831
4.828
4.831
4.830
4.835
4.841
4.845
4.850
4.851
4.850
4.851
4.853
4.856
4.855
4.857
4.857
4.851
4.845
4.843
4.844
4.843
4.844
4.849
4.847
4.849
4.845
4.843
4.842
4.840
4.836
4.832
4.828
4.824
4.823
4.823
4.819
4.820
4.820
4.821
4.819
4.823
4.828
4.832
4.836
4.842
4.847
4.851
4.852
4.846
4.845
4.849
4.849
4.849
4.845
4.845
4.842
4.840
4.841
4.843
4.845
4.848
4.844
4.843
4.844
4.846
4.844
4.845
4.839
4.834
4.834
4.831
4.831
4.834
4.833
4.834
4.833
4.831
4.831
4.834
4.836
4.835
4.833
4.832
4.838
4.840
4.839
4.843
4.847
4.853
4.857
4.860
4.864
4.864
4.864
4.862
4.861
4.865
4.871
4.871
4.869
4.865
4.864
4.862
4.857
4.862
4.860
4.860
4.858
4.859
4.863
4.857
4.857
4.859
4.860
4.862
4.869
4.868
4.863
4.859
4.857
