2.992
3.329
3.502
3.615
3.694
3.766
3.817
3.876
3.942
3.916
3.959
3.999
4.039
4.073
4.099
4.045
4.030
4.048
4.066
4.081
4.093
4.112
4.123
4.147
4.148
4.164
4.170
4.185
4.200
4.201
4.214
4.226
4.222
4.229
4.247
4.256
4.266
4.261
4.269
4.281
4.287
4.305
4.307
4.294
4.304
4.312
4.323
4.324
4.335
4.344
4.345
4.360
4.353
4.339
4.346
4.358
4.365
4.363
4.372
4.377
4.384
4.394
4.397
4.399
4.408
4.413
4.419
4.418
4.392
4.393
4.400
4.413
4.411
4.420
4.420
4.423
4.425
4.434
4.436
4.442
4.446
4.453
4.458
4.448
4.457
4.461
4.464
4.470
4.472
4.479
4.487
4.489
4.494
4.481
4.488
4.486
4.490
4.487
4.469
4.464
4.472
4.481
4.479
4.484
4.482
4.487
4.485
4.498
4.490
4.483
4.491
4.495
4.490
4.497
4.501
4.506
4.501
4.509
4.520
4.519
4.507
4.522
4.515
4.528
4.531
4.533
4.543
4.530
4.523
4.538
4.529
4.528
4.532
4.538
4.540
4.531
4.546
4.542
4.556
4.553
4.559
4.558
4.562
4.561
4.562
4.557
4.565
4.568
4.562
4.577
4.575
4.582
4.581
4.582
4.590
4.580
4.589
4.572
4.587
4.580
4.583
4.583
4.573
4.585
4.581
4.582
4.590
4.587
4.592
4.605
4.597
4.599
4.605
4.609
4.609
4.615
4.608
4.610
4.622
4.618
4.611
4.620
4.609
4.599
4.590
4.580
4.583
4.583
4.576
4.590
4.595
4.585
4.581
4.593
4.589
4.585
4.589
4.599
4.595
4.596
4.598
4.613
4.608
4.605
4.601
4.613
4.614
4.601
4.600
4.598
4.590
4.585
4.597
4.594
4.586
4.588
4.590
4.593
4.589
4.582
4.583
4.602
4.600
4.594
4.600
4.596
4.608
4.612
4.606
4.605
4.603
4.612
4.612
4.612
4.601
4.599
4.611
4.621
4.616
4.610
4.617
4.607
4.622
4.629
4.630
4.634
4.628
4.627
4.631
4.643
4.638
4.642
4.631
4.626
4.633
4.632
4.627
4.626
4.622
4.621
4.630
4.631
4.631
4.629
4.628
4.629
4.625
4.640
4.647
4.646
4.647
4.643
4.641
4.635
4.644
4.648
4.647
4.645
4.647
4.646
4.641
4.645
4.660
4.665
4.664
4.670
4.666
4.659
4.660
4.654
4.668
4.676
4.675
4.673
4.668
4.657
4.652
4.664
4.669
4.678
4.675
4.673
4.674
4.667
4.657
4.650
4.653
4.651
4.657
4.651
4.653
4.653
4.641
4.643
4.650
4.648
4.644
4.645
4.650
4.642
4.636
4.642
4.633
4.645
4.658
4.662
4.653
4.657
4.657
4.657
4.658
4.661
4.653
4.648
4.661
4.665
4.661
4.661
4.660
4.656
4.653
4.656
4.660
4.661
4.655
4.664
4.660
4.657
4.655
4.654
4.660
4.657
4.660
4.654
4.652
4.653
4.664
4.675
4.679
4.681
4.679
4.681
4.675
4.673
4.675
4.675
4.674
4.664
4.666
4.676
4.690
4.690
4.688
4.681
4.674
4.672
4.671
4.667
4.666
4.665
4.674
4.668
4.680
4.690
4.698
4.694
4.696
4.694
4.690
4.697
4.701
4.695
4.698
4.692
4.690
4.689
4.683
4.695
4.705
4.717
4.709
4.701
4.702
4.708
4.701
4.700
4.699
4.703
4.699
4.690
4.690
4.687
4.698
4.695
4.690
4.687
4.693
4.697
4.694
4.695
4.691
4.689
4.685
4.678
4.677
4.683
4.679
4.684
4.694
4.700
4.696
4.687
4.685
4.694
4.687
4.690
4.691
4.689
4.687
4.694
4.690
4.690
4.690
4.687
4.690
4.695
4.704
4.703
4.712
4.709
4.707
4.700
4.701
4.700
4.701
4.692
4.690
4.695
4.699
4.705
4.705
4.705
4.702
4.701
4.698
4.708
4.716
4.720
4.720
4.720
4.721
4.719
4.721
4.716
4.720
4.722
4.718
4.716
4.713
4.717
4.720
4.717
4.721
4.712
4.718
4.711
4.713
4.724
4.732
4.741
4.746
4.739
4.742
4.733
4.735
4.733
4.735
4.735
4.731
4.727
4.731
4.727
4.724
4.720
4.720
4.711
4.712
4.709
4.712
4.719
4.729
4.731
4.737
4.741
4.735
4.736
4.731
4.727
4.723
4.725
4.723
4.722
4.723
4.722
4.721
4.712
4.723
4.724
4.721
4.719
4.715
4.711
4.713
4.717
4.726
4.735
4.743
4.752
4.754
4.755
4.748
4.746
4.745
4.747
4.753
4.752
4.751
4.747
4.753
4.758
4.751
4.752
4.748
4.746
4.738
4.739
4.737
4.742
4.742
4.739
4.746
4.753
4.753
4.755
4.753
4.761
4.768
4.772
4.768
4.771
4.770
4.766
4.762
4.760
4.759
4.764
4.761
4.753
4.759
4.763
4.767
4.763
4.757
4.761
4.757
4.753
4.757
4.752
4.746
4.742
4.738
4.733
4.737
4.741
4.746
4.744
4.743
4.752
4.748
4.747
4.750
4.744
4.745
4.741
4.740
4.746
4.742
4.739
4.738
4.738
4.738
4.741
4.734
4.728
4.723
4.719
4.713
4.709
4.713
4.716
4.710
4.708
4.715
4.722
4.729
4.736
4.743
4.747
4.751
4.742
4.738
4.739
4.734
4.733
4.731
4.731
4.727
4.733
4.734
4.736
4.735
4.731
4.726
4.722
4.718
4.722
4.723
4.720
4.721
4.722
4.713
4.714
4.715
4.716
4.721
4.719
4.716
4.712
4.718
4.727
4.727
4.730
4.737
4.742
4.750
4.757
4.761
4.760
4.761
4.757
4.753
4.750
4.745
4.739
4.742
4.741
4.742
4.735
4.729
4.722
4.720
4.719
4.718
4.720
4.723
4.720
4.716
4.717
4.716
4.711
4.713
4.712
4.718
4.714
4.710
4.708
4.709
4.709
4.710
4.708
4.713
4.720
4.727
4.731
4.738
4.746
4.753
4.755
4.751
4.753
4.751
4.753
4.751
4.755
4.762
4.760
4.762
4.763
4.757
4.758
4.754
4.753
4.753
4.757
4.748
4.742
4.737
4.730
4.729
4.730
4.726
4.724
4.729
4.727
4.724
4.722
4.721
4.724
4.723
4.717
4.715
4.717
4.715
4.717
4.716
4.712
4.715
4.714
4.721
4.727
4.734
4.738
4.745
4.750
4.757
4.760
4.759
4.750
4.751
4.750
4.753
4.747
4.748
4.753
4.753
4.749
4.748
4.744
4.743
4.741
4.738
4.741
4.750
4.752
4.750
4.755
4.757
4.753
4.751
4.747
4.742
4.741
4.745
4.738
4.735
4.735
4.735
4.739
4.743
4.741
4.740
4.735
4.734
4.731
4.731
4.730
4.723
4.716
4.710
4.706
4.710
4.717
4.723
4.728
4.734
4.739
4.746
4.750
4.756
4.761
4.768
4.774
4.776
4.780
4.775
4.774
4.770
4.769
4.772
4.768
4.768
4.761
4.757
4.761
4.764
4.758
4.757
4.755
4.754
4.753
4.759
4.757
4.757
4.757
4.759
4.753
4.750
4.753
4.750
4.749
4.748
4.746
4.745
4.752
4.750
4.749
4.743
4.739
4.737
4.735
4.731
4.731
4.735
4.738
4.742
4.739
4.742
4.746
4.745
4.741
4.742
4.739
4.735
4.735
4.727
4.728
4.734
4.739
4.745
4.750
4.756
4.760
4.765
4.771
4.776
4.782
4.786
4.783
4.781
4.782
4.786
4.783
4.779
4.777
4.779
4.779
4.783
4.782
4.784
4.782
4.779
4.779
4.784
4.780
4.781
4.777
4.776
4.774
4.770
4.764
4.765
4.764
4.767
4.771
4.767
4.766
4.767
4.763
4.764
4.763
4.764
4.763
4.770
4.774
4.772
4.769
4.772
4.766
4.767
4.764
4.765
4.764
4.761
4.757
4.756
4.757
4.759
4.758
4.759
4.760
4.764
4.766
4.764
4.757
4.761
4.757
4.756
4.757
4.757
4.760
4.761
4.761
4.761
4.758
4.762
4.766
4.772
4.777
4.781
4.787
4.790
4.796
4.800
4.805
4.811
4.815
4.817
4.816
4.817
4.813
4.816
4.820
4.816
4.815
4.817
4.813
4.811
4.805
4.803
4.801
4.795
4.790
4.790
4.783
4.784
4.785
4.784
4.788
4.794
4.790
4.790
4.788
4.789
4.791
4.789
4.785
4.781
4.787
4.786
4.790
4.792
4.790
4.792
4.785
4.783
4.782
4.783
4.783
4.783
4.779
