2.995
3.327
3.509
3.621
3.700
3.768
3.802
3.876
3.923
3.920
3.962
4.004
4.039
4.070
4.080
4.014
4.023
4.042
4.069
4.087
4.095
4.106
4.130
4.133
4.155
4.151
4.174
4.188
4.188
4.202
4.218
4.215
4.221
4.243
4.249
4.256
4.255
4.263
4.278
4.280
4.293
4.301
4.288
4.293
4.307
4.310
4.317
4.331
4.333
4.345
4.349
4.338
4.334
4.342
4.349
4.365
4.361
4.366
4.377
4.380
4.386
4.386
4.394
4.400
4.408
4.413
4.391
4.391
4.394
4.404
4.403
4.418
4.414
4.413
4.418
4.421
4.433
4.431
4.444
4.443
4.446
4.450
4.448
4.453
4.459
4.462
4.467
4.478
4.474
4.485
4.487
4.480
4.479
4.485
4.490
4.470
4.453
4.460
4.467
4.473
4.471
4.470
4.479
4.487
4.489
4.485
4.478
4.482
4.482
4.485
4.495
4.487
4.499
4.506
4.503
4.513
4.508
4.512
4.507
4.520
4.521
4.525
4.534
4.522
4.528
4.528
4.517
4.520
4.525
4.529
4.531
4.526
4.536
4.530
4.546
4.547
4.552
4.545
4.557
4.551
4.550
4.548
4.564
4.556
4.565
4.567
4.573
4.568
4.570
4.578
4.575
4.586
4.580
4.576
4.575
4.576
4.577
4.566
4.568
4.572
4.579
4.578
4.573
4.592
4.594
4.584
4.601
4.595
4.594
4.609
4.594
4.601
4.614
4.616
4.607
4.616
4.618
4.607
4.596
4.585
4.575
4.569
4.571
4.581
4.583
4.579
4.573
4.582
4.583
4.577
4.586
4.590
4.592
4.583
4.596
4.610
4.600
4.601
4.603
4.600
4.605
4.601
4.599
4.589
4.583
4.583
4.592
4.589
4.574
4.579
4.583
4.587
4.579
4.572
4.593
4.592
4.586
4.594
4.586
4.603
4.610
4.598
4.596
4.595
4.609
4.613
4.601
4.601
4.590
4.610
4.617
4.607
4.605
4.607
4.607
4.623
4.619
4.622
4.618
4.619
4.619
4.631
4.634
4.634
4.630
4.622
4.625
4.628
4.620
4.619
4.615
4.614
4.626
4.621
4.623
4.618
4.616
4.625
4.622
4.640
4.638
4.634
4.639
4.635
4.632
4.631
4.640
4.642
4.633
4.637
4.636
4.633
4.633
4.649
4.657
4.658
4.655
4.663
4.653
4.658
4.649
4.661
4.668
4.666
4.669
4.665
4.659
4.645
4.653
4.666
4.678
4.666
4.667
4.666
4.668
4.659
4.650
4.644
4.643
4.649
4.642
4.639
4.637
4.638
4.641
4.647
4.639
4.636
4.639
4.638
4.630
4.632
4.627
4.640
4.651
4.654
4.648
4.647
4.647
4.647
4.650
4.650
4.647
4.646
4.660
4.658
4.655
4.656
4.650
4.643
4.647
4.646
4.651
4.650
4.657
4.653
4.652
4.647
4.642
4.649
4.647
4.651
4.649
4.644
4.645
4.658
4.666
4.675
4.670
4.670
4.671
4.667
4.665
4.666
4.669
4.664
4.665
4.664
4.677
4.685
4.686
4.679
4.681
4.669
4.664
4.662
4.659
4.652
4.666
4.660
4.671
4.683
4.688
4.687
4.687
4.687
4.681
4.688
4.689
4.691
4.689
4.686
4.679
4.681
4.681
4.691
4.703
4.708
4.707
4.699
4.689
4.694
4.695
4.691
4.691
4.693
4.690
4.689
4.680
4.687
4.698
4.694
4.686
4.687
4.685
4.684
4.690
4.683
4.680
4.682
4.677
4.671
4.676
4.672
4.681
4.692
4.690
4.686
4.682
4.678
4.681
4.678
4.681
4.687
4.681
4.679
4.682
4.682
4.680
4.679
4.677
4.685
4.695
4.695
4.697
4.699
4.700
4.702
4.697
4.691
4.693
4.688
4.680
4.683
4.691
4.699
4.694
4.691
4.692
4.691
4.694
4.704
4.715
4.711
4.707
4.715
4.714
4.713
4.714
4.712
4.708
4.714
4.711
4.705
4.708
4.711
4.709
4.710
4.714
4.711
4.710
4.707
4.717
4.727
4.737
4.742
4.739
4.734
4.724
4.726
4.724
4.727
4.725
4.728
4.722
4.725
4.718
4.717
4.718
4.708
4.707
4.700
4.702
4.711
4.720
4.725
4.726
4.734
4.731
4.729
4.722
4.719
4.717
4.719
4.718
4.718
4.713
4.712
4.712
4.712
4.714
4.717
4.715
4.713
4.709
4.702
4.705
4.714
4.723
4.733
4.741
4.744
4.745
4.745
4.747
4.741
4.740
4.741
4.746
4.740
4.739
4.741
4.749
4.745
4.745
4.742
4.738
4.735
4.729
4.730
4.731
4.732
4.734
4.740
4.743
4.746
4.749
4.749
4.757
4.764
4.768
4.765
4.764
4.758
4.760
4.752
4.752
4.757
4.753
4.757
4.752
4.751
4.756
4.760
4.753
4.750
4.748
4.743
4.747
4.752
4.750
4.743
4.737
4.730
4.733
4.734
4.737
4.734
4.736
4.746
4.743
4.739
4.739
4.739
4.731
4.732
4.736
4.735
4.734
4.733
4.729
4.730
4.733
4.735
4.732
4.724
4.724
4.718
4.712
4.707
4.705
4.709
4.702
4.709
4.716
4.724
4.732
4.740
4.742
4.743
4.736
4.736
4.731
4.728
4.727
4.722
4.721
4.724
4.730
4.727
4.723
4.721
4.722
4.724
4.715
4.710
4.712
4.714
4.713
4.710
4.709
4.709
4.708
4.708
4.711
4.711
4.708
4.708
4.711
4.718
4.722
4.726
4.733
4.740
4.748
4.755
4.754
4.753
4.751
4.752
4.748
4.753
4.747
4.740
4.734
4.734
4.730
4.728
4.724
4.716
4.713
4.710
4.713
4.717
4.717
4.715
4.708
4.709
4.709
4.706
4.704
4.711
4.708
4.705
4.699
4.697
4.702
4.702
4.703
4.710
4.717
4.724
4.731
4.738
4.745
4.752
4.746
4.742
4.745
4.742
4.741
4.746
4.750
4.750
4.751
4.753
4.755
4.751
4.750
4.746
4.747
4.752
4.743
4.741
4.737
4.734
4.727
4.721
4.721
4.714
4.717
4.720
4.719
4.715
4.719
4.713
4.719
4.719
4.713
4.707
4.707
4.708
4.709
4.705
4.707
4.713
4.720
4.726
4.733
4.739
4.746
4.752
4.756
4.754
4.749
4.745
4.745
4.743
4.742
4.743
4.745
4.745
4.740
4.739
4.737
4.736
4.736
4.734
4.737
4.743
4.744
4.744
4.747
4.748
4.744
4.739
4.739
4.738
4.737
4.740
4.738
4.729
4.726
4.732
4.733
4.736
4.738
4.730
4.730
4.725
4.725
4.721
4.725
4.716
4.713
4.708
4.707
4.713
4.719
4.725
4.731
4.737
4.743
4.749
4.756
4.761
4.768
4.769
4.774
4.772
4.771
4.768
4.762
4.768
4.764
4.762
4.758
4.759
4.752
4.756
4.748
4.749
4.746
4.749
4.746
4.750
4.750
4.754
4.751
4.748
4.746
4.744
4.740
4.740
4.741
4.744
4.740
4.742
4.745
4.749
4.748
4.741
4.737
4.730
4.724
4.726
4.725
4.729
4.734
4.733
4.732
4.736
4.734
4.732
4.730
4.732
4.728
4.727
4.726
4.724
4.730
4.735
4.741
4.747
4.752
4.758
4.764
4.769
4.775
4.780
4.774
4.774
4.775
4.777
4.779
4.774
4.772
4.771
4.774
4.772
4.776
4.781
4.784
4.777
4.770
4.773
4.769
4.771
4.769
4.769
4.768
4.768
4.759
4.759
4.759
4.761
4.760
4.758
4.758
4.756
4.753
4.755
4.754
4.753
4.759
4.767
4.771
4.763
4.762
4.758
4.763
4.759
4.762
4.758
4.752
4.752
4.751
4.744
4.749
4.749
4.753
4.756
4.758
4.758
4.761
4.754
4.749
4.751
4.754
4.748
4.752
4.750
4.751
4.756
4.754
4.754
4.760
4.765
4.770
4.775
4.780
4.785
4.791
4.796
4.801
4.806
4.811
4.812
4.805
4.807
4.808
4.807
4.812
4.815
4.808
4.809
4.807
4.811
4.808
4.803
4.798
4.795
4.789
4.784
4.778
4.777
4.777
4.778
4.784
4.781
4.777
4.779
4.781
4.788
4.788
4.782
4.776
4.779
4.779
4.780
4.784
4.784
4.788
4.781
4.778
4.773
4.771
4.773
4.780
4.778
4.774
4.770
4.767
4.765
4.762
4.757
4.753
4.749
4.747
4.747
4.742
4.741
4.740
4.745
4.746
4.743
4.737
4.731
4.726
4.725
4.724
4.725
4.725
4.728
4.733
4.738
4.743
4.747
4.752
4.757
