2.995
3.302
3.458
3.601
3.642
3.750
3.834
3.750
3.791
3.825
3.860
3.895
3.921
3.941
3.968
3.981
4.003
4.049
4.040
4.056
4.076
4.085
4.100
4.108
4.120
4.141
4.158
4.155
4.153
4.151
4.171
4.191
4.193
4.199
4.217
4.229
4.234
4.247
4.263
4.228
4.220
4.243
4.238
4.236
4.249
4.263
4.261
4.273
4.274
4.291
4.281
4.270
4.298
4.306
4.300
4.310
4.320
4.325
4.335
4.360
4.353
4.335
4.344
4.339
4.352
4.374
4.372
4.370
4.391
4.390
4.385
4.397
4.382
4.356
4.350
4.369
4.357
4.382
4.365
4.383
4.363
4.339
4.350
4.344
4.365
4.356
4.359
4.378
4.361
4.388
4.378
4.379
4.394
4.397
4.403
4.400
4.377
4.407
4.386
4.386
4.429
4.399
4.391
4.412
4.412
4.418
4.426
4.430
4.429
4.420
4.453
4.449
4.438
4.433
4.461
4.448
4.437
4.442
4.427
4.401
4.406
4.442
4.430
4.426
4.413
4.432
4.441
4.433
4.416
4.413
4.441
4.425
4.434
4.438
4.423
4.449
4.458
4.459
4.445
4.432
4.439
4.467
4.474
4.464
4.457
4.463
4.447
4.477
4.480
4.477
4.478
4.478
4.469
4.470
4.498
4.476
4.454
4.463
4.445
4.447
4.475
4.480
4.489
4.466
4.470
4.454
4.453
4.464
4.491
4.512
4.482
4.487
4.480
4.473
4.469
4.473
4.487
4.512
4.519
4.509
4.519
4.518
4.506
4.495
4.488
4.488
4.512
4.517
4.514
4.505
4.493
4.495
4.486
4.488
4.485
4.490
4.512
4.525
4.533
4.533
4.531
4.524
4.522
4.532
4.533
4.518
4.522
4.528
4.533
4.554
4.560
4.549
4.551
4.540
4.534
4.540
4.553
4.533
4.517
4.518
4.524
4.544
4.554
4.541
4.547
4.533
4.528
4.534
4.538
4.523
4.508
4.493
4.486
4.506
4.525
4.530
4.512
4.518
4.518
4.519
4.520
4.519
4.520
4.522
4.511
4.497
4.497
4.497
4.498
4.510
4.528
4.523
4.521
4.520
4.517
4.507
4.496
4.510
4.509
4.512
4.516
4.513
4.516
4.493
4.499
4.493
4.493
4.510
4.527
4.543
4.547
4.529
4.538
4.539
4.525
4.524
4.514
4.509
4.497
4.504
4.503
4.499
4.497
4.514
4.515
4.517
4.508
4.499
4.513
4.529
4.544
4.548
4.547
4.539
4.528
4.532
4.528
4.529
4.543
4.541
4.534
4.540
4.540
4.533
4.520
4.513
4.514
4.514
4.506
4.510
4.504
4.500
4.511
4.524
4.538
4.552
4.567
4.581
4.571
4.564
4.567
4.560
4.572
4.573
4.561
4.551
4.536
4.539
4.538
4.539
4.546
4.552
4.548
4.540
4.544
4.549
4.543
4.544
4.533
4.540
4.534
4.528
4.527
4.540
4.553
4.567
4.580
4.593
4.605
4.604
4.604
4.600
4.609
4.617
4.621
4.607
4.594
4.590
4.592
4.586
4.580
4.566
4.559
4.557
4.556
4.546
4.562
4.564
4.560
4.552
4.558
4.554
4.546
4.535
4.525
4.514
4.520
4.532
4.545
4.556
4.568
4.578
4.570
4.573
4.580
4.589
4.592
4.576
4.568
4.554
4.562
4.560
4.553
4.552
4.568
4.565
4.569
4.559
4.549
4.555
4.545
4.551
4.552
4.560
4.552
4.542
4.545
4.548
4.546
4.540
4.538
4.527
4.523
4.518
4.523
4.522
4.526
4.527
4.528
4.544
4.543
4.551
4.562
4.573
4.584
4.594
4.605
4.616
4.627
4.637
4.637
4.624
4.625
4.627
4.631
4.637
4.629
4.623
4.613
4.606
4.614
4.614
4.617
4.623
4.612
4.605
4.607
4.602
4.594
4.587
4.581
4.573
4.581
4.573
4.557
4.557
4.554
4.555
4.545
4.550
4.550
4.549
4.545
4.532
4.529
4.523
4.517
4.519
4.512
4.505
4.513
4.522
4.532
4.541
4.551
4.560
4.570
4.580
4.589
4.588
4.585
4.578
4.575
4.582
4.585
4.591
4.583
4.583
4.596
4.595
4.594
4.594
4.586
4.585
4.576
4.580
4.582
4.577
4.575
4.570
4.573
4.576
4.566
4.564
4.563
4.571
4.577
4.591
4.583
4.579
4.589
4.593
4.588
4.585
4.588
4.582
4.582
4.577
4.568
4.560
4.550
4.551
4.554
4.545
4.541
4.546
4.559
4.555
4.549
4.553
4.547
4.540
4.548
4.544
4.539
4.537
4.542
4.541
4.547
4.543
4.535
4.541
4.549
4.558
4.566
4.575
4.583
4.591
4.600
4.608
4.616
4.625
4.629
4.633
4.625
4.623
4.618
4.616
4.620
4.612
4.625
4.620
4.609
4.601
4.595
4.593
4.578
4.573
4.565
4.570
4.573
4.573
4.566
4.572
4.562
4.568
4.579
4.589
4.584
4.584
4.583
4.589
4.578
4.572
4.576
4.571
4.572
4.578
4.584
4.581
4.585
4.576
4.584
4.578
4.582
4.575
4.577
4.575
4.580
4.581
4.572
4.564
4.556
4.559
4.558
4.559
4.554
4.564
4.556
4.554
4.553
4.549
4.547
4.539
4.535
4.533
4.531
4.530
4.520
4.515
4.528
4.533
4.526
4.531
4.531
4.535
4.533
4.537
4.541
4.540
4.542
4.548
4.558
4.558
4.558
4.565
4.572
4.579
4.586
4.593
4.600
4.608
4.615
4.622
4.629
4.636
4.643
4.651
4.658
4.646
4.644
4.643
4.647
4.641
4.639
4.631
4.634
4.633
4.632
4.626
4.627
4.633
4.631
4.632
4.629
4.640
4.647
4.650
4.642
4.637
4.631
4.621
4.611
4.604
4.600
4.598
4.591
4.591
4.596
4.607
4.610
4.612
4.613
4.613
4.616
4.610
4.605
4.595
4.587
4.586
4.588
4.577
4.582
4.582
4.590
4.586
4.595
4.602
4.609
4.599
4.605
4.603
4.600
4.596
4.597
4.596
4.597
4.598
4.607
4.617
4.624
4.616
4.617
4.611
4.610
4.604
4.598
4.591
4.585
4.579
4.581
4.584
4.580
4.567
4.569
4.579
4.576
4.579
4.572
4.567
4.567
4.565
4.567
4.560
4.558
4.550
4.553
4.563
4.570
4.568
4.563
4.557
4.552
4.546
4.541
4.540
4.548
4.551
4.544
4.540
4.542
4.540
4.545
4.547
4.540
4.527
4.525
4.531
4.537
4.543
4.549
4.555
4.561
4.567
4.573
4.579
4.584
4.591
4.597
4.602
4.608
4.614
4.620
4.626
4.624
4.619
4.618
4.627
4.632
4.626
4.628
4.624
4.622
4.625
4.613
4.606
4.601
4.607
4.601
4.596
4.594
4.592
4.597
4.598
4.596
4.599
4.599
4.607
4.615
4.614
4.613
4.611
4.619
4.617
4.617
4.621
4.623
4.624
4.613
4.613
4.608
4.601
4.610
4.614
4.603
4.610
4.609
4.616
4.622
4.614
4.616
4.613
4.613
4.607
4.597
4.605
4.599
4.599
4.602
4.595
4.600
4.592
4.598
4.598
4.601
4.584
4.584
4.589
4.582
4.580
4.591
4.591
4.597
4.588
4.585
4.576
4.579
4.581
4.579
4.577
4.573
4.577
4.565
4.571
4.568
4.568
4.572
4.563
4.564
4.563
4.562
4.566
4.560
4.562
4.568
4.560
4.562
4.564
4.559
4.564
4.569
4.572
4.570
4.570
4.563
4.559
4.557
4.554
4.554
4.552
4.554
4.558
4.566
4.570
4.566
4.562
4.557
4.562
4.563
4.559
4.559
4.565
4.556
4.558
4.548
4.554
4.567
4.566
4.564
4.563
4.566
4.562
4.563
4.564
4.565
4.569
4.569
4.575
4.582
4.586
4.583
4.588
4.586
4.579
4.577
4.572
4.571
4.577
4.571
4.565
4.558
4.552
4.548
4.545
4.542
4.538
4.538
4.537
4.540
4.543
4.552
4.542
4.536
4.539
4.538
4.540
4.540
4.542
4.545
4.545
4.542
4.538
4.529
4.518
4.522
4.521
4.528
4.531
4.535
4.540
4.545
4.550
4.554
4.559
4.564
4.569
4.574
4.578
4.583
4.588
4.593
4.597
4.602
4.607
4.612
4.616
4.621
4.626
4.631
4.636
4.640
4.645
4.650
4.655
4.658
4.655
4.653
4.655
4.654
4.657
4.659
4.662
4.668
4.677
4.679
4.677
4.674
4.672
4.667
4.663
4.658
4.658
4.651
4.654
4.652
4.652
4.657
4.654
4.653
4.658
