2.992
3.332
3.517
3.630
3.725
3.790
3.846
3.899
3.922
3.976
3.979
4.020
4.057
4.031
4.057
4.086
4.111
4.135
4.155
4.176
4.199
4.220
4.210
4.168
4.158
4.167
4.185
4.190
4.197
4.211
4.218
4.230
4.232
4.249
4.257
4.258
4.270
4.280
4.278
4.288
4.300
4.297
4.306
4.313
4.325
4.334
4.328
4.335
4.342
4.351
4.358
4.356
4.357
4.365
4.368
4.378
4.382
4.390
4.393
4.383
4.393
4.395
4.402
4.408
4.408
4.414
4.424
4.433
4.431
4.422
4.426
4.433
4.432
4.436
4.443
4.447
4.446
4.450
4.457
4.466
4.467
4.472
4.473
4.479
4.473
4.466
4.471
4.468
4.470
4.474
4.481
4.486
4.487
4.488
4.494
4.496
4.500
4.505
4.512
4.512
4.516
4.516
4.517
4.518
4.523
4.531
4.530
4.535
4.538
4.526
4.522
4.513
4.522
4.518
4.520
4.526
4.531
4.538
4.533
4.534
4.539
4.545
4.541
4.545
4.544
4.543
4.550
4.549
4.555
4.562
4.566
4.559
4.563
4.570
4.577
4.570
4.566
4.573
4.580
4.578
4.574
4.576
4.582
4.587
4.594
4.592
4.591
4.590
4.599
4.603
4.604
4.601
4.610
4.605
4.602
4.608
4.615
4.601
4.591
4.579
4.577
4.579
4.588
4.584
4.593
4.594
4.591
4.600
4.596
4.595
4.602
4.597
4.601
4.598
4.605
4.606
4.610
4.614
4.601
4.608
4.604
4.603
4.605
4.600
4.610
4.609
4.615
4.614
4.615
4.616
4.616
4.620
4.620
4.625
4.624
4.633
4.631
4.638
4.629
4.634
4.631
4.630
4.637
4.636
4.643
4.644
4.643
4.650
4.645
4.655
4.645
4.642
4.637
4.639
4.645
4.642
4.649
4.639
4.640
4.645
4.645
4.649
4.654
4.649
4.654
4.649
4.651
4.658
4.662
4.660
4.664
4.672
4.667
4.668
4.673
4.671
4.668
4.675
4.676
4.668
4.671
4.671
4.670
4.682
4.681
4.675
4.681
4.688
4.684
4.679
4.692
4.696
4.689
4.686
4.698
4.699
4.695
4.694
4.692
4.682
4.686
4.691
4.687
4.690
4.692
4.704
4.698
4.688
4.695
4.694
4.694
4.685
4.697
4.694
4.690
4.694
4.697
4.702
4.701
4.699
4.697
4.712
4.716
4.712
4.708
4.710
4.720
4.715
4.714
4.713
4.719
4.724
4.720
4.720
4.714
4.723
4.716
4.708
4.703
4.697
4.692
4.685
4.687
4.693
4.692
4.686
4.676
4.690
4.692
4.688
4.690
4.686
4.689
4.697
4.697
4.696
4.689
4.693
4.700
4.699
4.694
4.691
4.687
4.694
4.706
4.707
4.701
4.702
4.700
4.699
4.711
4.713
4.711
4.708
4.706
4.710
4.716
4.726
4.725
4.718
4.712
4.713
4.708
4.701
4.700
4.697
4.695
4.697
4.709
4.713
4.709
4.701
4.698
4.694
4.703
4.697
4.694
4.699
4.694
4.696
4.695
4.705
4.706
4.704
4.697
4.697
4.695
4.694
4.706
4.708
4.708
4.708
4.708
4.704
4.703
4.704
4.714
4.720
4.720
4.718
4.725
4.720
4.711
4.708
4.720
4.729
4.727
4.724
4.717
4.716
4.714
4.712
4.720
4.721
4.722
4.724
4.722
4.724
4.723
4.718
4.720
4.731
4.731
4.729
4.728
4.731
4.730
4.726
4.723
4.724
4.734
4.745
4.749
4.748
4.741
4.738
4.742
4.738
4.734
4.737
4.742
4.740
4.738
4.729
4.727
4.731
4.731
4.729
4.731
4.742
4.750
4.742
4.739
4.737
4.738
4.731
4.725
4.724
4.733
4.743
4.744
4.746
4.741
4.740
4.741
4.740
4.741
4.743
4.736
4.742
4.750
4.757
4.757
4.753
4.755
4.751
4.752
4.749
4.752
4.749
4.744
4.753
4.760
4.756
4.753
4.753
4.755
4.756
4.755
4.751
4.750
4.753
4.752
4.759
4.769
4.771
4.772
4.770
4.769
4.770
4.771
4.767
4.769
4.771
4.766
4.764
4.771
4.776
4.775
4.776
4.779
4.779
4.772
4.770
4.768
4.764
4.764
4.764
4.766
4.776
4.775
4.771
4.766
4.760
4.755
4.749
4.747
4.743
4.741
4.746
4.753
4.764
4.763
4.760
4.763
4.760
4.755
4.753
4.749
4.751
4.755
4.756
4.752
4.751
4.752
4.751
4.752
4.749
4.745
4.746
4.747
4.746
4.747
4.748
4.749
4.748
4.744
4.743
4.749
4.759
4.766
4.767
4.766
4.764
4.760
4.753
4.750
4.749
4.755
4.760
4.757
4.753
4.753
4.751
4.755
4.764
4.771
4.779
4.774
4.768
4.769
4.764
4.763
4.767
4.768
4.760
4.755
4.754
4.755
4.753
4.753
4.760
4.768
4.776
4.771
4.764
4.766
4.765
4.763
4.764
4.764
4.757
4.755
4.753
4.753
4.756
4.749
4.749
4.757
4.764
4.772
4.778
4.780
4.781
4.780
4.775
4.774
4.768
4.775
4.773
4.769
4.768
4.771
4.768
4.763
4.768
4.768
4.768
4.769
4.776
4.783
4.790
4.791
4.792
4.793
4.790
4.788
4.784
4.785
4.783
4.779
4.776
4.772
4.773
4.772
4.771
4.779
4.778
4.771
4.779
4.785
4.792
4.793
4.789
4.786
4.784
4.785
4.787
4.783
4.783
4.791
4.786
4.786
4.781
4.780
4.779
4.780
4.786
4.786
4.779
4.779
4.786
4.791
4.798
4.805
4.811
4.808
4.809
4.812
4.809
4.815
4.809
4.807
4.806
4.805
4.798
4.796
4.795
4.799
4.798
4.799
4.797
4.797
4.798
4.796
4.795
4.801
4.808
4.813
4.812
4.812
4.811
4.808
4.805
4.801
4.805
4.805
4.800
4.797
4.795
4.790
4.786
4.780
4.776
4.772
4.778
4.775
4.781
4.788
4.792
4.799
4.805
4.804
4.798
4.801
4.803
4.804
4.805
4.804
4.805
4.801
4.795
4.796
4.794
4.791
4.787
4.783
4.783
4.779
4.779
4.779
4.778
4.775
4.781
4.786
4.792
4.799
4.803
4.801
4.801
4.804
4.805
4.805
4.803
4.799
4.798
4.799
4.798
4.801
4.798
4.797
4.795
4.794
4.800
4.796
4.797
4.802
4.801
4.799
4.800
4.794
4.789
4.788
4.794
4.799
4.805
4.810
4.811
4.815
4.814
4.812
4.808
4.807
4.803
4.804
4.808
4.805
4.809
4.808
4.811
4.805
4.801
4.804
4.806
4.808
4.806
4.807
4.808
4.807
4.803
4.801
4.803
4.801
4.806
4.808
4.805
4.810
4.817
4.821
4.828
4.829
4.830
4.829
4.831
4.827
4.825
4.821
4.817
4.818
4.814
4.818
4.820
4.820
4.817
4.821
4.825
4.827
4.823
4.826
4.823
4.826
4.825
4.824
4.825
4.826
4.823
4.823
4.820
4.813
4.816
4.818
4.823
4.829
4.833
4.838
4.839
4.837
4.836
4.838
4.839
4.838
4.839
4.837
4.838
4.835
4.834
4.831
4.831
4.831
4.831
4.827
4.828
4.827
4.831
4.831
4.825
4.824
4.822
4.827
4.822
4.820
4.816
4.812
4.808
4.807
4.812
4.818
4.823
4.827
4.833
4.832
4.831
4.829
4.827
4.831
4.833
4.829
4.827
4.829
4.830
4.827
4.828
4.829
4.831
4.835
4.828
4.831
4.830
4.832
4.827
4.826
4.822
4.821
4.822
4.816
4.819
4.813
4.814
4.816
4.814
4.816
4.819
4.816
4.817
4.820
4.825
4.824
4.828
4.834
4.839
4.843
4.849
4.854
4.857
4.853
4.849
4.848
4.845
4.851
4.852
4.849
4.847
4.849
4.847
4.846
4.849
4.845
4.842
4.843
4.844
4.842
4.839
4.842
4.844
4.848
4.850
4.853
4.849
4.849
4.847
4.848
4.845
4.843
4.842
4.840
4.845
4.843
4.839
4.842
4.842
4.840
4.838
4.840
4.845
4.849
4.855
4.860
4.864
4.868
4.874
4.871
4.868
4.865
4.863
4.862
4.860
4.865
4.863
4.862
4.863
4.860
4.860
4.860
4.864
4.862
4.858
4.859
4.857
4.859
4.858
4.857
4.857
4.854
4.850
4.848
4.845
4.842
4.839
4.837
4.834
4.832
4.830
4.827
4.823
4.821
4.819
4.824
4.828
4.834
4.838
4.842
4.847
4.846
4.844
4.838
4.834
4.835
4.833
4.838
4.838
