2.994
3.322
3.483
3.604
3.681
3.749
3.790
3.865
3.929
3.894
3.876
3.899
3.929
3.959
3.977
3.994
4.021
4.040
4.059
4.063
4.094
4.094
4.113
4.133
4.140
4.136
4.157
4.168
4.184
4.194
4.179
4.191
4.205
4.221
4.226
4.236
4.252
4.265
4.262
4.243
4.255
4.267
4.267
4.276
4.276
4.289
4.301
4.300
4.313
4.318
4.324
4.344
4.340
4.334
4.350
4.346
4.328
4.323
4.329
4.351
4.352
4.337
4.349
4.346
4.352
4.371
4.359
4.366
4.375
4.392
4.390
4.387
4.382
4.382
4.386
4.394
4.406
4.400
4.407
4.416
4.427
4.419
4.428
4.432
4.438
4.440
4.462
4.445
4.442
4.434
4.443
4.431
4.458
4.444
4.458
4.463
4.470
4.463
4.470
4.471
4.475
4.475
4.491
4.473
4.454
4.443
4.439
4.452
4.443
4.461
4.458
4.453
4.474
4.465
4.474
4.460
4.455
4.458
4.435
4.443
4.444
4.444
4.462
4.466
4.452
4.478
4.464
4.469
4.477
4.469
4.461
4.477
4.482
4.483
4.477
4.506
4.490
4.499
4.492
4.491
4.480
4.481
4.495
4.493
4.482
4.479
4.508
4.509
4.500
4.492
4.508
4.513
4.504
4.509
4.507
4.529
4.532
4.521
4.518
4.515
4.543
4.537
4.529
4.532
4.521
4.542
4.550
4.543
4.529
4.519
4.525
4.521
4.519
4.501
4.509
4.524
4.505
4.511
4.515
4.515
4.516
4.531
4.528
4.518
4.513
4.510
4.514
4.534
4.513
4.511
4.526
4.516
4.508
4.524
4.543
4.545
4.550
4.532
4.536
4.529
4.524
4.547
4.547
4.541
4.541
4.537
4.537
4.536
4.535
4.556
4.573
4.572
4.566
4.569
4.558
4.557
4.545
4.553
4.574
4.585
4.580
4.576
4.573
4.562
4.559
4.558
4.562
4.569
4.559
4.562
4.556
4.558
4.537
4.524
4.534
4.546
4.565
4.576
4.572
4.575
4.564
4.569
4.551
4.541
4.544
4.539
4.558
4.576
4.591
4.595
4.578
4.586
4.572
4.564
4.570
4.568
4.569
4.562
4.575
4.587
4.605
4.599
4.596
4.613
4.608
4.603
4.602
4.598
4.591
4.586
4.587
4.582
4.596
4.612
4.617
4.609
4.594
4.586
4.589
4.587
4.581
4.579
4.584
4.585
4.570
4.584
4.599
4.615
4.626
4.620
4.620
4.610
4.612
4.608
4.604
4.606
4.610
4.611
4.608
4.604
4.600
4.608
4.611
4.627
4.641
4.645
4.637
4.635
4.633
4.638
4.629
4.627
4.623
4.617
4.616
4.628
4.622
4.621
4.615
4.615
4.626
4.640
4.643
4.635
4.626
4.618
4.609
4.605
4.615
4.616
4.611
4.613
4.606
4.605
4.605
4.603
4.595
4.599
4.612
4.608
4.618
4.621
4.609
4.606
4.595
4.591
4.592
4.596
4.591
4.586
4.579
4.592
4.593
4.593
4.592
4.586
4.586
4.594
4.595
4.608
4.621
4.634
4.639
4.628
4.624
4.619
4.612
4.601
4.601
4.588
4.592
4.590
4.589
4.581
4.579
4.575
4.571
4.571
4.573
4.585
4.581
4.583
4.594
4.606
4.618
4.630
4.642
4.632
4.628
4.622
4.617
4.617
4.608
4.615
4.614
4.602
4.604
4.612
4.614
4.608
4.596
4.588
4.585
4.588
4.584
4.590
4.579
4.586
4.581
4.588
4.600
4.611
4.622
4.628
4.626
4.630
4.638
4.645
4.634
4.639
4.637
4.636
4.630
4.622
4.613
4.616
4.612
4.606
4.607
4.611
4.599
4.589
4.596
4.597
4.597
4.596
4.603
4.605
4.594
4.588
4.594
4.591
4.602
4.612
4.623
4.633
4.643
4.649
4.649
4.640
4.641
4.642
4.634
4.634
4.630
4.631
4.636
4.633
4.636
4.641
4.635
4.628
4.623
4.614
4.609
4.615
4.615
4.611
4.613
4.617
4.628
4.628
4.620
4.609
4.606
4.608
4.606
4.617
4.609
4.623
4.616
4.620
4.630
4.639
4.649
4.658
4.668
4.677
4.671
4.678
4.670
4.666
4.668
4.661
4.666
4.662
4.661
4.656
4.656
4.655
4.653
4.654
4.644
4.640
4.643
4.653
4.658
4.652
4.651
4.658
4.656
4.658
4.659
4.659
4.659
4.653
4.643
4.645
4.646
4.640
4.646
4.637
4.641
4.641
4.633
4.640
4.644
4.640
4.646
4.655
4.664
4.672
4.681
4.679
4.678
4.679
4.687
4.699
4.692
4.684
4.677
4.669
4.661
4.660
4.650
4.648
4.645
4.635
4.635
4.634
4.628
4.624
4.622
4.617
4.616
4.617
4.629
4.634
4.630
4.634
4.629
4.620
4.618
4.630
4.633
4.629
4.621
4.624
4.620
4.615
4.607
4.614
4.618
4.625
4.621
4.614
4.611
4.613
4.621
4.629
4.637
4.645
4.653
4.661
4.669
4.677
4.675
4.675
4.684
4.671
4.675
4.665
4.666
4.668
4.669
4.672
4.670
4.663
4.661
4.652
4.657
4.658
4.661
4.670
4.665
4.664
4.658
4.660
4.657
4.654
4.653
4.658
4.662
4.660
4.654
4.664
4.656
4.655
4.653
4.645
4.648
4.652
4.653
4.649
4.649
4.651
4.647
4.644
4.639
4.633
4.635
4.629
4.629
4.635
4.632
4.629
4.637
4.649
4.646
4.641
4.644
4.654
4.651
4.651
4.643
4.645
4.647
4.658
4.660
4.667
4.674
4.681
4.689
4.696
4.703
4.706
4.705
4.705
4.706
4.708
4.705
4.699
4.698
4.696
4.690
4.691
4.682
4.674
4.674
4.670
4.668
4.661
4.659
4.654
4.655
4.655
4.659
4.656
4.659
4.654
4.645
4.641
4.644
4.644
4.632
4.634
4.644
4.653
4.652
4.647
4.642
4.640
4.633
4.633
4.634
4.631
4.630
4.636
4.636
4.635
4.635
4.628
4.636
4.638
4.636
4.635
4.628
4.630
4.624
4.622
4.623
4.620
4.615
4.618
4.611
4.603
4.596
4.589
4.597
4.593
4.600
4.606
4.613
4.619
4.625
4.632
4.638
4.644
4.651
4.657
4.663
4.670
4.676
4.682
4.687
4.695
4.695
4.694
4.702
4.695
4.695
4.702
4.690
4.687
4.688
4.697
4.706
4.713
4.710
4.707
4.700
4.699
4.704
4.703
4.704
4.698
4.698
4.696
4.697
4.697
4.701
4.695
4.693
4.689
4.686
4.676
4.675
4.675
4.677
4.674
4.672
4.675
4.673
4.667
4.670
4.677
4.676
4.670
4.672
4.666
4.670
4.661
4.652
4.650
4.654
4.655
4.649
4.643
4.641
4.641
4.641
4.639
4.635
4.629
4.624
4.618
4.613
4.610
4.618
4.627
4.628
4.621
4.626
4.633
4.624
4.623
4.619
4.623
4.621
4.614
4.611
4.614
4.614
4.620
4.616
4.614
4.621
4.622
4.631
4.638
4.636
4.635
4.633
4.633
4.630
4.633
4.630
4.628
4.630
4.631
4.637
4.643
4.648
4.654
4.659
4.665
4.670
4.676
4.681
4.687
4.693
4.698
4.699
4.693
4.693
4.695
4.692
4.689
4.686
4.688
4.684
4.684
4.682
4.686
4.687
4.692
4.687
4.685
4.679
4.671
4.665
4.666
4.662
4.660
4.660
4.663
4.674
4.676
4.677
4.674
4.676
4.674
4.677
4.678
4.675
4.673
4.667
4.669
4.672
4.680
4.687
4.695
4.696
4.692
4.696
4.705
4.705
4.704
4.701
4.700
4.690
4.686
4.686
4.687
4.690
4.686
4.686
4.680
4.681
4.678
4.673
4.673
4.668
4.663
4.658
4.652
4.646
4.643
4.635
4.635
4.633
4.631
4.633
4.629
4.637
4.633
4.631
4.640
4.639
4.639
4.645
4.646
4.647
4.648
4.652
4.656
4.652
4.653
4.653
4.651
4.649
4.650
4.652
4.650
4.650
4.642
4.637
4.635
4.637
4.635
4.630
4.625
4.619
4.618
4.623
4.623
4.620
4.619
4.620
4.625
4.620
4.627
4.623
4.619
4.625
4.631
4.628
4.635
4.638
4.632
4.631
4.636
4.643
4.650
4.657
4.663
4.659
4.662
4.657
4.653
4.648
4.647
4.652
4.657
4.661
4.666
4.671
4.676
4.681
4.685
4.690
4.695
4.700
4.704
4.709
4.714
4.719
4.724
4.728
4.733
4.738
4.742
4.744
4.736
4.733
4.731
4.728
4.726
4.720
4.717
