2.995
3.333
3.507
3.631
3.723
3.773
3.847
3.866
3.927
3.918
3.953
3.994
4.033
4.067
4.098
4.120
4.058
4.051
4.069
4.082
4.098
4.116
4.124
4.135
4.154
4.156
4.173
4.191
4.192
4.208
4.218
4.217
4.230
4.242
4.241
4.249
4.259
4.270
4.281
4.274
4.280
4.290
4.296
4.311
4.321
4.324
4.312
4.319
4.329
4.336
4.339
4.352
4.355
4.361
4.370
4.381
4.361
4.361
4.369
4.377
4.388
4.384
4.382
4.395
4.403
4.409
4.404
4.413
4.421
4.427
4.432
4.439
4.428
4.409
4.411
4.423
4.426
4.426
4.441
4.442
4.435
4.441
4.440
4.449
4.460
4.454
4.466
4.474
4.473
4.473
4.470
4.472
4.474
4.484
4.490
4.496
4.497
4.499
4.509
4.516
4.503
4.508
4.504
4.514
4.501
4.486
4.485
4.491
4.489
4.497
4.490
4.497
4.506
4.510
4.504
4.519
4.505
4.505
4.512
4.506
4.508
4.515
4.519
4.512
4.529
4.528
4.526
4.540
4.532
4.523
4.539
4.535
4.546
4.546
4.544
4.554
4.549
4.545
4.549
4.545
4.549
4.541
4.553
4.554
4.555
4.548
4.557
4.556
4.568
4.567
4.575
4.571
4.578
4.575
4.576
4.573
4.573
4.587
4.582
4.587
4.586
4.589
4.595
4.589
4.606
4.594
4.597
4.610
4.596
4.600
4.600
4.598
4.604
4.595
4.604
4.592
4.592
4.606
4.602
4.597
4.617
4.616
4.616
4.618
4.616
4.613
4.626
4.635
4.620
4.625
4.642
4.636
4.633
4.641
4.635
4.625
4.615
4.606
4.596
4.591
4.587
4.597
4.601
4.601
4.597
4.606
4.596
4.597
4.595
4.612
4.615
4.603
4.604
4.615
4.620
4.622
4.620
4.615
4.630
4.626
4.626
4.620
4.619
4.613
4.609
4.606
4.609
4.605
4.608
4.606
4.610
4.613
4.607
4.602
4.603
4.608
4.611
4.609
4.603
4.606
4.625
4.622
4.619
4.628
4.621
4.623
4.633
4.629
4.628
4.629
4.618
4.630
4.621
4.627
4.629
4.622
4.627
4.641
4.637
4.631
4.634
4.626
4.631
4.649
4.655
4.653
4.644
4.644
4.644
4.648
4.660
4.653
4.640
4.637
4.635
4.642
4.652
4.651
4.648
4.646
4.635
4.632
4.648
4.652
4.660
4.652
4.646
4.647
4.643
4.649
4.665
4.666
4.667
4.662
4.657
4.651
4.644
4.660
4.672
4.667
4.665
4.663
4.665
4.661
4.663
4.665
4.680
4.691
4.687
4.680
4.684
4.670
4.671
4.672
4.678
4.692
4.685
4.683
4.684
4.682
4.685
4.678
4.680
4.684
4.693
4.684
4.676
4.668
4.661
4.654
4.655
4.669
4.676
4.677
4.677
4.667
4.663
4.664
4.659
4.649
4.661
4.668
4.668
4.663
4.662
4.662
4.658
4.658
4.658
4.651
4.660
4.673
4.682
4.681
4.684
4.681
4.674
4.673
4.672
4.668
4.664
4.664
4.677
4.677
4.678
4.682
4.685
4.684
4.680
4.679
4.668
4.663
4.659
4.671
4.675
4.681
4.680
4.677
4.675
4.685
4.682
4.682
4.676
4.668
4.668
4.670
4.682
4.694
4.706
4.704
4.699
4.703
4.695
4.691
4.689
4.690
4.683
4.684
4.676
4.682
4.694
4.702
4.699
4.696
4.691
4.694
4.690
4.692
4.690
4.693
4.683
4.688
4.693
4.691
4.695
4.706
4.717
4.714
4.717
4.717
4.717
4.713
4.721
4.719
4.714
4.708
4.702
4.702
4.705
4.704
4.707
4.718
4.729
4.730
4.727
4.722
4.722
4.723
4.721
4.713
4.708
4.705
4.706
4.706
4.709
4.701
4.706
4.714
4.710
4.708
4.714
4.717
4.721
4.713
4.706
4.700
4.700
4.702
4.698
4.690
4.693
4.689
4.693
4.703
4.713
4.716
4.712
4.709
4.708
4.712
4.708
4.709
4.712
4.718
4.712
4.711
4.711
4.709
4.710
4.710
4.702
4.697
4.707
4.716
4.725
4.722
4.720
4.722
4.726
4.723
4.719
4.719
4.718
4.715
4.714
4.715
4.716
4.727
4.731
4.725
4.720
4.717
4.707
4.714
4.723
4.733
4.739
4.738
4.740
4.739
4.732
4.743
4.744
4.740
4.740
4.747
4.741
4.740
4.737
4.738
4.735
4.736
4.732
4.726
4.728
4.733
4.726
4.732
4.741
4.750
4.758
4.762
4.759
4.761
4.759
4.751
4.749
4.745
4.742
4.744
4.744
4.744
4.739
4.740
4.739
4.739
4.732
4.724
4.717
4.714
4.722
4.731
4.739
4.748
4.751
4.756
4.754
4.755
4.752
4.748
4.743
4.740
4.743
4.746
4.739
4.738
4.741
4.736
4.737
4.733
4.741
4.740
4.743
4.737
4.737
4.732
4.735
4.736
4.737
4.744
4.752
4.760
4.768
4.771
4.768
4.769
4.769
4.768
4.770
4.769
4.775
4.772
4.769
4.770
4.770
4.770
4.767
4.766
4.766
4.764
4.762
4.762
4.759
4.767
4.766
4.768
4.758
4.765
4.761
4.766
4.760
4.767
4.774
4.782
4.790
4.792
4.794
4.789
4.784
4.784
4.777
4.772
4.775
4.773
4.780
4.778
4.777
4.779
4.778
4.773
4.769
4.765
4.760
4.756
4.751
4.747
4.743
4.739
4.734
4.734
4.742
4.749
4.756
4.764
4.761
4.759
4.764
4.763
4.765
4.769
4.764
4.769
4.764
4.762
4.757
4.760
4.759
4.754
4.749
4.744
4.739
4.734
4.728
4.723
4.727
4.734
4.732
4.733
4.729
4.729
4.734
4.734
4.729
4.731
4.733
4.737
4.743
4.750
4.757
4.764
4.764
4.758
4.756
4.753
4.751
4.745
4.741
4.733
4.738
4.746
4.756
4.754
4.748
4.745
4.746
4.748
4.743
4.740
4.741
4.742
4.738
4.744
4.739
4.734
4.733
4.730
4.736
4.735
4.738
4.737
4.736
4.736
4.733
4.739
4.741
4.737
4.744
4.751
4.757
4.763
4.770
4.770
4.764
4.759
4.754
4.759
4.755
4.753
4.751
4.753
4.750
4.752
4.744
4.742
4.744
4.738
4.737
4.734
4.730
4.733
4.735
4.740
4.737
4.736
4.739
4.734
4.734
4.732
4.729
4.736
4.735
4.732
4.731
4.724
4.719
4.719
4.721
4.719
4.725
4.732
4.738
4.744
4.750
4.756
4.763
4.769
4.775
4.772
4.773
4.772
4.773
4.775
4.773
4.779
4.778
4.769
4.772
4.772
4.774
4.771
4.764
4.762
4.757
4.756
4.753
4.754
4.749
4.746
4.749
4.750
4.748
4.743
4.740
4.740
4.739
4.733
4.727
4.725
4.729
4.735
4.735
4.737
4.738
4.736
4.736
4.741
4.738
4.736
4.732
4.732
4.733
4.738
4.744
4.750
4.756
4.762
4.767
4.771
4.770
4.771
4.764
4.768
4.767
4.766
4.770
4.768
4.773
4.768
4.767
4.763
4.759
4.761
4.764
4.759
4.759
4.761
4.767
4.774
4.774
4.770
4.774
4.768
4.761
4.756
4.753
4.756
4.760
4.762
4.757
4.757
4.755
4.750
4.755
4.755
4.756
4.750
4.744
4.739
4.734
4.733
4.733
4.732
4.733
4.728
4.730
4.725
4.721
4.727
4.732
4.739
4.743
4.748
4.754
4.759
4.765
4.770
4.775
4.781
4.786
4.792
4.792
4.790
4.790
4.786
4.782
4.784
4.783
4.779
4.781
4.776
4.779
4.783
4.779
4.779
4.775
4.776
4.769
4.768
4.775
4.773
4.776
4.778
4.781
4.778
4.777
4.772
4.768
4.764
4.763
4.763
4.757
4.756
4.757
4.757
4.761
4.755
4.759
4.759
4.757
4.754
4.754
4.750
4.757
4.756
4.764
4.765
4.765
4.765
4.766
4.760
4.755
4.748
4.747
4.746
4.746
4.741
4.742
4.746
4.747
4.752
4.757
4.762
4.767
4.772
4.777
4.782
4.787
4.792
4.798
4.795
4.794
4.793
4.799
4.796
4.795
4.796
4.794
4.794
4.791
4.793
4.795
4.802
4.806
4.805
4.801
4.803
4.800
4.794
4.789
4.786
4.787
4.786
4.782
4.785
4.786
4.786
4.789
4.792
4.787
4.791
4.793
4.786
4.785
4.785
4.784
4.779
4.782
4.785
4.791
4.784
4.784
4.782
4.784
4.778
4.781
4.787
4.786
4.784
4.782
4.784
