2.995
3.334
3.513
3.628
3.727
3.792
3.838
3.883
3.916
3.965
3.991
4.009
4.048
4.082
4.073
4.077
4.103
4.126
4.147
4.171
4.186
4.206
4.227
4.244
4.240
4.201
4.177
4.195
4.202
4.209
4.224
4.227
4.242
4.244
4.257
4.263
4.267
4.280
4.281
4.290
4.300
4.307
4.305
4.318
4.327
4.331
4.328
4.340
4.344
4.351
4.356
4.354
4.363
4.367
4.379
4.381
4.391
4.376
4.385
4.390
4.397
4.405
4.410
4.416
4.423
4.406
4.413
4.420
4.424
4.428
4.437
4.438
4.440
4.447
4.454
4.456
4.454
4.447
4.453
4.458
4.457
4.463
4.468
4.472
4.471
4.479
4.482
4.488
4.489
4.494
4.498
4.496
4.503
4.496
4.492
4.493
4.492
4.493
4.495
4.501
4.509
4.513
4.511
4.516
4.516
4.521
4.520
4.529
4.531
4.537
4.534
4.543
4.536
4.543
4.541
4.546
4.552
4.553
4.561
4.559
4.558
4.543
4.544
4.537
4.539
4.545
4.545
4.548
4.550
4.554
4.556
4.560
4.560
4.564
4.569
4.564
4.564
4.570
4.568
4.575
4.575
4.575
4.580
4.581
4.583
4.587
4.585
4.590
4.596
4.601
4.594
4.594
4.593
4.597
4.596
4.601
4.601
4.601
4.605
4.609
4.616
4.616
4.618
4.619
4.619
4.622
4.629
4.628
4.623
4.631
4.626
4.625
4.631
4.634
4.624
4.614
4.604
4.597
4.601
4.600
4.607
4.609
4.615
4.614
4.610
4.622
4.616
4.625
4.618
4.617
4.623
4.625
4.629
4.627
4.634
4.633
4.637
4.633
4.624
4.623
4.637
4.628
4.632
4.628
4.631
4.627
4.635
4.633
4.640
4.636
4.640
4.642
4.635
4.644
4.646
4.652
4.653
4.652
4.656
4.656
4.657
4.656
4.654
4.655
4.651
4.663
4.664
4.658
4.671
4.669
4.668
4.672
4.668
4.672
4.662
4.663
4.665
4.660
4.668
4.674
4.667
4.666
4.664
4.663
4.670
4.669
4.668
4.680
4.676
4.671
4.681
4.674
4.671
4.682
4.684
4.682
4.681
4.693
4.694
4.686
4.697
4.693
4.694
4.691
4.700
4.699
4.687
4.696
4.692
4.691
4.697
4.704
4.705
4.699
4.703
4.713
4.703
4.705
4.709
4.716
4.716
4.707
4.716
4.719
4.719
4.718
4.719
4.712
4.703
4.705
4.712
4.710
4.709
4.708
4.720
4.721
4.722
4.713
4.717
4.715
4.714
4.712
4.714
4.716
4.716
4.710
4.712
4.723
4.722
4.719
4.722
4.718
4.731
4.735
4.733
4.731
4.733
4.737
4.736
4.737
4.731
4.734
4.741
4.746
4.745
4.740
4.738
4.742
4.738
4.732
4.727
4.721
4.716
4.710
4.708
4.710
4.712
4.713
4.709
4.712
4.705
4.707
4.706
4.707
4.708
4.702
4.711
4.718
4.719
4.718
4.714
4.712
4.714
4.726
4.727
4.724
4.716
4.712
4.716
4.721
4.720
4.724
4.722
4.721
4.719
4.724
4.731
4.729
4.725
4.727
4.728
4.726
4.733
4.742
4.742
4.742
4.738
4.743
4.738
4.737
4.730
4.724
4.717
4.715
4.717
4.729
4.728
4.727
4.725
4.731
4.730
4.721
4.728
4.727
4.727
4.718
4.711
4.712
4.714
4.724
4.728
4.724
4.727
4.729
4.725
4.715
4.719
4.729
4.730
4.727
4.720
4.721
4.723
4.721
4.723
4.731
4.738
4.737
4.733
4.734
4.734
4.732
4.733
4.735
4.741
4.749
4.742
4.738
4.744
4.738
4.739
4.738
4.734
4.743
4.750
4.746
4.744
4.734
4.738
4.737
4.734
4.735
4.744
4.754
4.755
4.749
4.749
4.746
4.742
4.742
4.744
4.743
4.752
4.757
4.758
4.753
4.755
4.759
4.755
4.756
4.756
4.753
4.756
4.765
4.774
4.765
4.764
4.764
4.761
4.756
4.750
4.753
4.753
4.759
4.760
4.762
4.764
4.754
4.758
4.754
4.752
4.754
4.752
4.760
4.761
4.757
4.760
4.754
4.758
4.753
4.750
4.748
4.750
4.751
4.760
4.767
4.775
4.773
4.771
4.770
4.769
4.764
4.763
4.768
4.764
4.764
4.766
4.773
4.780
4.779
4.779
4.781
4.777
4.770
4.764
4.765
4.760
4.765
4.766
4.771
4.779
4.789
4.782
4.781
4.785
4.782
4.782
4.784
4.779
4.779
4.779
4.778
4.777
4.782
4.790
4.798
4.802
4.801
4.805
4.798
4.794
4.792
4.785
4.790
4.793
4.784
4.783
4.787
4.796
4.797
4.796
4.798
4.797
4.797
4.794
4.792
4.790
4.794
4.788
4.782
4.779
4.786
4.782
4.776
4.772
4.773
4.774
4.771
4.774
4.771
4.774
4.773
4.772
4.768
4.772
4.778
4.783
4.781
4.786
4.787
4.786
4.784
4.779
4.773
4.768
4.762
4.760
4.754
4.758
4.767
4.774
4.776
4.777
4.776
4.775
4.776
4.775
4.781
4.775
4.773
4.774
4.771
4.766
4.768
4.763
4.765
4.772
4.779
4.785
4.786
4.785
4.787
4.786
4.789
4.783
4.779
4.780
4.779
4.788
4.787
4.785
4.786
4.785
4.782
4.779
4.782
4.790
4.797
4.794
4.795
4.794
4.789
4.785
4.782
4.783
4.782
4.780
4.779
4.782
4.781
4.785
4.782
4.777
4.779
4.785
4.794
4.797
4.790
4.788
4.782
4.782
4.779
4.788
4.787
4.780
4.781
4.779
4.778
4.779
4.779
4.777
4.776
4.775
4.782
4.790
4.797
4.802
4.808
4.804
4.800
4.799
4.798
4.796
4.798
4.796
4.795
4.794
4.795
4.797
4.795
4.793
4.797
4.797
4.800
4.796
4.794
4.797
4.803
4.810
4.811
4.810
4.808
4.808
4.808
4.805
4.806
4.805
4.806
4.808
4.803
4.797
4.794
4.790
4.790
4.794
4.795
4.791
4.794
4.796
4.803
4.808
4.816
4.815
4.816
4.812
4.814
4.810
4.811
4.807
4.811
4.813
4.814
4.819
4.814
4.813
4.806
4.807
4.805
4.812
4.809
4.810
4.806
4.804
4.805
4.812
4.817
4.824
4.830
4.835
4.834
4.835
4.833
4.834
4.828
4.824
4.822
4.824
4.820
4.824
4.822
4.821
4.825
4.826
4.820
4.818
4.816
4.812
4.816
4.815
4.812
4.815
4.820
4.826
4.828
4.826
4.823
4.823
4.820
4.815
4.811
4.807
4.805
4.801
4.803
4.802
4.801
4.797
4.800
4.801
4.800
4.799
4.803
4.802
4.805
4.804
4.803
4.807
4.812
4.818
4.823
4.831
4.831
4.832
4.827
4.824
4.822
4.819
4.814
4.808
4.806
4.807
4.808
4.807
4.808
4.812
4.812
4.807
4.801
4.796
4.797
4.797
4.795
4.796
4.794
4.799
4.806
4.812
4.816
4.821
4.827
4.823
4.830
4.832
4.833
4.831
4.831
4.827
4.823
4.826
4.828
4.827
4.827
4.827
4.825
4.823
4.825
4.821
4.817
4.816
4.819
4.819
4.816
4.816
4.812
4.812
4.809
4.805
4.809
4.815
4.820
4.824
4.830
4.834
4.836
4.832
4.831
4.834
4.836
4.832
4.833
4.831
4.834
4.834
4.836
4.834
4.834
4.835
4.833
4.832
4.834
4.835
4.834
4.835
4.834
4.834
4.834
4.829
4.825
4.824
4.820
4.821
4.827
4.819
4.822
4.824
4.830
4.835
4.839
4.845
4.850
4.853
4.853
4.853
4.852
4.849
4.849
4.845
4.845
4.843
4.845
4.848
4.850
4.849
4.844
4.846
4.849
4.851
4.856
4.854
4.856
4.853
4.852
4.846
4.844
4.845
4.844
4.842
4.839
4.837
4.836
4.838
4.836
4.838
4.839
4.840
4.844
4.849
4.855
4.860
4.860
4.857
4.861
4.867
4.863
4.859
4.860
4.860
4.858
4.857
4.855
4.849
4.852
4.854
4.861
4.854
4.853
4.849
4.845
4.842
4.838
4.834
4.830
4.834
4.830
4.829
4.830
4.831
4.833
4.829
4.830
4.832
4.831
4.834
4.834
4.838
4.842
4.848
4.852
4.857
4.861
4.859
4.856
4.862
4.858
4.856
4.852
4.854
4.855
4.848
4.845
4.851
4.852
4.853
4.856
4.851
4.853
4.854
4.852
4.846
4.847
4.848
4.844
4.846
4.844
4.843
4.844
4.842
4.841
4.843
4.845
