2.565
2.933
2.867
3.093
3.095
2.913
3.235
2.942
3.310
3.117
2.886
3.149
3.256
3.121
2.719
2.954
3.064
3.007
3.174
3.341
3.391
3.194
3.285
3.335
3.134
2.945
2.943
2.806
3.004
2.931
2.903
2.954
2.983
2.873
3.011
3.035
3.007
3.087
3.122
3.202
3.282
3.362
3.442
3.522
3.485
3.308
3.382
3.293
3.239
3.365
3.305
3.202
3.365
3.253
3.174
3.055
2.998
2.997
3.007
3.139
3.077
2.920
3.058
3.089
2.984
2.880
2.889
2.966
3.025
3.121
3.010
3.017
3.045
3.111
3.130
3.129
3.159
3.213
3.083
3.185
3.108
3.120
3.030
2.963
3.065
2.969
2.950
3.025
3.122
3.092
2.966
2.950
3.062
2.905
2.874
2.949
2.992
3.087
3.110
3.091
3.097
3.245
3.058
3.055
3.095
2.984
3.072
3.099
3.019
3.051
2.989
2.955
2.929
2.935
2.986
3.035
2.971
3.039
2.976
3.031
3.086
3.082
3.135
3.005
3.083
3.096
3.065
3.019
3.012
2.906
3.010
3.011
3.021
3.013
3.022
3.044
3.027
2.958
2.931
2.982
3.033
3.049
3.129
3.164
3.143
3.064
3.016
2.932
2.997
3.006
3.039
3.022
3.072
3.020
3.025
2.974
2.975
2.971
3.045
2.982
3.030
3.079
3.058
3.113
3.084
3.008
3.043
3.027
3.039
3.001
3.030
2.966
3.005
3.026
2.990
3.009
2.957
2.952
2.998
3.011
3.057
3.104
3.113
3.040
3.059
3.008
2.964
2.989
3.007
2.975
2.958
2.970
3.010
3.089
3.025
2.965
2.941
2.971
3.009
3.048
3.099
3.133
3.138
3.108
3.053
2.997
2.944
3.000
3.002
3.040
3.023
2.988
2.931
3.008
2.974
2.999
2.994
3.037
3.032
3.105
3.060
3.013
3.055
2.989
3.053
3.023
2.953
2.971
2.923
2.919
2.952
2.987
3.001
3.014
2.997
3.029
3.070
3.041
2.967
3.013
3.049
3.109
3.076
3.003
2.987
3.022
2.972
2.989
3.038
2.967
2.929
2.990
2.992
3.032
3.060
3.034
3.048
3.083
3.001
3.038
3.026
2.924
3.005
2.998
3.057
3.045
2.999
2.949
2.929
2.973
3.005
3.044
3.063
3.085
3.090
3.062
3.015
3.004
2.955
3.006
3.047
3.046
2.978
2.920
2.973
3.015
2.967
2.988
3.026
3.051
3.047
3.065
3.052
2.986
2.975
3.037
3.049
3.004
2.960
2.959
2.957
2.931
2.986
3.037
2.996
3.015
3.052
3.024
3.015
2.980
3.006
3.053
3.002
3.001
2.984
3.023
2.990
3.029
3.001
2.989
2.980
2.974
3.010
3.046
3.027
3.060
3.025
3.066
3.023
2.994
2.969
3.023
2.994
2.985
2.998
3.012
3.001
2.971
2.976
3.010
3.006
3.061
3.048
3.010
3.007
3.044
3.038
2.981
3.040
3.012
3.020
2.971
2.940
2.951
3.017
2.981
3.015
3.049
3.084
3.051
3.011
2.973
3.018
2.957
3.001
3.051
3.009
2.935
2.996
3.015
3.000
2.996
2.991
3.024
3.057
3.054
3.060
3.002
2.983
3.047
3.037
3.022
2.995
2.983
2.960
2.953
2.956
3.005
2.996
3.003
3.036
3.049
3.010
3.003
3.002
2.971
3.013
2.987
3.011
3.030
2.985
2.996
2.987
2.999
3.012
2.986
3.018
3.029
3.045
2.995
3.046
3.037
3.058
3.027
2.989
2.989
2.941
2.981
3.005
2.983
2.941
3.003
3.004
3.035
3.018
3.010
2.986
3.056
3.028
2.974
2.924
2.970
3.006
3.031
2.995
2.990
2.973
2.962
2.993
3.024
3.013
3.051
3.023
3.070
3.068
3.022
2.997
2.981
2.966
2.975
2.969
2.982
2.997
2.954
2.984
3.015
3.033
3.033
2.987
2.966
2.992
3.021
2.996
3.012
3.029
2.964
3.010
3.027
2.992
2.958
2.979
3.009
3.039
3.051
3.000
3.033
3.030
3.005
3.026
3.016
2.982
2.945
2.963
2.934
2.960
3.004
3.043
3.005
3.034
3.019
3.002
3.013
2.983
2.992
3.030
3.011
3.033
3.000
2.965
2.973
3.015
2.981
2.973
3.002
2.977
3.033
3.043
3.000
3.031
2.998
3.044
3.013
2.980
2.968
2.998
2.993
2.968
3.016
2.973
3.002
3.031
3.045
3.011
2.996
3.020
3.038
2.992
2.983
2.975
2.974
3.017
3.007
2.982
2.987
2.975
3.003
3.031
3.019
3.003
3.053
3.000
2.995
3.034
3.009
3.010
2.989
2.976
2.966
2.974
2.978
2.978
3.006
3.006
3.062
3.042
3.001
2.978
2.989
3.016
2.989
3.022
2.982
2.996
2.974
2.983
2.955
2.991
3.010
3.037
3.023
3.020
2.979
3.024
2.987
3.011
3.039
3.016
3.012
2.998
2.953
2.941
2.982
2.991
3.015
3.042
3.001
3.032
3.045
3.013
3.007
2.981
2.996
2.939
2.932
2.986
2.977
2.993
3.017
3.000
3.021
3.001
3.009
2.983
2.978
2.958
3.009
3.034
3.001
3.009
3.005
2.995
2.988
2.959
2.976
2.993
3.026
3.038
3.067
3.011
3.007
3.051
3.021
2.991
2.961
2.992
2.976
2.989
2.986
2.960
3.011
3.011
3.037
3.024
3.002
3.023
3.025
3.008
2.964
2.985
2.950
3.004
3.028
3.000
2.973
2.998
2.994
2.984
3.018
3.015
3.038
3.047
3.032
3.036
3.023
3.003
3.002
2.973
2.985
2.982
2.954
2.979
3.005
3.021
3.029
3.059
3.033
3.007
2.978
2.949
3.020
2.980
2.974
3.007
2.981
2.979
2.965
2.991
3.012
2.983
3.020
2.958
3.032
2.992
2.997
2.993
2.990
3.032
3.045
2.995
2.988
2.960
2.982
3.003
3.028
3.027
2.989
3.038
3.030
3.009
3.008
3.003
2.980
2.965
2.930
2.967
2.960
2.997
2.991
3.016
3.030
3.028
3.025
2.972
2.987
2.993
2.979
3.021
3.008
3.005
2.977
2.979
3.014
2.992
3.004
3.009
3.029
2.977
3.000
3.003
3.032
3.028
3.002
2.984
3.012
2.982
2.993
2.990
2.970
2.994
3.018
3.043
3.029
2.985
3.023
3.019
3.014
2.980
2.988
2.980
2.974
2.978
2.964
3.003
3.015
3.008
3.025
2.998
3.016
3.007
3.011
3.005
2.983
2.990
3.001
2.997
3.006
2.996
3.000
2.979
2.999
3.007
3.002
3.019
3.022
3.029
3.024
3.022
3.021
2.982
2.986
2.989
2.978
2.983
2.968
2.992
3.015
3.013
3.036
3.044
3.020
2.994
2.967
2.957
2.992
3.024
2.986
2.947
3.002
2.970
2.984
3.008
3.019
3.019
2.966
3.005
3.037
2.987
2.978
2.979
3.033
2.988
3.012
3.010
2.984
2.978
3.001
3.024
3.039
3.009
3.049
3.005
3.040
2.995
3.018
3.005
2.968
2.943
2.944
2.962
2.987
2.995
3.005
3.041
3.046
3.027
3.001
2.980
3.011
2.993
2.977
2.973
2.984
2.994
2.973
2.967
2.996
3.012
3.000
2.992
2.997
2.967
3.011
3.028
3.026
3.000
2.980
2.997
3.018
2.993
2.976
2.985
3.008
3.002
3.004
3.008
3.008
3.019
3.033
3.027
3.002
3.005
2.958
2.979
2.983
2.994
2.981
3.003
3.015
3.008
3.005
3.011
3.016
3.009
2.975
2.992
2.946
2.985
2.964
3.033
3.009
2.977
3.000
3.014
3.002
2.994
3.014
2.970
2.982
3.016
2.981
3.003
2.998
3.016
3.005
2.980
2.974
2.996
3.001
2.990
3.017
3.036
3.006
3.031
3.029
2.983
2.985
2.985
2.987
2.983
2.976
2.972
2.994
3.016
3.038
3.031
3.024
3.000
2.979
2.963
2.963
2.995
2.993
2.991
2.977
2.957
2.983
3.016
3.010
3.012
2.985
3.011
3.015
3.024
2.988
2.984
3.017
3.034
3.023
3.013
2.987
2.972
2.981
3.011
3.030
3.020
3.016
3.002
2.999
3.006
3.006
3.007
2.983
2.958
2.996
2.945
2.969
2.990
3.010
3.031
3.035
3.041
3.017
2.993
2.980
3.007
3.002
2.963
2.996
2.994
2.978
2.988
3.009
3.009
3.006
3.001
2.976
2.982
2.986
3.017
3.044
3.010
2.996
2.988
2.986
2.981
2.991
2.987
3.008
3.010
3.014
