2.994
3.337
3.514
3.629
3.722
3.791
3.851
3.898
3.922
3.980
3.977
4.019
4.056
4.038
4.056
4.084
4.111
4.131
4.158
4.177
4.198
4.218
4.217
4.175
4.157
4.166
4.184
4.191
4.196
4.213
4.215
4.230
4.232
4.246
4.258
4.260
4.269
4.281
4.280
4.292
4.302
4.303
4.305
4.314
4.325
4.331
4.325
4.336
4.341
4.350
4.357
4.366
4.357
4.367
4.369
4.380
4.381
4.389
4.398
4.384
4.393
4.400
4.399
4.410
4.412
4.413
4.423
4.429
4.434
4.432
4.425
4.425
4.429
4.432
4.442
4.447
4.447
4.452
4.458
4.463
4.469
4.468
4.475
4.476
4.481
4.468
4.470
4.466
4.473
4.476
4.480
4.487
4.489
4.498
4.491
4.498
4.497
4.503
4.511
4.509
4.514
4.514
4.514
4.520
4.522
4.529
4.529
4.540
4.538
4.536
4.519
4.515
4.521
4.520
4.518
4.525
4.530
4.529
4.540
4.536
4.540
4.545
4.544
4.539
4.547
4.540
4.546
4.548
4.552
4.558
4.560
4.562
4.562
4.566
4.573
4.577
4.568
4.569
4.576
4.578
4.581
4.578
4.579
4.583
4.590
4.597
4.592
4.592
4.593
4.602
4.604
4.607
4.606
4.610
4.607
4.605
4.609
4.614
4.601
4.591
4.579
4.577
4.581
4.589
4.585
4.594
4.592
4.594
4.603
4.600
4.598
4.600
4.599
4.603
4.603
4.610
4.604
4.611
4.612
4.602
4.610
4.605
4.606
4.603
4.607
4.607
4.612
4.610
4.615
4.611
4.617
4.616
4.623
4.622
4.629
4.627
4.631
4.633
4.632
4.633
4.629
4.635
4.626
4.638
4.639
4.641
4.647
4.641
4.655
4.646
4.651
4.649
4.640
4.643
4.637
4.651
4.647
4.647
4.644
4.643
4.648
4.651
4.645
4.658
4.653
4.649
4.656
4.651
4.655
4.663
4.659
4.657
4.672
4.668
4.670
4.674
4.672
4.673
4.675
4.679
4.670
4.674
4.672
4.674
4.673
4.684
4.683
4.682
4.686
4.687
4.684
4.684
4.700
4.690
4.691
4.693
4.702
4.701
4.691
4.698
4.689
4.684
4.691
4.692
4.691
4.690
4.695
4.703
4.695
4.688
4.699
4.696
4.694
4.685
4.697
4.696
4.694
4.695
4.702
4.706
4.703
4.699
4.700
4.715
4.718
4.714
4.708
4.712
4.721
4.720
4.716
4.714
4.721
4.725
4.724
4.720
4.714
4.721
4.714
4.709
4.703
4.698
4.691
4.687
4.689
4.695
4.692
4.685
4.677
4.690
4.694
4.692
4.692
4.688
4.689
4.699
4.700
4.698
4.692
4.693
4.700
4.699
4.695
4.693
4.689
4.693
4.705
4.709
4.703
4.703
4.702
4.698
4.710
4.712
4.713
4.712
4.708
4.714
4.713
4.726
4.725
4.718
4.714
4.714
4.710
4.703
4.703
4.698
4.697
4.696
4.707
4.714
4.711
4.703
4.702
4.696
4.700
4.699
4.695
4.698
4.695
4.695
4.691
4.703
4.711
4.706
4.700
4.701
4.697
4.696
4.702
4.709
4.711
4.710
4.711
4.704
4.703
4.703
4.711
4.721
4.722
4.721
4.721
4.725
4.714
4.709
4.716
4.726
4.730
4.725
4.721
4.715
4.721
4.717
4.716
4.726
4.724
4.725
4.725
4.725
4.725
4.721
4.722
4.725
4.735
4.731
4.733
4.729
4.730
4.726
4.725
4.725
4.729
4.739
4.749
4.750
4.747
4.745
4.740
4.740
4.735
4.739
4.740
4.742
4.738
4.736
4.730
4.731
4.732
4.731
4.732
4.734
4.744
4.750
4.741
4.742
4.738
4.737
4.730
4.726
4.725
4.734
4.746
4.747
4.744
4.744
4.743
4.744
4.741
4.742
4.743
4.737
4.743
4.751
4.760
4.758
4.754
4.753
4.754
4.753
4.752
4.755
4.749
4.745
4.754
4.761
4.758
4.755
4.755
4.756
4.757
4.756
4.754
4.753
4.757
4.751
4.760
4.769
4.771
4.772
4.773
4.772
4.773
4.772
4.773
4.770
4.771
4.767
4.766
4.770
4.777
4.777
4.777
4.780
4.781
4.773
4.771
4.770
4.766
4.766
4.763
4.766
4.774
4.777
4.773
4.767
4.762
4.756
4.751
4.747
4.746
4.742
4.744
4.753
4.760
4.764
4.757
4.762
4.765
4.756
4.757
4.750
4.752
4.759
4.755
4.753
4.754
4.751
4.754
4.748
4.752
4.747
4.746
4.750
4.751
4.747
4.747
4.751
4.751
4.745
4.743
4.747
4.754
4.762
4.766
4.769
4.763
4.764
4.757
4.751
4.751
4.753
4.758
4.762
4.757
4.758
4.754
4.753
4.760
4.767
4.774
4.780
4.771
4.772
4.769
4.767
4.766
4.769
4.768
4.759
4.757
4.753
4.757
4.755
4.755
4.764
4.771
4.775
4.768
4.764
4.769
4.767
4.765
4.767
4.763
4.758
4.755
4.758
4.755
4.755
4.751
4.751
4.758
4.766
4.774
4.781
4.782
4.783
4.781
4.777
4.777
4.772
4.776
4.772
4.769
4.770
4.773
4.767
4.765
4.770
4.769
4.770
4.769
4.778
4.785
4.792
4.793
4.792
4.792
4.791
4.787
4.788
4.785
4.783
4.781
4.777
4.773
4.775
4.776
4.773
4.779
4.778
4.771
4.778
4.785
4.792
4.795
4.789
4.788
4.784
4.785
4.788
4.784
4.783
4.792
4.788
4.788
4.784
4.785
4.780
4.782
4.786
4.788
4.783
4.781
4.784
4.792
4.797
4.804
4.811
4.810
4.810
4.812
4.813
4.815
4.811
4.810
4.808
4.807
4.800
4.798
4.795
4.801
4.800
4.803
4.799
4.801
4.799
4.798
4.795
4.801
4.807
4.814
4.814
4.817
4.813
4.810
4.807
4.803
4.807
4.807
4.803
4.801
4.797
4.792
4.786
4.782
4.778
4.773
4.777
4.777
4.778
4.784
4.791
4.796
4.803
4.807
4.800
4.799
4.803
4.806
4.807
4.804
4.807
4.806
4.799
4.793
4.797
4.793
4.791
4.787
4.788
4.782
4.781
4.781
4.780
4.779
4.778
4.784
4.789
4.795
4.802
4.804
4.800
4.803
4.803
4.806
4.808
4.801
4.803
4.798
4.800
4.801
4.800
4.801
4.797
4.795
4.797
4.798
4.799
4.798
4.803
4.803
4.803
4.799
4.794
4.788
4.789
4.795
4.800
4.806
4.813
4.812
4.816
4.817
4.810
4.807
4.810
4.804
4.805
4.809
4.808
4.810
4.810
4.810
4.808
4.804
4.805
4.807
4.810
4.807
4.810
4.809
4.808
4.804
4.803
4.804
4.803
4.807
4.808
4.804
4.811
4.817
4.821
4.828
4.830
4.831
4.830
4.832
4.832
4.828
4.821
4.818
4.821
4.817
4.821
4.821
4.821
4.817
4.822
4.825
4.830
4.825
4.827
4.825
4.827
4.828
4.825
4.825
4.827
4.828
4.825
4.821
4.816
4.815
4.819
4.821
4.827
4.832
4.838
4.842
4.838
4.836
4.841
4.839
4.843
4.840
4.840
4.840
4.840
4.837
4.833
4.831
4.832
4.834
4.830
4.829
4.832
4.832
4.832
4.828
4.827
4.823
4.825
4.825
4.822
4.817
4.814
4.809
4.807
4.810
4.816
4.821
4.825
4.831
4.836
4.832
4.835
4.831
4.829
4.834
4.830
4.829
4.829
4.831
4.832
4.828
4.830
4.829
4.835
4.831
4.829
4.832
4.832
4.832
4.829
4.825
4.822
4.823
4.821
4.818
4.818
4.814
4.818
4.818
4.818
4.818
4.819
4.820
4.821
4.821
4.827
4.826
4.830
4.836
4.840
4.845
4.851
4.856
4.855
4.853
4.851
4.847
4.847
4.853
4.852
4.850
4.851
4.850
4.849
4.847
4.849
4.847
4.841
4.844
4.846
4.842
4.843
4.842
4.844
4.848
4.851
4.855
4.851
4.851
4.851
4.848
4.844
4.845
4.844
4.844
4.846
4.847
4.841
4.842
4.844
4.842
4.838
4.842
4.844
4.850
4.855
4.861
4.865
4.869
4.874
4.872
4.869
4.867
4.863
4.864
4.863
4.867
4.865
4.864
4.862
4.864
4.863
4.859
4.865
4.864
4.862
4.861
4.860
4.861
4.860
4.859
4.857
4.855
4.851
4.848
4.846
4.842
4.840
4.837
4.836
4.832
4.830
4.828
4.824
4.821
4.819
4.823
4.827
4.832
4.836
4.840
4.844
4.847
4.846
