2.991
3.329
3.512
3.631
3.691
3.746
3.837
3.827
3.891
3.937
3.988
4.026
3.984
3.956
3.985
4.005
4.025
4.037
4.065
4.075
4.095
4.107
4.128
4.126
4.148
4.155
4.165
4.176
4.194
4.188
4.205
4.216
4.230
4.243
4.235
4.233
4.253
4.256
4.272
4.281
4.290
4.280
4.273
4.285
4.298
4.304
4.316
4.321
4.324
4.330
4.345
4.351
4.356
4.339
4.332
4.340
4.345
4.356
4.357
4.360
4.365
4.376
4.380
4.385
4.386
4.384
4.393
4.404
4.402
4.414
4.415
4.425
4.427
4.423
4.431
4.441
4.426
4.401
4.408
4.415
4.409
4.416
4.422
4.431
4.425
4.431
4.432
4.432
4.431
4.438
4.440
4.456
4.461
4.452
4.454
4.456
4.465
4.476
4.470
4.472
4.467
4.466
4.472
4.473
4.472
4.481
4.475
4.493
4.488
4.504
4.500
4.501
4.500
4.499
4.504
4.510
4.522
4.514
4.523
4.521
4.528
4.527
4.518
4.529
4.523
4.524
4.519
4.528
4.522
4.526
4.538
4.532
4.545
4.547
4.546
4.551
4.554
4.565
4.558
4.555
4.563
4.557
4.557
4.543
4.530
4.517
4.531
4.528
4.513
4.530
4.529
4.521
4.540
4.537
4.546
4.542
4.550
4.547
4.543
4.565
4.552
4.535
4.528
4.531
4.532
4.536
4.525
4.523
4.532
4.534
4.527
4.526
4.546
4.553
4.549
4.539
4.551
4.564
4.551
4.549
4.552
4.559
4.554
4.546
4.548
4.564
4.558
4.567
4.562
4.563
4.582
4.578
4.573
4.576
4.573
4.575
4.568
4.562
4.561
4.577
4.574
4.565
4.565
4.566
4.576
4.585
4.589
4.577
4.584
4.574
4.591
4.578
4.590
4.585
4.582
4.583
4.599
4.607
4.607
4.608
4.606
4.599
4.601
4.621
4.619
4.610
4.610
4.600
4.601
4.615
4.618
4.623
4.621
4.613
4.603
4.605
4.597
4.587
4.593
4.592
4.582
4.584
4.598
4.592
4.588
4.582
4.577
4.577
4.577
4.595
4.601
4.600
4.606
4.604
4.598
4.591
4.591
4.597
4.614
4.598
4.604
4.601
4.607
4.604
4.600
4.590
4.604
4.604
4.608
4.609
4.607
4.601
4.600
4.597
4.596
4.608
4.624
4.623
4.627
4.626
4.621
4.619
4.613
4.605
4.605
4.614
4.630
4.625
4.621
4.615
4.619
4.624
4.617
4.618
4.614
4.610
4.625
4.641
4.646
4.653
4.650
4.648
4.641
4.639
4.633
4.639
4.630
4.632
4.639
4.654
4.654
4.652
4.652
4.657
4.645
4.642
4.634
4.637
4.635
4.635
4.639
4.653
4.650
4.640
4.632
4.638
4.629
4.632
4.620
4.618
4.612
4.613
4.627
4.640
4.644
4.646
4.654
4.646
4.652
4.653
4.648
4.638
4.627
4.628
4.635
4.629
4.627
4.640
4.653
4.659
4.662
4.651
4.659
4.663
4.664
4.660
4.659
4.647
4.639
4.641
4.636
4.638
4.644
4.650
4.663
4.675
4.685
4.684
4.688
4.676
4.679
4.670
4.664
4.665
4.669
4.670
4.672
4.669
4.671
4.660
4.654
4.667
4.679
4.683
4.683
4.689
4.686
4.689
4.682
4.679
4.668
4.661
4.654
4.651
4.654
4.650
4.653
4.653
4.651
4.663
4.674
4.686
4.687
4.688
4.683
4.677
4.680
4.678
4.689
4.684
4.675
4.679
4.680
4.679
4.674
4.671
4.665
4.663
4.665
4.669
4.682
4.684
4.695
4.706
4.717
4.724
4.718
4.717
4.729
4.718
4.712
4.702
4.700
4.707
4.701
4.707
4.694
4.693
4.690
4.686
4.691
4.689
4.688
4.685
4.691
4.701
4.712
4.722
4.729
4.719
4.715
4.715
4.713
4.707
4.701
4.695
4.689
4.683
4.677
4.671
4.665
4.663
4.670
4.666
4.665
4.666
4.667
4.672
4.682
4.692
4.695
4.687
4.687
4.684
4.674
4.677
4.677
4.673
4.676
4.687
4.685
4.677
4.675
4.667
4.662
4.662
4.664
4.661
4.654
4.650
4.649
4.649
4.649
4.657
4.666
4.675
4.685
4.694
4.704
4.707
4.703
4.695
4.695
4.693
4.695
4.697
4.692
4.691
4.686
4.687
4.681
4.677
4.676
4.675
4.680
4.687
4.690
4.689
4.681
4.673
4.665
4.658
4.650
4.648
4.656
4.665
4.674
4.683
4.690
4.690
4.691
4.692
4.689
4.681
4.680
4.686
4.687
4.680
4.687
4.683
4.680
4.686
4.681
4.691
4.689
4.684
4.681
4.683
4.680
4.678
4.680
4.678
4.673
4.670
4.669
4.674
4.677
4.676
4.667
4.662
4.666
4.672
4.680
4.688
4.693
4.694
4.689
4.693
4.688
4.688
4.689
4.691
4.688
4.697
4.692
4.686
4.689
4.686
4.683
4.682
4.687
4.688
4.680
4.679
4.683
4.674
4.670
4.669
4.679
4.667
4.664
4.673
4.671
4.673
4.680
4.681
4.678
4.676
4.670
4.669
4.670
4.669
4.677
4.685
4.692
4.700
4.708
4.710
4.716
4.707
4.707
4.702
4.698
4.700
4.706
4.705
4.703
4.698
4.694
4.696
4.701
4.697
4.695
4.693
4.693
4.692
4.689
4.690
4.689
4.685
4.678
4.677
4.682
4.687
4.685
4.692
4.699
4.698
4.693
4.688
4.683
4.687
4.685
4.688
4.684
4.686
4.686
4.677
4.673
4.680
4.688
4.694
4.702
4.709
4.716
4.723
4.729
4.722
4.720
4.712
4.710
4.716
4.719
4.717
4.713
4.720
4.722
4.729
4.738
4.734
4.733
4.728
4.718
4.717
4.708
4.710
4.706
4.705
4.706
4.709
4.713
4.707
4.711
4.702
4.697
4.701
4.705
4.702
4.694
4.693
4.693
4.696
4.699
4.699
4.699
4.696
4.693
4.695
4.705
4.704
4.699
4.700
4.703
4.696
4.695
4.694
4.698
4.704
4.711
4.718
4.724
4.731
4.737
4.744
4.751
4.757
4.755
4.751
4.755
4.751
4.749
4.747
4.752
4.754
4.758
4.757
4.753
4.756
4.749
4.741
4.742
4.738
4.736
4.741
4.734
4.733
4.738
4.736
4.732
4.742
4.750
4.748
4.741
4.737
4.740
4.734
4.739
4.746
4.745
4.737
4.731
4.729
4.728
4.735
4.731
4.724
4.717
4.711
4.710
4.703
4.703
4.706
4.705
4.702
4.705
4.712
4.710
4.713
4.709
4.707
4.702
4.701
4.707
4.713
4.719
4.725
4.730
4.733
4.732
4.736
4.739
4.742
4.744
4.745
4.739
4.735
4.737
4.731
4.738
4.739
4.736
4.742
4.738
4.733
4.733
4.728
4.728
4.723
4.719
4.720
4.715
4.712
4.711
4.708
4.709
4.708
4.702
4.698
4.697
4.705
4.703
4.707
4.713
4.712
4.709
4.706
4.709
4.709
4.703
4.705
4.704
4.704
4.705
4.711
4.712
4.712
4.704
4.705
4.701
4.699
4.698
4.697
4.700
4.703
4.709
4.708
4.703
4.699
4.700
4.693
4.691
4.683
4.683
4.683
4.685
4.685
4.688
4.693
4.698
4.704
4.710
4.715
4.721
4.726
4.732
4.737
4.743
4.748
4.754
4.759
4.760
4.760
4.758
4.755
4.756
4.757
4.758
4.758
4.754
4.754
4.755
4.749
4.746
4.744
4.742
4.742
4.739
4.735
4.742
4.746
4.753
4.751
4.749
4.752
4.751
4.754
4.751
4.750
4.750
4.746
4.745
4.747
4.748
4.745
4.742
4.744
4.744
4.746
4.744
4.745
4.748
4.745
4.747
4.747
4.748
4.750
4.748
4.749
4.746
4.745
4.740
4.742
4.744
4.741
4.738
4.733
4.731
4.729
4.728
4.723
4.731
4.731
4.729
4.731
4.734
4.730
4.737
4.734
4.736
4.733
4.729
4.725
4.722
4.718
4.714
4.711
4.710
4.706
4.704
4.706
4.708
4.713
4.714
4.717
4.719
4.718
4.715
4.720
4.725
4.730
4.735
4.740
4.745
4.750
4.755
4.760
4.765
4.770
4.771
4.765
4.758
4.752
4.747
4.746
4.747
4.747
4.746
4.743
4.748
4.738
4.738
4.735
4.733
4.731
4.729
4.732
4.731
4.726
4.729
4.727
4.730
4.728
4.729
4.731
4.723
4.724
4.726
4.726
4.723
4.728
4.725
4.722
4.723
4.719
4.720
4.724
4.726
4.725
4.722
4.718
