2.967
3.317
3.444
3.539
3.685
3.673
3.683
3.736
3.774
3.817
3.845
3.869
3.911
3.911
3.965
3.988
3.991
4.002
4.035
4.055
4.033
4.049
4.075
4.101
4.103
4.113
4.138
4.133
4.165
4.131
4.147
4.145
4.157
4.151
4.187
4.186
4.179
4.194
4.211
4.215
4.218
4.241
4.261
4.276
4.232
4.261
4.255
4.272
4.283
4.296
4.287
4.291
4.308
4.272
4.284
4.290
4.284
4.286
4.249
4.264
4.262
4.286
4.284
4.279
4.262
4.303
4.283
4.325
4.305
4.302
4.279
4.324
4.302
4.312
4.329
4.330
4.347
4.339
4.341
4.363
4.342
4.332
4.383
4.361
4.337
4.322
4.314
4.331
4.343
4.331
4.315
4.356
4.338
4.315
4.334
4.363
4.364
4.335
4.342
4.361
4.367
4.359
4.360
4.372
4.402
4.386
4.376
4.379
4.387
4.406
4.410
4.379
4.356
4.385
4.390
4.377
4.378
4.357
4.366
4.402
4.407
4.393
4.382
4.393
4.384
4.398
4.433
4.425
4.439
4.425
4.407
4.408
4.407
4.440
4.419
4.415
4.409
4.399
4.402
4.391
4.422
4.453
4.455
4.451
4.457
4.442
4.452
4.460
4.423
4.439
4.468
4.474
4.480
4.474
4.451
4.449
4.447
4.452
4.450
4.464
4.477
4.463
4.447
4.445
4.424
4.403
4.393
4.379
4.405
4.431
4.457
4.467
4.456
4.449
4.439
4.432
4.425
4.417
4.418
4.403
4.400
4.424
4.448
4.464
4.460
4.448
4.445
4.438
4.438
4.420
4.413
4.411
4.416
4.423
4.408
4.420
4.442
4.458
4.469
4.476
4.450
4.450
4.439
4.447
4.453
4.443
4.438
4.420
4.410
4.403
4.400
4.409
4.430
4.451
4.471
4.492
4.468
4.466
4.465
4.467
4.453
4.438
4.436
4.444
4.446
4.446
4.444
4.432
4.445
4.454
4.431
4.425
4.438
4.457
4.476
4.495
4.506
4.498
4.500
4.496
4.506
4.505
4.511
4.496
4.493
4.498
4.485
4.482
4.481
4.476
4.475
4.482
4.470
4.487
4.476
4.481
4.464
4.464
4.481
4.498
4.516
4.512
4.496
4.497
4.500
4.495
4.474
4.471
4.461
4.462
4.461
4.461
4.459
4.457
4.460
4.446
4.449
4.444
4.434
4.437
4.438
4.438
4.428
4.419
4.434
4.450
4.465
4.481
4.496
4.512
4.527
4.534
4.522
4.519
4.527
4.519
4.521
4.521
4.507
4.499
4.494
4.501
4.500
4.501
4.486
4.493
4.498
4.499
4.509
4.505
4.524
4.522
4.517
4.512
4.498
4.505
4.515
4.515
4.509
4.495
4.481
4.482
4.474
4.477
4.490
4.504
4.510
4.499
4.515
4.499
4.502
4.496
4.507
4.509
4.518
4.507
4.516
4.502
4.496
4.496
4.481
4.465
4.461
4.449
4.441
4.460
4.473
4.468
4.467
4.459
4.467
4.461
4.453
4.454
4.461
4.449
4.442
4.447
4.447
4.465
4.482
4.477
4.469
4.480
4.475
4.472
4.456
4.458
4.457
4.470
4.482
4.494
4.506
4.518
4.530
4.542
4.530
4.524
4.521
4.523
4.513
4.495
4.494
4.494
4.482
4.484
4.492
4.495
4.485
4.484
4.488
4.494
4.496
4.494
4.498
4.514
4.516
4.513
4.501
4.490
4.477
4.469
4.474
4.478
4.470
4.461
4.471
4.464
4.455
4.460
4.450
4.439
4.433
4.453
4.456
4.452
4.456
4.457
4.460
4.463
4.460
4.456
4.459
4.448
4.441
4.450
4.449
4.441
4.438
4.448
4.459
4.469
4.479
4.490
4.500
4.510
4.521
4.531
4.541
4.552
4.562
4.569
4.553
4.542
4.538
4.533
4.541
4.538
4.541
4.528
4.533
4.531
4.527
4.542
4.535
4.543
4.544
4.537
4.527
4.524
4.521
4.514
4.510
4.509
4.507
4.519
4.523
4.514
4.520
4.519
4.512
4.507
4.499
4.495
4.495
4.496
4.490
4.484
4.496
4.507
4.515
4.515
4.502
4.505
4.518
4.508
4.506
4.499
4.508
4.510
4.515
4.504
4.491
4.499
4.494
4.483
4.484
4.483
4.497
4.495
4.480
4.473
4.475
4.481
4.481
4.478
4.493
4.499
4.493
4.483
4.482
4.489
4.494
4.496
4.484
4.475
4.470
4.479
4.483
4.479
4.488
4.496
4.505
4.513
4.522
4.531
4.539
4.548
4.556
4.548
4.537
4.526
4.529
4.536
4.531
4.529
4.536
4.529
4.526
4.517
4.504
4.516
4.517
4.506
4.505
4.517
4.529
4.539
4.533
4.527
4.525
4.527
4.529
4.526
4.524
4.511
4.508
4.523
4.532
4.520
4.522
4.522
4.515
4.522
4.515
4.521
4.524
4.520
4.523
4.507
4.500
4.500
4.487
4.503
4.481
4.483
4.489
4.487
4.490
4.485
4.478
4.481
4.477
4.474
4.470
4.472
4.463
4.462
4.458
4.466
4.468
4.476
4.469
4.476
4.465
4.459
4.459
4.460
4.458
4.455
4.455
4.459
4.445
4.452
4.466
4.465
4.456
4.463
4.455
4.451
4.455
4.458
4.455
4.460
4.455
4.448
4.452
4.462
4.474
4.475
4.481
4.492
4.502
4.508
4.506
4.511
4.511
4.501
4.502
4.502
4.497
4.487
4.493
4.491
4.489
4.478
4.468
4.463
4.475
4.481
4.487
4.477
4.469
4.468
4.473
4.476
4.466
4.461
4.468
4.475
4.482
4.489
4.496
4.502
4.509
4.516
4.523
4.530
4.537
4.544
4.551
4.558
4.564
4.571
4.570
4.566
4.570
4.575
4.570
4.566
4.557
4.558
4.556
4.566
4.568
4.568
4.573
4.584
4.580
4.568
4.558
4.560
4.548
4.546
4.548
4.548
4.553
4.554
4.543
4.557
4.544
4.537
4.538
4.536
4.533
4.531
4.533
4.531
4.533
4.548
4.531
4.531
4.542
4.548
4.558
4.569
4.569
4.564
4.560
4.555
4.547
4.549
4.554
4.555
4.564
4.567
4.569
4.560
4.554
4.543
4.538
4.534
4.528
4.519
4.524
4.516
4.514
4.514
4.518
4.526
4.535
4.543
4.552
4.561
4.561
4.551
4.542
4.532
4.522
4.513
4.520
4.516
4.509
4.511
4.518
4.519
4.524
4.525
4.522
4.519
4.519
4.522
4.521
4.516
4.509
4.503
4.497
4.490
4.484
4.485
4.475
4.468
4.471
4.465
4.468
4.464
4.459
4.461
4.473
4.468
4.471
4.474
4.476
4.473
4.474
4.474
4.478
4.477
4.480
4.486
4.490
4.496
4.498
4.497
4.486
4.488
4.490
4.482
4.494
4.487
4.477
4.473
4.462
4.465
4.457
4.465
4.475
4.471
4.466
4.458
4.450
4.442
4.437
4.436
4.434
4.435
4.437
4.442
4.433
4.432
4.439
4.440
4.437
4.444
4.446
4.448
4.450
4.453
4.453
4.450
4.445
4.441
4.445
4.442
4.436
4.435
4.431
4.431
4.432
4.430
4.440
4.450
4.452
4.451
4.445
4.449
4.444
4.449
4.449
4.437
4.446
4.441
4.428
4.430
4.421
4.416
4.423
4.418
4.409
4.420
4.426
4.427
4.417
4.419
4.425
4.420
4.421
4.427
4.432
4.437
4.442
4.447
4.452
4.458
4.463
4.468
4.473
4.478
4.483
4.489
4.494
4.499
4.504
4.509
4.514
4.519
4.525
4.530
4.535
4.540
4.545
4.551
4.555
4.561
4.566
4.571
4.576
4.581
4.586
4.592
4.597
4.602
4.607
4.612
4.617
4.622
4.628
4.633
4.638
4.638
4.632
4.629
4.617
4.616
4.615
4.612
4.603
4.608
4.605
4.597
4.591
4.586
4.587
4.589
4.587
4.579
4.576
4.582
4.580
4.581
4.581
4.579
4.580
4.582
4.583
4.581
4.586
4.586
4.578
4.572
4.575
4.572
4.571
4.564
4.560
4.559
4.561
4.563
4.562
4.556
4.561
4.552
4.558
4.562
4.558
4.561
4.558
4.562
4.567
4.563
4.569
4.560
4.557
4.556
4.547
4.550
4.556
4.549
4.549
4.545
4.544
4.545
4.553
4.560
4.565
4.562
4.562
4.560
4.566
4.565
4.562
4.566
4.573
4.573
4.577
4.575
4.571
4.568
4.560
4.564
4.559
4.568
4.563
4.568
4.569
4.561
4.553
4.554
4.552
4.542
4.535
4.531
4.528
4.523
4.522
4.520
4.523
4.527
4.532
4.532
