2.994
3.335
3.507
3.618
3.697
3.769
3.805
3.879
3.931
3.921
3.957
4.006
4.038
4.080
4.089
4.022
4.034
4.051
4.068
4.087
4.095
4.110
4.128
4.132
4.152
4.160
4.165
4.188
4.184
4.198
4.214
4.224
4.227
4.238
4.246
4.261
4.253
4.258
4.271
4.277
4.290
4.297
4.293
4.291
4.301
4.310
4.315
4.331
4.340
4.340
4.352
4.349
4.336
4.341
4.357
4.359
4.358
4.365
4.374
4.385
4.388
4.383
4.395
4.404
4.407
4.418
4.406
4.387
4.392
4.398
4.405
4.415
4.417
4.407
4.417
4.419
4.436
4.429
4.435
4.442
4.453
4.441
4.448
4.454
4.453
4.461
4.468
4.472
4.481
4.479
4.487
4.479
4.484
4.489
4.493
4.486
4.466
4.461
4.462
4.469
4.473
4.475
4.474
4.488
4.491
4.494
4.483
4.482
4.482
4.484
4.488
4.498
4.491
4.503
4.511
4.504
4.516
4.508
4.514
4.511
4.523
4.520
4.525
4.534
4.527
4.528
4.531
4.520
4.521
4.528
4.531
4.534
4.529
4.538
4.533
4.547
4.547
4.554
4.551
4.559
4.555
4.557
4.551
4.569
4.561
4.569
4.571
4.566
4.575
4.574
4.579
4.577
4.585
4.584
4.577
4.580
4.573
4.583
4.574
4.574
4.572
4.571
4.585
4.580
4.582
4.596
4.593
4.591
4.597
4.600
4.599
4.607
4.602
4.602
4.619
4.613
4.608
4.622
4.609
4.601
4.590
4.580
4.576
4.576
4.570
4.585
4.584
4.582
4.584
4.583
4.578
4.577
4.594
4.592
4.591
4.586
4.605
4.607
4.596
4.595
4.611
4.609
4.609
4.596
4.591
4.589
4.581
4.589
4.600
4.584
4.580
4.585
4.587
4.590
4.578
4.577
4.598
4.594
4.588
4.591
4.587
4.607
4.609
4.595
4.599
4.595
4.612
4.613
4.605
4.601
4.592
4.612
4.617
4.609
4.608
4.610
4.608
4.625
4.622
4.626
4.619
4.622
4.620
4.635
4.638
4.636
4.635
4.627
4.624
4.628
4.624
4.622
4.618
4.618
4.625
4.621
4.626
4.621
4.619
4.626
4.620
4.637
4.640
4.639
4.641
4.637
4.636
4.627
4.643
4.643
4.638
4.636
4.642
4.637
4.634
4.645
4.657
4.663
4.658
4.659
4.660
4.654
4.656
4.656
4.671
4.672
4.668
4.667
4.664
4.650
4.650
4.661
4.676
4.670
4.665
4.670
4.669
4.663
4.653
4.649
4.645
4.650
4.650
4.650
4.644
4.639
4.637
4.648
4.642
4.637
4.641
4.644
4.639
4.630
4.631
4.631
4.646
4.655
4.661
4.653
4.649
4.648
4.651
4.649
4.654
4.646
4.650
4.662
4.657
4.661
4.656
4.650
4.647
4.648
4.652
4.655
4.653
4.660
4.658
4.655
4.646
4.645
4.652
4.649
4.653
4.651
4.646
4.647
4.660
4.669
4.678
4.675
4.671
4.675
4.669
4.667
4.669
4.670
4.667
4.664
4.664
4.677
4.685
4.685
4.681
4.680
4.671
4.667
4.664
4.662
4.653
4.665
4.664
4.670
4.683
4.695
4.690
4.688
4.693
4.683
4.688
4.691
4.695
4.690
4.688
4.681
4.684
4.684
4.689
4.701
4.711
4.712
4.701
4.694
4.699
4.698
4.693
4.693
4.697
4.694
4.690
4.684
4.683
4.695
4.697
4.688
4.683
4.686
4.690
4.691
4.688
4.682
4.682
4.682
4.670
4.673
4.678
4.677
4.688
4.693
4.693
4.690
4.682
4.688
4.683
4.682
4.689
4.687
4.681
4.684
4.685
4.687
4.683
4.682
4.679
4.689
4.700
4.697
4.703
4.702
4.703
4.698
4.692
4.694
4.697
4.687
4.682
4.685
4.696
4.702
4.697
4.692
4.695
4.693
4.697
4.707
4.717
4.715
4.707
4.717
4.714
4.717
4.714
4.712
4.710
4.715
4.713
4.707
4.712
4.714
4.711
4.715
4.715
4.713
4.711
4.708
4.718
4.728
4.737
4.745
4.741
4.733
4.727
4.728
4.729
4.729
4.727
4.729
4.724
4.727
4.722
4.717
4.719
4.713
4.708
4.702
4.704
4.710
4.720
4.725
4.727
4.733
4.734
4.732
4.728
4.722
4.719
4.722
4.721
4.722
4.714
4.715
4.717
4.716
4.714
4.720
4.716
4.717
4.710
4.706
4.707
4.712
4.721
4.730
4.739
4.747
4.748
4.748
4.748
4.741
4.742
4.738
4.749
4.744
4.743
4.742
4.748
4.751
4.748
4.746
4.744
4.738
4.733
4.734
4.729
4.735
4.735
4.734
4.743
4.746
4.750
4.749
4.753
4.761
4.770
4.765
4.762
4.765
4.763
4.759
4.754
4.752
4.756
4.757
4.754
4.751
4.755
4.760
4.762
4.754
4.752
4.749
4.748
4.752
4.751
4.749
4.741
4.736
4.732
4.735
4.739
4.739
4.737
4.739
4.748
4.744
4.743
4.742
4.740
4.736
4.733
4.738
4.739
4.735
4.733
4.732
4.735
4.735
4.739
4.734
4.727
4.723
4.718
4.712
4.706
4.709
4.712
4.701
4.709
4.717
4.724
4.732
4.740
4.744
4.744
4.743
4.736
4.732
4.730
4.729
4.725
4.721
4.724
4.730
4.729
4.726
4.724
4.724
4.726
4.717
4.714
4.713
4.712
4.716
4.714
4.712
4.709
4.707
4.710
4.713
4.713
4.711
4.709
4.709
4.717
4.724
4.725
4.731
4.738
4.745
4.753
4.757
4.753
4.752
4.754
4.746
4.755
4.749
4.743
4.736
4.735
4.735
4.730
4.729
4.719
4.716
4.715
4.713
4.718
4.717
4.719
4.713
4.711
4.711
4.707
4.708
4.707
4.713
4.707
4.703
4.702
4.701
4.702
4.702
4.706
4.713
4.720
4.727
4.733
4.740
4.747
4.753
4.745
4.745
4.746
4.747
4.746
4.749
4.754
4.754
4.755
4.756
4.752
4.754
4.752
4.747
4.751
4.753
4.746
4.742
4.736
4.733
4.725
4.724
4.723
4.717
4.719
4.725
4.720
4.716
4.718
4.717
4.720
4.719
4.712
4.708
4.710
4.713
4.710
4.708
4.707
4.714
4.720
4.726
4.733
4.739
4.745
4.752
4.758
4.757
4.753
4.749
4.749
4.747
4.746
4.745
4.750
4.749
4.745
4.742
4.740
4.737
4.740
4.733
4.736
4.745
4.746
4.744
4.749
4.750
4.749
4.742
4.742
4.742
4.737
4.742
4.739
4.731
4.728
4.730
4.734
4.737
4.739
4.733
4.733
4.728
4.728
4.724
4.727
4.720
4.717
4.710
4.705
4.711
4.717
4.723
4.729
4.735
4.741
4.747
4.753
4.759
4.765
4.768
4.772
4.774
4.773
4.770
4.768
4.763
4.768
4.765
4.761
4.761
4.756
4.756
4.756
4.753
4.748
4.750
4.747
4.750
4.754
4.754
4.756
4.752
4.752
4.750
4.745
4.742
4.744
4.744
4.748
4.739
4.744
4.747
4.749
4.749
4.742
4.735
4.729
4.726
4.726
4.729
4.731
4.736
4.733
4.736
4.737
4.737
4.734
4.734
4.734
4.729
4.732
4.727
4.725
4.730
4.736
4.742
4.747
4.753
4.758
4.764
4.769
4.775
4.780
4.778
4.776
4.776
4.779
4.783
4.777
4.772
4.771
4.775
4.774
4.779
4.780
4.784
4.777
4.771
4.775
4.773
4.773
4.775
4.771
4.770
4.769
4.762
4.762
4.761
4.761
4.765
4.760
4.761
4.760
4.758
4.758
4.758
4.755
4.760
4.765
4.770
4.768
4.765
4.762
4.762
4.760
4.763
4.761
4.755
4.756
4.754
4.747
4.750
4.750
4.755
4.756
4.761
4.761
4.760
4.758
4.753
4.752
4.757
4.752
4.748
4.753
4.752
4.755
4.760
4.753
4.757
4.762
4.767
4.772
4.777
4.783
4.788
4.793
4.798
4.803
4.808
4.813
4.811
4.810
4.811
4.810
4.811
4.815
4.814
4.808
4.810
4.810
4.812
4.806
4.802
4.797
4.796
4.788
4.784
4.781
4.778
4.780
4.780
4.785
4.783
4.780
4.784
4.782
4.789
4.787
4.781
4.778
4.780
4.780
4.781
4.787
4.786
4.788
4.784
4.779
4.776
4.773
4.774
4.782
4.780
4.779
4.771
4.770
4.766
4.762
4.758
4.753
4.749
4.750
4.749
4.744
4.741
4.742
4.746
4.749
4.743
4.737
4.732
4.728
4.728
4.726
4.724
