2.992
3.337
3.509
3.637
3.725
3.783
3.842
3.876
3.944
3.943
3.992
4.038
4.007
4.041
4.064
4.093
4.116
4.147
4.169
4.188
4.165
4.120
4.129
4.148
4.157
4.166
4.182
4.186
4.203
4.208
4.221
4.225
4.237
4.241
4.253
4.263
4.275
4.271
4.278
4.288
4.299
4.295
4.302
4.315
4.321
4.329
4.324
4.329
4.340
4.343
4.354
4.362
4.349
4.359
4.363
4.370
4.377
4.383
4.388
4.399
4.399
4.392
4.392
4.394
4.403
4.411
4.417
4.417
4.421
4.430
4.436
4.435
4.443
4.446
4.448
4.432
4.439
4.438
4.445
4.449
4.451
4.458
4.456
4.466
4.467
4.471
4.475
4.479
4.484
4.484
4.489
4.487
4.499
4.501
4.502
4.512
4.502
4.488
4.483
4.485
4.488
4.495
4.499
4.507
4.503
4.510
4.516
4.509
4.516
4.514
4.516
4.515
4.519
4.528
4.532
4.534
4.536
4.545
4.547
4.539
4.538
4.547
4.543
4.543
4.554
4.553
4.560
4.561
4.563
4.559
4.568
4.577
4.571
4.578
4.577
4.570
4.577
4.586
4.580
4.569
4.557
4.551
4.555
4.556
4.562
4.561
4.558
4.570
4.574
4.562
4.571
4.575
4.569
4.577
4.580
4.583
4.582
4.577
4.574
4.577
4.574
4.575
4.580
4.581
4.587
4.588
4.592
4.589
4.596
4.592
4.603
4.594
4.610
4.606
4.606
4.600
4.601
4.602
4.612
4.610
4.618
4.619
4.617
4.622
4.615
4.614
4.610
4.611
4.612
4.622
4.615
4.619
4.614
4.617
4.626
4.621
4.628
4.622
4.623
4.632
4.629
4.633
4.639
4.636
4.643
4.643
4.640
4.651
4.645
4.643
4.642
4.640
4.642
4.651
4.651
4.646
4.661
4.652
4.651
4.668
4.666
4.657
4.667
4.669
4.667
4.666
4.675
4.665
4.661
4.660
4.659
4.662
4.677
4.669
4.664
4.669
4.667
4.663
4.661
4.665
4.667
4.663
4.670
4.676
4.675
4.671
4.678
4.690
4.686
4.679
4.681
4.688
4.688
4.687
4.688
4.696
4.697
4.690
4.688
4.699
4.699
4.692
4.684
4.677
4.670
4.663
4.667
4.660
4.656
4.652
4.662
4.665
4.659
4.660
4.659
4.674
4.667
4.673
4.667
4.666
4.670
4.665
4.662
4.665
4.669
4.680
4.678
4.677
4.667
4.673
4.681
4.687
4.686
4.685
4.684
4.685
4.692
4.695
4.689
4.687
4.686
4.679
4.675
4.673
4.669
4.671
4.677
4.680
4.673
4.674
4.673
4.673
4.673
4.674
4.673
4.669
4.672
4.669
4.677
4.680
4.675
4.673
4.667
4.665
4.675
4.687
4.683
4.680
4.680
4.687
4.677
4.680
4.694
4.699
4.691
4.687
4.683
4.690
4.689
4.696
4.694
4.693
4.691
4.688
4.681
4.682
4.695
4.707
4.703
4.698
4.695
4.695
4.692
4.695
4.702
4.706
4.706
4.710
4.703
4.704
4.705
4.707
4.706
4.717
4.719
4.712
4.719
4.717
4.717
4.710
4.705
4.712
4.717
4.714
4.710
4.704
4.708
4.707
4.700
4.710
4.716
4.710
4.710
4.706
4.703
4.704
4.706
4.706
4.713
4.723
4.725
4.723
4.719
4.717
4.719
4.717
4.714
4.715
4.721
4.731
4.741
4.732
4.724
4.718
4.719
4.717
4.716
4.715
4.722
4.732
4.735
4.739
4.736
4.737
4.733
4.732
4.730
4.732
4.735
4.734
4.741
4.751
4.752
4.748
4.749
4.750
4.743
4.739
4.738
4.739
4.741
4.743
4.752
4.753
4.749
4.750
4.747
4.750
4.749
4.753
4.747
4.740
4.736
4.729
4.729
4.732
4.735
4.729
4.725
4.721
4.724
4.723
4.717
4.728
4.736
4.740
4.738
4.742
4.732
4.726
4.721
4.712
4.710
4.707
4.711
4.721
4.730
4.736
4.733
4.736
4.729
4.728
4.725
4.721
4.724
4.728
4.727
4.721
4.717
4.728
4.735
4.739
4.744
4.745
4.741
4.748
4.744
4.745
4.743
4.740
4.733
4.726
4.730
4.731
4.735
4.743
4.744
4.745
4.743
4.740
4.741
4.737
4.743
4.743
4.736
4.731
4.729
4.728
4.725
4.732
4.743
4.740
4.746
4.742
4.741
4.740
4.741
4.737
4.740
4.742
4.740
4.740
4.740
4.736
4.735
4.734
4.743
4.751
4.760
4.759
4.755
4.756
4.755
4.766
4.758
4.758
4.758
4.759
4.758
4.750
4.743
4.742
4.747
4.743
4.751
4.758
4.768
4.769
4.762
4.759
4.757
4.751
4.754
4.753
4.754
4.751
4.755
4.748
4.746
4.745
4.752
4.750
4.749
4.758
4.765
4.773
4.769
4.778
4.779
4.773
4.776
4.777
4.774
4.773
4.771
4.770
4.768
4.772
4.769
4.775
4.774
4.775
4.769
4.762
4.769
4.777
4.784
4.792
4.790
4.784
4.777
4.777
4.784
4.781
4.782
4.781
4.777
4.773
4.774
4.773
4.768
4.761
4.760
4.764
4.766
4.769
4.771
4.772
4.771
4.769
4.769
4.770
4.768
4.767
4.768
4.764
4.760
4.767
4.768
4.766
4.766
4.770
4.768
4.759
4.757
4.756
4.758
4.764
4.771
4.770
4.771
4.769
4.771
4.769
4.771
4.770
4.768
4.766
4.762
4.766
4.762
4.762
4.760
4.762
4.765
4.762
4.766
4.762
4.765
4.770
4.768
4.764
4.771
4.778
4.784
4.783
4.787
4.783
4.780
4.780
4.776
4.775
4.777
4.781
4.779
4.780
4.773
4.769
4.769
4.767
4.774
4.773
4.773
4.769
4.766
4.766
4.763
4.767
4.773
4.777
4.784
4.789
4.796
4.803
4.806
4.800
4.799
4.802
4.793
4.791
4.787
4.788
4.787
4.786
4.788
4.789
4.788
4.792
4.792
4.789
4.788
4.786
4.787
4.786
4.787
4.789
4.785
4.786
4.785
4.788
4.795
4.800
4.807
4.813
4.817
4.811
4.812
4.814
4.814
4.816
4.820
4.816
4.815
4.808
4.803
4.800
4.799
4.800
4.798
4.800
4.799
4.800
4.801
4.800
4.798
4.797
4.796
4.795
4.799
4.794
4.795
4.794
4.801
4.805
4.807
4.803
4.807
4.803
4.803
4.802
4.803
4.803
4.799
4.794
4.795
4.797
4.796
4.802
4.804
4.802
4.803
4.802
4.799
4.795
4.796
4.791
4.788
4.786
4.788
4.789
4.787
4.783
4.787
4.789
4.788
4.795
4.801
4.808
4.812
4.817
4.825
4.827
4.821
4.821
4.820
4.817
4.817
4.821
4.823
4.824
4.820
4.814
4.815
4.814
4.812
4.811
4.809
4.813
4.814
4.813
4.817
4.814
4.814
4.817
4.809
4.813
4.810
4.811
4.812
4.811
4.812
4.816
4.815
4.813
4.810
4.813
4.818
4.824
4.828
4.835
4.840
4.846
4.848
4.851
4.847
4.844
4.843
4.846
4.853
4.847
4.848
4.846
4.840
4.835
4.831
4.832
4.832
4.830
4.828
4.827
4.825
4.817
4.820
4.822
4.823
4.821
4.823
4.819
4.820
4.821
4.828
4.833
4.831
4.822
4.820
4.816
4.817
4.819
4.823
4.829
4.829
4.829
4.823
4.821
4.817
4.816
4.815
4.811
4.806
4.808
4.806
4.808
4.810
4.806
4.807
4.810
4.810
4.806
4.806
4.803
4.803
4.797
4.799
4.800
4.806
4.806
4.804
4.803
4.803
4.799
4.799
4.802
4.798
4.797
4.798
4.797
4.799
4.797
4.799
4.799
4.804
4.806
4.807
4.811
4.815
4.821
4.820
4.821
4.818
4.817
4.814
4.810
4.812
4.811
4.810
4.813
4.814
4.814
4.810
4.810
4.810
4.813
4.810
4.810
4.809
4.810
4.806
4.802
4.796
4.794
4.792
4.795
4.799
4.797
4.798
4.797
4.798
4.797
4.796
4.797
4.796
4.791
4.785
4.784
4.787
4.786
4.785
4.791
4.795
4.800
4.804
4.808
4.814
4.819
4.825
4.821
4.820
4.817
4.820
4.817
4.814
4.816
4.812
4.817
4.817
4.819
4.820
4.822
4.828
4.827
4.825
4.829
4.826
4.822
4.820
4.816
4.810
4.811
4.810
4.811
4.812
4.811
4.806
4.806
4.806
4.802
4.799
4.803
4.809
4.808
4.806
4.802
4.796
4.794
4.790
4.788
4.790
4.791
4.796
4.797
