2.994
3.331
3.519
3.632
3.716
3.786
3.855
3.894
3.938
3.957
4.003
4.002
4.039
4.075
4.107
4.084
4.096
4.120
4.140
4.166
4.183
4.202
4.220
4.237
4.253
4.271
4.239
4.204
4.200
4.215
4.223
4.227
4.239
4.245
4.255
4.260
4.271
4.283
4.282
4.294
4.302
4.301
4.310
4.320
4.323
4.325
4.335
4.342
4.351
4.347
4.354
4.361
4.370
4.375
4.371
4.375
4.383
4.386
4.397
4.399
4.409
4.394
4.403
4.410
4.414
4.420
4.422
4.427
4.438
4.437
4.428
4.434
4.438
4.440
4.446
4.454
4.455
4.459
4.463
4.473
4.471
4.476
4.460
4.467
4.471
4.473
4.474
4.479
4.485
4.489
4.490
4.494
4.497
4.503
4.507
4.509
4.508
4.517
4.516
4.525
4.507
4.509
4.510
4.511
4.512
4.516
4.523
4.525
4.526
4.525
4.534
4.530
4.534
4.538
4.538
4.544
4.548
4.550
4.553
4.557
4.553
4.557
4.562
4.560
4.562
4.569
4.575
4.577
4.576
4.569
4.557
4.560
4.551
4.557
4.557
4.561
4.567
4.569
4.571
4.574
4.578
4.577
4.576
4.583
4.587
4.579
4.581
4.582
4.590
4.583
4.592
4.593
4.592
4.593
4.600
4.604
4.606
4.602
4.609
4.605
4.612
4.612
4.606
4.607
4.612
4.613
4.612
4.618
4.617
4.620
4.625
4.627
4.627
4.634
4.636
4.634
4.633
4.638
4.636
4.643
4.644
4.642
4.642
4.646
4.642
4.645
4.646
4.635
4.627
4.616
4.617
4.613
4.619
4.621
4.623
4.627
4.630
4.631
4.622
4.635
4.633
4.643
4.638
4.635
4.634
4.642
4.636
4.645
4.642
4.649
4.646
4.656
4.646
4.642
4.641
4.651
4.641
4.646
4.646
4.645
4.644
4.648
4.652
4.646
4.658
4.653
4.658
4.657
4.655
4.662
4.658
4.667
4.664
4.665
4.669
4.667
4.671
4.671
4.668
4.671
4.669
4.670
4.675
4.673
4.679
4.683
4.682
4.684
4.688
4.684
4.688
4.683
4.674
4.676
4.677
4.678
4.680
4.681
4.685
4.684
4.675
4.681
4.683
4.683
4.683
4.692
4.691
4.684
4.694
4.694
4.690
4.690
4.697
4.697
4.694
4.703
4.704
4.706
4.702
4.712
4.715
4.709
4.708
4.709
4.712
4.709
4.712
4.709
4.707
4.706
4.715
4.716
4.713
4.712
4.723
4.722
4.720
4.717
4.727
4.727
4.726
4.727
4.729
4.734
4.729
4.730
4.731
4.739
4.731
4.722
4.726
4.723
4.723
4.722
4.726
4.728
4.732
4.733
4.731
4.733
4.729
4.728
4.727
4.728
4.734
4.725
4.726
4.727
4.732
4.736
4.738
4.733
4.731
4.738
4.745
4.739
4.738
4.739
4.740
4.752
4.754
4.747
4.748
4.744
4.751
4.753
4.757
4.753
4.751
4.755
4.762
4.757
4.751
4.746
4.742
4.736
4.732
4.727
4.724
4.733
4.727
4.727
4.723
4.717
4.729
4.728
4.720
4.717
4.713
4.720
4.731
4.728
4.729
4.730
4.726
4.728
4.732
4.733
4.734
4.734
4.732
4.733
4.729
4.739
4.734
4.731
4.727
4.728
4.726
4.736
4.745
4.742
4.745
4.736
4.740
4.736
4.742
4.749
4.749
4.749
4.746
4.747
4.745
4.744
4.753
4.764
4.762
4.755
4.748
4.742
4.738
4.741
4.738
4.739
4.737
4.733
4.731
4.736
4.746
4.752
4.745
4.738
4.740
4.738
4.732
4.734
4.734
4.734
4.731
4.731
4.731
4.730
4.731
4.739
4.751
4.746
4.742
4.739
4.737
4.730
4.729
4.739
4.748
4.744
4.742
4.744
4.743
4.744
4.742
4.739
4.743
4.752
4.751
4.758
4.756
4.753
4.753
4.753
4.756
4.750
4.753
4.763
4.756
4.761
4.765
4.758
4.751
4.747
4.748
4.752
4.760
4.755
4.759
4.758
4.753
4.757
4.756
4.757
4.757
4.757
4.764
4.768
4.768
4.768
4.767
4.758
4.760
4.760
4.764
4.761
4.765
4.772
4.779
4.777
4.771
4.777
4.776
4.779
4.779
4.775
4.768
4.772
4.778
4.780
4.776
4.772
4.768
4.772
4.767
4.761
4.764
4.761
4.770
4.777
4.775
4.779
4.776
4.775
4.775
4.774
4.768
4.766
4.767
4.766
4.773
4.779
4.776
4.769
4.768
4.774
4.775
4.775
4.773
4.771
4.770
4.772
4.775
4.782
4.792
4.790
4.786
4.782
4.786
4.782
4.783
4.786
4.786
4.780
4.779
4.782
4.787
4.794
4.792
4.788
4.787
4.788
4.781
4.782
4.783
4.783
4.783
4.785
4.784
4.786
4.794
4.802
4.805
4.801
4.803
4.797
4.797
4.801
4.800
4.799
4.797
4.797
4.795
4.797
4.797
4.804
4.812
4.820
4.812
4.808
4.811
4.810
4.809
4.802
4.803
4.808
4.806
4.804
4.800
4.801
4.808
4.815
4.811
4.815
4.811
4.807
4.801
4.797
4.794
4.790
4.786
4.780
4.784
4.788
4.797
4.794
4.798
4.794
4.789
4.791
4.789
4.791
4.792
4.790
4.786
4.785
4.786
4.785
4.781
4.790
4.795
4.799
4.797
4.791
4.786
4.780
4.778
4.779
4.778
4.775
4.775
4.777
4.773
4.774
4.775
4.782
4.789
4.796
4.800
4.799
4.795
4.794
4.790
4.791
4.790
4.788
4.792
4.790
4.787
4.785
4.787
4.783
4.784
4.783
4.790
4.796
4.803
4.807
4.806
4.804
4.805
4.801
4.800
4.801
4.798
4.804
4.806
4.807
4.801
4.796
4.792
4.786
4.787
4.791
4.798
4.804
4.808
4.802
4.805
4.801
4.803
4.801
4.806
4.801
4.805
4.801
4.800
4.796
4.790
4.791
4.787
4.788
4.790
4.791
4.798
4.804
4.805
4.801
4.805
4.805
4.800
4.796
4.798
4.802
4.801
4.799
4.800
4.801
4.800
4.799
4.800
4.794
4.795
4.797
4.797
4.799
4.803
4.810
4.816
4.821
4.822
4.818
4.814
4.812
4.812
4.815
4.817
4.816
4.812
4.815
4.812
4.818
4.816
4.813
4.814
4.815
4.816
4.813
4.811
4.807
4.812
4.816
4.823
4.823
4.823
4.821
4.825
4.827
4.823
4.820
4.816
4.818
4.814
4.813
4.812
4.808
4.806
4.805
4.808
4.812
4.812
4.810
4.806
4.812
4.811
4.818
4.822
4.829
4.834
4.831
4.827
4.829
4.828
4.832
4.828
4.831
4.830
4.832
4.834
4.832
4.828
4.826
4.828
4.826
4.822
4.829
4.827
4.829
4.825
4.823
4.823
4.826
4.825
4.832
4.838
4.842
4.849
4.846
4.844
4.845
4.847
4.845
4.846
4.843
4.844
4.843
4.841
4.837
4.833
4.834
4.834
4.835
4.834
4.837
4.833
4.829
4.833
4.832
4.830
4.824
4.828
4.832
4.833
4.827
4.823
4.826
4.825
4.827
4.828
4.824
4.825
4.821
4.817
4.818
4.819
4.823
4.820
4.816
4.823
4.821
4.817
4.821
4.820
4.820
4.822
4.820
4.819
4.820
4.819
4.824
4.830
4.835
4.841
4.837
4.833
4.834
4.831
4.829
4.828
4.826
4.822
4.823
4.823
4.824
4.827
4.821
4.820
4.818
4.825
4.823
4.816
4.818
4.816
4.816
4.817
4.816
4.816
4.812
4.812
4.815
4.820
4.826
4.830
4.835
4.839
4.842
4.847
4.853
4.852
4.848
4.850
4.846
4.842
4.848
4.846
4.848
4.842
4.838
4.836
4.835
4.833
4.832
4.833
4.829
4.828
4.832
4.831
4.835
4.831
4.826
4.827
4.826
4.823
4.824
4.827
4.826
4.831
4.834
4.839
4.845
4.850
4.853
4.852
4.851
4.855
4.853
4.849
4.849
4.847
4.851
4.852
4.857
4.857
4.856
4.853
4.851
4.849
4.851
4.853
4.851
4.850
4.851
4.847
4.846
4.842
4.840
4.839
4.837
4.831
4.835
4.838
4.838
4.836
4.838
4.841
4.843
4.846
4.851
4.855
4.859
4.864
4.870
4.872
4.870
4.866
4.867
4.866
4.867
4.868
4.864
4.861
4.865
4.868
4.870
4.869
4.868
4.868
4.868
4.868
4.867
4.866
4.864
4.864
4.862
4.861
4.859
4.858
4.860
4.858
4.856
4.853
4.853
4.853
4.851
4.852
4.846
