2.993
3.324
3.515
3.636
3.725
3.757
3.851
3.870
3.933
3.912
3.954
3.992
4.034
4.066
4.095
4.095
4.034
4.054
4.071
4.085
4.099
4.106
4.128
4.136
4.156
4.163
4.173
4.175
4.195
4.209
4.206
4.222
4.232
4.244
4.243
4.251
4.260
4.278
4.275
4.278
4.283
4.291
4.301
4.315
4.318
4.307
4.311
4.324
4.335
4.333
4.343
4.356
4.357
4.361
4.370
4.358
4.356
4.362
4.367
4.379
4.376
4.386
4.389
4.399
4.410
4.407
4.407
4.414
4.420
4.426
4.428
4.407
4.403
4.414
4.424
4.419
4.432
4.436
4.427
4.433
4.437
4.445
4.450
4.455
4.457
4.464
4.469
4.462
4.464
4.473
4.476
4.481
4.484
4.483
4.491
4.495
4.502
4.503
4.508
4.504
4.500
4.508
4.490
4.480
4.480
4.479
4.487
4.490
4.493
4.492
4.499
4.500
4.510
4.506
4.495
4.504
4.502
4.500
4.504
4.514
4.511
4.513
4.522
4.521
4.532
4.532
4.525
4.530
4.535
4.537
4.548
4.540
4.545
4.552
4.537
4.542
4.543
4.537
4.545
4.543
4.550
4.544
4.552
4.548
4.562
4.561
4.568
4.566
4.574
4.569
4.573
4.567
4.571
4.578
4.571
4.583
4.574
4.591
4.593
4.584
4.599
4.587
4.603
4.600
4.593
4.588
4.591
4.601
4.593
4.592
4.595
4.578
4.600
4.595
4.590
4.604
4.606
4.604
4.613
4.616
4.607
4.619
4.626
4.621
4.620
4.629
4.627
4.621
4.633
4.632
4.625
4.617
4.607
4.597
4.587
4.582
4.598
4.595
4.593
4.589
4.607
4.591
4.590
4.596
4.607
4.604
4.594
4.601
4.613
4.610
4.615
4.613
4.623
4.620
4.613
4.616
4.624
4.613
4.600
4.600
4.610
4.600
4.603
4.599
4.600
4.606
4.601
4.593
4.600
4.604
4.600
4.597
4.600
4.606
4.615
4.611
4.614
4.616
4.611
4.620
4.627
4.621
4.623
4.618
4.624
4.625
4.616
4.617
4.616
4.620
4.634
4.630
4.630
4.626
4.620
4.624
4.642
4.648
4.644
4.640
4.638
4.633
4.644
4.653
4.650
4.644
4.631
4.627
4.641
4.646
4.641
4.639
4.638
4.636
4.633
4.642
4.649
4.648
4.640
4.640
4.645
4.637
4.653
4.662
4.655
4.661
4.652
4.650
4.645
4.651
4.665
4.669
4.658
4.657
4.660
4.653
4.652
4.659
4.675
4.681
4.682
4.678
4.676
4.674
4.669
4.664
4.676
4.691
4.687
4.674
4.680
4.674
4.672
4.673
4.678
4.685
4.691
4.684
4.675
4.667
4.658
4.650
4.659
4.672
4.666
4.672
4.670
4.663
4.656
4.653
4.655
4.655
4.664
4.659
4.656
4.658
4.658
4.655
4.648
4.653
4.643
4.657
4.670
4.677
4.673
4.677
4.674
4.669
4.668
4.668
4.668
4.656
4.664
4.677
4.673
4.675
4.678
4.675
4.673
4.672
4.672
4.666
4.655
4.663
4.671
4.673
4.675
4.671
4.665
4.673
4.676
4.676
4.669
4.668
4.663
4.665
4.677
4.690
4.697
4.698
4.693
4.693
4.692
4.687
4.685
4.686
4.676
4.677
4.671
4.682
4.694
4.700
4.689
4.691
4.683
4.684
4.686
4.683
4.686
4.681
4.678
4.681
4.683
4.688
4.699
4.710
4.708
4.708
4.713
4.705
4.708
4.710
4.714
4.706
4.707
4.700
4.696
4.698
4.695
4.704
4.715
4.723
4.719
4.720
4.713
4.717
4.715
4.715
4.714
4.705
4.699
4.695
4.699
4.704
4.700
4.706
4.706
4.700
4.702
4.711
4.711
4.708
4.708
4.702
4.691
4.695
4.695
4.691
4.686
4.683
4.689
4.699
4.709
4.708
4.704
4.700
4.703
4.706
4.699
4.701
4.707
4.707
4.706
4.705
4.700
4.706
4.703
4.701
4.699
4.697
4.707
4.717
4.719
4.719
4.709
4.716
4.719
4.717
4.712
4.712
4.709
4.708
4.710
4.709
4.717
4.725
4.717
4.714
4.715
4.709
4.710
4.720
4.729
4.733
4.728
4.735
4.735
4.727
4.734
4.737
4.735
4.732
4.735
4.738
4.730
4.733
4.734
4.733
4.728
4.725
4.724
4.722
4.723
4.724
4.733
4.743
4.748
4.754
4.748
4.755
4.751
4.749
4.747
4.742
4.738
4.738
4.738
4.738
4.735
4.733
4.734
4.735
4.731
4.728
4.720
4.712
4.720
4.729
4.738
4.744
4.750
4.750
4.748
4.747
4.745
4.740
4.737
4.734
4.735
4.741
4.737
4.733
4.733
4.732
4.726
4.735
4.734
4.734
4.730
4.731
4.726
4.728
4.727
4.734
4.739
4.748
4.756
4.764
4.762
4.765
4.762
4.762
4.762
4.761
4.766
4.770
4.766
4.763
4.762
4.766
4.760
4.764
4.761
4.760
4.754
4.754
4.752
4.754
4.759
4.760
4.760
4.760
4.760
4.757
4.753
4.760
4.768
4.776
4.784
4.784
4.786
4.785
4.780
4.775
4.774
4.772
4.767
4.766
4.771
4.773
4.774
4.775
4.777
4.775
4.771
4.766
4.762
4.757
4.753
4.748
4.744
4.739
4.735
4.734
4.741
4.749
4.756
4.760
4.757
4.755
4.761
4.760
4.760
4.760
4.760
4.758
4.757
4.754
4.755
4.754
4.752
4.751
4.747
4.742
4.737
4.731
4.726
4.722
4.722
4.725
4.728
4.725
4.725
4.724
4.728
4.725
4.723
4.728
4.735
4.743
4.750
4.756
4.763
4.761
4.752
4.749
4.747
4.747
4.746
4.737
4.730
4.738
4.748
4.750
4.747
4.738
4.737
4.740
4.737
4.736
4.733
4.735
4.736
4.736
4.734
4.728
4.725
4.724
4.727
4.731
4.733
4.728
4.726
4.730
4.729
4.737
4.743
4.736
4.743
4.750
4.756
4.763
4.770
4.771
4.765
4.759
4.753
4.750
4.747
4.749
4.747
4.752
4.749
4.743
4.738
4.732
4.734
4.731
4.731
4.728
4.728
4.728
4.732
4.733
4.730
4.730
4.729
4.727
4.727
4.722
4.730
4.726
4.724
4.721
4.721
4.718
4.712
4.713
4.718
4.725
4.731
4.738
4.744
4.750
4.756
4.763
4.769
4.765
4.769
4.765
4.766
4.768
4.766
4.775
4.773
4.770
4.767
4.764
4.768
4.767
4.764
4.760
4.755
4.747
4.746
4.747
4.747
4.739
4.740
4.740
4.744
4.740
4.739
4.731
4.732
4.731
4.729
4.723
4.726
4.730
4.726
4.734
4.731
4.728
4.730
4.729
4.730
4.730
4.726
4.728
4.734
4.740
4.746
4.751
4.757
4.764
4.767
4.766
4.764
4.766
4.759
4.759
4.759
4.762
4.762
4.768
4.765
4.759
4.756
4.754
4.752
4.754
4.754
4.756
4.757
4.766
4.766
4.769
4.770
4.763
4.762
4.757
4.754
4.750
4.750
4.756
4.752
4.748
4.751
4.749
4.750
4.751
4.750
4.751
4.746
4.742
4.736
4.729
4.727
4.726
4.722
4.724
4.721
4.721
4.719
4.725
4.730
4.736
4.741
4.747
4.752
4.758
4.763
4.769
4.774
4.780
4.786
4.787
4.786
4.786
4.784
4.780
4.782
4.777
4.774
4.775
4.771
4.773
4.778
4.775
4.770
4.768
4.769
4.767
4.766
4.768
4.767
4.768
4.770
4.770
4.771
4.767
4.765
4.765
4.760
4.759
4.755
4.754
4.754
4.752
4.753
4.753
4.753
4.752
4.749
4.748
4.745
4.748
4.749
4.748
4.755
4.755
4.758
4.763
4.757
4.759
4.757
4.750
4.743
4.743
4.737
4.736
4.735
4.740
4.744
4.749
4.754
4.760
4.765
4.770
4.775
4.780
4.785
4.790
4.796
4.790
4.789
4.791
4.792
4.789
4.787
4.790
4.791
4.790
4.789
4.787
4.794
4.795
4.799
4.794
4.797
4.795
4.791
4.789
4.786
4.779
4.782
4.778
4.776
4.778
4.780
4.780
4.787
4.783
4.783
4.785
4.780
4.778
4.780
4.780
4.776
4.777
4.782
4.786
4.780
4.780
4.775
4.776
4.775
4.776
4.777
4.776
4.777
4.775
4.775
4.774
4.772
4.767
4.768
4.767
4.773
4.776
4.774
4.767
4.767
4.764
4.770
4.770
4.773
4.775
4.773
4.772
4.771
4.772
4.766
4.768
4.770
4.775
4.780
4.785
