2.992
3.335
3.511
3.638
3.716
3.776
3.832
3.893
3.903
3.957
4.004
3.982
4.013
4.045
4.078
4.104
4.127
4.156
4.168
4.118
4.106
4.119
4.130
4.138
4.155
4.165
4.175
4.189
4.193
4.208
4.221
4.223
4.237
4.249
4.248
4.261
4.267
4.264
4.278
4.288
4.297
4.307
4.298
4.304
4.319
4.324
4.336
4.338
4.331
4.338
4.345
4.354
4.357
4.367
4.374
4.378
4.364
4.376
4.375
4.384
4.390
4.392
4.399
4.406
4.410
4.412
4.418
4.428
4.419
4.416
4.418
4.420
4.424
4.431
4.438
4.431
4.438
4.444
4.453
4.455
4.459
4.458
4.465
4.468
4.478
4.479
4.481
4.490
4.478
4.460
4.465
4.464
4.473
4.475
4.482
4.482
4.484
4.497
4.482
4.493
4.494
4.493
4.495
4.505
4.512
4.512
4.516
4.521
4.523
4.516
4.520
4.526
4.522
4.531
4.534
4.538
4.541
4.542
4.541
4.548
4.550
4.553
4.560
4.553
4.558
4.560
4.560
4.551
4.538
4.527
4.536
4.537
4.534
4.543
4.545
4.545
4.545
4.551
4.547
4.556
4.564
4.556
4.566
4.556
4.553
4.551
4.555
4.557
4.560
4.564
4.564
4.567
4.566
4.570
4.574
4.576
4.583
4.584
4.586
4.578
4.580
4.579
4.590
4.587
4.599
4.597
4.604
4.600
4.604
4.589
4.591
4.589
4.601
4.595
4.591
4.592
4.604
4.605
4.601
4.603
4.599
4.611
4.605
4.612
4.619
4.617
4.626
4.622
4.621
4.627
4.624
4.623
4.621
4.622
4.634
4.631
4.629
4.633
4.632
4.636
4.648
4.639
4.638
4.653
4.643
4.642
4.656
4.642
4.642
4.645
4.642
4.642
4.654
4.645
4.640
4.645
4.640
4.636
4.654
4.649
4.643
4.652
4.656
4.655
4.657
4.663
4.664
4.664
4.659
4.672
4.673
4.672
4.671
4.675
4.675
4.675
4.676
4.685
4.676
4.668
4.662
4.653
4.646
4.647
4.637
4.634
4.632
4.647
4.648
4.642
4.642
4.644
4.656
4.655
4.651
4.641
4.653
4.650
4.656
4.647
4.648
4.661
4.656
4.657
4.656
4.652
4.667
4.677
4.678
4.668
4.665
4.669
4.675
4.671
4.660
4.652
4.660
4.661
4.660
4.658
4.648
4.661
4.664
4.653
4.643
4.644
4.654
4.663
4.656
4.647
4.649
4.645
4.659
4.660
4.657
4.658
4.656
4.653
4.660
4.671
4.673
4.672
4.675
4.666
4.660
4.674
4.679
4.675
4.681
4.672
4.662
4.669
4.679
4.674
4.673
4.675
4.675
4.671
4.673
4.685
4.684
4.683
4.678
4.675
4.678
4.677
4.687
4.701
4.700
4.694
4.698
4.694
4.689
4.685
4.698
4.701
4.690
4.682
4.686
4.685
4.684
4.686
4.698
4.696
4.694
4.694
4.689
4.680
4.679
4.688
4.698
4.697
4.697
4.696
4.694
4.694
4.689
4.690
4.697
4.708
4.716
4.710
4.706
4.707
4.708
4.704
4.695
4.699
4.711
4.708
4.712
4.715
4.711
4.710
4.709
4.704
4.703
4.708
4.720
4.729
4.727
4.726
4.733
4.732
4.723
4.721
4.717
4.713
4.723
4.734
4.742
4.735
4.730
4.719
4.719
4.723
4.720
4.723
4.723
4.732
4.734
4.727
4.722
4.715
4.708
4.701
4.701
4.702
4.708
4.713
4.716
4.710
4.716
4.712
4.714
4.716
4.712
4.707
4.703
4.704
4.703
4.710
4.709
4.712
4.711
4.702
4.705
4.697
4.703
4.699
4.701
4.704
4.714
4.713
4.714
4.719
4.717
4.716
4.714
4.713
4.716
4.718
4.716
4.710
4.717
4.718
4.727
4.731
4.725
4.721
4.719
4.712
4.716
4.718
4.720
4.713
4.714
4.713
4.717
4.719
4.723
4.721
4.727
4.721
4.716
4.710
4.709
4.712
4.712
4.713
4.714
4.713
4.712
4.718
4.725
4.735
4.739
4.732
4.731
4.727
4.738
4.732
4.734
4.734
4.733
4.732
4.730
4.727
4.728
4.729
4.733
4.742
4.741
4.746
4.745
4.742
4.742
4.742
4.741
4.734
4.731
4.729
4.728
4.723
4.719
4.726
4.728
4.738
4.745
4.749
4.747
4.751
4.755
4.751
4.747
4.753
4.749
4.748
4.745
4.742
4.742
4.748
4.750
4.753
4.750
4.745
4.750
4.760
4.768
4.770
4.766
4.762
4.763
4.765
4.769
4.764
4.757
4.756
4.750
4.748
4.752
4.754
4.747
4.749
4.752
4.751
4.758
4.767
4.761
4.756
4.750
4.745
4.742
4.742
4.744
4.738
4.742
4.742
4.739
4.738
4.745
4.748
4.744
4.738
4.741
4.748
4.757
4.757
4.750
4.753
4.752
4.753
4.752
4.745
4.739
4.735
4.738
4.737
4.741
4.734
4.733
4.737
4.739
4.742
4.739
4.743
4.742
4.749
4.757
4.765
4.771
4.770
4.769
4.773
4.768
4.760
4.760
4.759
4.755
4.749
4.752
4.751
4.750
4.756
4.752
4.748
4.741
4.743
4.744
4.742
4.745
4.753
4.761
4.767
4.775
4.781
4.782
4.787
4.783
4.787
4.786
4.781
4.772
4.765
4.769
4.765
4.761
4.764
4.769
4.771
4.768
4.764
4.766
4.764
4.760
4.759
4.760
4.759
4.763
4.771
4.777
4.784
4.791
4.800
4.801
4.798
4.796
4.797
4.793
4.794
4.793
4.789
4.788
4.784
4.785
4.784
4.788
4.789
4.782
4.775
4.771
4.770
4.775
4.778
4.777
4.776
4.779
4.776
4.779
4.786
4.791
4.798
4.802
4.800
4.794
4.787
4.783
4.779
4.771
4.770
4.777
4.782
4.780
4.781
4.772
4.775
4.774
4.778
4.774
4.773
4.772
4.768
4.764
4.765
4.764
4.764
4.763
4.770
4.775
4.782
4.786
4.794
4.801
4.808
4.802
4.801
4.799
4.801
4.796
4.794
4.796
4.798
4.796
4.790
4.791
4.794
4.794
4.792
4.791
4.787
4.790
4.790
4.794
4.797
4.793
4.797
4.790
4.786
4.785
4.786
4.786
4.787
4.785
4.786
4.793
4.798
4.805
4.809
4.816
4.823
4.824
4.825
4.824
4.822
4.816
4.820
4.823
4.822
4.821
4.827
4.824
4.828
4.832
4.825
4.824
4.820
4.812
4.811
4.805
4.798
4.801
4.803
4.802
4.801
4.793
4.795
4.801
4.806
4.813
4.808
4.804
4.805
4.801
4.805
4.812
4.817
4.818
4.814
4.812
4.808
4.804
4.800
4.797
4.795
4.793
4.798
4.799
4.795
4.791
4.787
4.786
4.792
4.786
4.784
4.779
4.773
4.774
4.778
4.777
4.778
4.780
4.779
4.779
4.781
4.780
4.776
4.774
4.773
4.774
4.776
4.783
4.789
4.793
4.798
4.796
4.794
4.791
4.795
4.791
4.794
4.793
4.792
4.791
4.789
4.785
4.789
4.786
4.784
4.786
4.787
4.785
4.789
4.790
4.789
4.785
4.782
4.783
4.781
4.782
4.781
4.780
4.782
4.780
4.778
4.774
4.776
4.779
4.771
4.775
4.776
4.774
4.771
4.771
4.771
4.775
4.781
4.785
4.790
4.796
4.803
4.802
4.801
4.796
4.794
4.794
4.794
4.794
4.792
4.791
4.795
4.796
4.795
4.801
4.808
4.805
4.800
4.802
4.805
4.797
4.797
4.796
4.795
4.794
4.795
4.799
4.798
4.793
4.787
4.782
4.778
4.777
4.781
4.782
4.782
4.783
4.784
4.783
4.782
4.780
4.782
4.786
4.782
4.779
4.773
4.774
4.779
4.785
4.789
4.793
4.798
4.802
4.803
4.797
4.798
4.804
4.800
4.793
4.789
4.790
4.794
4.794
4.797
4.794
4.790
4.790
4.789
4.786
4.784
4.786
4.784
4.783
4.781
4.779
4.778
4.782
4.787
4.783
4.784
4.783
4.784
4.779
4.782
4.783
4.779
4.782
4.778
4.780
4.781
4.780
4.778
4.779
4.781
4.779
4.779
4.780
4.778
4.777
4.778
4.783
4.782
4.780
4.778
4.780
4.786
4.790
4.795
4.799
4.803
4.808
4.812
4.813
4.811
4.804
4.803
4.807
4.812
4.812
4.808
4.810
4.808
4.812
4.806
4.804
4.798
4.797
4.792
4.791
4.787
4.783
4.786
4.785
4.781
4.783
4.784
4.782
4.781
4.779
4.781
4.783
4.784
