2.991
3.327
3.506
3.634
3.711
3.797
3.851
3.888
3.900
3.956
4.002
3.975
4.010
4.042
4.072
4.097
4.133
4.151
4.177
4.138
4.101
4.113
4.127
4.138
4.157
4.164
4.183
4.187
4.201
4.203
4.221
4.222
4.234
4.244
4.246
4.258
4.270
4.280
4.272
4.280
4.292
4.305
4.311
4.307
4.316
4.324
4.330
4.337
4.347
4.335
4.342
4.349
4.360
4.364
4.372
4.381
4.380
4.372
4.375
4.381
4.385
4.395
4.396
4.397
4.409
4.417
4.420
4.423
4.427
4.431
4.416
4.417
4.420
4.428
4.438
4.436
4.440
4.447
4.446
4.457
4.460
4.464
4.467
4.468
4.467
4.477
4.483
4.486
4.490
4.496
4.476
4.466
4.470
4.472
4.476
4.482
4.486
4.488
4.494
4.496
4.490
4.493
4.495
4.501
4.505
4.515
4.516
4.509
4.517
4.523
4.528
4.521
4.527
4.527
4.523
4.532
4.534
4.543
4.546
4.551
4.549
4.554
4.553
4.553
4.563
4.554
4.555
4.567
4.558
4.562
4.547
4.534
4.538
4.542
4.536
4.545
4.550
4.548
4.549
4.553
4.555
4.553
4.558
4.562
4.564
4.567
4.566
4.554
4.560
4.560
4.558
4.564
4.563
4.568
4.572
4.570
4.580
4.578
4.588
4.579
4.591
4.589
4.582
4.583
4.585
4.589
4.597
4.595
4.602
4.595
4.610
4.603
4.599
4.592
4.599
4.597
4.607
4.592
4.602
4.598
4.607
4.606
4.602
4.606
4.609
4.616
4.615
4.614
4.629
4.628
4.626
4.628
4.626
4.633
4.635
4.625
4.627
4.630
4.634
4.636
4.635
4.641
4.642
4.642
4.648
4.647
4.645
4.650
4.654
4.649
4.653
4.650
4.637
4.650
4.648
4.650
4.651
4.653
4.642
4.647
4.651
4.644
4.642
4.658
4.656
4.649
4.654
4.661
4.664
4.663
4.665
4.666
4.668
4.666
4.672
4.680
4.676
4.675
4.678
4.683
4.679
4.683
4.683
4.677
4.670
4.663
4.656
4.647
4.643
4.639
4.642
4.639
4.640
4.655
4.649
4.653
4.645
4.652
4.662
4.658
4.649
4.644
4.659
4.660
4.660
4.655
4.656
4.666
4.664
4.664
4.662
4.660
4.668
4.683
4.683
4.669
4.670
4.671
4.679
4.671
4.662
4.652
4.665
4.668
4.665
4.663
4.648
4.660
4.664
4.657
4.646
4.652
4.651
4.666
4.662
4.655
4.657
4.650
4.654
4.666
4.664
4.668
4.659
4.666
4.654
4.668
4.676
4.680
4.679
4.675
4.668
4.666
4.679
4.685
4.678
4.682
4.675
4.668
4.672
4.685
4.681
4.677
4.684
4.679
4.675
4.674
4.687
4.686
4.690
4.688
4.683
4.679
4.684
4.686
4.698
4.704
4.703
4.705
4.697
4.696
4.695
4.696
4.703
4.694
4.689
4.690
4.690
4.691
4.683
4.694
4.698
4.702
4.703
4.696
4.686
4.683
4.681
4.693
4.701
4.702
4.705
4.702
4.700
4.699
4.695
4.693
4.698
4.710
4.720
4.715
4.712
4.713
4.709
4.707
4.698
4.699
4.709
4.718
4.717
4.716
4.716
4.713
4.714
4.713
4.711
4.712
4.717
4.727
4.736
4.732
4.736
4.735
4.730
4.727
4.725
4.718
4.719
4.729
4.739
4.742
4.734
4.729
4.725
4.723
4.730
4.727
4.731
4.731
4.734
4.732
4.727
4.720
4.712
4.707
4.703
4.710
4.706
4.712
4.720
4.723
4.719
4.721
4.717
4.716
4.719
4.713
4.712
4.704
4.701
4.712
4.714
4.718
4.719
4.713
4.712
4.713
4.705
4.704
4.706
4.710
4.701
4.710
4.720
4.720
4.723
4.723
4.723
4.723
4.720
4.720
4.722
4.724
4.719
4.718
4.719
4.721
4.730
4.732
4.728
4.726
4.720
4.721
4.717
4.721
4.723
4.723
4.720
4.723
4.717
4.721
4.727
4.723
4.730
4.727
4.720
4.716
4.717
4.718
4.722
4.716
4.719
4.721
4.720
4.718
4.723
4.732
4.742
4.740
4.736
4.735
4.734
4.738
4.738
4.742
4.741
4.738
4.736
4.737
4.736
4.732
4.733
4.735
4.744
4.748
4.750
4.753
4.746
4.751
4.744
4.740
4.738
4.737
4.736
4.734
4.725
4.726
4.728
4.729
4.738
4.745
4.755
4.756
4.755
4.760
4.758
4.754
4.757
4.756
4.753
4.751
4.747
4.746
4.750
4.754
4.757
4.757
4.752
4.749
4.755
4.762
4.771
4.778
4.769
4.772
4.769
4.767
4.771
4.762
4.766
4.760
4.755
4.754
4.760
4.757
4.755
4.754
4.755
4.753
4.761
4.767
4.763
4.756
4.750
4.751
4.747
4.749
4.747
4.746
4.746
4.748
4.746
4.743
4.749
4.754
4.752
4.745
4.744
4.746
4.753
4.759
4.752
4.757
4.758
4.759
4.757
4.751
4.746
4.743
4.742
4.746
4.749
4.742
4.738
4.738
4.741
4.745
4.747
4.746
4.746
4.746
4.752
4.760
4.766
4.775
4.774
4.778
4.774
4.767
4.768
4.760
4.760
4.760
4.758
4.759
4.758
4.759
4.758
4.754
4.750
4.745
4.749
4.753
4.752
4.748
4.750
4.759
4.766
4.772
4.780
4.786
4.788
4.794
4.791
4.792
4.785
4.778
4.772
4.772
4.772
4.765
4.769
4.768
4.774
4.776
4.774
4.768
4.772
4.767
4.768
4.764
4.766
4.765
4.766
4.772
4.779
4.784
4.791
4.800
4.807
4.806
4.799
4.798
4.799
4.798
4.797
4.795
4.794
4.795
4.793
4.787
4.791
4.790
4.783
4.779
4.777
4.778
4.777
4.781
4.786
4.783
4.782
4.779
4.777
4.783
4.790
4.794
4.801
4.803
4.797
4.792
4.786
4.786
4.780
4.781
4.779
4.779
4.788
4.784
4.780
4.779
4.777
4.779
4.783
4.783
4.779
4.778
4.772
4.768
4.769
4.770
4.774
4.768
4.772
4.773
4.780
4.786
4.793
4.798
4.805
4.811
4.809
4.808
4.805
4.803
4.801
4.798
4.802
4.803
4.801
4.797
4.797
4.801
4.799
4.797
4.790
4.795
4.790
4.797
4.801
4.801
4.802
4.798
4.791
4.792
4.790
4.789
4.790
4.795
4.791
4.789
4.793
4.798
4.805
4.811
4.816
4.822
4.829
4.830
4.831
4.828
4.823
4.823
4.826
4.833
4.826
4.831
4.831
4.833
4.834
4.831
4.827
4.825
4.821
4.814
4.809
4.806
4.802
4.808
4.807
4.805
4.799
4.795
4.799
4.806
4.810
4.817
4.813
4.811
4.807
4.809
4.807
4.812
4.818
4.817
4.813
4.811
4.807
4.803
4.801
4.800
4.804
4.798
4.799
4.801
4.796
4.792
4.793
4.792
4.796
4.790
4.790
4.783
4.782
4.781
4.779
4.784
4.783
4.786
4.786
4.787
4.785
4.786
4.783
4.783
4.780
4.778
4.779
4.779
4.785
4.790
4.796
4.798
4.794
4.795
4.799
4.800
4.799
4.798
4.801
4.800
4.793
4.792
4.790
4.794
4.793
4.790
4.793
4.792
4.790
4.792
4.791
4.792
4.793
4.790
4.791
4.786
4.785
4.789
4.786
4.784
4.783
4.784
4.780
4.779
4.780
4.781
4.780
4.781
4.780
4.778
4.777
4.778
4.775
4.778
4.783
4.787
4.793
4.798
4.804
4.806
4.804
4.800
4.801
4.797
4.801
4.800
4.796
4.797
4.797
4.798
4.804
4.803
4.809
4.812
4.809
4.808
4.809
4.806
4.804
4.801
4.799
4.800
4.802
4.801
4.799
4.795
4.788
4.786
4.786
4.783
4.783
4.786
4.785
4.787
4.791
4.789
4.786
4.787
4.783
4.789
4.783
4.781
4.775
4.772
4.775
4.781
4.786
4.790
4.794
4.800
4.805
4.809
4.807
4.803
4.805
4.800
4.794
4.794
4.794
4.798
4.796
4.801
4.799
4.801
4.796
4.795
4.793
4.790
4.791
4.790
4.786
4.790
4.785
4.786
4.785
4.786
4.791
4.787
4.788
4.789
4.786
4.786
4.790
4.789
4.785
4.786
4.783
4.787
4.786
4.784
4.783
4.786
4.783
4.784
4.785
4.786
4.785
4.786
4.780
4.786
4.786
4.786
4.785
4.786
4.785
4.790
4.794
4.800
4.804
4.808
4.813
4.817
4.813
4.811
4.809
4.808
4.813
4.819
4.818
4.812
