2.890
3.124
3.198
3.345
3.466
3.527
3.576
3.654
3.649
3.727
3.750
3.722
3.673
3.722
3.753
3.794
3.794
3.768
3.773
3.856
3.829
3.784
3.889
3.841
3.900
3.859
3.864
3.975
3.872
3.916
3.956
3.867
3.887
3.948
3.842
3.829
3.898
3.913
3.915
3.844
3.901
3.910
4.003
3.990
4.025
3.952
3.910
3.893
3.967
3.982
3.980
3.916
3.938
3.959
3.980
3.945
3.933
4.002
3.988
3.991
3.947
3.931
3.954
3.926
3.886
3.943
3.897
3.887
3.944
4.001
4.049
4.093
4.050
3.975
3.988
3.946
3.983
3.926
3.917
3.930
3.890
3.866
3.911
3.850
3.919
3.939
3.977
4.001
4.046
4.091
4.093
4.048
4.004
3.990
3.968
3.938
3.942
3.950
3.930
3.938
3.956
3.973
3.929
3.954
3.939
3.951
3.893
3.875
3.919
3.910
3.919
3.869
3.843
3.865
3.899
3.933
3.967
4.000
4.034
4.068
4.102
4.095
4.106
4.105
4.127
4.133
4.166
4.140
4.104
4.070
4.035
4.021
4.004
3.982
3.963
3.980
3.987
3.992
3.970
3.958
3.934
3.895
3.863
3.889
3.866
3.880
3.869
3.847
3.841
3.880
3.919
3.954
3.901
3.917
3.945
3.921
3.960
3.971
4.005
3.996
3.977
3.948
3.930
3.910
3.911
3.862
3.886
3.887
3.861
3.846
3.855
3.895
3.888
3.910
3.933
3.955
3.978
4.000
4.023
4.045
4.067
4.090
4.112
4.099
4.118
4.101
4.089
4.115
4.075
4.072
4.060
4.079
4.114
4.104
4.060
4.069
4.021
4.025
4.035
4.028
4.064
4.055
4.057
4.081
4.080
4.038
4.055
4.083
4.113
4.085
4.096
4.061
4.065
4.095
4.062
4.020
3.998
4.005
4.023
4.001
3.975
3.951
3.974
3.938
3.939
3.920
3.931
3.958
3.924
3.919
3.919
3.890
3.888
3.897
3.908
3.892
3.910
3.926
3.957
3.988
3.952
3.962
3.934
3.912
3.881
3.859
3.846
3.872
3.887
3.892
3.886
3.873
3.904
3.923
3.926
3.945
3.901
3.905
3.925
3.906
3.899
3.882
3.900
3.922
3.929
3.940
3.922
3.940
3.927
3.938
3.933
3.910
3.891
3.871
3.886
3.910
3.905
3.898
3.917
3.902
3.880
3.890
3.878
3.871
3.884
3.871
3.878
3.856
3.854
3.848
3.858
3.829
3.842
3.860
3.839
3.859
3.865
3.845
3.880
3.846
3.847
3.862
3.882
3.900
3.920
3.939
3.958
3.967
3.954
3.976
3.969
3.941
3.948
3.956
3.985
3.976
3.997
3.991
3.973
3.962
3.973
3.964
3.966
3.982
3.955
3.923
3.936
3.927
3.919
3.909
3.906
3.927
3.931
3.897
3.902
3.913
3.893
3.865
3.889
3.902
3.892
3.891
3.902
3.895
3.918
3.883
3.890
3.901
3.900
3.911
3.922
3.933
3.944
3.955
3.967
3.978
3.989
4.000
4.011
4.022
4.034
4.045
4.056
4.067
4.078
4.089
4.101
4.112
4.123
4.134
4.145
4.156
4.168
4.172
4.182
4.181
4.181
4.164
4.174
4.166
4.166
4.145
4.132
4.144
4.167
4.121
4.114
4.148
4.120
4.128
4.149
4.153
4.150
4.127
4.136
4.133
4.113
4.112
4.102
4.104
4.132
4.118
4.098
4.094
4.075
4.076
4.089
4.106
4.124
4.140
4.108
4.121
4.124
4.118
4.099
4.098
4.102
4.101
4.083
4.065
4.055
4.071
4.038
4.039
4.061
4.067
4.073
4.086
4.058
4.045
4.041
4.027
4.020
4.044
4.026
4.045
4.040
4.034
4.040
4.040
4.012
3.979
3.983
3.990
4.000
4.017
4.006
4.024
4.009
3.995
3.991
3.994
3.961
3.974
3.954
3.965
3.944
3.965
3.964
3.950
3.972
3.961
3.957
3.979
3.988
4.000
3.982
3.968
3.989
4.009
3.997
4.008
4.012
3.992
3.969
3.978
3.964
3.948
3.970
3.978
3.962
3.956
3.969
3.984
4.005
3.991
3.997
3.996
3.992
3.984
3.987
4.006
3.993
3.968
3.975
3.961
3.966
3.940
3.929
3.912
3.929
3.932
3.925
3.942
3.932
3.926
3.931
3.945
3.949
3.958
3.950
3.937
3.950
3.955
3.965
3.979
3.984
3.952
3.970
3.951
3.934
3.945
3.956
3.958
3.940
3.920
3.910
3.921
3.922
3.925
3.907
3.920
3.944
3.957
3.950
3.933
3.923
3.914
3.924
3.916
3.907
3.892
3.890
3.913
3.916
3.904
3.902
3.900
3.893
3.872
3.852
3.847
3.863
3.878
3.893
3.908
3.924
3.939
3.954
3.956
3.971
3.970
3.984
3.981
3.957
3.934
3.936
3.929
3.909
3.921
3.939
3.912
3.912
3.911
3.911
3.934
3.937
3.940
3.939
3.938
3.950
3.938
3.932
3.911
3.916
3.905
3.911
3.927
3.901
3.901
3.880
3.901
3.896
3.901
3.888
3.883
3.894
3.911
3.898
3.889
3.880
3.888
3.886
3.899
3.894
3.916
3.911
3.913
3.927
3.918
3.923
3.919
3.920
3.930
3.939
3.949
3.958
3.968
3.978
3.987
3.997
4.006
4.016
4.008
4.002
3.981
4.008
3.985
4.001
3.995
4.009
3.999
4.000
3.995
3.990
4.004
4.017
4.026
4.002
4.019
4.014
4.027
4.008
4.016
4.027
4.025
4.016
4.032
4.023
4.009
3.996
3.982
3.985
3.992
3.974
3.973
3.965
3.967
3.979
3.967
3.969
3.963
3.948
3.931
3.954
3.964
3.950
3.944
3.965
3.986
3.963
3.939
3.942
3.968
3.954
3.962
3.944
3.948
3.958
3.932
3.924
3.914
3.925
3.924
3.908
3.923
3.926
3.938
3.948
3.938
3.914
3.928
3.924
3.941
3.953
3.935
3.927
3.943
3.954
3.966
3.964
3.959
3.961
3.962
3.975
3.984
3.983
3.970
3.965
3.947
3.952
3.948
3.955
3.948
3.935
3.923
3.910
3.897
3.904
3.909
3.915
3.915
3.906
3.906
3.907
3.927
3.927
3.926
3.940
3.929
3.923
3.917
3.909
3.914
3.920
3.924
3.921
3.943
3.922
3.932
3.927
3.922
3.929
3.935
3.919
3.902
3.888
3.897
3.885
3.898
3.906
3.908
3.894
3.875
3.895
3.886
3.906
3.889
3.901
3.896
3.887
3.880
3.894
3.888
3.883
3.888
3.896
3.918
3.920
3.931
3.939
3.949
3.962
3.953
3.940
3.928
3.916
3.917
3.913
3.896
3.888
3.907
3.884
3.887
3.907
3.895
3.894
3.915
3.915
3.909
3.905
3.898
3.905
3.897
3.902
3.901
3.910
3.918
3.927
3.935
3.944
3.953
3.961
3.970
3.979
3.978
3.996
3.989
3.976
3.959
3.953
3.962
3.969
3.981
3.992
3.995
3.983
3.980
3.992
3.980
3.979
3.980
3.972
3.972
3.974
3.985
3.973
3.968
3.959
3.962
3.971
3.981
3.978
3.967
3.955
3.943
3.931
3.932
3.944
3.957
3.957
3.952
3.967
3.958
3.947
3.958
3.972
3.950
3.934
3.937
3.944
3.933
3.949
3.941
3.946
3.937
3.945
3.964
3.965
3.953
3.959
3.971
3.952
3.950
3.957
3.941
3.946
3.954
3.944
3.925
3.929
3.933
3.924
3.919
3.928
3.926
3.943
3.939
3.944
3.930
3.917
3.920
3.917
3.922
3.920
3.920
3.915
3.900
3.922
3.921
3.926
3.927
3.942
3.923
3.910
3.924
3.923
3.927
3.921
3.917
3.908
3.907
3.919
3.932
3.944
3.951
3.963
3.961
3.952
3.924
3.933
3.920
3.917
3.925
3.918
3.918
3.890
3.904
3.884
3.885
3.895
3.891
3.903
3.912
3.915
3.905
3.885
3.880
3.895
3.895
3.911
3.917
3.931
3.928
3.920
3.934
3.941
3.945
3.928
3.919
3.913
3.916
3.906
3.898
3.912
3.915
3.920
3.905
3.901
3.910
3.902
3.885
3.880
3.881
3.891
3.880
3.885
3.890
3.911
3.904
3.900
3.908
3.916
3.924
3.932
3.940
3.948
3.936
3.950
3.945
3.957
3.969
3.981
3.994
3.980
3.991
3.992
4.008
3.994
3.984
3.979
3.970
3.962
3.962
3.957
3.942
3.944
3.951
3.948
3.952
3.962
3.970
3.969
3.956
3.958
3.961
3.956
3.949
3.962
3.963
