2.990
3.329
3.511
3.617
3.709
3.787
3.838
3.859
3.919
3.975
3.947
3.989
4.023
4.058
4.087
4.122
4.127
4.069
4.067
4.080
4.098
4.112
4.127
4.138
4.155
4.162
4.175
4.184
4.199
4.201
4.208
4.225
4.236
4.237
4.248
4.258
4.266
4.266
4.274
4.285
4.295
4.300
4.294
4.298
4.314
4.320
4.332
4.337
4.344
4.327
4.334
4.343
4.353
4.354
4.366
4.371
4.378
4.377
4.387
4.392
4.384
4.382
4.387
4.392
4.401
4.396
4.402
4.415
4.419
4.421
4.424
4.430
4.435
4.439
4.445
4.449
4.458
4.434
4.431
4.431
4.434
4.448
4.440
4.454
4.458
4.453
4.455
4.464
4.460
4.471
4.473
4.469
4.479
4.488
4.485
4.483
4.487
4.492
4.496
4.501
4.503
4.508
4.508
4.517
4.516
4.525
4.520
4.518
4.522
4.521
4.528
4.510
4.502
4.499
4.495
4.506
4.512
4.511
4.518
4.511
4.519
4.524
4.531
4.529
4.517
4.518
4.527
4.523
4.525
4.530
4.531
4.531
4.539
4.535
4.538
4.551
4.552
4.546
4.548
4.549
4.557
4.556
4.567
4.561
4.572
4.566
4.562
4.566
4.564
4.572
4.555
4.561
4.561
4.570
4.566
4.572
4.568
4.580
4.579
4.580
4.588
4.586
4.599
4.590
4.599
4.584
4.592
4.591
4.593
4.605
4.597
4.602
4.613
4.607
4.614
4.617
4.608
4.623
4.615
4.614
4.606
4.605
4.620
4.617
4.609
4.617
4.608
4.611
4.617
4.614
4.615
4.622
4.623
4.620
4.638
4.629
4.628
4.637
4.642
4.637
4.644
4.641
4.644
4.642
4.649
4.654
4.647
4.644
4.636
4.626
4.617
4.608
4.599
4.612
4.614
4.615
4.611
4.621
4.622
4.621
4.608
4.624
4.622
4.617
4.613
4.624
4.628
4.624
4.619
4.626
4.641
4.644
4.637
4.636
4.635
4.646
4.643
4.632
4.626
4.631
4.629
4.622
4.614
4.632
4.629
4.614
4.615
4.617
4.629
4.624
4.622
4.613
4.617
4.628
4.630
4.626
4.623
4.623
4.631
4.647
4.647
4.639
4.630
4.630
4.641
4.655
4.650
4.635
4.637
4.630
4.646
4.649
4.647
4.644
4.639
4.639
4.647
4.654
4.650
4.649
4.652
4.649
4.651
4.660
4.671
4.666
4.663
4.665
4.664
4.663
4.660
4.659
4.663
4.652
4.652
4.649
4.655
4.671
4.666
4.654
4.652
4.655
4.651
4.653
4.668
4.676
4.669
4.665
4.662
4.667
4.665
4.666
4.676
4.683
4.678
4.671
4.669
4.665
4.663
4.670
4.678
4.692
4.688
4.681
4.681
4.688
4.684
4.679
4.681
4.688
4.702
4.706
4.699
4.697
4.690
4.689
4.694
4.693
4.691
4.703
4.702
4.698
4.708
4.705
4.703
4.689
4.691
4.693
4.689
4.685
4.680
4.672
4.671
4.669
4.668
4.668
4.679
4.692
4.687
4.688
4.683
4.673
4.664
4.662
4.667
4.665
4.675
4.683
4.683
4.680
4.678
4.682
4.678
4.670
4.675
4.675
4.665
4.677
4.689
4.702
4.703
4.700
4.696
4.690
4.681
4.683
4.683
4.679
4.677
4.683
4.694
4.699
4.697
4.704
4.697
4.687
4.682
4.679
4.671
4.674
4.672
4.680
4.691
4.701
4.703
4.704
4.697
4.691
4.698
4.695
4.693
4.687
4.684
4.690
4.682
4.690
4.702
4.713
4.724
4.718
4.717
4.707
4.709
4.703
4.699
4.704
4.699
4.706
4.701
4.692
4.702
4.713
4.713
4.712
4.711
4.713
4.714
4.713
4.709
4.706
4.706
4.705
4.702
4.705
4.706
4.709
4.713
4.723
4.734
4.739
4.736
4.732
4.731
4.732
4.731
4.726
4.728
4.724
4.722
4.722
4.719
4.717
4.717
4.723
4.733
4.743
4.747
4.743
4.737
4.729
4.727
4.723
4.723
4.723
4.725
4.717
4.710
4.703
4.701
4.710
4.720
4.730
4.735
4.728
4.734
4.729
4.728
4.726
4.722
4.721
4.711
4.706
4.705
4.703
4.702
4.699
4.699
4.705
4.715
4.724
4.733
4.731
4.728
4.724
4.733
4.733
4.730
4.731
4.731
4.733
4.732
4.731
4.729
4.722
4.713
4.707
4.708
4.708
4.714
4.723
4.732
4.738
4.743
4.743
4.740
4.741
4.745
4.739
4.742
4.736
4.735
4.735
4.734
4.736
4.738
4.742
4.732
4.730
4.728
4.724
4.720
4.729
4.734
4.742
4.751
4.750
4.752
4.762
4.760
4.752
4.759
4.766
4.763
4.763
4.765
4.764
4.754
4.749
4.748
4.750
4.745
4.747
4.746
4.744
4.752
4.751
4.745
4.745
4.753
4.761
4.770
4.775
4.770
4.774
4.768
4.766
4.761
4.760
4.759
4.752
4.758
4.757
4.757
4.750
4.743
4.745
4.739
4.737
4.738
4.732
4.726
4.731
4.737
4.745
4.753
4.761
4.768
4.772
4.770
4.769
4.762
4.761
4.764
4.757
4.758
4.759
4.759
4.754
4.759
4.755
4.752
4.749
4.750
4.759
4.758
4.760
4.758
4.758
4.749
4.751
4.752
4.750
4.751
4.758
4.765
4.773
4.780
4.788
4.788
4.789
4.790
4.793
4.790
4.785
4.788
4.787
4.783
4.784
4.783
4.785
4.784
4.784
4.787
4.789
4.786
4.784
4.784
4.784
4.785
4.781
4.774
4.766
4.775
4.771
4.775
4.770
4.770
4.777
4.784
4.791
4.798
4.806
4.810
4.799
4.793
4.792
4.791
4.790
4.795
4.796
4.792
4.788
4.784
4.780
4.776
4.772
4.768
4.764
4.760
4.756
4.752
4.749
4.743
4.739
4.738
4.737
4.737
4.744
4.751
4.758
4.765
4.771
4.778
4.774
4.774
4.782
4.784
4.786
4.787
4.782
4.777
4.772
4.767
4.763
4.758
4.753
4.750
4.750
4.745
4.749
4.747
4.742
4.741
4.741
4.744
4.750
4.746
4.750
4.751
4.747
4.752
4.753
4.747
4.747
4.745
4.742
4.748
4.755
4.761
4.768
4.774
4.774
4.766
4.763
4.763
4.757
4.757
4.757
4.755
4.758
4.757
4.762
4.768
4.771
4.769
4.766
4.764
4.767
4.759
4.757
4.758
4.760
4.757
4.759
4.758
4.755
4.754
4.751
4.747
4.752
4.754
4.760
4.755
4.752
4.751
4.745
4.747
4.755
4.755
4.755
4.755
4.761
4.767
4.773
4.778
4.774
4.776
4.774
4.771
4.776
4.770
4.766
4.760
4.761
4.766
4.768
4.768
4.761
4.755
4.748
4.749
4.746
4.746
4.748
4.743
4.751
4.754
4.758
4.751
4.753
4.752
4.749
4.753
4.752
4.749
4.747
4.742
4.739
4.738
4.739
4.741
4.741
4.739
4.739
4.734
4.743
4.742
4.747
4.753
4.759
4.765
4.770
4.776
4.782
4.788
4.793
4.792
4.794
4.789
4.787
4.786
4.789
4.791
4.783
4.782
4.775
4.775
4.769
4.777
4.777
4.778
4.772
4.772
4.769
4.771
4.767
4.765
4.760
4.755
4.753
4.748
4.742
4.741
4.740
4.736
4.742
4.744
4.743
4.744
4.751
4.754
4.755
4.760
4.756
4.754
4.756
4.756
4.752
4.748
4.744
4.744
4.744
4.749
4.754
4.760
4.765
4.771
4.776
4.781
4.784
4.785
4.781
4.786
4.784
4.783
4.779
4.781
4.782
4.786
4.785
4.784
4.782
4.780
4.779
4.782
4.779
4.781
4.780
4.779
4.782
4.781
4.783
4.783
4.780
4.779
4.776
4.777
4.774
4.777
4.777
4.777
4.770
4.769
4.767
4.765
4.761
4.759
4.760
4.759
4.758
4.754
4.756
4.754
4.753
4.753
4.746
4.738
4.739
4.740
4.737
4.736
4.737
4.740
4.745
4.751
4.754
4.756
4.762
4.767
4.772
4.777
4.782
4.787
4.792
4.797
4.802
4.804
4.803
4.799
4.800
4.796
4.803
4.804
4.796
4.798
4.795
4.796
4.796
4.793
4.792
4.790
4.788
4.789
4.788
4.786
4.791
4.793
4.793
4.797
4.795
4.791
4.789
4.786
4.779
4.774
4.768
4.763
4.761
4.761
4.767
4.770
4.772
4.777
4.777
4.777
4.777
4.776
4.774
4.772
4.775
4.774
4.775
4.776
4.779
4.778
4.779
4.778
4.774
4.772
4.768
