2.991
3.324
3.510
3.613
3.718
3.783
3.818
3.894
3.878
3.926
3.974
4.010
4.052
4.049
3.985
4.006
4.027
4.047
4.061
4.087
4.098
4.106
4.124
4.131
4.150
4.166
4.166
4.181
4.197
4.196
4.213
4.222
4.235
4.229
4.241
4.245
4.258
4.265
4.272
4.269
4.274
4.286
4.297
4.307
4.310
4.323
4.330
4.306
4.314
4.321
4.333
4.330
4.348
4.355
4.360
4.358
4.365
4.377
4.385
4.391
4.376
4.361
4.366
4.382
4.382
4.396
4.387
4.396
4.394
4.406
4.411
4.415
4.425
4.415
4.421
4.422
4.434
4.440
4.446
4.445
4.452
4.462
4.461
4.458
4.462
4.464
4.463
4.441
4.441
4.446
4.454
4.456
4.457
4.462
4.465
4.468
4.458
4.459
4.455
4.453
4.468
4.473
4.479
4.472
4.486
4.496
4.481
4.483
4.492
4.502
4.496
4.503
4.509
4.501
4.498
4.503
4.505
4.502
4.506
4.502
4.514
4.517
4.523
4.529
4.526
4.533
4.530
4.528
4.523
4.541
4.534
4.547
4.543
4.551
4.546
4.556
4.557
4.562
4.563
4.556
4.550
4.554
4.552
4.548
4.554
4.549
4.561
4.559
4.558
4.578
4.567
4.575
4.580
4.576
4.582
4.584
4.583
4.599
4.587
4.585
4.594
4.587
4.579
4.567
4.555
4.550
4.550
4.560
4.559
4.550
4.558
4.563
4.561
4.553
4.573
4.571
4.567
4.571
4.585
4.576
4.575
4.583
4.591
4.576
4.568
4.568
4.558
4.558
4.567
4.565
4.555
4.553
4.566
4.560
4.561
4.553
4.575
4.577
4.577
4.576
4.570
4.587
4.583
4.586
4.579
4.582
4.582
4.582
4.582
4.581
4.590
4.598
4.588
4.581
4.586
4.594
4.612
4.604
4.608
4.599
4.595
4.613
4.619
4.605
4.594
4.588
4.606
4.603
4.608
4.602
4.590
4.594
4.614
4.610
4.604
4.607
4.605
4.603
4.616
4.626
4.624
4.609
4.608
4.598
4.613
4.631
4.626
4.624
4.623
4.626
4.625
4.628
4.640
4.647
4.639
4.637
4.636
4.636
4.629
4.642
4.646
4.650
4.645
4.642
4.639
4.631
4.637
4.650
4.640
4.630
4.619
4.609
4.613
4.625
4.632
4.628
4.627
4.625
4.612
4.604
4.607
4.623
4.628
4.626
4.624
4.619
4.618
4.617
4.618
4.618
4.629
4.645
4.640
4.641
4.633
4.628
4.622
4.623
4.619
4.627
4.642
4.650
4.644
4.631
4.624
4.619
4.618
4.614
4.615
4.630
4.645
4.648
4.650
4.640
4.641
4.635
4.636
4.644
4.642
4.638
4.639
4.653
4.661
4.655
4.654
4.648
4.652
4.654
4.653
4.643
4.634
4.637
4.651
4.664
4.664
4.656
4.662
4.654
4.655
4.659
4.663
4.656
4.654
4.650
4.657
4.665
4.678
4.685
4.684
4.684
4.676
4.672
4.674
4.668
4.669
4.667
4.661
4.663
4.666
4.679
4.678
4.682
4.676
4.682
4.673
4.663
4.654
4.651
4.652
4.650
4.656
4.655
4.667
4.679
4.672
4.662
4.654
4.655
4.650
4.659
4.654
4.651
4.653
4.653
4.650
4.648
4.655
4.667
4.679
4.691
4.687
4.682
4.674
4.671
4.669
4.672
4.664
4.656
4.656
4.667
4.667
4.659
4.659
4.664
4.676
4.687
4.698
4.703
4.696
4.689
4.684
4.684
4.686
4.686
4.686
4.687
4.673
4.672
4.680
4.676
4.679
4.685
4.682
4.690
4.701
4.712
4.712
4.714
4.714
4.713
4.710
4.710
4.706
4.705
4.698
4.700
4.706
4.707
4.702
4.693
4.687
4.680
4.686
4.696
4.707
4.714
4.706
4.710
4.707
4.698
4.695
4.694
4.695
4.691
4.691
4.690
4.686
4.691
4.688
4.688
4.692
4.692
4.683
4.684
4.694
4.704
4.714
4.724
4.722
4.723
4.717
4.720
4.717
4.716
4.723
4.715
4.709
4.710
4.715
4.715
4.716
4.717
4.718
4.713
4.709
4.704
4.704
4.707
4.708
4.711
4.719
4.729
4.738
4.748
4.750
4.742
4.749
4.740
4.734
4.727
4.729
4.727
4.731
4.728
4.732
4.735
4.734
4.729
4.724
4.719
4.720
4.722
4.720
4.721
4.724
4.724
4.720
4.728
4.732
4.727
4.721
4.716
4.712
4.715
4.717
4.715
4.704
4.708
4.707
4.699
4.705
4.706
4.707
4.707
4.700
4.696
4.705
4.709
4.706
4.704
4.704
4.703
4.696
4.703
4.712
4.720
4.724
4.723
4.728
4.722
4.717
4.711
4.704
4.700
4.700
4.708
4.713
4.716
4.710
4.706
4.699
4.692
4.689
4.690
4.690
4.689
4.678
4.678
4.682
4.685
4.685
4.685
4.679
4.686
4.694
4.702
4.710
4.718
4.727
4.735
4.735
4.726
4.721
4.723
4.721
4.724
4.721
4.720
4.721
4.729
4.730
4.726
4.720
4.713
4.707
4.700
4.699
4.696
4.692
4.693
4.689
4.688
4.688
4.682
4.684
4.678
4.673
4.673
4.678
4.686
4.693
4.701
4.709
4.716
4.724
4.720
4.721
4.714
4.715
4.713
4.717
4.725
4.723
4.720
4.722
4.728
4.721
4.724
4.727
4.725
4.730
4.732
4.721
4.718
4.713
4.709
4.707
4.705
4.702
4.700
4.699
4.691
4.689
4.694
4.704
4.703
4.701
4.699
4.699
4.699
4.695
4.694
4.701
4.708
4.716
4.723
4.730
4.730
4.734
4.724
4.723
4.722
4.728
4.728
4.726
4.727
4.726
4.721
4.720
4.712
4.709
4.710
4.714
4.721
4.719
4.718
4.716
4.717
4.715
4.711
4.704
4.707
4.718
4.712
4.708
4.710
4.711
4.711
4.713
4.708
4.708
4.705
4.706
4.706
4.699
4.698
4.692
4.691
4.696
4.703
4.709
4.716
4.723
4.729
4.736
4.741
4.742
4.741
4.744
4.738
4.737
4.744
4.738
4.747
4.744
4.744
4.736
4.732
4.735
4.733
4.726
4.726
4.723
4.722
4.722
4.725
4.727
4.723
4.724
4.720
4.724
4.720
4.721
4.714
4.719
4.721
4.723
4.730
4.730
4.726
4.722
4.724
4.719
4.711
4.713
4.711
4.705
4.706
4.702
4.701
4.698
4.696
4.698
4.702
4.709
4.715
4.721
4.727
4.733
4.740
4.746
4.752
4.756
4.753
4.746
4.749
4.748
4.756
4.762
4.756
4.750
4.757
4.755
4.753
4.761
4.758
4.755
4.751
4.756
4.751
4.750
4.745
4.746
4.741
4.735
4.739
4.741
4.742
4.740
4.736
4.732
4.727
4.725
4.722
4.729
4.733
4.739
4.738
4.736
4.741
4.736
4.745
4.738
4.738
4.732
4.731
4.730
4.724
4.728
4.729
4.736
4.732
4.736
4.737
4.736
4.731
4.731
4.730
4.729
4.728
4.726
4.734
4.737
4.742
4.748
4.754
4.760
4.765
4.771
4.777
4.783
4.788
4.789
4.797
4.796
4.795
4.787
4.780
4.785
4.782
4.778
4.783
4.785
4.786
4.783
4.780
4.780
4.780
4.773
4.776
4.772
4.775
4.773
4.770
4.765
4.759
4.762
4.762
4.768
4.771
4.768
4.766
4.769
4.764
4.767
4.764
4.763
4.760
4.757
4.757
4.756
4.752
4.748
4.742
4.737
4.738
4.744
4.742
4.741
4.738
4.738
4.744
4.746
4.741
4.737
4.732
4.728
4.723
4.718
4.716
4.717
4.711
4.710
4.715
4.721
4.726
4.731
4.736
4.742
4.747
4.752
4.758
4.762
4.763
4.766
4.771
4.778
4.782
4.778
4.771
4.765
4.765
4.764
4.764
4.764
4.762
4.765
4.765
4.765
4.757
4.760
4.757
4.755
4.752
4.752
4.755
4.750
4.743
4.744
4.749
4.748
4.746
4.741
4.740
4.741
4.739
4.740
4.743
4.741
4.734
4.735
4.743
4.740
4.737
4.735
4.732
4.728
4.726
4.733
4.737
4.736
4.738
4.731
4.734
4.739
4.746
4.747
4.748
4.743
4.743
4.744
4.741
4.739
4.736
4.730
4.735
4.734
4.732
4.728
4.724
4.726
4.722
4.719
4.719
4.714
4.718
4.717
4.717
4.720
4.723
4.724
4.727
4.724
4.720
4.727
4.727
4.732
4.736
4.741
4.746
4.751
4.756
4.760
4.765
4.770
4.775
4.779
4.784
4.789
4.792
