2.977
3.297
3.496
3.579
3.682
3.738
3.825
3.862
3.795
3.832
3.865
3.895
3.915
3.940
3.976
3.983
4.011
4.025
4.045
4.070
4.070
4.084
4.098
4.128
4.115
4.134
4.148
4.166
4.175
4.198
4.201
4.181
4.195
4.194
4.209
4.220
4.237
4.229
4.239
4.251
4.267
4.268
4.274
4.292
4.261
4.256
4.274
4.276
4.263
4.275
4.281
4.302
4.301
4.314
4.317
4.335
4.307
4.317
4.325
4.332
4.336
4.337
4.344
4.345
4.370
4.368
4.377
4.379
4.383
4.375
4.363
4.385
4.378
4.388
4.404
4.397
4.409
4.420
4.412
4.430
4.418
4.419
4.395
4.382
4.377
4.402
4.400
4.408
4.404
4.410
4.399
4.404
4.368
4.392
4.377
4.390
4.399
4.390
4.419
4.403
4.399
4.417
4.398
4.417
4.424
4.424
4.428
4.445
4.429
4.433
4.427
4.421
4.432
4.429
4.445
4.431
4.450
4.437
4.434
4.447
4.469
4.463
4.461
4.462
4.489
4.471
4.459
4.468
4.475
4.470
4.480
4.466
4.462
4.459
4.449
4.455
4.449
4.445
4.447
4.440
4.467
4.464
4.452
4.458
4.451
4.469
4.457
4.463
4.455
4.448
4.460
4.490
4.480
4.484
4.478
4.466
4.470
4.497
4.483
4.474
4.477
4.468
4.471
4.493
4.518
4.517
4.503
4.494
4.504
4.485
4.503
4.529
4.527
4.509
4.516
4.509
4.500
4.497
4.519
4.503
4.477
4.487
4.476
4.478
4.478
4.501
4.514
4.510
4.496
4.498
4.488
4.495
4.497
4.502
4.511
4.532
4.520
4.518
4.533
4.531
4.524
4.522
4.523
4.514
4.525
4.547
4.563
4.549
4.548
4.532
4.530
4.529
4.530
4.532
4.517
4.538
4.537
4.546
4.552
4.535
4.531
4.525
4.524
4.538
4.541
4.524
4.528
4.548
4.568
4.571
4.570
4.568
4.585
4.577
4.572
4.566
4.568
4.558
4.546
4.549
4.552
4.571
4.590
4.597
4.591
4.587
4.581
4.564
4.569
4.576
4.578
4.575
4.562
4.569
4.558
4.564
4.582
4.577
4.583
4.570
4.556
4.543
4.535
4.525
4.521
4.521
4.523
4.516
4.512
4.528
4.545
4.562
4.569
4.564
4.564
4.564
4.554
4.555
4.552
4.558
4.548
4.550
4.544
4.533
4.526
4.526
4.523
4.526
4.542
4.557
4.564
4.559
4.561
4.551
4.552
4.546
4.555
4.564
4.562
4.548
4.551
4.546
4.541
4.545
4.532
4.527
4.522
4.515
4.530
4.545
4.559
4.574
4.570
4.560
4.560
4.565
4.551
4.556
4.557
4.557
4.548
4.543
4.549
4.546
4.546
4.549
4.545
4.543
4.533
4.539
4.535
4.540
4.531
4.544
4.558
4.571
4.585
4.587
4.572
4.569
4.571
4.566
4.565
4.568
4.575
4.583
4.582
4.579
4.568
4.560
4.559
4.546
4.553
4.555
4.541
4.551
4.544
4.535
4.535
4.532
4.546
4.546
4.557
4.569
4.582
4.594
4.607
4.603
4.610
4.608
4.602
4.596
4.589
4.584
4.584
4.590
4.593
4.589
4.585
4.580
4.575
4.581
4.592
4.586
4.575
4.579
4.583
4.596
4.587
4.578
4.566
4.570
4.570
4.563
4.563
4.570
4.566
4.577
4.589
4.600
4.612
4.623
4.635
4.642
4.640
4.629
4.640
4.642
4.637
4.623
4.614
4.607
4.618
4.616
4.616
4.615
4.606
4.606
4.601
4.593
4.591
4.586
4.589
4.579
4.570
4.560
4.565
4.571
4.568
4.569
4.567
4.559
4.560
4.555
4.551
4.556
4.566
4.577
4.587
4.598
4.608
4.613
4.610
4.604
4.614
4.615
4.610
4.604
4.601
4.602
4.603
4.602
4.604
4.590
4.592
4.596
4.594
4.591
4.596
4.588
4.590
4.590
4.587
4.588
4.590
4.595
4.589
4.579
4.576
4.573
4.578
4.583
4.575
4.580
4.582
4.575
4.560
4.563
4.552
4.551
4.554
4.563
4.566
4.571
4.584
4.583
4.578
4.587
4.596
4.606
4.615
4.624
4.634
4.643
4.653
4.662
4.671
4.674
4.670
4.665
4.664
4.674
4.674
4.663
4.660
4.653
4.646
4.639
4.633
4.626
4.619
4.612
4.605
4.616
4.611
4.612
4.605
4.595
4.589
4.586
4.598
4.607
4.600
4.595
4.592
4.588
4.583
4.572
4.566
4.562
4.572
4.563
4.575
4.569
4.560
4.560
4.558
4.551
4.553
4.549
4.545
4.544
4.543
4.543
4.551
4.560
4.568
4.576
4.585
4.593
4.601
4.610
4.618
4.624
4.617
4.617
4.612
4.616
4.625
4.631
4.622
4.622
4.618
4.630
4.630
4.636
4.635
4.636
4.627
4.619
4.620
4.627
4.619
4.618
4.615
4.617
4.615
4.610
4.614
4.610
4.608
4.605
4.612
4.615
4.620
4.631
4.625
4.623
4.629
4.630
4.618
4.606
4.613
4.606
4.601
4.600
4.591
4.586
4.580
4.571
4.580
4.580
4.579
4.584
4.579
4.574
4.580
4.577
4.582
4.579
4.580
4.582
4.586
4.580
4.573
4.565
4.560
4.550
4.552
4.564
4.567
4.562
4.557
4.557
4.565
4.572
4.579
4.587
4.594
4.601
4.608
4.615
4.623
4.630
4.637
4.645
4.652
4.659
4.667
4.659
4.649
4.645
4.643
4.636
4.633
4.630
4.624
4.624
4.624
4.623
4.617
4.609
4.606
4.603
4.598
4.602
4.601
4.606
4.600
4.596
4.602
4.598
4.601
4.602
4.609
4.618
4.618
4.621
4.616
4.627
4.627
4.623
4.621
4.618
4.614
4.613
4.610
4.622
4.623
4.622
4.623
4.624
4.635
4.636
4.631
4.620
4.617
4.608
4.607
4.605
4.597
4.594
4.587
4.589
4.587
4.585
4.587
4.582
4.582
4.583
4.587
4.581
4.572
4.570
4.567
4.567
4.561
4.554
4.556
4.551
4.558
4.564
4.564
4.565
4.562
4.564
4.575
4.576
4.583
4.580
4.575
4.573
4.569
4.570
4.564
4.564
4.565
4.573
4.583
4.580
4.580
4.580
4.586
4.592
4.599
4.605
4.611
4.617
4.624
4.630
4.636
4.642
4.649
4.655
4.661
4.667
4.674
4.676
4.677
4.673
4.676
4.673
4.675
4.677
4.668
4.669
4.667
4.669
4.661
4.666
4.672
4.673
4.680
4.675
4.666
4.664
4.663
4.661
4.658
4.657
4.651
4.647
4.642
4.645
4.645
4.642
4.639
4.639
4.638
4.644
4.642
4.645
4.644
4.644
4.643
4.633
4.630
4.635
4.627
4.625
4.624
4.619
4.622
4.620
4.621
4.626
4.625
4.631
4.631
4.626
4.632
4.628
4.636
4.636
4.631
4.626
4.635
4.644
4.643
4.639
4.644
4.645
4.643
4.634
4.626
4.629
4.632
4.627
4.632
4.632
4.627
4.627
4.631
4.632
4.630
4.622
4.619
4.627
4.623
4.620
4.617
4.608
4.600
4.606
4.613
4.616
4.605
4.600
4.593
4.595
4.598
4.595
4.594
4.589
4.584
4.579
4.574
4.570
4.568
4.570
4.570
4.571
4.571
4.579
4.577
4.577
4.575
4.582
4.586
4.588
4.586
4.579
4.574
4.571
4.565
4.557
4.550
4.546
4.553
4.549
4.547
4.544
4.549
4.555
4.560
4.565
4.570
4.575
4.581
4.586
4.591
4.596
4.601
4.606
4.612
4.617
4.622
4.627
4.633
4.638
4.643
4.648
4.653
4.659
4.663
4.660
4.654
4.648
4.647
4.639
4.637
4.639
4.635
4.639
4.627
4.625
4.629
4.635
4.636
4.636
4.638
4.636
4.633
4.633
4.633
4.628
4.625
4.626
4.633
4.640
4.647
4.655
4.651
4.646
4.655
4.645
4.647
4.650
4.641
4.643
4.644
4.638
4.648
4.647
4.639
4.640
4.647
4.648
4.652
4.643
4.639
4.646
4.645
4.645
4.639
4.636
4.639
4.640
4.639
4.637
4.647
4.639
4.643
4.645
4.640
4.635
4.637
4.632
4.636
4.637
4.631
4.628
4.626
4.624
4.618
4.613
4.618
4.621
4.623
4.614
4.616
4.611
4.615
4.611
4.611
4.616
4.619
4.625
4.618
4.618
4.610
4.601
4.602
4.596
4.597
4.600
4.599
4.603
4.597
4.598
4.604
4.605
4.604
4.605
4.605
4.603
4.609
4.600
4.599
4.607
