2.992
3.331
3.518
3.629
3.725
3.776
3.840
3.883
3.911
3.967
3.974
4.009
4.048
4.082
4.056
4.082
4.105
4.129
4.150
4.167
4.191
4.211
4.232
4.250
4.223
4.184
4.179
4.189
4.205
4.211
4.224
4.228
4.243
4.245
4.259
4.261
4.273
4.283
4.283
4.293
4.303
4.301
4.309
4.318
4.328
4.326
4.331
4.342
4.350
4.354
4.347
4.356
4.361
4.373
4.379
4.387
4.374
4.381
4.388
4.390
4.402
4.405
4.413
4.419
4.402
4.409
4.416
4.419
4.427
4.431
4.434
4.438
4.445
4.452
4.456
4.449
4.445
4.450
4.453
4.457
4.457
4.468
4.470
4.468
4.476
4.480
4.484
4.491
4.487
4.491
4.497
4.504
4.486
4.491
4.495
4.493
4.495
4.501
4.501
4.504
4.506
4.515
4.509
4.515
4.516
4.523
4.522
4.531
4.530
4.537
4.533
4.537
4.539
4.540
4.545
4.553
4.555
4.554
4.558
4.543
4.538
4.535
4.541
4.540
4.539
4.542
4.547
4.553
4.557
4.557
4.557
4.559
4.568
4.557
4.558
4.564
4.561
4.565
4.569
4.570
4.574
4.581
4.583
4.583
4.585
4.589
4.591
4.595
4.586
4.583
4.591
4.597
4.596
4.598
4.594
4.603
4.604
4.609
4.610
4.616
4.618
4.616
4.615
4.622
4.626
4.619
4.629
4.622
4.624
4.623
4.632
4.623
4.613
4.603
4.593
4.595
4.601
4.601
4.608
4.606
4.612
4.608
4.613
4.617
4.620
4.617
4.613
4.622
4.621
4.622
4.620
4.630
4.624
4.631
4.629
4.619
4.629
4.628
4.626
4.625
4.624
4.625
4.632
4.628
4.632
4.636
4.631
4.636
4.637
4.644
4.642
4.645
4.648
4.645
4.649
4.652
4.657
4.649
4.649
4.655
4.646
4.655
4.656
4.657
4.662
4.664
4.667
4.671
4.662
4.672
4.660
4.663
4.660
4.655
4.664
4.666
4.664
4.664
4.659
4.663
4.665
4.666
4.667
4.675
4.668
4.669
4.676
4.669
4.671
4.682
4.678
4.675
4.687
4.686
4.686
4.686
4.695
4.690
4.687
4.697
4.694
4.693
4.694
4.693
4.686
4.690
4.703
4.697
4.697
4.699
4.706
4.702
4.700
4.705
4.711
4.712
4.705
4.712
4.716
4.713
4.714
4.716
4.712
4.705
4.705
4.708
4.706
4.705
4.705
4.720
4.714
4.718
4.711
4.713
4.712
4.710
4.708
4.713
4.711
4.712
4.708
4.713
4.722
4.715
4.719
4.716
4.720
4.729
4.730
4.727
4.731
4.729
4.734
4.732
4.733
4.724
4.734
4.742
4.741
4.740
4.733
4.737
4.741
4.734
4.728
4.723
4.719
4.712
4.706
4.705
4.712
4.707
4.706
4.707
4.705
4.702
4.701
4.702
4.703
4.701
4.709
4.715
4.714
4.713
4.711
4.708
4.714
4.723
4.720
4.720
4.714
4.710
4.716
4.715
4.719
4.720
4.717
4.718
4.717
4.729
4.725
4.724
4.722
4.723
4.723
4.726
4.733
4.738
4.738
4.735
4.736
4.737
4.733
4.734
4.727
4.721
4.714
4.712
4.723
4.724
4.723
4.720
4.723
4.724
4.722
4.724
4.728
4.721
4.720
4.713
4.706
4.712
4.722
4.723
4.720
4.723
4.722
4.721
4.716
4.718
4.723
4.724
4.722
4.720
4.719
4.716
4.716
4.721
4.731
4.732
4.733
4.731
4.728
4.727
4.728
4.731
4.731
4.742
4.744
4.737
4.738
4.734
4.733
4.734
4.734
4.738
4.744
4.740
4.744
4.740
4.730
4.734
4.733
4.732
4.739
4.748
4.750
4.751
4.744
4.745
4.739
4.737
4.741
4.740
4.749
4.754
4.755
4.749
4.750
4.754
4.752
4.751
4.750
4.748
4.755
4.765
4.771
4.764
4.761
4.757
4.761
4.754
4.749
4.746
4.755
4.753
4.757
4.759
4.758
4.753
4.753
4.749
4.747
4.751
4.752
4.760
4.758
4.753
4.753
4.751
4.755
4.748
4.744
4.748
4.744
4.754
4.763
4.768
4.769
4.768
4.766
4.767
4.761
4.760
4.761
4.760
4.758
4.760
4.769
4.778
4.774
4.773
4.779
4.776
4.771
4.760
4.758
4.757
4.761
4.760
4.771
4.778
4.782
4.779
4.777
4.781
4.775
4.779
4.780
4.776
4.774
4.773
4.772
4.775
4.783
4.790
4.796
4.797
4.797
4.798
4.794
4.789
4.783
4.784
4.790
4.786
4.780
4.783
4.790
4.795
4.793
4.795
4.796
4.794
4.791
4.790
4.786
4.787
4.790
4.786
4.780
4.779
4.782
4.778
4.769
4.768
4.771
4.767
4.769
4.765
4.769
4.768
4.769
4.765
4.769
4.776
4.779
4.778
4.783
4.783
4.780
4.783
4.779
4.773
4.768
4.762
4.760
4.753
4.758
4.765
4.774
4.770
4.774
4.768
4.771
4.771
4.775
4.775
4.772
4.768
4.769
4.765
4.761
4.760
4.761
4.765
4.774
4.779
4.782
4.781
4.780
4.779
4.782
4.781
4.779
4.776
4.777
4.783
4.783
4.779
4.782
4.779
4.779
4.778
4.780
4.787
4.791
4.789
4.788
4.794
4.785
4.784
4.779
4.778
4.779
4.775
4.774
4.778
4.775
4.781
4.779
4.778
4.777
4.786
4.793
4.794
4.790
4.786
4.779
4.775
4.780
4.784
4.783
4.776
4.777
4.775
4.774
4.775
4.774
4.773
4.772
4.778
4.785
4.792
4.797
4.803
4.801
4.798
4.796
4.792
4.793
4.795
4.793
4.789
4.788
4.789
4.796
4.789
4.788
4.792
4.791
4.795
4.793
4.789
4.796
4.803
4.808
4.806
4.804
4.808
4.805
4.803
4.804
4.800
4.799
4.803
4.804
4.801
4.796
4.790
4.788
4.787
4.793
4.789
4.788
4.790
4.796
4.801
4.808
4.809
4.812
4.811
4.808
4.809
4.810
4.806
4.802
4.806
4.812
4.812
4.812
4.809
4.807
4.803
4.801
4.805
4.808
4.806
4.804
4.800
4.801
4.808
4.813
4.820
4.826
4.833
4.834
4.833
4.832
4.833
4.827
4.825
4.820
4.820
4.815
4.817
4.820
4.817
4.820
4.823
4.821
4.816
4.812
4.809
4.810
4.811
4.810
4.814
4.821
4.823
4.824
4.819
4.820
4.823
4.818
4.816
4.810
4.806
4.801
4.798
4.796
4.800
4.796
4.795
4.794
4.794
4.797
4.795
4.799
4.798
4.801
4.797
4.804
4.809
4.813
4.820
4.826
4.828
4.827
4.827
4.823
4.817
4.820
4.816
4.810
4.805
4.805
4.801
4.802
4.803
4.805
4.809
4.807
4.801
4.796
4.790
4.794
4.792
4.791
4.794
4.799
4.805
4.810
4.816
4.821
4.820
4.821
4.827
4.827
4.828
4.826
4.827
4.821
4.822
4.823
4.823
4.823
4.825
4.824
4.820
4.820
4.820
4.821
4.816
4.815
4.816
4.815
4.814
4.808
4.808
4.807
4.803
4.805
4.811
4.816
4.820
4.827
4.828
4.832
4.828
4.826
4.828
4.832
4.831
4.827
4.827
4.831
4.828
4.834
4.830
4.831
4.830
4.827
4.828
4.832
4.831
4.831
4.830
4.831
4.828
4.834
4.828
4.821
4.822
4.818
4.819
4.823
4.819
4.820
4.825
4.831
4.834
4.840
4.845
4.848
4.847
4.849
4.847
4.846
4.842
4.843
4.842
4.838
4.838
4.842
4.845
4.848
4.842
4.842
4.844
4.846
4.852
4.853
4.852
4.848
4.850
4.849
4.844
4.842
4.841
4.837
4.836
4.834
4.833
4.835
4.833
4.834
4.834
4.838
4.842
4.848
4.853
4.856
4.857
4.854
4.858
4.862
4.863
4.860
4.855
4.853
4.853
4.851
4.850
4.848
4.847
4.854
4.858
4.853
4.852
4.848
4.844
4.840
4.838
4.832
4.830
4.829
4.825
4.827
4.825
4.826
4.828
4.826
4.827
4.826
4.828
4.831
4.836
4.840
4.844
4.849
4.855
4.857
4.853
4.853
4.857
4.859
4.853
4.851
4.850
4.849
4.850
4.843
4.849
4.849
4.850
4.851
4.850
4.848
4.849
4.853
4.845
4.840
4.842
4.840
4.839
4.840
4.839
4.842
4.839
4.837
4.841
4.840
4.839
4.842
4.839
4.840
4.839
4.837
4.842
4.846
4.842
4.845
4.850
4.854
4.858
4.862
4.868
4.873
4.872
