2.986
3.329
3.516
3.613
3.715
3.765
3.812
3.838
3.897
3.948
3.998
3.933
3.936
3.964
3.976
4.008
4.026
4.045
4.051
4.073
4.082
4.103
4.121
4.120
4.142
4.155
4.154
4.178
4.185
4.199
4.194
4.201
4.214
4.227
4.235
4.252
4.266
4.234
4.258
4.266
4.268
4.278
4.292
4.288
4.312
4.316
4.319
4.313
4.297
4.312
4.321
4.323
4.320
4.331
4.346
4.347
4.357
4.357
4.358
4.361
4.377
4.376
4.386
4.392
4.394
4.390
4.407
4.405
4.382
4.374
4.386
4.386
4.389
4.403
4.400
4.392
4.398
4.403
4.407
4.409
4.411
4.422
4.409
4.421
4.436
4.437
4.448
4.441
4.432
4.432
4.437
4.444
4.446
4.440
4.460
4.463
4.464
4.470
4.472
4.471
4.477
4.473
4.487
4.492
4.488
4.499
4.498
4.503
4.493
4.500
4.492
4.478
4.493
4.485
4.513
4.506
4.514
4.511
4.517
4.518
4.516
4.537
4.521
4.541
4.524
4.532
4.529
4.514
4.499
4.504
4.497
4.490
4.498
4.496
4.503
4.514
4.512
4.514
4.523
4.515
4.520
4.531
4.513
4.509
4.504
4.509
4.499
4.498
4.488
4.513
4.503
4.500
4.506
4.522
4.514
4.512
4.522
4.530
4.515
4.505
4.532
4.523
4.530
4.513
4.538
4.542
4.540
4.534
4.539
4.552
4.557
4.549
4.544
4.544
4.533
4.537
4.537
4.547
4.551
4.543
4.536
4.538
4.559
4.560
4.559
4.545
4.541
4.562
4.566
4.564
4.562
4.565
4.559
4.582
4.592
4.583
4.571
4.577
4.572
4.594
4.585
4.588
4.581
4.578
4.578
4.598
4.594
4.589
4.576
4.563
4.575
4.574
4.573
4.571
4.561
4.546
4.566
4.563
4.561
4.563
4.556
4.552
4.556
4.569
4.589
4.583
4.571
4.562
4.565
4.558
4.563
4.582
4.588
4.576
4.561
4.559
4.555
4.565
4.567
4.586
4.583
4.586
4.585
4.587
4.588
4.589
4.577
4.581
4.598
4.601
4.605
4.597
4.591
4.586
4.576
4.577
4.581
4.598
4.609
4.609
4.612
4.608
4.604
4.605
4.599
4.612
4.604
4.605
4.622
4.632
4.624
4.614
4.620
4.613
4.617
4.608
4.609
4.608
4.615
4.631
4.624
4.612
4.601
4.604
4.606
4.602
4.591
4.590
4.595
4.611
4.604
4.606
4.608
4.606
4.606
4.613
4.604
4.596
4.599
4.608
4.605
4.608
4.623
4.620
4.621
4.615
4.614
4.625
4.620
4.619
4.619
4.621
4.620
4.616
4.610
4.619
4.634
4.647
4.636
4.640
4.643
4.645
4.641
4.639
4.643
4.639
4.638
4.631
4.627
4.631
4.627
4.641
4.654
4.659
4.666
4.662
4.655
4.652
4.646
4.635
4.639
4.642
4.643
4.637
4.635
4.623
4.628
4.641
4.655
4.654
4.657
4.652
4.651
4.650
4.648
4.647
4.640
4.638
4.643
4.644
4.646
4.642
4.636
4.631
4.635
4.648
4.660
4.673
4.686
4.690
4.678
4.674
4.678
4.674
4.670
4.668
4.677
4.679
4.677
4.678
4.671
4.666
4.665
4.658
4.654
4.655
4.667
4.679
4.691
4.693
4.689
4.688
4.699
4.697
4.700
4.690
4.681
4.671
4.664
4.668
4.677
4.671
4.664
4.661
4.654
4.647
4.649
4.660
4.671
4.683
4.684
4.677
4.682
4.674
4.671
4.663
4.654
4.651
4.653
4.653
4.644
4.648
4.636
4.638
4.631
4.625
4.617
4.628
4.626
4.637
4.648
4.656
4.666
4.669
4.673
4.662
4.658
4.656
4.655
4.660
4.655
4.659
4.659
4.663
4.658
4.652
4.649
4.649
4.647
4.653
4.647
4.648
4.646
4.648
4.653
4.650
4.638
4.647
4.657
4.661
4.653
4.658
4.652
4.649
4.648
4.657
4.657
4.657
4.656
4.652
4.643
4.646
4.646
4.650
4.644
4.640
4.640
4.633
4.639
4.634
4.636
4.641
4.646
4.647
4.651
4.647
4.644
4.644
4.650
4.659
4.669
4.678
4.676
4.674
4.676
4.668
4.667
4.659
4.654
4.661
4.657
4.656
4.652
4.649
4.657
4.657
4.660
4.656
4.652
4.651
4.640
4.638
4.640
4.634
4.637
4.636
4.639
4.641
4.637
4.635
4.631
4.631
4.640
4.649
4.658
4.667
4.676
4.684
4.681
4.691
4.692
4.687
4.690
4.682
4.672
4.673
4.674
4.666
4.655
4.658
4.660
4.656
4.654
4.661
4.654
4.664
4.662
4.660
4.651
4.647
4.654
4.657
4.655
4.656
4.656
4.656
4.653
4.650
4.648
4.657
4.660
4.655
4.655
4.655
4.653
4.662
4.670
4.678
4.686
4.684
4.686
4.688
4.688
4.688
4.685
4.685
4.692
4.691
4.680
4.684
4.696
4.694
4.697
4.692
4.693
4.692
4.691
4.688
4.689
4.687
4.678
4.673
4.678
4.671
4.671
4.660
4.667
4.673
4.673
4.680
4.677
4.667
4.666
4.667
4.659
4.654
4.660
4.662
4.672
4.671
4.664
4.670
4.669
4.666
4.674
4.682
4.689
4.697
4.704
4.712
4.719
4.727
4.728
4.722
4.720
4.720
4.717
4.720
4.720
4.717
4.717
4.711
4.710
4.716
4.717
4.714
4.717
4.714
4.708
4.708
4.704
4.703
4.701
4.711
4.712
4.708
4.715
4.709
4.713
4.714
4.715
4.722
4.712
4.709
4.707
4.706
4.704
4.697
4.690
4.684
4.686
4.684
4.685
4.692
4.693
4.687
4.681
4.673
4.671
4.673
4.673
4.680
4.687
4.694
4.701
4.708
4.712
4.710
4.709
4.712
4.714
4.712
4.713
4.712
4.706
4.705
4.702
4.699
4.701
4.705
4.710
4.706
4.707
4.702
4.698
4.698
4.699
4.699
4.692
4.690
4.688
4.678
4.670
4.668
4.667
4.669
4.676
4.681
4.675
4.667
4.669
4.671
4.668
4.677
4.676
4.679
4.684
4.689
4.688
4.684
4.674
4.672
4.669
4.660
4.662
4.662
4.670
4.671
4.665
4.657
4.657
4.655
4.658
4.654
4.660
4.658
4.665
4.671
4.677
4.684
4.690
4.696
4.703
4.709
4.715
4.721
4.728
4.734
4.739
4.730
4.720
4.723
4.721
4.723
4.727
4.722
4.729
4.723
4.717
4.712
4.711
4.713
4.703
4.705
4.708
4.717
4.723
4.725
4.719
4.717
4.722
4.724
4.714
4.713
4.708
4.704
4.712
4.720
4.715
4.710
4.711
4.715
4.719
4.717
4.713
4.710
4.714
4.715
4.708
4.711
4.711
4.711
4.711
4.710
4.706
4.709
4.706
4.701
4.700
4.702
4.699
4.693
4.699
4.699
4.691
4.692
4.692
4.694
4.700
4.705
4.708
4.707
4.706
4.706
4.699
4.706
4.712
4.711
4.709
4.706
4.702
4.698
4.693
4.692
4.698
4.704
4.709
4.715
4.721
4.726
4.732
4.738
4.743
4.749
4.746
4.748
4.750
4.745
4.739
4.736
4.732
4.735
4.730
4.724
4.719
4.719
4.716
4.709
4.712
4.708
4.707
4.701
4.702
4.700
4.698
4.689
4.699
4.696
4.692
4.697
4.702
4.700
4.702
4.696
4.689
4.685
4.689
4.688
4.694
4.695
4.690
4.690
4.695
4.700
4.701
4.695
4.696
4.696
4.696
4.694
4.692
4.689
4.688
4.687
4.686
4.690
4.689
4.683
4.677
4.672
4.674
4.674
4.676
4.674
4.670
4.664
4.672
4.667
4.662
4.662
4.658
4.658
4.659
4.657
4.656
4.654
4.654
4.657
4.650
4.647
4.650
4.646
4.649
4.657
4.656
4.660
4.663
4.661
4.657
4.655
4.660
4.665
4.671
4.676
4.681
4.686
4.691
4.696
4.701
4.706
4.711
4.716
4.721
4.726
4.731
4.736
4.741
4.746
4.751
4.756
4.761
4.759
4.757
4.752
4.757
4.754
4.758
4.759
4.756
4.763
4.770
4.767
4.761
4.761
4.757
4.752
4.754
4.746
4.743
4.743
4.747
4.740
4.732
4.732
4.726
4.728
4.730
4.726
4.721
4.718
4.721
4.724
4.723
4.722
4.721
4.720
4.716
4.711
4.719
4.713
4.716
4.715
4.710
4.705
4.700
4.696
4.691
4.688
4.692
4.691
4.692
4.687
4.685
4.689
4.681
4.682
4.679
4.682
4.673
4.675
