2.991
3.334
3.504
3.621
3.717
3.797
3.841
3.859
3.925
3.952
3.951
3.991
4.022
4.059
4.092
4.122
4.092
4.050
4.065
4.086
4.102
4.113
4.125
4.143
4.148
4.166
4.169
4.188
4.197
4.203
4.213
4.227
4.230
4.243
4.251
4.252
4.258
4.269
4.275
4.291
4.291
4.289
4.299
4.311
4.316
4.323
4.330
4.332
4.328
4.328
4.345
4.348
4.346
4.361
4.371
4.366
4.376
4.385
4.372
4.373
4.376
4.381
4.394
4.393
4.392
4.404
4.411
4.416
4.411
4.413
4.427
4.432
4.437
4.444
4.441
4.419
4.423
4.425
4.433
4.439
4.439
4.451
4.441
4.450
4.447
4.456
4.462
4.465
4.464
4.470
4.475
4.476
4.477
4.474
4.484
4.488
4.500
4.501
4.504
4.503
4.508
4.511
4.515
4.505
4.515
4.508
4.511
4.512
4.494
4.499
4.493
4.497
4.497
4.505
4.504
4.507
4.515
4.510
4.516
4.526
4.513
4.514
4.512
4.513
4.524
4.520
4.521
4.527
4.527
4.530
4.543
4.534
4.542
4.541
4.535
4.547
4.546
4.556
4.554
4.557
4.565
4.558
4.548
4.551
4.556
4.553
4.549
4.563
4.561
4.565
4.558
4.569
4.566
4.569
4.579
4.577
4.589
4.582
4.589
4.584
4.588
4.586
4.585
4.593
4.589
4.598
4.603
4.599
4.602
4.605
4.610
4.608
4.607
4.609
4.594
4.611
4.609
4.603
4.606
4.602
4.603
4.603
4.600
4.609
4.611
4.608
4.612
4.626
4.624
4.616
4.630
4.626
4.624
4.636
4.631
4.631
4.632
4.653
4.642
4.639
4.642
4.633
4.623
4.614
4.604
4.604
4.607
4.599
4.602
4.614
4.612
4.611
4.605
4.612
4.607
4.612
4.606
4.622
4.617
4.617
4.612
4.624
4.630
4.633
4.626
4.622
4.637
4.640
4.630
4.628
4.617
4.624
4.616
4.616
4.624
4.624
4.621
4.606
4.613
4.623
4.614
4.607
4.612
4.616
4.620
4.625
4.612
4.612
4.616
4.634
4.634
4.634
4.634
4.622
4.629
4.641
4.641
4.636
4.629
4.627
4.637
4.635
4.639
4.635
4.631
4.631
4.644
4.648
4.642
4.641
4.639
4.642
4.644
4.660
4.659
4.660
4.650
4.655
4.654
4.656
4.659
4.654
4.650
4.646
4.640
4.647
4.663
4.659
4.659
4.645
4.644
4.644
4.649
4.662
4.665
4.661
4.655
4.653
4.661
4.655
4.662
4.676
4.677
4.674
4.666
4.655
4.653
4.654
4.668
4.681
4.680
4.674
4.672
4.676
4.674
4.673
4.672
4.683
4.697
4.694
4.695
4.687
4.680
4.685
4.682
4.686
4.691
4.692
4.686
4.692
4.701
4.695
4.688
4.688
4.683
4.692
4.687
4.679
4.671
4.668
4.664
4.658
4.660
4.673
4.683
4.682
4.679
4.674
4.677
4.667
4.657
4.656
4.662
4.675
4.678
4.667
4.671
4.677
4.669
4.665
4.664
4.662
4.663
4.669
4.681
4.694
4.692
4.693
4.691
4.681
4.679
4.675
4.675
4.671
4.667
4.680
4.692
4.686
4.691
4.697
4.692
4.688
4.678
4.672
4.668
4.667
4.670
4.682
4.689
4.693
4.690
4.688
4.689
4.687
4.688
4.686
4.679
4.677
4.677
4.675
4.687
4.698
4.710
4.712
4.712
4.710
4.701
4.698
4.699
4.696
4.691
4.691
4.688
4.685
4.693
4.704
4.707
4.701
4.708
4.702
4.699
4.704
4.700
4.698
4.694
4.690
4.696
4.697
4.700
4.700
4.710
4.721
4.725
4.727
4.732
4.724
4.722
4.725
4.728
4.719
4.715
4.712
4.711
4.715
4.714
4.705
4.716
4.726
4.737
4.733
4.736
4.732
4.730
4.725
4.716
4.716
4.716
4.715
4.715
4.712
4.705
4.699
4.709
4.720
4.721
4.721
4.721
4.723
4.723
4.717
4.713
4.712
4.709
4.710
4.700
4.696
4.696
4.696
4.691
4.701
4.710
4.720
4.724
4.723
4.718
4.716
4.719
4.716
4.720
4.719
4.726
4.721
4.720
4.723
4.719
4.720
4.710
4.699
4.701
4.707
4.717
4.726
4.728
4.731
4.730
4.733
4.732
4.730
4.730
4.732
4.729
4.722
4.725
4.726
4.730
4.735
4.741
4.732
4.723
4.718
4.716
4.717
4.726
4.735
4.744
4.746
4.745
4.748
4.748
4.746
4.749
4.751
4.753
4.755
4.752
4.752
4.752
4.745
4.745
4.739
4.738
4.735
4.732
4.740
4.738
4.738
4.739
4.745
4.753
4.762
4.769
4.769
4.766
4.760
4.761
4.753
4.753
4.750
4.746
4.752
4.746
4.753
4.747
4.747
4.740
4.732
4.725
4.726
4.723
4.723
4.728
4.736
4.744
4.753
4.761
4.762
4.766
4.764
4.756
4.751
4.752
4.750
4.752
4.748
4.749
4.746
4.749
4.749
4.746
4.740
4.744
4.748
4.748
4.749
4.748
4.748
4.744
4.741
4.741
4.745
4.749
4.757
4.765
4.773
4.778
4.782
4.777
4.778
4.779
4.779
4.780
4.782
4.777
4.776
4.776
4.775
4.777
4.775
4.776
4.775
4.776
4.773
4.773
4.773
4.771
4.780
4.775
4.772
4.765
4.765
4.771
4.763
4.763
4.771
4.778
4.785
4.793
4.800
4.800
4.796
4.796
4.786
4.778
4.780
4.787
4.786
4.785
4.786
4.786
4.782
4.777
4.773
4.769
4.765
4.761
4.756
4.752
4.748
4.744
4.740
4.735
4.731
4.739
4.746
4.753
4.760
4.767
4.770
4.768
4.767
4.772
4.775
4.777
4.778
4.777
4.776
4.767
4.768
4.764
4.759
4.754
4.749
4.744
4.741
4.738
4.733
4.731
4.729
4.734
4.742
4.741
4.740
4.737
4.739
4.745
4.741
4.740
4.740
4.740
4.739
4.745
4.752
4.759
4.766
4.772
4.771
4.765
4.761
4.752
4.752
4.746
4.743
4.743
4.747
4.758
4.758
4.761
4.757
4.757
4.756
4.756
4.751
4.750
4.747
4.751
4.751
4.749
4.747
4.744
4.744
4.742
4.743
4.740
4.747
4.751
4.747
4.741
4.743
4.746
4.747
4.745
4.743
4.750
4.756
4.762
4.768
4.771
4.765
4.763
4.764
4.762
4.768
4.764
4.761
4.760
4.757
4.757
4.757
4.756
4.755
4.750
4.744
4.742
4.739
4.738
4.734
4.743
4.744
4.748
4.745
4.746
4.744
4.739
4.742
4.740
4.740
4.743
4.742
4.734
4.730
4.726
4.732
4.731
4.730
4.731
4.730
4.734
4.740
4.746
4.752
4.758
4.764
4.770
4.776
4.781
4.782
4.781
4.784
4.785
4.780
4.780
4.780
4.782
4.778
4.779
4.778
4.773
4.766
4.765
4.770
4.769
4.767
4.758
4.760
4.757
4.759
4.758
4.758
4.751
4.745
4.749
4.743
4.737
4.732
4.734
4.733
4.732
4.738
4.744
4.744
4.746
4.747
4.747
4.746
4.748
4.745
4.745
4.745
4.742
4.736
4.742
4.747
4.753
4.759
4.764
4.770
4.775
4.778
4.774
4.774
4.776
4.774
4.775
4.772
4.774
4.775
4.779
4.776
4.771
4.771
4.770
4.770
4.770
4.767
4.771
4.773
4.772
4.779
4.778
4.778
4.773
4.770
4.766
4.767
4.765
4.766
4.770
4.772
4.768
4.763
4.760
4.757
4.760
4.760
4.755
4.752
4.749
4.745
4.746
4.742
4.744
4.745
4.740
4.740
4.735
4.729
4.726
4.725
4.730
4.735
4.743
4.750
4.751
4.756
4.761
4.767
4.772
4.777
4.782
4.788
4.793
4.798
4.799
4.796
4.795
4.790
4.790
4.795
4.793
4.790
4.790
4.785
4.786
4.794
4.790
4.785
4.778
4.780
4.780
4.778
4.781
4.779
4.782
4.789
4.789
4.787
4.781
4.778
4.779
4.774
4.770
4.767
4.761
4.757
4.762
4.763
4.765
4.768
4.765
4.770
4.770
4.763
4.761
4.764
4.762
4.765
4.767
4.770
4.772
4.775
4.773
4.767
4.764
4.760
4.758
4.755
4.757
4.754
4.755
4.751
4.753
4.754
4.754
4.758
4.762
4.767
4.772
4.777
4.782
4.787
4.792
4.796
4.801
4.798
4.796
4.803
4.804
4.807
4.805
4.802
4.796
4.801
4.801
4.804
4.804
4.804
4.811
4.812
4.808
4.808
