2.978
3.285
3.479
3.553
3.703
3.610
3.681
3.731
3.780
3.823
3.850
3.869
3.906
3.931
3.926
3.969
4.002
4.015
4.006
4.018
4.036
4.074
4.091
4.094
4.124
4.073
4.089
4.100
4.118
4.120
4.147
4.135
4.148
4.165
4.158
4.194
4.226
4.221
4.189
4.206
4.218
4.226
4.238
4.249
4.262
4.256
4.214
4.226
4.251
4.233
4.203
4.203
4.231
4.231
4.215
4.254
4.243
4.271
4.252
4.268
4.244
4.279
4.257
4.276
4.291
4.304
4.299
4.295
4.306
4.299
4.322
4.321
4.286
4.267
4.277
4.298
4.287
4.286
4.298
4.300
4.283
4.295
4.316
4.308
4.306
4.310
4.347
4.332
4.333
4.318
4.353
4.373
4.357
4.334
4.355
4.333
4.312
4.300
4.328
4.351
4.330
4.336
4.345
4.328
4.367
4.369
4.371
4.362
4.344
4.369
4.381
4.380
4.393
4.378
4.375
4.347
4.370
4.405
4.401
4.387
4.395
4.390
4.393
4.382
4.405
4.428
4.422
4.420
4.408
4.408
4.392
4.404
4.406
4.439
4.470
4.452
4.431
4.412
4.392
4.372
4.375
4.394
4.403
4.396
4.388
4.382
4.394
4.391
4.384
4.368
4.368
4.397
4.400
4.386
4.385
4.395
4.387
4.389
4.365
4.362
4.362
4.359
4.374
4.401
4.413
4.402
4.387
4.376
4.385
4.404
4.405
4.397
4.381
4.357
4.360
4.369
4.380
4.404
4.424
4.427
4.438
4.432
4.424
4.425
4.392
4.397
4.399
4.396
4.379
4.374
4.398
4.398
4.383
4.396
4.418
4.441
4.452
4.460
4.443
4.449
4.459
4.449
4.438
4.447
4.435
4.428
4.445
4.420
4.411
4.427
4.414
4.444
4.436
4.444
4.424
4.445
4.465
4.486
4.477
4.475
4.476
4.461
4.456
4.454
4.437
4.432
4.428
4.410
4.398
4.402
4.410
4.397
4.391
4.398
4.382
4.366
4.385
4.403
4.422
4.440
4.458
4.477
4.494
4.476
4.469
4.476
4.461
4.471
4.463
4.444
4.445
4.456
4.446
4.435
4.432
4.430
4.443
4.457
4.465
4.457
4.454
4.453
4.440
4.448
4.444
4.457
4.452
4.451
4.450
4.453
4.452
4.468
4.480
4.478
4.476
4.463
4.444
4.455
4.462
4.467
4.458
4.450
4.445
4.445
4.428
4.426
4.433
4.419
4.416
4.437
4.419
4.403
4.417
4.400
4.394
4.398
4.384
4.380
4.386
4.408
4.423
4.415
4.397
4.410
4.414
4.420
4.410
4.427
4.437
4.451
4.466
4.480
4.494
4.509
4.501
4.501
4.499
4.497
4.488
4.477
4.484
4.469
4.454
4.457
4.433
4.420
4.424
4.427
4.436
4.454
4.455
4.462
4.466
4.486
4.478
4.467
4.455
4.451
4.439
4.433
4.422
4.404
4.406
4.400
4.383
4.401
4.394
4.392
4.397
4.396
4.392
4.386
4.382
4.387
4.399
4.404
4.407
4.412
4.414
4.426
4.439
4.451
4.463
4.475
4.488
4.500
4.512
4.525
4.537
4.530
4.532
4.535
4.516
4.511
4.506
4.492
4.485
4.468
4.477
4.472
4.471
4.485
4.496
4.475
4.475
4.476
4.474
4.462
4.463
4.463
4.466
4.455
4.452
4.458
4.458
4.450
4.449
4.452
4.468
4.450
4.455
4.460
4.465
4.457
4.471
4.486
4.486
4.483
4.464
4.466
4.460
4.445
4.436
4.439
4.428
4.432
4.437
4.433
4.426
4.417
4.425
4.429
4.435
4.450
4.433
4.444
4.446
4.444
4.458
4.467
4.457
4.457
4.445
4.442
4.453
4.463
4.473
4.483
4.493
4.503
4.514
4.524
4.520
4.528
4.516
4.493
4.490
4.494
4.480
4.480
4.463
4.450
4.459
4.472
4.464
4.470
4.484
4.495
4.493
4.483
4.479
4.476
4.471
4.482
4.470
4.464
4.482
4.475
4.487
4.488
4.477
4.463
4.469
4.466
4.462
4.452
4.462
4.457
4.450
4.452
4.444
4.445
4.446
4.444
4.434
4.416
4.432
4.425
4.437
4.426
4.426
4.409
4.423
4.425
4.422
4.406
4.412
4.410
4.399
4.415
4.413
4.420
4.411
4.410
4.402
4.411
4.414
4.405
4.407
4.408
4.397
4.401
4.405
4.396
4.397
4.410
4.420
4.429
4.438
4.450
4.447
4.451
4.455
4.462
4.447
4.438
4.448
4.447
4.441
4.435
4.450
4.435
4.442
4.435
4.434
4.434
4.443
4.438
4.432
4.436
4.428
4.434
4.442
4.450
4.458
4.466
4.475
4.483
4.491
4.499
4.507
4.515
4.523
4.532
4.540
4.528
4.525
4.517
4.523
4.517
4.506
4.515
4.509
4.524
4.531
4.529
4.530
4.532
4.516
4.515
4.506
4.493
4.491
4.497
4.503
4.505
4.497
4.504
4.495
4.489
4.482
4.484
4.481
4.472
4.476
4.489
4.484
4.497
4.505
4.510
4.521
4.515
4.499
4.492
4.496
4.495
4.496
4.500
4.511
4.516
4.507
4.496
4.483
4.482
4.479
4.486
4.484
4.494
4.490
4.494
4.491
4.501
4.506
4.510
4.523
4.516
4.511
4.499
4.483
4.474
4.483
4.485
4.484
4.489
4.494
4.486
4.475
4.467
4.472
4.470
4.480
4.482
4.493
4.483
4.471
4.465
4.456
4.470
4.456
4.451
4.451
4.445
4.454
4.442
4.444
4.437
4.430
4.423
4.415
4.412
4.428
4.417
4.420
4.432
4.436
4.436
4.434
4.431
4.424
4.437
4.435
4.426
4.427
4.423
4.419
4.422
4.434
4.445
4.444
4.433
4.431
4.430
4.418
4.421
4.419
4.416
4.420
4.414
4.414
4.404
4.395
4.386
4.389
4.393
4.397
4.404
4.410
4.404
4.403
4.393
4.392
4.390
4.392
4.386
4.388
4.390
4.387
4.391
4.380
4.381
4.378
4.378
4.381
4.372
4.378
4.378
4.375
4.373
4.375
4.378
4.373
4.379
4.388
4.384
4.382
4.388
4.394
4.400
4.407
4.413
4.419
4.425
4.431
4.437
4.443
4.449
4.455
4.462
4.468
4.474
4.480
4.486
4.492
4.498
4.505
4.511
4.517
4.523
4.529
4.535
4.541
4.547
4.554
4.560
4.566
4.572
4.578
4.584
4.590
4.597
4.602
4.603
4.599
4.588
4.576
4.571
4.565
4.566
4.568
4.565
4.569
4.568
4.561
4.549
4.550
4.549
4.542
4.532
4.536
4.536
4.529
4.527
4.522
4.521
4.514
4.517
4.515
4.511
4.515
4.518
4.518
4.525
4.519
4.512
4.518
4.523
4.518
4.523
4.533
4.540
4.533
4.533
4.533
4.534
4.530
4.528
4.525
4.517
4.509
4.500
4.503
4.517
4.522
4.513
4.509
4.507
4.518
4.522
4.525
4.522
4.518
4.521
4.514
4.518
4.528
4.532
4.534
4.539
4.534
4.524
4.518
4.515
4.512
4.506
4.505
4.501
4.496
4.500
4.504
4.498
4.493
4.500
4.501
4.504
4.492
4.487
4.490
4.484
4.478
4.477
4.472
4.461
4.458
4.458
4.466
4.479
4.471
4.458
4.463
4.461
4.464
4.456
4.459
4.453
4.461
4.464
4.472
4.457
4.456
4.457
4.449
4.453
4.447
4.441
4.435
4.429
4.423
4.417
4.413
4.412
4.404
4.393
4.401
4.406
4.417
4.418
4.406
4.397
4.398
4.404
4.409
4.411
4.413
4.410
4.415
4.409
4.406
4.405
4.407
4.407
4.409
4.398
4.408
4.402
4.402
4.401
4.403
4.400
4.405
4.406
4.410
4.420
4.412
4.410
4.409
4.405
4.413
4.423
4.426
4.433
4.440
4.447
4.454
4.461
4.468
4.472
4.463
4.453
4.455
4.460
4.457
4.447
4.448
4.457
4.462
4.461
4.457
4.458
4.452
4.451
4.444
4.442
4.447
4.443
4.452
4.452
4.464
4.470
4.472
4.471
4.470
4.462
4.468
4.460
4.459
4.453
4.441
4.434
4.438
4.439
4.443
4.448
4.439
4.439
4.436
4.439
4.447
4.448
4.444
4.441
4.438
4.430
4.429
4.426
4.422
4.432
4.437
4.437
4.432
4.436
4.434
4.436
4.423
4.425
4.419
4.423
4.419
4.417
4.420
4.427
4.427
4.431
4.435
4.429
4.437
4.435
4.435
4.435
4.430
4.428
4.423
4.428
4.419
4.425
4.428
4.426
4.426
4.420
4.420
4.418
