2.991
3.324
3.513
3.636
3.727
3.758
3.849
3.868
3.931
3.912
3.957
4.000
4.029
4.064
4.093
4.101
4.039
4.054
4.070
4.083
4.095
4.109
4.131
4.134
4.152
4.161
4.174
4.174
4.192
4.208
4.206
4.216
4.230
4.246
4.241
4.250
4.259
4.274
4.282
4.274
4.285
4.297
4.301
4.310
4.318
4.313
4.312
4.324
4.332
4.334
4.344
4.351
4.355
4.364
4.371
4.356
4.354
4.358
4.370
4.379
4.375
4.382
4.393
4.399
4.408
4.405
4.407
4.416
4.422
4.427
4.435
4.418
4.402
4.415
4.417
4.424
4.422
4.438
4.433
4.435
4.443
4.439
4.449
4.456
4.451
4.467
4.466
4.461
4.473
4.463
4.468
4.476
4.483
4.491
4.491
4.499
4.501
4.508
4.496
4.504
4.497
4.503
4.501
4.482
4.481
4.484
4.493
4.491
4.487
4.491
4.495
4.505
4.510
4.506
4.498
4.492
4.503
4.505
4.508
4.506
4.510
4.520
4.520
4.523
4.529
4.533
4.525
4.529
4.527
4.538
4.534
4.544
4.547
4.547
4.553
4.538
4.543
4.549
4.533
4.542
4.547
4.549
4.544
4.549
4.552
4.565
4.563
4.571
4.566
4.577
4.572
4.576
4.569
4.574
4.579
4.574
4.584
4.577
4.592
4.593
4.585
4.599
4.589
4.603
4.602
4.593
4.591
4.593
4.601
4.596
4.591
4.595
4.582
4.601
4.595
4.592
4.608
4.608
4.606
4.614
4.617
4.608
4.616
4.627
4.623
4.617
4.633
4.631
4.624
4.635
4.637
4.628
4.618
4.608
4.598
4.588
4.583
4.594
4.596
4.594
4.590
4.605
4.595
4.593
4.591
4.610
4.605
4.597
4.599
4.616
4.612
4.618
4.615
4.619
4.624
4.618
4.621
4.617
4.616
4.604
4.603
4.612
4.606
4.605
4.602
4.604
4.607
4.603
4.597
4.596
4.607
4.599
4.602
4.604
4.598
4.615
4.617
4.612
4.619
4.612
4.618
4.627
4.623
4.619
4.623
4.618
4.631
4.618
4.623
4.624
4.617
4.626
4.635
4.634
4.625
4.627
4.623
4.632
4.647
4.648
4.649
4.640
4.637
4.636
4.651
4.657
4.651
4.638
4.632
4.632
4.647
4.642
4.643
4.639
4.638
4.630
4.639
4.646
4.652
4.650
4.643
4.638
4.641
4.642
4.658
4.664
4.657
4.665
4.657
4.650
4.641
4.655
4.667
4.666
4.660
4.661
4.662
4.656
4.657
4.662
4.678
4.686
4.685
4.681
4.678
4.672
4.668
4.665
4.678
4.693
4.684
4.677
4.681
4.675
4.676
4.676
4.680
4.687
4.692
4.683
4.675
4.666
4.658
4.649
4.659
4.672
4.666
4.673
4.671
4.664
4.658
4.653
4.655
4.655
4.668
4.662
4.660
4.659
4.660
4.657
4.651
4.653
4.646
4.656
4.670
4.675
4.675
4.678
4.676
4.670
4.669
4.669
4.670
4.659
4.663
4.676
4.674
4.673
4.678
4.677
4.675
4.673
4.673
4.668
4.656
4.661
4.673
4.675
4.677
4.675
4.669
4.675
4.678
4.674
4.670
4.669
4.665
4.662
4.674
4.687
4.697
4.703
4.695
4.695
4.691
4.688
4.686
4.686
4.681
4.680
4.674
4.678
4.690
4.702
4.693
4.692
4.686
4.689
4.685
4.684
4.687
4.684
4.680
4.683
4.684
4.685
4.694
4.706
4.712
4.711
4.711
4.709
4.707
4.708
4.714
4.714
4.712
4.706
4.700
4.699
4.701
4.698
4.709
4.720
4.722
4.722
4.720
4.714
4.718
4.718
4.715
4.710
4.702
4.701
4.701
4.706
4.704
4.701
4.707
4.708
4.703
4.706
4.715
4.713
4.714
4.708
4.697
4.697
4.693
4.695
4.693
4.687
4.684
4.692
4.702
4.712
4.710
4.708
4.702
4.706
4.709
4.702
4.703
4.711
4.709
4.706
4.704
4.704
4.710
4.706
4.704
4.699
4.699
4.709
4.719
4.722
4.719
4.713
4.720
4.721
4.716
4.713
4.712
4.711
4.711
4.712
4.711
4.721
4.727
4.720
4.715
4.713
4.711
4.711
4.720
4.729
4.735
4.731
4.734
4.737
4.727
4.735
4.740
4.737
4.733
4.736
4.739
4.734
4.732
4.736
4.735
4.731
4.725
4.723
4.726
4.726
4.723
4.733
4.742
4.750
4.753
4.750
4.756
4.753
4.750
4.749
4.743
4.739
4.736
4.741
4.736
4.738
4.735
4.735
4.734
4.735
4.729
4.721
4.714
4.718
4.727
4.735
4.744
4.752
4.752
4.751
4.747
4.748
4.744
4.740
4.736
4.739
4.741
4.739
4.735
4.733
4.734
4.728
4.731
4.736
4.735
4.735
4.734
4.732
4.729
4.729
4.729
4.736
4.745
4.753
4.761
4.765
4.764
4.762
4.762
4.764
4.762
4.763
4.772
4.770
4.767
4.767
4.766
4.764
4.762
4.762
4.762
4.755
4.754
4.755
4.753
4.759
4.760
4.765
4.760
4.764
4.760
4.760
4.756
4.764
4.772
4.780
4.783
4.790
4.790
4.781
4.782
4.775
4.776
4.771
4.766
4.770
4.776
4.775
4.771
4.776
4.778
4.774
4.769
4.765
4.760
4.756
4.751
4.747
4.742
4.738
4.734
4.736
4.743
4.751
4.758
4.758
4.755
4.758
4.759
4.759
4.762
4.761
4.761
4.761
4.757
4.756
4.755
4.754
4.754
4.752
4.746
4.741
4.736
4.731
4.725
4.724
4.726
4.726
4.729
4.727
4.726
4.725
4.729
4.726
4.724
4.729
4.736
4.743
4.750
4.757
4.764
4.762
4.752
4.750
4.749
4.748
4.745
4.737
4.731
4.738
4.748
4.752
4.748
4.741
4.738
4.740
4.740
4.737
4.733
4.737
4.737
4.737
4.735
4.730
4.727
4.724
4.732
4.730
4.736
4.730
4.727
4.731
4.731
4.735
4.744
4.737
4.742
4.748
4.755
4.762
4.768
4.772
4.766
4.760
4.754
4.753
4.747
4.749
4.749
4.753
4.751
4.747
4.742
4.735
4.735
4.733
4.733
4.728
4.727
4.730
4.734
4.735
4.732
4.731
4.731
4.728
4.730
4.725
4.729
4.732
4.729
4.724
4.725
4.721
4.715
4.716
4.716
4.722
4.728
4.735
4.741
4.747
4.753
4.760
4.766
4.769
4.770
4.766
4.768
4.768
4.766
4.770
4.775
4.773
4.771
4.766
4.767
4.767
4.766
4.763
4.759
4.751
4.748
4.748
4.749
4.743
4.740
4.743
4.743
4.742
4.742
4.737
4.731
4.735
4.731
4.727
4.723
4.727
4.731
4.731
4.734
4.731
4.728
4.733
4.733
4.731
4.729
4.726
4.729
4.735
4.741
4.747
4.753
4.759
4.765
4.768
4.766
4.765
4.764
4.760
4.763
4.762
4.765
4.764
4.768
4.766
4.761
4.758
4.755
4.755
4.755
4.755
4.756
4.758
4.766
4.768
4.770
4.769
4.767
4.764
4.759
4.753
4.750
4.754
4.757
4.754
4.751
4.753
4.749
4.750
4.752
4.751
4.751
4.748
4.742
4.736
4.729
4.729
4.727
4.724
4.726
4.725
4.720
4.719
4.724
4.730
4.735
4.741
4.746
4.752
4.757
4.763
4.768
4.774
4.780
4.785
4.789
4.786
4.786
4.785
4.782
4.782
4.779
4.777
4.775
4.773
4.775
4.777
4.778
4.772
4.772
4.768
4.770
4.769
4.769
4.767
4.770
4.772
4.773
4.773
4.771
4.769
4.768
4.761
4.761
4.759
4.758
4.754
4.754
4.753
4.755
4.751
4.755
4.752
4.752
4.747
4.750
4.747
4.749
4.751
4.759
4.758
4.761
4.761
4.761
4.757
4.754
4.747
4.741
4.742
4.740
4.739
4.741
4.743
4.747
4.752
4.757
4.762
4.767
4.772
4.777
4.783
4.788
4.793
4.792
4.788
4.791
4.793
4.794
4.792
4.790
4.793
4.794
4.793
4.786
4.790
4.797
4.799
4.798
4.797
4.801
4.796
4.795
4.787
4.783
4.780
4.785
4.775
4.780
4.782
4.782
4.782
4.787
4.784
4.784
4.783
4.783
4.781
4.782
4.780
4.774
4.779
4.784
4.785
4.783
4.778
4.777
4.778
4.778
4.778
4.778
4.777
4.777
4.778
4.775
4.775
4.771
4.767
4.769
4.767
4.774
4.779
4.773
4.766
4.768
4.766
4.771
4.773
4.776
4.775
4.773
4.773
4.772
4.771
