2.980
3.310
3.460
3.603
3.644
3.745
3.837
3.743
3.794
3.828
3.865
3.891
3.914
3.937
3.963
3.979
4.016
4.033
4.035
4.062
4.079
4.070
4.089
4.105
4.125
4.139
4.156
4.135
4.141
4.157
4.166
4.184
4.183
4.198
4.223
4.240
4.222
4.237
4.250
4.212
4.229
4.239
4.222
4.242
4.250
4.251
4.273
4.277
4.288
4.282
4.272
4.289
4.290
4.304
4.305
4.307
4.332
4.332
4.353
4.360
4.343
4.337
4.336
4.340
4.367
4.371
4.374
4.386
4.391
4.377
4.396
4.381
4.355
4.330
4.356
4.351
4.376
4.364
4.379
4.361
4.333
4.341
4.336
4.370
4.354
4.373
4.367
4.363
4.378
4.363
4.396
4.392
4.382
4.407
4.398
4.394
4.391
4.371
4.406
4.407
4.394
4.411
4.408
4.401
4.408
4.436
4.432
4.416
4.439
4.439
4.432
4.420
4.454
4.449
4.445
4.432
4.425
4.410
4.397
4.434
4.432
4.417
4.413
4.426
4.437
4.439
4.411
4.412
4.443
4.421
4.426
4.426
4.417
4.448
4.443
4.449
4.435
4.433
4.440
4.458
4.464
4.465
4.453
4.465
4.451
4.482
4.474
4.478
4.473
4.469
4.462
4.476
4.494
4.472
4.453
4.445
4.434
4.456
4.468
4.487
4.478
4.468
4.452
4.449
4.449
4.476
4.494
4.493
4.485
4.472
4.468
4.465
4.468
4.475
4.501
4.515
4.506
4.510
4.507
4.516
4.491
4.497
4.480
4.504
4.523
4.521
4.499
4.492
4.484
4.478
4.486
4.478
4.486
4.509
4.521
4.528
4.524
4.525
4.527
4.520
4.517
4.526
4.515
4.516
4.525
4.533
4.555
4.554
4.548
4.543
4.535
4.532
4.541
4.551
4.529
4.511
4.511
4.528
4.549
4.552
4.539
4.535
4.528
4.524
4.531
4.530
4.519
4.504
4.489
4.493
4.513
4.526
4.518
4.506
4.518
4.508
4.511
4.520
4.523
4.509
4.515
4.498
4.502
4.484
4.490
4.503
4.521
4.530
4.522
4.525
4.507
4.508
4.492
4.509
4.509
4.506
4.513
4.509
4.512
4.499
4.495
4.491
4.490
4.508
4.524
4.542
4.549
4.532
4.524
4.532
4.523
4.521
4.514
4.508
4.492
4.493
4.501
4.491
4.497
4.513
4.508
4.508
4.504
4.500
4.516
4.531
4.547
4.542
4.532
4.533
4.531
4.529
4.526
4.528
4.536
4.530
4.528
4.525
4.530
4.522
4.513
4.512
4.503
4.511
4.504
4.503
4.504
4.509
4.517
4.531
4.546
4.560
4.575
4.580
4.559
4.561
4.559
4.565
4.564
4.558
4.558
4.539
4.535
4.532
4.533
4.542
4.546
4.543
4.533
4.547
4.547
4.542
4.538
4.531
4.531
4.534
4.524
4.526
4.539
4.553
4.566
4.579
4.593
4.602
4.595
4.596
4.598
4.611
4.610
4.611
4.603
4.593
4.592
4.589
4.579
4.573
4.564
4.557
4.548
4.547
4.547
4.561
4.557
4.548
4.551
4.556
4.551
4.543
4.532
4.521
4.513
4.526
4.538
4.550
4.562
4.574
4.564
4.572
4.575
4.580
4.586
4.585
4.567
4.561
4.552
4.552
4.553
4.546
4.563
4.567
4.559
4.557
4.556
4.543
4.542
4.551
4.543
4.553
4.548
4.540
4.544
4.536
4.538
4.534
4.538
4.527
4.519
4.511
4.520
4.512
4.522
4.526
4.529
4.545
4.541
4.552
4.563
4.574
4.585
4.596
4.607
4.618
4.628
4.631
4.631
4.623
4.618
4.622
4.632
4.633
4.623
4.610
4.609
4.607
4.608
4.607
4.611
4.611
4.608
4.598
4.607
4.599
4.591
4.584
4.576
4.577
4.575
4.563
4.550
4.545
4.545
4.550
4.545
4.544
4.539
4.543
4.537
4.525
4.521
4.511
4.516
4.508
4.505
4.510
4.520
4.530
4.540
4.549
4.559
4.569
4.578
4.588
4.588
4.577
4.575
4.574
4.579
4.585
4.584
4.579
4.583
4.594
4.585
4.589
4.592
4.581
4.573
4.576
4.582
4.569
4.569
4.569
4.563
4.565
4.570
4.558
4.556
4.561
4.566
4.581
4.583
4.572
4.580
4.585
4.588
4.577
4.579
4.583
4.579
4.575
4.573
4.561
4.554
4.549
4.547
4.551
4.542
4.541
4.553
4.548
4.546
4.546
4.553
4.544
4.542
4.542
4.535
4.533
4.540
4.535
4.543
4.546
4.537
4.539
4.548
4.556
4.565
4.573
4.582
4.590
4.599
4.607
4.616
4.620
4.622
4.625
4.619
4.619
4.613
4.616
4.612
4.611
4.618
4.617
4.608
4.598
4.590
4.582
4.576
4.567
4.562
4.569
4.568
4.565
4.558
4.561
4.561
4.571
4.582
4.582
4.576
4.581
4.578
4.575
4.569
4.568
4.568
4.567
4.572
4.578
4.578
4.577
4.579
4.575
4.577
4.574
4.571
4.571
4.568
4.576
4.573
4.571
4.566
4.557
4.554
4.553
4.558
4.548
4.560
4.553
4.554
4.547
4.548
4.540
4.537
4.530
4.529
4.526
4.531
4.522
4.514
4.526
4.528
4.522
4.523
4.527
4.535
4.525
4.531
4.531
4.536
4.539
4.548
4.559
4.557
4.558
4.566
4.573
4.580
4.587
4.595
4.602
4.609
4.616
4.624
4.631
4.638
4.646
4.653
4.652
4.645
4.639
4.647
4.640
4.638
4.628
4.625
4.630
4.627
4.620
4.621
4.628
4.623
4.626
4.624
4.633
4.642
4.641
4.645
4.638
4.633
4.623
4.615
4.605
4.594
4.595
4.591
4.583
4.593
4.604
4.604
4.606
4.602
4.607
4.614
4.611
4.603
4.593
4.590
4.583
4.583
4.579
4.573
4.582
4.581
4.581
4.587
4.600
4.605
4.600
4.604
4.598
4.593
4.594
4.594
4.589
4.591
4.600
4.609
4.617
4.621
4.614
4.610
4.609
4.608
4.596
4.596
4.589
4.582
4.574
4.579
4.579
4.573
4.566
4.573
4.571
4.573
4.569
4.566
4.562
4.557
4.565
4.564
4.555
4.547
4.548
4.559
4.563
4.567
4.565
4.560
4.554
4.548
4.543
4.537
4.541
4.543
4.544
4.535
4.534
4.537
4.539
4.540
4.541
4.530
4.524
4.530
4.536
4.542
4.548
4.554
4.561
4.566
4.573
4.579
4.585
4.591
4.597
4.603
4.609
4.615
4.621
4.626
4.621
4.619
4.616
4.621
4.625
4.627
4.626
4.617
4.615
4.624
4.608
4.600
4.594
4.599
4.596
4.589
4.587
4.589
4.591
4.593
4.591
4.594
4.603
4.611
4.613
4.608
4.604
4.614
4.610
4.611
4.618
4.615
4.615
4.618
4.607
4.613
4.603
4.607
4.609
4.603
4.598
4.607
4.616
4.611
4.615
4.612
4.613
4.611
4.610
4.600
4.595
4.600
4.597
4.596
4.591
4.594
4.586
4.589
4.593
4.589
4.586
4.582
4.585
4.579
4.580
4.588
4.586
4.587
4.583
4.577
4.573
4.576
4.577
4.576
4.568
4.576
4.565
4.560
4.564
4.561
4.569
4.560
4.560
4.558
4.567
4.564
4.552
4.557
4.561
4.555
4.555
4.561
4.556
4.563
4.561
4.567
4.566
4.569
4.556
4.553
4.563
4.551
4.550
4.548
4.549
4.555
4.558
4.564
4.565
4.556
4.554
4.554
4.559
4.557
4.552
4.565
4.553
4.547
4.547
4.553
4.558
4.562
4.563
4.560
4.565
4.556
4.561
4.558
4.562
4.570
4.568
4.575
4.582
4.582
4.578
4.587
4.575
4.578
4.570
4.565
4.568
4.573
4.570
4.564
4.557
4.551
4.547
4.538
4.535
4.530
4.535
4.534
4.540
4.546
4.543
4.533
4.534
4.535
4.533
4.535
4.539
4.537
4.539
4.533
4.536
4.529
4.522
4.514
4.520
4.524
4.529
4.533
4.538
4.543
4.548
4.553
4.558
4.563
4.567
4.572
4.577
4.582
4.587
4.591
4.596
4.601
4.606
4.611
4.616
4.620
4.625
4.630
4.635
4.640
4.645
4.650
4.652
4.649
4.647
4.653
4.645
4.647
4.655
4.653
4.660
4.669
4.673
4.679
4.670
4.668
4.667
4.663
4.657
4.657
4.649
4.645
4.647
4.650
4.650
4.655
4.652
4.654
4.654
4.644
4.645
4.644
4.651
4.646
4.644
4.646
4.651
4.645
4.645
4.641
4.641
4.636
4.632
