2.993
3.326
3.513
3.624
3.704
3.771
3.804
3.881
3.904
3.918
3.964
4.003
4.044
4.076
4.061
4.007
4.026
4.044
4.062
4.083
4.097
4.109
4.132
4.136
4.152
4.157
4.171
4.186
4.190
4.202
4.214
4.214
4.227
4.233
4.250
4.246
4.249
4.261
4.273
4.285
4.292
4.287
4.292
4.299
4.310
4.310
4.324
4.327
4.338
4.345
4.335
4.334
4.343
4.350
4.353
4.352
4.367
4.369
4.382
4.378
4.386
4.393
4.398
4.405
4.405
4.384
4.383
4.387
4.403
4.404
4.412
4.406
4.407
4.415
4.422
4.427
4.426
4.441
4.443
4.441
4.438
4.446
4.454
4.462
4.458
4.463
4.474
4.476
4.490
4.473
4.476
4.477
4.482
4.474
4.457
4.455
4.460
4.465
4.462
4.468
4.472
4.483
4.490
4.486
4.478
4.475
4.473
4.477
4.490
4.492
4.487
4.496
4.509
4.505
4.502
4.500
4.511
4.507
4.521
4.517
4.524
4.528
4.520
4.519
4.525
4.513
4.521
4.526
4.521
4.533
4.526
4.537
4.536
4.546
4.540
4.550
4.550
4.554
4.545
4.556
4.549
4.564
4.556
4.568
4.567
4.565
4.574
4.568
4.583
4.580
4.573
4.571
4.575
4.578
4.565
4.566
4.566
4.578
4.574
4.571
4.589
4.591
4.581
4.597
4.591
4.589
4.609
4.590
4.595
4.613
4.604
4.600
4.619
4.609
4.601
4.592
4.581
4.570
4.565
4.569
4.582
4.573
4.571
4.576
4.579
4.571
4.579
4.584
4.582
4.575
4.590
4.603
4.599
4.593
4.599
4.606
4.602
4.596
4.591
4.584
4.580
4.582
4.591
4.590
4.574
4.580
4.579
4.582
4.578
4.575
4.593
4.583
4.581
4.583
4.587
4.603
4.604
4.593
4.593
4.595
4.614
4.606
4.599
4.591
4.598
4.613
4.605
4.600
4.599
4.599
4.615
4.617
4.616
4.609
4.614
4.613
4.630
4.625
4.631
4.624
4.623
4.620
4.624
4.613
4.615
4.608
4.609
4.623
4.620
4.619
4.610
4.612
4.623
4.622
4.636
4.630
4.633
4.631
4.633
4.628
4.632
4.639
4.630
4.626
4.633
4.632
4.626
4.636
4.648
4.653
4.653
4.647
4.657
4.647
4.648
4.651
4.659
4.661
4.659
4.663
4.655
4.650
4.644
4.659
4.675
4.671
4.660
4.658
4.663
4.657
4.653
4.644
4.639
4.641
4.638
4.632
4.632
4.639
4.638
4.650
4.638
4.633
4.636
4.630
4.627
4.628
4.625
4.640
4.650
4.646
4.648
4.642
4.637
4.638
4.644
4.646
4.642
4.649
4.655
4.651
4.652
4.653
4.642
4.639
4.642
4.641
4.646
4.649
4.654
4.652
4.647
4.640
4.644
4.644
4.644
4.641
4.640
4.642
4.653
4.662
4.668
4.669
4.664
4.662
4.662
4.660
4.662
4.666
4.660
4.657
4.662
4.673
4.676
4.677
4.678
4.674
4.671
4.658
4.652
4.653
4.651
4.659
4.659
4.672
4.685
4.684
4.680
4.682
4.678
4.676
4.684
4.683
4.685
4.681
4.677
4.677
4.677
4.683
4.696
4.707
4.701
4.702
4.693
4.689
4.689
4.687
4.686
4.686
4.685
4.687
4.685
4.682
4.694
4.698
4.689
4.683
4.683
4.677
4.683
4.678
4.672
4.678
4.674
4.669
4.673
4.669
4.680
4.688
4.683
4.676
4.674
4.679
4.677
4.674
4.682
4.685
4.673
4.675
4.673
4.677
4.677
4.670
4.676
4.687
4.698
4.695
4.692
4.693
4.698
4.693
4.688
4.685
4.681
4.679
4.679
4.684
4.693
4.693
4.685
4.685
4.687
4.690
4.700
4.711
4.710
4.703
4.708
4.709
4.709
4.709
4.708
4.703
4.705
4.706
4.701
4.700
4.705
4.706
4.706
4.705
4.711
4.706
4.707
4.717
4.727
4.733
4.739
4.734
4.734
4.724
4.719
4.720
4.720
4.718
4.728
4.717
4.716
4.712
4.711
4.712
4.702
4.700
4.696
4.705
4.715
4.724
4.720
4.728
4.727
4.726
4.722
4.715
4.716
4.712
4.713
4.716
4.711
4.707
4.707
4.704
4.710
4.710
4.711
4.710
4.706
4.699
4.704
4.713
4.723
4.732
4.741
4.743
4.741
4.741
4.743
4.736
4.733
4.741
4.736
4.734
4.735
4.740
4.745
4.744
4.744
4.738
4.732
4.726
4.723
4.726
4.726
4.728
4.732
4.733
4.740
4.750
4.744
4.753
4.761
4.762
4.761
4.760
4.752
4.753
4.751
4.748
4.749
4.748
4.752
4.750
4.747
4.749
4.755
4.750
4.747
4.739
4.738
4.745
4.748
4.745
4.741
4.737
4.729
4.732
4.730
4.732
4.725
4.737
4.738
4.740
4.736
4.734
4.733
4.729
4.726
4.732
4.729
4.726
4.728
4.727
4.723
4.730
4.727
4.724
4.720
4.722
4.716
4.710
4.705
4.700
4.700
4.705
4.713
4.721
4.728
4.736
4.741
4.739
4.734
4.728
4.728
4.723
4.723
4.718
4.715
4.721
4.730
4.724
4.717
4.715
4.718
4.720
4.712
4.708
4.706
4.708
4.711
4.704
4.702
4.701
4.701
4.708
4.706
4.702
4.700
4.702
4.711
4.714
4.720
4.728
4.735
4.742
4.750
4.747
4.748
4.744
4.747
4.741
4.744
4.743
4.741
4.738
4.732
4.727
4.722
4.718
4.718
4.711
4.706
4.709
4.713
4.714
4.714
4.709
4.703
4.699
4.705
4.699
4.706
4.703
4.700
4.697
4.694
4.695
4.696
4.703
4.710
4.717
4.724
4.731
4.738
4.741
4.746
4.741
4.737
4.736
4.737
4.738
4.748
4.746
4.744
4.745
4.748
4.747
4.749
4.746
4.744
4.748
4.741
4.737
4.736
4.731
4.723
4.724
4.716
4.713
4.710
4.713
4.715
4.710
4.716
4.714
4.716
4.720
4.715
4.709
4.702
4.705
4.702
4.700
4.706
4.712
4.719
4.726
4.732
4.738
4.745
4.751
4.749
4.751
4.747
4.742
4.740
4.741
4.742
4.742
4.741
4.739
4.735
4.734
4.730
4.730
4.727
4.731
4.738
4.737
4.739
4.740
4.740
4.740
4.736
4.733
4.730
4.733
4.736
4.734
4.731
4.726
4.728
4.728
4.730
4.736
4.731
4.723
4.724
4.720
4.718
4.720
4.716
4.710
4.708
4.706
4.712
4.718
4.724
4.730
4.737
4.743
4.749
4.755
4.761
4.762
4.763
4.765
4.767
4.767
4.762
4.759
4.760
4.760
4.755
4.753
4.752
4.751
4.746
4.744
4.739
4.740
4.741
4.742
4.743
4.749
4.750
4.748
4.742
4.736
4.740
4.732
4.734
4.736
4.735
4.739
4.744
4.742
4.747
4.739
4.740
4.733
4.725
4.721
4.720
4.725
4.728
4.726
4.727
4.729
4.727
4.727
4.723
4.725
4.724
4.723
4.723
4.724
4.730
4.736
4.741
4.747
4.753
4.758
4.764
4.770
4.776
4.776
4.773
4.767
4.774
4.779
4.773
4.767
4.768
4.770
4.767
4.771
4.776
4.779
4.778
4.774
4.768
4.764
4.762
4.762
4.764
4.763
4.766
4.759
4.757
4.755
4.758
4.753
4.753
4.752
4.750
4.746
4.748
4.749
4.751
4.757
4.763
4.765
4.760
4.760
4.754
4.757
4.757
4.758
4.754
4.748
4.749
4.744
4.742
4.741
4.748
4.750
4.758
4.756
4.755
4.750
4.749
4.744
4.750
4.748
4.747
4.742
4.743
4.751
4.752
4.751
4.757
4.762
4.767
4.773
4.778
4.783
4.788
4.794
4.799
4.804
4.807
4.806
4.803
4.803
4.798
4.804
4.806
4.806
4.805
4.803
4.805
4.806
4.804
4.802
4.799
4.794
4.789
4.784
4.778
4.775
4.772
4.776
4.776
4.772
4.775
4.774
4.781
4.789
4.787
4.781
4.776
4.774
4.773
4.777
4.782
4.785
4.783
4.772
4.772
4.767
4.766
4.773
4.774
4.774
4.768
4.761
4.760
4.762
4.759
4.755
4.751
4.747
4.742
4.739
4.736
4.737
4.740
4.741
4.738
4.739
4.733
4.727
4.721
4.718
4.720
4.723
4.728
4.733
4.738
4.742
4.747
4.752
4.757
4.762
4.767
4.771
4.776
4.781
4.786
4.787
4.792
4.794
4.791
4.788
4.783
4.780
4.782
4.782
4.781
4.778
4.777
4.781
