2.992
3.335
3.513
3.632
3.717
3.790
3.831
3.875
3.941
3.960
4.010
4.003
4.045
4.079
4.109
4.075
4.098
4.121
4.144
4.165
4.183
4.203
4.223
4.241
4.257
4.247
4.210
4.190
4.205
4.211
4.221
4.230
4.237
4.249
4.254
4.261
4.273
4.275
4.287
4.297
4.297
4.307
4.314
4.312
4.319
4.329
4.339
4.340
4.339
4.353
4.357
4.364
4.371
4.362
4.371
4.376
4.385
4.389
4.396
4.390
4.393
4.401
4.405
4.411
4.420
4.420
4.427
4.431
4.420
4.425
4.432
4.434
4.438
4.445
4.445
4.453
4.457
4.463
4.465
4.469
4.456
4.460
4.462
4.466
4.470
4.472
4.481
4.485
4.487
4.490
4.490
4.497
4.503
4.504
4.506
4.507
4.512
4.505
4.497
4.501
4.506
4.504
4.509
4.515
4.517
4.518
4.520
4.527
4.525
4.527
4.531
4.532
4.539
4.543
4.545
4.548
4.553
4.545
4.553
4.553
4.553
4.564
4.566
4.567
4.569
4.570
4.557
4.553
4.549
4.554
4.553
4.549
4.553
4.556
4.558
4.562
4.568
4.568
4.572
4.575
4.577
4.571
4.579
4.579
4.582
4.582
4.583
4.584
4.585
4.587
4.596
4.600
4.594
4.601
4.601
4.603
4.608
4.598
4.601
4.608
4.608
4.605
4.608
4.608
4.616
4.617
4.618
4.628
4.623
4.627
4.631
4.628
4.626
4.636
4.637
4.636
4.638
4.634
4.634
4.638
4.640
4.638
4.629
4.619
4.608
4.609
4.608
4.617
4.613
4.622
4.621
4.627
4.621
4.623
4.627
4.630
4.632
4.628
4.635
4.634
4.635
4.633
4.642
4.639
4.645
4.645
4.640
4.631
4.640
4.639
4.642
4.634
4.640
4.633
4.643
4.644
4.642
4.650
4.646
4.652
4.648
4.653
4.653
4.650
4.660
4.657
4.662
4.663
4.662
4.671
4.660
4.666
4.664
4.663
4.667
4.663
4.668
4.672
4.673
4.677
4.681
4.682
4.682
4.685
4.675
4.668
4.667
4.674
4.675
4.672
4.679
4.685
4.671
4.680
4.678
4.672
4.681
4.683
4.682
4.682
4.687
4.685
4.684
4.686
4.689
4.685
4.694
4.696
4.695
4.694
4.703
4.704
4.703
4.702
4.706
4.701
4.698
4.710
4.700
4.699
4.703
4.707
4.709
4.707
4.711
4.715
4.714
4.713
4.716
4.721
4.716
4.716
4.719
4.724
4.722
4.721
4.722
4.732
4.731
4.724
4.720
4.713
4.714
4.716
4.719
4.723
4.723
4.726
4.725
4.731
4.727
4.720
4.719
4.726
4.727
4.724
4.719
4.720
4.727
4.727
4.725
4.729
4.727
4.735
4.734
4.737
4.730
4.731
4.742
4.748
4.745
4.740
4.738
4.745
4.750
4.746
4.747
4.743
4.745
4.754
4.753
4.753
4.747
4.742
4.736
4.732
4.727
4.723
4.720
4.721
4.722
4.715
4.717
4.727
4.723
4.718
4.709
4.712
4.719
4.718
4.720
4.721
4.716
4.720
4.725
4.731
4.725
4.727
4.725
4.723
4.727
4.737
4.728
4.726
4.720
4.723
4.723
4.734
4.734
4.742
4.736
4.731
4.730
4.731
4.741
4.740
4.741
4.742
4.739
4.740
4.734
4.745
4.755
4.756
4.755
4.749
4.745
4.738
4.733
4.731
4.734
4.729
4.728
4.726
4.733
4.740
4.741
4.742
4.738
4.734
4.730
4.729
4.734
4.727
4.722
4.724
4.722
4.724
4.723
4.731
4.741
4.737
4.738
4.734
4.731
4.726
4.725
4.734
4.741
4.737
4.734
4.735
4.736
4.735
4.734
4.734
4.741
4.745
4.747
4.748
4.749
4.745
4.745
4.745
4.747
4.745
4.753
4.753
4.750
4.753
4.753
4.753
4.747
4.742
4.745
4.754
4.753
4.749
4.749
4.748
4.749
4.748
4.747
4.746
4.752
4.760
4.760
4.762
4.757
4.759
4.757
4.749
4.753
4.754
4.755
4.764
4.766
4.770
4.768
4.767
4.768
4.770
4.769
4.770
4.766
4.765
4.772
4.781
4.777
4.771
4.766
4.762
4.768
4.762
4.753
4.757
4.764
4.773
4.772
4.771
4.771
4.767
4.769
4.768
4.764
4.762
4.761
4.764
4.774
4.770
4.771
4.765
4.764
4.768
4.766
4.764
4.766
4.760
4.764
4.770
4.777
4.786
4.785
4.782
4.779
4.776
4.774
4.776
4.779
4.779
4.774
4.775
4.777
4.784
4.793
4.787
4.786
4.781
4.782
4.775
4.772
4.775
4.772
4.778
4.775
4.779
4.788
4.795
4.796
4.794
4.796
4.794
4.790
4.795
4.791
4.792
4.790
4.792
4.786
4.789
4.793
4.800
4.808
4.814
4.810
4.806
4.802
4.801
4.797
4.798
4.799
4.800
4.797
4.798
4.796
4.800
4.807
4.809
4.805
4.806
4.807
4.803
4.801
4.797
4.791
4.789
4.783
4.779
4.786
4.789
4.786
4.789
4.785
4.784
4.785
4.781
4.786
4.784
4.786
4.782
4.777
4.778
4.775
4.781
4.788
4.792
4.793
4.795
4.790
4.786
4.780
4.775
4.772
4.770
4.769
4.770
4.768
4.765
4.771
4.778
4.785
4.789
4.791
4.789
4.790
4.789
4.786
4.789
4.783
4.781
4.780
4.782
4.777
4.781
4.779
4.779
4.779
4.784
4.790
4.797
4.799
4.800
4.801
4.797
4.793
4.794
4.791
4.790
4.793
4.800
4.802
4.798
4.797
4.790
4.785
4.782
4.790
4.797
4.802
4.803
4.801
4.797
4.793
4.794
4.796
4.794
4.797
4.794
4.793
4.792
4.793
4.789
4.783
4.781
4.782
4.786
4.793
4.798
4.801
4.797
4.796
4.794
4.793
4.792
4.794
4.795
4.793
4.790
4.791
4.792
4.791
4.794
4.791
4.786
4.786
4.787
4.791
4.797
4.802
4.808
4.815
4.812
4.813
4.812
4.808
4.803
4.807
4.809
4.807
4.808
4.805
4.805
4.808
4.808
4.807
4.808
4.808
4.809
4.807
4.808
4.804
4.811
4.815
4.819
4.816
4.817
4.816
4.817
4.818
4.820
4.820
4.812
4.810
4.806
4.805
4.805
4.804
4.798
4.801
4.805
4.807
4.803
4.801
4.803
4.808
4.814
4.820
4.825
4.827
4.825
4.823
4.817
4.823
4.822
4.823
4.822
4.824
4.827
4.826
4.822
4.820
4.817
4.818
4.817
4.821
4.819
4.821
4.819
4.818
4.812
4.816
4.820
4.827
4.833
4.838
4.844
4.842
4.842
4.838
4.838
4.838
4.836
4.835
4.838
4.832
4.834
4.835
4.831
4.827
4.831
4.832
4.827
4.826
4.827
4.826
4.822
4.826
4.825
4.824
4.827
4.834
4.830
4.826
4.823
4.820
4.820
4.820
4.819
4.818
4.817
4.812
4.812
4.808
4.812
4.812
4.812
4.810
4.811
4.812
4.811
4.815
4.812
4.816
4.816
4.812
4.812
4.820
4.825
4.829
4.834
4.835
4.831
4.831
4.827
4.823
4.822
4.823
4.816
4.813
4.814
4.818
4.820
4.823
4.817
4.815
4.816
4.813
4.812
4.808
4.808
4.808
4.808
4.807
4.806
4.807
4.809
4.815
4.820
4.824
4.830
4.835
4.836
4.840
4.847
4.845
4.842
4.842
4.838
4.835
4.839
4.840
4.839
4.838
4.839
4.835
4.830
4.826
4.828
4.824
4.825
4.824
4.825
4.826
4.827
4.826
4.822
4.818
4.816
4.815
4.816
4.820
4.825
4.829
4.834
4.840
4.845
4.846
4.845
4.842
4.849
4.845
4.842
4.840
4.841
4.846
4.845
4.849
4.849
4.849
4.849
4.842
4.841
4.846
4.845
4.846
4.845
4.842
4.842
4.842
4.836
4.832
4.831
4.832
4.830
4.831
4.833
4.829
4.833
4.835
4.838
4.842
4.847
4.851
4.857
4.862
4.866
4.867
4.863
4.859
4.857
4.856
4.860
4.859
4.857
4.856
4.858
4.862
4.860
4.859
4.858
4.864
4.861
4.865
4.864
4.860
4.858
4.856
4.853
4.854
4.855
4.854
4.850
4.849
4.849
4.845
4.849
4.849
4.849
4.845
4.842
4.848
4.853
4.856
4.861
4.867
4.871
4.871
4.869
4.870
4.869
4.873
4.872
4.873
4.871
4.867
4.866
4.867
4.868
4.864
4.860
4.857
4.853
4.848
4.849
4.845
4.839
4.842
4.841
4.838
4.839
