2.990
3.329
3.517
3.610
3.725
3.793
3.818
3.896
3.881
3.927
3.974
4.018
4.058
4.019
3.990
4.012
4.031
4.049
4.067
4.075
4.102
4.110
4.128
4.133
4.153
4.153
4.171
4.190
4.183
4.198
4.213
4.223
4.218
4.226
4.239
4.251
4.262
4.265
4.259
4.274
4.277
4.290
4.298
4.302
4.320
4.318
4.303
4.308
4.317
4.322
4.327
4.339
4.349
4.349
4.357
4.363
4.378
4.388
4.375
4.353
4.361
4.368
4.371
4.382
4.373
4.380
4.388
4.395
4.402
4.414
4.408
4.411
4.412
4.421
4.426
4.434
4.441
4.441
4.445
4.459
4.447
4.449
4.454
4.463
4.451
4.429
4.440
4.446
4.440
4.444
4.453
4.458
4.460
4.454
4.457
4.454
4.453
4.457
4.457
4.473
4.475
4.470
4.482
4.469
4.484
4.482
4.488
4.498
4.497
4.498
4.492
4.499
4.490
4.491
4.504
4.492
4.500
4.505
4.513
4.520
4.516
4.531
4.519
4.528
4.516
4.529
4.524
4.531
4.535
4.547
4.537
4.551
4.544
4.557
4.558
4.546
4.541
4.557
4.542
4.549
4.542
4.551
4.547
4.546
4.567
4.561
4.562
4.568
4.561
4.579
4.573
4.570
4.590
4.585
4.574
4.591
4.578
4.581
4.569
4.557
4.547
4.541
4.557
4.555
4.544
4.558
4.547
4.547
4.559
4.562
4.561
4.561
4.579
4.572
4.566
4.569
4.579
4.580
4.569
4.563
4.557
4.551
4.566
4.557
4.551
4.547
4.567
4.551
4.549
4.552
4.569
4.568
4.561
4.565
4.570
4.576
4.574
4.574
4.566
4.585
4.577
4.571
4.574
4.575
4.585
4.588
4.579
4.574
4.582
4.604
4.596
4.600
4.592
4.587
4.605
4.611
4.605
4.595
4.585
4.602
4.597
4.597
4.590
4.588
4.593
4.606
4.603
4.603
4.595
4.592
4.600
4.619
4.619
4.612
4.603
4.599
4.600
4.619
4.619
4.621
4.613
4.616
4.614
4.613
4.632
4.640
4.634
4.629
4.626
4.625
4.624
4.638
4.636
4.635
4.639
4.633
4.635
4.625
4.637
4.651
4.640
4.630
4.619
4.609
4.611
4.628
4.627
4.619
4.619
4.622
4.609
4.597
4.613
4.619
4.620
4.615
4.613
4.610
4.613
4.605
4.608
4.624
4.638
4.634
4.634
4.631
4.617
4.613
4.615
4.610
4.626
4.642
4.638
4.639
4.631
4.618
4.612
4.607
4.604
4.619
4.634
4.637
4.638
4.634
4.630
4.627
4.627
4.631
4.631
4.631
4.633
4.647
4.654
4.650
4.649
4.641
4.641
4.648
4.639
4.643
4.635
4.636
4.650
4.664
4.656
4.649
4.654
4.647
4.653
4.648
4.648
4.647
4.645
4.644
4.655
4.669
4.676
4.678
4.673
4.669
4.670
4.664
4.664
4.662
4.654
4.656
4.658
4.662
4.675
4.674
4.668
4.669
4.676
4.675
4.665
4.655
4.646
4.644
4.641
4.647
4.656
4.669
4.674
4.671
4.658
4.651
4.652
4.648
4.648
4.642
4.641
4.641
4.646
4.639
4.649
4.662
4.674
4.682
4.682
4.681
4.674
4.664
4.659
4.661
4.659
4.649
4.655
4.663
4.657
4.651
4.653
4.664
4.676
4.688
4.698
4.691
4.686
4.684
4.681
4.678
4.682
4.675
4.674
4.674
4.666
4.667
4.670
4.669
4.675
4.676
4.686
4.697
4.708
4.707
4.707
4.702
4.701
4.699
4.704
4.698
4.696
4.697
4.693
4.695
4.693
4.697
4.692
4.679
4.677
4.688
4.699
4.710
4.711
4.705
4.702
4.701
4.691
4.687
4.686
4.684
4.684
4.683
4.678
4.678
4.687
4.677
4.685
4.680
4.680
4.682
4.692
4.702
4.713
4.716
4.715
4.715
4.713
4.707
4.711
4.712
4.716
4.708
4.701
4.708
4.705
4.708
4.707
4.709
4.705
4.706
4.701
4.699
4.701
4.697
4.705
4.715
4.725
4.735
4.745
4.750
4.742
4.740
4.736
4.732
4.721
4.723
4.719
4.722
4.720
4.730
4.725
4.728
4.720
4.717
4.707
4.718
4.714
4.711
4.714
4.714
4.716
4.723
4.732
4.730
4.724
4.719
4.714
4.708
4.706
4.706
4.704
4.701
4.698
4.696
4.692
4.699
4.700
4.695
4.692
4.692
4.704
4.696
4.702
4.696
4.699
4.697
4.696
4.705
4.714
4.716
4.716
4.718
4.717
4.709
4.706
4.703
4.698
4.692
4.702
4.706
4.705
4.699
4.701
4.695
4.687
4.686
4.677
4.684
4.681
4.673
4.669
4.673
4.677
4.677
4.674
4.678
4.687
4.695
4.703
4.712
4.720
4.728
4.735
4.727
4.724
4.715
4.713
4.716
4.712
4.713
4.716
4.716
4.722
4.717
4.713
4.710
4.709
4.702
4.697
4.693
4.687
4.684
4.681
4.679
4.677
4.683
4.672
4.672
4.670
4.671
4.679
4.687
4.695
4.703
4.710
4.717
4.711
4.715
4.711
4.704
4.706
4.709
4.720
4.715
4.713
4.718
4.717
4.714
4.715
4.715
4.718
4.727
4.718
4.717
4.714
4.709
4.702
4.700
4.700
4.700
4.693
4.696
4.691
4.685
4.696
4.697
4.692
4.698
4.689
4.690
4.690
4.690
4.697
4.704
4.712
4.719
4.727
4.724
4.722
4.721
4.719
4.715
4.715
4.717
4.722
4.721
4.719
4.713
4.706
4.705
4.701
4.704
4.714
4.710
4.708
4.713
4.710
4.703
4.700
4.701
4.697
4.706
4.708
4.699
4.697
4.706
4.706
4.705
4.710
4.704
4.695
4.697
4.696
4.698
4.688
4.685
4.688
4.695
4.701
4.708
4.715
4.722
4.729
4.734
4.732
4.731
4.733
4.735
4.736
4.731
4.730
4.736
4.736
4.736
4.732
4.727
4.727
4.728
4.722
4.714
4.717
4.720
4.715
4.719
4.718
4.719
4.715
4.709
4.709
4.709
4.709
4.710
4.718
4.714
4.719
4.725
4.721
4.720
4.719
4.712
4.711
4.711
4.710
4.705
4.702
4.694
4.690
4.688
4.687
4.692
4.699
4.705
4.712
4.718
4.724
4.731
4.737
4.744
4.750
4.744
4.742
4.741
4.735
4.744
4.754
4.752
4.750
4.748
4.753
4.751
4.753
4.756
4.755
4.745
4.746
4.742
4.743
4.739
4.736
4.737
4.737
4.732
4.732
4.734
4.738
4.734
4.728
4.721
4.715
4.716
4.726
4.725
4.731
4.729
4.729
4.728
4.731
4.730
4.738
4.731
4.724
4.723
4.717
4.719
4.722
4.729
4.728
4.725
4.724
4.725
4.725
4.723
4.722
4.720
4.724
4.723
4.728
4.734
4.740
4.746
4.752
4.757
4.763
4.769
4.775
4.779
4.779
4.785
4.791
4.789
4.783
4.785
4.779
4.773
4.773
4.773
4.774
4.780
4.777
4.775
4.772
4.770
4.766
4.766
4.762
4.763
4.766
4.765
4.763
4.755
4.757
4.754
4.761
4.760
4.757
4.758
4.763
4.759
4.762
4.764
4.757
4.751
4.752
4.747
4.750
4.749
4.742
4.734
4.731
4.731
4.732
4.736
4.735
4.730
4.736
4.737
4.736
4.736
4.736
4.731
4.726
4.722
4.717
4.712
4.707
4.708
4.713
4.719
4.724
4.729
4.735
4.740
4.746
4.751
4.752
4.761
4.755
4.763
4.771
4.773
4.776
4.772
4.769
4.764
4.757
4.757
4.755
4.757
4.758
4.759
4.762
4.757
4.753
4.747
4.750
4.746
4.744
4.746
4.748
4.742
4.737
4.735
4.735
4.737
4.733
4.731
4.729
4.734
4.730
4.736
4.737
4.736
4.735
4.738
4.735
4.727
4.726
4.726
4.722
4.725
4.731
4.730
4.729
4.724
4.727
4.734
4.740
4.739
4.735
4.734
4.731
4.735
4.733
4.732
4.732
4.732
4.725
4.726
4.726
4.718
4.718
4.715
4.716
4.715
4.706
4.710
4.708
4.712
4.712
4.713
4.716
4.718
4.715
4.714
4.721
4.723
4.728
4.733
4.738
4.743
4.748
4.753
4.758
4.763
4.768
4.773
4.778
4.783
4.782
4.783
4.782
4.784
4.787
4.784
4.783
4.779
4.779
4.781
4.773
4.773
4.776
4.774
4.766
4.765
4.762
4.757
4.762
4.766
4.769
4.775
4.782
4.780
4.784
4.786
4.784
4.778
4.776
4.776
4.772
4.768
