2.995
3.328
3.517
3.626
3.717
3.768
3.817
3.895
3.903
3.958
4.011
3.980
4.017
4.044
4.075
4.104
4.134
4.159
4.152
4.100
4.095
4.109
4.135
4.144
4.150
4.170
4.173
4.192
4.195
4.211
4.214
4.224
4.238
4.233
4.245
4.260
4.273
4.271
4.276
4.287
4.299
4.287
4.299
4.310
4.316
4.326
4.335
4.324
4.334
4.336
4.348
4.351
4.360
4.369
4.372
4.366
4.368
4.373
4.377
4.386
4.385
4.391
4.402
4.408
4.409
4.416
4.423
4.416
4.413
4.409
4.414
4.423
4.427
4.438
4.431
4.435
4.440
4.446
4.448
4.457
4.453
4.457
4.467
4.476
4.476
4.482
4.488
4.467
4.458
4.461
4.462
4.473
4.473
4.483
4.477
4.484
4.486
4.484
4.489
4.493
4.492
4.497
4.505
4.507
4.510
4.514
4.515
4.511
4.517
4.522
4.518
4.526
4.528
4.537
4.538
4.541
4.542
4.542
4.546
4.547
4.557
4.547
4.551
4.555
4.556
4.549
4.534
4.521
4.531
4.536
4.529
4.539
4.544
4.543
4.540
4.544
4.548
4.548
4.553
4.559
4.559
4.549
4.548
4.557
4.545
4.553
4.557
4.554
4.566
4.559
4.566
4.564
4.570
4.574
4.580
4.583
4.577
4.577
4.573
4.584
4.580
4.592
4.592
4.598
4.596
4.603
4.591
4.585
4.587
4.600
4.594
4.590
4.590
4.600
4.600
4.601
4.599
4.596
4.605
4.605
4.615
4.612
4.610
4.623
4.612
4.622
4.623
4.616
4.617
4.618
4.623
4.627
4.625
4.633
4.632
4.627
4.641
4.644
4.636
4.644
4.648
4.638
4.652
4.648
4.636
4.638
4.640
4.634
4.649
4.647
4.636
4.646
4.644
4.629
4.646
4.643
4.644
4.645
4.651
4.648
4.652
4.659
4.663
4.657
4.651
4.669
4.668
4.668
4.664
4.676
4.668
4.670
4.667
4.685
4.677
4.669
4.661
4.652
4.644
4.641
4.634
4.627
4.632
4.646
4.643
4.641
4.634
4.647
4.650
4.646
4.646
4.642
4.647
4.649
4.651
4.640
4.651
4.654
4.652
4.655
4.652
4.658
4.668
4.671
4.667
4.663
4.661
4.672
4.673
4.666
4.655
4.655
4.659
4.651
4.656
4.649
4.654
4.660
4.656
4.645
4.637
4.652
4.658
4.652
4.647
4.646
4.643
4.657
4.655
4.654
4.651
4.653
4.647
4.662
4.667
4.665
4.663
4.667
4.664
4.662
4.675
4.674
4.671
4.671
4.672
4.658
4.672
4.674
4.663
4.671
4.673
4.670
4.666
4.678
4.680
4.682
4.680
4.672
4.668
4.675
4.680
4.694
4.694
4.691
4.695
4.688
4.685
4.683
4.692
4.704
4.694
4.684
4.679
4.680
4.681
4.684
4.695
4.693
4.690
4.689
4.686
4.682
4.675
4.686
4.696
4.690
4.692
4.693
4.693
4.689
4.685
4.683
4.696
4.710
4.710
4.707
4.697
4.703
4.706
4.699
4.693
4.701
4.706
4.704
4.713
4.708
4.703
4.704
4.704
4.704
4.701
4.712
4.725
4.725
4.721
4.724
4.729
4.723
4.717
4.716
4.712
4.717
4.729
4.734
4.736
4.731
4.720
4.716
4.717
4.715
4.717
4.716
4.728
4.733
4.730
4.723
4.716
4.709
4.702
4.696
4.699
4.708
4.715
4.710
4.708
4.710
4.709
4.708
4.712
4.708
4.701
4.699
4.703
4.701
4.707
4.706
4.705
4.704
4.700
4.696
4.698
4.698
4.696
4.696
4.707
4.717
4.706
4.715
4.715
4.714
4.711
4.708
4.711
4.716
4.711
4.708
4.711
4.712
4.722
4.727
4.726
4.720
4.712
4.713
4.711
4.711
4.714
4.710
4.711
4.707
4.709
4.718
4.721
4.719
4.720
4.715
4.713
4.709
4.706
4.708
4.707
4.711
4.711
4.707
4.706
4.716
4.726
4.736
4.735
4.726
4.725
4.727
4.731
4.726
4.728
4.726
4.729
4.729
4.720
4.722
4.723
4.729
4.735
4.744
4.737
4.741
4.740
4.738
4.735
4.738
4.735
4.730
4.726
4.730
4.720
4.714
4.720
4.723
4.733
4.742
4.747
4.739
4.747
4.748
4.746
4.747
4.747
4.744
4.743
4.738
4.741
4.738
4.744
4.744
4.747
4.748
4.741
4.749
4.758
4.766
4.765
4.761
4.759
4.756
4.761
4.764
4.761
4.756
4.750
4.746
4.746
4.745
4.751
4.743
4.743
4.752
4.752
4.761
4.767
4.761
4.755
4.749
4.742
4.738
4.736
4.736
4.739
4.735
4.738
4.736
4.737
4.741
4.740
4.736
4.735
4.744
4.752
4.759
4.751
4.746
4.751
4.749
4.749
4.746
4.738
4.734
4.735
4.732
4.734
4.732
4.728
4.733
4.735
4.736
4.735
4.738
4.740
4.748
4.756
4.764
4.765
4.765
4.767
4.768
4.767
4.760
4.756
4.755
4.752
4.747
4.749
4.746
4.746
4.750
4.750
4.744
4.738
4.738
4.740
4.739
4.747
4.755
4.762
4.770
4.778
4.775
4.779
4.781
4.781
4.781
4.782
4.777
4.768
4.762
4.760
4.762
4.758
4.765
4.764
4.766
4.759
4.763
4.759
4.758
4.755
4.757
4.753
4.761
4.768
4.776
4.783
4.791
4.798
4.796
4.794
4.793
4.794
4.787
4.788
4.789
4.785
4.783
4.780
4.779
4.781
4.784
4.782
4.782
4.775
4.767
4.768
4.777
4.772
4.771
4.776
4.773
4.774
4.780
4.787
4.794
4.801
4.797
4.797
4.793
4.787
4.781
4.775
4.768
4.771
4.776
4.776
4.779
4.776
4.768
4.771
4.772
4.770
4.767
4.767
4.768
4.761
4.759
4.763
4.762
4.760
4.765
4.772
4.779
4.786
4.793
4.800
4.803
4.799
4.796
4.794
4.795
4.794
4.792
4.793
4.794
4.791
4.787
4.790
4.792
4.789
4.788
4.787
4.782
4.786
4.787
4.790
4.790
4.791
4.790
4.785
4.781
4.783
4.782
4.783
4.783
4.780
4.787
4.794
4.800
4.807
4.813
4.820
4.824
4.821
4.818
4.821
4.814
4.815
4.818
4.818
4.817
4.821
4.820
4.824
4.828
4.828
4.822
4.822
4.813
4.807
4.805
4.800
4.797
4.795
4.800
4.795
4.792
4.794
4.796
4.803
4.809
4.803
4.800
4.801
4.798
4.804
4.811
4.817
4.818
4.814
4.810
4.807
4.803
4.800
4.796
4.792
4.790
4.794
4.793
4.795
4.789
4.785
4.784
4.782
4.782
4.778
4.771
4.769
4.773
4.776
4.775
4.774
4.774
4.773
4.776
4.778
4.775
4.771
4.770
4.770
4.773
4.779
4.785
4.791
4.797
4.797
4.793
4.793
4.791
4.788
4.789
4.791
4.787
4.786
4.785
4.783
4.784
4.782
4.779
4.782
4.780
4.784
4.782
4.784
4.783
4.779
4.777
4.776
4.779
4.775
4.773
4.780
4.782
4.779
4.772
4.772
4.773
4.771
4.769
4.770
4.769
4.770
4.768
4.766
4.771
4.777
4.783
4.788
4.794
4.800
4.799
4.797
4.796
4.792
4.789
4.789
4.789
4.789
4.787
4.790
4.791
4.792
4.799
4.805
4.799
4.799
4.799
4.798
4.796
4.792
4.791
4.789
4.792
4.791
4.794
4.793
4.792
4.788
4.782
4.776
4.776
4.777
4.776
4.782
4.778
4.776
4.778
4.777
4.779
4.780
4.784
4.782
4.777
4.773
4.774
4.779
4.784
4.790
4.795
4.800
4.800
4.796
4.793
4.796
4.798
4.797
4.789
4.785
4.788
4.790
4.793
4.792
4.789
4.783
4.785
4.782
4.782
4.781
4.781
4.781
4.776
4.774
4.773
4.778
4.785
4.781
4.781
4.778
4.778
4.776
4.779
4.778
4.775
4.778
4.775
4.775
4.777
4.774
4.774
4.773
4.776
4.776
4.775
4.777
4.773
4.770
4.776
4.777
4.778
4.776
4.775
4.780
4.785
4.790
4.795
4.800
4.805
4.810
4.815
4.810
4.806
4.801
4.803
4.806
4.809
4.804
4.806
4.808
4.806
4.806
4.806
4.801
4.796
4.795
4.787
4.785
4.781
4.781
4.779
4.779
4.778
4.780
4.778
4.777
4.773
4.779
4.777
4.779
4.777
4.778
4.773
4.774
4.773
4.780
4.781
4.777
4.777
4.779
4.786
4.790
4.788
4.786
4.785
4.787
4.790
