2.980
3.323
3.512
3.582
3.627
3.737
3.826
3.803
3.794
3.826
3.872
3.901
3.923
3.946
3.955
3.994
4.001
4.032
4.052
4.049
4.075
4.094
4.116
4.103
4.104
4.131
4.147
4.157
4.177
4.166
4.169
4.180
4.189
4.196
4.224
4.210
4.236
4.244
4.263
4.247
4.268
4.279
4.236
4.242
4.262
4.252
4.258
4.263
4.293
4.269
4.284
4.306
4.316
4.295
4.291
4.303
4.311
4.318
4.322
4.330
4.334
4.351
4.355
4.375
4.377
4.366
4.354
4.345
4.371
4.377
4.377
4.392
4.400
4.404
4.403
4.403
4.413
4.401
4.376
4.355
4.386
4.368
4.386
4.384
4.404
4.391
4.373
4.372
4.362
4.376
4.386
4.369
4.394
4.389
4.394
4.386
4.386
4.399
4.408
4.400
4.431
4.420
4.413
4.408
4.405
4.420
4.418
4.407
4.420
4.427
4.416
4.413
4.447
4.453
4.437
4.437
4.466
4.458
4.458
4.452
4.467
4.451
4.453
4.459
4.464
4.443
4.431
4.440
4.437
4.418
4.418
4.445
4.454
4.448
4.441
4.432
4.457
4.451
4.443
4.429
4.438
4.458
4.454
4.465
4.457
4.451
4.451
4.477
4.475
4.463
4.464
4.451
4.455
4.484
4.496
4.498
4.497
4.479
4.476
4.477
4.505
4.505
4.507
4.503
4.486
4.479
4.489
4.496
4.483
4.489
4.466
4.456
4.454
4.474
4.500
4.502
4.492
4.487
4.481
4.471
4.474
4.479
4.499
4.523
4.500
4.504
4.509
4.500
4.499
4.504
4.499
4.503
4.526
4.545
4.542
4.541
4.521
4.530
4.509
4.507
4.512
4.509
4.531
4.529
4.529
4.528
4.523
4.509
4.496
4.514
4.518
4.512
4.515
4.536
4.557
4.565
4.553
4.548
4.556
4.561
4.554
4.553
4.542
4.546
4.537
4.535
4.555
4.573
4.577
4.578
4.573
4.563
4.554
4.556
4.561
4.548
4.543
4.544
4.542
4.546
4.563
4.565
4.570
4.568
4.564
4.555
4.541
4.527
4.513
4.507
4.501
4.504
4.508
4.526
4.543
4.555
4.546
4.543
4.545
4.538
4.550
4.553
4.535
4.527
4.538
4.542
4.522
4.508
4.505
4.520
4.524
4.541
4.554
4.554
4.540
4.530
4.527
4.523
4.527
4.540
4.538
4.535
4.540
4.528
4.529
4.511
4.514
4.514
4.502
4.516
4.532
4.547
4.556
4.556
4.548
4.551
4.546
4.540
4.538
4.541
4.536
4.525
4.522
4.521
4.526
4.532
4.528
4.536
4.532
4.522
4.518
4.515
4.524
4.538
4.552
4.567
4.575
4.574
4.559
4.554
4.547
4.551
4.550
4.560
4.567
4.572
4.564
4.554
4.543
4.536
4.531
4.533
4.524
4.534
4.530
4.531
4.522
4.516
4.531
4.533
4.547
4.560
4.574
4.587
4.594
4.583
4.585
4.593
4.598
4.584
4.570
4.562
4.563
4.564
4.576
4.573
4.561
4.555
4.570
4.579
4.566
4.559
4.560
4.569
4.568
4.577
4.566
4.553
4.548
4.539
4.545
4.550
4.557
4.569
4.581
4.593
4.605
4.617
4.629
4.620
4.617
4.620
4.623
4.620
4.623
4.616
4.603
4.603
4.597
4.597
4.590
4.584
4.592
4.590
4.585
4.574
4.569
4.580
4.572
4.565
4.561
4.553
4.546
4.550
4.539
4.537
4.537
4.537
4.546
4.551
4.562
4.573
4.584
4.595
4.598
4.605
4.604
4.605
4.598
4.589
4.585
4.583
4.580
4.587
4.587
4.584
4.573
4.587
4.576
4.580
4.573
4.570
4.578
4.575
4.571
4.569
4.573
4.578
4.575
4.567
4.568
4.564
4.563
4.551
4.564
4.557
4.554
4.549
4.546
4.548
4.537
4.536
4.543
4.550
4.561
4.574
4.565
4.573
4.583
4.592
4.602
4.612
4.622
4.632
4.642
4.649
4.658
4.656
4.656
4.650
4.652
4.652
4.647
4.644
4.646
4.638
4.638
4.643
4.636
4.628
4.621
4.614
4.607
4.600
4.600
4.597
4.589
4.593
4.580
4.588
4.587
4.586
4.581
4.575
4.569
4.566
4.560
4.565
4.556
4.544
4.558
4.553
4.549
4.548
4.539
4.536
4.535
4.526
4.531
4.526
4.532
4.541
4.550
4.559
4.568
4.577
4.585
4.594
4.603
4.607
4.608
4.598
4.598
4.603
4.606
4.611
4.604
4.607
4.605
4.617
4.613
4.618
4.620
4.613
4.604
4.599
4.602
4.603
4.599
4.602
4.595
4.595
4.590
4.599
4.591
4.584
4.588
4.595
4.597
4.607
4.611
4.606
4.609
4.615
4.621
4.610
4.601
4.599
4.589
4.587
4.584
4.582
4.576
4.566
4.564
4.565
4.563
4.569
4.561
4.566
4.573
4.563
4.558
4.569
4.565
4.569
4.568
4.568
4.559
4.560
4.559
4.551
4.543
4.547
4.550
4.551
4.553
4.561
4.569
4.576
4.584
4.592
4.599
4.607
4.615
4.623
4.630
4.638
4.646
4.654
4.653
4.652
4.645
4.642
4.637
4.627
4.628
4.616
4.611
4.609
4.612
4.606
4.601
4.592
4.586
4.579
4.586
4.594
4.590
4.582
4.586
4.575
4.584
4.586
4.597
4.598
4.599
4.600
4.606
4.610
4.606
4.599
4.600
4.600
4.603
4.598
4.601
4.599
4.601
4.602
4.602
4.612
4.616
4.612
4.606
4.608
4.601
4.599
4.590
4.584
4.577
4.574
4.575
4.571
4.576
4.577
4.570
4.569
4.569
4.573
4.575
4.572
4.566
4.557
4.548
4.539
4.537
4.537
4.540
4.540
4.538
4.540
4.552
4.557
4.553
4.554
4.556
4.560
4.569
4.559
4.555
4.553
4.555
4.560
4.568
4.567
4.565
4.572
4.578
4.585
4.591
4.598
4.605
4.611
4.618
4.625
4.631
4.638
4.644
4.651
4.658
4.664
4.665
4.665
4.660
4.663
4.661
4.663
4.666
4.654
4.649
4.652
4.651
4.644
4.646
4.652
4.655
4.657
4.664
4.662
4.663
4.653
4.644
4.646
4.638
4.634
4.626
4.623
4.622
4.621
4.619
4.616
4.617
4.619
4.623
4.622
4.632
4.643
4.637
4.628
4.617
4.617
4.615
4.611
4.606
4.602
4.606
4.606
4.602
4.604
4.606
4.608
4.619
4.622
4.620
4.624
4.618
4.618
4.622
4.623
4.618
4.622
4.632
4.622
4.624
4.620
4.617
4.626
4.633
4.626
4.619
4.612
4.606
4.605
4.604
4.606
4.608
4.611
4.609
4.600
4.599
4.602
4.597
4.598
4.596
4.591
4.589
4.597
4.588
4.586
4.581
4.572
4.583
4.588
4.585
4.575
4.578
4.573
4.568
4.563
4.558
4.553
4.553
4.557
4.566
4.568
4.567
4.568
4.563
4.562
4.568
4.570
4.565
4.559
4.553
4.550
4.545
4.540
4.533
4.538
4.543
4.549
4.555
4.560
4.566
4.571
4.577
4.582
4.588
4.593
4.599
4.604
4.610
4.615
4.621
4.626
4.632
4.637
4.643
4.649
4.642
4.646
4.648
4.655
4.647
4.639
4.635
4.631
4.622
4.613
4.610
4.610
4.616
4.620
4.620
4.616
4.619
4.617
4.623
4.625
4.619
4.608
4.615
4.623
4.630
4.638
4.644
4.631
4.636
4.647
4.637
4.639
4.640
4.626
4.621
4.626
4.628
4.622
4.630
4.627
4.635
4.628
4.626
4.632
4.631
4.639
4.630
4.624
4.622
4.623
4.625
4.622
4.621
4.626
4.620
4.621
4.625
4.628
4.623
4.625
4.616
4.619
4.616
4.610
4.604
4.609
4.608
4.607
4.603
4.608
4.602
4.607
4.601
4.602
4.593
4.595
4.593
4.602
4.604
4.600
4.607
4.598
4.594
4.593
4.586
4.590
4.583
4.581
4.575
4.575
4.583
4.591
4.584
4.592
4.586
4.582
4.587
4.583
4.584
4.590
4.586
4.584
4.594
4.587
4.580
4.580
4.576
4.577
4.575
4.574
4.578
4.577
4.579
4.579
4.578
4.582
4.588
4.586
4.576
4.577
4.578
4.583
4.582
4.580
4.585
4.590
4.590
4.582
4.579
4.578
4.585
4.579
4.574
4.570
4.565
4.569
4.577
4.585
4.583
4.590
4.590
4.583
4.590
4.596
4.602
4.603
4.601
4.595
4.590
4.584
4.578
4.572
4.578
4.577
4.572
4.563
4.569
4.570
4.566
4.567
