2.992
3.329
3.508
3.625
3.721
3.788
3.853
3.897
3.923
3.977
3.976
4.018
4.057
4.054
4.057
4.086
4.105
4.134
4.154
4.179
4.194
4.213
4.233
4.193
4.154
4.171
4.179
4.186
4.205
4.210
4.225
4.229
4.244
4.245
4.257
4.257
4.264
4.278
4.280
4.287
4.297
4.305
4.305
4.312
4.321
4.330
4.340
4.331
4.340
4.347
4.357
4.361
4.364
4.361
4.371
4.374
4.384
4.386
4.395
4.401
4.389
4.397
4.403
4.404
4.411
4.418
4.420
4.427
4.433
4.437
4.438
4.427
4.431
4.432
4.436
4.446
4.452
4.456
4.455
4.460
4.464
4.473
4.472
4.476
4.479
4.487
4.472
4.470
4.477
4.473
4.477
4.481
4.490
4.492
4.493
4.494
4.496
4.500
4.507
4.508
4.515
4.517
4.521
4.517
4.520
4.523
4.527
4.536
4.535
4.544
4.545
4.533
4.523
4.516
4.523
4.523
4.526
4.525
4.532
4.539
4.546
4.541
4.542
4.547
4.546
4.549
4.553
4.546
4.553
4.557
4.557
4.563
4.568
4.569
4.570
4.571
4.576
4.577
4.575
4.574
4.573
4.580
4.579
4.579
4.587
4.588
4.587
4.594
4.594
4.604
4.598
4.596
4.603
4.612
4.606
4.612
4.605
4.610
4.609
4.613
4.611
4.599
4.587
4.583
4.581
4.586
4.594
4.593
4.594
4.594
4.598
4.605
4.601
4.599
4.601
4.605
4.608
4.608
4.616
4.608
4.616
4.615
4.605
4.613
4.609
4.612
4.609
4.612
4.609
4.618
4.614
4.621
4.617
4.623
4.620
4.627
4.628
4.627
4.631
4.631
4.638
4.638
4.638
4.635
4.639
4.635
4.636
4.646
4.642
4.649
4.650
4.648
4.657
4.654
4.657
4.645
4.647
4.645
4.639
4.657
4.653
4.648
4.649
4.645
4.655
4.649
4.650
4.659
4.655
4.654
4.658
4.657
4.658
4.668
4.664
4.662
4.672
4.673
4.675
4.675
4.677
4.676
4.674
4.683
4.674
4.671
4.675
4.678
4.677
4.686
4.688
4.683
4.682
4.692
4.690
4.686
4.694
4.697
4.696
4.694
4.702
4.705
4.697
4.694
4.694
4.687
4.683
4.698
4.693
4.698
4.696
4.703
4.702
4.690
4.691
4.703
4.697
4.690
4.691
4.703
4.701
4.700
4.701
4.703
4.710
4.709
4.704
4.706
4.716
4.722
4.715
4.711
4.713
4.723
4.721
4.720
4.721
4.720
4.727
4.731
4.723
4.723
4.723
4.716
4.710
4.705
4.697
4.694
4.690
4.686
4.699
4.698
4.690
4.679
4.685
4.698
4.694
4.694
4.693
4.690
4.697
4.701
4.702
4.698
4.699
4.700
4.704
4.698
4.699
4.694
4.694
4.698
4.710
4.712
4.705
4.708
4.704
4.701
4.713
4.719
4.720
4.714
4.713
4.719
4.715
4.727
4.729
4.722
4.718
4.714
4.710
4.709
4.707
4.701
4.704
4.701
4.707
4.717
4.712
4.708
4.704
4.698
4.699
4.705
4.704
4.701
4.701
4.701
4.701
4.700
4.710
4.714
4.705
4.705
4.701
4.701
4.697
4.708
4.718
4.714
4.716
4.712
4.710
4.706
4.708
4.717
4.727
4.728
4.726
4.727
4.723
4.714
4.713
4.719
4.731
4.733
4.727
4.720
4.720
4.723
4.720
4.719
4.727
4.728
4.729
4.730
4.731
4.731
4.724
4.723
4.724
4.734
4.732
4.736
4.734
4.734
4.731
4.733
4.731
4.730
4.737
4.749
4.753
4.753
4.749
4.747
4.743
4.741
4.743
4.742
4.746
4.742
4.738
4.734
4.737
4.734
4.738
4.733
4.731
4.741
4.749
4.749
4.743
4.746
4.740
4.738
4.734
4.730
4.729
4.738
4.749
4.752
4.748
4.749
4.748
4.749
4.745
4.746
4.748
4.741
4.745
4.753
4.764
4.761
4.760
4.758
4.759
4.761
4.757
4.758
4.749
4.744
4.753
4.763
4.764
4.760
4.759
4.761
4.760
4.758
4.760
4.758
4.759
4.757
4.759
4.768
4.776
4.779
4.778
4.779
4.776
4.779
4.778
4.777
4.773
4.772
4.773
4.766
4.775
4.780
4.783
4.782
4.784
4.777
4.776
4.775
4.771
4.769
4.770
4.766
4.770
4.777
4.776
4.771
4.765
4.761
4.756
4.752
4.751
4.750
4.748
4.749
4.754
4.761
4.764
4.761
4.768
4.766
4.760
4.763
4.757
4.755
4.760
4.760
4.759
4.757
4.751
4.757
4.756
4.757
4.753
4.752
4.751
4.753
4.754
4.753
4.757
4.753
4.751
4.749
4.748
4.753
4.759
4.768
4.773
4.769
4.767
4.760
4.760
4.757
4.756
4.760
4.765
4.763
4.762
4.760
4.760
4.757
4.762
4.771
4.778
4.779
4.771
4.777
4.771
4.771
4.771
4.772
4.768
4.764
4.757
4.758
4.759
4.761
4.760
4.764
4.771
4.774
4.771
4.769
4.773
4.774
4.768
4.768
4.767
4.763
4.759
4.763
4.764
4.757
4.754
4.750
4.757
4.766
4.771
4.780
4.787
4.786
4.786
4.783
4.779
4.777
4.775
4.779
4.776
4.777
4.775
4.774
4.771
4.769
4.775
4.772
4.776
4.774
4.781
4.786
4.795
4.799
4.797
4.793
4.794
4.791
4.790
4.790
4.784
4.785
4.779
4.782
4.781
4.779
4.778
4.780
4.778
4.772
4.779
4.785
4.792
4.797
4.792
4.791
4.794
4.791
4.790
4.790
4.790
4.793
4.792
4.791
4.790
4.790
4.787
4.786
4.787
4.791
4.787
4.788
4.786
4.790
4.797
4.802
4.809
4.815
4.817
4.816
4.817
4.818
4.819
4.815
4.816
4.812
4.806
4.802
4.801
4.797
4.805
4.807
4.806
4.805
4.806
4.799
4.801
4.796
4.803
4.808
4.814
4.820
4.820
4.812
4.809
4.808
4.811
4.810
4.811
4.805
4.801
4.796
4.792
4.788
4.783
4.777
4.778
4.777
4.784
4.782
4.784
4.790
4.797
4.802
4.809
4.805
4.806
4.805
4.811
4.810
4.809
4.808
4.809
4.802
4.795
4.797
4.798
4.793
4.787
4.791
4.789
4.788
4.787
4.785
4.784
4.782
4.779
4.786
4.790
4.797
4.805
4.807
4.805
4.805
4.809
4.810
4.809
4.807
4.808
4.804
4.803
4.807
4.805
4.804
4.803
4.801
4.801
4.805
4.803
4.801
4.805
4.805
4.805
4.802
4.797
4.794
4.795
4.794
4.801
4.805
4.812
4.818
4.816
4.820
4.816
4.810
4.812
4.810
4.806
4.810
4.814
4.813
4.814
4.813
4.811
4.810
4.808
4.810
4.812
4.815
4.812
4.813
4.809
4.813
4.811
4.807
4.808
4.810
4.809
4.808
4.806
4.813
4.817
4.823
4.830
4.834
4.834
4.835
4.838
4.834
4.830
4.823
4.822
4.824
4.822
4.823
4.822
4.824
4.825
4.824
4.828
4.832
4.830
4.827
4.831
4.829
4.834
4.829
4.828
4.831
4.833
4.827
4.823
4.816
4.819
4.821
4.820
4.826
4.831
4.835
4.842
4.842
4.841
4.840
4.841
4.845
4.842
4.845
4.844
4.845
4.844
4.838
4.838
4.834
4.834
4.837
4.833
4.835
4.838
4.837
4.834
4.831
4.828
4.827
4.828
4.826
4.820
4.818
4.812
4.808
4.809
4.812
4.817
4.823
4.828
4.832
4.838
4.835
4.838
4.835
4.834
4.837
4.836
4.835
4.836
4.834
4.838
4.832
4.831
4.834
4.838
4.837
4.834
4.835
4.836
4.837
4.834
4.829
4.827
4.829
4.827
4.824
4.820
4.820
4.819
4.823
4.822
4.821
4.820
4.824
4.825
4.824
4.825
4.829
4.830
4.832
4.838
4.843
4.847
4.853
4.857
4.859
4.857
4.851
4.849
4.851
4.857
4.857
4.857
4.856
4.853
4.856
4.852
4.853
4.849
4.848
4.849
4.848
4.847
4.848
4.846
4.846
4.850
4.856
4.858
4.857
4.855
4.854
4.852
4.846
4.850
4.849
4.849
4.848
4.850
4.845
4.847
4.848
4.846
4.845
4.842
4.845
4.849
4.853
4.858
4.864
4.868
4.871
4.877
4.873
4.871
4.864
4.864
4.867
4.868
4.870
4.869
4.865
4.864
4.868
4.864
4.862
4.871
4.868
4.868
4.864
4.864
4.865
4.861
4.859
4.857
4.853
4.850
4.848
4.846
4.842
