2.990
3.333
3.503
3.617
3.695
3.764
3.807
3.873
3.940
3.915
3.962
4.002
4.040
4.077
4.101
4.035
4.032
4.053
4.068
4.083
4.093
4.117
4.121
4.142
4.146
4.165
4.172
4.184
4.193
4.198
4.214
4.228
4.221
4.233
4.242
4.259
4.263
4.261
4.271
4.278
4.289
4.295
4.312
4.294
4.299
4.313
4.317
4.328
4.334
4.341
4.345
4.353
4.339
4.340
4.352
4.354
4.365
4.362
4.372
4.384
4.382
4.392
4.387
4.401
4.408
4.412
4.420
4.401
4.395
4.396
4.406
4.403
4.420
4.419
4.412
4.423
4.424
4.438
4.435
4.440
4.446
4.451
4.449
4.447
4.457
4.461
4.467
4.466
4.474
4.484
4.483
4.493
4.483
4.488
4.481
4.490
4.490
4.470
4.464
4.466
4.476
4.480
4.482
4.479
4.488
4.484
4.492
4.490
4.482
4.492
4.487
4.491
4.493
4.496
4.503
4.499
4.507
4.520
4.517
4.503
4.518
4.517
4.522
4.530
4.526
4.537
4.535
4.521
4.528
4.529
4.523
4.536
4.530
4.536
4.529
4.545
4.537
4.554
4.546
4.554
4.554
4.563
4.553
4.560
4.554
4.569
4.560
4.574
4.574
4.572
4.576
4.578
4.581
4.580
4.588
4.582
4.578
4.585
4.583
4.581
4.575
4.580
4.579
4.577
4.587
4.585
4.587
4.602
4.595
4.589
4.602
4.601
4.603
4.610
4.606
4.609
4.623
4.618
4.614
4.623
4.612
4.603
4.593
4.582
4.579
4.577
4.576
4.584
4.591
4.584
4.575
4.591
4.585
4.583
4.587
4.599
4.593
4.591
4.595
4.614
4.602
4.603
4.599
4.611
4.615
4.603
4.600
4.596
4.592
4.585
4.598
4.594
4.582
4.585
4.592
4.590
4.587
4.579
4.583
4.597
4.596
4.591
4.595
4.592
4.612
4.610
4.600
4.602
4.600
4.615
4.610
4.609
4.597
4.596
4.614
4.619
4.610
4.614
4.613
4.609
4.627
4.627
4.628
4.625
4.626
4.622
4.637
4.643
4.641
4.636
4.628
4.622
4.632
4.629
4.626
4.621
4.623
4.622
4.623
4.635
4.626
4.624
4.629
4.623
4.632
4.642
4.643
4.645
4.643
4.641
4.633
4.638
4.646
4.645
4.644
4.642
4.644
4.639
4.638
4.654
4.664
4.662
4.662
4.666
4.656
4.660
4.653
4.663
4.674
4.673
4.671
4.670
4.658
4.648
4.657
4.666
4.680
4.674
4.669
4.670
4.669
4.660
4.650
4.651
4.649
4.654
4.650
4.650
4.647
4.642
4.644
4.650
4.646
4.642
4.644
4.649
4.639
4.634
4.637
4.632
4.646
4.658
4.662
4.654
4.652
4.654
4.655
4.655
4.658
4.649
4.649
4.663
4.661
4.660
4.659
4.658
4.651
4.651
4.655
4.652
4.658
4.657
4.658
4.660
4.653
4.651
4.656
4.655
4.658
4.655
4.652
4.653
4.656
4.669
4.676
4.679
4.674
4.678
4.672
4.670
4.676
4.676
4.674
4.670
4.659
4.670
4.683
4.690
4.687
4.687
4.676
4.670
4.668
4.670
4.662
4.660
4.668
4.667
4.674
4.686
4.697
4.694
4.694
4.695
4.685
4.691
4.696
4.696
4.693
4.690
4.684
4.687
4.683
4.691
4.702
4.714
4.712
4.702
4.699
4.703
4.696
4.697
4.696
4.701
4.698
4.692
4.688
4.686
4.694
4.697
4.688
4.686
4.689
4.695
4.695
4.693
4.686
4.684
4.684
4.674
4.677
4.682
4.677
4.685
4.691
4.699
4.693
4.688
4.685
4.687
4.683
4.686
4.690
4.687
4.684
4.688
4.689
4.686
4.688
4.684
4.689
4.695
4.706
4.705
4.708
4.707
4.705
4.697
4.695
4.698
4.694
4.686
4.686
4.690
4.702
4.701
4.699
4.699
4.698
4.699
4.700
4.710
4.720
4.715
4.713
4.720
4.719
4.720
4.718
4.715
4.716
4.721
4.715
4.710
4.717
4.716
4.716
4.719
4.719
4.714
4.713
4.709
4.718
4.728
4.738
4.746
4.743
4.735
4.733
4.730
4.734
4.732
4.733
4.729
4.727
4.727
4.725
4.719
4.720
4.717
4.711
4.708
4.709
4.708
4.718
4.727
4.729
4.733
4.737
4.735
4.733
4.726
4.724
4.726
4.721
4.723
4.717
4.719
4.720
4.719
4.711
4.722
4.720
4.721
4.716
4.713
4.710
4.711
4.716
4.725
4.734
4.743
4.752
4.751
4.754
4.748
4.744
4.744
4.745
4.753
4.749
4.745
4.747
4.752
4.751
4.750
4.748
4.744
4.742
4.736
4.736
4.733
4.740
4.739
4.736
4.748
4.748
4.752
4.750
4.754
4.762
4.771
4.769
4.768
4.769
4.767
4.763
4.758
4.757
4.761
4.760
4.756
4.755
4.754
4.766
4.764
4.757
4.758
4.755
4.751
4.756
4.752
4.750
4.742
4.739
4.736
4.733
4.741
4.742
4.741
4.741
4.747
4.745
4.747
4.746
4.744
4.740
4.738
4.739
4.741
4.738
4.736
4.736
4.732
4.737
4.742
4.737
4.732
4.726
4.720
4.715
4.709
4.709
4.715
4.710
4.705
4.712
4.720
4.727
4.735
4.742
4.745
4.747
4.743
4.737
4.736
4.734
4.731
4.729
4.727
4.726
4.731
4.732
4.730
4.730
4.728
4.727
4.718
4.717
4.717
4.720
4.720
4.719
4.717
4.712
4.711
4.712
4.715
4.720
4.717
4.714
4.713
4.718
4.724
4.726
4.731
4.738
4.745
4.752
4.759
4.760
4.759
4.757
4.752
4.754
4.750
4.744
4.738
4.740
4.738
4.736
4.732
4.725
4.718
4.717
4.715
4.715
4.721
4.722
4.716
4.714
4.717
4.711
4.710
4.708
4.713
4.715
4.708
4.706
4.707
4.708
4.707
4.707
4.709
4.716
4.723
4.729
4.736
4.743
4.750
4.752
4.751
4.747
4.750
4.749
4.752
4.752
4.758
4.756
4.759
4.759
4.757
4.755
4.754
4.749
4.751
4.754
4.749
4.741
4.740
4.732
4.725
4.727
4.723
4.720
4.724
4.726
4.725
4.720
4.719
4.722
4.720
4.719
4.714
4.712
4.713
4.714
4.714
4.712
4.710
4.713
4.719
4.726
4.732
4.738
4.744
4.751
4.757
4.760
4.755
4.749
4.749
4.750
4.752
4.748
4.747
4.753
4.749
4.748
4.746
4.741
4.743
4.738
4.738
4.741
4.750
4.749
4.749
4.753
4.754
4.750
4.746
4.746
4.740
4.741
4.744
4.735
4.731
4.733
4.734
4.739
4.741
4.740
4.737
4.733
4.732
4.728
4.729
4.727
4.721
4.714
4.708
4.706
4.712
4.718
4.724
4.730
4.736
4.742
4.748
4.754
4.759
4.765
4.771
4.777
4.778
4.778
4.774
4.769
4.767
4.770
4.770
4.765
4.765
4.757
4.759
4.761
4.758
4.755
4.753
4.751
4.750
4.757
4.755
4.756
4.755
4.753
4.752
4.746
4.749
4.748
4.746
4.750
4.743
4.742
4.750
4.751
4.751
4.744
4.740
4.734
4.731
4.730
4.728
4.731
4.737
4.736
4.736
4.740
4.743
4.740
4.739
4.738
4.737
4.732
4.731
4.728
4.727
4.733
4.738
4.744
4.749
4.755
4.760
4.766
4.771
4.777
4.781
4.782
4.781
4.779
4.782
4.783
4.779
4.777
4.773
4.779
4.777
4.782
4.782
4.783
4.779
4.775
4.779
4.777
4.777
4.779
4.776
4.773
4.771
4.767
4.764
4.766
4.763
4.766
4.765
4.764
4.765
4.762
4.759
4.760
4.759
4.759
4.766
4.772
4.773
4.767
4.768
4.764
4.768
4.765
4.764
4.760
4.759
4.755
4.753
4.754
4.755
4.755
4.761
4.758
4.761
4.763
4.763
4.757
4.757
4.756
4.754
4.751
4.754
4.757
4.756
4.762
4.760
4.758
4.759
4.764
4.770
4.775
4.780
4.785
4.790
4.795
4.800
4.805
4.810
4.815
4.816
4.812
4.816
4.809
4.814
4.819
4.812
4.811
4.815
4.812
4.810
4.805
4.800
4.801
4.794
4.788
4.786
4.781
4.782
4.783
4.782
4.789
4.787
4.785
4.787
4.786
4.789
4.787
4.786
4.784
4.782
4.785
4.783
4.790
4.791
4.791
4.788
4.782
4.780
4.778
4.779
4.783
4.783
4.779
4.775
4.771
4.767
4.762
4.758
4.754
4.750
4.748
4.751
