2.993
3.322
3.511
3.606
3.718
3.786
3.815
3.892
3.872
3.930
3.973
4.012
4.049
4.041
3.986
4.009
4.030
4.044
4.060
4.073
4.099
4.105
4.127
4.132
4.147
4.157
4.168
4.185
4.196
4.190
4.207
4.226
4.236
4.223
4.239
4.251
4.267
4.273
4.265
4.265
4.277
4.282
4.294
4.310
4.310
4.323
4.318
4.307
4.319
4.329
4.332
4.338
4.343
4.355
4.358
4.356
4.368
4.380
4.388
4.383
4.360
4.365
4.374
4.374
4.383
4.390
4.385
4.392
4.397
4.410
4.413
4.419
4.425
4.419
4.421
4.426
4.432
4.442
4.439
4.446
4.456
4.467
4.457
4.453
4.459
4.468
4.448
4.438
4.443
4.447
4.451
4.452
4.455
4.455
4.466
4.456
4.451
4.452
4.460
4.469
4.469
4.474
4.471
4.484
4.496
4.480
4.482
4.490
4.503
4.493
4.506
4.505
4.503
4.494
4.503
4.502
4.498
4.506
4.502
4.508
4.517
4.519
4.529
4.523
4.530
4.524
4.527
4.523
4.538
4.529
4.540
4.541
4.548
4.548
4.553
4.553
4.561
4.560
4.554
4.550
4.560
4.549
4.551
4.546
4.549
4.555
4.557
4.565
4.568
4.559
4.572
4.573
4.580
4.579
4.575
4.580
4.596
4.588
4.589
4.588
4.582
4.575
4.563
4.553
4.546
4.544
4.563
4.558
4.542
4.563
4.558
4.558
4.564
4.566
4.566
4.569
4.582
4.581
4.571
4.573
4.591
4.584
4.569
4.568
4.558
4.558
4.564
4.557
4.558
4.554
4.567
4.560
4.554
4.560
4.566
4.573
4.577
4.570
4.573
4.584
4.579
4.578
4.579
4.576
4.586
4.575
4.580
4.580
4.585
4.593
4.588
4.586
4.583
4.589
4.610
4.605
4.608
4.595
4.598
4.609
4.616
4.608
4.592
4.588
4.603
4.600
4.604
4.603
4.588
4.592
4.612
4.608
4.602
4.604
4.601
4.598
4.616
4.624
4.622
4.607
4.603
4.597
4.613
4.625
4.627
4.622
4.622
4.621
4.623
4.623
4.641
4.645
4.634
4.633
4.633
4.630
4.631
4.644
4.644
4.647
4.643
4.639
4.637
4.630
4.640
4.648
4.638
4.628
4.617
4.608
4.612
4.629
4.627
4.625
4.627
4.621
4.609
4.603
4.612
4.625
4.627
4.619
4.620
4.613
4.614
4.610
4.615
4.619
4.635
4.641
4.631
4.636
4.627
4.620
4.622
4.616
4.618
4.634
4.649
4.646
4.638
4.625
4.621
4.619
4.613
4.610
4.624
4.638
4.642
4.648
4.639
4.637
4.631
4.630
4.637
4.640
4.633
4.634
4.648
4.660
4.651
4.651
4.649
4.647
4.648
4.647
4.645
4.636
4.633
4.647
4.661
4.665
4.656
4.659
4.656
4.650
4.655
4.658
4.654
4.653
4.648
4.654
4.662
4.676
4.682
4.682
4.680
4.676
4.673
4.668
4.667
4.668
4.665
4.657
4.660
4.665
4.678
4.677
4.677
4.675
4.683
4.673
4.664
4.654
4.648
4.648
4.649
4.654
4.655
4.668
4.675
4.671
4.663
4.654
4.654
4.647
4.656
4.652
4.647
4.652
4.651
4.645
4.646
4.657
4.669
4.681
4.690
4.688
4.679
4.670
4.669
4.664
4.671
4.660
4.652
4.661
4.666
4.663
4.658
4.659
4.668
4.679
4.691
4.702
4.697
4.690
4.687
4.687
4.682
4.683
4.681
4.681
4.681
4.673
4.675
4.677
4.677
4.677
4.685
4.684
4.695
4.706
4.714
4.707
4.713
4.711
4.706
4.708
4.702
4.703
4.700
4.697
4.700
4.705
4.700
4.697
4.685
4.682
4.682
4.692
4.703
4.714
4.708
4.713
4.706
4.699
4.690
4.695
4.694
4.689
4.689
4.686
4.687
4.684
4.686
4.689
4.689
4.691
4.685
4.682
4.692
4.702
4.712
4.722
4.722
4.720
4.718
4.717
4.718
4.712
4.724
4.714
4.705
4.709
4.716
4.713
4.715
4.714
4.716
4.712
4.705
4.705
4.702
4.707
4.708
4.709
4.719
4.729
4.738
4.748
4.750
4.742
4.747
4.739
4.728
4.726
4.727
4.725
4.728
4.727
4.731
4.732
4.732
4.724
4.721
4.713
4.719
4.718
4.720
4.717
4.721
4.722
4.721
4.730
4.731
4.725
4.720
4.715
4.710
4.713
4.716
4.712
4.707
4.707
4.704
4.699
4.701
4.700
4.706
4.701
4.697
4.697
4.708
4.706
4.703
4.702
4.704
4.700
4.698
4.707
4.716
4.723
4.720
4.725
4.724
4.715
4.713
4.706
4.698
4.697
4.704
4.709
4.711
4.711
4.703
4.702
4.696
4.686
4.684
4.689
4.687
4.681
4.676
4.680
4.682
4.682
4.684
4.680
4.683
4.691
4.700
4.708
4.716
4.724
4.732
4.737
4.729
4.720
4.720
4.718
4.724
4.719
4.717
4.720
4.725
4.726
4.724
4.717
4.715
4.708
4.701
4.699
4.697
4.692
4.692
4.688
4.685
4.687
4.683
4.679
4.676
4.670
4.670
4.678
4.686
4.693
4.701
4.708
4.716
4.721
4.718
4.720
4.712
4.715
4.711
4.715
4.722
4.724
4.716
4.724
4.723
4.719
4.721
4.722
4.727
4.729
4.729
4.717
4.717
4.713
4.707
4.706
4.706
4.701
4.700
4.698
4.692
4.686
4.696
4.701
4.699
4.698
4.698
4.695
4.698
4.692
4.696
4.704
4.711
4.718
4.725
4.729
4.732
4.730
4.721
4.721
4.720
4.723
4.725
4.722
4.723
4.721
4.716
4.712
4.708
4.706
4.709
4.717
4.715
4.713
4.715
4.715
4.711
4.709
4.705
4.705
4.712
4.712
4.705
4.708
4.708
4.707
4.710
4.712
4.708
4.706
4.702
4.707
4.700
4.693
4.692
4.689
4.694
4.701
4.707
4.714
4.721
4.728
4.734
4.740
4.739
4.738
4.741
4.741
4.733
4.743
4.734
4.745
4.741
4.743
4.733
4.730
4.732
4.731
4.724
4.720
4.722
4.720
4.719
4.723
4.725
4.723
4.721
4.718
4.720
4.715
4.719
4.715
4.719
4.719
4.720
4.730
4.728
4.725
4.720
4.718
4.715
4.712
4.713
4.710
4.702
4.702
4.700
4.697
4.698
4.693
4.697
4.703
4.710
4.716
4.722
4.728
4.735
4.741
4.747
4.753
4.750
4.749
4.746
4.744
4.749
4.759
4.758
4.753
4.749
4.757
4.752
4.755
4.761
4.755
4.752
4.751
4.752
4.748
4.745
4.745
4.743
4.739
4.732
4.738
4.738
4.746
4.736
4.731
4.727
4.723
4.721
4.725
4.733
4.734
4.738
4.734
4.735
4.735
4.740
4.739
4.735
4.732
4.729
4.728
4.723
4.725
4.726
4.734
4.729
4.732
4.733
4.734
4.731
4.727
4.726
4.726
4.731
4.724
4.731
4.735
4.741
4.747
4.753
4.758
4.764
4.770
4.776
4.781
4.786
4.787
4.795
4.795
4.791
4.789
4.779
4.781
4.781
4.776
4.779
4.784
4.783
4.783
4.779
4.777
4.776
4.769
4.776
4.769
4.771
4.774
4.768
4.765
4.759
4.762
4.760
4.767
4.767
4.766
4.765
4.767
4.763
4.767
4.763
4.760
4.759
4.755
4.755
4.755
4.752
4.746
4.740
4.734
4.735
4.740
4.740
4.739
4.736
4.736
4.741
4.745
4.741
4.736
4.731
4.726
4.722
4.717
4.713
4.712
4.709
4.712
4.717
4.722
4.728
4.733
4.738
4.743
4.749
4.754
4.757
4.763
4.762
4.766
4.774
4.781
4.780
4.775
4.768
4.762
4.759
4.760
4.762
4.762
4.760
4.767
4.765
4.760
4.757
4.758
4.754
4.749
4.752
4.753
4.751
4.743
4.739
4.747
4.744
4.743
4.741
4.736
4.739
4.736
4.736
4.738
4.742
4.737
4.732
4.741
4.740
4.736
4.732
4.732
4.725
4.723
4.730
4.735
4.734
4.734
4.732
4.731
4.737
4.744
4.743
4.743
4.741
4.741
4.741
4.739
4.738
4.736
4.730
4.731
4.735
4.728
4.726
4.722
4.725
4.723
4.714
4.714
4.714
4.716
4.717
4.713
4.719
4.720
4.723
4.722
4.722
4.719
4.727
4.727
4.732
4.737
4.742
4.746
4.751
4.756
4.761
4.766
4.770
4.775
4.780
4.785
4.788
4.788
4.788
4.791
4.790
4.786
4.792
4.787
4.786
4.786
