2.989
3.335
3.507
3.637
3.691
3.746
3.836
3.832
3.886
3.939
3.984
4.027
3.970
3.957
3.984
4.007
4.023
4.037
4.069
4.078
4.086
4.105
4.118
4.130
4.151
4.149
4.164
4.182
4.197
4.186
4.209
4.221
4.227
4.240
4.222
4.242
4.247
4.260
4.268
4.279
4.299
4.270
4.285
4.290
4.296
4.308
4.315
4.327
4.326
4.335
4.346
4.360
4.348
4.328
4.340
4.336
4.348
4.346
4.351
4.358
4.370
4.377
4.381
4.390
4.384
4.390
4.398
4.402
4.406
4.410
4.425
4.426
4.422
4.429
4.436
4.424
4.400
4.404
4.409
4.415
4.423
4.431
4.436
4.421
4.428
4.426
4.431
4.432
4.441
4.440
4.447
4.451
4.449
4.454
4.463
4.460
4.468
4.479
4.471
4.464
4.453
4.468
4.474
4.460
4.477
4.484
4.488
4.498
4.485
4.492
4.499
4.500
4.507
4.495
4.520
4.508
4.521
4.514
4.524
4.525
4.516
4.519
4.531
4.522
4.513
4.522
4.518
4.520
4.537
4.528
4.540
4.541
4.543
4.547
4.546
4.560
4.549
4.553
4.564
4.550
4.557
4.542
4.531
4.517
4.531
4.520
4.512
4.527
4.518
4.517
4.535
4.535
4.537
4.547
4.545
4.542
4.546
4.560
4.548
4.539
4.524
4.525
4.532
4.533
4.520
4.520
4.524
4.530
4.520
4.531
4.546
4.547
4.542
4.539
4.554
4.553
4.546
4.541
4.551
4.552
4.549
4.542
4.562
4.553
4.559
4.555
4.556
4.577
4.572
4.571
4.565
4.572
4.581
4.566
4.559
4.557
4.572
4.577
4.560
4.561
4.562
4.572
4.584
4.583
4.575
4.583
4.572
4.588
4.579
4.582
4.579
4.571
4.579
4.599
4.603
4.599
4.605
4.601
4.594
4.602
4.622
4.613
4.606
4.601
4.598
4.601
4.619
4.615
4.617
4.615
4.608
4.599
4.606
4.594
4.586
4.594
4.589
4.579
4.592
4.594
4.587
4.583
4.579
4.579
4.576
4.586
4.598
4.593
4.595
4.597
4.601
4.593
4.590
4.593
4.606
4.602
4.601
4.599
4.600
4.602
4.598
4.591
4.601
4.597
4.601
4.602
4.603
4.596
4.597
4.593
4.589
4.604
4.622
4.620
4.622
4.623
4.616
4.616
4.606
4.605
4.601
4.615
4.630
4.621
4.614
4.612
4.612
4.623
4.612
4.615
4.606
4.612
4.627
4.642
4.642
4.649
4.644
4.638
4.641
4.635
4.628
4.632
4.625
4.629
4.642
4.657
4.647
4.648
4.650
4.653
4.641
4.634
4.630
4.631
4.631
4.632
4.646
4.646
4.644
4.632
4.631
4.627
4.633
4.626
4.611
4.610
4.608
4.621
4.635
4.638
4.639
4.646
4.646
4.646
4.647
4.646
4.639
4.627
4.627
4.632
4.627
4.626
4.638
4.651
4.652
4.657
4.650
4.653
4.658
4.662
4.660
4.654
4.647
4.637
4.633
4.629
4.638
4.645
4.652
4.662
4.675
4.681
4.677
4.687
4.677
4.668
4.668
4.657
4.666
4.665
4.669
4.667
4.664
4.665
4.658
4.659
4.671
4.681
4.682
4.683
4.680
4.681
4.683
4.676
4.674
4.665
4.658
4.649
4.646
4.651
4.649
4.651
4.647
4.659
4.669
4.681
4.683
4.684
4.677
4.675
4.677
4.672
4.683
4.683
4.677
4.673
4.677
4.679
4.674
4.667
4.660
4.657
4.661
4.667
4.677
4.683
4.693
4.705
4.715
4.717
4.716
4.714
4.724
4.717
4.707
4.701
4.701
4.701
4.701
4.698
4.694
4.689
4.686
4.679
4.685
4.686
4.682
4.683
4.693
4.703
4.713
4.723
4.727
4.716
4.707
4.709
4.710
4.705
4.699
4.692
4.688
4.683
4.675
4.670
4.663
4.660
4.666
4.662
4.660
4.668
4.668
4.678
4.686
4.697
4.691
4.684
4.683
4.673
4.671
4.672
4.668
4.672
4.680
4.683
4.679
4.672
4.668
4.659
4.658
4.659
4.663
4.651
4.646
4.651
4.646
4.646
4.657
4.665
4.674
4.683
4.693
4.701
4.701
4.698
4.693
4.689
4.691
4.692
4.688
4.687
4.691
4.681
4.683
4.675
4.671
4.673
4.669
4.681
4.680
4.686
4.686
4.679
4.671
4.665
4.657
4.649
4.650
4.659
4.668
4.676
4.685
4.686
4.693
4.684
4.685
4.683
4.680
4.684
4.682
4.681
4.682
4.679
4.675
4.681
4.677
4.686
4.690
4.679
4.675
4.678
4.674
4.676
4.672
4.672
4.672
4.665
4.664
4.672
4.671
4.672
4.669
4.660
4.663
4.670
4.679
4.686
4.694
4.689
4.685
4.690
4.683
4.683
4.683
4.687
4.685
4.692
4.693
4.686
4.685
4.679
4.680
4.683
4.685
4.681
4.680
4.676
4.677
4.670
4.666
4.670
4.674
4.665
4.664
4.668
4.666
4.673
4.674
4.675
4.671
4.672
4.668
4.667
4.664
4.673
4.680
4.687
4.694
4.703
4.705
4.709
4.707
4.701
4.705
4.695
4.693
4.700
4.704
4.697
4.697
4.692
4.690
4.694
4.696
4.690
4.691
4.690
4.686
4.689
4.685
4.687
4.683
4.679
4.674
4.678
4.686
4.681
4.690
4.694
4.693
4.690
4.685
4.681
4.682
4.684
4.682
4.683
4.685
4.681
4.675
4.673
4.680
4.687
4.694
4.701
4.709
4.716
4.723
4.727
4.720
4.712
4.709
4.709
4.718
4.716
4.712
4.711
4.716
4.722
4.731
4.736
4.729
4.727
4.724
4.714
4.709
4.708
4.707
4.703
4.699
4.703
4.709
4.703
4.705
4.701
4.697
4.697
4.704
4.700
4.693
4.690
4.688
4.690
4.691
4.694
4.693
4.690
4.686
4.692
4.701
4.701
4.694
4.695
4.696
4.694
4.694
4.692
4.697
4.703
4.710
4.717
4.724
4.730
4.735
4.742
4.749
4.755
4.754
4.750
4.753
4.747
4.745
4.744
4.746
4.752
4.751
4.752
4.749
4.753
4.748
4.741
4.738
4.733
4.732
4.733
4.732
4.733
4.732
4.731
4.735
4.744
4.746
4.747
4.738
4.735
4.738
4.733
4.738
4.741
4.738
4.733
4.726
4.725
4.727
4.727
4.726
4.720
4.715
4.708
4.705
4.701
4.701
4.697
4.701
4.703
4.707
4.703
4.707
4.708
4.704
4.697
4.699
4.706
4.710
4.717
4.723
4.728
4.727
4.730
4.735
4.736
4.738
4.741
4.740
4.738
4.732
4.733
4.729
4.735
4.732
4.731
4.740
4.738
4.732
4.728
4.723
4.723
4.721
4.716
4.716
4.709
4.712
4.708
4.702
4.701
4.702
4.700
4.696
4.695
4.707
4.700
4.707
4.711
4.704
4.703
4.704
4.708
4.705
4.703
4.704
4.703
4.701
4.708
4.709
4.708
4.705
4.698
4.699
4.698
4.693
4.694
4.694
4.697
4.704
4.701
4.704
4.695
4.696
4.689
4.688
4.686
4.680
4.679
4.682
4.684
4.686
4.692
4.697
4.703
4.709
4.714
4.720
4.725
4.731
4.736
4.742
4.747
4.753
4.758
4.754
4.753
4.756
4.750
4.753
4.753
4.753
4.755
4.751
4.750
4.749
4.746
4.740
4.742
4.740
4.733
4.731
4.736
4.740
4.747
4.749
4.744
4.746
4.747
4.748
4.749
4.748
4.749
4.743
4.739
4.742
4.747
4.743
4.739
4.740
4.738
4.742
4.741
4.740
4.744
4.740
4.741
4.745
4.744
4.745
4.741
4.743
4.741
4.737
4.741
4.738
4.739
4.737
4.736
4.732
4.728
4.724
4.722
4.721
4.725
4.731
4.725
4.726
4.727
4.727
4.735
4.732
4.730
4.732
4.730
4.726
4.722
4.718
4.716
4.712
4.708
4.705
4.700
4.701
4.708
4.709
4.709
4.716
4.719
4.715
4.717
4.721
4.727
4.732
4.736
4.740
4.746
4.751
4.755
4.760
4.766
4.770
4.769
4.764
4.757
4.751
4.746
4.742
4.739
4.743
4.739
4.742
4.742
4.734
4.731
4.735
4.733
4.724
4.727
4.724
4.725
4.723
4.722
4.726
4.722
4.726
4.730
4.723
4.719
4.724
4.722
4.720
4.723
4.721
4.717
4.721
4.714
4.718
4.720
4.721
4.722
4.718
4.719
4.712
4.717
4.723
4.730
4.727
4.725
4.723
4.719
4.713
4.708
4.705
4.700
4.699
4.695
