2.985
3.316
3.481
3.599
3.680
3.771
3.791
3.858
3.922
3.915
3.868
3.896
3.924
3.949
3.973
3.994
4.023
4.031
4.062
4.055
4.085
4.107
4.104
4.123
4.142
4.142
4.148
4.166
4.190
4.198
4.211
4.195
4.209
4.211
4.223
4.242
4.247
4.256
4.275
4.269
4.254
4.259
4.274
4.271
4.287
4.287
4.293
4.300
4.298
4.318
4.329
4.333
4.339
4.345
4.345
4.353
4.353
4.330
4.330
4.335
4.347
4.346
4.350
4.337
4.340
4.349
4.361
4.370
4.374
4.380
4.384
4.386
4.398
4.386
4.383
4.384
4.387
4.406
4.415
4.412
4.407
4.416
4.428
4.426
4.437
4.442
4.441
4.445
4.467
4.447
4.446
4.438
4.443
4.446
4.462
4.457
4.473
4.470
4.476
4.472
4.482
4.482
4.489
4.484
4.496
4.478
4.460
4.450
4.441
4.451
4.454
4.455
4.473
4.469
4.468
4.489
4.473
4.473
4.450
4.468
4.446
4.444
4.454
4.448
4.453
4.473
4.469
4.456
4.483
4.475
4.463
4.480
4.476
4.473
4.482
4.489
4.494
4.476
4.504
4.508
4.500
4.496
4.493
4.494
4.484
4.496
4.498
4.495
4.486
4.499
4.521
4.509
4.502
4.496
4.521
4.523
4.515
4.510
4.516
4.542
4.533
4.533
4.529
4.525
4.553
4.542
4.538
4.535
4.528
4.554
4.554
4.541
4.525
4.523
4.535
4.530
4.517
4.497
4.510
4.532
4.517
4.522
4.514
4.520
4.514
4.533
4.532
4.526
4.525
4.519
4.522
4.532
4.529
4.520
4.533
4.520
4.518
4.516
4.539
4.554
4.557
4.543
4.545
4.541
4.529
4.536
4.556
4.553
4.549
4.547
4.535
4.539
4.543
4.541
4.562
4.579
4.577
4.570
4.570
4.566
4.563
4.554
4.555
4.575
4.593
4.583
4.591
4.574
4.564
4.574
4.568
4.565
4.574
4.567
4.570
4.563
4.560
4.545
4.531
4.538
4.546
4.559
4.578
4.580
4.581
4.574
4.565
4.562
4.556
4.557
4.550
4.548
4.566
4.584
4.601
4.596
4.588
4.580
4.583
4.570
4.576
4.572
4.576
4.582
4.580
4.590
4.607
4.600
4.603
4.617
4.611
4.612
4.605
4.597
4.596
4.590
4.586
4.584
4.594
4.610
4.625
4.610
4.595
4.587
4.592
4.596
4.594
4.586
4.593
4.591
4.581
4.577
4.593
4.608
4.621
4.627
4.630
4.621
4.614
4.620
4.615
4.615
4.616
4.613
4.621
4.613
4.617
4.611
4.615
4.614
4.629
4.644
4.648
4.638
4.636
4.643
4.640
4.637
4.634
4.626
4.628
4.627
4.635
4.625
4.624
4.624
4.616
4.624
4.638
4.644
4.636
4.628
4.620
4.611
4.607
4.617
4.617
4.628
4.625
4.617
4.608
4.610
4.610
4.600
4.591
4.605
4.618
4.615
4.626
4.622
4.618
4.606
4.598
4.596
4.596
4.600
4.596
4.594
4.585
4.596
4.597
4.598
4.602
4.597
4.594
4.602
4.600
4.607
4.620
4.632
4.643
4.639
4.636
4.625
4.614
4.606
4.604
4.597
4.588
4.594
4.593
4.597
4.585
4.586
4.578
4.579
4.572
4.583
4.590
4.589
4.592
4.599
4.611
4.623
4.634
4.645
4.642
4.632
4.633
4.619
4.616
4.614
4.626
4.615
4.607
4.606
4.617
4.617
4.606
4.597
4.594
4.588
4.595
4.598
4.593
4.588
4.587
4.586
4.586
4.598
4.608
4.619
4.630
4.631
4.635
4.640
4.647
4.647
4.644
4.641
4.636
4.638
4.630
4.624
4.615
4.617
4.618
4.615
4.618
4.606
4.602
4.588
4.602
4.603
4.603
4.607
4.607
4.606
4.599
4.592
4.601
4.595
4.603
4.613
4.623
4.633
4.643
4.653
4.655
4.647
4.650
4.648
4.642
4.637
4.640
4.633
4.639
4.643
4.646
4.648
4.643
4.640
4.631
4.618
4.622
4.614
4.623
4.623
4.622
4.621
4.625
4.635
4.629
4.616
4.610
4.613
4.614
4.608
4.621
4.618
4.629
4.622
4.622
4.631
4.641
4.650
4.659
4.669
4.678
4.681
4.681
4.681
4.671
4.674
4.673
4.671
4.666
4.667
4.664
4.659
4.666
4.664
4.658
4.660
4.645
4.643
4.648
4.661
4.665
4.659
4.655
4.660
4.664
4.663
4.663
4.669
4.660
4.650
4.652
4.655
4.651
4.652
4.641
4.645
4.648
4.646
4.642
4.644
4.650
4.643
4.647
4.656
4.665
4.673
4.682
4.690
4.686
4.682
4.691
4.699
4.692
4.684
4.677
4.669
4.668
4.661
4.659
4.655
4.652
4.643
4.642
4.639
4.636
4.637
4.634
4.631
4.623
4.621
4.627
4.636
4.639
4.643
4.633
4.625
4.620
4.623
4.634
4.635
4.632
4.631
4.630
4.623
4.620
4.618
4.619
4.625
4.630
4.629
4.617
4.609
4.614
4.622
4.629
4.637
4.645
4.653
4.660
4.668
4.676
4.681
4.684
4.683
4.678
4.682
4.679
4.668
4.676
4.673
4.678
4.673
4.673
4.668
4.662
4.660
4.657
4.664
4.671
4.673
4.672
4.666
4.664
4.662
4.665
4.662
4.659
4.665
4.667
4.665
4.656
4.668
4.662
4.657
4.658
4.650
4.657
4.659
4.659
4.659
4.657
4.660
4.654
4.651
4.646
4.640
4.642
4.634
4.637
4.641
4.636
4.635
4.639
4.646
4.658
4.654
4.647
4.651
4.661
4.656
4.653
4.652
4.655
4.657
4.662
4.663
4.670
4.677
4.684
4.692
4.698
4.705
4.712
4.717
4.709
4.712
4.709
4.712
4.709
4.706
4.698
4.697
4.689
4.682
4.683
4.677
4.678
4.670
4.670
4.665
4.663
4.658
4.662
4.664
4.668
4.662
4.655
4.649
4.648
4.641
4.645
4.642
4.636
4.642
4.650
4.659
4.656
4.648
4.644
4.645
4.643
4.640
4.641
4.636
4.637
4.640
4.636
4.641
4.642
4.636
4.640
4.642
4.645
4.637
4.633
4.640
4.635
4.630
4.625
4.629
4.623
4.617
4.610
4.604
4.595
4.595
4.596
4.602
4.600
4.605
4.612
4.618
4.624
4.630
4.637
4.643
4.649
4.655
4.661
4.668
4.674
4.680
4.686
4.693
4.699
4.699
4.699
4.704
4.702
4.706
4.704
4.700
4.691
4.693
4.700
4.709
4.717
4.719
4.714
4.706
4.707
4.707
4.707
4.706
4.708
4.706
4.702
4.704
4.706
4.706
4.703
4.694
4.694
4.686
4.680
4.679
4.679
4.683
4.677
4.674
4.674
4.679
4.672
4.676
4.677
4.680
4.682
4.679
4.675
4.673
4.664
4.662
4.659
4.656
4.661
4.659
4.652
4.648
4.651
4.649
4.644
4.639
4.633
4.627
4.624
4.624
4.618
4.611
4.620
4.627
4.631
4.630
4.633
4.631
4.626
4.627
4.627
4.628
4.627
4.622
4.621
4.625
4.619
4.622
4.624
4.624
4.625
4.623
4.628
4.638
4.641
4.643
4.641
4.642
4.636
4.637
4.636
4.639
4.638
4.636
4.637
4.640
4.645
4.650
4.656
4.661
4.667
4.672
4.678
4.683
4.688
4.694
4.699
4.705
4.702
4.695
4.700
4.701
4.690
4.687
4.695
4.690
4.692
4.690
4.689
4.692
4.693
4.698
4.691
4.681
4.675
4.673
4.672
4.671
4.672
4.666
4.663
4.671
4.679
4.685
4.682
4.681
4.685
4.681
4.685
4.678
4.681
4.677
4.678
4.674
4.675
4.683
4.690
4.697
4.703
4.703
4.700
4.706
4.711
4.712
4.702
4.700
4.699
4.693
4.691
4.689
4.692
4.692
4.687
4.683
4.688
4.685
4.679
4.678
4.672
4.665
4.659
4.653
4.653
4.648
4.641
4.639
4.643
4.639
4.639
4.640
4.635
4.643
4.637
4.636
4.645
4.648
4.645
4.650
4.655
4.655
4.657
4.657
4.661
4.661
4.661
4.661
4.659
4.660
4.658
4.659
4.659
4.652
4.645
4.641
4.638
4.637
4.638
4.632
4.626
4.619
4.617
4.625
4.631
4.626
4.623
4.625
4.628
4.629
4.628
4.637
4.630
4.630
4.631
4.638
4.637
4.641
4.643
4.636
4.637
4.639
4.646
4.653
4.660
4.666
4.667
4.664
4.659
4.656
4.650
4.649
4.653
4.658
4.663
4.667
4.672
4.677
