2.989
3.329
3.506
3.625
3.707
3.786
3.832
3.857
3.917
3.975
3.949
3.987
4.024
4.059
4.088
4.116
4.147
4.089
4.062
4.078
4.102
4.117
4.128
4.136
4.153
4.159
4.177
4.182
4.193
4.208
4.208
4.226
4.238
4.230
4.244
4.256
4.269
4.259
4.271
4.284
4.288
4.308
4.305
4.305
4.307
4.320
4.324
4.339
4.338
4.349
4.337
4.342
4.346
4.358
4.360
4.370
4.375
4.384
4.384
4.392
4.397
4.384
4.381
4.389
4.400
4.402
4.403
4.406
4.414
4.423
4.426
4.434
4.429
4.432
4.441
4.452
4.453
4.463
4.447
4.431
4.432
4.443
4.442
4.456
4.454
4.460
4.461
4.457
4.464
4.462
4.468
4.477
4.483
4.478
4.484
4.493
4.487
4.490
4.487
4.495
4.501
4.509
4.514
4.517
4.513
4.528
4.526
4.534
4.524
4.529
4.529
4.531
4.531
4.514
4.499
4.509
4.503
4.516
4.514
4.516
4.515
4.518
4.528
4.521
4.528
4.541
4.530
4.525
4.527
4.527
4.534
4.528
4.536
4.537
4.534
4.547
4.542
4.549
4.558
4.555
4.552
4.552
4.555
4.563
4.559
4.573
4.568
4.577
4.570
4.561
4.565
4.570
4.569
4.558
4.572
4.570
4.574
4.573
4.574
4.577
4.574
4.587
4.585
4.595
4.592
4.594
4.594
4.593
4.591
4.589
4.602
4.607
4.599
4.607
4.601
4.614
4.620
4.612
4.624
4.616
4.614
4.627
4.623
4.612
4.613
4.611
4.625
4.622
4.611
4.620
4.610
4.615
4.621
4.617
4.617
4.627
4.630
4.627
4.639
4.637
4.634
4.635
4.643
4.645
4.646
4.647
4.645
4.649
4.645
4.658
4.654
4.647
4.637
4.629
4.620
4.611
4.607
4.608
4.621
4.618
4.611
4.613
4.631
4.627
4.617
4.613
4.633
4.625
4.624
4.620
4.632
4.637
4.633
4.627
4.629
4.647
4.642
4.644
4.636
4.639
4.650
4.641
4.629
4.628
4.637
4.634
4.622
4.623
4.633
4.628
4.623
4.619
4.619
4.630
4.630
4.629
4.621
4.615
4.632
4.635
4.636
4.628
4.630
4.628
4.643
4.653
4.645
4.640
4.637
4.634
4.651
4.656
4.640
4.643
4.638
4.637
4.654
4.655
4.654
4.649
4.640
4.647
4.653
4.660
4.656
4.654
4.659
4.657
4.658
4.663
4.677
4.671
4.671
4.670
4.669
4.665
4.666
4.663
4.667
4.659
4.658
4.655
4.655
4.669
4.666
4.662
4.655
4.658
4.656
4.651
4.665
4.675
4.675
4.674
4.669
4.671
4.676
4.671
4.671
4.685
4.685
4.676
4.671
4.674
4.669
4.670
4.672
4.684
4.697
4.691
4.685
4.689
4.693
4.687
4.687
4.689
4.692
4.705
4.705
4.700
4.699
4.694
4.699
4.702
4.698
4.693
4.706
4.707
4.708
4.712
4.712
4.702
4.693
4.696
4.697
4.689
4.693
4.685
4.682
4.680
4.678
4.670
4.676
4.675
4.688
4.691
4.695
4.685
4.676
4.667
4.664
4.671
4.671
4.669
4.682
4.692
4.683
4.687
4.683
4.684
4.678
4.677
4.682
4.674
4.669
4.681
4.693
4.705
4.707
4.703
4.700
4.689
4.688
4.689
4.688
4.683
4.678
4.683
4.695
4.704
4.705
4.707
4.697
4.694
4.686
4.680
4.683
4.682
4.675
4.677
4.689
4.700
4.704
4.711
4.705
4.697
4.701
4.701
4.698
4.694
4.691
4.694
4.690
4.687
4.697
4.707
4.718
4.729
4.720
4.714
4.712
4.709
4.705
4.704
4.709
4.705
4.712
4.704
4.698
4.704
4.715
4.721
4.717
4.717
4.721
4.717
4.715
4.714
4.711
4.715
4.711
4.706
4.714
4.709
4.716
4.712
4.722
4.733
4.743
4.742
4.742
4.737
4.738
4.735
4.732
4.734
4.735
4.731
4.728
4.725
4.726
4.721
4.718
4.728
4.738
4.748
4.750
4.741
4.733
4.734
4.733
4.729
4.732
4.729
4.722
4.715
4.708
4.708
4.706
4.712
4.722
4.732
4.737
4.735
4.733
4.732
4.732
4.728
4.730
4.720
4.711
4.713
4.712
4.705
4.702
4.707
4.708
4.705
4.713
4.722
4.732
4.739
4.737
4.730
4.733
4.739
4.735
4.734
4.732
4.739
4.739
4.735
4.733
4.723
4.718
4.716
4.715
4.714
4.717
4.718
4.727
4.736
4.742
4.749
4.743
4.745
4.750
4.749
4.748
4.746
4.744
4.739
4.740
4.742
4.741
4.744
4.745
4.739
4.733
4.730
4.730
4.725
4.730
4.734
4.742
4.750
4.758
4.758
4.764
4.766
4.758
4.761
4.769
4.769
4.768
4.769
4.769
4.761
4.757
4.753
4.754
4.750
4.749
4.754
4.747
4.750
4.758
4.754
4.747
4.748
4.757
4.764
4.773
4.775
4.778
4.777
4.769
4.770
4.764
4.766
4.761
4.755
4.766
4.758
4.756
4.748
4.745
4.747
4.747
4.743
4.742
4.734
4.728
4.733
4.737
4.745
4.752
4.760
4.768
4.771
4.775
4.774
4.773
4.770
4.769
4.761
4.763
4.764
4.766
4.762
4.760
4.762
4.757
4.756
4.753
4.754
4.765
4.765
4.767
4.764
4.759
4.756
4.758
4.753
4.755
4.762
4.760
4.767
4.775
4.782
4.789
4.797
4.793
4.796
4.794
4.792
4.788
4.791
4.793
4.788
4.788
4.789
4.790
4.791
4.792
4.793
4.794
4.791
4.794
4.790
4.792
4.784
4.784
4.776
4.771
4.773
4.773
4.778
4.780
4.773
4.774
4.781
4.788
4.795
4.802
4.810
4.805
4.801
4.801
4.799
4.797
4.797
4.799
4.794
4.790
4.786
4.782
4.779
4.775
4.771
4.768
4.765
4.758
4.755
4.750
4.749
4.743
4.744
4.742
4.744
4.741
4.744
4.751
4.758
4.764
4.771
4.778
4.780
4.782
4.781
4.788
4.792
4.788
4.783
4.778
4.773
4.768
4.764
4.759
4.754
4.755
4.753
4.755
4.750
4.754
4.750
4.748
4.748
4.746
4.748
4.753
4.753
4.756
4.754
4.751
4.756
4.757
4.753
4.749
4.746
4.743
4.750
4.756
4.762
4.769
4.775
4.774
4.769
4.772
4.764
4.762
4.763
4.764
4.764
4.764
4.760
4.766
4.770
4.773
4.774
4.771
4.768
4.771
4.768
4.762
4.762
4.762
4.761
4.762
4.765
4.761
4.764
4.756
4.753
4.753
4.759
4.759
4.763
4.762
4.755
4.749
4.750
4.751
4.759
4.761
4.759
4.757
4.763
4.769
4.775
4.781
4.781
4.780
4.780
4.777
4.779
4.773
4.766
4.767
4.765
4.771
4.776
4.770
4.764
4.755
4.756
4.751
4.751
4.751
4.753
4.747
4.750
4.757
4.762
4.759
4.757
4.758
4.759
4.755
4.758
4.753
4.746
4.749
4.745
4.744
4.745
4.743
4.747
4.742
4.745
4.743
4.741
4.747
4.749
4.749
4.755
4.761
4.767
4.772
4.778
4.784
4.789
4.795
4.797
4.796
4.795
4.786
4.787
4.795
4.794
4.788
4.781
4.779
4.777
4.779
4.781
4.783
4.782
4.777
4.776
4.776
4.778
4.773
4.766
4.765
4.760
4.754
4.749
4.748
4.747
4.746
4.745
4.741
4.747
4.750
4.749
4.748
4.755
4.759
4.761
4.764
4.761
4.758
4.764
4.757
4.755
4.753
4.751
4.747
4.749
4.750
4.756
4.761
4.766
4.772
4.777
4.782
4.788
4.788
4.788
4.789
4.790
4.787
4.783
4.788
4.788
4.790
4.790
4.790
4.787
4.787
4.784
4.787
4.786
4.784
4.783
4.784
4.780
4.783
4.786
4.789
4.790
4.787
4.784
4.782
4.785
4.780
4.781
4.780
4.780
4.775
4.770
4.769
4.764
4.762
4.765
4.766
4.762
4.762
4.758
4.761
4.761
4.758
4.752
4.748
4.745
4.744
4.746
4.743
4.743
4.740
4.742
4.749
4.752
4.758
4.760
4.761
4.766
4.771
4.776
4.781
4.786
4.791
4.796
4.801
4.806
4.808
4.808
4.805
4.806
4.804
4.806
4.805
4.802
4.803
4.802
4.798
4.803
4.797
4.800
4.796
4.794
4.791
4.792
4.793
4.795
4.798
4.800
4.801
4.798
4.796
4.790
4.784
4.778
4.772
4.770
4.768
4.764
4.764
4.768
