2.994
3.329
3.510
3.632
3.709
3.779
3.844
3.889
3.914
3.971
3.970
4.012
4.051
4.088
4.057
4.081
4.107
4.130
4.148
4.174
4.189
4.210
4.227
4.242
4.203
4.166
4.183
4.190
4.200
4.214
4.218
4.229
4.235
4.250
4.249
4.261
4.274
4.275
4.284
4.294
4.293
4.302
4.310
4.321
4.318
4.325
4.333
4.344
4.350
4.341
4.351
4.359
4.367
4.371
4.383
4.368
4.377
4.381
4.388
4.398
4.402
4.409
4.410
4.401
4.408
4.414
4.418
4.425
4.429
4.429
4.436
4.445
4.444
4.450
4.435
4.442
4.447
4.445
4.452
4.461
4.460
4.461
4.470
4.470
4.477
4.484
4.484
4.489
4.493
4.499
4.485
4.483
4.487
4.481
4.488
4.492
4.498
4.502
4.504
4.508
4.504
4.511
4.514
4.516
4.520
4.525
4.528
4.535
4.528
4.533
4.533
4.538
4.544
4.546
4.553
4.551
4.550
4.535
4.536
4.532
4.534
4.530
4.537
4.540
4.544
4.551
4.558
4.555
4.553
4.560
4.558
4.555
4.556
4.559
4.562
4.563
4.566
4.568
4.573
4.577
4.578
4.579
4.583
4.590
4.594
4.584
4.584
4.587
4.591
4.590
4.591
4.593
4.599
4.596
4.605
4.614
4.610
4.609
4.608
4.617
4.614
4.620
4.621
4.623
4.614
4.618
4.624
4.623
4.618
4.606
4.596
4.593
4.596
4.596
4.600
4.599
4.610
4.604
4.605
4.614
4.611
4.617
4.608
4.617
4.614
4.615
4.619
4.620
4.625
4.628
4.627
4.614
4.625
4.622
4.621
4.620
4.619
4.618
4.629
4.623
4.632
4.626
4.635
4.628
4.638
4.636
4.636
4.644
4.640
4.648
4.643
4.650
4.647
4.645
4.647
4.644
4.651
4.648
4.652
4.658
4.657
4.664
4.666
4.661
4.671
4.661
4.652
4.653
4.654
4.658
4.657
4.661
4.663
4.651
4.662
4.656
4.662
4.669
4.670
4.662
4.671
4.669
4.660
4.673
4.673
4.673
4.676
4.683
4.679
4.680
4.693
4.689
4.681
4.691
4.688
4.688
4.688
4.689
4.682
4.684
4.695
4.691
4.690
4.694
4.703
4.696
4.695
4.703
4.706
4.707
4.704
4.711
4.707
4.710
4.704
4.716
4.712
4.703
4.704
4.702
4.698
4.697
4.707
4.713
4.712
4.710
4.709
4.708
4.706
4.703
4.706
4.707
4.707
4.702
4.704
4.719
4.717
4.710
4.710
4.716
4.722
4.721
4.722
4.722
4.725
4.730
4.726
4.729
4.723
4.730
4.736
4.735
4.737
4.730
4.734
4.741
4.736
4.729
4.723
4.719
4.712
4.707
4.704
4.707
4.703
4.700
4.698
4.703
4.698
4.696
4.693
4.692
4.699
4.713
4.707
4.708
4.707
4.703
4.706
4.714
4.717
4.714
4.710
4.710
4.709
4.713
4.712
4.714
4.709
4.713
4.712
4.724
4.722
4.718
4.717
4.716
4.715
4.722
4.731
4.732
4.731
4.727
4.731
4.732
4.733
4.735
4.728
4.721
4.714
4.713
4.720
4.719
4.715
4.713
4.715
4.718
4.717
4.724
4.723
4.716
4.715
4.710
4.704
4.714
4.718
4.711
4.715
4.716
4.717
4.714
4.712
4.722
4.717
4.716
4.715
4.713
4.712
4.710
4.717
4.727
4.728
4.727
4.726
4.721
4.720
4.722
4.722
4.730
4.740
4.743
4.734
4.732
4.729
4.725
4.729
4.729
4.737
4.736
4.739
4.740
4.729
4.729
4.729
4.725
4.733
4.741
4.744
4.746
4.747
4.738
4.737
4.735
4.737
4.735
4.744
4.747
4.750
4.746
4.745
4.746
4.745
4.744
4.744
4.743
4.753
4.762
4.766
4.762
4.756
4.752
4.756
4.757
4.748
4.744
4.750
4.749
4.750
4.754
4.751
4.749
4.748
4.744
4.744
4.744
4.753
4.763
4.756
4.747
4.745
4.751
4.748
4.743
4.740
4.738
4.748
4.755
4.761
4.765
4.764
4.762
4.759
4.760
4.756
4.757
4.751
4.754
4.756
4.766
4.773
4.770
4.767
4.774
4.777
4.770
4.761
4.754
4.753
4.754
4.759
4.768
4.777
4.774
4.775
4.771
4.772
4.771
4.773
4.773
4.770
4.771
4.769
4.766
4.777
4.784
4.791
4.792
4.789
4.790
4.796
4.790
4.783
4.779
4.783
4.782
4.780
4.777
4.784
4.793
4.792
4.788
4.789
4.788
4.786
4.785
4.781
4.781
4.783
4.781
4.783
4.779
4.775
4.777
4.772
4.763
4.766
4.765
4.764
4.763
4.764
4.762
4.764
4.762
4.769
4.777
4.775
4.776
4.778
4.774
4.775
4.773
4.770
4.770
4.766
4.762
4.755
4.754
4.761
4.768
4.766
4.770
4.766
4.765
4.764
4.768
4.772
4.768
4.767
4.765
4.764
4.757
4.755
4.755
4.764
4.771
4.778
4.777
4.773
4.776
4.773
4.777
4.772
4.773
4.772
4.773
4.777
4.776
4.775
4.774
4.773
4.773
4.773
4.781
4.788
4.787
4.781
4.788
4.786
4.784
4.780
4.776
4.772
4.770
4.769
4.771
4.770
4.774
4.772
4.773
4.775
4.782
4.789
4.787
4.784
4.785
4.777
4.773
4.775
4.777
4.778
4.777
4.769
4.770
4.769
4.766
4.767
4.766
4.769
4.776
4.783
4.790
4.797
4.798
4.794
4.793
4.792
4.787
4.786
4.792
4.788
4.782
4.783
4.788
4.788
4.784
4.784
4.787
4.788
4.792
4.788
4.792
4.797
4.804
4.805
4.801
4.802
4.804
4.799
4.799
4.799
4.793
4.797
4.796
4.797
4.795
4.792
4.787
4.783
4.792
4.784
4.782
4.788
4.795
4.800
4.807
4.805
4.806
4.803
4.803
4.800
4.806
4.800
4.799
4.803
4.806
4.807
4.803
4.803
4.799
4.800
4.798
4.802
4.801
4.800
4.798
4.797
4.804
4.810
4.815
4.822
4.829
4.829
4.828
4.829
4.829
4.824
4.823
4.818
4.815
4.810
4.812
4.814
4.814
4.814
4.820
4.819
4.815
4.810
4.807
4.805
4.804
4.807
4.814
4.819
4.825
4.819
4.814
4.816
4.818
4.818
4.814
4.810
4.806
4.800
4.796
4.794
4.793
4.791
4.790
4.786
4.790
4.789
4.793
4.799
4.795
4.794
4.799
4.807
4.810
4.818
4.820
4.821
4.823
4.824
4.823
4.818
4.814
4.814
4.812
4.805
4.803
4.800
4.795
4.797
4.799
4.807
4.804
4.800
4.795
4.789
4.787
4.786
4.787
4.792
4.798
4.805
4.810
4.816
4.815
4.816
4.822
4.822
4.823
4.822
4.820
4.818
4.815
4.818
4.817
4.816
4.820
4.816
4.815
4.814
4.815
4.816
4.814
4.813
4.812
4.810
4.814
4.807
4.801
4.802
4.798
4.803
4.809
4.814
4.820
4.825
4.825
4.827
4.825
4.822
4.823
4.824
4.822
4.822
4.825
4.827
4.826
4.827
4.826
4.825
4.823
4.821
4.826
4.827
4.825
4.825
4.825
4.824
4.828
4.825
4.823
4.819
4.815
4.816
4.815
4.813
4.817
4.822
4.828
4.832
4.837
4.843
4.848
4.843
4.842
4.838
4.839
4.838
4.837
4.840
4.833
4.832
4.836
4.841
4.844
4.840
4.839
4.838
4.844
4.844
4.847
4.846
4.844
4.844
4.842
4.841
4.837
4.833
4.833
4.830
4.829
4.830
4.829
4.832
4.831
4.835
4.840
4.844
4.850
4.852
4.851
4.851
4.855
4.855
4.856
4.860
4.856
4.852
4.845
4.846
4.844
4.843
4.844
4.851
4.848
4.851
4.847
4.844
4.844
4.841
4.837
4.832
4.829
4.824
4.823
4.824
4.822
4.821
4.822
4.822
4.820
4.821
4.826
4.832
4.836
4.841
4.845
4.851
4.856
4.849
4.847
4.851
4.851
4.852
4.847
4.846
4.845
4.840
4.842
4.844
4.845
4.846
4.847
4.844
4.847
4.844
4.845
4.844
4.842
4.836
4.836
4.833
4.831
4.832
4.834
4.833
4.834
4.833
4.833
4.836
4.834
4.840
4.834
4.833
4.837
4.840
4.842
4.840
4.845
4.851
4.855
4.859
4.864
4.865
4.866
4.865
4.864
4.863
4.870
4.873
4.872
4.870
4.866
4.863
4.861
4.862
4.862
4.863
4.858
4.860
4.861
4.862
4.859
4.857
4.862
4.860
4.864
