2.992
3.332
3.517
3.637
3.724
3.782
3.841
3.875
3.940
3.947
3.989
4.035
4.008
4.038
4.068
4.094
4.123
4.145
4.171
4.190
4.175
4.130
4.134
4.144
4.154
4.164
4.179
4.186
4.205
4.207
4.220
4.224
4.236
4.249
4.245
4.259
4.269
4.267
4.280
4.292
4.301
4.294
4.307
4.316
4.319
4.330
4.321
4.331
4.338
4.347
4.353
4.360
4.365
4.361
4.364
4.368
4.381
4.382
4.389
4.399
4.400
4.407
4.394
4.401
4.400
4.407
4.416
4.421
4.423
4.427
4.433
4.442
4.442
4.443
4.453
4.443
4.439
4.440
4.442
4.446
4.453
4.460
4.466
4.460
4.463
4.468
4.479
4.479
4.482
4.489
4.486
4.489
4.491
4.500
4.504
4.506
4.513
4.501
4.488
4.489
4.490
4.490
4.494
4.505
4.510
4.505
4.513
4.517
4.510
4.514
4.516
4.520
4.518
4.523
4.529
4.533
4.531
4.536
4.540
4.544
4.542
4.544
4.549
4.550
4.549
4.553
4.553
4.558
4.564
4.566
4.567
4.572
4.576
4.574
4.575
4.583
4.573
4.582
4.584
4.577
4.575
4.561
4.551
4.550
4.559
4.563
4.556
4.564
4.571
4.569
4.565
4.574
4.571
4.574
4.578
4.577
4.584
4.580
4.576
4.585
4.573
4.579
4.581
4.579
4.581
4.585
4.587
4.588
4.590
4.586
4.598
4.594
4.601
4.596
4.611
4.605
4.605
4.601
4.603
4.605
4.616
4.613
4.622
4.618
4.622
4.627
4.620
4.612
4.614
4.615
4.614
4.621
4.614
4.619
4.617
4.619
4.628
4.619
4.631
4.624
4.623
4.635
4.630
4.634
4.642
4.637
4.644
4.645
4.644
4.649
4.649
4.648
4.644
4.642
4.647
4.654
4.655
4.653
4.663
4.657
4.653
4.664
4.671
4.660
4.664
4.675
4.672
4.662
4.677
4.665
4.657
4.662
4.664
4.664
4.672
4.671
4.668
4.664
4.672
4.667
4.658
4.668
4.669
4.668
4.669
4.678
4.675
4.671
4.674
4.687
4.690
4.682
4.680
4.690
4.691
4.689
4.688
4.692
4.702
4.694
4.691
4.692
4.702
4.695
4.688
4.682
4.675
4.668
4.663
4.670
4.661
4.653
4.657
4.668
4.669
4.664
4.661
4.664
4.675
4.671
4.672
4.668
4.668
4.668
4.666
4.667
4.668
4.670
4.683
4.681
4.675
4.670
4.675
4.682
4.688
4.689
4.686
4.689
4.688
4.694
4.694
4.695
4.688
4.686
4.680
4.676
4.677
4.671
4.674
4.676
4.683
4.678
4.675
4.676
4.672
4.676
4.679
4.678
4.674
4.675
4.671
4.675
4.682
4.676
4.677
4.671
4.668
4.671
4.685
4.689
4.685
4.679
4.688
4.679
4.680
4.690
4.704
4.695
4.691
4.687
4.688
4.689
4.693
4.700
4.696
4.698
4.693
4.687
4.685
4.690
4.702
4.709
4.702
4.700
4.699
4.697
4.697
4.697
4.708
4.708
4.713
4.709
4.705
4.705
4.710
4.709
4.712
4.722
4.719
4.719
4.723
4.723
4.716
4.708
4.707
4.717
4.718
4.716
4.710
4.709
4.710
4.706
4.702
4.712
4.715
4.712
4.712
4.705
4.707
4.708
4.707
4.709
4.715
4.725
4.727
4.723
4.721
4.722
4.723
4.722
4.718
4.716
4.721
4.731
4.742
4.734
4.723
4.720
4.723
4.719
4.718
4.717
4.723
4.731
4.738
4.741
4.738
4.738
4.735
4.736
4.737
4.733
4.735
4.738
4.740
4.752
4.756
4.752
4.751
4.752
4.745
4.741
4.742
4.744
4.745
4.744
4.749
4.755
4.753
4.755
4.751
4.750
4.748
4.755
4.748
4.742
4.737
4.733
4.727
4.734
4.737
4.733
4.731
4.725
4.723
4.725
4.719
4.723
4.732
4.742
4.743
4.741
4.737
4.730
4.724
4.717
4.713
4.712
4.708
4.716
4.724
4.734
4.738
4.736
4.735
4.731
4.731
4.730
4.726
4.725
4.729
4.727
4.719
4.720
4.731
4.738
4.743
4.745
4.748
4.745
4.751
4.745
4.745
4.745
4.742
4.733
4.729
4.733
4.734
4.736
4.745
4.747
4.748
4.745
4.742
4.747
4.742
4.744
4.743
4.736
4.734
4.733
4.731
4.727
4.732
4.742
4.742
4.747
4.746
4.745
4.743
4.742
4.742
4.742
4.746
4.744
4.742
4.741
4.740
4.734
4.737
4.742
4.749
4.758
4.764
4.757
4.759
4.758
4.764
4.761
4.760
4.761
4.762
4.761
4.754
4.747
4.746
4.745
4.746
4.749
4.757
4.764
4.771
4.764
4.760
4.761
4.753
4.758
4.756
4.755
4.757
4.757
4.756
4.752
4.748
4.750
4.753
4.750
4.753
4.761
4.768
4.777
4.773
4.780
4.779
4.774
4.775
4.780
4.776
4.774
4.775
4.774
4.771
4.772
4.773
4.779
4.778
4.775
4.767
4.766
4.771
4.779
4.786
4.794
4.790
4.783
4.778
4.782
4.784
4.783
4.786
4.785
4.779
4.775
4.778
4.772
4.767
4.763
4.764
4.766
4.770
4.769
4.775
4.772
4.771
4.772
4.770
4.772
4.771
4.771
4.770
4.768
4.764
4.769
4.773
4.771
4.770
4.771
4.770
4.761
4.760
4.757
4.757
4.763
4.770
4.774
4.775
4.768
4.770
4.772
4.771
4.774
4.770
4.771
4.765
4.768
4.765
4.768
4.765
4.763
4.765
4.764
4.767
4.769
4.767
4.769
4.771
4.771
4.768
4.775
4.782
4.785
4.789
4.783
4.784
4.783
4.778
4.779
4.778
4.782
4.786
4.780
4.776
4.774
4.770
4.774
4.771
4.775
4.775
4.774
4.770
4.771
4.768
4.766
4.768
4.775
4.779
4.786
4.792
4.797
4.805
4.807
4.801
4.802
4.800
4.794
4.794
4.790
4.790
4.790
4.789
4.791
4.792
4.791
4.794
4.793
4.794
4.790
4.789
4.790
4.790
4.788
4.790
4.788
4.786
4.786
4.789
4.794
4.801
4.807
4.812
4.819
4.814
4.813
4.814
4.819
4.816
4.821
4.819
4.815
4.809
4.804
4.803
4.801
4.803
4.804
4.803
4.802
4.805
4.804
4.805
4.799
4.801
4.799
4.798
4.801
4.797
4.797
4.797
4.799
4.805
4.807
4.808
4.810
4.805
4.807
4.806
4.807
4.808
4.802
4.797
4.793
4.800
4.799
4.800
4.807
4.805
4.804
4.803
4.804
4.800
4.799
4.795
4.793
4.790
4.790
4.792
4.788
4.787
4.786
4.790
4.794
4.790
4.797
4.803
4.810
4.814
4.819
4.827
4.827
4.823
4.824
4.823
4.819
4.819
4.823
4.827
4.826
4.820
4.815
4.817
4.815
4.814
4.813
4.814
4.815
4.817
4.816
4.817
4.816
4.817
4.819
4.812
4.813
4.814
4.812
4.814
4.815
4.814
4.818
4.817
4.815
4.812
4.812
4.819
4.824
4.830
4.834
4.839
4.846
4.852
4.853
4.850
4.846
4.845
4.845
4.852
4.849
4.850
4.848
4.841
4.835
4.833
4.834
4.836
4.834
4.831
4.832
4.827
4.823
4.820
4.826
4.825
4.826
4.827
4.824
4.822
4.819
4.823
4.831
4.833
4.827
4.820
4.821
4.820
4.819
4.820
4.826
4.831
4.832
4.828
4.824
4.823
4.821
4.817
4.813
4.809
4.808
4.809
4.808
4.811
4.812
4.806
4.810
4.811
4.812
4.811
4.808
4.808
4.802
4.801
4.802
4.803
4.808
4.809
4.807
4.805
4.804
4.801
4.801
4.800
4.801
4.801
4.801
4.801
4.802
4.801
4.799
4.800
4.805
4.811
4.808
4.812
4.818
4.823
4.821
4.825
4.821
4.819
4.815
4.812
4.815
4.811
4.810
4.816
4.816
4.816
4.813
4.811
4.812
4.812
4.812
4.812
4.815
4.812
4.807
4.803
4.797
4.798
4.796
4.795
4.801
4.800
4.802
4.803
4.802
4.797
4.799
4.800
4.797
4.794
4.788
4.787
4.790
4.787
4.786
4.789
4.793
4.798
4.804
4.806
4.812
4.817
4.823
4.823
4.823
4.823
4.823
4.820
4.818
4.816
4.816
4.817
4.821
4.819
4.823
4.822
4.826
4.830
4.827
4.828
4.831
4.828
4.823
4.817
4.813
4.812
4.813
4.812
4.813
4.814
4.812
4.806
4.810
4.806
4.804
4.803
4.805
4.812
4.808
