2.983
3.313
3.489
3.619
3.723
3.769
3.771
3.845
3.899
3.962
3.982
3.907
3.928
3.954
3.980
4.000
4.018
4.046
4.053
4.084
4.089
4.110
4.103
4.124
4.142
4.144
4.160
4.175
4.189
4.187
4.192
4.201
4.218
4.228
4.241
4.246
4.233
4.254
4.252
4.261
4.272
4.278
4.287
4.305
4.316
4.312
4.285
4.299
4.310
4.318
4.311
4.320
4.334
4.334
4.345
4.346
4.348
4.357
4.367
4.380
4.383
4.394
4.379
4.390
4.401
4.388
4.371
4.374
4.369
4.375
4.386
4.394
4.385
4.382
4.386
4.390
4.396
4.409
4.424
4.405
4.420
4.431
4.430
4.425
4.440
4.421
4.418
4.436
4.437
4.430
4.440
4.452
4.449
4.459
4.470
4.460
4.458
4.468
4.467
4.478
4.484
4.478
4.501
4.493
4.483
4.487
4.473
4.486
4.471
4.496
4.495
4.506
4.492
4.513
4.511
4.513
4.518
4.510
4.529
4.520
4.526
4.524
4.511
4.495
4.490
4.477
4.487
4.486
4.490
4.495
4.497
4.505
4.513
4.507
4.515
4.518
4.514
4.500
4.485
4.492
4.488
4.480
4.492
4.496
4.490
4.487
4.510
4.510
4.500
4.508
4.517
4.515
4.503
4.524
4.517
4.510
4.510
4.522
4.527
4.522
4.522
4.539
4.535
4.540
4.535
4.539
4.534
4.527
4.518
4.533
4.536
4.537
4.519
4.525
4.549
4.550
4.551
4.538
4.534
4.557
4.557
4.551
4.544
4.542
4.559
4.578
4.572
4.567
4.560
4.558
4.578
4.583
4.573
4.574
4.567
4.567
4.589
4.581
4.574
4.583
4.569
4.570
4.565
4.553
4.556
4.553
4.549
4.560
4.549
4.553
4.553
4.541
4.541
4.553
4.575
4.573
4.572
4.561
4.553
4.555
4.554
4.574
4.576
4.576
4.565
4.548
4.551
4.547
4.565
4.582
4.571
4.573
4.572
4.567
4.573
4.568
4.565
4.585
4.596
4.590
4.586
4.587
4.583
4.578
4.562
4.574
4.592
4.602
4.596
4.598
4.596
4.593
4.594
4.589
4.597
4.589
4.606
4.624
4.607
4.609
4.608
4.608
4.601
4.593
4.597
4.595
4.607
4.624
4.623
4.618
4.605
4.593
4.600
4.589
4.583
4.578
4.594
4.603
4.596
4.596
4.592
4.602
4.593
4.590
4.587
4.584
4.594
4.604
4.600
4.613
4.616
4.608
4.608
4.604
4.609
4.603
4.606
4.605
4.604
4.603
4.604
4.605
4.620
4.635
4.635
4.626
4.631
4.628
4.624
4.629
4.627
4.637
4.623
4.631
4.616
4.619
4.622
4.636
4.651
4.647
4.649
4.659
4.651
4.635
4.631
4.630
4.626
4.629
4.624
4.632
4.634
4.622
4.633
4.645
4.644
4.650
4.635
4.632
4.638
4.642
4.638
4.627
4.631
4.630
4.634
4.628
4.626
4.620
4.623
4.636
4.649
4.662
4.672
4.678
4.680
4.668
4.666
4.662
4.653
4.653
4.660
4.667
4.670
4.670
4.663
4.662
4.648
4.655
4.648
4.654
4.667
4.679
4.679
4.680
4.676
4.683
4.684
4.689
4.684
4.678
4.674
4.666
4.654
4.658
4.667
4.657
4.662
4.657
4.650
4.646
4.658
4.670
4.666
4.670
4.668
4.665
4.657
4.658
4.661
4.654
4.645
4.640
4.632
4.632
4.626
4.627
4.624
4.622
4.613
4.611
4.623
4.634
4.645
4.651
4.654
4.661
4.659
4.652
4.648
4.645
4.644
4.639
4.646
4.648
4.649
4.645
4.635
4.637
4.641
4.648
4.636
4.638
4.634
4.632
4.636
4.639
4.634
4.635
4.646
4.656
4.652
4.650
4.641
4.638
4.632
4.647
4.642
4.644
4.648
4.646
4.634
4.636
4.635
4.637
4.630
4.628
4.631
4.621
4.621
4.625
4.624
4.628
4.633
4.644
4.643
4.636
4.636
4.641
4.651
4.661
4.671
4.669
4.665
4.662
4.658
4.655
4.658
4.655
4.646
4.642
4.639
4.638
4.641
4.653
4.653
4.648
4.648
4.648
4.639
4.629
4.628
4.630
4.627
4.626
4.623
4.628
4.632
4.624
4.621
4.627
4.636
4.645
4.654
4.663
4.673
4.670
4.679
4.685
4.678
4.675
4.677
4.673
4.674
4.665
4.656
4.655
4.650
4.646
4.641
4.640
4.649
4.646
4.647
4.645
4.645
4.644
4.638
4.649
4.643
4.648
4.648
4.647
4.645
4.640
4.635
4.641
4.647
4.648
4.648
4.643
4.647
4.655
4.664
4.672
4.681
4.679
4.674
4.673
4.676
4.669
4.667
4.680
4.684
4.680
4.675
4.683
4.686
4.686
4.683
4.678
4.675
4.677
4.674
4.673
4.674
4.678
4.673
4.668
4.659
4.658
4.653
4.658
4.661
4.664
4.658
4.664
4.662
4.661
4.653
4.649
4.649
4.648
4.656
4.654
4.652
4.654
4.653
4.661
4.668
4.676
4.684
4.692
4.700
4.708
4.716
4.721
4.721
4.712
4.715
4.714
4.712
4.703
4.702
4.711
4.705
4.705
4.702
4.700
4.699
4.699
4.702
4.700
4.693
4.693
4.702
4.696
4.700
4.700
4.702
4.701
4.696
4.698
4.702
4.713
4.713
4.707
4.702
4.692
4.695
4.697
4.696
4.689
4.682
4.675
4.676
4.676
4.681
4.678
4.678
4.679
4.670
4.663
4.670
4.678
4.685
4.692
4.699
4.706
4.704
4.701
4.706
4.707
4.703
4.700
4.703
4.699
4.695
4.688
4.693
4.692
4.693
4.694
4.693
4.692
4.691
4.686
4.684
4.684
4.687
4.681
4.686
4.678
4.672
4.664
4.659
4.661
4.666
4.664
4.668
4.665
4.659
4.656
4.660
4.660
4.666
4.668
4.677
4.687
4.686
4.676
4.668
4.662
4.661
4.656
4.653
4.655
4.657
4.653
4.654
4.650
4.642
4.637
4.641
4.650
4.654
4.660
4.667
4.673
4.680
4.686
4.693
4.700
4.706
4.713
4.719
4.726
4.725
4.728
4.722
4.720
4.713
4.713
4.716
4.711
4.720
4.707
4.708
4.707
4.696
4.700
4.696
4.694
4.703
4.712
4.713
4.715
4.714
4.710
4.710
4.714
4.709
4.705
4.696
4.700
4.705
4.696
4.696
4.700
4.707
4.708
4.707
4.708
4.707
4.697
4.702
4.702
4.701
4.693
4.694
4.695
4.699
4.698
4.690
4.687
4.685
4.688
4.689
4.687
4.691
4.687
4.685
4.685
4.679
4.685
4.687
4.694
4.689
4.692
4.694
4.693
4.694
4.702
4.701
4.699
4.697
4.696
4.693
4.699
4.695
4.692
4.698
4.704
4.710
4.715
4.721
4.727
4.733
4.739
4.737
4.740
4.741
4.737
4.737
4.731
4.729
4.722
4.722
4.719
4.719
4.715
4.710
4.704
4.710
4.705
4.697
4.692
4.692
4.688
4.688
4.688
4.690
4.680
4.684
4.685
4.683
4.687
4.690
4.684
4.685
4.682
4.682
4.681
4.677
4.679
4.679
4.686
4.694
4.696
4.686
4.687
4.687
4.684
4.679
4.679
4.678
4.678
4.677
4.678
4.679
4.680
4.684
4.681
4.674
4.669
4.665
4.660
4.658
4.659
4.661
4.653
4.648
4.651
4.653
4.653
4.643
4.642
4.646
4.648
4.645
4.638
4.637
4.640
4.638
4.637
4.645
4.645
4.647
4.651
4.654
4.647
4.649
4.654
4.660
4.665
4.670
4.676
4.681
4.686
4.691
4.697
4.702
4.707
4.712
4.718
4.723
4.728
4.733
4.739
4.744
4.749
4.750
4.748
4.743
4.736
4.744
4.744
4.744
4.748
4.749
4.756
4.763
4.757
4.751
4.756
4.753
4.750
4.744
4.737
4.740
4.734
4.732
4.735
4.731
4.729
4.720
4.718
4.718
4.716
4.709
4.710
4.711
4.714
4.715
4.713
4.707
4.711
4.711
4.710
4.708
4.705
4.705
4.714
4.709
4.704
4.699
4.694
4.689
4.684
4.679
4.675
4.678
4.678
4.673
4.673
4.667
4.671
4.668
4.666
4.659
4.665
4.665
4.669
4.671
4.667
4.672
4.666
4.659
4.652
4.646
4.646
4.652
4.659
4.666
4.663
4.664
4.670
4.676
4.676
4.677
4.676
4.670
4.675
4.673
4.667
4.670
4.671
4.668
4.666
4.665
4.672
4.673
4.673
4.674
4.678
4.680
4.680
4.684
4.691
4.692
4.691
