2.989
3.317
3.483
3.598
3.681
3.759
3.786
3.865
3.923
3.904
3.871
3.901
3.932
3.958
3.977
3.998
4.026
4.032
4.054
4.069
4.091
4.104
4.110
4.127
4.142
4.130
4.148
4.167
4.180
4.199
4.198
4.191
4.205
4.213
4.226
4.233
4.253
4.266
4.266
4.247
4.254
4.267
4.265
4.272
4.284
4.288
4.300
4.297
4.309
4.312
4.333
4.342
4.347
4.333
4.352
4.354
4.331
4.330
4.333
4.344
4.346
4.344
4.346
4.351
4.353
4.354
4.372
4.364
4.370
4.375
4.378
4.394
4.379
4.377
4.387
4.380
4.394
4.412
4.410
4.409
4.416
4.422
4.426
4.432
4.437
4.443
4.446
4.466
4.441
4.440
4.430
4.445
4.439
4.466
4.449
4.467
4.463
4.474
4.471
4.476
4.476
4.479
4.476
4.492
4.474
4.455
4.449
4.436
4.455
4.451
4.455
4.465
4.457
4.473
4.477
4.472
4.464
4.446
4.464
4.441
4.452
4.453
4.442
4.470
4.467
4.459
4.474
4.471
4.476
4.474
4.477
4.459
4.469
4.490
4.486
4.482
4.492
4.499
4.502
4.489
4.500
4.483
4.476
4.488
4.496
4.493
4.485
4.492
4.523
4.505
4.501
4.494
4.517
4.523
4.510
4.509
4.513
4.540
4.533
4.528
4.525
4.524
4.552
4.536
4.536
4.531
4.528
4.547
4.551
4.541
4.525
4.525
4.529
4.528
4.516
4.496
4.513
4.521
4.504
4.518
4.519
4.516
4.519
4.528
4.533
4.525
4.520
4.516
4.515
4.533
4.516
4.518
4.526
4.518
4.508
4.524
4.542
4.554
4.553
4.534
4.534
4.531
4.525
4.544
4.552
4.545
4.543
4.544
4.538
4.530
4.536
4.552
4.573
4.581
4.565
4.565
4.568
4.558
4.549
4.547
4.568
4.588
4.587
4.588
4.578
4.564
4.566
4.563
4.561
4.569
4.566
4.564
4.560
4.563
4.549
4.529
4.533
4.542
4.556
4.575
4.578
4.582
4.567
4.564
4.558
4.556
4.555
4.550
4.547
4.565
4.584
4.601
4.594
4.588
4.577
4.569
4.567
4.578
4.567
4.575
4.570
4.575
4.592
4.609
4.596
4.603
4.615
4.605
4.608
4.603
4.594
4.597
4.586
4.582
4.582
4.598
4.615
4.621
4.606
4.591
4.587
4.591
4.589
4.582
4.583
4.585
4.583
4.572
4.584
4.600
4.615
4.630
4.622
4.623
4.611
4.616
4.613
4.608
4.611
4.614
4.615
4.614
4.610
4.606
4.608
4.610
4.624
4.639
4.647
4.641
4.630
4.639
4.639
4.637
4.630
4.626
4.621
4.620
4.631
4.628
4.620
4.622
4.619
4.621
4.635
4.646
4.638
4.629
4.621
4.612
4.606
4.615
4.616
4.619
4.617
4.616
4.604
4.608
4.610
4.600
4.592
4.605
4.618
4.617
4.624
4.621
4.613
4.602
4.599
4.592
4.595
4.599
4.600
4.585
4.582
4.595
4.594
4.599
4.597
4.592
4.591
4.597
4.599
4.611
4.624
4.636
4.639
4.633
4.628
4.620
4.610
4.599
4.598
4.588
4.594
4.593
4.593
4.586
4.584
4.572
4.578
4.575
4.574
4.587
4.582
4.586
4.595
4.606
4.618
4.630
4.642
4.640
4.632
4.628
4.618
4.618
4.611
4.620
4.619
4.605
4.602
4.614
4.616
4.609
4.597
4.594
4.583
4.591
4.590
4.596
4.588
4.590
4.586
4.586
4.597
4.608
4.619
4.630
4.630
4.625
4.640
4.647
4.644
4.640
4.642
4.631
4.635
4.630
4.618
4.614
4.616
4.606
4.617
4.616
4.604
4.596
4.591
4.601
4.600
4.604
4.604
4.606
4.603
4.594
4.593
4.594
4.596
4.606
4.616
4.626
4.637
4.647
4.652
4.650
4.642
4.642
4.642
4.632
4.635
4.635
4.634
4.637
4.639
4.641
4.645
4.638
4.629
4.623
4.616
4.615
4.617
4.622
4.616
4.617
4.619
4.629
4.630
4.622
4.608
4.611
4.612
4.605
4.618
4.612
4.625
4.624
4.620
4.629
4.639
4.648
4.658
4.667
4.677
4.676
4.678
4.677
4.668
4.672
4.665
4.670
4.665
4.662
4.659
4.658
4.660
4.662
4.658
4.651
4.643
4.644
4.649
4.660
4.660
4.658
4.658
4.657
4.658
4.663
4.660
4.666
4.658
4.645
4.646
4.650
4.644
4.646
4.640
4.638
4.646
4.638
4.640
4.645
4.646
4.643
4.650
4.659
4.668
4.676
4.685
4.685
4.680
4.685
4.692
4.696
4.689
4.681
4.674
4.666
4.661
4.656
4.654
4.650
4.643
4.636
4.641
4.633
4.632
4.629
4.625
4.623
4.619
4.621
4.632
4.634
4.638
4.637
4.626
4.619
4.620
4.631
4.635
4.632
4.623
4.627
4.620
4.616
4.615
4.617
4.620
4.627
4.624
4.616
4.611
4.613
4.621
4.629
4.637
4.644
4.652
4.660
4.668
4.676
4.677
4.679
4.684
4.675
4.681
4.673
4.667
4.665
4.672
4.674
4.673
4.666
4.665
4.655
4.662
4.655
4.665
4.667
4.666
4.668
4.662
4.665
4.662
4.660
4.659
4.658
4.661
4.664
4.660
4.661
4.663
4.657
4.657
4.651
4.647
4.655
4.658
4.653
4.653
4.654
4.655
4.648
4.645
4.637
4.637
4.635
4.630
4.634
4.637
4.629
4.633
4.642
4.653
4.652
4.646
4.648
4.657
4.653
4.648
4.650
4.649
4.652
4.662
4.662
4.669
4.676
4.683
4.690
4.697
4.704
4.710
4.710
4.708
4.709
4.707
4.712
4.702
4.702
4.699
4.690
4.690
4.681
4.676
4.675
4.669
4.668
4.668
4.662
4.656
4.656
4.660
4.660
4.663
4.662
4.654
4.646
4.647
4.643
4.644
4.636
4.633
4.643
4.652
4.655
4.653
4.645
4.641
4.636
4.638
4.638
4.636
4.632
4.636
4.638
4.633
4.637
4.635
4.635
4.639
4.644
4.638
4.632
4.633
4.634
4.627
4.624
4.624
4.620
4.615
4.613
4.606
4.599
4.592
4.593
4.600
4.597
4.603
4.609
4.616
4.622
4.628
4.635
4.641
4.647
4.653
4.660
4.666
4.672
4.679
4.685
4.691
4.696
4.697
4.698
4.701
4.700
4.701
4.698
4.697
4.690
4.692
4.699
4.708
4.717
4.712
4.709
4.703
4.703
4.705
4.705
4.706
4.701
4.705
4.698
4.701
4.701
4.703
4.700
4.694
4.691
4.685
4.676
4.677
4.675
4.682
4.675
4.671
4.676
4.676
4.669
4.670
4.678
4.678
4.677
4.675
4.670
4.671
4.661
4.657
4.655
4.656
4.660
4.653
4.645
4.644
4.644
4.643
4.642
4.636
4.631
4.626
4.619
4.621
4.610
4.616
4.624
4.631
4.626
4.627
4.631
4.627
4.623
4.625
4.624
4.623
4.622
4.617
4.617
4.614
4.619
4.623
4.618
4.619
4.623
4.627
4.636
4.640
4.642
4.634
4.636
4.633
4.630
4.633
4.635
4.635
4.631
4.634
4.639
4.645
4.650
4.656
4.661
4.667
4.672
4.678
4.683
4.689
4.694
4.700
4.701
4.697
4.691
4.698
4.696
4.689
4.688
4.692
4.685
4.687
4.688
4.687
4.689
4.695
4.690
4.688
4.679
4.670
4.669
4.669
4.666
4.667
4.661
4.664
4.673
4.680
4.682
4.676
4.680
4.679
4.678
4.681
4.679
4.675
4.670
4.673
4.671
4.679
4.686
4.694
4.697
4.696
4.698
4.703
4.709
4.710
4.705
4.701
4.694
4.692
4.688
4.685
4.694
4.688
4.687
4.682
4.684
4.682
4.676
4.678
4.671
4.667
4.661
4.654
4.649
4.648
4.639
4.637
4.639
4.635
4.633
4.635
4.635
4.640
4.634
4.635
4.644
4.643
4.645
4.650
4.648
4.649
4.651
4.651
4.658
4.656
4.658
4.654
4.655
4.654
4.654
4.654
4.655
4.647
4.643
4.638
4.639
4.639
4.636
4.627
4.625
4.617
4.619
4.627
4.628
4.621
4.621
4.624
4.627
4.622
4.629
4.629
4.624
4.626
4.632
4.634
4.636
4.639
4.638
4.632
4.636
4.643
4.650
4.656
4.663
4.664
4.667
4.658
4.653
4.651
4.647
4.652
4.656
4.661
4.666
4.670
4.675
4.680
4.685
4.689
4.694
4.699
4.703
4.708
4.713
4.717
4.722
4.727
4.732
