2.991
3.335
3.506
3.631
3.714
3.782
3.810
3.889
3.874
3.922
3.968
4.017
4.057
4.067
3.997
4.008
4.024
4.040
4.061
4.079
4.091
4.115
4.123
4.142
4.144
4.164
4.162
4.180
4.197
4.195
4.204
4.217
4.234
4.228
4.230
4.247
4.255
4.274
4.278
4.271
4.275
4.287
4.289
4.304
4.315
4.318
4.331
4.328
4.317
4.324
4.327
4.344
4.335
4.354
4.354
4.370
4.362
4.377
4.385
4.384
4.395
4.380
4.370
4.376
4.387
4.388
4.393
4.387
4.392
4.401
4.406
4.419
4.415
4.427
4.428
4.431
4.427
4.434
4.443
4.441
4.453
4.456
4.460
4.465
4.465
4.462
4.465
4.477
4.455
4.437
4.445
4.455
4.449
4.453
4.460
4.465
4.473
4.471
4.466
4.464
4.460
4.460
4.472
4.477
4.482
4.477
4.492
4.496
4.489
4.485
4.500
4.506
4.504
4.512
4.514
4.503
4.504
4.508
4.498
4.507
4.513
4.506
4.517
4.514
4.529
4.521
4.534
4.529
4.540
4.534
4.534
4.539
4.543
4.543
4.553
4.551
4.554
4.550
4.565
4.560
4.574
4.554
4.563
4.559
4.563
4.550
4.556
4.556
4.552
4.563
4.566
4.564
4.576
4.573
4.579
4.589
4.588
4.590
4.590
4.588
4.600
4.594
4.591
4.596
4.591
4.579
4.568
4.557
4.559
4.554
4.556
4.569
4.554
4.552
4.575
4.563
4.559
4.571
4.579
4.578
4.581
4.586
4.581
4.586
4.575
4.596
4.582
4.567
4.577
4.568
4.561
4.566
4.569
4.566
4.558
4.562
4.565
4.564
4.566
4.560
4.581
4.585
4.582
4.577
4.574
4.589
4.584
4.590
4.583
4.585
4.589
4.588
4.587
4.582
4.591
4.599
4.591
4.593
4.589
4.592
4.613
4.611
4.610
4.608
4.603
4.609
4.623
4.607
4.603
4.595
4.600
4.609
4.616
4.608
4.591
4.595
4.606
4.618
4.612
4.613
4.608
4.608
4.607
4.626
4.628
4.618
4.611
4.611
4.609
4.620
4.633
4.635
4.631
4.630
4.627
4.633
4.630
4.644
4.651
4.639
4.642
4.645
4.643
4.633
4.644
4.655
4.654
4.649
4.648
4.638
4.640
4.643
4.650
4.640
4.630
4.620
4.615
4.617
4.623
4.638
4.637
4.631
4.626
4.614
4.608
4.611
4.618
4.629
4.634
4.628
4.624
4.626
4.618
4.620
4.625
4.622
4.637
4.647
4.645
4.637
4.638
4.628
4.628
4.621
4.625
4.632
4.647
4.648
4.639
4.628
4.628
4.622
4.624
4.620
4.618
4.633
4.647
4.653
4.652
4.642
4.645
4.636
4.640
4.645
4.647
4.642
4.641
4.653
4.660
4.662
4.655
4.659
4.661
4.655
4.658
4.650
4.636
4.642
4.647
4.661
4.671
4.664
4.667
4.663
4.657
4.667
4.666
4.659
4.666
4.658
4.656
4.659
4.671
4.684
4.690
4.689
4.686
4.678
4.676
4.675
4.667
4.675
4.666
4.664
4.670
4.671
4.682
4.686
4.688
4.681
4.680
4.671
4.662
4.654
4.658
4.656
4.651
4.658
4.655
4.667
4.679
4.676
4.667
4.661
4.660
4.662
4.657
4.658
4.659
4.656
4.658
4.656
4.655
4.655
4.664
4.675
4.687
4.694
4.687
4.674
4.678
4.677
4.676
4.672
4.664
4.660
4.664
4.672
4.670
4.670
4.667
4.669
4.680
4.691
4.703
4.705
4.694
4.693
4.689
4.693
4.689
4.691
4.693
4.684
4.676
4.683
4.684
4.681
4.689
4.686
4.690
4.696
4.701
4.712
4.716
4.718
4.717
4.721
4.719
4.712
4.709
4.706
4.705
4.708
4.707
4.715
4.705
4.696
4.693
4.687
4.685
4.693
4.703
4.714
4.709
4.715
4.711
4.704
4.704
4.700
4.698
4.697
4.696
4.692
4.694
4.694
4.689
4.692
4.696
4.699
4.689
4.692
4.687
4.697
4.706
4.716
4.726
4.731
4.726
4.722
4.726
4.723
4.721
4.727
4.718
4.716
4.716
4.723
4.719
4.721
4.723
4.724
4.718
4.718
4.708
4.711
4.709
4.711
4.715
4.720
4.727
4.736
4.745
4.752
4.752
4.751
4.747
4.739
4.734
4.733
4.731
4.733
4.735
4.734
4.736
4.739
4.736
4.728
4.731
4.727
4.722
4.723
4.726
4.728
4.728
4.728
4.727
4.731
4.730
4.725
4.720
4.719
4.719
4.724
4.723
4.714
4.709
4.715
4.709
4.705
4.712
4.709
4.708
4.715
4.709
4.702
4.704
4.716
4.709
4.709
4.708
4.703
4.697
4.702
4.710
4.718
4.727
4.731
4.730
4.731
4.721
4.715
4.707
4.709
4.706
4.704
4.714
4.720
4.719
4.714
4.702
4.697
4.691
4.696
4.698
4.694
4.686
4.685
4.685
4.684
4.690
4.691
4.688
4.684
4.689
4.696
4.704
4.712
4.720
4.728
4.736
4.734
4.729
4.727
4.727
4.725
4.732
4.726
4.722
4.726
4.731
4.734
4.728
4.721
4.714
4.707
4.700
4.702
4.697
4.700
4.697
4.697
4.693
4.692
4.685
4.691
4.687
4.681
4.678
4.678
4.683
4.690
4.698
4.705
4.712
4.720
4.728
4.725
4.724
4.721
4.719
4.722
4.720
4.729
4.727
4.728
4.727
4.733
4.725
4.731
4.733
4.730
4.732
4.734
4.725
4.720
4.720
4.714
4.713
4.712
4.703
4.708
4.699
4.694
4.698
4.698
4.703
4.705
4.701
4.707
4.704
4.701
4.697
4.693
4.700
4.707
4.714
4.721
4.728
4.735
4.737
4.730
4.731
4.725
4.728
4.732
4.728
4.727
4.730
4.729
4.727
4.718
4.714
4.714
4.713
4.718
4.724
4.725
4.721
4.721
4.725
4.720
4.714
4.712
4.716
4.720
4.720
4.716
4.716
4.713
4.716
4.715
4.717
4.717
4.713
4.715
4.709
4.700
4.704
4.696
4.694
4.695
4.702
4.708
4.715
4.722
4.728
4.735
4.741
4.746
4.747
4.749
4.744
4.746
4.745
4.746
4.746
4.754
4.748
4.742
4.739
4.735
4.737
4.736
4.734
4.726
4.724
4.726
4.729
4.732
4.729
4.730
4.730
4.730
4.729
4.725
4.720
4.719
4.721
4.727
4.731
4.732
4.732
4.729
4.730
4.728
4.719
4.717
4.714
4.711
4.705
4.709
4.712
4.707
4.707
4.701
4.699
4.702
4.708
4.714
4.720
4.726
4.732
4.738
4.744
4.751
4.757
4.758
4.756
4.756
4.756
4.754
4.762
4.762
4.761
4.757
4.760
4.754
4.757
4.765
4.763
4.758
4.758
4.760
4.755
4.757
4.751
4.746
4.743
4.742
4.744
4.747
4.747
4.745
4.739
4.734
4.731
4.727
4.729
4.731
4.740
4.742
4.747
4.741
4.744
4.746
4.746
4.741
4.741
4.739
4.736
4.734
4.730
4.732
4.729
4.735
4.741
4.738
4.742
4.744
4.734
4.733
4.734
4.735
4.731
4.733
4.731
4.736
4.740
4.746
4.752
4.757
4.763
4.768
4.774
4.780
4.785
4.791
4.797
4.800
4.801
4.792
4.787
4.784
4.789
4.786
4.784
4.790
4.788
4.794
4.786
4.784
4.785
4.785
4.782
4.780
4.780
4.777
4.772
4.770
4.764
4.759
4.761
4.769
4.772
4.778
4.776
4.771
4.771
4.771
4.768
4.768
4.772
4.766
4.764
4.765
4.758
4.754
4.755
4.751
4.745
4.745
4.746
4.747
4.745
4.744
4.741
4.745
4.748
4.743
4.739
4.734
4.730
4.726
4.727
4.723
4.724
4.716
4.716
4.713
4.717
4.722
4.727
4.733
4.738
4.743
4.748
4.753
4.758
4.763
4.769
4.770
4.771
4.779
4.784
4.777
4.771
4.772
4.770
4.766
4.767
4.766
4.767
4.769
4.772
4.767
4.765
4.766
4.764
4.760
4.757
4.761
4.757
4.753
4.750
4.749
4.751
4.755
4.751
4.748
4.748
4.746
4.742
4.745
4.747
4.744
4.740
4.738
4.741
4.746
4.743
4.741
4.736
4.737
4.731
4.736
4.735
4.740
4.742
4.739
4.736
4.738
4.740
4.747
4.753
4.751
4.751
4.750
4.748
4.747
4.742
4.736
4.736
4.739
4.736
4.737
4.735
4.731
4.731
4.725
4.723
4.723
4.721
4.723
4.719
4.723
4.723
4.727
4.727
4.729
