2.995
3.332
3.515
3.629
3.720
3.775
3.842
3.887
3.912
3.969
3.970
4.010
4.050
4.084
4.052
4.081
4.101
4.125
4.153
4.169
4.192
4.213
4.227
4.246
4.217
4.179
4.182
4.190
4.203
4.210
4.220
4.231
4.239
4.245
4.258
4.262
4.271
4.279
4.280
4.292
4.301
4.301
4.310
4.320
4.326
4.322
4.334
4.339
4.346
4.352
4.351
4.360
4.364
4.372
4.376
4.386
4.375
4.385
4.384
4.396
4.400
4.407
4.412
4.416
4.408
4.413
4.417
4.421
4.428
4.432
4.434
4.440
4.450
4.449
4.453
4.438
4.445
4.451
4.449
4.456
4.460
4.467
4.471
4.468
4.472
4.481
4.485
4.492
4.488
4.492
4.497
4.495
4.488
4.487
4.490
4.490
4.494
4.497
4.502
4.509
4.510
4.511
4.515
4.514
4.516
4.523
4.529
4.530
4.532
4.538
4.534
4.538
4.537
4.544
4.548
4.549
4.560
4.555
4.548
4.538
4.535
4.533
4.538
4.536
4.542
4.544
4.546
4.549
4.557
4.558
4.559
4.566
4.562
4.560
4.562
4.563
4.562
4.569
4.567
4.575
4.579
4.585
4.586
4.585
4.584
4.586
4.590
4.588
4.587
4.593
4.598
4.596
4.594
4.591
4.603
4.605
4.605
4.608
4.612
4.618
4.611
4.613
4.620
4.621
4.622
4.627
4.622
4.620
4.625
4.631
4.627
4.615
4.605
4.594
4.598
4.597
4.600
4.607
4.605
4.612
4.605
4.612
4.614
4.620
4.619
4.612
4.620
4.620
4.619
4.618
4.628
4.623
4.633
4.627
4.619
4.627
4.627
4.627
4.623
4.623
4.623
4.632
4.627
4.632
4.634
4.631
4.636
4.634
4.642
4.638
4.645
4.646
4.644
4.648
4.649
4.656
4.649
4.651
4.653
4.646
4.653
4.654
4.657
4.660
4.661
4.668
4.668
4.662
4.671
4.659
4.658
4.657
4.657
4.662
4.663
4.662
4.663
4.656
4.666
4.664
4.666
4.670
4.675
4.667
4.672
4.675
4.666
4.673
4.677
4.676
4.674
4.687
4.685
4.682
4.691
4.695
4.688
4.689
4.694
4.694
4.690
4.689
4.690
4.682
4.694
4.700
4.697
4.697
4.704
4.703
4.701
4.697
4.710
4.711
4.713
4.703
4.713
4.711
4.712
4.712
4.716
4.709
4.701
4.708
4.705
4.703
4.699
4.711
4.718
4.716
4.715
4.709
4.715
4.709
4.705
4.709
4.710
4.709
4.705
4.708
4.720
4.722
4.713
4.717
4.715
4.725
4.727
4.725
4.726
4.727
4.734
4.731
4.732
4.728
4.729
4.741
4.740
4.739
4.734
4.731
4.743
4.738
4.731
4.725
4.721
4.714
4.708
4.703
4.710
4.708
4.704
4.705
4.704
4.701
4.701
4.700
4.701
4.698
4.705
4.717
4.710
4.712
4.713
4.705
4.710
4.719
4.723
4.720
4.715
4.709
4.712
4.716
4.715
4.719
4.715
4.719
4.715
4.725
4.724
4.722
4.720
4.720
4.721
4.723
4.732
4.736
4.735
4.733
4.734
4.739
4.732
4.736
4.729
4.722
4.715
4.711
4.721
4.723
4.723
4.719
4.721
4.723
4.720
4.722
4.727
4.722
4.720
4.712
4.707
4.711
4.721
4.720
4.718
4.722
4.721
4.722
4.715
4.717
4.723
4.722
4.721
4.719
4.718
4.716
4.715
4.720
4.731
4.731
4.732
4.727
4.726
4.727
4.726
4.730
4.732
4.742
4.743
4.736
4.737
4.733
4.732
4.733
4.732
4.738
4.742
4.739
4.743
4.738
4.732
4.731
4.729
4.731
4.742
4.745
4.749
4.750
4.743
4.741
4.738
4.736
4.740
4.742
4.751
4.753
4.753
4.747
4.751
4.750
4.751
4.749
4.749
4.747
4.757
4.768
4.770
4.761
4.759
4.758
4.760
4.753
4.746
4.749
4.754
4.752
4.754
4.758
4.757
4.750
4.751
4.745
4.748
4.750
4.754
4.763
4.756
4.753
4.749
4.753
4.753
4.745
4.745
4.744
4.748
4.757
4.765
4.771
4.771
4.766
4.760
4.764
4.760
4.761
4.759
4.755
4.757
4.764
4.771
4.772
4.773
4.774
4.776
4.774
4.767
4.757
4.759
4.757
4.760
4.766
4.773
4.782
4.779
4.777
4.778
4.777
4.776
4.779
4.775
4.772
4.775
4.772
4.770
4.780
4.787
4.794
4.797
4.794
4.795
4.797
4.790
4.785
4.784
4.786
4.789
4.780
4.779
4.788
4.795
4.793
4.794
4.793
4.795
4.788
4.787
4.785
4.784
4.786
4.786
4.782
4.779
4.782
4.779
4.772
4.765
4.769
4.767
4.769
4.764
4.769
4.765
4.766
4.765
4.768
4.775
4.780
4.776
4.782
4.781
4.779
4.779
4.779
4.771
4.769
4.764
4.758
4.753
4.758
4.764
4.772
4.768
4.774
4.767
4.769
4.770
4.774
4.776
4.772
4.768
4.769
4.765
4.760
4.760
4.761
4.765
4.772
4.779
4.780
4.779
4.779
4.778
4.780
4.778
4.779
4.775
4.775
4.781
4.782
4.778
4.780
4.778
4.777
4.775
4.780
4.787
4.790
4.789
4.788
4.792
4.785
4.782
4.779
4.778
4.777
4.775
4.774
4.776
4.775
4.778
4.777
4.776
4.779
4.786
4.794
4.794
4.788
4.784
4.777
4.773
4.779
4.784
4.783
4.775
4.774
4.771
4.774
4.773
4.771
4.770
4.771
4.779
4.786
4.794
4.799
4.803
4.801
4.797
4.794
4.790
4.791
4.795
4.790
4.787
4.790
4.790
4.794
4.789
4.788
4.790
4.793
4.797
4.790
4.790
4.797
4.803
4.810
4.805
4.804
4.805
4.805
4.801
4.802
4.798
4.799
4.803
4.801
4.800
4.794
4.789
4.785
4.790
4.790
4.787
4.785
4.792
4.799
4.805
4.810
4.811
4.810
4.806
4.807
4.808
4.808
4.805
4.802
4.809
4.810
4.811
4.810
4.805
4.805
4.801
4.802
4.806
4.804
4.803
4.802
4.798
4.805
4.811
4.816
4.823
4.829
4.833
4.831
4.831
4.831
4.828
4.826
4.822
4.816
4.816
4.816
4.817
4.815
4.817
4.823
4.822
4.816
4.812
4.808
4.809
4.807
4.812
4.812
4.819
4.823
4.820
4.821
4.819
4.820
4.820
4.816
4.812
4.807
4.803
4.797
4.795
4.799
4.795
4.796
4.794
4.793
4.795
4.793
4.797
4.799
4.800
4.797
4.801
4.808
4.812
4.820
4.825
4.827
4.827
4.827
4.825
4.818
4.817
4.816
4.811
4.805
4.805
4.801
4.800
4.802
4.805
4.808
4.808
4.801
4.795
4.791
4.794
4.790
4.789
4.793
4.798
4.804
4.809
4.815
4.820
4.820
4.820
4.827
4.827
4.826
4.823
4.826
4.820
4.821
4.822
4.823
4.822
4.823
4.822
4.818
4.819
4.820
4.820
4.815
4.814
4.815
4.814
4.813
4.806
4.807
4.805
4.801
4.806
4.812
4.817
4.821
4.827
4.829
4.831
4.827
4.825
4.829
4.831
4.829
4.825
4.827
4.830
4.829
4.831
4.829
4.830
4.827
4.825
4.829
4.830
4.829
4.828
4.831
4.830
4.831
4.831
4.826
4.820
4.820
4.816
4.821
4.820
4.816
4.820
4.826
4.831
4.835
4.841
4.848
4.847
4.848
4.845
4.845
4.844
4.843
4.842
4.842
4.836
4.837
4.841
4.845
4.845
4.840
4.842
4.842
4.847
4.849
4.850
4.851
4.847
4.848
4.845
4.842
4.839
4.838
4.836
4.835
4.833
4.831
4.833
4.835
4.833
4.837
4.841
4.845
4.850
4.853
4.855
4.854
4.857
4.859
4.864
4.862
4.857
4.853
4.850
4.849
4.850
4.846
4.845
4.851
4.857
4.854
4.850
4.849
4.847
4.842
4.838
4.835
4.830
4.827
4.825
4.827
4.823
4.826
4.828
4.824
4.825
4.826
4.827
4.829
4.834
4.837
4.842
4.848
4.853
4.857
4.853
4.851
4.855
4.857
4.855
4.849
4.847
4.848
4.847
4.845
4.845
4.849
4.850
4.851
4.849
4.848
4.849
4.853
4.847
4.843
4.841
4.838
4.838
4.837
4.838
4.840
4.839
4.835
4.838
4.838
4.838
4.840
4.839
4.838
4.838
4.835
4.841
4.846
4.841
4.845
4.849
4.854
4.858
4.862
4.868
4.871
4.871
4.868
4.868
4.868
4.874
4.876
