2.991
3.330
3.518
3.622
3.719
3.766
3.818
3.893
3.904
3.959
4.006
3.981
4.014
4.042
4.076
4.102
4.132
4.155
4.148
4.096
4.098
4.111
4.134
4.142
4.153
4.169
4.176
4.190
4.195
4.212
4.212
4.225
4.236
4.238
4.250
4.257
4.269
4.270
4.278
4.288
4.297
4.290
4.304
4.309
4.315
4.327
4.336
4.328
4.334
4.336
4.349
4.353
4.362
4.369
4.373
4.361
4.372
4.371
4.380
4.383
4.390
4.396
4.404
4.411
4.411
4.418
4.426
4.408
4.411
4.409
4.416
4.426
4.425
4.434
4.435
4.432
4.446
4.451
4.452
4.461
4.460
4.457
4.470
4.468
4.475
4.487
4.481
4.459
4.458
4.458
4.467
4.468
4.481
4.473
4.485
4.487
4.483
4.484
4.484
4.490
4.495
4.506
4.507
4.504
4.506
4.514
4.521
4.511
4.518
4.516
4.517
4.522
4.529
4.535
4.536
4.541
4.540
4.551
4.548
4.557
4.550
4.551
4.552
4.547
4.551
4.542
4.527
4.526
4.531
4.528
4.536
4.538
4.539
4.540
4.546
4.543
4.546
4.555
4.552
4.562
4.549
4.551
4.546
4.555
4.556
4.547
4.559
4.557
4.561
4.567
4.564
4.575
4.569
4.576
4.573
4.578
4.579
4.572
4.585
4.582
4.591
4.591
4.595
4.593
4.598
4.597
4.587
4.582
4.596
4.589
4.590
4.586
4.596
4.595
4.595
4.602
4.592
4.602
4.603
4.607
4.611
4.609
4.620
4.616
4.615
4.620
4.618
4.619
4.614
4.617
4.627
4.627
4.627
4.631
4.625
4.636
4.640
4.635
4.642
4.647
4.642
4.647
4.651
4.639
4.636
4.636
4.634
4.650
4.644
4.639
4.647
4.642
4.632
4.645
4.646
4.647
4.642
4.651
4.648
4.650
4.656
4.663
4.653
4.653
4.667
4.666
4.667
4.665
4.676
4.668
4.668
4.668
4.683
4.678
4.670
4.662
4.653
4.645
4.640
4.636
4.624
4.630
4.643
4.641
4.639
4.635
4.646
4.648
4.646
4.645
4.641
4.646
4.647
4.649
4.640
4.651
4.653
4.651
4.654
4.651
4.658
4.668
4.670
4.667
4.663
4.662
4.671
4.671
4.665
4.655
4.655
4.657
4.650
4.654
4.648
4.652
4.658
4.655
4.645
4.637
4.653
4.657
4.651
4.644
4.642
4.645
4.655
4.652
4.651
4.651
4.651
4.648
4.663
4.664
4.664
4.664
4.667
4.663
4.664
4.674
4.670
4.672
4.671
4.669
4.660
4.674
4.671
4.664
4.669
4.670
4.669
4.666
4.680
4.676
4.679
4.677
4.671
4.672
4.674
4.683
4.694
4.692
4.689
4.691
4.687
4.683
4.681
4.696
4.702
4.692
4.681
4.677
4.682
4.678
4.688
4.692
4.690
4.689
4.687
4.685
4.679
4.677
4.690
4.693
4.693
4.687
4.693
4.691
4.689
4.682
4.688
4.701
4.708
4.707
4.704
4.699
4.705
4.699
4.698
4.693
4.705
4.704
4.706
4.708
4.706
4.704
4.702
4.698
4.700
4.705
4.717
4.723
4.720
4.718
4.723
4.726
4.721
4.717
4.716
4.710
4.722
4.735
4.735
4.732
4.726
4.717
4.717
4.714
4.717
4.716
4.721
4.733
4.730
4.726
4.720
4.712
4.706
4.699
4.700
4.702
4.714
4.711
4.709
4.706
4.706
4.710
4.708
4.705
4.706
4.702
4.700
4.699
4.703
4.702
4.703
4.706
4.698
4.697
4.694
4.696
4.696
4.693
4.702
4.713
4.709
4.712
4.712
4.717
4.710
4.705
4.711
4.713
4.712
4.707
4.706
4.711
4.718
4.724
4.726
4.722
4.712
4.717
4.706
4.711
4.715
4.710
4.708
4.708
4.710
4.715
4.721
4.717
4.717
4.716
4.714
4.711
4.702
4.706
4.707
4.708
4.709
4.707
4.704
4.714
4.724
4.734
4.733
4.728
4.726
4.724
4.730
4.725
4.728
4.727
4.727
4.727
4.721
4.720
4.721
4.726
4.733
4.743
4.737
4.739
4.738
4.736
4.733
4.737
4.736
4.730
4.728
4.728
4.723
4.716
4.717
4.722
4.732
4.741
4.745
4.741
4.746
4.747
4.746
4.748
4.745
4.742
4.744
4.737
4.739
4.738
4.743
4.743
4.746
4.746
4.740
4.748
4.757
4.764
4.762
4.758
4.759
4.756
4.761
4.763
4.760
4.756
4.748
4.744
4.745
4.743
4.748
4.743
4.742
4.751
4.753
4.761
4.765
4.761
4.755
4.748
4.742
4.737
4.737
4.733
4.737
4.734
4.735
4.735
4.737
4.741
4.738
4.735
4.736
4.745
4.753
4.756
4.752
4.748
4.749
4.748
4.748
4.745
4.737
4.731
4.734
4.732
4.733
4.730
4.727
4.735
4.734
4.733
4.735
4.738
4.742
4.750
4.758
4.766
4.763
4.764
4.764
4.769
4.765
4.758
4.754
4.753
4.749
4.751
4.747
4.744
4.749
4.748
4.749
4.742
4.736
4.736
4.737
4.741
4.749
4.757
4.764
4.772
4.779
4.775
4.782
4.779
4.779
4.783
4.782
4.774
4.765
4.763
4.761
4.759
4.758
4.768
4.764
4.764
4.759
4.758
4.758
4.754
4.760
4.754
4.756
4.764
4.771
4.779
4.786
4.794
4.798
4.792
4.794
4.791
4.790
4.789
4.787
4.787
4.784
4.779
4.776
4.780
4.781
4.783
4.784
4.779
4.771
4.764
4.773
4.772
4.769
4.771
4.773
4.772
4.776
4.783
4.790
4.797
4.799
4.793
4.793
4.790
4.784
4.777
4.771
4.766
4.776
4.774
4.775
4.781
4.772
4.768
4.768
4.769
4.767
4.765
4.766
4.764
4.761
4.762
4.760
4.757
4.763
4.770
4.777
4.783
4.791
4.797
4.801
4.802
4.798
4.793
4.796
4.793
4.789
4.792
4.791
4.790
4.787
4.786
4.789
4.786
4.787
4.785
4.784
4.784
4.787
4.787
4.789
4.788
4.790
4.786
4.782
4.781
4.781
4.780
4.781
4.779
4.785
4.792
4.798
4.805
4.812
4.817
4.821
4.820
4.818
4.821
4.814
4.813
4.818
4.817
4.815
4.819
4.818
4.822
4.825
4.827
4.822
4.823
4.815
4.807
4.804
4.802
4.796
4.796
4.799
4.795
4.793
4.792
4.795
4.802
4.807
4.802
4.798
4.800
4.797
4.804
4.810
4.816
4.818
4.814
4.811
4.807
4.804
4.800
4.796
4.793
4.790
4.793
4.792
4.795
4.789
4.786
4.783
4.781
4.782
4.776
4.772
4.769
4.773
4.772
4.774
4.771
4.773
4.772
4.776
4.779
4.773
4.769
4.768
4.769
4.773
4.779
4.785
4.791
4.797
4.797
4.792
4.791
4.789
4.787
4.789
4.789
4.786
4.786
4.785
4.783
4.783
4.781
4.780
4.779
4.779
4.781
4.781
4.783
4.781
4.778
4.775
4.776
4.778
4.774
4.773
4.781
4.781
4.778
4.771
4.770
4.773
4.769
4.768
4.769
4.769
4.770
4.766
4.767
4.772
4.778
4.784
4.789
4.795
4.799
4.799
4.796
4.794
4.790
4.791
4.788
4.785
4.787
4.786
4.792
4.794
4.793
4.800
4.802
4.799
4.798
4.798
4.797
4.792
4.790
4.789
4.791
4.790
4.790
4.794
4.793
4.791
4.786
4.780
4.774
4.774
4.776
4.777
4.779
4.776
4.775
4.778
4.776
4.777
4.781
4.781
4.780
4.776
4.771
4.776
4.781
4.786
4.792
4.797
4.800
4.799
4.793
4.795
4.798
4.800
4.794
4.787
4.787
4.785
4.794
4.791
4.790
4.785
4.785
4.783
4.779
4.779
4.780
4.780
4.780
4.773
4.775
4.774
4.781
4.784
4.778
4.781
4.780
4.775
4.777
4.778
4.777
4.776
4.775
4.776
4.774
4.775
4.773
4.771
4.773
4.777
4.774
4.773
4.773
4.771
4.774
4.777
4.776
4.777
4.773
4.778
4.783
4.788
4.793
4.798
4.803
4.808
4.813
4.811
4.808
4.804
4.801
4.807
4.806
4.805
4.803
4.808
4.805
4.807
4.806
4.802
4.797
4.798
4.790
4.783
4.783
4.779
4.777
4.779
4.776
4.779
4.778
4.777
4.773
4.776
4.777
4.776
4.776
4.776
4.775
4.772
4.771
4.778
4.781
4.777
4.775
4.778
4.785
4.788
4.787
4.785
4.783
4.787
4.789
4.786
4.785
4.779
4.779
