2.992
3.334
3.512
3.627
3.722
3.789
3.856
3.897
3.922
3.978
3.975
4.020
4.060
4.042
4.060
4.085
4.109
4.132
4.157
4.175
4.196
4.217
4.223
4.181
4.155
4.165
4.183
4.190
4.199
4.211
4.215
4.231
4.237
4.242
4.259
4.260
4.268
4.280
4.281
4.290
4.300
4.308
4.305
4.316
4.322
4.331
4.327
4.332
4.341
4.351
4.358
4.365
4.355
4.362
4.369
4.375
4.380
4.387
4.394
4.394
4.386
4.395
4.401
4.405
4.413
4.416
4.421
4.431
4.429
4.438
4.421
4.431
4.434
4.436
4.440
4.447
4.451
4.450
4.456
4.461
4.468
4.471
4.476
4.474
4.481
4.472
4.470
4.477
4.471
4.471
4.476
4.488
4.487
4.494
4.494
4.497
4.497
4.501
4.511
4.510
4.514
4.521
4.514
4.521
4.522
4.526
4.530
4.537
4.534
4.543
4.530
4.518
4.519
4.520
4.520
4.526
4.530
4.532
4.533
4.537
4.539
4.545
4.552
4.540
4.539
4.545
4.547
4.551
4.553
4.557
4.560
4.564
4.564
4.565
4.566
4.573
4.577
4.567
4.572
4.576
4.575
4.579
4.583
4.583
4.583
4.592
4.597
4.598
4.596
4.597
4.602
4.609
4.602
4.609
4.607
4.606
4.607
4.611
4.612
4.600
4.590
4.579
4.580
4.583
4.591
4.587
4.593
4.594
4.593
4.601
4.597
4.598
4.602
4.603
4.605
4.605
4.612
4.605
4.612
4.612
4.602
4.611
4.605
4.606
4.604
4.608
4.607
4.614
4.612
4.619
4.612
4.617
4.616
4.623
4.624
4.633
4.629
4.633
4.635
4.633
4.635
4.630
4.637
4.628
4.640
4.642
4.640
4.649
4.645
4.653
4.648
4.647
4.651
4.639
4.643
4.641
4.649
4.650
4.648
4.644
4.643
4.647
4.651
4.645
4.656
4.653
4.651
4.660
4.654
4.655
4.665
4.664
4.660
4.669
4.671
4.672
4.671
4.674
4.675
4.671
4.679
4.674
4.670
4.674
4.675
4.674
4.684
4.688
4.681
4.682
4.687
4.685
4.681
4.694
4.695
4.691
4.687
4.699
4.703
4.696
4.695
4.693
4.683
4.685
4.697
4.690
4.694
4.693
4.706
4.701
4.689
4.693
4.695
4.694
4.687
4.693
4.697
4.696
4.700
4.696
4.706
4.707
4.701
4.702
4.708
4.716
4.717
4.715
4.705
4.718
4.717
4.718
4.716
4.715
4.727
4.726
4.728
4.718
4.720
4.718
4.712
4.705
4.701
4.694
4.689
4.686
4.694
4.696
4.692
4.683
4.681
4.694
4.690
4.691
4.692
4.686
4.694
4.699
4.701
4.694
4.695
4.697
4.701
4.701
4.697
4.691
4.692
4.696
4.709
4.708
4.705
4.704
4.701
4.701
4.712
4.716
4.716
4.708
4.711
4.713
4.716
4.727
4.727
4.721
4.716
4.715
4.709
4.705
4.705
4.699
4.700
4.697
4.708
4.716
4.709
4.704
4.700
4.699
4.701
4.702
4.697
4.699
4.698
4.697
4.694
4.704
4.711
4.707
4.703
4.701
4.700
4.696
4.703
4.712
4.712
4.713
4.712
4.707
4.708
4.704
4.711
4.721
4.725
4.723
4.722
4.726
4.716
4.710
4.716
4.726
4.731
4.724
4.722
4.716
4.720
4.718
4.716
4.726
4.725
4.724
4.727
4.726
4.728
4.723
4.720
4.723
4.733
4.734
4.733
4.732
4.731
4.729
4.728
4.727
4.727
4.737
4.747
4.751
4.750
4.746
4.742
4.743
4.739
4.738
4.736
4.743
4.741
4.738
4.733
4.731
4.733
4.734
4.730
4.732
4.741
4.751
4.744
4.742
4.741
4.738
4.733
4.729
4.730
4.732
4.741
4.745
4.750
4.745
4.744
4.743
4.745
4.740
4.745
4.742
4.739
4.748
4.758
4.762
4.757
4.757
4.755
4.756
4.753
4.754
4.750
4.745
4.750
4.759
4.761
4.759
4.755
4.757
4.758
4.756
4.760
4.754
4.753
4.753
4.755
4.764
4.772
4.776
4.774
4.775
4.772
4.773
4.774
4.773
4.772
4.770
4.771
4.765
4.774
4.778
4.779
4.781
4.782
4.778
4.772
4.773
4.771
4.765
4.766
4.765
4.768
4.778
4.775
4.771
4.766
4.760
4.755
4.751
4.749
4.746
4.742
4.746
4.755
4.764
4.763
4.760
4.764
4.762
4.758
4.757
4.750
4.754
4.761
4.756
4.755
4.754
4.753
4.754
4.750
4.753
4.747
4.748
4.750
4.753
4.749
4.749
4.753
4.753
4.745
4.745
4.749
4.756
4.764
4.767
4.771
4.764
4.764
4.757
4.755
4.753
4.755
4.760
4.761
4.757
4.758
4.756
4.753
4.759
4.768
4.775
4.779
4.770
4.774
4.771
4.768
4.768
4.769
4.768
4.761
4.757
4.755
4.757
4.757
4.756
4.763
4.771
4.775
4.770
4.764
4.770
4.769
4.765
4.766
4.765
4.761
4.756
4.758
4.757
4.755
4.753
4.750
4.757
4.764
4.771
4.780
4.786
4.783
4.783
4.779
4.778
4.774
4.775
4.774
4.771
4.771
4.773
4.771
4.767
4.768
4.770
4.771
4.771
4.775
4.784
4.790
4.795
4.793
4.794
4.791
4.790
4.786
4.789
4.786
4.781
4.780
4.778
4.775
4.778
4.775
4.775
4.780
4.775
4.775
4.783
4.790
4.797
4.791
4.789
4.790
4.789
4.786
4.787
4.786
4.787
4.791
4.789
4.786
4.786
4.785
4.783
4.783
4.786
4.785
4.784
4.783
4.789
4.794
4.801
4.808
4.814
4.813
4.812
4.813
4.814
4.816
4.811
4.810
4.811
4.805
4.801
4.799
4.797
4.802
4.803
4.802
4.801
4.801
4.800
4.799
4.797
4.804
4.809
4.815
4.816
4.816
4.811
4.808
4.806
4.805
4.808
4.807
4.801
4.799
4.795
4.790
4.786
4.782
4.776
4.772
4.779
4.779
4.779
4.786
4.792
4.797
4.805
4.808
4.803
4.802
4.805
4.805
4.809
4.805
4.808
4.805
4.798
4.793
4.800
4.794
4.790
4.786
4.789
4.783
4.783
4.783
4.781
4.780
4.778
4.785
4.789
4.796
4.801
4.805
4.800
4.804
4.808
4.807
4.809
4.802
4.806
4.799
4.801
4.802
4.801
4.804
4.800
4.796
4.797
4.801
4.800
4.797
4.803
4.804
4.805
4.801
4.795
4.791
4.792
4.794
4.801
4.805
4.812
4.815
4.816
4.818
4.812
4.808
4.811
4.807
4.805
4.810
4.809
4.812
4.812
4.812
4.808
4.805
4.806
4.808
4.809
4.808
4.809
4.810
4.808
4.807
4.806
4.804
4.803
4.805
4.811
4.804
4.809
4.815
4.820
4.826
4.831
4.831
4.831
4.834
4.833
4.831
4.823
4.820
4.822
4.821
4.819
4.824
4.823
4.821
4.820
4.824
4.830
4.827
4.825
4.829
4.825
4.831
4.828
4.826
4.828
4.831
4.825
4.824
4.817
4.815
4.817
4.820
4.825
4.831
4.834
4.842
4.839
4.837
4.839
4.840
4.842
4.840
4.841
4.842
4.842
4.840
4.836
4.835
4.833
4.834
4.834
4.832
4.831
4.832
4.834
4.832
4.828
4.827
4.825
4.829
4.823
4.820
4.816
4.812
4.809
4.807
4.812
4.818
4.823
4.827
4.833
4.837
4.833
4.834
4.830
4.832
4.834
4.832
4.831
4.832
4.833
4.834
4.828
4.832
4.831
4.835
4.831
4.831
4.833
4.834
4.831
4.829
4.825
4.824
4.825
4.820
4.822
4.818
4.816
4.820
4.819
4.818
4.820
4.821
4.820
4.821
4.823
4.826
4.827
4.831
4.836
4.842
4.845
4.851
4.857
4.856
4.853
4.853
4.847
4.849
4.853
4.854
4.852
4.853
4.852
4.851
4.849
4.849
4.847
4.843
4.845
4.846
4.844
4.843
4.844
4.845
4.850
4.853
4.855
4.854
4.852
4.853
4.849
4.845
4.849
4.845
4.844
4.846
4.847
4.842
4.844
4.846
4.842
4.838
4.841
4.845
4.850
4.854
4.860
4.865
4.869
4.873
4.872
4.870
4.868
4.862
4.866
4.864
4.866
4.867
4.864
4.862
4.864
4.864
4.860
4.865
4.866
4.864
4.863
4.860
4.861
4.862
4.860
4.857
4.855
4.851
4.849
4.846
4.844
4.840
4.838
4.837
4.833
4.831
4.828
4.826
4.822
4.820
4.823
4.826
4.831
