2.994
3.334
3.511
3.638
3.724
3.785
3.841
3.878
3.943
3.942
3.993
4.037
4.008
4.037
4.064
4.092
4.123
4.147
4.170
4.188
4.170
4.125
4.127
4.144
4.157
4.164
4.182
4.186
4.205
4.205
4.222
4.223
4.234
4.248
4.249
4.264
4.272
4.268
4.279
4.292
4.304
4.295
4.305
4.317
4.324
4.336
4.321
4.334
4.338
4.349
4.353
4.364
4.357
4.358
4.362
4.369
4.378
4.382
4.386
4.397
4.401
4.401
4.397
4.401
4.401
4.410
4.416
4.416
4.419
4.429
4.431
4.438
4.444
4.446
4.455
4.434
4.439
4.438
4.442
4.446
4.455
4.459
4.464
4.464
4.468
4.475
4.477
4.478
4.485
4.481
4.493
4.490
4.494
4.503
4.508
4.509
4.510
4.492
4.485
4.486
4.488
4.495
4.499
4.501
4.508
4.505
4.510
4.517
4.508
4.514
4.515
4.520
4.524
4.530
4.531
4.533
4.535
4.538
4.543
4.545
4.535
4.539
4.545
4.541
4.548
4.550
4.557
4.563
4.568
4.571
4.567
4.566
4.573
4.575
4.584
4.575
4.579
4.575
4.578
4.579
4.565
4.553
4.551
4.558
4.557
4.555
4.564
4.566
4.568
4.569
4.570
4.569
4.575
4.574
4.575
4.585
4.579
4.579
4.582
4.572
4.578
4.577
4.575
4.583
4.582
4.586
4.586
4.591
4.587
4.596
4.593
4.602
4.595
4.608
4.608
4.604
4.601
4.604
4.603
4.615
4.612
4.619
4.619
4.619
4.625
4.618
4.612
4.613
4.612
4.612
4.620
4.615
4.617
4.615
4.619
4.627
4.619
4.631
4.623
4.623
4.634
4.629
4.634
4.642
4.636
4.643
4.644
4.643
4.652
4.649
4.645
4.643
4.641
4.645
4.652
4.654
4.649
4.662
4.655
4.654
4.666
4.667
4.658
4.667
4.672
4.670
4.664
4.676
4.664
4.660
4.660
4.662
4.663
4.675
4.669
4.665
4.668
4.670
4.666
4.660
4.666
4.670
4.664
4.668
4.677
4.673
4.672
4.675
4.690
4.689
4.682
4.679
4.690
4.690
4.688
4.689
4.696
4.700
4.693
4.689
4.696
4.700
4.693
4.686
4.680
4.673
4.666
4.668
4.664
4.659
4.649
4.662
4.663
4.665
4.661
4.662
4.669
4.671
4.669
4.671
4.666
4.673
4.671
4.665
4.669
4.667
4.675
4.678
4.680
4.673
4.669
4.676
4.688
4.686
4.686
4.689
4.685
4.687
4.699
4.692
4.691
4.690
4.680
4.675
4.674
4.671
4.672
4.673
4.683
4.679
4.672
4.676
4.672
4.671
4.674
4.676
4.672
4.673
4.675
4.671
4.682
4.675
4.675
4.675
4.666
4.668
4.680
4.687
4.688
4.679
4.683
4.682
4.679
4.687
4.699
4.697
4.688
4.689
4.685
4.692
4.688
4.698
4.697
4.695
4.693
4.687
4.683
4.687
4.699
4.711
4.699
4.700
4.697
4.697
4.694
4.693
4.705
4.706
4.710
4.709
4.705
4.701
4.708
4.711
4.708
4.720
4.719
4.717
4.721
4.720
4.716
4.708
4.705
4.714
4.716
4.712
4.708
4.708
4.710
4.706
4.701
4.711
4.715
4.711
4.712
4.705
4.705
4.706
4.707
4.708
4.713
4.723
4.726
4.723
4.721
4.720
4.721
4.719
4.716
4.717
4.721
4.731
4.742
4.733
4.723
4.720
4.719
4.719
4.716
4.716
4.723
4.733
4.737
4.739
4.737
4.738
4.734
4.734
4.734
4.733
4.735
4.734
4.742
4.752
4.753
4.750
4.748
4.750
4.745
4.741
4.740
4.741
4.743
4.744
4.753
4.753
4.751
4.753
4.749
4.752
4.749
4.753
4.748
4.741
4.737
4.730
4.729
4.734
4.734
4.730
4.727
4.722
4.723
4.723
4.719
4.727
4.735
4.744
4.740
4.742
4.734
4.728
4.721
4.714
4.713
4.711
4.708
4.719
4.727
4.736
4.737
4.738
4.731
4.730
4.729
4.723
4.723
4.728
4.729
4.723
4.718
4.725
4.734
4.741
4.740
4.744
4.745
4.749
4.749
4.744
4.745
4.742
4.737
4.728
4.726
4.733
4.732
4.739
4.746
4.745
4.745
4.742
4.743
4.741
4.743
4.744
4.740
4.731
4.731
4.728
4.727
4.730
4.738
4.744
4.745
4.749
4.746
4.744
4.742
4.739
4.738
4.742
4.742
4.742
4.743
4.739
4.735
4.736
4.738
4.747
4.754
4.761
4.759
4.756
4.756
4.760
4.764
4.760
4.760
4.760
4.760
4.755
4.748
4.745
4.743
4.749
4.746
4.755
4.762
4.771
4.767
4.758
4.759
4.755
4.754
4.756
4.753
4.753
4.754
4.756
4.751
4.745
4.748
4.752
4.748
4.752
4.760
4.768
4.776
4.772
4.779
4.780
4.773
4.774
4.778
4.774
4.773
4.775
4.773
4.769
4.773
4.772
4.778
4.777
4.776
4.768
4.765
4.771
4.778
4.786
4.792
4.790
4.784
4.779
4.779
4.783
4.782
4.782
4.784
4.779
4.775
4.777
4.773
4.768
4.760
4.763
4.767
4.768
4.768
4.774
4.770
4.771
4.771
4.771
4.773
4.769
4.768
4.769
4.765
4.761
4.768
4.772
4.767
4.769
4.771
4.768
4.759
4.758
4.756
4.758
4.764
4.772
4.773
4.772
4.768
4.771
4.771
4.772
4.771
4.769
4.767
4.763
4.767
4.764
4.764
4.763
4.762
4.764
4.764
4.766
4.764
4.764
4.770
4.771
4.767
4.771
4.778
4.783
4.786
4.788
4.782
4.780
4.781
4.779
4.776
4.777
4.781
4.782
4.781
4.774
4.771
4.769
4.771
4.774
4.773
4.772
4.771
4.769
4.770
4.766
4.767
4.771
4.775
4.782
4.789
4.794
4.801
4.807
4.803
4.801
4.801
4.797
4.793
4.790
4.789
4.790
4.784
4.790
4.789
4.788
4.790
4.794
4.792
4.790
4.789
4.786
4.789
4.786
4.790
4.788
4.786
4.786
4.786
4.791
4.798
4.805
4.809
4.816
4.814
4.812
4.812
4.816
4.812
4.818
4.819
4.816
4.811
4.805
4.801
4.799
4.801
4.802
4.801
4.804
4.803
4.804
4.803
4.801
4.798
4.797
4.798
4.799
4.795
4.794
4.795
4.797
4.803
4.807
4.808
4.807
4.806
4.807
4.805
4.805
4.806
4.804
4.798
4.793
4.798
4.799
4.798
4.804
4.803
4.802
4.803
4.802
4.798
4.799
4.793
4.791
4.789
4.788
4.790
4.788
4.789
4.785
4.789
4.793
4.790
4.797
4.803
4.808
4.814
4.819
4.827
4.827
4.823
4.823
4.820
4.819
4.817
4.823
4.825
4.824
4.819
4.815
4.816
4.815
4.812
4.812
4.812
4.813
4.816
4.815
4.819
4.816
4.816
4.818
4.809
4.812
4.812
4.812
4.812
4.813
4.814
4.816
4.817
4.815
4.811
4.813
4.819
4.824
4.828
4.835
4.841
4.846
4.849
4.851
4.847
4.846
4.845
4.846
4.852
4.849
4.850
4.846
4.841
4.835
4.831
4.834
4.833
4.832
4.830
4.831
4.823
4.819
4.822
4.826
4.823
4.823
4.825
4.823
4.820
4.819
4.827
4.832
4.831
4.824
4.819
4.819
4.819
4.819
4.822
4.827
4.831
4.829
4.823
4.823
4.820
4.818
4.816
4.812
4.806
4.808
4.808
4.807
4.811
4.808
4.806
4.810
4.812
4.808
4.808
4.805
4.805
4.801
4.800
4.801
4.805
4.805
4.806
4.805
4.803
4.802
4.798
4.802
4.798
4.799
4.797
4.797
4.801
4.801
4.800
4.799
4.803
4.808
4.809
4.810
4.816
4.821
4.822
4.819
4.819
4.819
4.814
4.812
4.811
4.812
4.811
4.813
4.816
4.813
4.814
4.813
4.811
4.812
4.814
4.812
4.814
4.812
4.808
4.805
4.800
4.797
4.795
4.793
4.798
4.797
4.798
4.799
4.801
4.796
4.800
4.797
4.798
4.794
4.789
4.785
4.787
4.788
4.787
4.788
4.792
4.797
4.803
4.805
4.811
4.816
4.820
4.824
4.823
4.821
4.820
4.819
4.817
4.815
4.816
4.816
4.820
4.818
4.822
4.821
4.825
4.829
4.825
4.827
4.830
4.827
4.823
4.818
4.814
4.812
4.811
4.812
4.811
4.812
4.811
4.804
4.809
4.807
4.803
4.802
4.805
4.812
4.808
4.804
4.800
4.797
4.793
4.790
