2.990
3.315
3.484
3.622
3.720
3.768
3.776
3.842
3.899
3.954
3.976
3.908
3.930
3.957
3.980
4.003
4.018
4.045
4.061
4.076
4.088
4.102
4.110
4.131
4.148
4.138
4.160
4.179
4.196
4.179
4.189
4.203
4.218
4.231
4.246
4.234
4.237
4.249
4.250
4.270
4.282
4.269
4.291
4.300
4.311
4.304
4.294
4.293
4.305
4.310
4.305
4.322
4.329
4.348
4.354
4.342
4.349
4.360
4.372
4.365
4.386
4.386
4.378
4.382
4.400
4.377
4.367
4.368
4.380
4.377
4.393
4.390
4.380
4.385
4.395
4.400
4.404
4.407
4.408
4.408
4.415
4.421
4.427
4.440
4.427
4.436
4.429
4.424
4.427
4.439
4.443
4.448
4.461
4.459
4.452
4.464
4.466
4.470
4.482
4.471
4.485
4.485
4.499
4.484
4.474
4.474
4.483
4.479
4.491
4.491
4.498
4.495
4.501
4.511
4.501
4.520
4.514
4.526
4.525
4.524
4.525
4.515
4.499
4.488
4.481
4.492
4.483
4.483
4.501
4.491
4.498
4.510
4.501
4.509
4.521
4.516
4.502
4.485
4.489
4.493
4.485
4.487
4.490
4.486
4.483
4.505
4.508
4.502
4.505
4.520
4.516
4.505
4.521
4.514
4.508
4.505
4.520
4.528
4.520
4.521
4.538
4.535
4.538
4.536
4.539
4.529
4.525
4.517
4.534
4.530
4.533
4.521
4.524
4.547
4.549
4.548
4.538
4.534
4.556
4.553
4.549
4.542
4.539
4.562
4.577
4.568
4.565
4.557
4.558
4.581
4.581
4.573
4.569
4.564
4.570
4.589
4.578
4.577
4.580
4.566
4.565
4.560
4.556
4.559
4.556
4.549
4.555
4.547
4.552
4.548
4.535
4.539
4.560
4.581
4.566
4.570
4.556
4.555
4.551
4.560
4.581
4.576
4.573
4.560
4.542
4.544
4.552
4.572
4.576
4.569
4.571
4.566
4.570
4.570
4.566
4.573
4.592
4.589
4.582
4.582
4.580
4.575
4.571
4.564
4.583
4.592
4.596
4.599
4.591
4.588
4.589
4.587
4.594
4.585
4.598
4.616
4.619
4.608
4.606
4.607
4.603
4.593
4.595
4.594
4.603
4.617
4.625
4.624
4.611
4.598
4.594
4.593
4.584
4.580
4.588
4.602
4.592
4.598
4.589
4.595
4.590
4.587
4.589
4.584
4.595
4.602
4.595
4.611
4.614
4.607
4.609
4.602
4.608
4.599
4.608
4.602
4.602
4.601
4.601
4.604
4.617
4.632
4.635
4.629
4.626
4.627
4.622
4.625
4.625
4.635
4.626
4.627
4.617
4.614
4.620
4.635
4.649
4.649
4.647
4.661
4.653
4.636
4.629
4.632
4.623
4.627
4.621
4.633
4.631
4.622
4.632
4.642
4.641
4.650
4.631
4.629
4.635
4.640
4.637
4.625
4.631
4.630
4.632
4.627
4.624
4.618
4.624
4.637
4.650
4.664
4.674
4.678
4.676
4.666
4.664
4.661
4.652
4.654
4.662
4.664
4.673
4.667
4.661
4.660
4.646
4.653
4.645
4.657
4.669
4.682
4.675
4.681
4.678
4.679
4.684
4.684
4.681
4.672
4.673
4.663
4.653
4.661
4.662
4.654
4.660
4.655
4.648
4.650
4.662
4.667
4.668
4.670
4.670
4.658
4.657
4.655
4.654
4.651
4.642
4.636
4.630
4.626
4.629
4.624
4.625
4.616
4.612
4.617
4.628
4.639
4.650
4.656
4.655
4.658
4.652
4.648
4.640
4.647
4.641
4.638
4.649
4.643
4.643
4.637
4.635
4.638
4.645
4.641
4.639
4.633
4.629
4.632
4.639
4.634
4.631
4.642
4.652
4.652
4.647
4.645
4.645
4.633
4.642
4.643
4.642
4.643
4.645
4.634
4.641
4.634
4.636
4.628
4.624
4.625
4.620
4.623
4.619
4.621
4.625
4.629
4.639
4.639
4.638
4.635
4.639
4.649
4.659
4.669
4.668
4.665
4.663
4.656
4.653
4.655
4.656
4.647
4.640
4.638
4.637
4.639
4.647
4.649
4.647
4.644
4.644
4.639
4.629
4.629
4.626
4.626
4.624
4.622
4.627
4.630
4.621
4.617
4.626
4.636
4.645
4.654
4.664
4.673
4.669
4.679
4.684
4.676
4.676
4.677
4.671
4.673
4.663
4.654
4.652
4.647
4.645
4.638
4.641
4.645
4.647
4.644
4.644
4.643
4.644
4.640
4.647
4.641
4.646
4.647
4.644
4.641
4.638
4.634
4.644
4.641
4.645
4.650
4.641
4.649
4.657
4.666
4.675
4.683
4.677
4.672
4.673
4.673
4.665
4.671
4.678
4.682
4.677
4.675
4.686
4.682
4.686
4.678
4.677
4.675
4.672
4.671
4.668
4.675
4.671
4.671
4.663
4.658
4.651
4.655
4.660
4.659
4.661
4.656
4.663
4.666
4.659
4.650
4.647
4.648
4.650
4.656
4.650
4.650
4.652
4.657
4.664
4.673
4.681
4.688
4.696
4.704
4.712
4.720
4.720
4.713
4.710
4.714
4.712
4.706
4.697
4.707
4.707
4.702
4.704
4.698
4.698
4.698
4.701
4.697
4.698
4.691
4.699
4.696
4.698
4.696
4.701
4.702
4.693
4.698
4.697
4.709
4.715
4.709
4.703
4.695
4.692
4.694
4.696
4.692
4.684
4.677
4.673
4.674
4.682
4.678
4.676
4.680
4.671
4.664
4.669
4.676
4.684
4.691
4.698
4.705
4.705
4.700
4.704
4.705
4.704
4.702
4.700
4.697
4.692
4.687
4.690
4.691
4.691
4.692
4.690
4.692
4.687
4.685
4.682
4.682
4.686
4.681
4.683
4.678
4.669
4.663
4.659
4.659
4.666
4.663
4.666
4.664
4.659
4.652
4.661
4.659
4.663
4.668
4.678
4.684
4.685
4.675
4.667
4.661
4.657
4.657
4.652
4.656
4.654
4.651
4.648
4.646
4.642
4.635
4.642
4.648
4.655
4.661
4.668
4.675
4.681
4.688
4.694
4.701
4.708
4.714
4.721
4.727
4.724
4.723
4.717
4.719
4.710
4.711
4.712
4.712
4.716
4.704
4.706
4.704
4.700
4.695
4.695
4.697
4.707
4.710
4.713
4.712
4.711
4.706
4.713
4.712
4.704
4.699
4.698
4.700
4.699
4.695
4.696
4.702
4.702
4.704
4.707
4.708
4.703
4.699
4.703
4.706
4.698
4.693
4.690
4.697
4.698
4.694
4.691
4.683
4.685
4.687
4.683
4.687
4.685
4.683
4.684
4.682
4.682
4.686
4.693
4.689
4.690
4.693
4.691
4.691
4.699
4.703
4.697
4.698
4.695
4.688
4.698
4.696
4.692
4.696
4.702
4.708
4.714
4.720
4.725
4.731
4.737
4.734
4.738
4.743
4.737
4.736
4.728
4.726
4.722
4.719
4.717
4.716
4.714
4.708
4.702
4.708
4.706
4.699
4.691
4.691
4.687
4.686
4.686
4.690
4.681
4.682
4.686
4.682
4.685
4.688
4.683
4.684
4.681
4.679
4.680
4.676
4.676
4.678
4.685
4.694
4.691
4.686
4.685
4.685
4.684
4.676
4.679
4.678
4.676
4.675
4.676
4.676
4.677
4.682
4.681
4.674
4.669
4.665
4.660
4.658
4.658
4.663
4.652
4.650
4.650
4.651
4.649
4.642
4.641
4.644
4.646
4.647
4.637
4.636
4.638
4.634
4.638
4.646
4.641
4.648
4.651
4.650
4.645
4.650
4.656
4.661
4.666
4.672
4.677
4.682
4.688
4.693
4.698
4.703
4.709
4.714
4.719
4.725
4.730
4.735
4.741
4.746
4.750
4.748
4.744
4.738
4.736
4.747
4.742
4.746
4.744
4.752
4.759
4.759
4.753
4.752
4.755
4.753
4.746
4.741
4.736
4.736
4.731
4.735
4.733
4.731
4.725
4.717
4.716
4.716
4.711
4.710
4.705
4.709
4.709
4.713
4.707
4.709
4.706
4.710
4.708
4.707
4.703
4.710
4.711
4.706
4.701
4.696
4.691
4.686
4.681
4.676
4.675
4.679
4.675
4.670
4.668
4.667
4.665
4.663
4.664
4.664
4.662
4.665
4.667
4.668
4.671
4.665
4.661
4.654
4.647
4.644
4.651
4.657
4.664
4.666
4.664
4.668
4.674
4.674
4.675
4.673
4.668
4.673
4.673
4.665
4.666
4.667
4.664
4.664
4.664
4.671
4.671
4.672
4.673
4.676
4.678
4.677
4.683
4.690
4.691
4.690
4.689
4.684
4.680
4.688
4.687
4.681
