2.992
3.331
3.511
3.633
3.711
3.781
3.845
3.888
3.916
3.969
3.970
4.013
4.053
4.085
4.053
4.081
4.107
4.129
4.149
4.173
4.190
4.210
4.229
4.236
4.198
4.167
4.182
4.191
4.198
4.214
4.220
4.232
4.236
4.247
4.250
4.262
4.275
4.274
4.284
4.295
4.296
4.303
4.313
4.323
4.319
4.326
4.335
4.342
4.349
4.342
4.354
4.358
4.366
4.370
4.379
4.370
4.377
4.380
4.390
4.397
4.401
4.411
4.410
4.400
4.410
4.410
4.415
4.422
4.428
4.433
4.440
4.444
4.445
4.447
4.439
4.444
4.445
4.449
4.450
4.460
4.466
4.462
4.469
4.473
4.481
4.485
4.483
4.492
4.492
4.495
4.478
4.479
4.486
4.485
4.488
4.490
4.499
4.504
4.508
4.506
4.507
4.507
4.513
4.517
4.525
4.525
4.529
4.529
4.529
4.539
4.533
4.544
4.543
4.545
4.552
4.555
4.540
4.536
4.529
4.531
4.536
4.536
4.538
4.540
4.543
4.548
4.552
4.553
4.559
4.564
4.552
4.555
4.562
4.556
4.560
4.566
4.566
4.573
4.577
4.578
4.579
4.581
4.587
4.589
4.585
4.581
4.584
4.591
4.587
4.591
4.593
4.594
4.598
4.605
4.610
4.605
4.607
4.608
4.615
4.611
4.620
4.618
4.621
4.611
4.617
4.622
4.620
4.618
4.606
4.597
4.592
4.594
4.596
4.599
4.598
4.608
4.603
4.603
4.612
4.610
4.617
4.608
4.612
4.616
4.612
4.621
4.620
4.627
4.626
4.627
4.614
4.624
4.620
4.621
4.618
4.618
4.620
4.625
4.621
4.632
4.626
4.633
4.626
4.635
4.633
4.640
4.640
4.640
4.645
4.641
4.653
4.644
4.648
4.644
4.642
4.647
4.647
4.655
4.655
4.655
4.664
4.663
4.661
4.666
4.658
4.651
4.651
4.657
4.656
4.654
4.666
4.659
4.653
4.659
4.655
4.659
4.664
4.668
4.662
4.671
4.667
4.663
4.675
4.670
4.670
4.681
4.678
4.676
4.683
4.688
4.684
4.682
4.688
4.685
4.686
4.685
4.683
4.677
4.691
4.693
4.691
4.688
4.700
4.698
4.699
4.696
4.703
4.704
4.703
4.703
4.710
4.709
4.705
4.710
4.710
4.707
4.699
4.703
4.702
4.696
4.700
4.714
4.710
4.710
4.708
4.707
4.707
4.701
4.702
4.707
4.707
4.701
4.700
4.714
4.716
4.710
4.710
4.710
4.721
4.718
4.719
4.721
4.721
4.726
4.727
4.726
4.722
4.726
4.736
4.734
4.733
4.733
4.730
4.742
4.735
4.731
4.725
4.720
4.714
4.709
4.703
4.706
4.705
4.698
4.699
4.701
4.700
4.695
4.692
4.690
4.697
4.709
4.708
4.706
4.707
4.703
4.705
4.712
4.714
4.715
4.711
4.710
4.708
4.709
4.710
4.712
4.707
4.710
4.711
4.721
4.721
4.715
4.718
4.714
4.714
4.721
4.729
4.729
4.729
4.725
4.730
4.729
4.733
4.734
4.727
4.720
4.714
4.714
4.719
4.717
4.713
4.714
4.714
4.717
4.716
4.723
4.722
4.714
4.714
4.709
4.705
4.715
4.716
4.710
4.716
4.715
4.716
4.712
4.713
4.721
4.716
4.715
4.714
4.715
4.708
4.707
4.719
4.728
4.724
4.725
4.724
4.718
4.718
4.725
4.721
4.731
4.743
4.740
4.733
4.728
4.727
4.723
4.727
4.731
4.738
4.734
4.738
4.736
4.730
4.725
4.727
4.726
4.735
4.740
4.740
4.747
4.743
4.737
4.733
4.731
4.735
4.739
4.747
4.747
4.747
4.744
4.744
4.742
4.747
4.742
4.740
4.747
4.755
4.762
4.763
4.759
4.754
4.751
4.757
4.753
4.746
4.750
4.747
4.747
4.754
4.748
4.749
4.748
4.746
4.740
4.743
4.748
4.759
4.759
4.751
4.744
4.747
4.748
4.744
4.739
4.738
4.744
4.754
4.758
4.765
4.764
4.762
4.756
4.757
4.756
4.759
4.751
4.751
4.753
4.763
4.770
4.770
4.766
4.770
4.773
4.773
4.764
4.755
4.751
4.752
4.758
4.765
4.775
4.773
4.773
4.771
4.772
4.768
4.772
4.773
4.770
4.768
4.769
4.765
4.775
4.782
4.788
4.790
4.788
4.790
4.792
4.792
4.783
4.777
4.781
4.781
4.778
4.776
4.783
4.793
4.791
4.787
4.788
4.787
4.788
4.785
4.781
4.781
4.781
4.779
4.783
4.779
4.773
4.776
4.770
4.763
4.762
4.765
4.762
4.763
4.761
4.759
4.761
4.762
4.769
4.776
4.773
4.774
4.777
4.773
4.772
4.770
4.770
4.768
4.766
4.762
4.755
4.754
4.761
4.766
4.764
4.766
4.762
4.762
4.764
4.768
4.769
4.766
4.766
4.763
4.762
4.757
4.753
4.757
4.764
4.773
4.780
4.776
4.773
4.776
4.772
4.774
4.772
4.771
4.770
4.774
4.773
4.773
4.773
4.774
4.772
4.770
4.775
4.782
4.789
4.784
4.783
4.785
4.783
4.781
4.778
4.774
4.769
4.770
4.767
4.771
4.772
4.773
4.772
4.771
4.777
4.784
4.788
4.785
4.783
4.782
4.773
4.771
4.773
4.777
4.773
4.774
4.769
4.766
4.767
4.766
4.762
4.765
4.772
4.779
4.786
4.793
4.797
4.795
4.792
4.790
4.789
4.785
4.791
4.787
4.783
4.782
4.786
4.788
4.786
4.782
4.783
4.785
4.789
4.788
4.788
4.795
4.802
4.807
4.805
4.799
4.802
4.801
4.797
4.796
4.792
4.793
4.796
4.795
4.794
4.792
4.788
4.782
4.789
4.787
4.780
4.787
4.794
4.799
4.807
4.804
4.803
4.806
4.802
4.799
4.805
4.799
4.799
4.803
4.802
4.807
4.802
4.803
4.799
4.799
4.796
4.799
4.800
4.799
4.796
4.796
4.802
4.809
4.814
4.821
4.829
4.828
4.827
4.826
4.827
4.825
4.822
4.817
4.814
4.807
4.808
4.812
4.814
4.814
4.818
4.818
4.814
4.809
4.807
4.803
4.803
4.807
4.814
4.818
4.824
4.818
4.813
4.814
4.818
4.818
4.813
4.810
4.805
4.801
4.796
4.793
4.791
4.792
4.789
4.785
4.789
4.788
4.792
4.795
4.792
4.795
4.800
4.807
4.811
4.818
4.821
4.820
4.821
4.820
4.822
4.817
4.811
4.812
4.808
4.804
4.800
4.798
4.794
4.798
4.800
4.806
4.802
4.798
4.792
4.788
4.784
4.785
4.789
4.795
4.799
4.806
4.811
4.814
4.814
4.817
4.821
4.823
4.822
4.818
4.819
4.815
4.816
4.817
4.818
4.815
4.816
4.814
4.813
4.814
4.816
4.815
4.813
4.810
4.810
4.809
4.811
4.804
4.800
4.798
4.800
4.806
4.811
4.817
4.822
4.826
4.824
4.825
4.822
4.820
4.824
4.821
4.822
4.821
4.825
4.823
4.825
4.825
4.822
4.821
4.821
4.823
4.824
4.828
4.822
4.823
4.824
4.825
4.822
4.823
4.821
4.815
4.813
4.814
4.813
4.815
4.821
4.826
4.832
4.836
4.841
4.847
4.846
4.842
4.838
4.839
4.835
4.834
4.838
4.834
4.830
4.834
4.838
4.840
4.840
4.837
4.836
4.842
4.843
4.844
4.846
4.842
4.843
4.840
4.841
4.837
4.835
4.831
4.830
4.828
4.829
4.826
4.830
4.829
4.835
4.840
4.844
4.850
4.851
4.848
4.849
4.853
4.855
4.855
4.859
4.856
4.851
4.847
4.843
4.842
4.843
4.844
4.849
4.848
4.851
4.845
4.843
4.844
4.841
4.837
4.832
4.829
4.825
4.823
4.822
4.820
4.819
4.820
4.822
4.817
4.821
4.826
4.832
4.836
4.841
4.847
4.849
4.855
4.846
4.845
4.849
4.850
4.849
4.847
4.846
4.842
4.840
4.840
4.843
4.845
4.847
4.845
4.844
4.845
4.846
4.842
4.843
4.840
4.835
4.834
4.832
4.831
4.832
4.833
4.833
4.834
4.832
4.831
4.835
4.834
4.836
4.833
4.832
4.837
4.840
4.840
4.841
4.847
4.852
4.855
4.860
4.864
4.863
4.864
4.862
4.862
4.865
4.869
4.871
4.869
4.866
4.864
4.862
4.858
4.862
4.859
4.860
4.858
4.859
4.862
4.857
4.858
4.859
4.859
4.862
4.867
4.870
4.862
4.859
4.856
4.860
