2.992
3.335
3.514
3.625
3.726
3.788
3.838
3.883
3.912
3.966
3.987
4.010
4.046
4.083
4.069
4.078
4.104
4.128
4.148
4.171
4.187
4.207
4.227
4.243
4.236
4.198
4.179
4.194
4.201
4.209
4.224
4.227
4.239
4.243
4.258
4.257
4.269
4.281
4.280
4.290
4.299
4.301
4.307
4.316
4.327
4.325
4.329
4.339
4.348
4.353
4.349
4.355
4.364
4.368
4.375
4.383
4.387
4.379
4.387
4.388
4.398
4.404
4.409
4.416
4.419
4.409
4.414
4.420
4.425
4.431
4.435
4.438
4.441
4.449
4.453
4.457
4.449
4.448
4.452
4.453
4.460
4.462
4.468
4.475
4.474
4.476
4.482
4.490
4.493
4.490
4.499
4.500
4.505
4.489
4.491
4.495
4.491
4.497
4.501
4.503
4.509
4.508
4.513
4.514
4.520
4.516
4.521
4.527
4.532
4.533
4.538
4.539
4.538
4.544
4.543
4.546
4.554
4.555
4.559
4.564
4.551
4.541
4.538
4.541
4.540
4.538
4.545
4.550
4.554
4.557
4.564
4.560
4.561
4.564
4.570
4.560
4.562
4.566
4.565
4.569
4.570
4.574
4.578
4.588
4.589
4.583
4.592
4.593
4.592
4.598
4.586
4.590
4.594
4.602
4.601
4.598
4.598
4.607
4.609
4.607
4.616
4.618
4.619
4.612
4.619
4.626
4.627
4.626
4.635
4.626
4.624
4.627
4.631
4.627
4.617
4.607
4.597
4.604
4.600
4.609
4.603
4.612
4.612
4.607
4.617
4.613
4.624
4.620
4.616
4.618
4.624
4.623
4.627
4.629
4.628
4.634
4.635
4.624
4.624
4.635
4.625
4.629
4.628
4.627
4.627
4.638
4.631
4.637
4.638
4.635
4.639
4.635
4.647
4.646
4.649
4.653
4.652
4.654
4.657
4.657
4.655
4.653
4.657
4.651
4.660
4.664
4.657
4.670
4.668
4.667
4.671
4.665
4.674
4.664
4.661
4.664
4.660
4.668
4.672
4.664
4.666
4.662
4.663
4.670
4.669
4.668
4.679
4.675
4.671
4.681
4.674
4.672
4.682
4.684
4.682
4.681
4.691
4.694
4.686
4.695
4.693
4.689
4.691
4.698
4.699
4.687
4.694
4.690
4.688
4.698
4.702
4.703
4.698
4.705
4.710
4.703
4.702
4.712
4.716
4.714
4.709
4.717
4.718
4.719
4.716
4.720
4.710
4.703
4.707
4.711
4.710
4.708
4.707
4.722
4.718
4.720
4.712
4.717
4.716
4.712
4.710
4.717
4.716
4.714
4.712
4.712
4.726
4.719
4.721
4.720
4.721
4.730
4.732
4.730
4.732
4.728
4.738
4.736
4.735
4.730
4.734
4.744
4.745
4.742
4.738
4.735
4.742
4.736
4.731
4.725
4.720
4.714
4.709
4.706
4.712
4.712
4.712
4.708
4.709
4.708
4.705
4.705
4.705
4.705
4.704
4.714
4.715
4.719
4.718
4.712
4.712
4.717
4.727
4.725
4.721
4.716
4.709
4.719
4.720
4.722
4.724
4.722
4.720
4.719
4.731
4.728
4.726
4.725
4.727
4.727
4.727
4.736
4.742
4.741
4.738
4.741
4.738
4.733
4.734
4.728
4.721
4.717
4.712
4.722
4.729
4.727
4.724
4.725
4.729
4.725
4.723
4.733
4.727
4.722
4.715
4.709
4.709
4.719
4.726
4.724
4.724
4.725
4.724
4.719
4.713
4.724
4.731
4.727
4.723
4.722
4.721
4.720
4.721
4.727
4.737
4.733
4.732
4.733
4.732
4.731
4.729
4.733
4.737
4.746
4.746
4.736
4.743
4.736
4.738
4.738
4.735
4.741
4.749
4.744
4.745
4.738
4.734
4.736
4.734
4.733
4.742
4.752
4.756
4.750
4.749
4.747
4.742
4.741
4.745
4.741
4.749
4.757
4.757
4.755
4.753
4.757
4.753
4.753
4.754
4.753
4.754
4.764
4.775
4.766
4.762
4.763
4.762
4.757
4.751
4.752
4.753
4.758
4.759
4.761
4.762
4.757
4.756
4.753
4.751
4.753
4.753
4.760
4.761
4.755
4.759
4.753
4.757
4.752
4.749
4.749
4.748
4.750
4.759
4.768
4.773
4.772
4.772
4.768
4.770
4.763
4.761
4.768
4.764
4.764
4.765
4.772
4.779
4.779
4.778
4.782
4.776
4.769
4.762
4.764
4.759
4.764
4.765
4.772
4.779
4.786
4.781
4.780
4.784
4.780
4.783
4.782
4.776
4.777
4.776
4.775
4.778
4.783
4.790
4.799
4.803
4.799
4.803
4.798
4.792
4.790
4.784
4.791
4.790
4.782
4.781
4.790
4.797
4.796
4.797
4.796
4.795
4.794
4.794
4.791
4.787
4.791
4.787
4.782
4.778
4.786
4.781
4.774
4.772
4.774
4.772
4.772
4.770
4.772
4.773
4.772
4.770
4.766
4.773
4.780
4.781
4.782
4.786
4.783
4.784
4.783
4.776
4.771
4.767
4.764
4.759
4.755
4.761
4.768
4.775
4.775
4.775
4.774
4.776
4.775
4.778
4.779
4.773
4.772
4.772
4.769
4.764
4.766
4.762
4.768
4.775
4.780
4.784
4.785
4.784
4.786
4.786
4.786
4.781
4.779
4.779
4.782
4.786
4.785
4.786
4.785
4.781
4.782
4.779
4.785
4.792
4.793
4.790
4.796
4.790
4.786
4.783
4.780
4.783
4.779
4.779
4.780
4.779
4.782
4.783
4.780
4.776
4.782
4.789
4.798
4.794
4.788
4.783
4.779
4.778
4.785
4.787
4.782
4.778
4.777
4.778
4.779
4.776
4.775
4.775
4.774
4.779
4.786
4.794
4.799
4.806
4.805
4.801
4.799
4.798
4.798
4.798
4.794
4.792
4.791
4.792
4.798
4.795
4.793
4.794
4.796
4.797
4.796
4.792
4.796
4.803
4.809
4.808
4.809
4.809
4.809
4.808
4.805
4.803
4.804
4.805
4.807
4.805
4.798
4.792
4.790
4.787
4.793
4.795
4.791
4.790
4.794
4.801
4.807
4.814
4.815
4.814
4.812
4.814
4.810
4.811
4.807
4.808
4.812
4.812
4.818
4.814
4.812
4.806
4.805
4.803
4.809
4.811
4.809
4.803
4.802
4.803
4.810
4.817
4.823
4.828
4.835
4.835
4.835
4.833
4.834
4.828
4.824
4.822
4.823
4.820
4.823
4.822
4.821
4.824
4.826
4.820
4.818
4.816
4.812
4.812
4.813
4.812
4.815
4.820
4.824
4.827
4.824
4.824
4.823
4.819
4.815
4.811
4.805
4.803
4.801
4.801
4.801
4.800
4.798
4.798
4.798
4.798
4.798
4.801
4.804
4.803
4.802
4.801
4.807
4.812
4.818
4.824
4.831
4.830
4.829
4.825
4.823
4.820
4.818
4.812
4.807
4.806
4.807
4.806
4.805
4.808
4.810
4.811
4.805
4.800
4.796
4.795
4.796
4.795
4.793
4.795
4.801
4.806
4.812
4.817
4.823
4.824
4.824
4.831
4.831
4.833
4.831
4.830
4.824
4.824
4.824
4.827
4.826
4.828
4.826
4.824
4.823
4.822
4.820
4.816
4.816
4.817
4.818
4.816
4.812
4.809
4.812
4.806
4.805
4.811
4.816
4.822
4.826
4.831
4.834
4.833
4.832
4.830
4.835
4.835
4.827
4.831
4.831
4.833
4.834
4.835
4.835
4.835
4.832
4.830
4.834
4.831
4.835
4.833
4.834
4.833
4.835
4.831
4.826
4.824
4.821
4.817
4.823
4.824
4.818
4.822
4.827
4.833
4.838
4.842
4.848
4.850
4.851
4.853
4.851
4.849
4.848
4.844
4.846
4.842
4.842
4.844
4.848
4.850
4.846
4.844
4.846
4.847
4.853
4.853
4.854
4.853
4.854
4.849
4.845
4.842
4.843
4.841
4.840
4.838
4.834
4.838
4.837
4.839
4.837
4.839
4.843
4.847
4.853
4.858
4.859
4.860
4.859
4.864
4.865
4.861
4.857
4.858
4.857
4.855
4.854
4.852
4.851
4.853
4.861
4.855
4.854
4.850
4.846
4.842
4.838
4.835
4.831
4.833
4.831
4.828
4.829
4.828
4.831
4.830
4.829
4.830
4.831
4.831
4.832
4.838
4.842
4.847
4.851
4.857
4.861
4.858
4.857
4.860
4.859
4.855
4.851
4.852
4.854
4.849
4.845
4.850
4.854
4.852
4.854
4.850
4.851
4.852
4.853
4.846
4.845
4.846
4.843
4.844
4.842
4.842
4.843
4.841
4.840
4.842
4.845
4.842
4.843
4.839
4.842
