2.993
3.315
3.484
3.622
3.723
3.767
3.773
3.841
3.900
3.958
3.979
3.904
3.934
3.959
3.985
4.005
4.020
4.049
4.055
4.082
4.088
4.104
4.108
4.130
4.151
4.137
4.167
4.175
4.191
4.182
4.196
4.199
4.220
4.221
4.241
4.241
4.236
4.248
4.252
4.261
4.272
4.278
4.291
4.295
4.319
4.311
4.282
4.303
4.313
4.311
4.313
4.325
4.333
4.337
4.345
4.338
4.345
4.363
4.365
4.371
4.378
4.395
4.388
4.382
4.393
4.383
4.368
4.374
4.368
4.382
4.395
4.396
4.380
4.382
4.385
4.387
4.399
4.400
4.416
4.408
4.418
4.429
4.439
4.437
4.435
4.423
4.415
4.432
4.430
4.442
4.442
4.451
4.461
4.451
4.461
4.469
4.458
4.470
4.475
4.476
4.484
4.478
4.494
4.486
4.480
4.485
4.472
4.481
4.477
4.492
4.489
4.504
4.494
4.521
4.502
4.525
4.518
4.522
4.526
4.517
4.526
4.522
4.506
4.490
4.482
4.484
4.488
4.485
4.495
4.496
4.499
4.516
4.506
4.500
4.527
4.516
4.510
4.493
4.491
4.504
4.484
4.476
4.495
4.495
4.484
4.499
4.511
4.504
4.493
4.520
4.513
4.515
4.507
4.519
4.509
4.506
4.517
4.525
4.524
4.522
4.524
4.546
4.537
4.539
4.531
4.539
4.526
4.522
4.519
4.538
4.529
4.532
4.528
4.535
4.549
4.549
4.542
4.542
4.544
4.554
4.550
4.549
4.547
4.547
4.571
4.579
4.567
4.569
4.556
4.566
4.584
4.578
4.575
4.571
4.563
4.578
4.591
4.576
4.578
4.575
4.562
4.561
4.556
4.556
4.551
4.555
4.556
4.552
4.547
4.548
4.548
4.532
4.544
4.566
4.574
4.564
4.568
4.553
4.557
4.545
4.566
4.580
4.578
4.570
4.556
4.544
4.545
4.557
4.577
4.574
4.573
4.577
4.565
4.569
4.573
4.567
4.578
4.595
4.593
4.584
4.582
4.581
4.575
4.567
4.568
4.586
4.597
4.595
4.595
4.595
4.587
4.593
4.587
4.594
4.588
4.600
4.618
4.614
4.610
4.609
4.610
4.604
4.595
4.599
4.595
4.604
4.619
4.624
4.622
4.609
4.596
4.596
4.593
4.583
4.580
4.590
4.604
4.592
4.598
4.591
4.597
4.590
4.588
4.590
4.585
4.594
4.602
4.596
4.612
4.615
4.608
4.608
4.603
4.611
4.600
4.610
4.603
4.602
4.603
4.606
4.604
4.617
4.632
4.635
4.631
4.629
4.630
4.624
4.627
4.624
4.634
4.626
4.629
4.617
4.613
4.619
4.634
4.649
4.650
4.648
4.661
4.653
4.637
4.632
4.633
4.624
4.626
4.624
4.635
4.631
4.624
4.631
4.644
4.643
4.651
4.634
4.630
4.639
4.640
4.636
4.629
4.631
4.633
4.632
4.630
4.629
4.622
4.622
4.635
4.648
4.661
4.670
4.680
4.680
4.669
4.665
4.662
4.651
4.651
4.659
4.665
4.669
4.671
4.661
4.662
4.647
4.654
4.648
4.654
4.666
4.679
4.679
4.680
4.677
4.683
4.684
4.689
4.683
4.678
4.674
4.666
4.654
4.658
4.665
4.657
4.661
4.657
4.650
4.647
4.658
4.669
4.667
4.670
4.667
4.663
4.657
4.659
4.656
4.654
4.645
4.639
4.630
4.632
4.624
4.625
4.624
4.621
4.614
4.613
4.624
4.635
4.646
4.650
4.654
4.659
4.656
4.648
4.646
4.643
4.645
4.641
4.648
4.644
4.651
4.646
4.638
4.636
4.643
4.647
4.634
4.637
4.632
4.631
4.639
4.640
4.632
4.637
4.647
4.657
4.651
4.648
4.639
4.635
4.635
4.645
4.643
4.642
4.645
4.641
4.635
4.634
4.636
4.635
4.627
4.627
4.625
4.621
4.622
4.626
4.627
4.630
4.636
4.644
4.645
4.637
4.634
4.644
4.654
4.664
4.673
4.667
4.664
4.662
4.655
4.653
4.658
4.653
4.646
4.641
4.640
4.635
4.644
4.652
4.653
4.644
4.644
4.647
4.635
4.629
4.628
4.627
4.628
4.623
4.626
4.633
4.626
4.622
4.621
4.630
4.639
4.648
4.657
4.667
4.674
4.670
4.681
4.686
4.674
4.678
4.675
4.671
4.670
4.660
4.654
4.653
4.649
4.644
4.640
4.645
4.646
4.652
4.643
4.649
4.644
4.646
4.643
4.645
4.641
4.649
4.648
4.645
4.643
4.640
4.638
4.642
4.642
4.646
4.650
4.642
4.651
4.659
4.668
4.676
4.685
4.674
4.672
4.674
4.671
4.665
4.674
4.680
4.685
4.678
4.677
4.684
4.682
4.685
4.677
4.679
4.677
4.674
4.673
4.670
4.677
4.672
4.673
4.663
4.661
4.651
4.656
4.661
4.662
4.662
4.658
4.665
4.665
4.659
4.651
4.648
4.651
4.651
4.655
4.651
4.651
4.653
4.657
4.665
4.673
4.681
4.689
4.697
4.704
4.713
4.721
4.719
4.714
4.710
4.716
4.714
4.706
4.697
4.709
4.708
4.704
4.704
4.700
4.698
4.699
4.702
4.698
4.699
4.690
4.699
4.697
4.699
4.696
4.701
4.703
4.693
4.697
4.696
4.709
4.716
4.713
4.703
4.696
4.693
4.697
4.697
4.692
4.685
4.677
4.671
4.677
4.683
4.679
4.675
4.681
4.671
4.665
4.668
4.675
4.683
4.690
4.697
4.704
4.707
4.699
4.703
4.708
4.706
4.703
4.702
4.699
4.695
4.688
4.692
4.692
4.692
4.696
4.692
4.693
4.688
4.687
4.686
4.683
4.688
4.681
4.687
4.680
4.671
4.667
4.661
4.659
4.664
4.663
4.668
4.668
4.656
4.655
4.658
4.662
4.664
4.667
4.675
4.685
4.686
4.678
4.668
4.663
4.657
4.654
4.656
4.653
4.657
4.650
4.652
4.650
4.641
4.640
4.640
4.649
4.653
4.659
4.666
4.672
4.679
4.686
4.692
4.699
4.705
4.712
4.719
4.725
4.724
4.728
4.721
4.720
4.714
4.713
4.715
4.710
4.719
4.708
4.708
4.705
4.698
4.702
4.694
4.694
4.703
4.711
4.712
4.713
4.713
4.709
4.709
4.713
4.709
4.706
4.695
4.697
4.704
4.696
4.696
4.700
4.707
4.707
4.706
4.707
4.704
4.697
4.699
4.702
4.700
4.692
4.693
4.695
4.698
4.698
4.689
4.687
4.684
4.688
4.687
4.684
4.691
4.687
4.684
4.684
4.678
4.685
4.688
4.693
4.687
4.691
4.693
4.694
4.695
4.702
4.700
4.698
4.695
4.694
4.694
4.699
4.694
4.692
4.698
4.704
4.710
4.716
4.722
4.728
4.734
4.739
4.739
4.738
4.740
4.736
4.734
4.731
4.728
4.721
4.719
4.719
4.718
4.714
4.708
4.705
4.708
4.704
4.696
4.692
4.693
4.688
4.689
4.685
4.688
4.678
4.685
4.683
4.683
4.689
4.690
4.683
4.683
4.684
4.680
4.679
4.680
4.679
4.680
4.687
4.694
4.692
4.685
4.687
4.685
4.682
4.676
4.681
4.677
4.677
4.678
4.677
4.678
4.680
4.682
4.680
4.674
4.668
4.665
4.660
4.660
4.661
4.661
4.650
4.650
4.650
4.651
4.651
4.639
4.643
4.642
4.647
4.646
4.635
4.638
4.639
4.635
4.639
4.646
4.643
4.649
4.652
4.649
4.646
4.651
4.656
4.662
4.667
4.672
4.677
4.683
4.688
4.693
4.698
4.704
4.709
4.714
4.720
4.725
4.730
4.735
4.741
4.746
4.750
4.750
4.745
4.738
4.737
4.749
4.743
4.748
4.745
4.752
4.759
4.760
4.756
4.754
4.755
4.753
4.747
4.741
4.737
4.737
4.731
4.735
4.733
4.734
4.725
4.717
4.718
4.717
4.712
4.709
4.706
4.711
4.713
4.715
4.710
4.710
4.705
4.709
4.709
4.708
4.704
4.709
4.712
4.706
4.701
4.696
4.691
4.686
4.681
4.676
4.673
4.681
4.676
4.672
4.670
4.667
4.666
4.663
4.665
4.662
4.662
4.664
4.666
4.670
4.671
4.667
4.662
4.656
4.648
4.643
4.649
4.656
4.663
4.664
4.665
4.666
4.672
4.673
4.676
4.676
4.670
4.676
4.674
4.668
4.669
4.669
4.667
4.663
4.663
4.670
4.673
4.672
4.675
4.675
4.677
4.679
4.681
4.688
4.691
4.691
4.694
4.686
4.682
