2.994
3.332
3.517
3.633
3.727
3.794
3.835
3.899
3.927
3.965
3.979
4.023
4.062
4.031
4.060
4.088
4.112
4.137
4.157
4.179
4.204
4.222
4.199
4.157
4.158
4.168
4.177
4.192
4.201
4.214
4.218
4.233
4.235
4.245
4.248
4.261
4.271
4.269
4.281
4.290
4.300
4.296
4.308
4.316
4.325
4.319
4.328
4.334
4.345
4.351
4.360
4.351
4.357
4.365
4.372
4.378
4.383
4.394
4.383
4.387
4.394
4.397
4.405
4.409
4.412
4.419
4.423
4.428
4.426
4.419
4.424
4.428
4.432
4.439
4.443
4.442
4.451
4.457
4.464
4.463
4.468
4.468
4.476
4.472
4.462
4.466
4.467
4.469
4.473
4.480
4.484
4.485
4.487
4.488
4.490
4.499
4.505
4.507
4.511
4.515
4.509
4.519
4.516
4.523
4.525
4.534
4.533
4.537
4.520
4.515
4.512
4.513
4.519
4.523
4.522
4.523
4.531
4.537
4.538
4.542
4.539
4.535
4.541
4.542
4.547
4.548
4.553
4.557
4.563
4.564
4.564
4.565
4.569
4.571
4.568
4.568
4.569
4.567
4.571
4.573
4.583
4.582
4.586
4.587
4.593
4.592
4.596
4.597
4.602
4.598
4.608
4.601
4.597
4.603
4.615
4.605
4.591
4.581
4.574
4.576
4.582
4.581
4.590
4.586
4.585
4.594
4.593
4.595
4.596
4.594
4.597
4.598
4.601
4.608
4.607
4.614
4.601
4.606
4.604
4.601
4.608
4.598
4.608
4.603
4.615
4.609
4.616
4.611
4.619
4.614
4.623
4.623
4.624
4.628
4.629
4.634
4.627
4.628
4.624
4.633
4.632
4.636
4.642
4.639
4.649
4.645
4.646
4.647
4.640
4.638
4.631
4.644
4.645
4.641
4.642
4.636
4.642
4.645
4.640
4.653
4.648
4.647
4.656
4.645
4.653
4.658
4.656
4.658
4.667
4.666
4.664
4.674
4.665
4.668
4.673
4.675
4.667
4.671
4.665
4.668
4.679
4.680
4.675
4.677
4.687
4.680
4.676
4.690
4.694
4.685
4.686
4.697
4.695
4.693
4.695
4.691
4.682
4.685
4.686
4.683
4.686
4.693
4.701
4.696
4.687
4.694
4.690
4.688
4.684
4.694
4.690
4.690
4.689
4.697
4.700
4.697
4.695
4.701
4.709
4.712
4.708
4.704
4.712
4.713
4.711
4.710
4.709
4.724
4.719
4.718
4.716
4.718
4.720
4.713
4.706
4.702
4.695
4.688
4.682
4.693
4.689
4.686
4.681
4.682
4.689
4.685
4.684
4.686
4.684
4.696
4.695
4.696
4.689
4.693
4.695
4.702
4.695
4.688
4.684
4.690
4.703
4.707
4.700
4.699
4.698
4.696
4.706
4.708
4.708
4.704
4.703
4.705
4.714
4.724
4.722
4.716
4.711
4.707
4.709
4.701
4.695
4.696
4.694
4.697
4.708
4.708
4.708
4.697
4.697
4.691
4.703
4.694
4.692
4.694
4.689
4.690
4.697
4.707
4.705
4.699
4.694
4.696
4.689
4.697
4.705
4.704
4.706
4.707
4.701
4.699
4.700
4.708
4.719
4.718
4.714
4.715
4.720
4.715
4.706
4.713
4.723
4.727
4.722
4.719
4.712
4.713
4.711
4.715
4.720
4.716
4.722
4.719
4.719
4.719
4.717
4.716
4.725
4.731
4.730
4.727
4.725
4.726
4.723
4.721
4.722
4.732
4.741
4.745
4.744
4.742
4.739
4.738
4.736
4.729
4.734
4.745
4.738
4.737
4.728
4.724
4.728
4.726
4.727
4.731
4.741
4.745
4.739
4.737
4.733
4.737
4.730
4.721
4.723
4.734
4.741
4.742
4.742
4.738
4.738
4.738
4.736
4.738
4.736
4.734
4.742
4.753
4.752
4.753
4.752
4.751
4.749
4.746
4.745
4.748
4.745
4.746
4.752
4.754
4.753
4.749
4.752
4.749
4.752
4.749
4.750
4.751
4.752
4.756
4.764
4.768
4.769
4.768
4.768
4.768
4.764
4.767
4.763
4.768
4.766
4.759
4.766
4.776
4.771
4.773
4.774
4.779
4.774
4.767
4.764
4.765
4.761
4.760
4.764
4.773
4.777
4.771
4.768
4.762
4.757
4.751
4.745
4.740
4.739
4.745
4.753
4.762
4.758
4.759
4.760
4.759
4.755
4.749
4.747
4.749
4.752
4.754
4.747
4.749
4.750
4.748
4.745
4.745
4.742
4.746
4.745
4.742
4.744
4.745
4.749
4.743
4.741
4.743
4.752
4.760
4.760
4.764
4.763
4.759
4.757
4.749
4.745
4.749
4.757
4.757
4.752
4.751
4.747
4.749
4.758
4.765
4.774
4.778
4.771
4.768
4.763
4.762
4.761
4.764
4.764
4.756
4.752
4.751
4.750
4.749
4.757
4.764
4.772
4.773
4.766
4.760
4.761
4.759
4.760
4.764
4.758
4.751
4.749
4.753
4.753
4.749
4.747
4.756
4.761
4.770
4.777
4.778
4.779
4.776
4.775
4.771
4.766
4.773
4.772
4.767
4.766
4.768
4.766
4.759
4.763
4.764
4.764
4.770
4.777
4.784
4.788
4.787
4.786
4.789
4.790
4.786
4.783
4.782
4.780
4.776
4.774
4.768
4.771
4.770
4.769
4.779
4.775
4.773
4.779
4.787
4.791
4.787
4.783
4.781
4.782
4.782
4.783
4.781
4.785
4.789
4.786
4.781
4.777
4.778
4.777
4.779
4.783
4.782
4.774
4.782
4.790
4.795
4.802
4.806
4.805
4.803
4.808
4.808
4.810
4.809
4.807
4.803
4.805
4.800
4.796
4.794
4.796
4.795
4.801
4.794
4.793
4.795
4.794
4.794
4.799
4.806
4.810
4.809
4.808
4.806
4.808
4.806
4.799
4.801
4.801
4.797
4.794
4.794
4.790
4.784
4.782
4.776
4.771
4.773
4.774
4.781
4.788
4.794
4.801
4.801
4.801
4.795
4.801
4.800
4.802
4.800
4.802
4.801
4.797
4.792
4.794
4.790
4.788
4.787
4.780
4.778
4.775
4.775
4.779
4.775
4.777
4.781
4.788
4.794
4.799
4.797
4.797
4.800
4.802
4.801
4.801
4.798
4.794
4.795
4.797
4.797
4.796
4.794
4.791
4.790
4.797
4.794
4.793
4.798
4.797
4.798
4.801
4.797
4.791
4.786
4.791
4.797
4.804
4.808
4.807
4.811
4.810
4.811
4.805
4.803
4.802
4.801
4.802
4.803
4.807
4.805
4.805
4.805
4.801
4.801
4.804
4.805
4.802
4.805
4.804
4.805
4.799
4.798
4.797
4.798
4.805
4.806
4.805
4.811
4.816
4.822
4.827
4.828
4.824
4.825
4.827
4.823
4.821
4.817
4.815
4.812
4.815
4.816
4.819
4.814
4.816
4.820
4.824
4.825
4.821
4.822
4.819
4.822
4.821
4.822
4.821
4.822
4.821
4.819
4.816
4.811
4.815
4.820
4.826
4.830
4.835
4.842
4.837
4.833
4.837
4.838
4.835
4.836
4.835
4.834
4.832
4.833
4.831
4.828
4.831
4.827
4.827
4.827
4.824
4.827
4.829
4.827
4.823
4.820
4.824
4.822
4.821
4.817
4.812
4.808
4.805
4.812
4.818
4.822
4.827
4.833
4.831
4.831
4.829
4.822
4.827
4.830
4.826
4.823
4.826
4.827
4.824
4.828
4.826
4.828
4.834
4.825
4.827
4.828
4.831
4.823
4.823
4.820
4.815
4.817
4.813
4.817
4.813
4.814
4.812
4.811
4.815
4.817
4.812
4.816
4.819
4.825
4.826
4.830
4.835
4.839
4.845
4.850
4.853
4.853
4.849
4.844
4.843
4.847
4.848
4.847
4.843
4.842
4.845
4.842
4.849
4.844
4.842
4.838
4.840
4.841
4.837
4.839
4.840
4.844
4.846
4.850
4.846
4.845
4.845
4.847
4.843
4.841
4.838
4.838
4.842
4.842
4.838
4.838
4.840
4.838
4.835
4.839
4.845
4.849
4.854
4.860
4.864
4.869
4.873
4.871
4.867
4.861
4.862
4.860
4.860
4.861
4.860
4.858
4.862
4.857
4.856
4.858
4.859
4.858
4.856
4.857
4.854
4.855
4.856
4.855
4.854
4.853
4.849
4.847
4.845
4.841
4.838
4.836
4.835
4.831
4.829
4.827
4.823
4.820
4.821
4.825
4.831
4.834
4.838
4.844
4.845
4.841
4.840
4.836
4.832
4.831
4.835
4.836
4.835
4.831
4.832
4.834
4.834
4.836
4.835
4.830
4.831
4.834
4.840
4.839
