2.994
3.332
3.511
3.631
3.715
3.777
3.836
3.873
3.937
3.941
3.991
4.031
4.010
4.037
4.063
4.091
4.115
4.144
4.164
4.188
4.205
4.160
4.129
4.140
4.151
4.170
4.177
4.195
4.199
4.212
4.218
4.233
4.230
4.244
4.258
4.258
4.266
4.278
4.276
4.288
4.298
4.308
4.301
4.311
4.317
4.325
4.337
4.327
4.337
4.343
4.353
4.357
4.367
4.370
4.359
4.370
4.373
4.382
4.388
4.388
4.399
4.406
4.408
4.406
4.405
4.410
4.413
4.418
4.422
4.426
4.432
4.434
4.441
4.450
4.447
4.450
4.457
4.451
4.443
4.445
4.451
4.453
4.460
4.464
4.466
4.462
4.470
4.472
4.479
4.488
4.490
4.494
4.488
4.499
4.496
4.503
4.509
4.514
4.518
4.519
4.501
4.489
4.498
4.492
4.501
4.505
4.507
4.514
4.514
4.516
4.523
4.518
4.521
4.522
4.523
4.527
4.528
4.533
4.539
4.540
4.544
4.546
4.550
4.552
4.550
4.554
4.555
4.555
4.556
4.558
4.559
4.566
4.570
4.577
4.577
4.576
4.581
4.579
4.588
4.587
4.586
4.582
4.591
4.581
4.578
4.566
4.553
4.562
4.558
4.570
4.566
4.566
4.573
4.581
4.575
4.576
4.583
4.576
4.581
4.584
4.589
4.595
4.588
4.585
4.589
4.579
4.591
4.581
4.589
4.588
4.591
4.595
4.597
4.599
4.595
4.603
4.605
4.607
4.610
4.610
4.613
4.609
4.611
4.610
4.616
4.614
4.625
4.623
4.630
4.625
4.629
4.631
4.622
4.615
4.618
4.629
4.624
4.628
4.622
4.625
4.627
4.623
4.638
4.629
4.629
4.629
4.633
4.637
4.641
4.640
4.647
4.650
4.649
4.655
4.652
4.647
4.660
4.656
4.646
4.653
4.654
4.655
4.663
4.662
4.660
4.667
4.665
4.664
4.668
4.673
4.670
4.666
4.684
4.677
4.671
4.680
4.668
4.659
4.673
4.677
4.673
4.672
4.684
4.673
4.666
4.675
4.677
4.666
4.666
4.678
4.681
4.678
4.673
4.686
4.682
4.683
4.684
4.691
4.696
4.688
4.692
4.694
4.699
4.700
4.698
4.699
4.709
4.699
4.704
4.700
4.703
4.695
4.688
4.683
4.676
4.669
4.662
4.673
4.666
4.658
4.658
4.666
4.676
4.673
4.673
4.666
4.670
4.683
4.681
4.681
4.677
4.673
4.679
4.677
4.674
4.681
4.677
4.684
4.687
4.686
4.681
4.680
4.682
4.695
4.695
4.695
4.696
4.699
4.693
4.702
4.706
4.697
4.688
4.681
4.682
4.684
4.684
4.684
4.682
4.683
4.687
4.684
4.685
4.680
4.671
4.680
4.685
4.688
4.684
4.683
4.677
4.677
4.685
4.684
4.681
4.681
4.679
4.675
4.684
4.695
4.692
4.691
4.693
4.697
4.692
4.691
4.699
4.703
4.701
4.700
4.699
4.697
4.695
4.697
4.709
4.700
4.701
4.695
4.695
4.691
4.695
4.705
4.714
4.707
4.709
4.702
4.707
4.702
4.701
4.708
4.715
4.722
4.718
4.716
4.718
4.713
4.720
4.716
4.718
4.727
4.729
4.727
4.729
4.721
4.712
4.705
4.714
4.724
4.725
4.719
4.717
4.714
4.717
4.713
4.709
4.714
4.718
4.722
4.717
4.714
4.714
4.718
4.712
4.718
4.714
4.724
4.734
4.733
4.726
4.730
4.728
4.730
4.726
4.725
4.723
4.727
4.739
4.740
4.729
4.727
4.728
4.730
4.728
4.727
4.726
4.730
4.736
4.746
4.747
4.747
4.747
4.744
4.745
4.743
4.742
4.741
4.745
4.746
4.750
4.758
4.759
4.754
4.756
4.754
4.751
4.751
4.751
4.752
4.751
4.746
4.755
4.762
4.761
4.763
4.759
4.758
4.759
4.752
4.747
4.741
4.736
4.740
4.736
4.740
4.744
4.741
4.739
4.730
4.728
4.730
4.731
4.725
4.731
4.741
4.750
4.746
4.739
4.732
4.726
4.724
4.718
4.722
4.718
4.719
4.720
4.730
4.737
4.744
4.742
4.738
4.739
4.736
4.737
4.733
4.729
4.736
4.729
4.729
4.728
4.730
4.737
4.747
4.748
4.755
4.756
4.755
4.759
4.752
4.750
4.744
4.740
4.735
4.734
4.741
4.737
4.741
4.748
4.755
4.755
4.754
4.750
4.754
4.748
4.747
4.744
4.743
4.740
4.740
4.734
4.727
4.734
4.743
4.748
4.751
4.758
4.757
4.755
4.749
4.750
4.746
4.753
4.754
4.745
4.747
4.750
4.746
4.744
4.741
4.747
4.755
4.762
4.770
4.769
4.768
4.769
4.768
4.770
4.768
4.772
4.770
4.761
4.757
4.756
4.755
4.753
4.752
4.755
4.757
4.766
4.771
4.773
4.773
4.764
4.763
4.764
4.765
4.761
4.762
4.764
4.763
4.762
4.760
4.759
4.757
4.759
4.757
4.756
4.765
4.772
4.779
4.780
4.787
4.786
4.782
4.784
4.785
4.783
4.785
4.784
4.781
4.784
4.777
4.777
4.782
4.783
4.779
4.775
4.770
4.770
4.777
4.784
4.792
4.794
4.790
4.788
4.787
4.786
4.793
4.792
4.792
4.791
4.785
4.783
4.777
4.773
4.774
4.772
4.771
4.770
4.770
4.769
4.777
4.783
4.781
4.780
4.779
4.780
4.779
4.780
4.774
4.777
4.776
4.772
4.776
4.780
4.776
4.777
4.774
4.775
4.770
4.764
4.762
4.761
4.768
4.773
4.779
4.775
4.776
4.778
4.781
4.781
4.784
4.781
4.776
4.772
4.771
4.777
4.771
4.773
4.773
4.770
4.773
4.770
4.774
4.777
4.777
4.777
4.779
4.775
4.773
4.780
4.785
4.792
4.792
4.791
4.793
4.789
4.784
4.786
4.788
4.786
4.790
4.783
4.782
4.778
4.779
4.778
4.782
4.781
4.782
4.778
4.779
4.780
4.782
4.778
4.777
4.777
4.782
4.784
4.792
4.797
4.803
4.810
4.812
4.810
4.804
4.805
4.803
4.802
4.798
4.795
4.799
4.794
4.796
4.797
4.793
4.797
4.804
4.799
4.795
4.799
4.799
4.802
4.798
4.795
4.799
4.799
4.799
4.799
4.795
4.800
4.806
4.811
4.817
4.824
4.820
4.819
4.820
4.825
4.825
4.824
4.818
4.816
4.815
4.811
4.806
4.805
4.809
4.814
4.810
4.811
4.812
4.811
4.806
4.800
4.803
4.810
4.807
4.803
4.803
4.802
4.801
4.802
4.804
4.808
4.815
4.818
4.814
4.813
4.818
4.813
4.812
4.807
4.804
4.799
4.803
4.805
4.806
4.807
4.812
4.814
4.810
4.808
4.810
4.811
4.804
4.802
4.801
4.800
4.799
4.794
4.793
4.799
4.793
4.792
4.798
4.792
4.796
4.802
4.807
4.814
4.820
4.824
4.829
4.833
4.833
4.832
4.829
4.827
4.828
4.829
4.833
4.829
4.825
4.822
4.820
4.822
4.820
4.824
4.821
4.822
4.826
4.819
4.820
4.825
4.826
4.824
4.826
4.821
4.821
4.821
4.821
4.824
4.823
4.824
4.825
4.822
4.820
4.818
4.820
4.821
4.826
4.832
4.837
4.843
4.848
4.854
4.859
4.858
4.856
4.855
4.856
4.854
4.856
4.854
4.847
4.841
4.842
4.841
4.840
4.843
4.845
4.841
4.836
4.832
4.829
4.829
4.829
4.833
4.833
4.836
4.836
4.830
4.829
4.827
4.829
4.835
4.834
4.832
4.828
4.825
4.821
4.819
4.821
4.827
4.833
4.838
4.834
4.832
4.828
4.822
4.818
4.818
4.820
4.813
4.810
4.816
4.817
4.816
4.817
4.813
4.815
4.819
4.820
4.818
4.814
4.813
4.814
4.810
4.810
4.810
4.812
4.814
4.812
4.813
4.814
4.810
4.804
4.808
4.810
4.811
4.809
4.807
4.807
4.803
4.799
4.800
4.804
4.810
4.815
4.819
4.818
4.825
4.828
4.830
4.829
4.825
4.826
4.824
4.821
4.822
4.817
4.818
4.821
4.825
4.821
4.821
4.820
4.819
4.817
4.821
4.823
4.819
4.814
4.808
4.806
4.805
4.804
4.803
4.803
4.800
4.807
4.811
4.812
4.808
4.806
4.802
4.804
4.800
4.796
4.792
4.795
4.797
4.795
4.792
4.795
4.795
4.796
4.800
4.806
4.810
4.814
4.818
4.823
4.829
4.833
4.832
4.826
4.825
4.829
