2.981
3.297
3.488
3.565
3.665
3.614
3.666
3.735
3.763
3.822
3.843
3.864
3.900
3.906
3.940
3.973
3.992
3.988
4.010
4.025
4.052
4.076
4.087
4.115
4.066
4.097
4.071
4.102
4.116
4.142
4.130
4.133
4.158
4.158
4.175
4.193
4.199
4.173
4.180
4.200
4.221
4.223
4.244
4.269
4.227
4.206
4.238
4.241
4.195
4.188
4.200
4.235
4.198
4.236
4.228
4.262
4.252
4.250
4.253
4.251
4.273
4.251
4.271
4.289
4.273
4.315
4.282
4.303
4.328
4.297
4.270
4.253
4.291
4.283
4.265
4.297
4.285
4.254
4.290
4.309
4.306
4.289
4.309
4.316
4.315
4.312
4.337
4.339
4.344
4.336
4.334
4.348
4.316
4.278
4.314
4.342
4.323
4.298
4.324
4.321
4.363
4.348
4.369
4.354
4.332
4.356
4.387
4.366
4.361
4.362
4.356
4.346
4.383
4.388
4.386
4.368
4.373
4.375
4.359
4.392
4.429
4.410
4.411
4.387
4.399
4.378
4.394
4.405
4.439
4.452
4.442
4.432
4.411
4.391
4.370
4.383
4.397
4.384
4.373
4.366
4.375
4.376
4.363
4.364
4.357
4.387
4.387
4.387
4.369
4.378
4.376
4.382
4.362
4.353
4.362
4.357
4.376
4.403
4.407
4.391
4.375
4.360
4.381
4.383
4.389
4.384
4.359
4.346
4.356
4.369
4.394
4.413
4.421
4.401
4.405
4.419
4.412
4.394
4.375
4.383
4.381
4.372
4.366
4.385
4.384
4.377
4.400
4.424
4.425
4.443
4.447
4.435
4.441
4.445
4.430
4.419
4.438
4.406
4.414
4.420
4.404
4.406
4.409
4.431
4.432
4.421
4.423
4.445
4.466
4.478
4.463
4.461
4.473
4.449
4.430
4.441
4.434
4.415
4.416
4.395
4.390
4.397
4.378
4.381
4.386
4.382
4.361
4.380
4.399
4.418
4.438
4.457
4.476
4.475
4.458
4.450
4.451
4.453
4.453
4.445
4.426
4.435
4.435
4.427
4.422
4.414
4.422
4.441
4.450
4.441
4.441
4.437
4.431
4.436
4.437
4.442
4.447
4.435
4.432
4.435
4.452
4.469
4.472
4.474
4.470
4.454
4.441
4.458
4.463
4.452
4.451
4.432
4.429
4.417
4.416
4.408
4.410
4.409
4.420
4.426
4.407
4.389
4.397
4.381
4.376
4.374
4.369
4.388
4.403
4.405
4.387
4.393
4.395
4.399
4.398
4.413
4.428
4.443
4.458
4.473
4.488
4.503
4.496
4.485
4.485
4.486
4.480
4.469
4.468
4.469
4.458
4.443
4.428
4.420
4.414
4.419
4.439
4.438
4.444
4.454
4.467
4.459
4.452
4.452
4.450
4.435
4.423
4.427
4.408
4.389
4.377
4.375
4.381
4.371
4.376
4.380
4.386
4.384
4.369
4.367
4.380
4.386
4.395
4.392
4.404
4.417
4.430
4.443
4.455
4.468
4.481
4.494
4.506
4.519
4.529
4.514
4.508
4.508
4.512
4.508
4.496
4.491
4.473
4.469
4.464
4.458
4.469
4.474
4.469
4.473
4.453
4.459
4.463
4.452
4.456
4.454
4.452
4.440
4.438
4.439
4.438
4.441
4.441
4.458
4.446
4.445
4.456
4.446
4.454
4.461
4.464
4.466
4.463
4.460
4.447
4.436
4.430
4.431
4.419
4.413
4.420
4.435
4.418
4.405
4.415
4.407
4.426
4.441
4.438
4.432
4.427
4.433
4.445
4.454
4.456
4.444
4.444
4.442
4.453
4.463
4.474
4.485
4.495
4.506
4.511
4.507
4.504
4.498
4.505
4.489
4.479
4.478
4.475
4.462
4.446
4.443
4.457
4.459
4.468
4.481
4.491
4.476
4.473
4.480
4.464
4.460
4.461
4.461
4.467
4.473
4.475
4.471
4.479
4.465
4.459
4.454
4.448
4.444
4.451
4.435
4.439
4.438
4.424
4.430
4.437
4.441
4.433
4.416
4.418
4.424
4.415
4.412
4.401
4.405
4.412
4.423
4.407
4.405
4.388
4.399
4.398
4.403
4.401
4.392
4.398
4.395
4.409
4.401
4.385
4.394
4.386
4.389
4.396
4.388
4.383
4.402
4.406
4.417
4.427
4.440
4.451
4.444
4.447
4.439
4.428
4.434
4.435
4.423
4.427
4.435
4.431
4.422
4.413
4.425
4.430
4.430
4.437
4.425
4.426
4.434
4.425
4.433
4.442
4.450
4.459
4.467
4.476
4.484
4.492
4.501
4.509
4.518
4.526
4.529
4.519
4.515
4.504
4.512
4.520
4.503
4.493
4.505
4.510
4.520
4.526
4.520
4.512
4.496
4.491
4.489
4.490
4.484
4.483
4.489
4.499
4.493
4.481
4.478
4.476
4.466
4.465
4.469
4.464
4.480
4.479
4.488
4.491
4.506
4.499
4.504
4.498
4.479
4.479
4.480
4.484
4.490
4.501
4.500
4.487
4.480
4.472
4.460
4.468
4.469
4.484
4.477
4.478
4.485
4.496
4.500
4.502
4.504
4.494
4.487
4.490
4.488
4.472
4.472
4.464
4.467
4.481
4.484
4.479
4.470
4.465
4.456
4.469
4.472
4.479
4.469
4.468
4.453
4.447
4.448
4.449
4.447
4.430
4.438
4.433
4.437
4.443
4.440
4.433
4.425
4.418
4.410
4.405
4.417
4.414
4.422
4.425
4.419
4.414
4.414
4.424
4.420
4.415
4.410
4.406
4.408
4.417
4.429
4.437
4.432
4.429
4.428
4.419
4.414
4.405
4.407
4.416
4.407
4.404
4.404
4.406
4.397
4.387
4.378
4.387
4.394
4.396
4.392
4.390
4.388
4.378
4.376
4.374
4.376
4.385
4.383
4.371
4.374
4.365
4.368
4.363
4.365
4.360
4.365
4.357
4.357
4.365
4.361
4.361
4.362
4.369
4.374
4.384
4.378
4.384
4.390
4.397
4.403
4.409
4.416
4.422
4.429
4.435
4.441
4.447
4.454
4.460
4.467
4.473
4.479
4.486
4.492
4.498
4.505
4.511
4.517
4.524
4.530
4.536
4.543
4.549
4.556
4.562
4.568
4.575
4.581
4.587
4.593
4.589
4.582
4.588
4.582
4.578
4.569
4.557
4.552
4.551
4.550
4.547
4.558
4.550
4.540
4.543
4.532
4.520
4.522
4.522
4.521
4.517
4.510
4.514
4.506
4.502
4.503
4.497
4.501
4.498
4.503
4.507
4.501
4.501
4.506
4.509
4.513
4.524
4.526
4.517
4.526
4.529
4.519
4.518
4.514
4.518
4.515
4.512
4.507
4.498
4.495
4.495
4.497
4.493
4.504
4.512
4.515
4.510
4.505
4.510
4.509
4.510
4.514
4.514
4.512
4.521
4.516
4.514
4.514
4.510
4.509
4.507
4.499
4.490
4.480
4.486
4.490
4.486
4.492
4.489
4.480
4.481
4.481
4.479
4.477
4.474
4.472
4.470
4.467
4.462
4.453
4.446
4.456
4.449
4.448
4.454
4.450
4.454
4.444
4.446
4.441
4.447
4.451
4.445
4.449
4.452
4.444
4.445
4.448
4.438
4.442
4.437
4.431
4.425
4.419
4.412
4.406
4.400
4.394
4.389
4.393
4.388
4.391
4.394
4.391
4.393
4.385
4.394
4.391
4.395
4.410
4.398
4.400
4.393
4.397
4.396
4.394
4.398
4.399
4.393
4.388
4.387
4.392
4.393
4.396
4.392
4.388
4.394
4.403
4.397
4.400
4.407
4.414
4.422
4.429
4.436
4.444
4.451
4.457
4.456
4.454
4.451
4.458
4.449
4.447
4.446
4.449
4.442
4.452
4.455
4.457
4.447
4.441
4.441
4.438
4.430
4.430
4.438
4.446
4.440
4.449
4.464
4.464
4.468
4.465
4.454
4.447
4.442
4.450
4.443
4.442
4.434
4.422
4.428
4.430
4.423
4.429
4.425
4.426
4.428
4.438
4.443
4.430
4.429
4.425
4.422
4.417
4.416
4.416
4.423
4.420
4.414
4.422
4.417
4.418
4.412
4.413
4.412
4.420
4.409
4.407
4.415
4.414
4.412
4.417
4.417
4.423
4.425
4.428
4.423
4.425
4.413
4.420
4.403
4.410
4.405
4.408
4.412
4.410
4.412
4.401
4.414
4.417
4.409
4.414
4.403
4.406
4.411
4.414
4.412
4.409
4.405
4.409
4.400
4.402
4.401
4.390
4.389
4.395
4.390
4.389
4.391
4.383
4.380
4.384
4.389
4.383
4.389
4.380
4.378
4.374
4.382
4.385
4.378
4.383
4.392
4.402
4.394
4.385
