2.994
3.332
3.516
3.627
3.708
3.792
3.849
3.883
3.898
3.954
4.001
3.997
4.010
4.042
4.073
4.102
4.123
4.154
4.172
4.159
4.111
4.113
4.131
4.146
4.153
4.162
4.177
4.186
4.197
4.203
4.220
4.230
4.231
4.241
4.256
4.253
4.265
4.274
4.289
4.282
4.292
4.304
4.311
4.309
4.316
4.321
4.330
4.337
4.346
4.353
4.342
4.348
4.353
4.364
4.369
4.378
4.383
4.386
4.382
4.381
4.382
4.390
4.399
4.406
4.409
4.412
4.421
4.430
4.427
4.431
4.442
4.422
4.427
4.425
4.432
4.436
4.442
4.446
4.446
4.449
4.456
4.464
4.465
4.471
4.470
4.471
4.470
4.483
4.486
4.493
4.495
4.496
4.479
4.474
4.472
4.480
4.483
4.483
4.497
4.490
4.495
4.505
4.494
4.499
4.505
4.507
4.506
4.512
4.516
4.521
4.525
4.529
4.534
4.526
4.525
4.535
4.528
4.531
4.538
4.543
4.553
4.551
4.557
4.557
4.560
4.559
4.563
4.570
4.560
4.565
4.574
4.570
4.561
4.548
4.541
4.545
4.546
4.542
4.552
4.551
4.555
4.553
4.560
4.554
4.561
4.567
4.568
4.573
4.571
4.557
4.563
4.568
4.564
4.567
4.566
4.572
4.575
4.575
4.579
4.576
4.586
4.583
4.588
4.590
4.596
4.587
4.591
4.589
4.596
4.594
4.605
4.600
4.612
4.603
4.612
4.611
4.597
4.592
4.607
4.606
4.610
4.598
4.609
4.606
4.607
4.611
4.607
4.612
4.613
4.614
4.621
4.622
4.627
4.631
4.627
4.636
4.632
4.628
4.640
4.627
4.635
4.638
4.632
4.642
4.642
4.639
4.648
4.649
4.651
4.652
4.653
4.650
4.656
4.657
4.657
4.657
4.646
4.641
4.653
4.655
4.657
4.650
4.654
4.647
4.651
4.652
4.651
4.646
4.657
4.660
4.660
4.655
4.667
4.672
4.670
4.671
4.676
4.675
4.672
4.669
4.683
4.686
4.681
4.677
4.686
4.691
4.687
4.690
4.681
4.674
4.665
4.660
4.653
4.646
4.648
4.646
4.648
4.646
4.645
4.660
4.657
4.657
4.651
4.653
4.667
4.663
4.648
4.646
4.659
4.668
4.664
4.660
4.656
4.663
4.672
4.669
4.670
4.669
4.667
4.682
4.687
4.679
4.675
4.677
4.681
4.674
4.665
4.655
4.659
4.674
4.676
4.668
4.659
4.655
4.665
4.663
4.656
4.653
4.657
4.657
4.670
4.664
4.667
4.660
4.654
4.657
4.672
4.674
4.672
4.664
4.668
4.661
4.670
4.683
4.686
4.686
4.684
4.671
4.670
4.679
4.690
4.686
4.684
4.679
4.675
4.675
4.681
4.690
4.686
4.691
4.684
4.682
4.683
4.682
4.694
4.693
4.695
4.690
4.689
4.686
4.692
4.691
4.703
4.710
4.705
4.709
4.698
4.699
4.705
4.699
4.703
4.697
4.694
4.696
4.698
4.691
4.689
4.696
4.706
4.705
4.706
4.697
4.692
4.688
4.689
4.693
4.703
4.710
4.712
4.707
4.708
4.705
4.703
4.697
4.697
4.707
4.717
4.721
4.722
4.721
4.716
4.712
4.701
4.697
4.705
4.715
4.727
4.724
4.723
4.721
4.722
4.720
4.717
4.716
4.719
4.721
4.730
4.742
4.741
4.740
4.738
4.737
4.734
4.731
4.725
4.723
4.728
4.740
4.742
4.740
4.738
4.732
4.734
4.734
4.734
4.737
4.736
4.734
4.733
4.729
4.722
4.715
4.712
4.712
4.711
4.710
4.706
4.716
4.725
4.726
4.728
4.726
4.720
4.724
4.720
4.716
4.709
4.704
4.706
4.715
4.717
4.726
4.722
4.718
4.720
4.715
4.706
4.705
4.714
4.715
4.709
4.710
4.719
4.727
4.728
4.729
4.728
4.731
4.730
4.726
4.730
4.731
4.727
4.724
4.720
4.720
4.727
4.735
4.736
4.732
4.727
4.729
4.727
4.724
4.727
4.732
4.725
4.729
4.722
4.715
4.723
4.726
4.727
4.737
4.730
4.724
4.723
4.724
4.722
4.726
4.723
4.724
4.730
4.731
4.722
4.723
4.733
4.740
4.749
4.740
4.741
4.742
4.744
4.748
4.747
4.749
4.742
4.740
4.744
4.745
4.738
4.732
4.738
4.742
4.749
4.756
4.758
4.756
4.753
4.753
4.746
4.740
4.741
4.745
4.739
4.738
4.734
4.734
4.734
4.734
4.739
4.746
4.755
4.762
4.758
4.767
4.761
4.759
4.761
4.762
4.760
4.757
4.755
4.754
4.755
4.754
4.761
4.760
4.760
4.757
4.755
4.762
4.769
4.778
4.779
4.778
4.777
4.770
4.772
4.768
4.769
4.767
4.763
4.762
4.763
4.762
4.761
4.764
4.760
4.756
4.755
4.764
4.766
4.760
4.755
4.751
4.755
4.756
4.753
4.753
4.753
4.749
4.752
4.751
4.749
4.754
4.757
4.757
4.752
4.751
4.747
4.753
4.760
4.759
4.761
4.759
4.764
4.759
4.757
4.756
4.752
4.748
4.749
4.756
4.749
4.746
4.744
4.748
4.746
4.753
4.753
4.749
4.752
4.753
4.753
4.762
4.768
4.776
4.780
4.781
4.775
4.775
4.768
4.764
4.764
4.768
4.763
4.762
4.766
4.767
4.763
4.759
4.757
4.753
4.755
4.757
4.755
4.756
4.749
4.756
4.764
4.772
4.779
4.784
4.790
4.794
4.801
4.797
4.790
4.786
4.783
4.779
4.775
4.773
4.772
4.775
4.775
4.778
4.782
4.778
4.777
4.775
4.772
4.772
4.766
4.773
4.774
4.773
4.772
4.779
4.786
4.794
4.799
4.806
4.809
4.801
4.797
4.806
4.801
4.801
4.801
4.801
4.804
4.798
4.794
4.792
4.793
4.789
4.785
4.786
4.785
4.786
4.783
4.789
4.793
4.789
4.783
4.783
4.782
4.786
4.791
4.797
4.804
4.803
4.796
4.790
4.790
4.789
4.786
4.789
4.785
4.787
4.790
4.786
4.786
4.789
4.783
4.784
4.788
4.792
4.788
4.781
4.780
4.779
4.774
4.773
4.775
4.778
4.774
4.775
4.779
4.786
4.791
4.797
4.804
4.809
4.816
4.814
4.813
4.808
4.809
4.803
4.805
4.808
4.809
4.806
4.802
4.803
4.809
4.803
4.797
4.800
4.796
4.797
4.799
4.805
4.805
4.806
4.802
4.797
4.796
4.795
4.797
4.798
4.797
4.797
4.797
4.797
4.801
4.805
4.810
4.816
4.821
4.827
4.832
4.834
4.834
4.833
4.827
4.828
4.832
4.836
4.835
4.838
4.842
4.836
4.835
4.836
4.827
4.825
4.820
4.812
4.813
4.809
4.810
4.812
4.810
4.808
4.805
4.805
4.804
4.808
4.813
4.820
4.821
4.817
4.813
4.816
4.809
4.812
4.818
4.817
4.815
4.814
4.810
4.811
4.805
4.803
4.804
4.808
4.805
4.803
4.797
4.797
4.790
4.797
4.801
4.798
4.796
4.792
4.790
4.787
4.786
4.784
4.790
4.790
4.793
4.794
4.791
4.789
4.788
4.787
4.786
4.786
4.785
4.781
4.783
4.786
4.791
4.797
4.799
4.797
4.799
4.801
4.804
4.809
4.807
4.806
4.804
4.803
4.799
4.798
4.794
4.798
4.799
4.797
4.796
4.798
4.797
4.797
4.796
4.797
4.799
4.797
4.793
4.790
4.794
4.794
4.788
4.787
4.790
4.787
4.785
4.786
4.783
4.787
4.786
4.786
4.783
4.781
4.783
4.781
4.775
4.779
4.783
4.789
4.793
4.798
4.804
4.809
4.809
4.808
4.807
4.805
4.805
4.806
4.804
4.805
4.802
4.805
4.802
4.809
4.807
4.814
4.816
4.814
4.812
4.814
4.810
4.808
4.805
4.803
4.805
4.808
4.804
4.800
4.796
4.792
4.793
4.792
4.788
4.787
4.791
4.792
4.793
4.797
4.794
4.794
4.791
4.790
4.788
4.784
4.783
4.779
4.775
4.778
4.780
4.786
4.790
4.795
4.799
4.803
4.809
4.814
4.812
4.806
4.805
4.801
4.801
4.800
4.802
4.803
4.802
4.806
4.809
4.806
4.801
4.800
4.799
4.797
4.794
4.794
4.793
4.795
4.793
4.792
4.786
4.787
4.793
4.794
4.793
4.794
4.796
4.795
4.794
4.797
4.793
4.790
4.793
4.789
4.791
4.794
4.793
4.792
4.786
4.789
4.790
4.789
4.793
4.790
