2.994
3.335
3.515
3.632
3.717
3.790
3.834
3.877
3.942
3.959
4.007
4.005
4.040
4.079
4.108
4.079
4.097
4.123
4.142
4.167
4.183
4.203
4.224
4.241
4.257
4.241
4.205
4.189
4.207
4.212
4.218
4.231
4.237
4.249
4.253
4.264
4.275
4.277
4.289
4.299
4.295
4.307
4.317
4.315
4.320
4.329
4.339
4.334
4.342
4.349
4.358
4.364
4.363
4.364
4.375
4.378
4.386
4.392
4.401
4.387
4.393
4.403
4.407
4.414
4.415
4.423
4.432
4.427
4.420
4.430
4.432
4.438
4.440
4.447
4.446
4.453
4.460
4.466
4.467
4.460
4.457
4.463
4.467
4.464
4.471
4.475
4.481
4.483
4.487
4.486
4.494
4.501
4.506
4.501
4.506
4.508
4.514
4.496
4.501
4.501
4.501
4.504
4.506
4.508
4.519
4.524
4.523
4.526
4.523
4.532
4.533
4.534
4.542
4.543
4.545
4.548
4.545
4.549
4.552
4.554
4.553
4.562
4.568
4.568
4.566
4.560
4.552
4.553
4.545
4.553
4.555
4.556
4.557
4.562
4.564
4.565
4.574
4.568
4.569
4.575
4.575
4.573
4.575
4.578
4.575
4.578
4.583
4.582
4.590
4.592
4.597
4.597
4.597
4.597
4.601
4.608
4.602
4.603
4.607
4.603
4.607
4.608
4.607
4.611
4.615
4.617
4.624
4.620
4.624
4.630
4.627
4.628
4.634
4.633
4.635
4.638
4.635
4.631
4.637
4.638
4.638
4.628
4.620
4.609
4.608
4.608
4.615
4.612
4.621
4.619
4.626
4.620
4.621
4.627
4.629
4.631
4.626
4.633
4.632
4.634
4.632
4.641
4.637
4.644
4.645
4.639
4.629
4.639
4.637
4.641
4.634
4.641
4.632
4.642
4.642
4.644
4.648
4.644
4.649
4.645
4.656
4.653
4.653
4.658
4.653
4.664
4.659
4.660
4.670
4.658
4.667
4.663
4.662
4.664
4.662
4.671
4.673
4.669
4.679
4.677
4.678
4.682
4.682
4.674
4.665
4.668
4.676
4.672
4.671
4.682
4.682
4.669
4.676
4.674
4.670
4.685
4.679
4.682
4.686
4.688
4.681
4.685
4.686
4.688
4.684
4.697
4.695
4.694
4.697
4.702
4.703
4.702
4.706
4.705
4.698
4.702
4.705
4.699
4.698
4.704
4.706
4.704
4.706
4.715
4.711
4.713
4.708
4.720
4.717
4.718
4.714
4.726
4.722
4.721
4.719
4.727
4.733
4.727
4.719
4.716
4.712
4.715
4.712
4.721
4.722
4.720
4.719
4.724
4.731
4.721
4.717
4.720
4.728
4.723
4.719
4.716
4.727
4.724
4.727
4.726
4.725
4.732
4.736
4.732
4.731
4.729
4.738
4.748
4.745
4.740
4.739
4.740
4.750
4.743
4.749
4.743
4.745
4.754
4.750
4.751
4.749
4.743
4.738
4.732
4.728
4.723
4.719
4.718
4.720
4.715
4.716
4.726
4.723
4.720
4.711
4.708
4.717
4.716
4.719
4.718
4.716
4.718
4.723
4.729
4.727
4.726
4.725
4.721
4.723
4.735
4.730
4.726
4.720
4.720
4.722
4.732
4.733
4.738
4.733
4.731
4.727
4.729
4.741
4.737
4.739
4.740
4.738
4.737
4.734
4.745
4.753
4.753
4.753
4.748
4.745
4.738
4.733
4.731
4.733
4.727
4.727
4.724
4.733
4.740
4.741
4.738
4.736
4.732
4.728
4.731
4.734
4.727
4.720
4.723
4.719
4.723
4.722
4.732
4.739
4.737
4.736
4.731
4.731
4.724
4.723
4.734
4.739
4.735
4.731
4.732
4.736
4.732
4.734
4.732
4.741
4.742
4.745
4.746
4.747
4.742
4.744
4.745
4.747
4.748
4.750
4.748
4.749
4.756
4.752
4.751
4.745
4.738
4.749
4.757
4.750
4.749
4.747
4.746
4.747
4.748
4.749
4.745
4.755
4.760
4.760
4.759
4.758
4.756
4.753
4.749
4.753
4.753
4.758
4.767
4.769
4.768
4.764
4.767
4.766
4.771
4.768
4.767
4.763
4.767
4.775
4.779
4.775
4.770
4.763
4.764
4.766
4.757
4.752
4.760
4.769
4.771
4.769
4.768
4.768
4.765
4.768
4.765
4.760
4.762
4.763
4.770
4.771
4.768
4.766
4.760
4.766
4.765
4.763
4.764
4.763
4.760
4.766
4.773
4.783
4.782
4.782
4.779
4.777
4.771
4.775
4.778
4.775
4.775
4.775
4.775
4.783
4.790
4.788
4.786
4.782
4.779
4.775
4.771
4.772
4.771
4.775
4.775
4.777
4.786
4.793
4.794
4.794
4.794
4.793
4.789
4.793
4.790
4.790
4.789
4.791
4.787
4.788
4.792
4.799
4.808
4.816
4.808
4.805
4.803
4.801
4.797
4.796
4.798
4.797
4.797
4.796
4.794
4.797
4.806
4.810
4.806
4.805
4.806
4.804
4.801
4.797
4.792
4.788
4.784
4.780
4.784
4.788
4.786
4.788
4.782
4.782
4.782
4.780
4.786
4.783
4.786
4.782
4.776
4.775
4.773
4.782
4.789
4.790
4.792
4.796
4.789
4.785
4.779
4.774
4.771
4.771
4.768
4.769
4.767
4.766
4.771
4.777
4.784
4.788
4.790
4.786
4.790
4.786
4.787
4.788
4.781
4.780
4.779
4.780
4.775
4.777
4.776
4.777
4.778
4.783
4.792
4.797
4.797
4.797
4.798
4.797
4.790
4.790
4.790
4.791
4.794
4.797
4.797
4.797
4.795
4.788
4.782
4.783
4.790
4.797
4.805
4.801
4.800
4.793
4.792
4.791
4.795
4.793
4.794
4.790
4.790
4.791
4.789
4.788
4.781
4.779
4.782
4.790
4.797
4.802
4.797
4.794
4.794
4.790
4.794
4.791
4.792
4.793
4.790
4.791
4.790
4.788
4.792
4.791
4.786
4.785
4.786
4.786
4.792
4.799
4.805
4.812
4.812
4.812
4.812
4.810
4.805
4.804
4.808
4.807
4.808
4.807
4.805
4.808
4.806
4.805
4.808
4.805
4.806
4.808
4.805
4.804
4.808
4.813
4.819
4.813
4.816
4.816
4.817
4.816
4.819
4.818
4.814
4.810
4.806
4.805
4.801
4.802
4.800
4.797
4.801
4.808
4.805
4.801
4.801
4.805
4.812
4.818
4.823
4.826
4.823
4.823
4.817
4.820
4.820
4.821
4.820
4.823
4.825
4.827
4.822
4.818
4.817
4.818
4.816
4.818
4.817
4.820
4.819
4.818
4.812
4.815
4.820
4.826
4.833
4.837
4.844
4.840
4.842
4.838
4.838
4.838
4.834
4.834
4.838
4.831
4.833
4.832
4.831
4.827
4.830
4.829
4.827
4.824
4.823
4.826
4.820
4.824
4.823
4.823
4.827
4.834
4.830
4.826
4.823
4.820
4.819
4.818
4.817
4.816
4.816
4.810
4.812
4.808
4.811
4.810
4.811
4.810
4.809
4.812
4.809
4.812
4.814
4.815
4.814
4.810
4.814
4.820
4.825
4.831
4.836
4.835
4.831
4.831
4.827
4.823
4.822
4.821
4.814
4.810
4.814
4.820
4.819
4.821
4.816
4.815
4.814
4.810
4.811
4.807
4.806
4.805
4.806
4.805
4.806
4.805
4.811
4.816
4.820
4.826
4.831
4.834
4.834
4.842
4.845
4.843
4.839
4.838
4.836
4.837
4.838
4.838
4.838
4.838
4.838
4.832
4.828
4.827
4.827
4.823
4.822
4.824
4.822
4.824
4.828
4.823
4.820
4.816
4.814
4.815
4.817
4.823
4.828
4.832
4.838
4.843
4.845
4.845
4.842
4.843
4.847
4.842
4.842
4.837
4.842
4.843
4.845
4.846
4.847
4.849
4.844
4.840
4.844
4.845
4.845
4.845
4.844
4.842
4.842
4.837
4.833
4.829
4.830
4.831
4.828
4.832
4.828
4.832
4.831
4.835
4.841
4.846
4.849
4.854
4.860
4.865
4.864
4.860
4.860
4.856
4.855
4.857
4.858
4.856
4.855
4.857
4.861
4.859
4.857
4.857
4.863
4.860
4.863
4.865
4.860
4.857
4.855
4.853
4.852
4.853
4.853
4.849
4.847
4.848
4.845
4.846
4.847
4.848
4.845
4.842
4.847
4.853
4.855
4.860
4.866
4.870
4.869
4.868
4.869
4.868
4.871
4.870
4.872
4.870
4.864
4.865
4.866
4.865
4.864
4.860
4.857
4.853
4.849
4.846
4.844
4.838
4.839
4.838
4.836
4.837
4.836
4.838
4.842
4.840
4.841
