2.994
3.332
3.514
3.632
3.718
3.783
3.850
3.894
3.921
3.975
3.976
4.018
4.057
4.068
4.055
4.082
4.107
4.133
4.153
4.175
4.197
4.215
4.231
4.207
4.167
4.169
4.178
4.190
4.203
4.207
4.222
4.226
4.239
4.243
4.255
4.267
4.268
4.278
4.290
4.287
4.299
4.308
4.315
4.308
4.321
4.328
4.337
4.334
4.338
4.347
4.353
4.360
4.371
4.360
4.367
4.375
4.378
4.388
4.390
4.401
4.401
4.394
4.401
4.405
4.409
4.413
4.420
4.424
4.431
4.435
4.441
4.442
4.430
4.434
4.436
4.443
4.445
4.456
4.457
4.457
4.463
4.468
4.474
4.478
4.479
4.484
4.490
4.481
4.474
4.476
4.479
4.482
4.485
4.489
4.494
4.497
4.504
4.498
4.507
4.505
4.510
4.519
4.515
4.523
4.524
4.523
4.531
4.523
4.537
4.539
4.540
4.542
4.548
4.531
4.529
4.522
4.527
4.525
4.531
4.533
4.535
4.542
4.548
4.542
4.546
4.552
4.546
4.547
4.554
4.555
4.559
4.561
4.564
4.566
4.568
4.572
4.570
4.571
4.576
4.582
4.578
4.572
4.578
4.586
4.586
4.585
4.584
4.591
4.594
4.602
4.598
4.602
4.603
4.604
4.608
4.610
4.611
4.620
4.612
4.610
4.612
4.620
4.617
4.605
4.595
4.585
4.586
4.590
4.587
4.601
4.598
4.594
4.600
4.601
4.611
4.607
4.606
4.605
4.609
4.613
4.609
4.618
4.611
4.621
4.616
4.610
4.614
4.615
4.616
4.615
4.617
4.610
4.622
4.620
4.622
4.623
4.623
4.627
4.623
4.634
4.630
4.638
4.638
4.640
4.644
4.638
4.642
4.634
4.639
4.637
4.647
4.646
4.644
4.656
4.653
4.656
4.657
4.656
4.652
4.642
4.650
4.646
4.647
4.657
4.655
4.653
4.655
4.648
4.661
4.657
4.655
4.662
4.660
4.659
4.664
4.664
4.661
4.671
4.672
4.670
4.675
4.676
4.680
4.676
4.686
4.676
4.675
4.686
4.675
4.673
4.683
4.682
4.683
4.686
4.690
4.689
4.688
4.697
4.696
4.695
4.696
4.701
4.697
4.698
4.699
4.712
4.702
4.700
4.696
4.695
4.690
4.694
4.702
4.700
4.702
4.698
4.707
4.697
4.696
4.698
4.701
4.698
4.693
4.697
4.707
4.708
4.707
4.698
4.710
4.714
4.710
4.711
4.710
4.722
4.723
4.719
4.713
4.717
4.731
4.725
4.724
4.725
4.723
4.731
4.735
4.727
4.726
4.722
4.715
4.711
4.704
4.703
4.696
4.694
4.691
4.698
4.701
4.690
4.685
4.684
4.697
4.703
4.701
4.698
4.699
4.697
4.707
4.709
4.705
4.706
4.707
4.701
4.704
4.701
4.701
4.698
4.699
4.706
4.716
4.711
4.712
4.708
4.707
4.708
4.720
4.722
4.720
4.717
4.720
4.722
4.721
4.731
4.729
4.723
4.720
4.712
4.715
4.714
4.708
4.705
4.705
4.706
4.708
4.719
4.716
4.714
4.707
4.705
4.705
4.708
4.707
4.705
4.707
4.706
4.707
4.703
4.710
4.716
4.710
4.706
4.704
4.708
4.701
4.708
4.720
4.719
4.720
4.717
4.716
4.709
4.712
4.719
4.724
4.734
4.734
4.730
4.729
4.720
4.718
4.717
4.726
4.736
4.732
4.727
4.727
4.725
4.724
4.719
4.724
4.733
4.732
4.734
4.735
4.738
4.731
4.727
4.729
4.728
4.738
4.736
4.742
4.738
4.738
4.738
4.737
4.736
4.732
4.741
4.749
4.758
4.757
4.752
4.753
4.745
4.748
4.745
4.746
4.745
4.748
4.741
4.742
4.741
4.740
4.742
4.738
4.738
4.738
4.747
4.753
4.749
4.749
4.742
4.742
4.739
4.735
4.734
4.737
4.745
4.756
4.753
4.756
4.752
4.753
4.750
4.748
4.752
4.748
4.742
4.749
4.758
4.768
4.766
4.759
4.761
4.764
4.764
4.762
4.755
4.746
4.749
4.757
4.766
4.765
4.763
4.764
4.768
4.760
4.764
4.765
4.763
4.760
4.760
4.759
4.769
4.778
4.780
4.784
4.780
4.778
4.783
4.782
4.782
4.775
4.777
4.773
4.769
4.775
4.783
4.787
4.788
4.784
4.782
4.781
4.780
4.775
4.772
4.773
4.769
4.775
4.775
4.778
4.772
4.767
4.764
4.759
4.758
4.756
4.755
4.753
4.750
4.751
4.758
4.767
4.768
4.765
4.769
4.768
4.766
4.762
4.758
4.760
4.764
4.760
4.760
4.754
4.753
4.759
4.760
4.760
4.757
4.757
4.753
4.757
4.760
4.757
4.760
4.757
4.755
4.753
4.750
4.753
4.761
4.768
4.775
4.773
4.771
4.765
4.766
4.762
4.761
4.764
4.768
4.767
4.768
4.764
4.766
4.760
4.763
4.768
4.777
4.781
4.775
4.775
4.779
4.773
4.777
4.776
4.772
4.770
4.763
4.759
4.761
4.765
4.764
4.764
4.768
4.776
4.777
4.776
4.774
4.778
4.775
4.773
4.769
4.770
4.766
4.767
4.766
4.764
4.760
4.757
4.755
4.759
4.766
4.773
4.780
4.789
4.793
4.789
4.786
4.782
4.782
4.779
4.783
4.782
4.779
4.776
4.779
4.778
4.777
4.778
4.775
4.779
4.779
4.779
4.788
4.794
4.801
4.798
4.796
4.794
4.796
4.795
4.793
4.789
4.786
4.786
4.785
4.786
4.785
4.782
4.782
4.782
4.779
4.778
4.783
4.790
4.796
4.800
4.796
4.797
4.794
4.795
4.794
4.795
4.796
4.794
4.794
4.797
4.796
4.794
4.791
4.794
4.790
4.792
4.791
4.790
4.790
4.790
4.797
4.803
4.810
4.817
4.823
4.819
4.820
4.822
4.821
4.817
4.820
4.812
4.810
4.805
4.802
4.801
4.804
4.811
4.810
4.811
4.808
4.803
4.802
4.797
4.801
4.808
4.813
4.819
4.823
4.817
4.812
4.808
4.813
4.814
4.813
4.808
4.802
4.798
4.794
4.789
4.786
4.782
4.780
4.779
4.782
4.789
4.783
4.787
4.793
4.800
4.804
4.811
4.810
4.809
4.812
4.814
4.813
4.816
4.812
4.809
4.804
4.801
4.801
4.798
4.793
4.789
4.793
4.795
4.794
4.792
4.786
4.787
4.783
4.779
4.786
4.790
4.797
4.803
4.810
4.808
4.807
4.811
4.815
4.814
4.815
4.811
4.810
4.806
4.808
4.809
4.807
4.809
4.808
4.806
4.805
4.808
4.805
4.805
4.808
4.808
4.804
4.803
4.799
4.800
4.791
4.798
4.804
4.808
4.815
4.820
4.821
4.822
4.816
4.816
4.816
4.812
4.810
4.814
4.820
4.817
4.820
4.816
4.815
4.816
4.810
4.814
4.815
4.819
4.818
4.816
4.815
4.817
4.813
4.812
4.812
4.814
4.812
4.814
4.807
4.812
4.818
4.823
4.829
4.834
4.838
4.839
4.838
4.839
4.832
4.828
4.827
4.828
4.829
4.825
4.826
4.828
4.831
4.828
4.831
4.831
4.835
4.833
4.834
4.838
4.837
4.834
4.832
4.833
4.837
4.833
4.827
4.822
4.821
4.822
4.824
4.822
4.827
4.833
4.837
4.844
4.843
4.844
4.845
4.847
4.846
4.847
4.848
4.849
4.849
4.847
4.845
4.839
4.834
4.836
4.842
4.838
4.840
4.842
4.840
4.838
4.837
4.833
4.832
4.830
4.826
4.822
4.818
4.814
4.812
4.816
4.815
4.816
4.821
4.827
4.832
4.836
4.840
4.839
4.842
4.842
4.840
4.841
4.840
4.842
4.838
4.839
4.838
4.834
4.834
4.841
4.838
4.841
4.840
4.839
4.838
4.842
4.834
4.833
4.834
4.831
4.831
4.825
4.821
4.823
4.824
4.825
4.829
4.825
4.824
4.827
4.827
4.828
4.826
4.831
4.832
4.833
4.838
4.844
4.848
4.852
4.857
4.860
4.859
4.853
4.851
4.853
4.859
4.863
4.862
4.860
4.857
4.860
4.857
4.853
4.853
4.855
4.851
4.852
4.851
4.853
4.853
4.850
4.849
4.855
4.860
4.864
4.862
4.858
4.854
4.852
4.853
4.855
4.853
4.855
4.851
4.852
4.849
4.850
4.849
4.852
4.846
4.847
4.849
4.852
4.854
4.860
4.864
4.869
4.873
4.877
4.875
4.871
4.867
4.868
4.873
4.872
4.871
4.871
4.867
4.866
4.870
