2.986
3.320
3.505
3.602
3.709
3.760
3.848
3.834
3.893
3.946
3.998
3.970
3.931
3.960
3.985
4.005
4.017
4.034
4.064
4.072
4.097
4.096
4.122
4.128
4.142
4.159
4.174
4.162
4.185
4.199
4.213
4.201
4.212
4.227
4.233
4.251
4.259
4.276
4.249
4.259
4.269
4.272
4.287
4.298
4.305
4.309
4.315
4.335
4.331
4.303
4.318
4.318
4.331
4.333
4.330
4.346
4.354
4.358
4.361
4.362
4.367
4.375
4.380
4.390
4.390
4.402
4.401
4.400
4.407
4.417
4.397
4.382
4.392
4.392
4.398
4.409
4.417
4.398
4.400
4.401
4.408
4.407
4.415
4.426
4.437
4.426
4.436
4.446
4.440
4.444
4.457
4.446
4.454
4.449
4.450
4.449
4.459
4.459
4.470
4.478
4.472
4.480
4.481
4.483
4.488
4.488
4.498
4.494
4.497
4.507
4.509
4.504
4.493
4.510
4.494
4.494
4.498
4.501
4.506
4.519
4.510
4.525
4.531
4.532
4.534
4.528
4.538
4.531
4.542
4.536
4.539
4.525
4.510
4.499
4.509
4.502
4.493
4.517
4.511
4.502
4.530
4.523
4.523
4.535
4.527
4.525
4.537
4.519
4.509
4.521
4.519
4.504
4.510
4.508
4.496
4.518
4.514
4.510
4.513
4.533
4.525
4.523
4.524
4.536
4.527
4.525
4.531
4.539
4.537
4.524
4.532
4.558
4.554
4.548
4.542
4.555
4.566
4.566
4.555
4.546
4.550
4.549
4.552
4.541
4.557
4.558
4.554
4.543
4.550
4.562
4.570
4.568
4.562
4.546
4.560
4.580
4.570
4.569
4.573
4.572
4.576
4.598
4.588
4.584
4.582
4.581
4.583
4.600
4.597
4.599
4.590
4.583
4.586
4.605
4.598
4.585
4.573
4.560
4.577
4.578
4.588
4.576
4.561
4.552
4.562
4.578
4.578
4.570
4.570
4.573
4.566
4.571
4.580
4.594
4.581
4.584
4.574
4.573
4.575
4.571
4.588
4.587
4.578
4.572
4.571
4.565
4.576
4.579
4.586
4.599
4.590
4.595
4.605
4.593
4.593
4.590
4.585
4.592
4.609
4.616
4.615
4.601
4.593
4.591
4.592
4.590
4.587
4.604
4.618
4.616
4.622
4.618
4.619
4.615
4.615
4.612
4.615
4.604
4.620
4.637
4.629
4.629
4.627
4.629
4.629
4.626
4.622
4.615
4.612
4.623
4.629
4.626
4.618
4.612
4.613
4.612
4.608
4.600
4.600
4.597
4.612
4.616
4.620
4.628
4.616
4.621
4.624
4.613
4.618
4.614
4.615
4.615
4.608
4.618
4.632
4.628
4.630
4.621
4.628
4.633
4.630
4.631
4.634
4.633
4.625
4.621
4.613
4.621
4.635
4.649
4.657
4.652
4.652
4.662
4.657
4.654
4.646
4.644
4.641
4.641
4.642
4.639
4.641
4.635
4.648
4.661
4.673
4.668
4.672
4.663
4.660
4.645
4.649
4.650
4.656
4.649
4.644
4.635
4.629
4.628
4.641
4.654
4.660
4.661
4.671
4.658
4.655
4.654
4.659
4.657
4.649
4.650
4.655
4.655
4.657
4.652
4.646
4.638
4.639
4.651
4.663
4.676
4.688
4.695
4.692
4.690
4.687
4.691
4.689
4.684
4.683
4.686
4.683
4.687
4.681
4.682
4.673
4.661
4.660
4.664
4.663
4.673
4.685
4.696
4.696
4.702
4.701
4.707
4.706
4.701
4.689
4.681
4.682
4.681
4.683
4.680
4.674
4.667
4.661
4.654
4.648
4.646
4.657
4.668
4.679
4.690
4.690
4.687
4.682
4.674
4.666
4.658
4.653
4.659
4.665
4.659
4.657
4.653
4.647
4.641
4.637
4.630
4.627
4.632
4.628
4.636
4.646
4.657
4.667
4.677
4.682
4.680
4.672
4.669
4.665
4.668
4.668
4.662
4.666
4.673
4.671
4.665
4.663
4.658
4.652
4.660
4.659
4.662
4.661
4.659
4.656
4.656
4.658
4.649
4.646
4.655
4.665
4.666
4.663
4.664
4.665
4.657
4.655
4.665
4.669
4.665
4.658
4.657
4.652
4.657
4.656
4.663
4.656
4.649
4.650
4.651
4.649
4.646
4.648
4.650
4.645
4.657
4.659
4.655
4.651
4.655
4.649
4.656
4.666
4.675
4.684
4.685
4.685
4.681
4.672
4.663
4.662
4.660
4.670
4.668
4.666
4.665
4.661
4.661
4.668
4.671
4.664
4.665
4.659
4.655
4.647
4.648
4.649
4.644
4.648
4.649
4.645
4.652
4.647
4.644
4.647
4.642
4.644
4.653
4.661
4.670
4.678
4.687
4.687
4.695
4.703
4.697
4.689
4.681
4.680
4.683
4.680
4.670
4.667
4.665
4.669
4.675
4.667
4.663
4.668
4.668
4.675
4.670
4.665
4.661
4.656
4.658
4.665
4.662
4.667
4.669
4.665
4.666
4.666
4.663
4.667
4.665
4.665
4.664
4.664
4.655
4.660
4.668
4.676
4.684
4.692
4.694
4.696
4.699
4.701
4.704
4.696
4.694
4.696
4.693
4.691
4.693
4.699
4.707
4.704
4.710
4.706
4.703
4.705
4.707
4.697
4.692
4.684
4.680
4.686
4.686
4.676
4.678
4.673
4.676
4.686
4.688
4.682
4.678
4.673
4.672
4.670
4.666
4.660
4.663
4.674
4.680
4.688
4.680
4.680
4.678
4.669
4.674
4.681
4.689
4.696
4.703
4.711
4.718
4.725
4.733
4.739
4.731
4.725
4.731
4.734
4.735
4.726
4.726
4.721
4.721
4.723
4.728
4.731
4.734
4.725
4.723
4.722
4.717
4.709
4.710
4.713
4.715
4.721
4.719
4.717
4.727
4.718
4.723
4.722
4.723
4.729
4.725
4.720
4.713
4.706
4.713
4.704
4.696
4.695
4.695
4.698
4.697
4.699
4.694
4.687
4.679
4.684
4.685
4.685
4.679
4.679
4.686
4.693
4.700
4.706
4.713
4.719
4.711
4.715
4.717
4.724
4.722
4.723
4.721
4.719
4.711
4.705
4.710
4.706
4.715
4.714
4.720
4.714
4.714
4.711
4.712
4.709
4.701
4.698
4.700
4.692
4.686
4.682
4.677
4.676
4.675
4.683
4.682
4.681
4.684
4.685
4.678
4.684
4.683
4.683
4.688
4.692
4.693
4.692
4.695
4.688
4.690
4.680
4.674
4.675
4.670
4.673
4.678
4.680
4.676
4.671
4.668
4.676
4.669
4.670
4.664
4.666
4.667
4.668
4.674
4.680
4.686
4.692
4.698
4.704
4.710
4.716
4.722
4.728
4.735
4.740
4.739
4.735
4.734
4.734
4.732
4.732
4.733
4.735
4.736
4.729
4.726
4.723
4.716
4.720
4.717
4.717
4.719
4.720
4.728
4.732
4.736
4.730
4.731
4.725
4.727
4.725
4.720
4.714
4.715
4.723
4.728
4.723
4.723
4.724
4.723
4.721
4.718
4.723
4.723
4.719
4.719
4.721
4.724
4.722
4.725
4.717
4.713
4.718
4.716
4.714
4.716
4.710
4.709
4.707
4.706
4.705
4.706
4.703
4.700
4.697
4.703
4.707
4.711
4.712
4.719
4.716
4.716
4.710
4.706
4.710
4.716
4.712
4.708
4.704
4.700
4.696
4.692
4.694
4.699
4.705
4.710
4.715
4.721
4.727
4.732
4.737
4.743
4.748
4.754
4.755
4.754
4.755
4.752
4.746
4.745
4.744
4.735
4.732
4.728
4.726
4.719
4.712
4.718
4.722
4.719
4.716
4.711
4.709
4.705
4.696
4.701
4.700
4.708
4.705
4.703
4.711
4.711
4.709
4.703
4.698
4.696
4.690
4.699
4.700
4.705
4.703
4.701
4.702
4.697
4.705
4.709
4.701
4.706
4.707
4.707
4.706
4.702
4.700
4.695
4.694
4.695
4.695
4.689
4.683
4.682
4.683
4.678
4.684
4.685
4.687
4.679
4.678
4.680
4.680
4.681
4.670
4.669
4.670
4.672
4.668
4.664
4.664
4.665
4.670
4.665
4.661
4.655
4.660
4.659
4.656
4.658
4.664
4.666
4.669
4.675
4.669
4.664
4.664
4.665
4.668
4.673
4.678
4.683
4.688
4.693
4.698
4.702
4.707
4.712
4.717
4.722
4.727
4.732
4.736
4.741
4.746
4.751
4.756
4.761
4.766
4.770
4.762
4.763
4.764
4.765
4.766
4.771
4.765
4.767
4.774
4.772
4.765
4.764
4.761
4.760
4.756
4.755
4.757
4.753
4.747
4.742
4.743
4.743
