2.989
3.323
3.494
3.631
3.710
3.778
3.813
3.885
3.871
3.924
3.968
4.009
4.043
4.079
4.022
4.014
4.032
4.050
4.066
4.078
4.091
4.112
4.118
4.135
4.145
4.160
4.174
4.178
4.190
4.207
4.204
4.217
4.230
4.242
4.233
4.242
4.260
4.264
4.275
4.285
4.279
4.284
4.294
4.296
4.312
4.321
4.321
4.340
4.337
4.321
4.330
4.336
4.343
4.345
4.354
4.361
4.369
4.375
4.375
4.383
4.396
4.405
4.396
4.368
4.378
4.388
4.386
4.401
4.401
4.400
4.404
4.412
4.417
4.418
4.426
4.433
4.426
4.435
4.431
4.439
4.455
4.450
4.450
4.458
4.470
4.478
4.467
4.470
4.467
4.474
4.462
4.444
4.444
4.452
4.457
4.460
4.461
4.469
4.476
4.487
4.463
4.473
4.471
4.472
4.473
4.476
4.490
4.489
4.489
4.502
4.495
4.495
4.496
4.509
4.506
4.512
4.520
4.512
4.504
4.511
4.511
4.505
4.521
4.508
4.517
4.518
4.527
4.529
4.535
4.538
4.541
4.546
4.539
4.544
4.543
4.554
4.545
4.556
4.561
4.557
4.566
4.556
4.568
4.564
4.568
4.556
4.568
4.565
4.568
4.558
4.558
4.570
4.559
4.576
4.576
4.572
4.585
4.582
4.575
4.591
4.595
4.585
4.598
4.597
4.592
4.606
4.601
4.597
4.594
4.583
4.572
4.560
4.563
4.563
4.560
4.568
4.565
4.563
4.561
4.578
4.567
4.570
4.577
4.586
4.590
4.587
4.590
4.589
4.592
4.582
4.594
4.580
4.569
4.577
4.578
4.573
4.575
4.581
4.574
4.563
4.565
4.577
4.577
4.570
4.572
4.574
4.590
4.593
4.586
4.583
4.586
4.597
4.598
4.595
4.582
4.594
4.601
4.596
4.595
4.587
4.597
4.603
4.598
4.599
4.596
4.604
4.616
4.619
4.617
4.617
4.608
4.610
4.622
4.610
4.605
4.603
4.598
4.617
4.616
4.610
4.603
4.599
4.601
4.620
4.620
4.617
4.620
4.618
4.615
4.617
4.635
4.632
4.620
4.617
4.622
4.620
4.627
4.641
4.641
4.639
4.636
4.635
4.640
4.636
4.647
4.649
4.645
4.648
4.654
4.647
4.636
4.643
4.660
4.662
4.660
4.655
4.649
4.650
4.651
4.650
4.642
4.632
4.622
4.624
4.621
4.629
4.632
4.645
4.643
4.631
4.627
4.620
4.617
4.615
4.624
4.634
4.642
4.635
4.636
4.628
4.625
4.629
4.635
4.629
4.640
4.654
4.646
4.645
4.643
4.639
4.630
4.629
4.633
4.631
4.645
4.653
4.643
4.636
4.631
4.631
4.630
4.629
4.630
4.630
4.642
4.656
4.655
4.657
4.650
4.648
4.647
4.650
4.653
4.653
4.652
4.647
4.657
4.665
4.668
4.662
4.670
4.665
4.662
4.661
4.647
4.635
4.646
4.648
4.661
4.674
4.676
4.673
4.671
4.674
4.663
4.673
4.671
4.670
4.673
4.662
4.668
4.667
4.680
4.690
4.697
4.695
4.687
4.684
4.683
4.675
4.675
4.681
4.674
4.670
4.676
4.676
4.685
4.694
4.694
4.687
4.678
4.669
4.666
4.665
4.666
4.664
4.665
4.666
4.660
4.666
4.678
4.682
4.680
4.671
4.664
4.671
4.662
4.669
4.668
4.665
4.665
4.659
4.665
4.666
4.666
4.670
4.681
4.693
4.692
4.681
4.683
4.686
4.687
4.681
4.678
4.669
4.665
4.668
4.677
4.681
4.676
4.671
4.670
4.681
4.692
4.703
4.706
4.699
4.698
4.696
4.700
4.697
4.701
4.699
4.691
4.690
4.689
4.690
4.690
4.693
4.695
4.695
4.702
4.697
4.707
4.717
4.725
4.722
4.726
4.729
4.718
4.720
4.712
4.707
4.710
4.715
4.713
4.713
4.702
4.703
4.699
4.696
4.692
4.693
4.704
4.714
4.715
4.718
4.711
4.711
4.717
4.710
4.708
4.704
4.703
4.706
4.702
4.704
4.694
4.693
4.702
4.705
4.702
4.701
4.695
4.691
4.701
4.711
4.720
4.730
4.735
4.731
4.729
4.732
4.730
4.729
4.731
4.728
4.722
4.723
4.727
4.728
4.730
4.734
4.732
4.726
4.719
4.711
4.715
4.717
4.716
4.722
4.726
4.728
4.735
4.743
4.752
4.756
4.755
4.754
4.750
4.747
4.737
4.735
4.741
4.740
4.743
4.740
4.742
4.742
4.741
4.736
4.739
4.730
4.728
4.733
4.736
4.739
4.732
4.733
4.731
4.732
4.730
4.724
4.725
4.725
4.728
4.729
4.728
4.722
4.719
4.717
4.720
4.717
4.717
4.717
4.717
4.718
4.717
4.709
4.711
4.714
4.720
4.716
4.712
4.706
4.700
4.697
4.705
4.713
4.721
4.729
4.736
4.738
4.733
4.725
4.715
4.713
4.716
4.709
4.707
4.716
4.726
4.724
4.716
4.706
4.702
4.703
4.701
4.701
4.697
4.695
4.695
4.693
4.689
4.692
4.699
4.700
4.693
4.687
4.695
4.703
4.708
4.716
4.723
4.731
4.739
4.738
4.736
4.735
4.735
4.731
4.737
4.733
4.729
4.732
4.735
4.733
4.726
4.720
4.713
4.706
4.705
4.701
4.704
4.709
4.706
4.704
4.702
4.695
4.693
4.694
4.694
4.687
4.689
4.685
4.688
4.687
4.694
4.702
4.709
4.716
4.723
4.731
4.731
4.734
4.726
4.728
4.727
4.728
4.731
4.738
4.737
4.734
4.739
4.738
4.734
4.740
4.734
4.739
4.739
4.730
4.730
4.726
4.723
4.718
4.715
4.715
4.709
4.704
4.699
4.700
4.708
4.705
4.709
4.712
4.708
4.712
4.707
4.700
4.693
4.696
4.703
4.710
4.716
4.723
4.730
4.737
4.739
4.738
4.734
4.737
4.738
4.737
4.733
4.733
4.734
4.737
4.732
4.725
4.722
4.719
4.721
4.718
4.726
4.728
4.725
4.728
4.732
4.729
4.724
4.721
4.721
4.722
4.727
4.729
4.722
4.717
4.719
4.719
4.719
4.724
4.723
4.723
4.718
4.708
4.711
4.709
4.702
4.701
4.701
4.703
4.710
4.716
4.722
4.729
4.735
4.742
4.748
4.752
4.751
4.752
4.755
4.751
4.754
4.753
4.755
4.755
4.749
4.744
4.744
4.740
4.745
4.744
4.737
4.732
4.732
4.734
4.736
4.737
4.739
4.738
4.739
4.735
4.734
4.725
4.727
4.723
4.723
4.731
4.738
4.734
4.740
4.736
4.737
4.728
4.725
4.722
4.716
4.714
4.712
4.716
4.720
4.717
4.711
4.710
4.710
4.709
4.710
4.712
4.718
4.724
4.730
4.736
4.742
4.748
4.754
4.760
4.766
4.766
4.765
4.763
4.760
4.765
4.771
4.771
4.764
4.761
4.763
4.762
4.767
4.770
4.770
4.766
4.764
4.765
4.761
4.753
4.748
4.750
4.755
4.751
4.754
4.749
4.752
4.745
4.744
4.742
4.737
4.735
4.736
4.738
4.745
4.748
4.755
4.750
4.755
4.752
4.750
4.746
4.749
4.748
4.742
4.743
4.738
4.734
4.733
4.737
4.745
4.749
4.751
4.747
4.742
4.737
4.739
4.740
4.737
4.742
4.739
4.739
4.739
4.745
4.751
4.756
4.762
4.767
4.772
4.778
4.783
4.789
4.794
4.800
4.805
4.798
4.792
4.794
4.790
4.795
4.796
4.796
4.795
4.796
4.797
4.793
4.792
4.791
4.793
4.790
4.785
4.785
4.779
4.774
4.769
4.765
4.761
4.763
4.769
4.776
4.783
4.783
4.780
4.773
4.774
4.769
4.767
4.774
4.778
4.776
4.770
4.764
4.757
4.760
4.759
4.758
4.755
4.757
4.752
4.751
4.751
4.751
4.753
4.751
4.746
4.742
4.737
4.733
4.734
4.733
4.733
4.730
4.726
4.726
4.721
4.717
4.717
4.722
4.727
4.732
4.737
4.742
4.747
4.752
4.757
4.762
4.767
4.772
4.777
4.780
4.783
4.782
4.781
4.779
4.780
4.776
4.773
4.770
4.775
4.774
4.772
4.771
4.773
4.774
4.770
4.771
4.767
4.769
4.764
4.761
4.759
4.760
4.758
4.761
4.759
4.758
4.757
4.758
4.751
4.753
4.751
4.752
4.745
4.746
4.750
4.748
4.746
4.752
4.746
4.740
4.739
4.742
4.744
4.740
4.740
4.748
4.746
4.748
4.748
4.742
4.743
4.749
