2.992
3.335
3.508
3.615
3.707
3.787
3.835
3.855
3.922
3.974
3.948
3.985
4.025
4.055
4.087
4.121
4.136
4.080
4.068
4.083
4.095
4.116
4.128
4.135
4.156
4.162
4.180
4.179
4.196
4.214
4.211
4.226
4.240
4.236
4.246
4.256
4.268
4.266
4.273
4.288
4.295
4.303
4.290
4.300
4.310
4.319
4.325
4.333
4.342
4.340
4.342
4.340
4.351
4.359
4.359
4.370
4.375
4.379
4.386
4.399
4.380
4.374
4.386
4.388
4.396
4.401
4.405
4.404
4.414
4.423
4.429
4.426
4.425
4.439
4.446
4.451
4.455
4.451
4.429
4.428
4.441
4.436
4.451
4.447
4.457
4.459
4.454
4.459
4.462
4.462
4.474
4.477
4.474
4.483
4.493
4.483
4.485
4.488
4.496
4.500
4.506
4.510
4.514
4.513
4.522
4.521
4.528
4.522
4.523
4.525
4.525
4.529
4.510
4.499
4.503
4.502
4.510
4.518
4.515
4.511
4.512
4.521
4.529
4.524
4.534
4.527
4.523
4.527
4.517
4.527
4.533
4.530
4.534
4.538
4.542
4.548
4.544
4.557
4.553
4.543
4.551
4.551
4.561
4.559
4.564
4.568
4.569
4.570
4.553
4.566
4.559
4.562
4.561
4.566
4.569
4.570
4.566
4.573
4.577
4.584
4.581
4.590
4.591
4.587
4.592
4.588
4.596
4.584
4.600
4.601
4.594
4.607
4.599
4.609
4.616
4.609
4.618
4.617
4.611
4.628
4.621
4.610
4.611
4.607
4.622
4.620
4.610
4.614
4.611
4.614
4.619
4.615
4.618
4.625
4.627
4.625
4.640
4.631
4.632
4.637
4.643
4.639
4.643
4.645
4.646
4.645
4.649
4.655
4.648
4.645
4.636
4.628
4.619
4.609
4.602
4.612
4.618
4.617
4.610
4.617
4.624
4.623
4.611
4.620
4.629
4.620
4.619
4.620
4.627
4.629
4.625
4.626
4.636
4.647
4.641
4.639
4.632
4.647
4.646
4.634
4.624
4.636
4.635
4.623
4.614
4.626
4.633
4.620
4.614
4.617
4.627
4.626
4.624
4.618
4.616
4.625
4.635
4.629
4.627
4.623
4.625
4.639
4.652
4.642
4.638
4.633
4.630
4.647
4.657
4.645
4.638
4.637
4.635
4.651
4.654
4.651
4.646
4.637
4.644
4.651
4.655
4.653
4.652
4.656
4.652
4.658
4.665
4.672
4.670
4.666
4.668
4.667
4.665
4.661
4.662
4.664
4.655
4.655
4.652
4.658
4.671
4.664
4.659
4.653
4.659
4.651
4.654
4.667
4.676
4.673
4.670
4.664
4.668
4.669
4.671
4.675
4.685
4.681
4.673
4.670
4.668
4.666
4.671
4.675
4.688
4.692
4.685
4.683
4.692
4.689
4.684
4.685
4.688
4.697
4.707
4.702
4.696
4.696
4.695
4.700
4.696
4.696
4.699
4.707
4.703
4.707
4.710
4.707
4.695
4.692
4.696
4.692
4.685
4.683
4.681
4.678
4.673
4.667
4.674
4.673
4.684
4.692
4.693
4.686
4.677
4.669
4.662
4.667
4.670
4.669
4.679
4.688
4.679
4.685
4.682
4.681
4.679
4.675
4.681
4.672
4.670
4.681
4.693
4.703
4.703
4.702
4.698
4.689
4.685
4.686
4.682
4.680
4.677
4.686
4.696
4.702
4.703
4.705
4.696
4.688
4.684
4.680
4.677
4.678
4.671
4.681
4.692
4.702
4.704
4.708
4.701
4.694
4.699
4.697
4.695
4.691
4.688
4.692
4.685
4.691
4.701
4.711
4.722
4.722
4.720
4.710
4.710
4.703
4.699
4.708
4.704
4.705
4.703
4.696
4.701
4.710
4.717
4.716
4.715
4.713
4.718
4.714
4.714
4.713
4.709
4.710
4.704
4.710
4.710
4.711
4.714
4.721
4.729
4.738
4.739
4.738
4.736
4.733
4.733
4.732
4.733
4.732
4.729
4.725
4.723
4.721
4.720
4.718
4.728
4.736
4.747
4.749
4.742
4.735
4.733
4.729
4.726
4.727
4.726
4.721
4.714
4.708
4.706
4.703
4.714
4.722
4.731
4.735
4.731
4.732
4.731
4.725
4.726
4.727
4.718
4.710
4.709
4.707
4.707
4.703
4.703
4.703
4.707
4.716
4.725
4.733
4.734
4.730
4.728
4.733
4.734
4.733
4.733
4.732
4.736
4.733
4.734
4.729
4.723
4.713
4.710
4.711
4.712
4.714
4.723
4.730
4.737
4.746
4.745
4.741
4.744
4.744
4.744
4.744
4.742
4.738
4.737
4.740
4.737
4.741
4.744
4.736
4.733
4.730
4.725
4.725
4.728
4.732
4.740
4.748
4.756
4.754
4.762
4.765
4.758
4.759
4.766
4.768
4.766
4.765
4.764
4.760
4.755
4.752
4.753
4.748
4.747
4.751
4.745
4.749
4.756
4.752
4.745
4.749
4.758
4.763
4.772
4.771
4.775
4.773
4.766
4.768
4.764
4.765
4.758
4.757
4.762
4.757
4.755
4.749
4.744
4.746
4.744
4.738
4.737
4.732
4.728
4.732
4.739
4.748
4.755
4.762
4.769
4.773
4.770
4.771
4.767
4.765
4.766
4.757
4.761
4.763
4.761
4.757
4.761
4.759
4.755
4.752
4.751
4.759
4.759
4.762
4.759
4.759
4.753
4.755
4.751
4.751
4.756
4.757
4.764
4.771
4.778
4.785
4.792
4.788
4.791
4.795
4.794
4.792
4.788
4.790
4.786
4.785
4.788
4.788
4.788
4.788
4.791
4.792
4.791
4.790
4.788
4.790
4.785
4.785
4.778
4.768
4.772
4.773
4.777
4.777
4.770
4.774
4.781
4.788
4.794
4.801
4.808
4.804
4.796
4.796
4.796
4.792
4.794
4.798
4.794
4.790
4.786
4.782
4.778
4.774
4.770
4.766
4.762
4.759
4.755
4.751
4.747
4.743
4.744
4.741
4.740
4.740
4.747
4.754
4.761
4.765
4.772
4.779
4.777
4.779
4.783
4.785
4.789
4.785
4.781
4.776
4.770
4.766
4.762
4.757
4.753
4.754
4.751
4.748
4.751
4.746
4.745
4.744
4.745
4.748
4.750
4.751
4.751
4.752
4.750
4.752
4.753
4.751
4.750
4.746
4.742
4.748
4.755
4.762
4.766
4.773
4.775
4.768
4.769
4.765
4.759
4.760
4.759
4.760
4.761
4.759
4.764
4.768
4.772
4.773
4.767
4.766
4.769
4.763
4.759
4.760
4.759
4.759
4.759
4.763
4.759
4.757
4.756
4.749
4.753
4.755
4.756
4.760
4.759
4.754
4.750
4.748
4.751
4.759
4.759
4.754
4.758
4.765
4.770
4.776
4.778
4.777
4.778
4.776
4.772
4.776
4.770
4.765
4.764
4.765
4.769
4.773
4.767
4.760
4.753
4.751
4.748
4.748
4.750
4.749
4.745
4.752
4.758
4.760
4.755
4.755
4.755
4.752
4.756
4.754
4.750
4.749
4.742
4.741
4.739
4.740
4.742
4.743
4.740
4.741
4.740
4.743
4.747
4.748
4.753
4.760
4.766
4.771
4.775
4.781
4.786
4.792
4.796
4.795
4.791
4.788
4.786
4.793
4.792
4.788
4.783
4.776
4.775
4.774
4.780
4.779
4.781
4.774
4.775
4.773
4.775
4.770
4.767
4.763
4.759
4.754
4.750
4.746
4.742
4.743
4.740
4.741
4.747
4.746
4.745
4.749
4.755
4.757
4.759
4.762
4.759
4.757
4.759
4.757
4.753
4.748
4.747
4.744
4.747
4.752
4.758
4.763
4.767
4.773
4.778
4.782
4.788
4.785
4.786
4.790
4.788
4.785
4.781
4.785
4.785
4.788
4.788
4.787
4.785
4.782
4.783
4.785
4.783
4.782
4.783
4.781
4.785
4.782
4.786
4.785
4.786
4.782
4.780
4.781
4.778
4.781
4.778
4.777
4.772
4.770
4.770
4.765
4.761
4.760
4.762
4.760
4.758
4.755
4.758
4.757
4.755
4.754
4.747
4.741
4.742
4.743
4.739
4.741
4.739
4.740
4.747
4.751
4.756
4.757
4.761
4.766
4.772
4.776
4.781
4.785
4.789
4.795
4.800
4.804
4.805
4.803
4.802
4.801
4.800
4.806
4.802
4.799
4.799
4.798
4.797
4.798
4.796
4.793
4.791
4.792
4.788
4.790
4.791
4.795
4.796
4.798
4.799
4.796
4.794
4.788
4.781
4.776
4.772
4.768
4.766
4.762
4.764
4.770
4.773
4.774
4.780
4.779
4.780
4.781
4.780
4.777
4.777
4.779
