2.991
3.327
3.504
3.617
3.696
3.766
3.816
3.876
3.940
3.914
3.959
3.998
4.038
4.072
4.101
4.043
4.030
4.050
4.066
4.079
4.094
4.114
4.126
4.146
4.146
4.164
4.167
4.182
4.200
4.204
4.214
4.226
4.220
4.231
4.244
4.256
4.268
4.261
4.269
4.281
4.288
4.301
4.307
4.297
4.301
4.311
4.321
4.324
4.335
4.342
4.348
4.361
4.351
4.338
4.345
4.355
4.367
4.366
4.370
4.380
4.386
4.391
4.394
4.399
4.408
4.410
4.419
4.416
4.390
4.396
4.403
4.416
4.414
4.418
4.419
4.423
4.424
4.434
4.436
4.442
4.444
4.451
4.457
4.451
4.457
4.459
4.463
4.467
4.474
4.476
4.483
4.487
4.493
4.484
4.490
4.489
4.494
4.486
4.468
4.461
4.471
4.478
4.477
4.486
4.485
4.490
4.488
4.495
4.488
4.484
4.490
4.490
4.491
4.497
4.498
4.508
4.502
4.509
4.523
4.517
4.507
4.522
4.516
4.525
4.534
4.530
4.540
4.533
4.521
4.533
4.526
4.527
4.535
4.536
4.540
4.531
4.548
4.542
4.554
4.552
4.557
4.560
4.565
4.560
4.561
4.557
4.568
4.569
4.567
4.577
4.575
4.580
4.578
4.585
4.589
4.580
4.587
4.571
4.590
4.582
4.584
4.582
4.573
4.579
4.583
4.585
4.587
4.585
4.595
4.601
4.594
4.602
4.606
4.605
4.609
4.612
4.606
4.610
4.624
4.615
4.614
4.618
4.608
4.599
4.589
4.579
4.581
4.579
4.575
4.590
4.590
4.583
4.583
4.590
4.589
4.582
4.594
4.596
4.598
4.593
4.601
4.610
4.608
4.602
4.606
4.615
4.611
4.599
4.603
4.599
4.587
4.582
4.601
4.591
4.586
4.583
4.595
4.594
4.589
4.579
4.587
4.602
4.600
4.594
4.597
4.596
4.613
4.609
4.605
4.604
4.600
4.615
4.609
4.612
4.598
4.598
4.614
4.623
4.611
4.613
4.614
4.609
4.627
4.632
4.628
4.627
4.624
4.623
4.635
4.643
4.639
4.640
4.633
4.623
4.635
4.629
4.630
4.626
4.627
4.623
4.627
4.635
4.631
4.627
4.627
4.629
4.628
4.645
4.646
4.645
4.649
4.645
4.636
4.635
4.649
4.650
4.646
4.643
4.649
4.646
4.641
4.648
4.663
4.665
4.666
4.668
4.664
4.659
4.661
4.656
4.671
4.678
4.674
4.673
4.664
4.657
4.653
4.664
4.674
4.675
4.675
4.679
4.672
4.664
4.655
4.651
4.650
4.654
4.655
4.651
4.652
4.651
4.644
4.643
4.649
4.648
4.644
4.645
4.649
4.642
4.638
4.637
4.636
4.650
4.661
4.657
4.658
4.656
4.655
4.656
4.657
4.657
4.652
4.653
4.664
4.664
4.664
4.661
4.657
4.654
4.653
4.659
4.657
4.657
4.658
4.659
4.663
4.656
4.653
4.657
4.658
4.659
4.657
4.656
4.653
4.656
4.668
4.679
4.682
4.678
4.682
4.678
4.671
4.675
4.675
4.676
4.671
4.662
4.669
4.681
4.691
4.692
4.688
4.678
4.672
4.673
4.672
4.665
4.663
4.668
4.671
4.672
4.685
4.695
4.699
4.694
4.696
4.690
4.691
4.700
4.699
4.690
4.696
4.689
4.687
4.689
4.687
4.697
4.709
4.717
4.707
4.701
4.699
4.703
4.701
4.698
4.701
4.701
4.696
4.687
4.685
4.689
4.699
4.692
4.688
4.690
4.693
4.698
4.694
4.694
4.690
4.687
4.680
4.676
4.677
4.684
4.679
4.689
4.696
4.695
4.691
4.681
4.691
4.692
4.688
4.690
4.693
4.689
4.690
4.689
4.690
4.687
4.688
4.687
4.688
4.697
4.707
4.708
4.710
4.706
4.705
4.700
4.699
4.701
4.694
4.689
4.691
4.694
4.702
4.706
4.701
4.700
4.701
4.700
4.702
4.711
4.721
4.717
4.718
4.722
4.723
4.720
4.718
4.719
4.721
4.722
4.716
4.716
4.716
4.716
4.718
4.720
4.721
4.714
4.715
4.709
4.718
4.727
4.735
4.746
4.745
4.736
4.737
4.733
4.737
4.733
4.737
4.730
4.729
4.724
4.729
4.724
4.721
4.722
4.715
4.711
4.712
4.709
4.716
4.724
4.729
4.736
4.738
4.738
4.735
4.731
4.724
4.728
4.726
4.727
4.724
4.720
4.723
4.722
4.716
4.717
4.720
4.725
4.723
4.717
4.718
4.713
4.713
4.722
4.731
4.738
4.746
4.753
4.756
4.753
4.748
4.750
4.746
4.747
4.751
4.749
4.748
4.752
4.754
4.752
4.750
4.749
4.748
4.742
4.740
4.735
4.737
4.742
4.742
4.739
4.751
4.752
4.754
4.749
4.757
4.763
4.772
4.766
4.772
4.772
4.770
4.763
4.757
4.760
4.765
4.761
4.757
4.757
4.759
4.766
4.765
4.760
4.761
4.758
4.754
4.758
4.754
4.750
4.745
4.741
4.735
4.733
4.740
4.742
4.743
4.742
4.748
4.746
4.750
4.749
4.745
4.744
4.740
4.741
4.743
4.744
4.740
4.738
4.734
4.739
4.742
4.738
4.732
4.727
4.721
4.716
4.710
4.708
4.716
4.714
4.707
4.711
4.718
4.727
4.734
4.739
4.745
4.747
4.746
4.741
4.740
4.735
4.731
4.733
4.731
4.727
4.731
4.733
4.737
4.735
4.732
4.730
4.723
4.717
4.720
4.722
4.720
4.722
4.720
4.717
4.715
4.714
4.712
4.719
4.721
4.719
4.713
4.713
4.721
4.728
4.727
4.735
4.740
4.747
4.754
4.758
4.762
4.760
4.756
4.753
4.753
4.747
4.742
4.738
4.740
4.742
4.738
4.731
4.724
4.720
4.718
4.720
4.718
4.720
4.721
4.719
4.718
4.720
4.713
4.714
4.712
4.714
4.718
4.709
4.709
4.709
4.709
4.708
4.709
4.711
4.718
4.724
4.729
4.736
4.743
4.749
4.756
4.752
4.750
4.755
4.751
4.753
4.753
4.760
4.757
4.761
4.759
4.761
4.756
4.753
4.750
4.753
4.757
4.750
4.745
4.739
4.734
4.727
4.729
4.724
4.723
4.727
4.729
4.725
4.723
4.720
4.723
4.722
4.720
4.714
4.715
4.717
4.715
4.717
4.715
4.713
4.712
4.719
4.724
4.731
4.737
4.742
4.748
4.755
4.761
4.758
4.753
4.753
4.753
4.752
4.750
4.747
4.753
4.753
4.751
4.749
4.745
4.742
4.742
4.741
4.740
4.746
4.751
4.747
4.753
4.757
4.754
4.750
4.750
4.746
4.742
4.744
4.740
4.735
4.734
4.736
4.737
4.744
4.742
4.739
4.740
4.735
4.734
4.731
4.732
4.725
4.718
4.713
4.709
4.709
4.715
4.720
4.726
4.733
4.738
4.744
4.748
4.753
4.761
4.766
4.772
4.777
4.779
4.777
4.776
4.772
4.770
4.772
4.770
4.768
4.765
4.755
4.761
4.763
4.761
4.757
4.754
4.752
4.753
4.757
4.761
4.757
4.756
4.758
4.756
4.749
4.753
4.749
4.748
4.752
4.745
4.742
4.750
4.750
4.751
4.746
4.742
4.738
4.734
4.731
4.731
4.735
4.737
4.741
4.740
4.742
4.745
4.744
4.742
4.739
4.737
4.735
4.735
4.730
4.726
4.731
4.737
4.742
4.748
4.753
4.757
4.763
4.768
4.774
4.779
4.785
4.783
4.783
4.781
4.783
4.784
4.780
4.775
4.779
4.781
4.782
4.783
4.785
4.781
4.780
4.776
4.783
4.781
4.782
4.778
4.777
4.773
4.774
4.764
4.766
4.765
4.766
4.772
4.768
4.765
4.769
4.767
4.763
4.762
4.763
4.762
4.769
4.775
4.774
4.770
4.771
4.767
4.768
4.764
4.766
4.764
4.761
4.757
4.758
4.757
4.760
4.756
4.760
4.761
4.764
4.767
4.766
4.759
4.760
4.757
4.755
4.754
4.755
4.759
4.760
4.762
4.763
4.759
4.760
4.765
4.771
4.776
4.780
4.786
4.791
4.794
4.799
4.805
4.809
4.814
4.818
4.814
4.818
4.814
4.815
4.820
4.816
4.814
4.816
4.814
4.812
4.806
4.802
4.801
4.796
4.792
4.790
4.786
4.783
4.784
4.787
4.787
4.791
4.789
4.790
4.789
4.788
4.790
4.790
4.786
4.783
4.786
4.787
4.787
4.790
4.789
4.791
4.786
4.783
4.779
4.782
4.783
4.783
4.779
4.775
