2.994
3.319
3.510
3.601
3.669
3.786
3.779
3.857
3.908
3.974
3.884
3.899
3.932
3.957
3.981
4.004
4.014
4.043
4.046
4.078
4.080
4.097
4.123
4.116
4.137
4.158
4.169
4.157
4.180
4.183
4.196
4.217
4.225
4.206
4.222
4.228
4.242
4.259
4.257
4.274
4.289
4.282
4.264
4.278
4.282
4.283
4.285
4.300
4.312
4.321
4.326
4.321
4.329
4.340
4.349
4.354
4.367
4.357
4.366
4.376
4.352
4.344
4.350
4.356
4.367
4.363
4.368
4.353
4.368
4.379
4.378
4.391
4.372
4.390
4.398
4.413
4.412
4.412
4.407
4.412
4.412
4.404
4.417
4.430
4.435
4.429
4.439
4.443
4.439
4.444
4.455
4.450
4.464
4.474
4.473
4.454
4.465
4.448
4.456
4.455
4.474
4.468
4.476
4.476
4.488
4.482
4.502
4.491
4.508
4.490
4.512
4.502
4.485
4.473
4.462
4.465
4.468
4.456
4.483
4.483
4.475
4.494
4.484
4.493
4.500
4.478
4.472
4.474
4.474
4.467
4.455
4.474
4.474
4.471
4.486
4.480
4.482
4.482
4.497
4.479
4.478
4.494
4.502
4.484
4.492
4.520
4.512
4.506
4.504
4.525
4.521
4.514
4.510
4.516
4.518
4.500
4.511
4.517
4.518
4.514
4.517
4.533
4.530
4.513
4.518
4.522
4.534
4.544
4.542
4.536
4.535
4.552
4.556
4.550
4.547
4.547
4.557
4.566
4.552
4.562
4.540
4.550
4.557
4.542
4.532
4.522
4.536
4.543
4.525
4.522
4.513
4.515
4.538
4.551
4.541
4.544
4.540
4.537
4.531
4.546
4.543
4.552
4.543
4.540
4.535
4.538
4.549
4.553
4.549
4.545
4.533
4.535
4.534
4.555
4.574
4.573
4.563
4.560
4.555
4.553
4.554
4.561
4.562
4.571
4.567
4.565
4.561
4.559
4.562
4.560
4.575
4.594
4.602
4.582
4.585
4.587
4.577
4.579
4.568
4.575
4.594
4.608
4.593
4.588
4.586
4.592
4.586
4.572
4.564
4.581
4.593
4.586
4.571
4.567
4.560
4.557
4.557
4.559
4.569
4.572
4.589
4.600
4.590
4.582
4.581
4.584
4.577
4.571
4.568
4.575
4.567
4.582
4.598
4.615
4.604
4.598
4.603
4.605
4.590
4.594
4.596
4.599
4.602
4.604
4.592
4.606
4.622
4.625
4.626
4.634
4.633
4.624
4.623
4.614
4.612
4.602
4.599
4.600
4.604
4.610
4.622
4.617
4.617
4.610
4.608
4.611
4.614
4.613
4.607
4.605
4.602
4.595
4.594
4.594
4.609
4.623
4.638
4.640
4.645
4.641
4.641
4.645
4.645
4.631
4.625
4.635
4.638
4.642
4.641
4.639
4.633
4.629
4.631
4.641
4.655
4.662
4.654
4.659
4.662
4.657
4.659
4.651
4.649
4.652
4.651
4.643
4.646
4.639
4.634
4.635
4.634
4.634
4.645
4.642
4.643
4.635
4.635
4.630
4.634
4.624
4.634
4.644
4.647
4.640
4.630
4.621
4.611
4.602
4.595
4.602
4.609
4.621
4.633
4.635
4.630
4.637
4.625
4.615
4.616
4.619
4.614
4.622
4.618
4.621
4.613
4.604
4.618
4.620
4.620
4.620
4.618
4.614
4.609
4.605
4.617
4.628
4.640
4.649
4.638
4.628
4.621
4.618
4.618
4.616
4.621
4.616
4.605
4.616
4.615
4.614
4.611
4.601
4.592
4.592
4.593
4.595
4.599
4.611
4.610
4.611
4.613
4.622
4.633
4.644
4.655
4.658
4.646
4.640
4.635
4.628
4.632
4.633
4.634
4.633
4.629
4.622
4.616
4.619
4.614
4.620
4.624
4.614
4.611
4.614
4.606
4.606
4.600
4.606
4.599
4.599
4.609
4.619
4.629
4.639
4.650
4.656
4.655
4.664
4.664
4.657
4.656
4.653
4.648
4.654
4.647
4.639
4.636
4.639
4.628
4.623
4.619
4.613
4.613
4.617
4.614
4.622
4.625
4.629
4.625
4.623
4.623
4.616
4.613
4.618
4.612
4.613
4.620
4.629
4.639
4.648
4.657
4.667
4.668
4.664
4.661
4.657
4.654
4.643
4.651
4.644
4.652
4.665
4.670
4.664
4.653
4.653
4.649
4.643
4.640
4.640
4.636
4.644
4.651
4.650
4.649
4.642
4.636
4.638
4.632
4.633
4.630
4.633
4.630
4.633
4.636
4.635
4.637
4.624
4.630
4.639
4.648
4.657
4.665
4.674
4.683
4.691
4.690
4.696
4.693
4.689
4.696
4.690
4.687
4.685
4.685
4.682
4.682
4.678
4.683
4.673
4.671
4.667
4.661
4.662
4.672
4.675
4.684
4.679
4.676
4.677
4.674
4.677
4.683
4.684
4.679
4.675
4.673
4.676
4.674
4.666
4.662
4.659
4.660
4.663
4.664
4.663
4.654
4.655
4.654
4.657
4.660
4.668
4.676
4.684
4.692
4.700
4.704
4.705
4.698
4.693
4.690
4.692
4.682
4.672
4.666
4.671
4.670
4.674
4.672
4.663
4.658
4.654
4.654
4.654
4.656
4.655
4.649
4.649
4.644
4.647
4.650
4.653
4.644
4.637
4.636
4.630
4.639
4.637
4.644
4.655
4.653
4.652
4.650
4.644
4.647
4.648
4.638
4.642
4.637
4.636
4.631
4.624
4.616
4.621
4.628
4.636
4.643
4.650
4.657
4.665
4.672
4.679
4.687
4.692
4.699
4.698
4.697
4.700
4.697
4.695
4.694
4.689
4.694
4.692
4.695
4.684
4.678
4.673
4.677
4.675
4.676
4.685
4.687
4.687
4.684
4.682
4.684
4.686
4.686
4.685
4.679
4.681
4.686
4.680
4.671
4.680
4.673
4.672
4.679
4.678
4.675
4.683
4.681
4.681
4.676
4.667
4.674
4.669
4.663
4.661
4.658
4.663
4.661
4.656
4.657
4.659
4.658
4.660
4.664
4.667
4.673
4.662
4.661
4.664
4.673
4.681
4.682
4.677
4.678
4.673
4.673
4.673
4.675
4.682
4.689
4.695
4.701
4.708
4.715
4.721
4.726
4.722
4.727
4.724
4.724
4.715
4.709
4.712
4.708
4.700
4.693
4.694
4.685
4.689
4.691
4.688
4.687
4.678
4.678
4.677
4.678
4.673
4.663
4.668
4.665
4.666
4.658
4.654
4.655
4.661
4.665
4.660
4.662
4.661
4.668
4.663
4.667
4.659
4.665
4.665
4.663
4.662
4.656
4.650
4.652
4.653
4.658
4.657
4.659
4.658
4.653
4.657
4.662
4.656
4.653
4.654
4.648
4.641
4.634
4.627
4.622
4.617
4.620
4.620
4.620
4.614
4.607
4.612
4.613
4.621
4.621
4.620
4.622
4.626
4.632
4.638
4.644
4.650
4.656
4.661
4.667
4.673
4.679
4.685
4.690
4.696
4.702
4.708
4.714
4.715
4.724
4.725
4.719
4.723
4.722
4.714
4.712
4.718
4.715
4.723
4.731
4.739
4.734
4.728
4.723
4.728
4.728
4.727
4.727
4.724
4.728
4.722
4.719
4.714
4.710
4.703
4.701
4.705
4.700
4.696
4.695
4.687
4.691
4.687
4.689
4.686
4.691
4.692
4.688
4.688
4.694
4.693
4.691
4.680
4.675
4.681
4.679
4.682
4.679
4.674
4.673
4.667
4.662
4.656
4.651
4.645
4.640
4.636
4.642
4.643
4.641
4.644
4.641
4.638
4.639
4.632
4.634
4.642
4.639
4.638
4.640
4.644
4.645
4.648
4.647
4.643
4.649
4.646
4.641
4.641
4.638
4.638
4.640
4.642
4.646
4.642
4.647
4.646
4.650
4.659
4.659
4.665
4.660
4.662
4.660
4.653
4.660
4.657
4.659
4.656
4.657
4.661
4.663
4.661
4.663
4.669
4.674
4.679
4.683
4.689
4.694
4.699
4.704
4.709
4.714
4.712
4.706
4.713
4.710
4.708
4.701
4.710
4.710
4.707
4.709
4.707
4.707
4.706
4.712
4.706
4.701
4.696
4.697
4.692
4.689
4.692
4.692
4.688
4.687
4.685
4.692
4.697
4.703
4.701
4.695
4.695
4.694
4.698
4.698
4.702
4.704
4.700
4.698
4.696
4.696
4.698
4.704
4.711
4.718
4.723
4.719
4.719
4.718
4.718
4.710
4.714
4.712
4.707
4.702
4.700
4.701
4.701
4.696
4.696
4.690
4.684
4.680
4.680
4.675
4.672
4.672
4.663
4.661
4.666
4.667
4.667
4.663
4.664
4.663
4.661
