2.918
2.828
3.138
3.174
3.332
3.398
3.328
3.463
3.420
3.468
3.466
3.477
3.623
3.557
3.654
3.554
3.565
3.579
3.567
3.539
3.715
3.693
3.547
3.484
3.630
3.775
3.715
3.618
3.494
3.524
3.547
3.661
3.776
3.747
3.587
3.585
3.591
3.565
3.549
3.591
3.518
3.551
3.636
3.720
3.768
3.729
3.840
3.773
3.652
3.600
3.576
3.559
3.543
3.489
3.491
3.501
3.565
3.536
3.650
3.640
3.563
3.518
3.501
3.557
3.612
3.668
3.723
3.779
3.834
3.882
3.764
3.768
3.727
3.758
3.711
3.751
3.737
3.761
3.745
3.702
3.774
3.620
3.622
3.546
3.584
3.578
3.584
3.519
3.509
3.521
3.555
3.628
3.609
3.535
3.523
3.540
3.515
3.583
3.559
3.507
3.498
3.535
3.455
3.469
3.473
3.536
3.572
3.503
3.462
3.422
3.427
3.442
3.483
3.466
3.512
3.559
3.606
3.651
3.624
3.584
3.558
3.539
3.580
3.599
3.609
3.541
3.491
3.528
3.592
3.577
3.589
3.617
3.644
3.672
3.699
3.726
3.754
3.781
3.808
3.836
3.863
3.891
3.898
3.945
3.925
3.867
3.809
3.836
3.848
3.886
3.877
3.849
3.818
3.809
3.796
3.770
3.814
3.778
3.783
3.777
3.696
3.734
3.751
3.680
3.739
3.738
3.726
3.698
3.668
3.654
3.652
3.672
3.634
3.621
3.676
3.652
3.633
3.642
3.579
3.605
3.614
3.642
3.634
3.683
3.610
3.598
3.602
3.644
3.619
3.642
3.659
3.633
3.692
3.620
3.598
3.552
3.517
3.598
3.529
3.563
3.610
3.634
3.625
3.637
3.617
3.592
3.580
3.576
3.558
3.537
3.546
3.510
3.506
3.529
3.496
3.533
3.517
3.572
3.607
3.615
3.607
3.577
3.582
3.565
3.515
3.548
3.549
3.546
3.606
3.557
3.566
3.533
3.526
3.565
3.565
3.588
3.611
3.634
3.657
3.681
3.682
3.696
3.674
3.638
3.671
3.693
3.625
3.626
3.658
3.694
3.659
3.620
3.673
3.691
3.691
3.658
3.626
3.618
3.626
3.644
3.633
3.578
3.557
3.544
3.555
3.559
3.583
3.537
3.527
3.575
3.600
3.568
3.586
3.566
3.571
3.604
3.638
3.639
3.641
3.611
3.590
3.573
3.585
3.555
3.524
3.531
3.561
3.551
3.560
3.557
3.551
3.532
3.512
3.484
3.468
3.502
3.493
3.533
3.507
3.497
3.516
3.548
3.557
3.591
3.612
3.585
3.542
3.577
3.560
3.580
3.601
3.622
3.643
3.664
3.685
3.661
3.632
3.613
3.569
3.586
3.593
3.627
3.633
3.618
3.635
3.655
3.623
3.632
3.599
3.608
3.607
3.628
3.603
3.575
3.576
3.586
3.571
3.609
3.578
3.583
3.561
3.597
3.561
3.527
3.545
3.563
3.563
3.542
3.571
3.509
3.527
3.521
3.535
3.550
3.572
3.558
3.588
3.587
3.613
3.586
3.566
3.535
3.503
3.467
3.491
3.507
3.521
3.515
3.541
3.579
3.556
3.542
3.514
3.533
3.552
3.572
3.591
3.610
3.627
3.583
3.626
3.605
3.584
3.623
3.616
3.610
3.651
3.633
3.597
3.583
3.593
3.549
3.583
3.584
3.567
3.598
3.586
3.587
3.556
3.575
3.551
3.578
3.586
3.568
3.593
3.536
3.563
3.562
3.587
3.603
3.599
3.580
3.555
3.531
3.546
3.565
3.556
3.574
3.559
3.525
3.550
3.513
3.508
3.493
3.509
3.514
3.515
3.524
3.519
3.580
3.537
3.519
3.546
3.564
3.542
3.560
3.565
3.570
3.588
3.606
3.597
3.623
3.623
3.606
3.581
3.591
3.598
3.602
3.573
3.581
3.598
3.592
3.576
3.572
3.555
3.583
3.559
3.582
3.582
3.595
3.618
3.602
3.558
3.578
3.585
3.566
3.576
3.570
3.541
3.536
3.523
3.563
3.545
3.549
3.522
3.518
3.516
3.534
3.533
3.511
3.523
3.552
3.547
3.569
3.595
3.584
3.586
3.579
3.593
3.562
3.568
3.562
3.536
3.544
3.541
3.547
3.564
3.582
3.599
3.616
3.610
3.618
3.575
3.569
3.604
3.579
3.561
3.575
3.577
3.601
3.608
3.601
3.614
3.595
3.601
3.605
3.599
3.616
3.600
3.572
3.551
3.548
3.526
3.518
3.531
3.556
3.548
3.557
3.517
3.553
3.530
3.541
3.562
3.557
3.554
3.557
3.552
3.548
3.559
3.543
3.546
3.566
3.579
3.561
3.572
3.542
3.535
3.555
3.539
3.518
3.518
3.549
3.544
3.560
3.548
3.574
3.569
3.592
3.602
3.603
3.609
3.640
3.634
3.632
3.602
3.584
3.588
3.546
3.574
3.584
3.593
3.582
3.595
3.594
3.573
3.552
3.549
3.544
3.543
3.525
3.549
3.573
3.553
3.562
3.560
3.549
3.557
3.569
3.579
3.585
3.575
3.544
3.563
3.559
3.574
3.543
3.550
3.534
3.530
3.493
3.523
3.540
3.557
3.548
3.548
3.539
3.566
3.543
3.550
3.566
3.580
3.591
3.612
3.622
3.591
3.569
3.590
3.580
3.609
3.586
3.592
3.615
3.622
3.583
3.570
3.582
3.555
3.570
3.568
3.587
3.579
3.559
3.542
3.569
3.569
3.552
3.566
3.567
3.583
3.547
3.549
3.548
3.532
3.530
3.514
3.520
3.549
3.548
3.543
3.537
3.528
3.556
3.557
3.568
3.584
3.590
3.563
3.539
3.540
3.517
3.531
3.544
3.548
3.559
3.574
3.589
3.605
3.596
3.585
3.569
3.592
3.569
3.550
3.554
3.582
3.570
3.565
3.588
3.594
3.598
3.606
3.608
3.609
3.611
3.611
3.594
3.574
3.555
3.536
3.528
3.527
3.555
3.550
3.543
3.543
3.542
3.530
3.541
3.531
3.553
3.546
3.566
3.561
3.539
3.527
3.550
3.559
3.568
3.578
3.554
3.540
3.530
3.534
3.541
3.576
3.561
3.553
3.563
3.577
3.570
3.553
3.547
3.579
3.566
3.588
3.606
3.620
3.628
3.594
3.592
3.584
3.577
3.581
3.550
3.552
3.570
3.569
3.561
3.581
3.587
3.605
3.573
3.580
3.567
3.545
3.538
3.559
3.571
3.554
3.529
3.548
3.575
3.549
3.539
3.519
3.543
3.562
3.538
3.552
3.547
3.546
3.549
3.523
3.535
3.528
3.514
3.540
3.568
3.545
3.560
3.574
3.588
3.598
3.596
3.596
3.598
3.564
3.549
3.573
3.560
3.563
3.581
3.575
3.586
3.561
3.544
3.559
3.556
3.540
3.565
3.573
3.577
3.566
3.573
3.566
3.571
3.573
3.570
3.581
3.595
3.578
3.561
3.543
3.527
3.509
3.531
3.516
3.534
3.528
3.545
3.537
3.522
3.503
3.523
3.538
3.551
3.553
3.531
3.524
3.539
3.548
3.562
3.576
3.590
3.604
3.597
3.604
3.598
3.592
3.576
3.559
3.563
3.590
3.563
3.552
3.540
3.536
3.563
3.552
3.572
3.569
3.556
3.561
3.574
3.587
3.558
3.575
3.563
3.554
3.559
3.557
3.527
3.555
3.560
3.564
3.581
3.563
3.570
3.561
3.545
3.534
3.525
3.532
3.549
3.548
3.539
3.531
3.544
3.550
3.535
3.537
3.547
3.560
3.571
3.582
3.576
3.585
3.583
3.580
3.587
3.572
3.559
3.556
3.580
3.587
3.606
3.592
3.592
3.560
3.553
3.565
3.549
3.532
3.525
3.540
3.531
3.542
3.558
3.569
3.566
3.566
3.530
3.546
3.533
3.528
3.525
3.543
3.562
3.571
3.540
3.559
3.559
3.562
3.566
3.573
3.556
3.563
3.558
3.547
3.542
3.526
3.539
3.552
3.565
3.549
3.561
3.567
3.575
3.594
3.566
3.578
3.588
3.597
3.579
3.574
3.553
3.566
3.558
3.560
3.588
3.579
3.580
3.593
3.578
3.580
3.579
3.566
3.552
3.555
3.540
3.531
3.535
3.553
3.561
3.545
3.548
3.561
3.531
3.552
3.568
3.565
3.536
3.552
3.540
3.551
3.544
3.542
3.522
3.526
3.532
3.538
3.538
3.551
3.564
3.577
3.574
3.576
3.583
3.578
3.593
3.578
3.557
3.554
3.560
3.573
3.563
3.581
3.571
3.545
3.555
3.543
3.563
3.552
3.558
3.557
3.563
3.555
3.555
3.565
3.567
