2.982
3.310
3.481
3.595
3.678
3.783
3.787
3.855
3.919
3.928
3.868
3.907
3.926
3.951
3.974
4.002
4.017
4.035
4.057
4.065
4.082
4.112
4.103
4.119
4.145
4.164
4.145
4.158
4.183
4.194
4.208
4.187
4.203
4.217
4.223
4.243
4.241
4.258
4.269
4.275
4.245
4.259
4.267
4.272
4.275
4.293
4.305
4.316
4.302
4.316
4.329
4.329
4.341
4.360
4.347
4.352
4.362
4.344
4.327
4.334
4.339
4.350
4.356
4.340
4.344
4.347
4.359
4.368
4.374
4.379
4.386
4.389
4.391
4.403
4.389
4.385
4.385
4.395
4.413
4.417
4.415
4.411
4.416
4.433
4.423
4.443
4.451
4.437
4.453
4.464
4.440
4.449
4.443
4.437
4.453
4.452
4.460
4.466
4.477
4.477
4.481
4.484
4.485
4.489
4.486
4.490
4.483
4.466
4.448
4.453
4.446
4.462
4.464
4.464
4.474
4.467
4.488
4.483
4.482
4.460
4.453
4.460
4.449
4.460
4.458
4.450
4.467
4.469
4.463
4.469
4.487
4.478
4.467
4.484
4.477
4.476
4.492
4.491
4.500
4.485
4.511
4.514
4.506
4.496
4.500
4.497
4.487
4.501
4.502
4.502
4.491
4.502
4.519
4.512
4.508
4.498
4.524
4.528
4.520
4.519
4.520
4.542
4.534
4.533
4.528
4.524
4.550
4.546
4.538
4.542
4.531
4.551
4.556
4.543
4.527
4.518
4.542
4.535
4.521
4.502
4.504
4.526
4.523
4.522
4.524
4.523
4.521
4.530
4.533
4.525
4.533
4.526
4.524
4.524
4.530
4.525
4.529
4.534
4.524
4.514
4.528
4.550
4.559
4.557
4.544
4.546
4.542
4.532
4.544
4.561
4.550
4.554
4.550
4.547
4.541
4.546
4.547
4.568
4.585
4.583
4.580
4.572
4.566
4.561
4.557
4.559
4.579
4.597
4.589
4.588
4.570
4.573
4.577
4.569
4.566
4.575
4.572
4.571
4.568
4.558
4.543
4.537
4.542
4.545
4.558
4.577
4.588
4.585
4.580
4.568
4.571
4.556
4.561
4.549
4.545
4.563
4.580
4.598
4.602
4.596
4.585
4.587
4.573
4.577
4.577
4.577
4.584
4.577
4.584
4.601
4.606
4.604
4.611
4.621
4.619
4.613
4.603
4.601
4.603
4.593
4.589
4.586
4.602
4.618
4.617
4.605
4.596
4.593
4.600
4.599
4.584
4.594
4.593
4.586
4.579
4.582
4.598
4.613
4.629
4.634
4.629
4.622
4.620
4.621
4.624
4.616
4.618
4.617
4.623
4.620
4.616
4.616
4.618
4.616
4.631
4.645
4.651
4.639
4.637
4.650
4.643
4.639
4.635
4.632
4.633
4.632
4.636
4.628
4.622
4.628
4.616
4.625
4.636
4.645
4.637
4.629
4.621
4.615
4.610
4.613
4.621
4.627
4.633
4.621
4.620
4.616
4.612
4.602
4.592
4.600
4.613
4.620
4.627
4.624
4.626
4.611
4.605
4.602
4.601
4.604
4.607
4.602
4.589
4.587
4.605
4.603
4.603
4.603
4.598
4.597
4.602
4.600
4.612
4.624
4.637
4.640
4.636
4.632
4.620
4.612
4.611
4.606
4.598
4.590
4.598
4.598
4.598
4.591
4.588
4.583
4.581
4.572
4.585
4.593
4.591
4.594
4.600
4.612
4.624
4.635
4.646
4.644
4.631
4.634
4.627
4.616
4.616
4.627
4.617
4.612
4.607
4.620
4.618
4.607
4.601
4.602
4.597
4.598
4.600
4.595
4.593
4.590
4.590
4.584
4.595
4.606
4.616
4.627
4.638
4.638
4.635
4.647
4.650
4.650
4.646
4.643
4.638
4.640
4.633
4.623
4.623
4.624
4.620
4.623
4.611
4.604
4.596
4.595
4.609
4.609
4.608
4.609
4.612
4.609
4.600
4.597
4.604
4.600
4.606
4.616
4.626
4.636
4.646
4.656
4.658
4.651
4.651
4.651
4.639
4.640
4.643
4.633
4.642
4.649
4.649
4.651
4.647
4.641
4.630
4.623
4.627
4.621
4.625
4.628
4.628
4.625
4.624
4.634
4.631
4.616
4.616
4.616
4.616
4.614
4.620
4.626
4.629
4.628
4.620
4.630
4.639
4.648
4.657
4.667
4.676
4.682
4.680
4.685
4.676
4.676
4.678
4.675
4.673
4.668
4.669
4.661
4.666
4.670
4.663
4.660
4.654
4.650
4.650
4.655
4.668
4.669
4.665
4.665
4.665
4.664
4.665
4.671
4.670
4.659
4.654
4.656
4.657
4.659
4.650
4.645
4.648
4.649
4.654
4.650
4.647
4.652
4.643
4.650
4.658
4.666
4.675
4.683
4.692
4.689
4.686
4.694
4.698
4.690
4.683
4.676
4.668
4.669
4.660
4.664
4.662
4.653
4.647
4.647
4.640
4.639
4.638
4.640
4.635
4.630
4.626
4.630
4.634
4.648
4.645
4.634
4.627
4.624
4.620
4.632
4.638
4.634
4.639
4.635
4.627
4.623
4.624
4.621
4.631
4.631
4.634
4.624
4.614
4.611
4.619
4.626
4.634
4.642
4.649
4.657
4.664
4.672
4.680
4.678
4.690
4.684
4.687
4.685
4.675
4.676
4.677
4.682
4.675
4.678
4.675
4.670
4.669
4.664
4.656
4.667
4.670
4.675
4.672
4.670
4.668
4.666
4.668
4.668
4.662
4.667
4.669
4.665
4.662
4.670
4.663
4.659
4.657
4.654
4.657
4.662
4.668
4.665
4.663
4.661
4.662
4.654
4.651
4.646
4.644
4.639
4.646
4.646
4.642
4.637
4.640
4.644
4.657
4.656
4.653
4.650
4.659
4.662
4.659
4.656
4.658
4.657
4.661
4.665
4.668
4.675
4.682
4.689
4.696
4.703
4.710
4.717
4.713
4.713
4.708
4.715
4.716
4.712
4.703
4.702
4.693
4.689
4.684
4.684
4.678
4.675
4.676
4.676
4.662
4.667
4.666
4.659
4.670
4.668
4.660
4.653
4.654
4.647
4.644
4.645
4.645
4.643
4.647
4.652
4.660
4.657
4.650
4.644
4.653
4.648
4.642
4.645
4.642
4.642
4.641
4.641
4.642
4.644
4.642
4.642
4.645
4.648
4.640
4.636
4.639
4.637
4.632
4.628
4.632
4.624
4.617
4.610
4.604
4.601
4.598
4.598
4.604
4.604
4.606
4.610
4.616
4.623
4.629
4.635
4.641
4.647
4.653
4.659
4.666
4.672
4.678
4.684
4.690
4.696
4.703
4.697
4.705
4.709
4.711
4.706
4.709
4.700
4.694
4.702
4.704
4.713
4.721
4.720
4.714
4.712
4.709
4.711
4.712
4.710
4.711
4.710
4.707
4.709
4.712
4.710
4.704
4.695
4.693
4.687
4.683
4.680
4.684
4.682
4.680
4.678
4.675
4.681
4.681
4.680
4.679
4.682
4.690
4.683
4.680
4.672
4.663
4.664
4.663
4.662
4.666
4.662
4.658
4.652
4.656
4.651
4.645
4.639
4.633
4.628
4.633
4.630
4.623
4.616
4.618
4.626
4.632
4.635
4.634
4.633
4.631
4.630
4.633
4.633
4.634
4.629
4.624
4.625
4.625
4.620
4.628
4.628
4.631
4.626
4.628
4.633
4.642
4.648
4.648
4.644
4.643
4.640
4.637
4.641
4.645
4.639
4.636
4.642
4.645
4.647
4.652
4.658
4.663
4.668
4.674
4.679
4.685
4.690
4.695
4.701
4.706
4.703
4.700
4.703
4.698
4.688
4.690
4.696
4.693
4.693
4.695
4.693
4.696
4.697
4.699
4.690
4.683
4.681
4.676
4.675
4.676
4.673
4.671
4.668
4.670
4.679
4.688
4.685
4.683
4.686
4.684
4.685
4.678
4.683
4.685
4.684
4.678
4.678
4.682
4.688
4.696
4.703
4.708
4.705
4.706
4.712
4.713
4.708
4.702
4.703
4.699
4.693
4.691
4.693
4.696
4.690
4.686
4.684
4.687
4.685
4.681
4.674
4.668
4.662
4.656
4.650
4.653
4.651
4.645
4.644
4.646
4.642
4.641
4.645
4.638
4.642
4.638
4.641
4.647
4.651
4.650
4.653
4.659
4.658
4.654
4.660
4.664
4.665
4.664
4.665
4.663
4.667
4.665
4.663
4.659
4.652
4.650
4.643
4.640
4.641
4.637
4.633
4.626
4.623
4.617
4.625
4.630
4.630
4.629
4.628
4.629
4.633
4.631
4.636
4.636
4.631
4.634
4.635
4.641
4.644
4.641
4.642
4.638
4.642
4.644
4.651
4.658
4.664
