2.994
3.329
3.517
3.622
3.711
3.772
3.831
3.866
3.933
3.938
3.983
4.030
4.043
4.033
4.061
4.090
4.114
4.145
4.161
4.186
4.207
4.194
4.150
4.148
4.153
4.164
4.182
4.189
4.199
4.211
4.218
4.227
4.242
4.241
4.253
4.264
4.265
4.274
4.284
4.285
4.297
4.302
4.314
4.309
4.316
4.324
4.331
4.340
4.352
4.338
4.349
4.354
4.363
4.367
4.379
4.381
4.371
4.376
4.383
4.390
4.396
4.398
4.405
4.414
4.415
4.416
4.412
4.416
4.416
4.422
4.427
4.435
4.434
4.439
4.448
4.452
4.451
4.455
4.465
4.469
4.453
4.457
4.454
4.455
4.459
4.468
4.468
4.472
4.473
4.477
4.479
4.486
4.495
4.494
4.501
4.494
4.505
4.501
4.512
4.512
4.520
4.518
4.528
4.515
4.506
4.499
4.506
4.507
4.508
4.515
4.519
4.523
4.519
4.526
4.533
4.527
4.530
4.529
4.531
4.535
4.541
4.545
4.549
4.553
4.553
4.556
4.561
4.562
4.552
4.557
4.563
4.562
4.561
4.562
4.568
4.573
4.582
4.584
4.583
4.578
4.583
4.594
4.590
4.594
4.590
4.590
4.594
4.600
4.591
4.583
4.571
4.562
4.564
4.573
4.571
4.573
4.579
4.578
4.586
4.589
4.579
4.587
4.588
4.589
4.599
4.589
4.598
4.595
4.588
4.597
4.588
4.592
4.594
4.594
4.599
4.597
4.604
4.598
4.605
4.601
4.612
4.609
4.615
4.616
4.616
4.623
4.618
4.622
4.616
4.617
4.615
4.628
4.624
4.633
4.631
4.631
4.638
4.638
4.635
4.623
4.631
4.623
4.634
4.638
4.632
4.633
4.624
4.636
4.635
4.639
4.640
4.641
4.637
4.642
4.642
4.646
4.651
4.653
4.651
4.663
4.656
4.657
4.662
4.657
4.659
4.658
4.654
4.660
4.667
4.661
4.662
4.672
4.670
4.668
4.678
4.675
4.679
4.677
4.683
4.679
4.681
4.688
4.683
4.683
4.676
4.671
4.670
4.677
4.684
4.685
4.683
4.685
4.679
4.677
4.675
4.680
4.678
4.675
4.678
4.690
4.686
4.682
4.684
4.694
4.695
4.694
4.697
4.698
4.703
4.701
4.700
4.698
4.709
4.712
4.711
4.702
4.709
4.712
4.714
4.710
4.703
4.698
4.690
4.683
4.676
4.677
4.673
4.671
4.675
4.668
4.670
4.671
4.675
4.682
4.684
4.682
4.675
4.677
4.689
4.691
4.690
4.682
4.675
4.688
4.692
4.690
4.689
4.683
4.686
4.694
4.692
4.694
4.692
4.693
4.694
4.707
4.708
4.707
4.711
4.702
4.698
4.709
4.701
4.694
4.686
4.685
4.694
4.694
4.697
4.693
4.694
4.685
4.695
4.694
4.689
4.680
4.678
4.680
4.692
4.699
4.697
4.690
4.684
4.683
4.684
4.698
4.692
4.691
4.694
4.690
4.690
4.688
4.700
4.701
4.705
4.699
4.706
4.702
4.701
4.702
4.708
4.709
4.708
4.710
4.706
4.707
4.701
4.709
4.711
4.705
4.709
4.705
4.705
4.702
4.705
4.712
4.720
4.713
4.717
4.712
4.714
4.712
4.708
4.712
4.722
4.727
4.727
4.729
4.725
4.727
4.725
4.724
4.722
4.729
4.738
4.738
4.731
4.723
4.717
4.710
4.712
4.721
4.731
4.731
4.727
4.729
4.722
4.724
4.723
4.720
4.719
4.727
4.725
4.726
4.727
4.729
4.723
4.723
4.725
4.727
4.723
4.734
4.741
4.740
4.735
4.738
4.741
4.742
4.736
4.732
4.733
4.738
4.742
4.743
4.736
4.737
4.739
4.737
4.738
4.740
4.739
4.737
4.738
4.746
4.757
4.756
4.753
4.754
4.753
4.753
4.753
4.748
4.752
4.761
4.758
4.757
4.766
4.764
4.763
4.759
4.764
4.762
4.763
4.762
4.757
4.754
4.752
4.759
4.768
4.773
4.771
4.768
4.763
4.757
4.753
4.746
4.741
4.735
4.744
4.748
4.749
4.749
4.750
4.745
4.742
4.740
4.735
4.738
4.738
4.738
4.738
4.746
4.752
4.745
4.738
4.731
4.733
4.734
4.730
4.729
4.730
4.731
4.728
4.729
4.739
4.746
4.750
4.751
4.747
4.749
4.749
4.746
4.741
4.737
4.741
4.742
4.742
4.742
4.739
4.743
4.750
4.761
4.766
4.767
4.766
4.767
4.758
4.751
4.750
4.748
4.747
4.746
4.747
4.745
4.742
4.749
4.757
4.765
4.766
4.764
4.761
4.756
4.750
4.753
4.755
4.753
4.749
4.742
4.738
4.734
4.738
4.745
4.753
4.759
4.764
4.767
4.763
4.761
4.760
4.762
4.758
4.759
4.755
4.754
4.758
4.756
4.753
4.751
4.750
4.754
4.760
4.767
4.775
4.779
4.780
4.773
4.774
4.781
4.782
4.776
4.771
4.765
4.768
4.770
4.761
4.754
4.755
4.765
4.766
4.765
4.771
4.779
4.777
4.773
4.774
4.775
4.769
4.768
4.769
4.770
4.772
4.770
4.777
4.773
4.764
4.765
4.766
4.768
4.769
4.770
4.774
4.781
4.788
4.790
4.793
4.794
4.793
4.792
4.796
4.795
4.794
4.795
4.791
4.787
4.786
4.789
4.788
4.786
4.783
4.781
4.780
4.781
4.782
4.789
4.796
4.800
4.798
4.801
4.794
4.795
4.799
4.800
4.801
4.795
4.790
4.784
4.783
4.783
4.780
4.783
4.780
4.775
4.771
4.768
4.775
4.781
4.788
4.789
4.786
4.787
4.786
4.789
4.785
4.783
4.786
4.787
4.786
4.783
4.788
4.784
4.780
4.779
4.783
4.778
4.771
4.765
4.763
4.767
4.774
4.779
4.783
4.784
4.783
4.786
4.790
4.792
4.791
4.787
4.785
4.781
4.782
4.784
4.785
4.784
4.782
4.779
4.782
4.779
4.777
4.786
4.785
4.787
4.786
4.787
4.780
4.784
4.785
4.790
4.798
4.800
4.798
4.797
4.796
4.795
4.794
4.798
4.794
4.795
4.790
4.790
4.791
4.792
4.791
4.789
4.791
4.790
4.790
4.789
4.790
4.790
4.790
4.789
4.785
4.784
4.791
4.795
4.796
4.803
4.807
4.814
4.818
4.814
4.815
4.814
4.813
4.809
4.805
4.808
4.807
4.805
4.805
4.805
4.805
4.805
4.807
4.808
4.807
4.806
4.813
4.808
4.807
4.803
4.807
4.811
4.810
4.808
4.805
4.805
4.809
4.809
4.816
4.820
4.827
4.828
4.827
4.830
4.832
4.828
4.826
4.825
4.826
4.823
4.818
4.817
4.815
4.816
4.821
4.822
4.821
4.819
4.815
4.812
4.810
4.814
4.813
4.814
4.812
4.811
4.812
4.811
4.807
4.808
4.805
4.811
4.816
4.822
4.823
4.825
4.824
4.819
4.815
4.814
4.812
4.811
4.812
4.812
4.812
4.817
4.818
4.820
4.820
4.816
4.820
4.817
4.816
4.812
4.812
4.812
4.807
4.803
4.801
4.805
4.802
4.808
4.801
4.801
4.804
4.801
4.805
4.808
4.813
4.820
4.826
4.830
4.835
4.841
4.840
4.839
4.840
4.836
4.837
4.836
4.838
4.836
4.829
4.828
4.829
4.830
4.835
4.833
4.835
4.833
4.829
4.827
4.826
4.828
4.829
4.836
4.835
4.831
4.831
4.828
4.831
4.831
4.835
4.833
4.829
4.828
4.827
4.827
4.829
4.830
4.824
4.830
4.835
4.841
4.845
4.850
4.856
4.861
4.867
4.869
4.864
4.860
4.859
4.858
4.854
4.849
4.846
4.849
4.851
4.849
4.849
4.850
4.849
4.844
4.840
4.841
4.838
4.842
4.838
4.842
4.845
4.844
4.842
4.838
4.838
4.836
4.835
4.836
4.834
4.830
4.827
4.823
4.821
4.820
4.823
4.828
4.832
4.836
4.838
4.835
4.829
4.825
4.826
4.822
4.823
4.825
4.821
4.820
4.823
4.822
4.824
4.823
4.820
4.819
4.824
4.830
4.824
4.823
4.826
4.823
4.823
4.819
4.818
4.819
4.820
4.822
4.821
4.820
4.816
4.816
4.813
4.817
4.820
4.816
4.812
4.808
4.805
4.803
4.799
4.803
4.807
4.811
4.816
4.822
4.826
4.827
4.834
4.838
4.835
4.833
4.835
4.836
4.831
4.828
4.831
4.830
4.827
4.827
4.831
4.830
4.832
4.828
4.826
4.828
4.827
4.825
4.821
4.819
