2.994
3.332
3.515
3.628
3.709
3.779
3.830
3.873
3.929
3.936
3.983
4.026
4.052
4.031
4.065
4.086
4.112
4.140
4.159
4.184
4.205
4.203
4.159
4.146
4.156
4.163
4.180
4.188
4.207
4.209
4.224
4.226
4.241
4.242
4.254
4.264
4.265
4.278
4.288
4.284
4.292
4.303
4.309
4.322
4.312
4.325
4.331
4.340
4.348
4.338
4.348
4.352
4.361
4.366
4.373
4.384
4.372
4.379
4.380
4.385
4.396
4.396
4.405
4.412
4.413
4.422
4.408
4.412
4.414
4.422
4.427
4.431
4.432
4.440
4.447
4.451
4.457
4.458
4.460
4.466
4.462
4.451
4.459
4.458
4.462
4.469
4.474
4.477
4.484
4.478
4.481
4.486
4.488
4.496
4.503
4.502
4.499
4.511
4.506
4.514
4.517
4.524
4.523
4.529
4.512
4.503
4.503
4.508
4.509
4.511
4.517
4.522
4.525
4.521
4.526
4.533
4.528
4.532
4.529
4.530
4.536
4.540
4.544
4.547
4.551
4.554
4.555
4.559
4.561
4.554
4.559
4.560
4.561
4.559
4.566
4.571
4.577
4.582
4.580
4.582
4.581
4.588
4.596
4.590
4.596
4.593
4.592
4.598
4.599
4.590
4.586
4.574
4.562
4.571
4.572
4.576
4.581
4.576
4.578
4.588
4.584
4.582
4.591
4.587
4.591
4.590
4.594
4.599
4.600
4.595
4.592
4.595
4.597
4.592
4.597
4.593
4.599
4.599
4.607
4.604
4.608
4.604
4.614
4.609
4.618
4.614
4.624
4.625
4.625
4.618
4.622
4.617
4.622
4.628
4.625
4.639
4.636
4.636
4.640
4.634
4.633
4.625
4.630
4.626
4.638
4.637
4.630
4.631
4.629
4.642
4.638
4.642
4.641
4.640
4.640
4.647
4.646
4.648
4.655
4.653
4.654
4.666
4.659
4.658
4.662
4.659
4.660
4.661
4.655
4.661
4.670
4.664
4.665
4.675
4.674
4.669
4.677
4.681
4.681
4.675
4.685
4.681
4.684
4.688
4.684
4.686
4.681
4.673
4.676
4.673
4.690
4.684
4.687
4.683
4.682
4.680
4.676
4.684
4.681
4.678
4.676
4.691
4.688
4.686
4.687
4.692
4.698
4.700
4.699
4.694
4.704
4.703
4.703
4.700
4.707
4.713
4.712
4.705
4.709
4.716
4.715
4.713
4.706
4.700
4.693
4.686
4.682
4.678
4.677
4.673
4.676
4.673
4.674
4.673
4.671
4.680
4.687
4.684
4.681
4.680
4.682
4.696
4.690
4.689
4.679
4.680
4.693
4.691
4.692
4.691
4.687
4.691
4.698
4.697
4.695
4.696
4.696
4.697
4.710
4.711
4.710
4.710
4.703
4.702
4.707
4.700
4.692
4.688
4.688
4.696
4.695
4.700
4.696
4.691
4.687
4.699
4.698
4.688
4.681
4.681
4.681
4.694
4.701
4.697
4.692
4.686
4.685
4.686
4.698
4.692
4.693
4.696
4.693
4.691
4.688
4.700
4.704
4.708
4.699
4.708
4.706
4.705
4.703
4.711
4.712
4.713
4.714
4.710
4.709
4.702
4.706
4.714
4.707
4.711
4.709
4.707
4.704
4.705
4.712
4.719
4.718
4.719
4.717
4.716
4.712
4.713
4.709
4.719
4.728
4.732
4.733
4.730
4.731
4.727
4.731
4.725
4.726
4.736
4.740
4.735
4.726
4.718
4.714
4.711
4.715
4.725
4.733
4.732
4.728
4.729
4.726
4.729
4.723
4.721
4.723
4.730
4.729
4.729
4.729
4.727
4.726
4.724
4.729
4.730
4.728
4.736
4.740
4.743
4.737
4.743
4.744
4.744
4.734
4.733
4.734
4.743
4.745
4.746
4.737
4.740
4.742
4.738
4.740
4.743
4.742
4.740
4.739
4.749
4.758
4.759
4.756
4.757
4.755
4.755
4.755
4.749
4.756
4.763
4.759
4.759
4.767
4.768
4.764
4.760
4.767
4.765
4.764
4.763
4.756
4.755
4.753
4.759
4.767
4.776
4.773
4.770
4.764
4.759
4.753
4.747
4.742
4.736
4.744
4.751
4.751
4.751
4.751
4.747
4.747
4.744
4.736
4.740
4.737
4.741
4.740
4.744
4.751
4.746
4.739
4.733
4.733
4.733
4.733
4.730
4.733
4.733
4.733
4.733
4.736
4.743
4.751
4.751
4.750
4.749
4.753
4.746
4.745
4.741
4.740
4.743
4.744
4.741
4.744
4.740
4.748
4.755
4.764
4.770
4.767
4.765
4.762
4.755
4.753
4.752
4.750
4.749
4.747
4.744
4.747
4.744
4.753
4.760
4.769
4.768
4.766
4.762
4.755
4.747
4.755
4.755
4.753
4.749
4.740
4.738
4.739
4.740
4.747
4.755
4.759
4.766
4.769
4.766
4.762
4.760
4.764
4.762
4.762
4.759
4.759
4.760
4.759
4.754
4.753
4.751
4.755
4.762
4.767
4.776
4.783
4.781
4.775
4.777
4.783
4.782
4.778
4.770
4.767
4.771
4.770
4.762
4.756
4.755
4.766
4.768
4.764
4.771
4.778
4.782
4.777
4.776
4.778
4.771
4.772
4.773
4.770
4.774
4.772
4.779
4.777
4.768
4.766
4.766
4.769
4.770
4.772
4.773
4.780
4.787
4.791
4.795
4.797
4.796
4.796
4.795
4.799
4.796
4.800
4.795
4.794
4.787
4.791
4.788
4.789
4.787
4.784
4.782
4.783
4.784
4.784
4.792
4.799
4.801
4.802
4.799
4.794
4.798
4.802
4.804
4.799
4.793
4.788
4.785
4.784
4.784
4.783
4.784
4.778
4.773
4.769
4.771
4.777
4.784
4.791
4.792
4.791
4.787
4.789
4.788
4.788
4.785
4.789
4.792
4.786
4.785
4.789
4.785
4.781
4.781
4.784
4.777
4.770
4.765
4.766
4.768
4.775
4.779
4.784
4.787
4.786
4.787
4.791
4.793
4.792
4.788
4.786
4.785
4.784
4.785
4.786
4.787
4.783
4.782
4.783
4.782
4.780
4.785
4.789
4.788
4.788
4.790
4.784
4.785
4.784
4.790
4.797
4.801
4.799
4.801
4.799
4.798
4.797
4.801
4.796
4.796
4.794
4.792
4.794
4.793
4.794
4.790
4.794
4.792
4.792
4.788
4.791
4.792
4.794
4.793
4.788
4.785
4.791
4.795
4.794
4.799
4.805
4.812
4.818
4.815
4.818
4.817
4.818
4.814
4.810
4.809
4.808
4.810
4.803
4.803
4.807
4.807
4.808
4.810
4.810
4.809
4.811
4.815
4.810
4.809
4.805
4.810
4.814
4.809
4.810
4.806
4.808
4.810
4.811
4.818
4.822
4.829
4.830
4.831
4.833
4.831
4.827
4.828
4.829
4.825
4.824
4.822
4.818
4.818
4.819
4.823
4.824
4.823
4.818
4.815
4.813
4.814
4.816
4.815
4.816
4.814
4.811
4.814
4.811
4.809
4.807
4.807
4.811
4.817
4.822
4.828
4.827
4.825
4.819
4.817
4.814
4.814
4.814
4.814
4.814
4.812
4.818
4.822
4.821
4.820
4.816
4.822
4.818
4.820
4.818
4.814
4.813
4.810
4.807
4.803
4.807
4.803
4.810
4.803
4.802
4.807
4.807
4.804
4.810
4.812
4.819
4.825
4.829
4.834
4.840
4.842
4.843
4.844
4.840
4.839
4.836
4.840
4.840
4.834
4.832
4.833
4.832
4.836
4.833
4.837
4.836
4.831
4.830
4.828
4.827
4.831
4.833
4.836
4.836
4.833
4.832
4.833
4.833
4.836
4.838
4.833
4.830
4.831
4.829
4.831
4.830
4.828
4.827
4.833
4.836
4.842
4.846
4.851
4.857
4.862
4.868
4.867
4.865
4.862
4.860
4.858
4.852
4.851
4.849
4.850
4.852
4.853
4.851
4.851
4.847
4.844
4.841
4.842
4.841
4.844
4.840
4.845
4.847
4.845
4.844
4.842
4.840
4.837
4.836
4.836
4.833
4.829
4.827
4.823
4.821
4.820
4.822
4.828
4.832
4.837
4.840
4.834
4.829
4.829
4.827
4.825
4.824
4.826
4.824
4.823
4.824
4.826
4.824
4.826
4.824
4.822
4.824
4.829
4.829
4.826
4.829
4.826
4.825
4.820
4.821
4.822
4.821
4.823
4.825
4.822
4.819
4.818
4.816
4.815
4.819
4.817
4.813
4.809
4.807
4.803
4.800
4.801
4.807
4.810
4.814
4.820
4.824
4.826
4.832
4.837
4.840
4.837
4.836
4.837
4.835
4.831
4.833
4.836
4.833
4.831
4.832
4.833
