2.995
3.331
3.501
3.613
3.696
3.761
3.837
3.870
3.936
3.914
3.963
4.001
4.034
4.068
4.106
4.065
4.030
4.046
4.061
4.079
4.101
4.110
4.120
4.143
4.143
4.165
4.167
4.178
4.198
4.194
4.207
4.222
4.236
4.230
4.246
4.254
4.271
4.268
4.270
4.276
4.284
4.296
4.299
4.316
4.303
4.307
4.316
4.326
4.328
4.343
4.348
4.352
4.368
4.357
4.343
4.346
4.366
4.370
4.367
4.372
4.383
4.390
4.397
4.399
4.403
4.409
4.413
4.421
4.423
4.403
4.397
4.408
4.411
4.409
4.428
4.428
4.420
4.425
4.430
4.443
4.443
4.449
4.454
4.456
4.451
4.458
4.459
4.467
4.469
4.475
4.478
4.483
4.490
4.494
4.505
4.492
4.496
4.493
4.497
4.489
4.473
4.467
4.481
4.487
4.484
4.483
4.481
4.488
4.493
4.507
4.497
4.495
4.491
4.489
4.501
4.505
4.499
4.502
4.516
4.512
4.522
4.532
4.520
4.510
4.525
4.523
4.533
4.540
4.541
4.545
4.537
4.526
4.542
4.533
4.530
4.536
4.542
4.544
4.542
4.550
4.549
4.555
4.556
4.559
4.567
4.560
4.566
4.560
4.567
4.568
4.576
4.567
4.584
4.582
4.579
4.592
4.581
4.593
4.588
4.592
4.584
4.581
4.593
4.586
4.593
4.584
4.581
4.588
4.588
4.592
4.594
4.593
4.600
4.602
4.599
4.606
4.613
4.615
4.611
4.620
4.618
4.617
4.628
4.625
4.620
4.620
4.609
4.599
4.589
4.579
4.591
4.583
4.583
4.588
4.601
4.586
4.578
4.598
4.598
4.592
4.587
4.606
4.600
4.605
4.600
4.612
4.617
4.607
4.610
4.614
4.620
4.607
4.594
4.606
4.599
4.593
4.592
4.601
4.596
4.594
4.585
4.598
4.600
4.593
4.590
4.589
4.607
4.605
4.603
4.608
4.602
4.611
4.613
4.615
4.612
4.613
4.612
4.620
4.617
4.607
4.604
4.609
4.627
4.620
4.620
4.620
4.610
4.618
4.637
4.636
4.639
4.631
4.634
4.630
4.642
4.646
4.647
4.639
4.632
4.625
4.642
4.636
4.634
4.631
4.631
4.627
4.637
4.637
4.637
4.637
4.633
4.637
4.629
4.645
4.653
4.652
4.651
4.648
4.643
4.639
4.646
4.654
4.657
4.654
4.648
4.652
4.649
4.646
4.659
4.670
4.674
4.676
4.671
4.667
4.665
4.658
4.664
4.679
4.685
4.677
4.671
4.664
4.661
4.663
4.670
4.678
4.679
4.681
4.680
4.671
4.662
4.653
4.654
4.655
4.660
4.658
4.660
4.657
4.651
4.649
4.650
4.654
4.656
4.650
4.650
4.655
4.646
4.640
4.644
4.640
4.647
4.661
4.664
4.664
4.662
4.666
4.660
4.660
4.662
4.662
4.657
4.659
4.668
4.670
4.667
4.667
4.666
4.661
4.662
4.664
4.665
4.657
4.662
4.663
4.663
4.666
4.658
4.662
4.664
4.666
4.664
4.658
4.658
4.656
4.669
4.681
4.687
4.689
4.686
4.686
4.678
4.682
4.679
4.682
4.672
4.667
4.666
4.678
4.691
4.697
4.693
4.684
4.678
4.675
4.680
4.675
4.677
4.667
4.677
4.670
4.679
4.689
4.701
4.701
4.702
4.701
4.697
4.697
4.706
4.703
4.703
4.702
4.697
4.693
4.690
4.688
4.699
4.711
4.716
4.710
4.711
4.709
4.705
4.711
4.704
4.704
4.707
4.697
4.690
4.695
4.695
4.698
4.697
4.696
4.695
4.699
4.704
4.700
4.701
4.698
4.691
4.687
4.686
4.683
4.684
4.683
4.684
4.694
4.705
4.704
4.694
4.688
4.697
4.698
4.695
4.693
4.698
4.698
4.693
4.698
4.692
4.697
4.696
4.697
4.695
4.698
4.708
4.708
4.718
4.711
4.707
4.708
4.708
4.707
4.702
4.700
4.698
4.701
4.700
4.710
4.713
4.711
4.705
4.705
4.707
4.707
4.717
4.727
4.726
4.720
4.728
4.725
4.726
4.723
4.727
4.729
4.727
4.722
4.727
4.722
4.723
4.728
4.724
4.721
4.720
4.716
4.715
4.719
4.728
4.737
4.747
4.747
4.742
4.742
4.740
4.743
4.738
4.742
4.731
4.731
4.734
4.735
4.735
4.724
4.726
4.722
4.719
4.722
4.716
4.713
4.721
4.730
4.734
4.744
4.745
4.740
4.740
4.734
4.732
4.733
4.732
4.729
4.731
4.729
4.730
4.723
4.723
4.722
4.730
4.729
4.730
4.721
4.721
4.719
4.716
4.722
4.730
4.739
4.747
4.756
4.761
4.755
4.755
4.753
4.754
4.753
4.757
4.756
4.758
4.755
4.757
4.759
4.758
4.754
4.753
4.750
4.750
4.742
4.742
4.745
4.747
4.750
4.746
4.757
4.757
4.757
4.751
4.759
4.767
4.775
4.771
4.777
4.782
4.773
4.770
4.766
4.764
4.768
4.762
4.759
4.762
4.769
4.768
4.767
4.767
4.763
4.766
4.762
4.760
4.755
4.749
4.746
4.741
4.737
4.732
4.739
4.747
4.753
4.750
4.752
4.754
4.751
4.753
4.749
4.749
4.753
4.749
4.746
4.748
4.747
4.743
4.742
4.742
4.747
4.741
4.736
4.730
4.724
4.719
4.715
4.717
4.717
4.720
4.718
4.712
4.713
4.719
4.726
4.733
4.741
4.748
4.753
4.753
4.748
4.745
4.740
4.738
4.739
4.739
4.733
4.730
4.739
4.740
4.746
4.743
4.734
4.731
4.728
4.725
4.726
4.727
4.726
4.730
4.724
4.723
4.720
4.717
4.717
4.727
4.728
4.723
4.715
4.717
4.726
4.732
4.735
4.735
4.742
4.749
4.756
4.763
4.767
4.766
4.761
4.759
4.753
4.747
4.741
4.742
4.747
4.746
4.742
4.736
4.727
4.726
4.724
4.724
4.724
4.724
4.724
4.724
4.724
4.723
4.722
4.716
4.722
4.717
4.721
4.720
4.716
4.716
4.714
4.715
4.715
4.710
4.713
4.719
4.726
4.732
4.739
4.745
4.752
4.758
4.758
4.757
4.760
4.759
4.755
4.758
4.762
4.769
4.766
4.765
4.764
4.760
4.759
4.761
4.758
4.759
4.754
4.749
4.741
4.737
4.738
4.734
4.730
4.731
4.731
4.733
4.732
4.730
4.722
4.727
4.728
4.722
4.724
4.718
4.723
4.724
4.720
4.724
4.720
4.720
4.722
4.719
4.726
4.732
4.738
4.744
4.750
4.756
4.762
4.761
4.757
4.757
4.757
4.756
4.751
4.755
4.753
4.760
4.757
4.755
4.751
4.748
4.747
4.745
4.742
4.747
4.752
4.755
4.755
4.761
4.763
4.761
4.757
4.749
4.748
4.749
4.746
4.745
4.741
4.741
4.741
4.742
4.746
4.745
4.745
4.744
4.741
4.737
4.736
4.730
4.723
4.717
4.714
4.716
4.712
4.715
4.720
4.726
4.732
4.738
4.744
4.749
4.755
4.761
4.766
4.772
4.778
4.783
4.782
4.778
4.781
4.777
4.773
4.776
4.775
4.767
4.763
4.763
4.767
4.768
4.765
4.761
4.757
4.758
4.758
4.764
4.759
4.763
4.762
4.764
4.760
4.758
4.758
4.758
4.757
4.751
4.749
4.747
4.751
4.756
4.749
4.746
4.747
4.744
4.740
4.735
4.739
4.738
4.739
4.745
4.745
4.746
4.750
4.752
4.752
4.746
4.746
4.745
4.738
4.731
4.732
4.730
4.735
4.741
4.746
4.751
4.756
4.762
4.767
4.772
4.778
4.783
4.789
4.790
4.787
4.784
4.787
4.786
4.781
4.780
4.781
4.788
4.786
4.787
4.787
4.787
4.788
4.783
4.788
4.790
4.785
4.785
4.782
4.777
4.775
4.771
4.770
4.772
4.771
4.772
4.775
4.772
4.774
4.774
4.768
4.768
4.771
4.770
4.768
4.772
4.778
4.775
4.777
4.775
4.770
4.768
4.768
4.773
4.766
4.764
4.765
4.765
4.763
4.765
4.763
4.764
4.762
4.769
4.768
4.770
4.767
4.765
4.758
4.760
4.762
4.764
4.766
4.769
4.766
4.766
4.764
4.762
4.765
4.769
4.774
4.779
4.784
4.789
4.794
4.799
4.804
4.809
4.814
4.819
4.823
4.821
4.825
4.820
4.822
4.822
4.822
4.820
4.817
4.813
4.810
4.810
4.806
4.801
4.800
4.794
4.796
4.791
4.789
4.791
4.792
4.791
4.798
