2.993
3.331
3.501
3.615
3.718
3.794
3.826
3.898
3.875
3.932
3.976
4.016
4.052
4.003
3.989
4.005
4.023
4.045
4.064
4.078
4.087
4.111
4.114
4.139
4.149
4.152
4.168
4.186
4.182
4.195
4.216
4.222
4.213
4.231
4.243
4.252
4.266
4.254
4.264
4.270
4.281
4.294
4.300
4.306
4.320
4.297
4.305
4.310
4.328
4.320
4.332
4.347
4.349
4.349
4.359
4.369
4.379
4.377
4.351
4.360
4.371
4.372
4.380
4.375
4.380
4.380
4.396
4.398
4.405
4.415
4.405
4.404
4.412
4.427
4.430
4.432
4.443
4.447
4.455
4.452
4.448
4.450
4.458
4.441
4.423
4.431
4.434
4.433
4.436
4.439
4.453
4.463
4.440
4.450
4.443
4.452
4.455
4.462
4.466
4.466
4.479
4.475
4.480
4.474
4.481
4.493
4.491
4.492
4.496
4.495
4.485
4.486
4.503
4.487
4.497
4.505
4.501
4.520
4.512
4.522
4.513
4.521
4.521
4.526
4.530
4.523
4.536
4.544
4.540
4.540
4.543
4.547
4.553
4.541
4.542
4.550
4.538
4.539
4.532
4.544
4.539
4.556
4.558
4.552
4.568
4.560
4.565
4.577
4.565
4.580
4.578
4.573
4.586
4.587
4.573
4.573
4.561
4.549
4.537
4.554
4.549
4.543
4.551
4.544
4.545
4.553
4.556
4.554
4.554
4.577
4.567
4.566
4.569
4.574
4.575
4.570
4.560
4.554
4.544
4.569
4.555
4.546
4.551
4.556
4.544
4.547
4.554
4.560
4.564
4.554
4.567
4.577
4.568
4.568
4.570
4.572
4.578
4.569
4.566
4.563
4.582
4.584
4.581
4.567
4.572
4.594
4.595
4.595
4.588
4.582
4.598
4.612
4.598
4.601
4.585
4.596
4.591
4.593
4.587
4.586
4.589
4.601
4.602
4.595
4.589
4.586
4.598
4.618
4.616
4.603
4.602
4.600
4.600
4.620
4.612
4.613
4.608
4.609
4.614
4.616
4.635
4.635
4.627
4.627
4.617
4.611
4.624
4.643
4.631
4.627
4.633
4.634
4.631
4.625
4.643
4.644
4.637
4.626
4.615
4.605
4.619
4.628
4.618
4.613
4.619
4.616
4.603
4.607
4.612
4.617
4.609
4.608
4.601
4.607
4.603
4.604
4.620
4.632
4.633
4.631
4.631
4.619
4.611
4.609
4.612
4.625
4.639
4.636
4.638
4.626
4.618
4.610
4.601
4.604
4.620
4.635
4.638
4.637
4.633
4.626
4.620
4.621
4.625
4.625
4.626
4.637
4.651
4.653
4.644
4.647
4.635
4.636
4.638
4.634
4.634
4.630
4.642
4.656
4.655
4.649
4.645
4.642
4.648
4.646
4.642
4.649
4.634
4.638
4.650
4.664
4.669
4.677
4.667
4.663
4.665
4.664
4.659
4.659
4.651
4.647
4.651
4.660
4.674
4.676
4.664
4.664
4.672
4.670
4.666
4.656
4.646
4.637
4.642
4.644
4.657
4.668
4.673
4.665
4.657
4.652
4.645
4.644
4.643
4.635
4.638
4.640
4.641
4.641
4.653
4.666
4.675
4.675
4.679
4.675
4.668
4.657
4.651
4.652
4.649
4.647
4.654
4.658
4.645
4.648
4.660
4.672
4.684
4.693
4.690
4.684
4.683
4.678
4.672
4.673
4.670
4.670
4.670
4.670
4.658
4.664
4.667
4.669
4.673
4.685
4.696
4.706
4.700
4.704
4.700
4.696
4.694
4.693
4.693
4.694
4.696
4.689
4.689
4.687
4.693
4.685
4.678
4.680
4.690
4.702
4.710
4.710
4.700
4.696
4.693
4.687
4.681
4.681
4.683
4.680
4.676
4.676
4.679
4.682
4.677
4.675
4.674
4.677
4.688
4.698
4.709
4.717
4.707
4.710
4.709
4.706
4.702
4.709
4.707
4.706
4.702
4.704
4.701
4.702
4.701
4.700
4.697
4.697
4.699
4.700
4.700
4.696
4.705
4.716
4.726
4.735
4.746
4.749
4.739
4.734
4.733
4.729
4.720
4.717
4.719
4.717
4.720
4.724
4.721
4.720
4.717
4.708
4.708
4.709
4.709
4.705
4.707
4.711
4.718
4.727
4.733
4.727
4.722
4.717
4.711
4.706
4.700
4.700
4.700
4.691
4.690
4.690
4.690
4.697
4.692
4.685
4.689
4.693
4.690
4.696
4.695
4.693
4.694
4.695
4.704
4.713
4.709
4.711
4.715
4.709
4.705
4.702
4.703
4.693
4.693
4.701
4.703
4.700
4.695
4.692
4.694
4.682
4.681
4.674
4.679
4.676
4.668
4.664
4.674
4.674
4.669
4.673
4.681
4.690
4.698
4.707
4.715
4.724
4.728
4.726
4.725
4.720
4.711
4.712
4.709
4.707
4.711
4.715
4.713
4.713
4.707
4.704
4.707
4.704
4.698
4.694
4.686
4.683
4.679
4.677
4.675
4.682
4.670
4.663
4.663
4.671
4.678
4.687
4.695
4.702
4.711
4.708
4.706
4.707
4.705
4.702
4.701
4.710
4.717
4.711
4.708
4.714
4.710
4.712
4.712
4.709
4.718
4.720
4.712
4.711
4.707
4.703
4.699
4.695
4.691
4.693
4.689
4.688
4.687
4.691
4.690
4.693
4.691
4.692
4.684
4.685
4.687
4.694
4.702
4.709
4.717
4.720
4.719
4.718
4.714
4.720
4.712
4.711
4.712
4.717
4.719
4.712
4.709
4.703
4.699
4.700
4.704
4.707
4.705
4.706
4.707
4.708
4.700
4.692
4.693
4.698
4.702
4.698
4.693
4.697
4.702
4.702
4.706
4.703
4.701
4.693
4.689
4.692
4.694
4.683
4.683
4.690
4.697
4.704
4.711
4.718
4.724
4.730
4.725
4.726
4.727
4.730
4.729
4.730
4.724
4.735
4.729
4.731
4.724
4.725
4.725
4.723
4.718
4.713
4.713
4.717
4.714
4.712
4.714
4.715
4.711
4.704
4.705
4.703
4.704
4.708
4.710
4.710
4.719
4.722
4.719
4.715
4.712
4.705
4.707
4.707
4.705
4.701
4.701
4.693
4.685
4.682
4.687
4.694
4.701
4.707
4.714
4.720
4.727
4.733
4.740
4.746
4.745
4.739
4.734
4.735
4.739
4.749
4.749
4.745
4.742
4.748
4.747
4.750
4.752
4.751
4.745
4.741
4.737
4.738
4.735
4.734
4.734
4.733
4.732
4.726
4.732
4.732
4.728
4.727
4.717
4.714
4.715
4.722
4.723
4.725
4.722
4.724
4.724
4.728
4.726
4.730
4.726
4.720
4.715
4.712
4.714
4.723
4.723
4.721
4.722
4.721
4.718
4.718
4.721
4.717
4.720
4.718
4.724
4.730
4.736
4.742
4.748
4.754
4.760
4.766
4.772
4.773
4.773
4.781
4.785
4.784
4.784
4.781
4.777
4.774
4.766
4.770
4.772
4.775
4.773
4.770
4.771
4.767
4.758
4.764
4.756
4.761
4.762
4.764
4.763
4.755
4.758
4.752
4.754
4.751
4.750
4.757
4.758
4.759
4.761
4.763
4.757
4.751
4.744
4.742
4.746
4.747
4.737
4.730
4.728
4.725
4.727
4.729
4.728
4.730
4.731
4.729
4.730
4.731
4.734
4.729
4.724
4.719
4.714
4.710
4.705
4.711
4.716
4.722
4.727
4.733
4.738
4.744
4.749
4.750
4.754
4.753
4.761
4.768
4.767
4.773
4.769
4.763
4.764
4.758
4.753
4.752
4.752
4.757
4.756
4.759
4.752
4.749
4.742
4.740
4.741
4.740
4.740
4.742
4.741
4.734
4.730
4.730
4.731
4.726
4.726
4.728
4.729
4.728
4.735
4.732
4.730
4.732
4.729
4.728
4.723
4.725
4.722
4.721
4.723
4.725
4.725
4.722
4.724
4.731
4.736
4.733
4.732
4.726
4.727
4.728
4.728
4.730
4.725
4.728
4.728
4.721
4.722
4.717
4.714
4.712
4.709
4.708
4.705
4.703
4.706
4.708
4.709
4.707
4.712
4.713
4.712
4.714
4.719
4.724
4.729
4.734
4.739
4.744
4.749
4.754
4.759
4.764
4.769
4.774
4.779
4.782
4.778
4.776
4.777
4.784
4.782
4.784
4.776
4.771
4.773
4.772
4.768
4.768
4.769
4.769
4.761
4.761
4.755
4.758
4.760
4.766
4.773
4.777
4.779
4.779
4.779
4.783
4.778
4.773
4.770
4.769
4.762
4.765
4.769
4.769
4.762
4.764
4.765
4.762
4.762
4.769
4.773
4.773
4.771
4.770
4.771
4.770
4.772
4.773
