2.992
3.308
3.502
3.611
3.698
3.712
3.793
3.869
3.929
3.828
3.873
3.896
3.923
3.948
3.968
4.005
4.013
4.045
4.055
4.070
4.066
4.090
4.110
4.130
4.127
4.140
4.161
4.174
4.181
4.177
4.186
4.194
4.215
4.211
4.234
4.252
4.251
4.234
4.237
4.247
4.256
4.268
4.270
4.285
4.278
4.299
4.308
4.310
4.320
4.318
4.323
4.332
4.324
4.304
4.318
4.314
4.329
4.317
4.318
4.336
4.336
4.353
4.344
4.347
4.358
4.365
4.377
4.363
4.359
4.364
4.368
4.379
4.392
4.398
4.400
4.394
4.393
4.412
4.421
4.415
4.433
4.441
4.421
4.422
4.417
4.427
4.430
4.441
4.432
4.456
4.440
4.458
4.454
4.471
4.465
4.465
4.473
4.458
4.439
4.432
4.431
4.432
4.440
4.437
4.453
4.440
4.459
4.464
4.448
4.445
4.432
4.432
4.415
4.440
4.435
4.438
4.453
4.445
4.444
4.462
4.452
4.447
4.463
4.455
4.451
4.471
4.476
4.468
4.470
4.491
4.487
4.462
4.485
4.476
4.467
4.467
4.496
4.487
4.486
4.476
4.488
4.497
4.483
4.479
4.508
4.514
4.514
4.501
4.502
4.529
4.526
4.514
4.508
4.518
4.526
4.521
4.520
4.519
4.513
4.496
4.502
4.499
4.497
4.497
4.485
4.483
4.482
4.490
4.515
4.516
4.510
4.499
4.489
4.496
4.522
4.513
4.508
4.489
4.495
4.494
4.519
4.520
4.526
4.516
4.517
4.514
4.508
4.530
4.533
4.538
4.531
4.512
4.516
4.514
4.529
4.546
4.551
4.544
4.545
4.549
4.549
4.528
4.539
4.561
4.560
4.558
4.555
4.555
4.557
4.547
4.534
4.555
4.557
4.551
4.541
4.536
4.532
4.527
4.516
4.536
4.557
4.551
4.550
4.551
4.551
4.549
4.541
4.531
4.523
4.543
4.563
4.575
4.569
4.567
4.569
4.564
4.549
4.553
4.548
4.553
4.551
4.570
4.589
4.590
4.585
4.588
4.585
4.578
4.576
4.578
4.585
4.573
4.566
4.577
4.595
4.601
4.595
4.596
4.588
4.579
4.565
4.560
4.562
4.561
4.558
4.563
4.580
4.595
4.608
4.603
4.604
4.599
4.592
4.584
4.572
4.588
4.596
4.600
4.591
4.581
4.577
4.593
4.610
4.626
4.638
4.629
4.628
4.620
4.612
4.611
4.610
4.612
4.602
4.596
4.600
4.603
4.608
4.597
4.612
4.627
4.642
4.635
4.634
4.625
4.616
4.607
4.598
4.601
4.589
4.586
4.582
4.586
4.577
4.579
4.587
4.601
4.605
4.604
4.599
4.592
4.589
4.581
4.585
4.577
4.568
4.568
4.561
4.572
4.567
4.575
4.576
4.565
4.573
4.576
4.589
4.603
4.614
4.615
4.614
4.625
4.614
4.604
4.607
4.601
4.591
4.579
4.570
4.571
4.558
4.555
4.554
4.550
4.553
4.568
4.557
4.570
4.583
4.596
4.609
4.621
4.634
4.625
4.612
4.605
4.601
4.597
4.603
4.599
4.589
4.588
4.590
4.586
4.583
4.587
4.588
4.580
4.571
4.567
4.566
4.574
4.572
4.575
4.587
4.599
4.611
4.613
4.607
4.616
4.619
4.623
4.618
4.624
4.613
4.627
4.617
4.607
4.598
4.598
4.588
4.592
4.592
4.587
4.591
4.587
4.579
4.579
4.577
4.580
4.577
4.571
4.582
4.580
4.591
4.602
4.613
4.624
4.635
4.634
4.633
4.624
4.626
4.623
4.622
4.622
4.617
4.625
4.625
4.614
4.612
4.616
4.611
4.608
4.603
4.596
4.597
4.598
4.589
4.597
4.603
4.603
4.604
4.604
4.601
4.594
4.593
4.600
4.594
4.595
4.605
4.615
4.626
4.636
4.646
4.652
4.655
4.658
4.665
4.653
4.654
4.656
4.648
4.642
4.641
4.643
4.643
4.640
4.637
4.631
4.626
4.626
4.633
4.641
4.638
4.627
4.631
4.633
4.636
4.642
4.646
4.648
4.633
4.623
4.632
4.625
4.612
4.616
4.620
4.628
4.620
4.618
4.627
4.624
4.633
4.643
4.652
4.661
4.665
4.655
4.653
4.666
4.676
4.678
4.677
4.680
4.675
4.670
4.667
4.659
4.651
4.643
4.635
4.627
4.619
4.612
4.616
4.606
4.595
4.595
4.607
4.615
4.611
4.612
4.608
4.609
4.617
4.614
4.612
4.612
4.606
4.605
4.598
4.591
4.592
4.592
4.600
4.599
4.593
4.597
4.603
4.612
4.620
4.628
4.637
4.646
4.654
4.663
4.671
4.666
4.666
4.658
4.658
4.652
4.649
4.650
4.650
4.649
4.653
4.641
4.641
4.637
4.640
4.651
4.648
4.641
4.651
4.642
4.641
4.644
4.637
4.635
4.632
4.639
4.638
4.644
4.645
4.642
4.638
4.634
4.633
4.633
4.627
4.626
4.631
4.632
4.628
4.627
4.622
4.618
4.618
4.614
4.616
4.614
4.614
4.619
4.626
4.621
4.622
4.633
4.644
4.636
4.633
4.626
4.633
4.640
4.648
4.656
4.663
4.671
4.679
4.686
4.694
4.689
4.684
4.687
4.687
4.694
4.688
4.684
4.679
4.671
4.670
4.670
4.671
4.667
4.666
4.661
4.655
4.653
4.641
4.640
4.641
4.641
4.641
4.640
4.640
4.641
4.632
4.634
4.625
4.623
4.633
4.628
4.633
4.627
4.627
4.626
4.624
4.621
4.610
4.608
4.619
4.618
4.620
4.623
4.615
4.620
4.622
4.618
4.611
4.616
4.615
4.608
4.603
4.604
4.599
4.596
4.598
4.595
4.597
4.589
4.591
4.587
4.594
4.601
4.608
4.614
4.621
4.628
4.635
4.641
4.648
4.655
4.662
4.667
4.674
4.674
4.675
4.673
4.683
4.683
4.679
4.678
4.672
4.667
4.676
4.686
4.691
4.696
4.692
4.685
4.681
4.679
4.683
4.682
4.683
4.679
4.675
4.678
4.678
4.679
4.673
4.671
4.678
4.675
4.671
4.665
4.668
4.662
4.662
4.661
4.663
4.661
4.656
4.662
4.666
4.659
4.650
4.650
4.645
4.649
4.649
4.647
4.644
4.634
4.626
4.626
4.622
4.619
4.620
4.628
4.624
4.625
4.625
4.619
4.613
4.612
4.608
4.604
4.608
4.615
4.610
4.614
4.618
4.613
4.604
4.595
4.595
4.594
4.598
4.597
4.600
4.598
4.607
4.612
4.616
4.619
4.613
4.611
4.608
4.613
4.611
4.610
4.615
4.621
4.627
4.633
4.639
4.645
4.651
4.657
4.663
4.669
4.675
4.681
4.687
4.693
4.684
4.682
4.678
4.675
4.671
4.670
4.678
4.675
4.669
4.665
4.665
4.668
4.673
4.668
4.661
4.658
4.653
4.655
4.654
4.652
4.642
4.649
4.657
4.655
4.652
4.654
4.654
4.652
4.654
4.659
4.663
4.658
4.658
4.660
4.668
4.674
4.673
4.669
4.676
4.685
4.679
4.682
4.680
4.683
4.685
4.684
4.679
4.674
4.679
4.674
4.670
4.672
4.670
4.671
4.668
4.658
4.650
4.649
4.642
4.640
4.650
4.641
4.639
4.632
4.625
4.619
4.614
4.613
4.611
4.621
4.625
4.623
4.624
4.624
4.623
4.627
4.631
4.639
4.634
4.636
4.629
4.628
4.625
4.623
4.622
4.623
4.625
4.624
4.625
4.625
4.624
4.617
4.619
4.614
4.610
4.616
4.609
4.602
4.599
4.608
4.601
4.606
4.606
4.602
4.603
4.611
4.611
4.613
4.621
4.616
4.620
4.628
4.635
4.637
4.638
4.636
4.639
4.638
4.638
4.636
4.639
4.645
4.650
4.655
4.660
4.665
4.670
4.675
4.680
4.685
4.690
4.696
4.701
4.706
4.711
4.716
4.721
4.723
4.731
4.730
4.722
4.720
4.722
4.721
4.714
4.712
4.704
4.707
4.705
4.703
4.701
4.707
4.705
4.703
4.708
4.710
4.711
4.715
4.712
4.719
4.720
4.719
4.717
4.708
4.701
4.706
4.703
4.697
4.692
4.687
4.684
4.678
4.677
4.678
4.672
4.674
4.675
4.683
4.684
4.684
4.684
4.688
4.694
4.697
4.693
4.699
4.689
4.682
4.682
4.682
4.678
4.678
4.679
4.672
4.672
4.673
4.676
4.675
4.676
4.683
4.689
4.684
4.678
4.673
4.670
4.674
4.670
4.670
4.669
4.669
4.669
4.669
4.667
4.664
