2.987
3.316
3.487
3.628
3.724
3.772
3.776
3.848
3.904
3.955
3.973
3.909
3.931
3.960
3.984
4.000
4.019
4.044
4.060
4.070
4.094
4.109
4.106
4.128
4.148
4.143
4.159
4.183
4.198
4.183
4.195
4.205
4.224
4.226
4.245
4.228
4.238
4.246
4.250
4.268
4.273
4.283
4.291
4.297
4.308
4.298
4.286
4.298
4.317
4.307
4.309
4.319
4.324
4.340
4.347
4.335
4.356
4.358
4.362
4.375
4.384
4.378
4.374
4.392
4.390
4.371
4.366
4.378
4.376
4.381
4.394
4.384
4.379
4.387
4.384
4.404
4.405
4.415
4.398
4.410
4.421
4.418
4.422
4.437
4.424
4.427
4.433
4.434
4.424
4.436
4.450
4.443
4.450
4.466
4.455
4.456
4.461
4.461
4.469
4.481
4.474
4.500
4.494
4.477
4.487
4.469
4.480
4.471
4.490
4.493
4.497
4.487
4.516
4.508
4.516
4.511
4.514
4.524
4.518
4.523
4.518
4.509
4.493
4.483
4.479
4.482
4.480
4.495
4.493
4.496
4.510
4.506
4.496
4.524
4.518
4.510
4.492
4.485
4.502
4.486
4.478
4.490
4.493
4.483
4.498
4.508
4.500
4.493
4.516
4.513
4.513
4.507
4.515
4.508
4.504
4.519
4.523
4.521
4.523
4.526
4.541
4.537
4.537
4.532
4.537
4.525
4.520
4.523
4.535
4.526
4.527
4.524
4.539
4.547
4.552
4.538
4.537
4.549
4.554
4.545
4.548
4.544
4.552
4.573
4.574
4.564
4.560
4.555
4.573
4.582
4.575
4.573
4.562
4.562
4.585
4.583
4.572
4.578
4.565
4.567
4.566
4.553
4.552
4.550
4.550
4.558
4.547
4.552
4.551
4.538
4.537
4.553
4.575
4.570
4.568
4.562
4.551
4.552
4.555
4.576
4.573
4.575
4.561
4.547
4.545
4.547
4.567
4.579
4.566
4.569
4.568
4.565
4.570
4.566
4.569
4.589
4.589
4.583
4.581
4.579
4.578
4.573
4.561
4.579
4.588
4.595
4.596
4.592
4.593
4.586
4.586
4.592
4.588
4.595
4.613
4.622
4.608
4.603
4.606
4.600
4.594
4.593
4.593
4.600
4.615
4.624
4.623
4.612
4.599
4.591
4.596
4.581
4.578
4.587
4.601
4.592
4.596
4.590
4.593
4.592
4.587
4.590
4.583
4.594
4.601
4.595
4.610
4.612
4.608
4.605
4.601
4.607
4.599
4.607
4.600
4.599
4.601
4.599
4.603
4.617
4.632
4.631
4.628
4.625
4.626
4.620
4.625
4.623
4.634
4.624
4.627
4.616
4.612
4.621
4.636
4.650
4.648
4.648
4.659
4.650
4.635
4.627
4.630
4.622
4.623
4.621
4.631
4.631
4.621
4.634
4.640
4.638
4.648
4.632
4.631
4.633
4.640
4.637
4.626
4.627
4.627
4.631
4.626
4.622
4.616
4.626
4.639
4.652
4.666
4.674
4.679
4.671
4.663
4.663
4.661
4.651
4.653
4.664
4.663
4.672
4.666
4.658
4.657
4.648
4.651
4.647
4.660
4.672
4.682
4.675
4.680
4.680
4.676
4.684
4.683
4.681
4.673
4.670
4.660
4.653
4.663
4.654
4.656
4.657
4.653
4.646
4.653
4.665
4.662
4.662
4.667
4.662
4.654
4.652
4.661
4.650
4.648
4.640
4.631
4.632
4.623
4.627
4.625
4.623
4.611
4.609
4.620
4.632
4.643
4.649
4.652
4.656
4.650
4.649
4.645
4.640
4.642
4.637
4.645
4.642
4.647
4.641
4.635
4.636
4.641
4.647
4.636
4.636
4.632
4.628
4.637
4.637
4.629
4.636
4.646
4.653
4.649
4.649
4.637
4.636
4.634
4.642
4.639
4.641
4.642
4.641
4.634
4.634
4.635
4.632
4.623
4.625
4.622
4.619
4.618
4.622
4.623
4.627
4.637
4.640
4.640
4.637
4.635
4.645
4.655
4.665
4.673
4.665
4.661
4.658
4.652
4.651
4.656
4.652
4.642
4.640
4.635
4.633
4.647
4.649
4.649
4.642
4.642
4.642
4.631
4.630
4.630
4.622
4.625
4.617
4.625
4.630
4.621
4.618
4.623
4.632
4.642
4.651
4.660
4.670
4.669
4.675
4.682
4.679
4.674
4.676
4.668
4.670
4.667
4.656
4.649
4.646
4.645
4.636
4.638
4.647
4.643
4.646
4.639
4.643
4.638
4.637
4.645
4.643
4.646
4.645
4.645
4.639
4.638
4.632
4.640
4.643
4.645
4.646
4.644
4.647
4.656
4.664
4.673
4.682
4.679
4.670
4.670
4.671
4.666
4.669
4.675
4.682
4.677
4.675
4.685
4.682
4.686
4.679
4.675
4.672
4.672
4.670
4.667
4.672
4.671
4.671
4.665
4.658
4.652
4.653
4.661
4.656
4.660
4.654
4.661
4.664
4.658
4.651
4.646
4.649
4.649
4.656
4.647
4.650
4.652
4.656
4.664
4.672
4.680
4.688
4.696
4.704
4.712
4.720
4.716
4.710
4.709
4.713
4.710
4.707
4.697
4.706
4.707
4.700
4.705
4.698
4.696
4.698
4.700
4.694
4.697
4.688
4.698
4.696
4.698
4.697
4.700
4.701
4.692
4.698
4.698
4.709
4.714
4.707
4.699
4.694
4.691
4.693
4.691
4.691
4.683
4.676
4.674
4.674
4.679
4.677
4.677
4.680
4.670
4.663
4.670
4.677
4.685
4.692
4.699
4.706
4.704
4.698
4.703
4.703
4.701
4.701
4.699
4.694
4.692
4.689
4.690
4.690
4.692
4.692
4.688
4.689
4.686
4.683
4.681
4.682
4.683
4.682
4.682
4.676
4.667
4.659
4.657
4.660
4.664
4.661
4.663
4.660
4.660
4.653
4.662
4.660
4.662
4.671
4.681
4.681
4.681
4.673
4.663
4.656
4.656
4.655
4.649
4.659
4.650
4.648
4.648
4.642
4.643
4.637
4.644
4.650
4.657
4.664
4.670
4.677
4.683
4.690
4.697
4.703
4.710
4.717
4.723
4.724
4.724
4.720
4.716
4.716
4.708
4.711
4.711
4.715
4.711
4.705
4.702
4.700
4.700
4.692
4.692
4.701
4.709
4.709
4.709
4.713
4.707
4.707
4.711
4.710
4.705
4.694
4.696
4.699
4.697
4.694
4.697
4.706
4.702
4.704
4.705
4.702
4.698
4.698
4.701
4.698
4.693
4.692
4.695
4.693
4.696
4.689
4.685
4.683
4.684
4.680
4.682
4.689
4.685
4.685
4.682
4.678
4.681
4.689
4.692
4.686
4.688
4.690
4.691
4.696
4.701
4.698
4.698
4.691
4.692
4.694
4.698
4.693
4.693
4.699
4.705
4.711
4.717
4.723
4.729
4.735
4.737
4.738
4.739
4.738
4.737
4.730
4.728
4.723
4.717
4.717
4.713
4.714
4.707
4.705
4.709
4.708
4.701
4.694
4.691
4.687
4.687
4.687
4.688
4.684
4.679
4.686
4.681
4.683
4.684
4.684
4.682
4.679
4.680
4.680
4.677
4.675
4.679
4.684
4.692
4.692
4.687
4.686
4.684
4.684
4.677
4.677
4.676
4.675
4.675
4.675
4.678
4.676
4.681
4.682
4.674
4.670
4.665
4.660
4.655
4.656
4.660
4.653
4.648
4.648
4.651
4.648
4.643
4.639
4.641
4.645
4.645
4.639
4.633
4.639
4.635
4.637
4.644
4.641
4.647
4.649
4.650
4.645
4.650
4.655
4.661
4.666
4.671
4.676
4.682
4.687
4.692
4.698
4.703
4.708
4.714
4.719
4.724
4.730
4.735
4.740
4.746
4.749
4.748
4.743
4.737
4.736
4.746
4.741
4.745
4.745
4.752
4.759
4.757
4.753
4.750
4.755
4.752
4.745
4.741
4.735
4.734
4.731
4.731
4.732
4.731
4.724
4.716
4.714
4.715
4.710
4.710
4.706
4.710
4.710
4.712
4.705
4.708
4.704
4.711
4.705
4.707
4.703
4.711
4.710
4.706
4.700
4.695
4.690
4.685
4.680
4.675
4.673
4.679
4.673
4.668
4.666
4.669
4.661
4.661
4.662
4.664
4.661
4.663
4.664
4.666
4.668
4.666
4.660
4.653
4.646
4.645
4.652
4.659
4.663
4.663
4.662
4.670
4.673
4.673
4.672
4.669
4.670
4.674
4.669
4.664
4.667
4.666
4.660
4.664
4.666
4.669
4.668
4.669
4.674
4.677
4.675
4.677
4.685
4.688
4.687
4.689
4.687
4.682
4.681
4.689
4.685
4.679
4.673
4.670
4.673
