2.352
2.870
2.895
2.968
3.233
3.196
3.357
3.244
3.443
3.365
3.092
3.263
3.485
3.502
3.198
3.381
3.537
3.326
3.392
3.207
3.237
3.391
3.545
3.700
3.447
3.363
3.359
3.207
3.225
3.298
3.341
3.218
3.303
3.403
3.503
3.603
3.445
3.469
3.469
3.405
3.496
3.540
3.496
3.334
3.373
3.191
3.204
3.322
3.321
3.162
3.177
3.137
3.238
3.180
3.154
3.211
3.299
3.265
3.196
3.170
3.254
3.337
3.297
3.330
3.246
3.345
3.282
3.341
3.367
3.415
3.464
3.513
3.561
3.610
3.659
3.708
3.648
3.729
3.670
3.618
3.635
3.553
3.559
3.517
3.438
3.480
3.534
3.454
3.479
3.522
3.532
3.451
3.348
3.398
3.381
3.308
3.301
3.340
3.321
3.309
3.309
3.355
3.378
3.467
3.330
3.232
3.265
3.298
3.356
3.382
3.275
3.275
3.252
3.150
3.192
3.294
3.278
3.272
3.327
3.391
3.347
3.259
3.300
3.285
3.299
3.311
3.352
3.393
3.419
3.433
3.409
3.406
3.397
3.332
3.382
3.445
3.404
3.414
3.360
3.259
3.324
3.268
3.254
3.271
3.294
3.291
3.274
3.290
3.270
3.328
3.382
3.340
3.326
3.272
3.269
3.241
3.221
3.240
3.189
3.244
3.223
3.164
3.233
3.247
3.295
3.293
3.320
3.339
3.375
3.412
3.362
3.404
3.337
3.315
3.330
3.347
3.362
3.390
3.320
3.298
3.352
3.324
3.284
3.266
3.335
3.299
3.327
3.259
3.205
3.239
3.250
3.223
3.260
3.295
3.310
3.291
3.312
3.266
3.219
3.259
3.202
3.236
3.270
3.304
3.338
3.372
3.380
3.391
3.328
3.361
3.362
3.327
3.303
3.304
3.273
3.327
3.311
3.280
3.263
3.267
3.304
3.296
3.262
3.306
3.356
3.330
3.296
3.271
3.272
3.212
3.253
3.225
3.167
3.241
3.218
3.222
3.253
3.285
3.317
3.349
3.366
3.364
3.393
3.352
3.313
3.255
3.300
3.339
3.336
3.238
3.322
3.297
3.335
3.278
3.324
3.316
3.338
3.298
3.257
3.254
3.246
3.270
3.241
3.208
3.247
3.293
3.306
3.293
3.254
3.267
3.284
3.314
3.328
3.352
3.298
3.334
3.304
3.311
3.297
3.301
3.320
3.314
3.341
3.336
3.345
3.362
3.312
3.270
3.236
3.265
3.233
3.305
3.269
3.272
3.254
3.298
3.245
3.248
3.288
3.235
3.228
3.257
3.286
3.315
3.292
3.256
3.286
3.328
3.340
3.356
3.352
3.338
3.274
3.252
3.273
3.299
3.307
3.278
3.292
3.299
3.297
3.282
3.254
3.269
3.221
3.287
3.234
3.250
3.282
3.220
3.263
3.228
3.256
3.283
3.311
3.338
3.332
3.322
3.300
3.299
3.277
3.303
3.306
3.329
3.273
3.253
3.278
3.311
3.305
3.307
3.317
3.319
3.285
3.251
3.235
3.210
3.235
3.242
3.278
3.259
3.226
3.296
3.248
3.276
3.299
3.326
3.341
3.322
3.289
3.269
3.285
3.300
3.250
3.280
3.298
3.322
3.282
3.312
3.277
3.305
3.308
3.291
3.276
3.283
3.243
3.263
3.248
3.213
3.272
3.256
3.264
3.256
3.251
3.276
3.302
3.328
3.354
3.308
3.335
3.298
3.304
3.324
3.334
3.248
3.303
3.254
3.263
3.283
3.275
3.250
3.246
3.237
3.275
3.292
3.331
3.303
3.314
3.283
3.253
3.229
3.217
3.242
3.267
3.292
3.309
3.306
3.334
3.336
3.329
3.360
3.306
3.313
3.321
3.296
3.298
3.255
3.236
3.252
3.275
3.235
3.309
3.287
3.306
3.275
3.281
3.209
3.266
3.225
3.270
3.294
3.257
3.278
3.292
3.316
3.318
3.287
3.301
3.318
3.341
3.328
3.314
3.278
3.258
3.279
3.283
3.297
3.297
3.283
3.267
3.255
3.250
3.232
3.244
3.266
3.259
3.218
3.254
3.265
3.290
3.278
3.276
3.300
3.314
3.292
3.297
3.301
3.264
3.305
3.264
3.268
3.295
3.312
3.314
3.274
3.327
3.300
3.267
3.271
3.294
3.285
3.232
3.249
3.268
3.272
3.237
3.261
3.258
3.246
3.269
3.292
3.314
3.301
3.292
3.313
3.302
3.325
3.297
3.310
3.260
3.234
3.275
3.276
3.293
3.293
3.254
3.232
3.262
3.254
3.288
3.314
3.288
3.269
3.292
3.275
3.264
3.245
3.267
3.283
3.288
3.317
3.316
3.298
3.318
3.315
3.297
3.323
3.323
3.300
3.338
3.296
3.287
3.260
3.245
3.250
3.269
3.251
3.303
3.250
3.256
3.289
3.246
3.232
3.242
3.276
3.272
3.294
3.310
3.323
3.296
3.274
3.271
3.309
3.263
3.265
3.291
3.278
3.286
3.277
3.271
3.302
3.271
3.290
3.313
3.291
3.281
3.257
3.263
3.254
3.218
3.222
3.238
3.271
3.280
3.302
3.323
3.306
3.299
3.295
3.309
3.300
3.308
3.283
3.257
3.269
3.293
3.271
3.269
3.232
3.252
3.269
3.284
3.255
3.243
3.289
3.259
3.254
3.281
3.257
3.266
3.272
3.293
3.314
3.296
3.266
3.311
3.255
3.267
3.301
3.273
3.301
3.326
3.299
3.310
3.302
3.267
3.285
3.261
3.236
3.259
3.235
3.256
3.240
3.246
3.284
3.269
3.247
3.268
3.288
3.309
3.304
3.288
3.303
3.303
3.273
3.276
3.281
3.299
3.291
3.290
3.273
3.265
3.260
3.298
3.270
3.233
3.261
3.291
3.304
3.276
3.275
3.266
3.245
3.246
3.267
3.287
3.307
3.314
3.285
3.280
3.301
3.312
3.323
3.294
3.305
3.307
3.318
3.297
3.262
3.250
3.239
3.269
3.279
3.255
3.263
3.322
3.243
3.255
3.242
3.230
3.254
3.269
3.289
3.295
3.302
3.294
3.295
3.271
3.272
3.306
3.264
3.297
3.279
3.262
3.260
3.278
3.278
3.305
3.275
3.283
3.279
3.289
3.286
3.265
3.240
3.237
3.235
3.255
3.274
3.294
3.306
3.316
3.308
3.305
3.310
3.289
3.265
3.323
3.269
3.293
3.285
3.279
3.280
3.248
3.239
3.278
3.253
3.253
3.248
3.258
3.269
3.227
3.253
3.269
3.266
3.282
3.301
3.320
3.302
3.312
3.272
3.259
3.261
3.294
3.271
3.277
3.283
3.286
3.310
3.297
3.266
3.299
3.295
3.296
3.267
3.261
3.243
3.267
3.268
3.267
3.253
3.272
3.291
3.306
3.304
3.292
3.316
3.307
3.299
3.265
3.289
3.296
3.275
3.253
3.260
3.283
3.274
3.275
3.254
3.223
3.248
3.252
3.280
3.308
3.299
3.263
3.253
3.280
3.284
3.284
3.285
3.269
3.278
3.253
3.278
3.305
3.281
3.268
3.288
3.300
3.303
3.262
3.288
3.271
3.263
3.270
3.284
3.278
3.252
3.272
3.238
3.253
3.250
3.261
3.279
3.295
3.287
3.288
3.286
3.296
3.323
3.324
3.304
3.298
3.284
3.263
3.242
3.235
3.241
3.275
3.264
3.280
3.266
3.266
3.267
3.256
3.254
3.232
3.265
3.282
3.284
3.294
3.275
3.279
3.270
3.286
3.294
3.280
3.307
3.310
3.272
3.281
3.258
3.279
3.280
3.266
3.284
3.274
3.308
3.287
3.266
3.253
3.242
3.227
3.239
3.257
3.275
3.286
3.307
3.297
3.287
3.317
3.292
3.292
3.278
3.292
3.283
3.279
3.284
3.267
3.257
3.233
3.242
3.248
3.281
3.260
3.278
3.239
3.265
3.256
3.250
3.258
3.287
3.293
3.292
3.303
3.309
3.281
3.284
3.261
3.286
3.251
3.252
3.276
3.300
3.287
3.297
3.271
3.282
3.280
3.267
3.276
3.270
3.242
3.247
3.272
3.280
3.260
3.277
3.269
3.310
3.300
3.303
3.282
3.304
3.288
3.301
3.281
3.300
3.294
3.279
3.287
3.276
3.255
3.266
3.269
3.240
3.236
3.245
3.270
3.295
3.287
3.263
3.263
3.281
3.298
3.303
3.293
3.286
3.262
3.244
3.270
3.283
3.287
3.275
3.274
3.278
3.243
3.263
3.262
3.274
3.280
3.260
3.269
3.294
3.257
3.268
3.249
3.251
3.268
3.285
3.302
3.277
3.249
3.277
3.269
3.286
3.265
3.296
3.323
3.313
