2.985
3.313
3.482
3.631
3.711
3.723
3.805
3.879
3.860
3.828
3.874
3.890
3.921
3.948
3.986
4.000
4.024
4.025
4.061
4.062
4.078
4.105
4.091
4.106
4.139
4.155
4.166
4.154
4.165
4.179
4.201
4.206
4.213
4.220
4.212
4.207
4.230
4.221
4.240
4.252
4.269
4.262
4.276
4.287
4.293
4.302
4.294
4.311
4.328
4.289
4.283
4.289
4.311
4.297
4.306
4.309
4.311
4.326
4.331
4.341
4.353
4.354
4.363
4.348
4.345
4.348
4.364
4.373
4.384
4.381
4.374
4.378
4.399
4.399
4.401
4.417
4.413
4.415
4.403
4.390
4.419
4.413
4.417
4.439
4.426
4.448
4.435
4.455
4.445
4.450
4.453
4.432
4.411
4.415
4.403
4.424
4.429
4.422
4.438
4.429
4.445
4.419
4.425
4.400
4.415
4.407
4.417
4.432
4.423
4.436
4.442
4.431
4.444
4.430
4.428
4.450
4.451
4.451
4.458
4.478
4.464
4.456
4.450
4.460
4.448
4.465
4.462
4.453
4.463
4.473
4.467
4.462
4.475
4.485
4.484
4.483
4.480
4.506
4.505
4.492
4.501
4.508
4.505
4.502
4.486
4.497
4.517
4.498
4.480
4.478
4.494
4.471
4.459
4.465
4.480
4.494
4.497
4.492
4.483
4.474
4.502
4.503
4.496
4.482
4.480
4.484
4.502
4.497
4.492
4.487
4.497
4.493
4.510
4.507
4.516
4.514
4.498
4.493
4.498
4.523
4.522
4.515
4.515
4.525
4.516
4.510
4.523
4.543
4.543
4.540
4.521
4.529
4.529
4.524
4.533
4.556
4.550
4.543
4.525
4.510
4.495
4.506
4.528
4.527
4.527
4.522
4.523
4.530
4.526
4.514
4.510
4.530
4.543
4.542
4.541
4.543
4.540
4.536
4.537
4.533
4.529
4.535
4.555
4.569
4.566
4.568
4.570
4.564
4.548
4.548
4.555
4.553
4.555
4.561
4.580
4.580
4.571
4.571
4.569
4.575
4.567
4.556
4.539
4.529
4.546
4.564
4.576
4.578
4.578
4.587
4.577
4.575
4.570
4.557
4.570
4.571
4.566
4.568
4.563
4.581
4.598
4.616
4.619
4.608
4.611
4.602
4.605
4.589
4.585
4.579
4.580
4.578
4.579
4.576
4.588
4.604
4.616
4.618
4.618
4.617
4.599
4.600
4.600
4.599
4.590
4.580
4.571
4.561
4.553
4.567
4.583
4.591
4.594
4.587
4.583
4.564
4.563
4.569
4.561
4.563
4.549
4.544
4.545
4.550
4.548
4.541
4.549
4.563
4.578
4.593
4.598
4.588
4.589
4.589
4.583
4.596
4.590
4.589
4.580
4.577
4.569
4.556
4.543
4.531
4.529
4.543
4.544
4.554
4.567
4.581
4.595
4.603
4.610
4.598
4.594
4.597
4.584
4.577
4.592
4.581
4.570
4.577
4.574
4.571
4.562
4.558
4.558
4.561
4.566
4.556
4.550
4.559
4.572
4.585
4.593
4.589
4.587
4.594
4.595
4.591
4.597
4.589
4.598
4.602
4.589
4.586
4.590
4.577
4.571
4.566
4.566
4.562
4.576
4.574
4.572
4.559
4.554
4.546
4.559
4.568
4.580
4.592
4.604
4.614
4.609
4.605
4.601
4.608
4.611
4.602
4.605
4.598
4.608
4.610
4.602
4.598
4.598
4.584
4.575
4.579
4.582
4.583
4.570
4.570
4.578
4.573
4.570
4.570
4.577
4.578
4.586
4.574
4.581
4.592
4.603
4.614
4.625
4.630
4.623
4.630
4.633
4.633
4.631
4.642
4.627
4.622
4.628
4.621
4.619
4.621
4.619
4.611
4.603
4.605
4.619
4.623
4.620
4.606
4.607
4.615
4.621
4.624
4.620
4.613
4.608
4.612
4.600
4.599
4.597
4.597
4.598
4.595
4.609
4.614
4.624
4.634
4.644
4.654
4.662
4.665
4.650
4.655
4.655
4.652
4.655
4.648
4.645
4.652
4.653
4.651
4.652
4.643
4.634
4.625
4.616
4.608
4.599
4.590
4.588
4.588
4.587
4.585
4.580
4.590
4.598
4.608
4.610
4.597
4.585
4.575
4.571
4.572
4.575
4.576
4.571
4.580
4.589
4.598
4.608
4.617
4.626
4.635
4.637
4.641
4.640
4.654
4.655
4.647
4.643
4.640
4.626
4.627
4.627
4.626
4.623
4.615
4.617
4.630
4.628
4.629
4.629
4.627
4.625
4.624
4.624
4.617
4.618
4.616
4.618
4.622
4.617
4.617
4.618
4.611
4.618
4.616
4.613
4.613
4.601
4.598
4.600
4.595
4.598
4.599
4.596
4.594
4.594
4.600
4.605
4.601
4.609
4.615
4.616
4.611
4.613
4.618
4.627
4.635
4.643
4.652
4.660
4.668
4.676
4.685
4.693
4.690
4.684
4.678
4.672
4.666
4.660
4.661
4.657
4.649
4.642
4.644
4.649
4.651
4.650
4.638
4.640
4.630
4.631
4.619
4.624
4.619
4.622
4.621
4.628
4.619
4.618
4.623
4.619
4.612
4.604
4.604
4.603
4.602
4.598
4.593
4.604
4.590
4.598
4.593
4.600
4.603
4.601
4.594
4.594
4.588
4.581
4.585
4.580
4.577
4.581
4.574
4.578
4.568
4.573
4.580
4.583
4.590
4.598
4.605
4.613
4.620
4.627
4.635
4.642
4.649
4.646
4.652
4.651
4.650
4.657
4.664
4.657
4.655
4.657
4.648
4.658
4.666
4.666
4.673
4.668
4.660
4.654
4.657
4.657
4.661
4.653
4.656
4.652
4.655
4.652
4.650
4.650
4.652
4.647
4.644
4.647
4.652
4.654
4.651
4.651
4.647
4.639
4.648
4.648
4.641
4.632
4.633
4.629
4.631
4.623
4.623
4.626
4.621
4.620
4.613
4.608
4.605
4.608
4.603
4.603
4.608
4.605
4.596
4.603
4.609
4.602
4.595
4.588
4.591
4.598
4.591
4.590
4.586
4.585
4.582
4.582
4.573
4.578
4.588
4.592
4.592
4.595
4.589
4.590
4.585
4.589
4.596
4.602
4.609
4.615
4.622
4.628
4.634
4.641
4.647
4.654
4.660
4.667
4.673
4.680
4.676
4.669
4.659
4.663
4.658
4.654
4.656
4.652
4.652
4.649
4.652
4.655
4.648
4.644
4.635
4.633
4.632
4.629
4.625
4.624
4.633
4.641
4.630
4.628
4.632
4.626
4.633
4.635
4.638
4.634
4.639
4.648
4.656
4.656
4.645
4.656
4.659
4.657
4.654
4.651
4.657
4.654
4.659
4.652
4.656
4.668
4.666
4.658
4.655
4.658
4.656
4.651
4.641
4.640
4.637
4.632
4.631
4.624
4.614
4.615
4.612
4.611
4.608
4.610
4.607
4.601
4.598
4.603
4.603
4.603
4.602
4.610
4.606
4.608
4.606
4.603
4.604
4.602
4.602
4.599
4.593
4.592
4.597
4.608
4.606
4.605
4.606
4.601
4.600
4.604
4.605
4.598
4.594
4.593
4.584
4.583
4.583
4.585
4.586
4.588
4.594
4.599
4.607
4.615
4.621
4.622
4.619
4.609
4.612
4.618
4.623
4.629
4.634
4.640
4.645
4.651
4.656
4.662
4.667
4.673
4.678
4.684
4.689
4.695
4.700
4.702
4.704
4.707
4.708
4.715
4.715
4.710
4.713
4.711
4.704
4.696
4.692
4.692
4.687
4.691
4.691
4.689
4.683
4.688
4.692
4.691
4.691
4.689
4.692
4.690
4.690
4.687
4.684
4.689
4.692
4.687
4.682
4.678
4.670
4.666
4.659
4.663
4.658
4.660
4.667
4.664
4.662
4.662
4.665
4.661
4.662
4.668
4.664
4.666
4.664
4.671
4.667
4.663
4.663
4.658
4.657
4.652
4.649
4.656
4.661
4.668
4.667
4.674
4.672
4.669
4.667
4.667
4.661
4.656
4.650
4.649
4.646
4.641
4.636
4.641
4.648
4.655
4.662
4.670
4.673
4.667
4.663
4.661
4.661
4.653
4.648
4.649
4.643
4.653
4.648
4.647
4.642
4.638
4.634
4.629
4.625
4.620
4.616
4.612
4.608
4.603
4.599
4.594
4.593
4.597
4.591
4.585
4.584
4.580
4.580
4.586
4.594
4.602
4.605
4.608
4.611
4.608
4.605
4.612
4.612
4.609
4.603
4.597
4.592
4.586
4.587
4.592
4.591
4.598
4.598
4.594
4.593
4.586
4.579
4.582
4.588
4.585
4.581
4.581
4.577
4.586
4.588
4.588
4.587
4.583
4.588
4.593
4.597
4.602
4.606
