2.991
3.291
3.440
3.534
3.688
3.729
3.677
3.731
3.789
3.799
3.845
3.891
3.902
3.957
3.944
3.984
4.001
4.004
4.033
4.046
4.070
4.054
4.071
4.089
4.116
4.102
4.139
4.156
4.150
4.170
4.142
4.151
4.149
4.156
4.180
4.182
4.196
4.219
4.200
4.216
4.219
4.227
4.245
4.259
4.267
4.289
4.263
4.242
4.263
4.298
4.308
4.303
4.294
4.309
4.324
4.309
4.275
4.291
4.289
4.300
4.300
4.268
4.260
4.290
4.277
4.304
4.285
4.302
4.296
4.329
4.330
4.329
4.318
4.321
4.315
4.314
4.330
4.314
4.342
4.353
4.346
4.367
4.376
4.349
4.374
4.363
4.359
4.386
4.356
4.333
4.338
4.349
4.335
4.365
4.347
4.343
4.341
4.380
4.348
4.350
4.357
4.383
4.369
4.356
4.366
4.384
4.392
4.391
4.386
4.381
4.404
4.415
4.399
4.408
4.402
4.407
4.421
4.392
4.377
4.357
4.393
4.421
4.396
4.394
4.380
4.368
4.398
4.432
4.416
4.416
4.400
4.422
4.408
4.416
4.448
4.455
4.443
4.433
4.404
4.424
4.425
4.442
4.434
4.445
4.426
4.424
4.425
4.425
4.412
4.441
4.471
4.479
4.489
4.474
4.463
4.473
4.450
4.437
4.442
4.470
4.490
4.499
4.491
4.471
4.475
4.477
4.468
4.478
4.476
4.467
4.489
4.473
4.454
4.434
4.429
4.412
4.414
4.393
4.406
4.430
4.455
4.479
4.480
4.475
4.451
4.441
4.447
4.432
4.433
4.412
4.396
4.407
4.430
4.453
4.475
4.470
4.456
4.458
4.463
4.449
4.441
4.426
4.440
4.444
4.427
4.419
4.408
4.429
4.451
4.472
4.484
4.492
4.483
4.457
4.446
4.453
4.469
4.463
4.444
4.432
4.427
4.420
4.424
4.426
4.419
4.439
4.458
4.478
4.498
4.500
4.481
4.481
4.482
4.480
4.463
4.468
4.468
4.470
4.451
4.459
4.453
4.460
4.463
4.460
4.442
4.444
4.443
4.461
4.479
4.497
4.515
4.521
4.518
4.507
4.515
4.532
4.531
4.514
4.504
4.513
4.515
4.509
4.507
4.495
4.488
4.480
4.501
4.494
4.488
4.499
4.485
4.472
4.471
4.477
4.494
4.510
4.514
4.499
4.496
4.511
4.515
4.501
4.486
4.473
4.474
4.486
4.484
4.482
4.482
4.476
4.462
4.465
4.472
4.465
4.462
4.463
4.458
4.459
4.443
4.437
4.428
4.438
4.452
4.467
4.482
4.496
4.511
4.526
4.540
4.533
4.539
4.542
4.549
4.541
4.536
4.538
4.540
4.524
4.519
4.520
4.518
4.507
4.501
4.509
4.522
4.523
4.517
4.525
4.520
4.539
4.541
4.528
4.531
4.532
4.524
4.530
4.523
4.508
4.508
4.497
4.487
4.477
4.477
4.489
4.502
4.515
4.516
4.525
4.534
4.519
4.509
4.515
4.518
4.521
4.528
4.537
4.524
4.521
4.506
4.492
4.483
4.477
4.468
4.475
4.476
4.463
4.474
4.491
4.487
4.487
4.481
4.488
4.481
4.484
4.479
4.474
4.473
4.471
4.465
4.468
4.473
4.479
4.496
4.496
4.495
4.492
4.477
4.478
4.474
4.470
4.462
4.473
4.484
4.496
4.507
4.519
4.530
4.541
4.547
4.539
4.538
4.531
4.522
4.515
4.511
4.508
4.513
4.509
4.507
4.507
4.524
4.508
4.503
4.501
4.508
4.515
4.521
4.515
4.518
4.525
4.515
4.512
4.515
4.499
4.486
4.483
4.489
4.485
4.479
4.481
4.491
4.488
4.485
4.470
4.466
4.469
4.463
4.458
4.468
4.478
4.480
4.472
4.473
4.482
4.491
4.493
4.477
4.466
4.458
4.461
4.459
4.466
4.464
4.455
4.458
4.456
4.466
4.476
4.485
4.495
4.505
4.515
4.524
4.534
4.544
4.554
4.563
4.573
4.570
4.561
4.562
4.555
4.546
4.564
4.559
4.555
4.557
4.541
4.549
4.548
4.552
4.565
4.549
4.547
4.556
4.548
4.542
4.539
4.534
4.532
4.537
4.529
4.518
4.529
4.542
4.548
4.540
4.526
4.524
4.523
4.516
4.516
4.512
4.499
4.510
4.512
4.505
4.521
4.529
4.526
4.525
4.517
4.512
4.524
4.532
4.529
4.525
4.530
4.537
4.523
4.518
4.516
4.510
4.513
4.511
4.512
4.517
4.510
4.506
4.503
4.495
4.495
4.492
4.500
4.503
4.512
4.496
4.498
4.498
4.500
4.497
4.505
4.504
4.502
4.492
4.489
4.499
4.497
4.494
4.490
4.483
4.492
4.500
4.508
4.516
4.524
4.532
4.540
4.548
4.556
4.565
4.554
4.550
4.563
4.547
4.546
4.556
4.550
4.553
4.544
4.533
4.544
4.533
4.518
4.532
4.527
4.524
4.520
4.528
4.540
4.550
4.545
4.543
4.537
4.547
4.538
4.533
4.521
4.518
4.526
4.530
4.540
4.537
4.534
4.544
4.544
4.538
4.542
4.533
4.545
4.537
4.525
4.520
4.523
4.514
4.518
4.511
4.517
4.500
4.503
4.505
4.507
4.503
4.509
4.500
4.488
4.489
4.491
4.496
4.500
4.489
4.483
4.479
4.487
4.476
4.486
4.497
4.491
4.484
4.469
4.478
4.466
4.474
4.481
4.484
4.482
4.474
4.464
4.474
4.474
4.472
4.485
4.480
4.473
4.483
4.469
4.471
4.476
4.475
4.474
4.463
4.463
4.461
4.468
4.477
4.482
4.494
4.491
4.497
4.507
4.516
4.526
4.528
4.534
4.528
4.514
4.511
4.517
4.515
4.502
4.498
4.488
4.495
4.498
4.491
4.487
4.487
4.490
4.492
4.492
4.490
4.484
4.486
4.485
4.490
4.479
4.474
4.475
4.481
4.488
4.494
4.501
4.507
4.514
4.520
4.527
4.533
4.540
4.546
4.553
4.559
4.566
4.572
4.579
4.585
4.589
4.580
4.584
4.592
4.579
4.576
4.574
4.569
4.574
4.586
4.592
4.594
4.595
4.597
4.587
4.582
4.572
4.569
4.562
4.565
4.564
4.562
4.564
4.572
4.564
4.564
4.562
4.561
4.559
4.559
4.557
4.549
4.553
4.556
4.548
4.547
4.563
4.552
4.549
4.550
4.560
4.570
4.578
4.581
4.578
4.570
4.566
4.568
4.569
4.575
4.575
4.576
4.582
4.575
4.574
4.569
4.562
4.551
4.540
4.538
4.536
4.526
4.530
4.539
4.538
4.540
4.541
4.533
4.536
4.545
4.553
4.561
4.563
4.555
4.544
4.544
4.538
4.530
4.529
4.528
4.537
4.531
4.530
4.524
4.533
4.543
4.541
4.541
4.537
4.532
4.526
4.520
4.514
4.521
4.519
4.508
4.510
4.505
4.498
4.498
4.500
4.489
4.490
4.483
4.481
4.483
4.483
4.486
4.475
4.483
4.491
4.494
4.492
4.492
4.494
4.496
4.494
4.491
4.500
4.498
4.500
4.507
4.509
4.515
4.519
4.516
4.508
4.511
4.502
4.499
4.496
4.489
4.489
4.486
4.477
4.477
4.478
4.472
4.476
4.469
4.466
4.459
4.468
4.459
4.454
4.448
4.449
4.447
4.456
4.454
4.455
4.451
4.448
4.451
4.459
4.459
4.457
4.461
4.462
4.458
4.459
4.461
4.463
4.471
4.466
4.463
4.460
4.459
4.459
4.453
4.455
4.451
4.454
4.450
4.445
4.453
4.462
4.471
4.472
4.474
4.472
4.463
4.466
4.463
4.455
4.454
4.450
4.439
4.440
4.439
4.434
4.430
4.435
4.431
4.421
4.431
4.442
4.450
4.440
4.441
4.441
4.443
4.440
4.436
4.435
4.440
4.445
4.450
4.455
4.460
4.465
4.470
4.475
4.479
4.484
4.489
4.494
4.499
4.504
4.509
4.513
4.518
4.523
4.528
4.533
4.538
4.543
4.548
4.553
4.557
4.562
4.567
4.572
4.577
4.581
4.586
4.591
4.596
4.601
4.606
4.611
4.616
4.621
4.625
4.630
4.635
4.640
4.645
4.645
4.639
4.637
4.635
4.633
4.626
4.631
4.618
4.611
4.610
4.610
4.605
4.604
4.608
4.603
4.602
4.597
4.598
4.599
4.606
4.604
4.604
4.602
4.601
4.597
4.603
4.602
4.604
4.599
4.600
4.589
4.588
4.587
4.587
4.589
4.587
4.577
4.574
4.573
4.578
4.571
4.564
4.560
4.568
4.576
4.568
4.579
