2.994
3.332
3.519
3.631
3.724
3.793
3.838
3.900
3.926
3.968
3.979
4.023
4.061
4.032
4.060
4.090
4.113
4.138
4.156
4.180
4.203
4.221
4.201
4.160
4.157
4.169
4.176
4.194
4.198
4.213
4.217
4.234
4.236
4.246
4.250
4.259
4.271
4.270
4.280
4.289
4.302
4.300
4.310
4.317
4.326
4.322
4.329
4.333
4.345
4.352
4.359
4.349
4.359
4.363
4.371
4.375
4.384
4.391
4.387
4.386
4.392
4.396
4.405
4.410
4.414
4.420
4.427
4.427
4.431
4.423
4.425
4.424
4.430
4.442
4.444
4.445
4.452
4.456
4.460
4.470
4.464
4.470
4.477
4.476
4.464
4.470
4.466
4.467
4.475
4.478
4.488
4.486
4.490
4.489
4.494
4.497
4.502
4.508
4.508
4.514
4.512
4.514
4.518
4.522
4.526
4.528
4.532
4.536
4.526
4.516
4.513
4.517
4.513
4.519
4.526
4.528
4.534
4.530
4.534
4.541
4.546
4.536
4.538
4.539
4.543
4.547
4.548
4.552
4.557
4.561
4.557
4.561
4.567
4.571
4.567
4.564
4.568
4.574
4.573
4.574
4.581
4.579
4.584
4.591
4.594
4.596
4.590
4.596
4.605
4.602
4.601
4.604
4.598
4.605
4.605
4.608
4.597
4.586
4.573
4.577
4.579
4.582
4.592
4.583
4.587
4.594
4.592
4.599
4.594
4.596
4.601
4.597
4.601
4.601
4.611
4.605
4.605
4.605
4.603
4.602
4.600
4.602
4.605
4.610
4.608
4.610
4.611
4.618
4.612
4.620
4.614
4.626
4.622
4.629
4.627
4.634
4.627
4.631
4.631
4.627
4.633
4.637
4.641
4.640
4.641
4.651
4.641
4.654
4.645
4.638
4.636
4.638
4.641
4.640
4.649
4.637
4.639
4.643
4.642
4.649
4.653
4.648
4.655
4.648
4.647
4.657
4.660
4.656
4.664
4.665
4.664
4.670
4.671
4.667
4.669
4.673
4.674
4.670
4.668
4.668
4.669
4.679
4.679
4.678
4.683
4.682
4.680
4.681
4.696
4.692
4.685
4.690
4.694
4.697
4.690
4.698
4.690
4.679
4.686
4.686
4.686
4.687
4.697
4.700
4.694
4.687
4.694
4.694
4.686
4.687
4.691
4.692
4.693
4.690
4.699
4.701
4.696
4.697
4.705
4.711
4.713
4.709
4.702
4.717
4.713
4.711
4.712
4.714
4.724
4.719
4.721
4.712
4.721
4.717
4.712
4.705
4.699
4.694
4.686
4.684
4.690
4.689
4.688
4.678
4.686
4.689
4.685
4.687
4.686
4.687
4.697
4.694
4.693
4.686
4.693
4.698
4.701
4.694
4.686
4.684
4.693
4.705
4.705
4.698
4.697
4.701
4.699
4.706
4.710
4.706
4.705
4.706
4.707
4.714
4.723
4.720
4.716
4.709
4.710
4.708
4.699
4.698
4.696
4.694
4.699
4.709
4.708
4.706
4.697
4.695
4.694
4.703
4.694
4.690
4.694
4.690
4.691
4.698
4.707
4.705
4.699
4.697
4.694
4.690
4.697
4.705
4.705
4.705
4.708
4.703
4.699
4.700
4.708
4.720
4.718
4.716
4.716
4.720
4.713
4.706
4.715
4.725
4.727
4.722
4.721
4.711
4.713
4.711
4.716
4.720
4.718
4.722
4.721
4.719
4.720
4.717
4.716
4.725
4.731
4.728
4.727
4.725
4.726
4.725
4.721
4.722
4.731
4.741
4.745
4.745
4.742
4.741
4.738
4.736
4.729
4.734
4.743
4.738
4.738
4.730
4.724
4.728
4.727
4.727
4.731
4.741
4.746
4.741
4.737
4.733
4.737
4.731
4.721
4.723
4.732
4.741
4.743
4.744
4.738
4.739
4.738
4.736
4.738
4.738
4.734
4.742
4.751
4.753
4.753
4.750
4.753
4.749
4.746
4.745
4.749
4.745
4.746
4.753
4.756
4.753
4.751
4.750
4.749
4.755
4.753
4.750
4.749
4.750
4.754
4.763
4.770
4.771
4.770
4.768
4.770
4.766
4.767
4.764
4.770
4.768
4.760
4.766
4.775
4.772
4.773
4.775
4.779
4.775
4.768
4.764
4.767
4.763
4.759
4.761
4.771
4.779
4.773
4.769
4.764
4.758
4.753
4.747
4.743
4.739
4.743
4.752
4.760
4.760
4.757
4.760
4.760
4.755
4.751
4.747
4.749
4.752
4.753
4.749
4.749
4.753
4.748
4.749
4.748
4.744
4.745
4.745
4.743
4.742
4.746
4.747
4.745
4.742
4.742
4.749
4.757
4.763
4.764
4.764
4.760
4.758
4.753
4.747
4.748
4.753
4.759
4.757
4.751
4.752
4.748
4.755
4.762
4.771
4.779
4.774
4.768
4.766
4.762
4.761
4.765
4.764
4.759
4.753
4.753
4.753
4.749
4.753
4.762
4.769
4.775
4.769
4.762
4.763
4.760
4.761
4.765
4.761
4.753
4.753
4.753
4.752
4.753
4.745
4.751
4.758
4.767
4.775
4.781
4.777
4.776
4.777
4.773
4.768
4.768
4.774
4.768
4.764
4.770
4.769
4.764
4.761
4.765
4.769
4.765
4.774
4.779
4.788
4.790
4.788
4.787
4.788
4.789
4.782
4.782
4.780
4.779
4.775
4.770
4.768
4.770
4.771
4.775
4.780
4.773
4.777
4.782
4.790
4.792
4.786
4.786
4.780
4.784
4.783
4.779
4.780
4.787
4.786
4.782
4.780
4.778
4.779
4.778
4.783
4.782
4.780
4.778
4.785
4.790
4.797
4.805
4.810
4.805
4.805
4.808
4.808
4.811
4.807
4.805
4.802
4.803
4.799
4.795
4.794
4.798
4.799
4.797
4.793
4.795
4.797
4.790
4.796
4.801
4.810
4.808
4.810
4.809
4.808
4.808
4.804
4.801
4.804
4.801
4.797
4.795
4.793
4.789
4.783
4.779
4.774
4.775
4.772
4.776
4.783
4.789
4.794
4.801
4.802
4.801
4.796
4.798
4.801
4.801
4.801
4.803
4.802
4.797
4.791
4.795
4.790
4.790
4.785
4.779
4.777
4.776
4.775
4.778
4.774
4.778
4.783
4.790
4.796
4.798
4.797
4.798
4.801
4.803
4.801
4.801
4.796
4.797
4.796
4.798
4.797
4.797
4.794
4.790
4.791
4.798
4.793
4.794
4.799
4.800
4.799
4.801
4.796
4.790
4.786
4.794
4.797
4.805
4.808
4.808
4.812
4.812
4.812
4.806
4.804
4.801
4.802
4.805
4.804
4.808
4.804
4.806
4.804
4.801
4.802
4.805
4.805
4.805
4.804
4.805
4.804
4.800
4.801
4.798
4.799
4.806
4.807
4.805
4.812
4.816
4.823
4.828
4.829
4.825
4.826
4.828
4.824
4.822
4.816
4.816
4.813
4.816
4.816
4.819
4.815
4.817
4.820
4.825
4.826
4.820
4.823
4.820
4.821
4.822
4.823
4.822
4.823
4.822
4.820
4.816
4.812
4.816
4.820
4.825
4.831
4.836
4.842
4.838
4.832
4.838
4.837
4.838
4.837
4.834
4.835
4.833
4.832
4.830
4.827
4.831
4.827
4.827
4.827
4.823
4.827
4.828
4.827
4.822
4.821
4.825
4.823
4.820
4.816
4.812
4.808
4.806
4.812
4.817
4.821
4.827
4.832
4.833
4.832
4.830
4.824
4.828
4.831
4.827
4.823
4.827
4.827
4.825
4.827
4.828
4.829
4.834
4.826
4.827
4.829
4.833
4.826
4.823
4.821
4.817
4.818
4.816
4.816
4.814
4.813
4.814
4.812
4.816
4.818
4.812
4.816
4.819
4.824
4.823
4.829
4.834
4.838
4.844
4.849
4.853
4.854
4.850
4.846
4.845
4.846
4.849
4.848
4.847
4.845
4.847
4.845
4.847
4.846
4.844
4.840
4.839
4.843
4.839
4.837
4.839
4.845
4.847
4.849
4.849
4.845
4.845
4.848
4.844
4.843
4.838
4.840
4.841
4.845
4.839
4.840
4.841
4.840
4.836
4.837
4.842
4.848
4.853
4.857
4.863
4.867
4.872
4.873
4.869
4.864
4.861
4.860
4.861
4.864
4.860
4.857
4.861
4.859
4.860
4.857
4.861
4.860
4.857
4.856
4.855
4.854
4.857
4.854
4.855
4.854
4.852
4.848
4.845
4.843
4.839
4.837
4.836
4.832
4.830
4.827
4.825
4.821
4.819
4.823
4.828
4.834
4.838
4.842
4.842
4.843
4.841
4.838
4.834
4.834
4.833
4.835
4.836
4.832
4.833
4.834
4.834
4.835
4.836
4.834
4.831
4.832
