2.994
3.334
3.512
3.637
3.721
3.794
3.834
3.878
3.937
3.960
4.009
4.007
4.045
4.081
4.094
4.076
4.102
4.125
4.146
4.164
4.187
4.208
4.220
4.238
4.255
4.223
4.186
4.193
4.201
4.216
4.219
4.234
4.239
4.249
4.255
4.265
4.266
4.276
4.288
4.287
4.297
4.309
4.307
4.314
4.323
4.333
4.334
4.333
4.346
4.350
4.359
4.361
4.357
4.371
4.373
4.382
4.387
4.394
4.382
4.390
4.398
4.402
4.408
4.412
4.417
4.426
4.419
4.416
4.425
4.424
4.431
4.440
4.445
4.446
4.449
4.456
4.461
4.465
4.450
4.456
4.458
4.457
4.468
4.470
4.475
4.481
4.475
4.487
4.486
4.490
4.497
4.498
4.502
4.501
4.508
4.500
4.496
4.495
4.499
4.500
4.501
4.508
4.515
4.517
4.516
4.525
4.518
4.522
4.526
4.531
4.532
4.539
4.538
4.545
4.540
4.547
4.549
4.550
4.554
4.558
4.559
4.568
4.568
4.556
4.543
4.547
4.546
4.545
4.546
4.552
4.556
4.556
4.562
4.564
4.564
4.563
4.568
4.574
4.565
4.569
4.570
4.572
4.571
4.577
4.578
4.583
4.589
4.593
4.595
4.593
4.594
4.593
4.601
4.602
4.595
4.599
4.603
4.604
4.603
4.604
4.609
4.610
4.612
4.618
4.620
4.618
4.627
4.624
4.623
4.626
4.634
4.631
4.631
4.632
4.633
4.629
4.634
4.635
4.625
4.615
4.605
4.605
4.606
4.608
4.614
4.610
4.622
4.616
4.617
4.618
4.623
4.624
4.625
4.627
4.627
4.632
4.627
4.635
4.630
4.638
4.639
4.642
4.630
4.632
4.633
4.635
4.630
4.640
4.628
4.637
4.636
4.642
4.641
4.643
4.642
4.643
4.649
4.646
4.655
4.651
4.650
4.659
4.655
4.664
4.664
4.657
4.661
4.656
4.661
4.656
4.661
4.670
4.664
4.670
4.675
4.675
4.677
4.678
4.677
4.668
4.660
4.671
4.669
4.662
4.675
4.678
4.672
4.670
4.672
4.667
4.680
4.673
4.674
4.681
4.682
4.676
4.683
4.678
4.683
4.682
4.690
4.687
4.686
4.697
4.696
4.694
4.697
4.700
4.699
4.694
4.704
4.701
4.693
4.697
4.701
4.700
4.699
4.705
4.708
4.706
4.707
4.711
4.713
4.711
4.710
4.717
4.723
4.717
4.715
4.722
4.726
4.728
4.719
4.720
4.710
4.709
4.708
4.717
4.719
4.714
4.713
4.722
4.729
4.722
4.713
4.717
4.724
4.720
4.716
4.712
4.723
4.722
4.721
4.720
4.721
4.727
4.729
4.730
4.726
4.727
4.737
4.741
4.737
4.738
4.732
4.744
4.742
4.739
4.742
4.739
4.746
4.753
4.743
4.747
4.748
4.742
4.737
4.730
4.726
4.720
4.715
4.716
4.713
4.711
4.721
4.720
4.715
4.714
4.705
4.714
4.710
4.712
4.713
4.711
4.713
4.720
4.726
4.722
4.719
4.720
4.716
4.723
4.734
4.730
4.723
4.717
4.715
4.720
4.729
4.727
4.732
4.730
4.727
4.723
4.731
4.736
4.732
4.731
4.735
4.734
4.732
4.736
4.746
4.750
4.748
4.747
4.743
4.739
4.737
4.731
4.724
4.727
4.719
4.720
4.727
4.736
4.734
4.731
4.732
4.731
4.724
4.725
4.732
4.730
4.723
4.719
4.715
4.716
4.719
4.730
4.735
4.731
4.734
4.731
4.726
4.720
4.723
4.733
4.737
4.730
4.727
4.727
4.731
4.728
4.729
4.733
4.743
4.738
4.740
4.741
4.742
4.736
4.737
4.741
4.740
4.749
4.745
4.744
4.746
4.747
4.746
4.745
4.743
4.742
4.751
4.755
4.748
4.741
4.740
4.742
4.745
4.741
4.742
4.750
4.760
4.755
4.757
4.753
4.751
4.749
4.748
4.749
4.748
4.756
4.762
4.763
4.762
4.761
4.764
4.760
4.764
4.761
4.762
4.760
4.768
4.775
4.771
4.769
4.768
4.761
4.759
4.758
4.756
4.753
4.762
4.766
4.768
4.768
4.764
4.761
4.762
4.761
4.759
4.758
4.756
4.764
4.767
4.764
4.764
4.760
4.760
4.760
4.757
4.756
4.759
4.756
4.762
4.771
4.779
4.777
4.776
4.777
4.775
4.768
4.770
4.774
4.768
4.769
4.770
4.772
4.781
4.788
4.786
4.783
4.781
4.774
4.770
4.769
4.767
4.768
4.775
4.769
4.778
4.785
4.789
4.790
4.789
4.791
4.787
4.788
4.789
4.786
4.784
4.783
4.786
4.783
4.786
4.793
4.803
4.810
4.811
4.804
4.801
4.799
4.794
4.790
4.797
4.794
4.789
4.791
4.789
4.796
4.803
4.804
4.805
4.801
4.801
4.799
4.797
4.797
4.794
4.788
4.784
4.780
4.782
4.786
4.781
4.783
4.779
4.780
4.778
4.775
4.779
4.777
4.781
4.775
4.775
4.769
4.775
4.782
4.789
4.788
4.792
4.794
4.789
4.782
4.776
4.772
4.768
4.766
4.762
4.763
4.760
4.768
4.773
4.782
4.779
4.783
4.781
4.782
4.784
4.785
4.782
4.780
4.776
4.775
4.775
4.772
4.770
4.769
4.773
4.777
4.782
4.790
4.792
4.791
4.795
4.794
4.792
4.788
4.784
4.785
4.786
4.793
4.794
4.791
4.794
4.791
4.787
4.780
4.786
4.791
4.798
4.801
4.798
4.797
4.790
4.788
4.789
4.790
4.789
4.788
4.786
4.786
4.787
4.786
4.784
4.779
4.778
4.785
4.790
4.799
4.797
4.791
4.792
4.786
4.786
4.788
4.790
4.788
4.786
4.785
4.786
4.783
4.786
4.786
4.782
4.780
4.781
4.785
4.792
4.799
4.805
4.812
4.809
4.805
4.806
4.807
4.801
4.801
4.801
4.801
4.798
4.802
4.801
4.802
4.800
4.802
4.805
4.801
4.803
4.801
4.798
4.804
4.809
4.815
4.816
4.810
4.809
4.816
4.811
4.812
4.814
4.812
4.811
4.807
4.800
4.801
4.797
4.797
4.794
4.799
4.801
4.801
4.798
4.797
4.805
4.810
4.816
4.819
4.820
4.821
4.819
4.815
4.816
4.815
4.816
4.816
4.820
4.824
4.822
4.818
4.814
4.813
4.816
4.813
4.816
4.813
4.814
4.813
4.809
4.808
4.816
4.821
4.828
4.834
4.839
4.840
4.839
4.838
4.834
4.832
4.830
4.829
4.831
4.829
4.828
4.827
4.828
4.827
4.825
4.826
4.823
4.819
4.819
4.823
4.817
4.818
4.817
4.821
4.827
4.832
4.831
4.827
4.822
4.819
4.816
4.813
4.816
4.813
4.809
4.808
4.806
4.807
4.805
4.804
4.808
4.805
4.803
4.808
4.806
4.808
4.809
4.810
4.809
4.810
4.816
4.821
4.827
4.832
4.838
4.831
4.830
4.827
4.822
4.819
4.816
4.813
4.809
4.810
4.814
4.813
4.814
4.815
4.812
4.812
4.806
4.804
4.803
4.802
4.803
4.801
4.800
4.799
4.805
4.810
4.816
4.819
4.825
4.829
4.830
4.835
4.839
4.840
4.838
4.835
4.831
4.829
4.833
4.832
4.834
4.832
4.833
4.832
4.830
4.826
4.822
4.823
4.819
4.821
4.820
4.819
4.822
4.819
4.817
4.815
4.811
4.808
4.814
4.819
4.825
4.829
4.834
4.838
4.839
4.838
4.838
4.840
4.841
4.840
4.838
4.835
4.841
4.838
4.842
4.840
4.842
4.843
4.841
4.835
4.839
4.842
4.841
4.842
4.839
4.837
4.839
4.834
4.830
4.826
4.825
4.827
4.827
4.824
4.825
4.826
4.831
4.837
4.842
4.846
4.850
4.856
4.858
4.860
4.858
4.857
4.853
4.851
4.850
4.851
4.850
4.851
4.853
4.856
4.855
4.851
4.852
4.856
4.858
4.860
4.861
4.862
4.856
4.853
4.849
4.848
4.849
4.849
4.845
4.843
4.842
4.842
4.842
4.842
4.845
4.845
4.842
4.846
4.850
4.856
4.861
4.865
4.864
4.864
4.869
4.865
4.866
4.865
4.868
4.864
4.864
4.860
4.858
4.859
4.860
4.860
4.858
4.854
4.852
4.848
4.842
4.840
4.836
4.834
4.834
4.838
4.831
4.835
4.839
4.837
4.834
4.835
4.834
4.838
4.838
4.834
4.836
4.840
4.845
4.848
4.853
4.859
4.863
4.868
4.864
4.864
4.863
4.860
4.856
4.859
