2.994
3.332
3.516
3.628
3.721
3.776
3.841
3.886
3.912
3.968
3.970
4.010
4.051
4.084
4.052
4.081
4.101
4.124
4.151
4.168
4.192
4.212
4.230
4.248
4.219
4.181
4.181
4.190
4.203
4.210
4.222
4.229
4.240
4.247
4.258
4.261
4.271
4.281
4.279
4.289
4.301
4.300
4.314
4.318
4.326
4.324
4.336
4.338
4.347
4.354
4.347
4.357
4.362
4.373
4.378
4.385
4.375
4.384
4.386
4.393
4.402
4.406
4.413
4.415
4.403
4.410
4.419
4.423
4.427
4.433
4.438
4.439
4.446
4.451
4.455
4.442
4.446
4.450
4.451
4.455
4.460
4.469
4.470
4.470
4.473
4.483
4.487
4.489
4.488
4.494
4.496
4.497
4.484
4.486
4.492
4.491
4.493
4.497
4.501
4.513
4.509
4.513
4.510
4.518
4.517
4.521
4.529
4.530
4.534
4.536
4.529
4.540
4.537
4.543
4.550
4.549
4.555
4.558
4.551
4.536
4.539
4.536
4.536
4.538
4.544
4.546
4.548
4.549
4.556
4.552
4.558
4.562
4.566
4.562
4.562
4.566
4.566
4.570
4.572
4.576
4.580
4.581
4.581
4.581
4.584
4.587
4.594
4.592
4.588
4.593
4.594
4.592
4.595
4.592
4.602
4.603
4.603
4.610
4.611
4.612
4.613
4.615
4.621
4.618
4.624
4.628
4.624
4.618
4.622
4.628
4.627
4.617
4.607
4.596
4.599
4.593
4.600
4.603
4.607
4.612
4.602
4.612
4.611
4.618
4.616
4.612
4.619
4.618
4.621
4.618
4.627
4.625
4.635
4.628
4.621
4.623
4.627
4.625
4.625
4.626
4.624
4.626
4.630
4.626
4.636
4.629
4.640
4.636
4.643
4.639
4.641
4.647
4.644
4.648
4.647
4.653
4.647
4.647
4.654
4.645
4.654
4.655
4.654
4.664
4.663
4.664
4.671
4.664
4.673
4.662
4.658
4.658
4.655
4.661
4.663
4.662
4.665
4.658
4.662
4.666
4.663
4.666
4.674
4.667
4.668
4.677
4.668
4.669
4.681
4.677
4.676
4.686
4.687
4.686
4.685
4.694
4.688
4.686
4.695
4.692
4.693
4.692
4.693
4.684
4.688
4.702
4.696
4.695
4.698
4.705
4.701
4.699
4.706
4.711
4.710
4.705
4.712
4.714
4.712
4.713
4.717
4.713
4.704
4.703
4.709
4.703
4.704
4.707
4.720
4.714
4.717
4.711
4.714
4.711
4.707
4.707
4.712
4.711
4.709
4.707
4.715
4.721
4.714
4.718
4.715
4.722
4.728
4.727
4.726
4.729
4.729
4.735
4.733
4.732
4.725
4.736
4.740
4.740
4.737
4.732
4.739
4.740
4.734
4.727
4.723
4.718
4.712
4.705
4.707
4.711
4.706
4.707
4.704
4.705
4.701
4.702
4.701
4.700
4.699
4.711
4.714
4.711
4.712
4.710
4.706
4.716
4.725
4.721
4.718
4.713
4.707
4.719
4.712
4.719
4.717
4.718
4.715
4.719
4.729
4.724
4.723
4.721
4.721
4.722
4.729
4.735
4.737
4.735
4.731
4.738
4.733
4.736
4.733
4.725
4.718
4.711
4.717
4.725
4.725
4.721
4.718
4.722
4.721
4.719
4.726
4.725
4.720
4.718
4.710
4.705
4.714
4.724
4.720
4.719
4.721
4.721
4.720
4.711
4.721
4.725
4.721
4.722
4.717
4.718
4.715
4.718
4.726
4.733
4.729
4.730
4.728
4.727
4.728
4.727
4.728
4.736
4.747
4.743
4.734
4.736
4.731
4.733
4.736
4.733
4.740
4.744
4.742
4.740
4.734
4.730
4.734
4.729
4.736
4.746
4.748
4.751
4.745
4.744
4.740
4.736
4.740
4.740
4.745
4.752
4.753
4.752
4.747
4.754
4.750
4.751
4.747
4.749
4.751
4.762
4.770
4.766
4.759
4.757
4.759
4.757
4.751
4.744
4.751
4.755
4.753
4.758
4.756
4.755
4.751
4.754
4.747
4.749
4.750
4.758
4.761
4.752
4.751
4.747
4.755
4.749
4.744
4.746
4.744
4.751
4.759
4.766
4.769
4.768
4.764
4.765
4.764
4.758
4.761
4.760
4.758
4.758
4.767
4.776
4.773
4.773
4.777
4.777
4.772
4.763
4.758
4.758
4.759
4.760
4.769
4.776
4.781
4.781
4.775
4.781
4.775
4.779
4.780
4.774
4.773
4.773
4.770
4.773
4.781
4.790
4.795
4.796
4.795
4.796
4.795
4.790
4.783
4.784
4.789
4.787
4.781
4.781
4.789
4.796
4.792
4.793
4.794
4.793
4.789
4.790
4.784
4.785
4.789
4.785
4.781
4.779
4.781
4.779
4.770
4.768
4.770
4.766
4.769
4.765
4.767
4.768
4.769
4.765
4.769
4.777
4.778
4.777
4.783
4.782
4.778
4.779
4.778
4.773
4.767
4.762
4.758
4.752
4.759
4.766
4.773
4.770
4.773
4.768
4.770
4.770
4.775
4.774
4.772
4.770
4.769
4.763
4.761
4.760
4.759
4.766
4.775
4.781
4.780
4.781
4.780
4.779
4.783
4.777
4.777
4.774
4.775
4.781
4.781
4.779
4.781
4.779
4.777
4.776
4.781
4.788
4.789
4.788
4.791
4.792
4.786
4.782
4.778
4.777
4.777
4.773
4.773
4.776
4.777
4.777
4.778
4.776
4.780
4.787
4.794
4.792
4.786
4.784
4.775
4.776
4.780
4.784
4.781
4.774
4.773
4.773
4.773
4.773
4.770
4.771
4.772
4.779
4.786
4.793
4.800
4.803
4.800
4.796
4.794
4.793
4.791
4.795
4.791
4.787
4.789
4.792
4.795
4.787
4.789
4.790
4.792
4.795
4.789
4.792
4.799
4.804
4.811
4.804
4.805
4.804
4.805
4.803
4.802
4.798
4.800
4.804
4.802
4.799
4.794
4.788
4.784
4.792
4.789
4.787
4.786
4.793
4.800
4.806
4.810
4.810
4.811
4.807
4.807
4.809
4.808
4.804
4.803
4.809
4.810
4.810
4.810
4.806
4.805
4.803
4.802
4.807
4.805
4.804
4.802
4.798
4.805
4.812
4.816
4.823
4.830
4.834
4.830
4.831
4.830
4.829
4.827
4.821
4.818
4.817
4.818
4.817
4.816
4.818
4.824
4.821
4.816
4.812
4.810
4.809
4.808
4.812
4.813
4.818
4.824
4.821
4.821
4.818
4.821
4.820
4.816
4.812
4.808
4.803
4.799
4.795
4.799
4.796
4.795
4.793
4.792
4.796
4.794
4.798
4.800
4.799
4.799
4.801
4.808
4.812
4.819
4.825
4.827
4.828
4.827
4.825
4.818
4.818
4.818
4.810
4.807
4.804
4.802
4.801
4.802
4.804
4.808
4.807
4.802
4.796
4.791
4.793
4.791
4.790
4.792
4.798
4.803
4.810
4.814
4.820
4.821
4.820
4.825
4.826
4.827
4.825
4.825
4.821
4.821
4.821
4.822
4.823
4.824
4.823
4.819
4.818
4.821
4.820
4.814
4.814
4.814
4.814
4.813
4.807
4.807
4.806
4.802
4.804
4.811
4.817
4.821
4.826
4.827
4.833
4.829
4.825
4.827
4.831
4.830
4.826
4.827
4.829
4.827
4.833
4.829
4.829
4.829
4.826
4.829
4.833
4.830
4.828
4.830
4.829
4.829
4.833
4.827
4.821
4.819
4.817
4.819
4.821
4.818
4.820
4.825
4.831
4.835
4.840
4.846
4.848
4.847
4.847
4.844
4.845
4.843
4.842
4.841
4.837
4.838
4.842
4.844
4.847
4.841
4.842
4.843
4.847
4.851
4.851
4.851
4.848
4.849
4.847
4.843
4.840
4.840
4.837
4.835
4.833
4.833
4.833
4.835
4.833
4.835
4.840
4.844
4.850
4.854
4.855
4.855
4.856
4.860
4.862
4.862
4.858
4.854
4.853
4.851
4.848
4.849
4.847
4.849
4.856
4.855
4.851
4.851
4.847
4.843
4.839
4.836
4.831
4.829
4.826
4.827
4.825
4.825
4.826
4.827
4.825
4.825
4.826
4.827
4.833
4.838
4.842
4.846
4.851
4.857
4.855
4.852
4.853
4.858
4.856
4.851
4.848
4.847
4.847
4.846
4.845
4.851
4.851
4.851
4.848
4.849
4.848
4.851
4.850
4.844
4.840
4.840
4.839
4.836
4.837
4.838
4.839
4.836
4.839
4.838
4.839
4.838
4.840
4.838
4.839
4.836
4.840
4.846
4.842
4.843
4.847
4.852
4.858
4.860
4.866
4.870
4.872
4.870
4.867
4.868
4.873
