2.994
3.334
3.517
3.636
3.720
3.785
3.854
3.899
3.936
3.955
4.005
4.003
4.038
4.072
4.106
4.089
4.099
4.119
4.140
4.163
4.181
4.201
4.221
4.239
4.255
4.272
4.244
4.209
4.200
4.217
4.222
4.226
4.240
4.244
4.255
4.267
4.271
4.280
4.281
4.291
4.301
4.302
4.310
4.319
4.328
4.329
4.334
4.341
4.348
4.347
4.353
4.360
4.369
4.374
4.370
4.373
4.384
4.387
4.395
4.398
4.407
4.398
4.400
4.410
4.413
4.418
4.425
4.428
4.435
4.440
4.427
4.431
4.441
4.440
4.446
4.451
4.458
4.458
4.462
4.469
4.474
4.475
4.468
4.466
4.471
4.475
4.473
4.480
4.484
4.488
4.495
4.491
4.499
4.500
4.506
4.507
4.512
4.516
4.517
4.522
4.515
4.508
4.510
4.513
4.510
4.513
4.518
4.521
4.525
4.533
4.534
4.535
4.532
4.538
4.534
4.543
4.547
4.552
4.551
4.554
4.561
4.554
4.562
4.562
4.562
4.569
4.573
4.574
4.577
4.579
4.566
4.558
4.559
4.557
4.561
4.565
4.562
4.565
4.569
4.573
4.573
4.581
4.577
4.577
4.580
4.587
4.578
4.582
4.584
4.587
4.588
4.592
4.594
4.596
4.597
4.599
4.605
4.603
4.605
4.610
4.610
4.612
4.610
4.606
4.613
4.615
4.616
4.614
4.619
4.620
4.621
4.625
4.629
4.631
4.635
4.637
4.633
4.632
4.640
4.637
4.646
4.647
4.643
4.642
4.647
4.642
4.646
4.644
4.635
4.625
4.616
4.617
4.614
4.618
4.622
4.625
4.627
4.631
4.633
4.625
4.636
4.634
4.643
4.639
4.636
4.636
4.644
4.637
4.647
4.645
4.651
4.648
4.654
4.645
4.644
4.644
4.652
4.644
4.647
4.647
4.646
4.647
4.646
4.653
4.647
4.659
4.655
4.656
4.655
4.658
4.665
4.662
4.665
4.667
4.666
4.672
4.671
4.672
4.671
4.670
4.676
4.672
4.666
4.677
4.674
4.677
4.684
4.684
4.681
4.691
4.687
4.684
4.685
4.675
4.681
4.683
4.674
4.684
4.684
4.684
4.688
4.680
4.677
4.686
4.685
4.686
4.690
4.694
4.688
4.689
4.696
4.694
4.685
4.702
4.698
4.699
4.698
4.708
4.706
4.705
4.709
4.716
4.714
4.707
4.714
4.714
4.710
4.710
4.712
4.708
4.707
4.713
4.720
4.719
4.715
4.719
4.723
4.724
4.721
4.722
4.729
4.727
4.729
4.729
4.731
4.733
4.729
4.730
4.737
4.733
4.728
4.719
4.726
4.727
4.723
4.721
4.729
4.733
4.734
4.733
4.732
4.732
4.729
4.729
4.725
4.732
4.731
4.725
4.728
4.727
4.737
4.736
4.742
4.736
4.731
4.740
4.745
4.741
4.742
4.741
4.744
4.755
4.751
4.751
4.750
4.746
4.755
4.755
4.758
4.754
4.753
4.755
4.761
4.755
4.750
4.744
4.740
4.736
4.731
4.725
4.726
4.732
4.728
4.727
4.723
4.719
4.731
4.727
4.718
4.716
4.715
4.722
4.732
4.730
4.731
4.732
4.723
4.730
4.734
4.735
4.736
4.733
4.732
4.735
4.731
4.740
4.732
4.732
4.728
4.730
4.728
4.736
4.747
4.744
4.745
4.738
4.740
4.736
4.740
4.749
4.750
4.751
4.748
4.749
4.745
4.744
4.753
4.763
4.762
4.755
4.748
4.743
4.739
4.743
4.740
4.740
4.737
4.735
4.732
4.735
4.745
4.752
4.747
4.738
4.742
4.740
4.734
4.736
4.736
4.736
4.731
4.733
4.732
4.730
4.731
4.740
4.748
4.744
4.742
4.741
4.737
4.732
4.729
4.736
4.745
4.746
4.745
4.743
4.745
4.746
4.744
4.741
4.740
4.749
4.755
4.758
4.756
4.757
4.755
4.755
4.755
4.754
4.751
4.760
4.761
4.758
4.762
4.762
4.753
4.749
4.748
4.751
4.758
4.758
4.759
4.762
4.755
4.757
4.758
4.758
4.758
4.757
4.761
4.769
4.766
4.769
4.767
4.762
4.759
4.760
4.762
4.763
4.761
4.768
4.778
4.781
4.777
4.776
4.781
4.777
4.780
4.777
4.773
4.773
4.773
4.782
4.780
4.773
4.770
4.769
4.772
4.765
4.764
4.760
4.764
4.773
4.778
4.779
4.783
4.777
4.775
4.779
4.773
4.769
4.769
4.765
4.769
4.776
4.780
4.774
4.770
4.771
4.778
4.776
4.778
4.771
4.772
4.769
4.772
4.777
4.784
4.793
4.792
4.785
4.783
4.788
4.784
4.785
4.789
4.785
4.780
4.781
4.783
4.790
4.797
4.792
4.789
4.790
4.789
4.782
4.784
4.784
4.786
4.782
4.788
4.785
4.788
4.795
4.803
4.806
4.803
4.804
4.797
4.798
4.803
4.801
4.800
4.799
4.799
4.798
4.799
4.796
4.805
4.814
4.819
4.815
4.810
4.812
4.811
4.809
4.803
4.803
4.810
4.809
4.805
4.799
4.800
4.807
4.814
4.812
4.816
4.812
4.807
4.803
4.797
4.795
4.791
4.785
4.781
4.785
4.789
4.795
4.795
4.798
4.795
4.792
4.794
4.793
4.791
4.795
4.789
4.787
4.786
4.787
4.786
4.782
4.788
4.795
4.800
4.796
4.792
4.787
4.781
4.779
4.780
4.777
4.778
4.776
4.777
4.776
4.773
4.773
4.780
4.787
4.794
4.799
4.802
4.796
4.795
4.792
4.794
4.792
4.788
4.790
4.789
4.790
4.788
4.792
4.784
4.785
4.781
4.788
4.794
4.801
4.808
4.809
4.808
4.804
4.805
4.803
4.800
4.803
4.803
4.804
4.808
4.803
4.800
4.796
4.789
4.787
4.791
4.795
4.802
4.807
4.803
4.804
4.805
4.803
4.803
4.806
4.803
4.806
4.803
4.801
4.797
4.793
4.791
4.790
4.789
4.790
4.791
4.795
4.800
4.807
4.803
4.803
4.807
4.804
4.800
4.796
4.802
4.804
4.802
4.799
4.802
4.804
4.800
4.799
4.800
4.795
4.794
4.798
4.797
4.801
4.805
4.812
4.818
4.823
4.822
4.817
4.814
4.814
4.813
4.818
4.819
4.817
4.813
4.815
4.814
4.820
4.814
4.814
4.816
4.817
4.816
4.810
4.811
4.809
4.814
4.818
4.824
4.823
4.824
4.823
4.827
4.829
4.824
4.818
4.818
4.818
4.814
4.815
4.813
4.810
4.808
4.806
4.810
4.812
4.813
4.810
4.808
4.812
4.813
4.818
4.824
4.829
4.835
4.829
4.829
4.829
4.830
4.834
4.829
4.831
4.830
4.832
4.836
4.832
4.832
4.828
4.829
4.826
4.822
4.831
4.829
4.829
4.825
4.825
4.824
4.826
4.825
4.832
4.836
4.842
4.847
4.847
4.847
4.844
4.849
4.847
4.847
4.845
4.846
4.844
4.841
4.837
4.833
4.834
4.835
4.836
4.836
4.839
4.833
4.831
4.833
4.832
4.830
4.826
4.827
4.831
4.833
4.829
4.824
4.825
4.824
4.828
4.827
4.826
4.827
4.823
4.819
4.818
4.818
4.821
4.822
4.818
4.822
4.823
4.819
4.820
4.818
4.821
4.821
4.820
4.821
4.820
4.821
4.823
4.829
4.834
4.838
4.839
4.835
4.834
4.832
4.828
4.829
4.829
4.824
4.826
4.824
4.825
4.829
4.823
4.821
4.820
4.824
4.825
4.819
4.818
4.818
4.817
4.818
4.817
4.818
4.815
4.811
4.814
4.818
4.823
4.827
4.832
4.838
4.844
4.846
4.851
4.852
4.851
4.851
4.850
4.846
4.847
4.846
4.847
4.846
4.842
4.838
4.834
4.836
4.832
4.835
4.831
4.829
4.829
4.833
4.834
4.833
4.831
4.827
4.829
4.827
4.825
4.825
4.825
4.827
4.832
4.836
4.842
4.846
4.851
4.854
4.853
4.852
4.858
4.852
4.850
4.849
4.848
4.852
4.855
4.860
4.859
4.855
4.853
4.852
4.851
4.854
4.853
4.851
4.851
4.849
4.847
4.846
4.842
4.840
4.840
4.836
4.832
4.836
4.839
4.840
4.837
4.840
4.842
4.843
4.847
4.852
4.855
4.860
4.866
4.871
4.873
4.869
4.867
4.868
4.867
4.868
4.867
4.866
4.862
4.865
4.869
4.873
4.872
4.869
4.867
4.869
4.867
4.868
4.867
4.865
4.866
4.865
4.862
4.860
4.859
4.862
4.859
4.857
4.855
