2.982
3.315
3.503
3.618
3.666
3.781
3.782
3.848
3.915
3.969
3.901
3.905
3.931
3.958
3.981
4.001
4.026
4.039
4.051
4.071
4.089
4.097
4.124
4.118
4.130
4.153
4.165
4.166
4.175
4.181
4.206
4.216
4.231
4.205
4.220
4.238
4.248
4.251
4.261
4.270
4.284
4.293
4.290
4.270
4.276
4.294
4.287
4.298
4.311
4.320
4.328
4.330
4.331
4.336
4.352
4.359
4.359
4.366
4.361
4.371
4.377
4.354
4.352
4.347
4.364
4.376
4.373
4.360
4.368
4.375
4.384
4.391
4.401
4.385
4.395
4.409
4.411
4.409
4.418
4.402
4.396
4.415
4.405
4.425
4.424
4.430
4.438
4.444
4.431
4.448
4.459
4.456
4.465
4.465
4.461
4.486
4.463
4.465
4.463
4.452
4.456
4.465
4.480
4.475
4.483
4.485
4.487
4.493
4.502
4.490
4.512
4.494
4.516
4.501
4.485
4.473
4.463
4.463
4.472
4.467
4.487
4.489
4.481
4.500
4.493
4.493
4.504
4.482
4.480
4.483
4.470
4.472
4.461
4.474
4.481
4.474
4.478
4.488
4.492
4.488
4.499
4.492
4.492
4.489
4.507
4.492
4.494
4.505
4.521
4.516
4.510
4.515
4.530
4.527
4.505
4.519
4.529
4.518
4.502
4.517
4.524
4.525
4.521
4.522
4.537
4.532
4.523
4.522
4.523
4.544
4.551
4.549
4.547
4.537
4.556
4.563
4.557
4.556
4.548
4.554
4.568
4.567
4.565
4.548
4.548
4.560
4.545
4.538
4.528
4.532
4.548
4.530
4.531
4.526
4.515
4.529
4.552
4.554
4.550
4.540
4.541
4.540
4.542
4.553
4.557
4.557
4.545
4.539
4.536
4.545
4.559
4.550
4.550
4.549
4.544
4.542
4.540
4.560
4.576
4.580
4.564
4.558
4.563
4.559
4.555
4.562
4.571
4.577
4.576
4.570
4.564
4.568
4.564
4.571
4.573
4.593
4.606
4.591
4.586
4.588
4.584
4.581
4.571
4.571
4.590
4.608
4.597
4.599
4.589
4.599
4.590
4.576
4.563
4.573
4.591
4.591
4.585
4.569
4.566
4.568
4.565
4.554
4.568
4.578
4.579
4.596
4.598
4.593
4.587
4.580
4.591
4.581
4.575
4.576
4.580
4.574
4.585
4.602
4.618
4.608
4.605
4.608
4.609
4.594
4.598
4.606
4.605
4.607
4.605
4.600
4.606
4.622
4.633
4.627
4.634
4.633
4.631
4.628
4.617
4.614
4.611
4.601
4.605
4.606
4.616
4.622
4.624
4.618
4.620
4.619
4.618
4.618
4.619
4.616
4.612
4.609
4.605
4.603
4.596
4.601
4.616
4.630
4.644
4.646
4.653
4.649
4.649
4.652
4.650
4.632
4.629
4.634
4.644
4.652
4.651
4.642
4.639
4.631
4.636
4.643
4.656
4.666
4.663
4.662
4.661
4.660
4.659
4.656
4.659
4.662
4.656
4.647
4.648
4.643
4.635
4.643
4.639
4.635
4.642
4.648
4.645
4.644
4.643
4.638
4.642
4.632
4.629
4.640
4.648
4.643
4.633
4.624
4.615
4.605
4.600
4.598
4.603
4.615
4.627
4.634
4.638
4.639
4.637
4.623
4.622
4.620
4.623
4.617
4.627
4.625
4.627
4.615
4.610
4.622
4.625
4.624
4.623
4.625
4.615
4.613
4.611
4.618
4.629
4.640
4.648
4.638
4.631
4.626
4.620
4.627
4.622
4.619
4.623
4.615
4.620
4.619
4.621
4.619
4.603
4.600
4.596
4.598
4.600
4.603
4.610
4.614
4.617
4.619
4.620
4.629
4.639
4.650
4.661
4.651
4.640
4.645
4.635
4.634
4.632
4.639
4.641
4.640
4.631
4.622
4.625
4.624
4.621
4.627
4.625
4.621
4.616
4.617
4.609
4.605
4.604
4.609
4.602
4.600
4.610
4.620
4.630
4.640
4.650
4.660
4.654
4.663
4.665
4.668
4.661
4.657
4.650
4.663
4.652
4.645
4.645
4.640
4.630
4.622
4.622
4.622
4.620
4.622
4.623
4.618
4.629
4.634
4.630
4.627
4.623
4.624
4.621
4.616
4.622
4.619
4.618
4.624
4.633
4.643
4.652
4.661
4.670
4.672
4.663
4.663
4.661
4.649
4.651
4.653
4.650
4.654
4.667
4.671
4.664
4.659
4.655
4.656
4.651
4.645
4.643
4.646
4.649
4.657
4.659
4.652
4.643
4.644
4.641
4.644
4.634
4.634
4.638
4.640
4.640
4.642
4.637
4.639
4.630
4.628
4.637
4.645
4.654
4.663
4.671
4.680
4.688
4.697
4.697
4.697
4.702
4.696
4.697
4.694
4.693
4.681
4.689
4.690
4.680
4.689
4.684
4.680
4.676
4.667
4.668
4.666
4.677
4.678
4.689
4.683
4.679
4.675
4.678
4.684
4.685
4.688
4.690
4.683
4.683
4.679
4.678
4.674
4.668
4.665
4.668
4.668
4.671
4.663
4.654
4.662
4.665
4.660
4.659
4.666
4.674
4.682
4.690
4.698
4.706
4.706
4.699
4.697
4.691
4.694
4.685
4.675
4.669
4.675
4.674
4.676
4.677
4.669
4.664
4.660
4.661
4.661
4.664
4.659
4.659
4.655
4.653
4.649
4.653
4.654
4.652
4.646
4.641
4.639
4.640
4.644
4.638
4.646
4.656
4.660
4.660
4.656
4.652
4.653
4.651
4.649
4.646
4.638
4.642
4.637
4.626
4.626
4.620
4.628
4.635
4.642
4.649
4.656
4.663
4.670
4.678
4.685
4.692
4.697
4.706
4.705
4.705
4.708
4.702
4.697
4.695
4.697
4.699
4.695
4.689
4.685
4.686
4.678
4.684
4.678
4.680
4.688
4.695
4.692
4.690
4.689
4.694
4.693
4.693
4.686
4.683
4.686
4.688
4.681
4.675
4.683
4.680
4.682
4.686
4.684
4.678
4.685
4.684
4.685
4.676
4.675
4.678
4.674
4.670
4.665
4.665
4.665
4.662
4.659
4.663
4.664
4.665
4.663
4.666
4.664
4.675
4.665
4.666
4.665
4.670
4.679
4.688
4.687
4.682
4.681
4.676
4.679
4.678
4.679
4.688
4.692
4.698
4.705
4.711
4.718
4.724
4.730
4.727
4.730
4.726
4.721
4.719
4.717
4.717
4.707
4.703
4.695
4.695
4.688
4.691
4.692
4.696
4.687
4.681
4.682
4.685
4.677
4.674
4.671
4.671
4.669
4.668
4.664
4.660
4.657
4.664
4.669
4.667
4.665
4.666
4.666
4.670
4.671
4.669
4.665
4.670
4.667
4.668
4.659
4.658
4.657
4.652
4.660
4.661
4.662
4.664
4.662
4.658
4.663
4.666
4.662
4.658
4.651
4.644
4.638
4.631
4.631
4.628
4.621
4.627
4.624
4.623
4.615
4.616
4.615
4.618
4.624
4.627
4.623
4.628
4.634
4.633
4.639
4.644
4.650
4.656
4.662
4.667
4.673
4.678
4.684
4.690
4.696
4.701
4.707
4.713
4.719
4.722
4.730
4.725
4.727
4.730
4.722
4.720
4.720
4.719
4.720
4.728
4.736
4.740
4.736
4.733
4.731
4.733
4.733
4.732
4.733
4.731
4.726
4.725
4.719
4.715
4.711
4.705
4.705
4.708
4.705
4.698
4.692
4.692
4.694
4.693
4.691
4.693
4.693
4.696
4.693
4.697
4.696
4.700
4.692
4.686
4.683
4.682
4.688
4.687
4.683
4.678
4.673
4.667
4.662
4.656
4.651
4.645
4.640
4.644
4.645
4.649
4.645
4.648
4.648
4.644
4.644
4.635
4.632
4.639
4.646
4.643
4.645
4.646
4.651
4.651
4.652
4.652
4.651
4.651
4.647
4.646
4.643
4.645
4.644
4.643
4.648
4.650
4.649
4.650
4.650
4.655
4.661
4.667
4.668
4.664
4.668
4.662
4.659
4.664
4.667
4.664
4.660
4.664
4.666
4.664
4.663
4.663
4.668
4.673
4.678
4.683
4.688
4.693
4.698
4.703
4.708
4.713
4.715
4.712
4.714
4.718
4.711
4.710
4.710
4.716
4.715
4.714
4.717
4.710
4.707
4.710
4.714
4.708
4.705
4.705
4.700
4.695
4.695
4.697
4.695
4.691
4.692
4.691
4.696
4.700
4.707
4.700
4.699
4.701
4.697
4.706
4.702
4.706
4.708
4.704
4.702
4.703
4.701
4.705
4.705
4.711
4.718
4.725
4.723
4.719
4.726
4.720
4.717
4.718
4.717
4.709
4.708
4.700
4.705
4.707
4.701
