2.994
3.335
3.512
3.622
3.714
3.789
3.847
3.882
3.922
3.948
3.996
4.024
4.010
4.040
4.072
4.099
4.125
4.147
4.173
4.188
4.140
4.118
4.130
4.140
4.152
4.167
4.176
4.192
4.195
4.213
4.217
4.227
4.240
4.238
4.253
4.265
4.261
4.273
4.280
4.293
4.289
4.298
4.308
4.318
4.318
4.317
4.325
4.336
4.341
4.353
4.355
4.345
4.355
4.355
4.366
4.372
4.381
4.386
4.390
4.397
4.385
4.394
4.395
4.403
4.407
4.408
4.409
4.424
4.428
4.429
4.434
4.443
4.448
4.424
4.434
4.433
4.437
4.441
4.447
4.452
4.450
4.457
4.462
4.468
4.472
4.473
4.480
4.476
4.481
4.487
4.491
4.501
4.499
4.504
4.489
4.474
4.483
4.481
4.488
4.492
4.491
4.501
4.500
4.506
4.508
4.501
4.505
4.507
4.514
4.517
4.525
4.526
4.522
4.528
4.532
4.539
4.533
4.536
4.538
4.540
4.541
4.545
4.544
4.553
4.552
4.561
4.557
4.567
4.573
4.569
4.571
4.564
4.568
4.578
4.570
4.572
4.558
4.545
4.546
4.547
4.555
4.550
4.558
4.559
4.566
4.562
4.558
4.561
4.568
4.569
4.576
4.575
4.576
4.573
4.573
4.567
4.574
4.569
4.574
4.580
4.574
4.586
4.581
4.586
4.582
4.594
4.590
4.599
4.599
4.600
4.590
4.594
4.593
4.605
4.603
4.613
4.609
4.616
4.615
4.618
4.612
4.605
4.601
4.611
4.614
4.608
4.609
4.605
4.614
4.616
4.618
4.618
4.614
4.625
4.620
4.624
4.633
4.629
4.636
4.636
4.631
4.644
4.639
4.635
4.639
4.629
4.640
4.643
4.640
4.644
4.651
4.647
4.650
4.658
4.658
4.652
4.662
4.660
4.661
4.666
4.666
4.660
4.651
4.651
4.651
4.666
4.666
4.663
4.661
4.658
4.659
4.657
4.659
4.658
4.656
4.666
4.667
4.668
4.661
4.673
4.680
4.677
4.675
4.679
4.683
4.681
4.675
4.685
4.696
4.687
4.683
4.687
4.699
4.698
4.689
4.682
4.677
4.670
4.661
4.658
4.651
4.651
4.655
4.655
4.655
4.652
4.653
4.668
4.662
4.663
4.658
4.660
4.672
4.658
4.653
4.655
4.664
4.674
4.672
4.670
4.662
4.666
4.681
4.676
4.677
4.677
4.675
4.681
4.692
4.688
4.680
4.685
4.680
4.676
4.667
4.662
4.661
4.670
4.683
4.674
4.667
4.663
4.664
4.668
4.669
4.663
4.661
4.665
4.666
4.671
4.670
4.671
4.666
4.663
4.659
4.673
4.683
4.677
4.675
4.673
4.672
4.670
4.681
4.693
4.696
4.685
4.678
4.679
4.680
4.688
4.699
4.687
4.689
4.682
4.681
4.676
4.688
4.698
4.699
4.693
4.688
4.690
4.686
4.687
4.699
4.698
4.700
4.699
4.696
4.693
4.700
4.698
4.707
4.717
4.714
4.710
4.711
4.709
4.713
4.704
4.705
4.706
4.707
4.704
4.703
4.701
4.699
4.695
4.703
4.712
4.711
4.701
4.700
4.699
4.692
4.699
4.699
4.707
4.718
4.720
4.713
4.715
4.713
4.709
4.708
4.707
4.708
4.720
4.730
4.731
4.727
4.721
4.713
4.707
4.710
4.707
4.714
4.725
4.727
4.729
4.730
4.729
4.727
4.725
4.722
4.726
4.727
4.726
4.736
4.747
4.749
4.745
4.743
4.742
4.738
4.736
4.730
4.731
4.732
4.742
4.752
4.742
4.743
4.739
4.740
4.737
4.744
4.742
4.743
4.736
4.735
4.729
4.725
4.723
4.722
4.720
4.716
4.718
4.718
4.714
4.721
4.733
4.738
4.731
4.733
4.731
4.727
4.721
4.714
4.707
4.700
4.709
4.718
4.726
4.732
4.728
4.727
4.726
4.718
4.718
4.713
4.720
4.721
4.717
4.713
4.720
4.729
4.739
4.733
4.734
4.733
4.739
4.740
4.737
4.738
4.737
4.733
4.726
4.724
4.721
4.732
4.740
4.738
4.736
4.738
4.734
4.733
4.731
4.736
4.737
4.736
4.729
4.721
4.720
4.725
4.734
4.738
4.739
4.736
4.734
4.732
4.731
4.732
4.733
4.733
4.729
4.735
4.736
4.729
4.728
4.730
4.739
4.746
4.753
4.751
4.750
4.749
4.751
4.757
4.756
4.751
4.748
4.749
4.755
4.749
4.740
4.735
4.744
4.743
4.751
4.758
4.764
4.766
4.761
4.752
4.747
4.746
4.745
4.751
4.745
4.744
4.745
4.741
4.736
4.743
4.745
4.744
4.753
4.760
4.769
4.765
4.770
4.770
4.767
4.765
4.770
4.766
4.766
4.762
4.762
4.762
4.762
4.768
4.767
4.771
4.764
4.763
4.762
4.770
4.777
4.785
4.789
4.781
4.778
4.774
4.778
4.776
4.773
4.776
4.772
4.771
4.767
4.771
4.770
4.763
4.758
4.760
4.759
4.768
4.764
4.760
4.761
4.762
4.764
4.762
4.761
4.758
4.762
4.758
4.759
4.758
4.758
4.760
4.762
4.765
4.762
4.755
4.748
4.752
4.759
4.766
4.767
4.768
4.767
4.763
4.762
4.763
4.761
4.758
4.756
4.758
4.758
4.755
4.755
4.752
4.755
4.755
4.759
4.758
4.758
4.758
4.761
4.758
4.764
4.771
4.777
4.785
4.780
4.777
4.778
4.773
4.772
4.770
4.770
4.773
4.770
4.773
4.773
4.768
4.762
4.758
4.764
4.763
4.764
4.766
4.761
4.758
4.756
4.762
4.767
4.774
4.781
4.787
4.796
4.803
4.802
4.798
4.791
4.793
4.791
4.785
4.780
4.781
4.778
4.779
4.781
4.781
4.784
4.785
4.781
4.781
4.783
4.777
4.777
4.776
4.784
4.781
4.778
4.777
4.784
4.792
4.799
4.804
4.810
4.807
4.807
4.804
4.810
4.807
4.810
4.809
4.810
4.807
4.807
4.803
4.796
4.796
4.794
4.790
4.792
4.793
4.791
4.792
4.792
4.796
4.791
4.787
4.792
4.790
4.788
4.790
4.797
4.803
4.805
4.798
4.796
4.801
4.794
4.795
4.796
4.795
4.794
4.795
4.792
4.787
4.792
4.795
4.791
4.793
4.794
4.799
4.791
4.787
4.788
4.785
4.780
4.781
4.781
4.785
4.780
4.779
4.783
4.785
4.791
4.798
4.803
4.809
4.814
4.821
4.822
4.818
4.816
4.814
4.810
4.810
4.814
4.817
4.814
4.812
4.811
4.810
4.807
4.809
4.802
4.803
4.808
4.804
4.810
4.814
4.810
4.809
4.805
4.804
4.802
4.803
4.807
4.801
4.805
4.807
4.805
4.807
4.807
4.809
4.814
4.821
4.825
4.831
4.838
4.840
4.841
4.840
4.838
4.839
4.836
4.844
4.843
4.847
4.841
4.840
4.841
4.834
4.830
4.828
4.822
4.821
4.821
4.820
4.819
4.817
4.816
4.814
4.816
4.814
4.811
4.812
4.814
4.820
4.827
4.825
4.824
4.818
4.811
4.810
4.816
4.820
4.822
4.823
4.821
4.818
4.814
4.812
4.808
4.814
4.811
4.806
4.802
4.803
4.799
4.801
4.800
4.804
4.805
4.801
4.799
4.798
4.797
4.792
4.789
4.792
4.799
4.799
4.799
4.798
4.797
4.792
4.794
4.796
4.796
4.788
4.788
4.790
4.792
4.790
4.794
4.798
4.803
4.799
4.803
4.806
4.813
4.814
4.814
4.810
4.814
4.809
4.805
4.804
4.800
4.803
4.808
4.803
4.805
4.806
4.807
4.804
4.805
4.806
4.807
4.803
4.800
4.803
4.800
4.796
4.792
4.787
4.792
4.795
4.794
4.788
4.789
4.788
4.794
4.793
4.789
4.790
4.788
4.785
4.781
4.779
4.784
4.785
4.791
4.796
4.800
4.804
4.810
4.815
4.816
4.815
4.814
4.810
4.813
4.814
4.810
4.807
4.807
4.810
4.810
4.815
4.814
4.818
4.824
4.818
4.819
4.820
4.822
4.815
4.813
4.814
4.810
4.806
4.805
4.806
4.802
4.803
4.800
4.798
4.796
4.796
4.794
4.799
4.802
4.801
4.805
4.801
4.796
4.792
4.789
4.785
4.786
4.788
4.786
4.787
4.788
4.785
4.789
4.793
4.799
4.801
4.807
4.812
4.816
4.812
4.810
4.812
4.808
4.809
4.808
4.807
4.808
4.806
4.810
4.814
4.814
4.809
4.808
4.807
4.803
4.799
4.800
