2.992
3.331
3.517
3.634
3.697
3.778
3.827
3.877
3.915
3.969
3.945
3.987
4.023
4.050
4.082
4.116
4.137
4.126
4.071
4.084
4.097
4.112
4.133
4.141
4.149
4.168
4.169
4.189
4.191
4.203
4.221
4.220
4.233
4.246
4.239
4.251
4.265
4.278
4.274
4.279
4.289
4.297
4.311
4.317
4.307
4.310
4.324
4.332
4.337
4.348
4.353
4.355
4.349
4.354
4.361
4.367
4.368
4.378
4.387
4.393
4.391
4.405
4.408
4.390
4.388
4.398
4.403
4.410
4.415
4.413
4.422
4.430
4.432
4.438
4.433
4.439
4.446
4.453
4.463
4.464
4.470
4.448
4.441
4.444
4.448
4.456
4.464
4.463
4.467
4.471
4.464
4.471
4.475
4.473
4.481
4.489
4.487
4.490
4.499
4.501
4.499
4.502
4.494
4.502
4.506
4.516
4.516
4.522
4.519
4.529
4.527
4.536
4.528
4.531
4.536
4.537
4.537
4.520
4.511
4.512
4.507
4.516
4.527
4.525
4.518
4.527
4.529
4.535
4.531
4.541
4.540
4.537
4.528
4.538
4.537
4.536
4.538
4.549
4.540
4.551
4.549
4.555
4.562
4.563
4.564
4.557
4.557
4.565
4.564
4.574
4.572
4.582
4.580
4.588
4.574
4.570
4.571
4.575
4.571
4.574
4.570
4.585
4.575
4.585
4.576
4.591
4.586
4.592
4.597
4.596
4.601
4.602
4.607
4.607
4.600
4.605
4.600
4.616
4.610
4.607
4.617
4.619
4.617
4.625
4.617
4.628
4.625
4.626
4.636
4.623
4.618
4.629
4.627
4.623
4.630
4.615
4.626
4.621
4.620
4.627
4.631
4.626
4.625
4.642
4.641
4.637
4.644
4.645
4.643
4.640
4.655
4.657
4.651
4.652
4.660
4.662
4.660
4.662
4.657
4.648
4.639
4.631
4.622
4.621
4.616
4.618
4.618
4.632
4.626
4.625
4.623
4.638
4.628
4.622
4.617
4.636
4.635
4.634
4.627
4.632
4.639
4.641
4.643
4.643
4.647
4.652
4.653
4.648
4.648
4.651
4.644
4.633
4.630
4.637
4.642
4.636
4.629
4.632
4.636
4.635
4.632
4.632
4.628
4.636
4.643
4.632
4.626
4.628
4.630
4.642
4.643
4.641
4.643
4.639
4.641
4.655
4.653
4.644
4.654
4.649
4.642
4.658
4.657
4.652
4.647
4.643
4.644
4.657
4.665
4.659
4.657
4.653
4.654
4.652
4.668
4.671
4.669
4.670
4.671
4.667
4.668
4.674
4.684
4.685
4.681
4.678
4.675
4.663
4.675
4.675
4.673
4.670
4.666
4.662
4.666
4.672
4.671
4.670
4.671
4.667
4.671
4.670
4.665
4.678
4.688
4.686
4.684
4.681
4.683
4.683
4.681
4.680
4.693
4.682
4.686
4.683
4.685
4.683
4.682
4.681
4.687
4.701
4.702
4.700
4.698
4.703
4.701
4.702
4.704
4.697
4.703
4.714
4.711
4.709
4.713
4.708
4.711
4.708
4.697
4.700
4.712
4.721
4.720
4.720
4.713
4.709
4.701
4.702
4.694
4.702
4.697
4.691
4.690
4.684
4.684
4.690
4.686
4.683
4.686
4.698
4.696
4.687
4.678
4.680
4.678
4.677
4.680
4.681
4.678
4.687
4.699
4.696
4.693
4.692
4.690
4.691
4.689
4.687
4.686
4.684
4.684
4.694
4.704
4.714
4.710
4.702
4.701
4.699
4.694
4.695
4.694
4.689
4.688
4.689
4.701
4.712
4.711
4.708
4.705
4.697
4.689
4.690
4.690
4.685
4.687
4.688
4.689
4.700
4.711
4.719
4.714
4.711
4.710
4.711
4.709
4.708
4.707
4.702
4.702
4.702
4.701
4.704
4.712
4.723
4.732
4.724
4.728
4.719
4.713
4.714
4.713
4.721
4.721
4.718
4.715
4.705
4.703
4.714
4.724
4.727
4.724
4.731
4.730
4.724
4.726
4.725
4.727
4.723
4.716
4.717
4.721
4.723
4.725
4.722
4.725
4.735
4.745
4.751
4.752
4.748
4.741
4.740
4.745
4.743
4.742
4.745
4.736
4.732
4.734
4.729
4.721
4.726
4.734
4.744
4.753
4.747
4.742
4.742
4.742
4.739
4.740
4.733
4.727
4.720
4.713
4.718
4.720
4.720
4.712
4.722
4.731
4.740
4.745
4.739
4.739
4.741
4.738
4.732
4.729
4.722
4.718
4.721
4.717
4.710
4.709
4.719
4.715
4.712
4.716
4.724
4.733
4.742
4.746
4.743
4.744
4.747
4.748
4.745
4.744
4.745
4.749
4.744
4.736
4.732
4.726
4.724
4.725
4.723
4.725
4.729
4.722
4.730
4.739
4.747
4.755
4.756
4.753
4.760
4.764
4.758
4.756
4.758
4.754
4.753
4.752
4.750
4.749
4.747
4.752
4.742
4.739
4.740
4.740
4.736
4.740
4.740
4.746
4.754
4.762
4.770
4.772
4.775
4.771
4.773
4.774
4.781
4.777
4.781
4.775
4.767
4.764
4.760
4.758
4.760
4.760
4.761
4.761
4.761
4.758
4.763
4.755
4.750
4.752
4.760
4.768
4.776
4.784
4.785
4.782
4.779
4.779
4.777
4.773
4.770
4.762
4.767
4.762
4.760
4.759
4.756
4.756
4.759
4.753
4.745
4.740
4.738
4.741
4.745
4.746
4.748
4.756
4.763
4.771
4.778
4.784
4.784
4.786
4.776
4.772
4.776
4.771
4.771
4.774
4.779
4.771
4.768
4.768
4.765
4.767
4.762
4.765
4.771
4.774
4.770
4.769
4.770
4.762
4.765
4.763
4.767
4.768
4.762
4.769
4.776
4.783
4.791
4.798
4.805
4.805
4.801
4.802
4.800
4.799
4.799
4.800
4.798
4.796
4.796
4.800
4.803
4.802
4.803
4.806
4.807
4.805
4.801
4.797
4.788
4.786
4.785
4.783
4.776
4.781
4.784
4.782
4.780
4.778
4.781
4.788
4.795
4.801
4.808
4.814
4.815
4.813
4.811
4.808
4.804
4.800
4.796
4.792
4.788
4.784
4.781
4.779
4.780
4.780
4.772
4.766
4.760
4.755
4.757
4.755
4.752
4.752
4.754
4.752
4.753
4.754
4.752
4.756
4.762
4.769
4.775
4.782
4.788
4.793
4.791
4.794
4.790
4.786
4.781
4.776
4.772
4.767
4.765
4.766
4.766
4.762
4.762
4.759
4.761
4.761
4.765
4.762
4.758
4.759
4.754
4.754
4.760
4.766
4.763
4.766
4.764
4.761
4.761
4.758
4.753
4.751
4.751
4.752
4.757
4.763
4.770
4.776
4.782
4.783
4.778
4.774
4.773
4.774
4.774
4.777
4.771
4.766
4.767
4.772
4.775
4.783
4.786
4.784
4.777
4.778
4.779
4.775
4.774
4.770
4.772
4.770
4.773
4.774
4.770
4.765
4.766
4.766
4.766
4.767
4.767
4.762
4.758
4.755
4.756
4.757
4.760
4.764
4.772
4.768
4.764
4.766
4.772
4.777
4.783
4.789
4.790
4.791
4.783
4.782
4.779
4.776
4.772
4.774
4.778
4.780
4.773
4.770
4.767
4.766
4.762
4.761
4.762
4.760
4.761
4.758
4.757
4.762
4.767
4.771
4.765
4.770
4.767
4.765
4.759
4.756
4.754
4.755
4.757
4.757
4.756
4.756
4.751
4.754
4.754
4.756
4.755
4.754
4.754
4.756
4.755
4.759
4.764
4.770
4.775
4.780
4.786
4.791
4.797
4.802
4.801
4.801
4.798
4.796
4.796
4.795
4.788
4.790
4.785
4.789
4.788
4.791
4.789
4.789
4.791
4.791
4.788
4.783
4.778
4.772
4.767
4.762
4.756
4.758
4.755
4.759
4.756
4.753
4.756
4.753
4.753
4.758
4.758
4.755
4.756
4.763
4.770
4.772
4.773
4.769
4.765
4.768
4.767
4.765
4.762
4.762
4.761
4.758
4.758
4.758
4.763
4.768
4.773
4.778
4.784
4.789
4.794
4.799
4.798
4.796
4.793
4.797
4.794
4.796
4.797
4.797
4.800
4.801
4.797
4.797
4.796
4.797
4.798
4.794
4.790
4.792
4.785
4.790
4.794
4.799
4.801
4.799
4.797
4.795
4.793
4.789
4.788
4.787
4.784
4.780
4.775
4.769
4.764
4.768
4.770
4.771
4.774
4.771
4.772
4.771
4.768
4.763
4.758
4.760
4.761
4.756
4.753
4.755
4.758
4.753
4.753
4.754
4.753
4.756
4.759
4.765
4.769
4.767
4.771
4.775
4.780
4.785
4.790
