2.994
3.332
3.507
3.636
3.718
3.796
3.827
3.899
3.926
3.951
3.981
4.021
4.062
4.031
4.058
4.086
4.110
4.133
4.161
4.182
4.199
4.218
4.184
4.143
4.158
4.169
4.180
4.193
4.200
4.204
4.224
4.226
4.236
4.250
4.252
4.259
4.274
4.272
4.282
4.295
4.290
4.300
4.309
4.319
4.328
4.319
4.331
4.335
4.343
4.352
4.343
4.354
4.355
4.366
4.373
4.377
4.386
4.387
4.381
4.390
4.394
4.401
4.406
4.407
4.414
4.421
4.425
4.426
4.419
4.423
4.421
4.428
4.438
4.443
4.441
4.445
4.454
4.458
4.463
4.466
4.466
4.472
4.468
4.459
4.466
4.462
4.466
4.472
4.477
4.480
4.484
4.481
4.487
4.488
4.496
4.502
4.499
4.510
4.507
4.506
4.512
4.514
4.523
4.524
4.534
4.530
4.526
4.510
4.510
4.513
4.507
4.516
4.521
4.524
4.525
4.530
4.532
4.536
4.539
4.532
4.536
4.538
4.543
4.546
4.550
4.554
4.558
4.560
4.558
4.560
4.569
4.569
4.562
4.568
4.569
4.568
4.567
4.566
4.573
4.577
4.588
4.585
4.586
4.588
4.591
4.596
4.597
4.592
4.602
4.596
4.602
4.596
4.606
4.598
4.588
4.577
4.569
4.574
4.575
4.584
4.583
4.582
4.591
4.588
4.594
4.590
4.591
4.598
4.591
4.598
4.599
4.601
4.606
4.604
4.599
4.598
4.597
4.601
4.599
4.604
4.602
4.609
4.605
4.610
4.610
4.615
4.613
4.618
4.619
4.621
4.622
4.623
4.630
4.621
4.627
4.625
4.627
4.625
4.635
4.634
4.633
4.643
4.641
4.647
4.644
4.639
4.633
4.632
4.635
4.640
4.644
4.639
4.635
4.636
4.640
4.645
4.649
4.643
4.649
4.650
4.643
4.655
4.652
4.648
4.665
4.659
4.658
4.669
4.666
4.661
4.671
4.672
4.666
4.672
4.662
4.662
4.671
4.675
4.669
4.670
4.677
4.678
4.674
4.684
4.690
4.686
4.681
4.692
4.688
4.689
4.692
4.692
4.684
4.683
4.681
4.681
4.679
4.691
4.695
4.691
4.687
4.691
4.687
4.686
4.684
4.689
4.685
4.686
4.687
4.694
4.696
4.692
4.693
4.702
4.706
4.708
4.704
4.702
4.714
4.708
4.709
4.705
4.712
4.721
4.712
4.711
4.709
4.722
4.718
4.711
4.704
4.699
4.693
4.686
4.687
4.686
4.685
4.681
4.676
4.684
4.681
4.680
4.679
4.678
4.692
4.694
4.688
4.688
4.687
4.691
4.701
4.694
4.687
4.681
4.687
4.700
4.701
4.697
4.696
4.694
4.695
4.700
4.706
4.706
4.699
4.700
4.701
4.711
4.717
4.719
4.714
4.710
4.703
4.708
4.701
4.692
4.693
4.689
4.698
4.702
4.707
4.706
4.695
4.692
4.695
4.700
4.693
4.691
4.690
4.686
4.687
4.699
4.709
4.699
4.695
4.692
4.692
4.691
4.701
4.699
4.703
4.700
4.703
4.695
4.698
4.702
4.714
4.716
4.712
4.711
4.717
4.714
4.707
4.710
4.718
4.721
4.720
4.716
4.714
4.710
4.710
4.714
4.717
4.716
4.718
4.716
4.715
4.713
4.714
4.714
4.725
4.725
4.728
4.719
4.721
4.721
4.721
4.718
4.721
4.732
4.740
4.741
4.737
4.738
4.732
4.735
4.731
4.729
4.736
4.743
4.736
4.732
4.726
4.719
4.723
4.719
4.723
4.733
4.740
4.738
4.734
4.727
4.736
4.733
4.725
4.721
4.728
4.736
4.737
4.740
4.737
4.732
4.734
4.730
4.736
4.735
4.729
4.740
4.748
4.751
4.745
4.747
4.748
4.746
4.742
4.741
4.742
4.743
4.743
4.751
4.748
4.747
4.747
4.746
4.747
4.747
4.748
4.744
4.745
4.744
4.753
4.763
4.764
4.765
4.764
4.762
4.764
4.762
4.759
4.762
4.769
4.763
4.759
4.768
4.773
4.769
4.769
4.773
4.770
4.773
4.766
4.758
4.761
4.754
4.758
4.768
4.775
4.776
4.770
4.765
4.761
4.755
4.750
4.744
4.739
4.740
4.748
4.757
4.759
4.755
4.756
4.755
4.755
4.746
4.743
4.744
4.745
4.751
4.748
4.744
4.753
4.744
4.745
4.743
4.737
4.743
4.742
4.738
4.739
4.741
4.742
4.740
4.736
4.743
4.750
4.760
4.756
4.758
4.759
4.755
4.755
4.747
4.742
4.747
4.751
4.752
4.750
4.747
4.743
4.751
4.759
4.768
4.775
4.776
4.769
4.762
4.758
4.758
4.758
4.760
4.758
4.754
4.750
4.751
4.745
4.752
4.761
4.768
4.773
4.769
4.762
4.758
4.756
4.755
4.761
4.762
4.753
4.747
4.747
4.747
4.747
4.744
4.751
4.758
4.767
4.773
4.775
4.773
4.770
4.771
4.770
4.763
4.769
4.768
4.764
4.762
4.767
4.762
4.759
4.760
4.762
4.763
4.769
4.776
4.783
4.785
4.783
4.782
4.786
4.787
4.783
4.776
4.778
4.776
4.775
4.768
4.762
4.763
4.766
4.771
4.775
4.773
4.773
4.781
4.788
4.788
4.784
4.782
4.777
4.777
4.778
4.777
4.780
4.782
4.784
4.779
4.775
4.771
4.773
4.773
4.778
4.779
4.777
4.779
4.786
4.792
4.797
4.803
4.805
4.799
4.803
4.804
4.806
4.806
4.805
4.799
4.800
4.796
4.794
4.790
4.792
4.793
4.794
4.792
4.789
4.793
4.791
4.793
4.799
4.806
4.810
4.804
4.802
4.804
4.805
4.804
4.800
4.796
4.795
4.793
4.791
4.790
4.789
4.784
4.780
4.776
4.770
4.768
4.775
4.782
4.788
4.795
4.799
4.795
4.799
4.793
4.795
4.795
4.795
4.798
4.797
4.795
4.791
4.792
4.789
4.787
4.786
4.784
4.777
4.771
4.770
4.773
4.773
4.774
4.778
4.785
4.789
4.795
4.791
4.795
4.797
4.798
4.799
4.795
4.795
4.790
4.792
4.793
4.792
4.793
4.789
4.790
4.788
4.793
4.789
4.790
4.795
4.793
4.794
4.798
4.795
4.790
4.786
4.792
4.797
4.804
4.805
4.804
4.808
4.806
4.805
4.804
4.800
4.796
4.800
4.798
4.800
4.803
4.802
4.799
4.799
4.796
4.799
4.799
4.797
4.798
4.799
4.801
4.797
4.793
4.795
4.793
4.800
4.804
4.802
4.807
4.813
4.820
4.825
4.825
4.822
4.821
4.821
4.820
4.819
4.817
4.814
4.809
4.811
4.812
4.814
4.810
4.811
4.817
4.821
4.818
4.819
4.817
4.816
4.817
4.814
4.818
4.819
4.817
4.816
4.815
4.814
4.810
4.814
4.820
4.824
4.831
4.836
4.837
4.835
4.832
4.830
4.836
4.832
4.834
4.832
4.828
4.827
4.826
4.824
4.826
4.830
4.825
4.824
4.821
4.821
4.823
4.822
4.823
4.818
4.821
4.819
4.818
4.816
4.815
4.810
4.806
4.810
4.815
4.819
4.825
4.830
4.829
4.829
4.826
4.821
4.823
4.824
4.825
4.819
4.820
4.822
4.820
4.827
4.825
4.825
4.826
4.825
4.821
4.825
4.825
4.822
4.818
4.816
4.814
4.811
4.812
4.813
4.812
4.810
4.807
4.808
4.812
4.813
4.810
4.814
4.818
4.821
4.826
4.832
4.836
4.841
4.847
4.849
4.848
4.849
4.845
4.841
4.843
4.843
4.843
4.841
4.839
4.840
4.840
4.843
4.842
4.841
4.836
4.833
4.837
4.836
4.834
4.838
4.842
4.841
4.845
4.843
4.840
4.840
4.842
4.843
4.840
4.835
4.834
4.838
4.837
4.836
4.834
4.836
4.832
4.833
4.837
4.843
4.848
4.854
4.858
4.863
4.867
4.873
4.872
4.866
4.862
4.862
4.856
4.858
4.858
4.854
4.856
4.860
4.856
4.854
4.856
4.852
4.853
4.851
4.850
4.851
4.850
4.849
4.851
4.852
4.850
4.849
4.847
4.844
4.840
4.838
4.836
4.833
4.831
4.829
4.825
4.822
4.820
4.822
4.828
4.833
4.836
4.841
4.839
4.838
4.834
4.836
4.831
4.829
4.831
4.832
4.834
4.830
4.828
4.833
4.829
4.833
4.831
4.829
4.828
4.832
4.839
4.836
4.834
4.832
4.832
4.830
4.829
4.827
4.826
4.827
4.831
4.825
4.826
4.825
4.826
4.822
4.820
