2.994
3.331
3.509
3.639
3.723
3.797
3.838
3.881
3.927
3.964
4.001
4.008
4.044
4.079
4.083
4.081
4.099
4.122
4.149
4.168
4.190
4.204
4.223
4.240
4.250
4.213
4.184
4.193
4.200
4.215
4.220
4.227
4.239
4.245
4.255
4.267
4.269
4.281
4.288
4.290
4.299
4.311
4.308
4.314
4.323
4.331
4.332
4.338
4.345
4.355
4.359
4.356
4.359
4.366
4.376
4.380
4.387
4.383
4.386
4.393
4.395
4.404
4.411
4.413
4.422
4.426
4.414
4.423
4.427
4.427
4.433
4.437
4.441
4.445
4.452
4.457
4.463
4.453
4.453
4.454
4.455
4.462
4.466
4.471
4.477
4.476
4.483
4.482
4.491
4.493
4.496
4.500
4.502
4.509
4.497
4.497
4.497
4.493
4.497
4.500
4.505
4.508
4.519
4.517
4.521
4.516
4.524
4.527
4.526
4.536
4.534
4.539
4.542
4.538
4.540
4.549
4.545
4.552
4.559
4.560
4.560
4.564
4.549
4.542
4.542
4.545
4.546
4.541
4.546
4.550
4.556
4.560
4.565
4.564
4.565
4.572
4.571
4.566
4.567
4.574
4.568
4.574
4.576
4.579
4.584
4.590
4.590
4.588
4.589
4.590
4.598
4.605
4.592
4.593
4.598
4.601
4.598
4.602
4.605
4.607
4.609
4.613
4.619
4.613
4.623
4.618
4.622
4.624
4.631
4.631
4.628
4.631
4.630
4.626
4.631
4.635
4.625
4.613
4.603
4.602
4.606
4.605
4.611
4.608
4.617
4.615
4.614
4.623
4.619
4.629
4.622
4.624
4.620
4.631
4.623
4.631
4.628
4.635
4.633
4.637
4.630
4.629
4.634
4.631
4.634
4.634
4.633
4.632
4.634
4.635
4.636
4.645
4.638
4.646
4.642
4.646
4.649
4.646
4.656
4.654
4.656
4.662
4.660
4.659
4.655
4.662
4.655
4.656
4.666
4.665
4.666
4.671
4.671
4.675
4.675
4.675
4.669
4.659
4.669
4.665
4.664
4.673
4.675
4.671
4.666
4.668
4.664
4.675
4.672
4.671
4.680
4.679
4.674
4.682
4.675
4.676
4.682
4.687
4.683
4.682
4.694
4.695
4.691
4.695
4.696
4.695
4.691
4.705
4.701
4.690
4.701
4.697
4.694
4.698
4.708
4.705
4.702
4.701
4.715
4.706
4.708
4.708
4.719
4.719
4.708
4.712
4.724
4.719
4.724
4.714
4.715
4.706
4.705
4.714
4.712
4.714
4.710
4.714
4.724
4.725
4.716
4.711
4.721
4.720
4.715
4.712
4.721
4.717
4.718
4.716
4.718
4.727
4.726
4.725
4.724
4.723
4.734
4.736
4.735
4.734
4.729
4.741
4.742
4.739
4.735
4.738
4.745
4.750
4.743
4.742
4.742
4.742
4.737
4.731
4.724
4.720
4.715
4.711
4.708
4.709
4.716
4.716
4.713
4.714
4.705
4.711
4.708
4.709
4.712
4.706
4.712
4.722
4.723
4.720
4.716
4.716
4.713
4.725
4.731
4.727
4.716
4.712
4.713
4.725
4.723
4.728
4.727
4.723
4.723
4.723
4.735
4.733
4.729
4.731
4.732
4.730
4.731
4.742
4.746
4.745
4.743
4.745
4.743
4.736
4.734
4.727
4.721
4.720
4.716
4.723
4.731
4.731
4.727
4.727
4.731
4.725
4.723
4.733
4.731
4.723
4.716
4.712
4.712
4.717
4.727
4.731
4.729
4.730
4.727
4.723
4.718
4.722
4.732
4.733
4.727
4.725
4.723
4.725
4.726
4.728
4.732
4.741
4.737
4.736
4.737
4.738
4.735
4.736
4.737
4.741
4.751
4.742
4.740
4.744
4.743
4.741
4.743
4.738
4.743
4.753
4.748
4.745
4.735
4.738
4.738
4.741
4.737
4.744
4.754
4.760
4.754
4.752
4.749
4.745
4.746
4.745
4.745
4.752
4.760
4.760
4.759
4.756
4.762
4.756
4.760
4.760
4.757
4.755
4.764
4.772
4.773
4.768
4.770
4.764
4.759
4.753
4.756
4.750
4.759
4.763
4.764
4.768
4.760
4.758
4.759
4.760
4.756
4.758
4.754
4.763
4.760
4.761
4.760
4.756
4.757
4.756
4.754
4.753
4.756
4.755
4.762
4.769
4.778
4.775
4.773
4.772
4.771
4.766
4.765
4.771
4.765
4.768
4.768
4.774
4.781
4.782
4.782
4.782
4.778
4.769
4.767
4.766
4.764
4.766
4.770
4.771
4.779
4.788
4.786
4.785
4.786
4.785
4.784
4.785
4.784
4.783
4.781
4.780
4.779
4.782
4.790
4.797
4.805
4.805
4.806
4.802
4.798
4.794
4.787
4.790
4.795
4.788
4.786
4.786
4.793
4.801
4.801
4.802
4.800
4.797
4.798
4.797
4.795
4.791
4.790
4.785
4.781
4.782
4.786
4.780
4.778
4.777
4.776
4.775
4.775
4.775
4.775
4.779
4.776
4.774
4.767
4.774
4.781
4.783
4.784
4.790
4.789
4.788
4.782
4.777
4.771
4.766
4.765
4.760
4.759
4.760
4.768
4.774
4.781
4.779
4.782
4.779
4.779
4.780
4.784
4.779
4.776
4.775
4.775
4.771
4.770
4.766
4.768
4.774
4.779
4.785
4.789
4.788
4.789
4.790
4.792
4.786
4.782
4.783
4.784
4.786
4.789
4.790
4.790
4.790
4.786
4.783
4.781
4.788
4.795
4.796
4.797
4.797
4.793
4.786
4.786
4.786
4.787
4.783
4.782
4.783
4.786
4.783
4.786
4.780
4.776
4.783
4.789
4.796
4.793
4.790
4.790
4.783
4.781
4.785
4.790
4.786
4.782
4.782
4.784
4.780
4.782
4.783
4.779
4.779
4.778
4.785
4.792
4.799
4.805
4.810
4.805
4.804
4.803
4.802
4.798
4.799
4.797
4.799
4.797
4.799
4.801
4.797
4.797
4.799
4.801
4.801
4.800
4.796
4.798
4.805
4.811
4.812
4.812
4.808
4.809
4.812
4.806
4.808
4.809
4.810
4.809
4.802
4.797
4.796
4.793
4.793
4.793
4.799
4.797
4.796
4.797
4.802
4.806
4.813
4.817
4.816
4.817
4.816
4.814
4.813
4.811
4.812
4.812
4.816
4.819
4.818
4.816
4.812
4.809
4.812
4.809
4.813
4.812
4.810
4.811
4.805
4.808
4.815
4.820
4.827
4.833
4.838
4.838
4.835
4.838
4.834
4.830
4.827
4.825
4.829
4.823
4.824
4.825
4.826
4.825
4.824
4.823
4.821
4.817
4.815
4.820
4.816
4.816
4.816
4.822
4.827
4.830
4.827
4.827
4.823
4.819
4.815
4.809
4.808
4.808
4.804
4.806
4.802
4.803
4.801
4.803
4.804
4.801
4.804
4.803
4.804
4.808
4.805
4.806
4.807
4.812
4.818
4.823
4.829
4.834
4.834
4.828
4.826
4.825
4.821
4.816
4.810
4.811
4.807
4.812
4.808
4.811
4.813
4.812
4.810
4.806
4.801
4.800
4.799
4.798
4.799
4.798
4.797
4.803
4.808
4.814
4.819
4.825
4.826
4.828
4.834
4.834
4.837
4.836
4.832
4.830
4.827
4.830
4.831
4.830
4.831
4.830
4.827
4.827
4.826
4.820
4.818
4.817
4.821
4.819
4.818
4.819
4.813
4.816
4.810
4.808
4.810
4.816
4.821
4.825
4.831
4.836
4.837
4.836
4.835
4.834
4.838
4.836
4.835
4.833
4.835
4.838
4.838
4.838
4.838
4.841
4.837
4.836
4.837
4.836
4.838
4.838
4.837
4.839
4.835
4.833
4.829
4.827
4.823
4.822
4.827
4.822
4.821
4.825
4.829
4.834
4.840
4.844
4.849
4.855
4.856
4.856
4.854
4.853
4.851
4.849
4.848
4.847
4.845
4.847
4.853
4.853
4.849
4.849
4.849
4.852
4.854
4.858
4.857
4.858
4.856
4.850
4.846
4.845
4.845
4.849
4.843
4.842
4.838
4.839
4.840
4.841
4.843
4.842
4.842
4.845
4.851
4.856
4.862
4.864
4.860
4.864
4.868
4.864
4.862
4.863
4.862
4.861
4.860
4.858
4.854
4.856
4.860
4.861
4.857
4.853
4.849
4.845
4.842
4.838
4.834
4.831
4.835
4.834
4.829
4.834
4.832
4.834
4.831
4.831
4.835
4.834
4.834
4.833
4.838
4.842
4.846
4.852
4.856
4.861
4.865
4.861
4.862
4.861
4.860
4.855
4.856
4.858
4.853
4.849
4.851
4.855
4.856
4.856
4.856
4.855
4.856
4.855
4.851
