2.992
3.325
3.514
3.638
3.724
3.759
3.851
3.872
3.932
3.914
3.955
3.990
4.037
4.067
4.097
4.093
4.032
4.052
4.070
4.087
4.098
4.109
4.129
4.138
4.156
4.159
4.177
4.179
4.194
4.210
4.211
4.219
4.232
4.242
4.243
4.256
4.260
4.275
4.273
4.276
4.284
4.295
4.303
4.311
4.322
4.307
4.312
4.321
4.332
4.330
4.345
4.353
4.355
4.367
4.376
4.360
4.358
4.366
4.368
4.380
4.382
4.384
4.391
4.402
4.406
4.403
4.413
4.421
4.427
4.432
4.431
4.406
4.406
4.415
4.424
4.420
4.429
4.439
4.434
4.429
4.438
4.446
4.449
4.453
4.456
4.465
4.464
4.459
4.467
4.471
4.473
4.480
4.482
4.487
4.495
4.499
4.505
4.499
4.502
4.499
4.503
4.505
4.487
4.485
4.484
4.486
4.485
4.484
4.493
4.491
4.500
4.505
4.506
4.502
4.493
4.504
4.504
4.504
4.503
4.508
4.517
4.518
4.521
4.528
4.531
4.526
4.523
4.524
4.534
4.532
4.542
4.547
4.544
4.550
4.539
4.540
4.548
4.532
4.539
4.543
4.545
4.542
4.549
4.548
4.562
4.560
4.571
4.563
4.575
4.568
4.574
4.565
4.577
4.577
4.575
4.580
4.573
4.592
4.588
4.591
4.594
4.587
4.601
4.597
4.591
4.588
4.589
4.602
4.594
4.597
4.590
4.583
4.598
4.595
4.592
4.610
4.607
4.608
4.611
4.613
4.605
4.624
4.622
4.615
4.625
4.628
4.626
4.625
4.632
4.631
4.624
4.613
4.603
4.594
4.584
4.582
4.598
4.591
4.593
4.594
4.603
4.589
4.589
4.603
4.604
4.601
4.594
4.608
4.610
4.615
4.613
4.611
4.626
4.619
4.620
4.610
4.621
4.609
4.598
4.606
4.603
4.600
4.601
4.598
4.604
4.606
4.594
4.591
4.608
4.603
4.602
4.600
4.595
4.613
4.618
4.611
4.618
4.614
4.615
4.623
4.623
4.620
4.620
4.619
4.631
4.618
4.619
4.619
4.616
4.624
4.632
4.631
4.624
4.624
4.621
4.631
4.644
4.646
4.646
4.638
4.637
4.634
4.651
4.655
4.651
4.638
4.630
4.632
4.648
4.641
4.644
4.641
4.637
4.629
4.640
4.642
4.647
4.648
4.639
4.638
4.639
4.645
4.661
4.661
4.657
4.660
4.654
4.646
4.643
4.659
4.669
4.662
4.656
4.659
4.658
4.655
4.653
4.666
4.682
4.688
4.679
4.676
4.669
4.668
4.665
4.668
4.683
4.691
4.681
4.675
4.675
4.674
4.671
4.676
4.678
4.690
4.688
4.680
4.671
4.662
4.654
4.652
4.666
4.667
4.667
4.669
4.665
4.657
4.656
4.658
4.649
4.662
4.663
4.656
4.659
4.661
4.653
4.649
4.651
4.644
4.651
4.664
4.677
4.671
4.675
4.674
4.669
4.669
4.667
4.669
4.661
4.659
4.672
4.671
4.670
4.673
4.678
4.671
4.671
4.669
4.671
4.660
4.658
4.670
4.672
4.675
4.671
4.667
4.671
4.676
4.672
4.666
4.667
4.663
4.660
4.673
4.685
4.695
4.700
4.693
4.692
4.689
4.687
4.685
4.685
4.681
4.679
4.671
4.677
4.690
4.701
4.694
4.692
4.685
4.686
4.685
4.682
4.684
4.681
4.679
4.682
4.681
4.685
4.695
4.706
4.711
4.707
4.710
4.706
4.707
4.711
4.711
4.710
4.709
4.703
4.699
4.697
4.698
4.700
4.711
4.723
4.720
4.719
4.717
4.711
4.716
4.713
4.711
4.708
4.698
4.696
4.701
4.707
4.702
4.704
4.705
4.703
4.699
4.707
4.709
4.706
4.710
4.702
4.694
4.696
4.693
4.691
4.687
4.683
4.686
4.696
4.706
4.708
4.702
4.701
4.698
4.707
4.704
4.703
4.705
4.708
4.706
4.704
4.701
4.703
4.704
4.702
4.701
4.695
4.705
4.715
4.717
4.720
4.712
4.718
4.717
4.717
4.711
4.711
4.709
4.709
4.708
4.707
4.717
4.724
4.717
4.713
4.716
4.712
4.708
4.718
4.727
4.734
4.729
4.733
4.731
4.727
4.731
4.736
4.735
4.731
4.733
4.738
4.731
4.730
4.732
4.734
4.728
4.727
4.722
4.724
4.721
4.723
4.732
4.741
4.747
4.752
4.750
4.753
4.750
4.748
4.749
4.742
4.739
4.736
4.741
4.735
4.735
4.731
4.734
4.734
4.731
4.729
4.721
4.713
4.719
4.727
4.736
4.743
4.747
4.750
4.748
4.746
4.747
4.739
4.739
4.735
4.737
4.739
4.736
4.732
4.732
4.732
4.727
4.734
4.734
4.733
4.731
4.731
4.725
4.728
4.728
4.733
4.739
4.747
4.755
4.764
4.761
4.764
4.760
4.763
4.760
4.761
4.765
4.769
4.768
4.762
4.763
4.767
4.760
4.763
4.760
4.759
4.753
4.755
4.752
4.753
4.760
4.759
4.759
4.759
4.760
4.756
4.754
4.760
4.768
4.776
4.784
4.784
4.785
4.783
4.781
4.774
4.773
4.772
4.766
4.766
4.770
4.773
4.775
4.775
4.777
4.775
4.771
4.766
4.762
4.757
4.753
4.748
4.744
4.739
4.735
4.734
4.741
4.749
4.757
4.760
4.757
4.755
4.760
4.759
4.760
4.759
4.760
4.757
4.756
4.754
4.755
4.753
4.752
4.751
4.747
4.742
4.737
4.731
4.726
4.723
4.722
4.725
4.727
4.724
4.723
4.725
4.726
4.724
4.722
4.729
4.736
4.743
4.750
4.757
4.763
4.760
4.751
4.748
4.746
4.747
4.745
4.736
4.730
4.739
4.749
4.749
4.746
4.738
4.737
4.738
4.738
4.735
4.734
4.733
4.735
4.735
4.734
4.729
4.725
4.725
4.726
4.732
4.732
4.727
4.726
4.728
4.728
4.738
4.742
4.737
4.744
4.750
4.757
4.764
4.771
4.770
4.764
4.758
4.752
4.748
4.747
4.746
4.747
4.750
4.748
4.741
4.739
4.733
4.732
4.731
4.730
4.728
4.730
4.729
4.733
4.731
4.728
4.728
4.727
4.728
4.725
4.724
4.730
4.725
4.724
4.723
4.721
4.717
4.713
4.714
4.720
4.726
4.732
4.739
4.745
4.751
4.758
4.764
4.768
4.767
4.768
4.764
4.765
4.765
4.768
4.775
4.773
4.768
4.765
4.765
4.767
4.765
4.766
4.761
4.753
4.745
4.747
4.748
4.745
4.736
4.740
4.738
4.741
4.741
4.738
4.730
4.734
4.730
4.727
4.722
4.725
4.728
4.730
4.732
4.727
4.728
4.731
4.728
4.728
4.727
4.724
4.729
4.735
4.741
4.747
4.753
4.759
4.765
4.764
4.764
4.764
4.763
4.757
4.762
4.760
4.760
4.764
4.764
4.764
4.756
4.755
4.753
4.753
4.753
4.753
4.754
4.760
4.766
4.765
4.769
4.768
4.762
4.760
4.757
4.751
4.748
4.753
4.754
4.749
4.747
4.751
4.746
4.751
4.750
4.754
4.749
4.746
4.740
4.734
4.727
4.727
4.723
4.720
4.724
4.719
4.721
4.721
4.726
4.732
4.738
4.743
4.749
4.754
4.760
4.765
4.771
4.777
4.782
4.788
4.787
4.786
4.782
4.781
4.779
4.781
4.777
4.773
4.773
4.770
4.773
4.777
4.773
4.769
4.766
4.769
4.772
4.765
4.766
4.767
4.771
4.769
4.771
4.771
4.765
4.769
4.761
4.758
4.760
4.756
4.752
4.756
4.751
4.752
4.749
4.752
4.751
4.749
4.745
4.749
4.745
4.747
4.750
4.755
4.756
4.759
4.760
4.758
4.755
4.754
4.746
4.739
4.741
4.737
4.737
4.739
4.741
4.746
4.751
4.757
4.762
4.767
4.772
4.777
4.782
4.788
4.793
4.792
4.788
4.790
4.793
4.790
4.790
4.788
4.790
4.793
4.792
4.786
4.791
4.797
4.797
4.795
4.794
4.798
4.792
4.792
4.786
4.780
4.779
4.780
4.774
4.778
4.779
4.781
4.782
4.783
4.783
4.782
4.780
4.779
4.778
4.780
4.776
4.775
4.778
4.785
4.782
4.783
4.776
4.776
4.774
4.777
4.777
4.774
4.774
4.773
4.776
4.772
4.771
4.767
4.768
4.765
4.770
4.777
4.777
4.770
4.764
4.764
4.766
4.772
4.771
4.773
4.773
4.770
4.773
4.772
4.766
4.767
4.768
4.773
4.778
4.783
4.788
4.792
