2.992
3.327
3.514
3.620
3.712
3.790
3.837
3.857
3.923
3.974
3.952
3.992
4.027
4.060
4.090
4.116
4.114
4.056
4.068
4.084
4.100
4.110
4.130
4.140
4.151
4.162
4.179
4.185
4.197
4.199
4.216
4.228
4.225
4.238
4.249
4.265
4.256
4.268
4.275
4.284
4.295
4.290
4.298
4.303
4.317
4.322
4.328
4.334
4.335
4.333
4.334
4.349
4.351
4.353
4.367
4.373
4.378
4.385
4.393
4.376
4.377
4.377
4.394
4.392
4.397
4.400
4.407
4.411
4.416
4.427
4.428
4.432
4.438
4.442
4.444
4.457
4.434
4.426
4.430
4.430
4.445
4.442
4.449
4.456
4.447
4.450
4.458
4.464
4.468
4.468
4.476
4.482
4.485
4.479
4.486
4.483
4.484
4.488
4.497
4.498
4.503
4.509
4.513
4.517
4.521
4.516
4.525
4.520
4.524
4.520
4.502
4.496
4.496
4.504
4.512
4.508
4.501
4.510
4.512
4.522
4.517
4.528
4.520
4.515
4.524
4.512
4.520
4.527
4.524
4.525
4.536
4.537
4.540
4.544
4.547
4.547
4.542
4.543
4.552
4.550
4.564
4.556
4.568
4.562
4.564
4.560
4.559
4.568
4.552
4.558
4.556
4.569
4.560
4.569
4.564
4.575
4.578
4.582
4.584
4.580
4.592
4.586
4.595
4.581
4.595
4.591
4.591
4.599
4.592
4.609
4.608
4.605
4.609
4.613
4.613
4.619
4.611
4.609
4.603
4.609
4.611
4.611
4.613
4.607
4.605
4.611
4.612
4.609
4.619
4.617
4.615
4.628
4.632
4.626
4.628
4.633
4.632
4.635
4.642
4.637
4.636
4.642
4.650
4.644
4.644
4.638
4.629
4.620
4.611
4.601
4.609
4.612
4.606
4.605
4.619
4.617
4.618
4.608
4.621
4.619
4.614
4.614
4.623
4.626
4.624
4.616
4.622
4.642
4.639
4.633
4.633
4.637
4.644
4.636
4.631
4.628
4.626
4.627
4.617
4.617
4.630
4.626
4.612
4.607
4.622
4.625
4.617
4.616
4.612
4.623
4.626
4.625
4.620
4.617
4.621
4.638
4.642
4.635
4.636
4.624
4.632
4.643
4.650
4.643
4.633
4.631
4.638
4.645
4.646
4.646
4.637
4.631
4.641
4.653
4.648
4.645
4.650
4.647
4.644
4.656
4.668
4.665
4.659
4.660
4.660
4.658
4.663
4.655
4.660
4.653
4.648
4.647
4.654
4.669
4.665
4.653
4.648
4.653
4.647
4.653
4.668
4.672
4.666
4.665
4.661
4.666
4.661
4.662
4.677
4.679
4.676
4.669
4.663
4.661
4.658
4.666
4.681
4.690
4.682
4.677
4.681
4.684
4.680
4.679
4.678
4.692
4.701
4.704
4.691
4.691
4.687
4.691
4.688
4.692
4.697
4.699
4.694
4.701
4.707
4.700
4.694
4.687
4.691
4.693
4.685
4.681
4.673
4.673
4.669
4.664
4.664
4.674
4.688
4.687
4.689
4.685
4.676
4.666
4.658
4.662
4.662
4.673
4.682
4.677
4.677
4.678
4.676
4.673
4.670
4.670
4.671
4.664
4.676
4.689
4.700
4.697
4.698
4.691
4.689
4.682
4.681
4.680
4.677
4.673
4.684
4.696
4.693
4.697
4.705
4.696
4.685
4.676
4.675
4.674
4.672
4.671
4.683
4.694
4.696
4.697
4.696
4.692
4.693
4.693
4.693
4.686
4.682
4.683
4.680
4.684
4.696
4.707
4.718
4.720
4.716
4.710
4.701
4.701
4.694
4.698
4.698
4.698
4.695
4.692
4.698
4.709
4.711
4.708
4.710
4.709
4.709
4.709
4.706
4.703
4.701
4.699
4.699
4.704
4.706
4.704
4.711
4.722
4.733
4.734
4.735
4.727
4.730
4.729
4.731
4.725
4.726
4.720
4.719
4.718
4.717
4.711
4.713
4.723
4.734
4.741
4.745
4.738
4.737
4.728
4.724
4.720
4.719
4.722
4.722
4.716
4.709
4.701
4.703
4.713
4.723
4.732
4.730
4.724
4.729
4.726
4.723
4.723
4.716
4.714
4.708
4.702
4.701
4.696
4.698
4.695
4.700
4.710
4.719
4.729
4.727
4.728
4.722
4.728
4.727
4.726
4.727
4.727
4.729
4.727
4.728
4.727
4.723
4.714
4.703
4.703
4.704
4.712
4.721
4.729
4.736
4.738
4.738
4.738
4.739
4.738
4.738
4.739
4.734
4.728
4.729
4.732
4.734
4.736
4.741
4.732
4.725
4.723
4.718
4.720
4.726
4.735
4.743
4.752
4.748
4.754
4.757
4.754
4.753
4.759
4.762
4.759
4.760
4.759
4.759
4.751
4.751
4.745
4.743
4.743
4.739
4.742
4.745
4.747
4.744
4.743
4.748
4.756
4.765
4.773
4.771
4.769
4.767
4.763
4.758
4.758
4.757
4.750
4.757
4.749
4.758
4.753
4.746
4.739
4.736
4.735
4.734
4.730
4.727
4.727
4.735
4.743
4.751
4.759
4.764
4.770
4.767
4.765
4.760
4.758
4.758
4.758
4.756
4.756
4.757
4.749
4.757
4.753
4.749
4.745
4.749
4.754
4.754
4.757
4.755
4.756
4.748
4.747
4.750
4.751
4.751
4.759
4.766
4.774
4.782
4.785
4.780
4.784
4.786
4.790
4.788
4.782
4.782
4.783
4.779
4.782
4.784
4.783
4.781
4.784
4.786
4.782
4.779
4.779
4.778
4.780
4.782
4.778
4.769
4.771
4.772
4.770
4.768
4.767
4.774
4.781
4.788
4.796
4.803
4.807
4.804
4.793
4.788
4.785
4.786
4.790
4.792
4.790
4.789
4.785
4.781
4.777
4.773
4.769
4.764
4.760
4.756
4.752
4.748
4.744
4.740
4.736
4.732
4.737
4.744
4.751
4.758
4.765
4.772
4.776
4.769
4.773
4.779
4.782
4.785
4.783
4.782
4.776
4.772
4.767
4.762
4.757
4.752
4.747
4.747
4.747
4.743
4.739
4.737
4.736
4.742
4.745
4.745
4.744
4.745
4.748
4.746
4.747
4.748
4.744
4.743
4.742
4.745
4.752
4.758
4.765
4.771
4.777
4.768
4.762
4.759
4.757
4.754
4.752
4.750
4.752
4.757
4.759
4.764
4.767
4.765
4.761
4.762
4.762
4.759
4.754
4.751
4.758
4.755
4.756
4.753
4.752
4.751
4.750
4.745
4.747
4.750
4.758
4.753
4.747
4.750
4.746
4.747
4.750
4.751
4.749
4.755
4.762
4.768
4.771
4.774
4.768
4.773
4.769
4.770
4.772
4.768
4.764
4.761
4.764
4.764
4.765
4.762
4.757
4.752
4.745
4.746
4.741
4.743
4.741
4.746
4.748
4.754
4.752
4.750
4.747
4.746
4.748
4.747
4.746
4.746
4.740
4.737
4.733
4.733
4.736
4.736
4.736
4.734
4.734
4.740
4.739
4.745
4.751
4.757
4.763
4.769
4.775
4.780
4.786
4.790
4.789
4.792
4.790
4.782
4.785
4.787
4.786
4.782
4.783
4.776
4.774
4.769
4.772
4.775
4.775
4.765
4.764
4.767
4.767
4.766
4.762
4.756
4.753
4.753
4.747
4.742
4.737
4.736
4.736
4.738
4.742
4.738
4.745
4.751
4.751
4.754
4.755
4.753
4.753
4.751
4.752
4.750
4.743
4.740
4.740
4.746
4.751
4.757
4.762
4.768
4.773
4.778
4.780
4.781
4.781
4.781
4.779
4.781
4.778
4.777
4.779
4.783
4.781
4.780
4.777
4.776
4.776
4.778
4.776
4.776
4.777
4.775
4.780
4.784
4.780
4.780
4.777
4.775
4.774
4.773
4.771
4.774
4.777
4.773
4.769
4.765
4.763
4.761
4.762
4.756
4.758
4.755
4.754
4.751
4.752
4.749
4.752
4.750
4.746
4.738
4.736
4.734
4.732
4.732
4.734
4.738
4.745
4.752
4.753
4.758
4.763
4.768
4.773
4.778
4.783
4.788
4.793
4.799
4.803
4.803
4.798
4.795
4.796
4.798
4.800
4.798
4.794
4.794
4.793
4.796
4.793
4.786
4.785
4.784
4.785
4.785
4.782
4.788
4.787
4.790
4.796
4.794
4.789
4.786
4.784
4.782
4.774
4.770
4.764
4.758
4.759
4.766
4.766
4.768
4.774
4.771
4.775
4.772
4.773
4.772
4.771
4.771
4.771
4.774
4.775
4.778
4.779
4.776
4.773
4.769
4.768
4.767
4.763
4.760
4.760
4.761
4.755
4.755
4.760
4.760
4.758
4.763
4.766
4.770
4.775
