2.992
3.332
3.503
3.631
3.726
3.787
3.844
3.877
3.942
3.946
3.994
4.039
4.005
4.039
4.068
4.094
4.120
4.147
4.167
4.188
4.159
4.114
4.128
4.143
4.156
4.166
4.181
4.192
4.195
4.210
4.222
4.223
4.238
4.239
4.249
4.266
4.265
4.273
4.279
4.292
4.290
4.299
4.303
4.318
4.325
4.319
4.323
4.333
4.342
4.349
4.359
4.362
4.351
4.360
4.364
4.374
4.377
4.382
4.394
4.395
4.400
4.390
4.395
4.399
4.400
4.410
4.418
4.420
4.424
4.432
4.433
4.436
4.443
4.448
4.440
4.434
4.436
4.436
4.441
4.448
4.454
4.459
4.458
4.462
4.468
4.473
4.474
4.481
4.481
4.488
4.487
4.492
4.496
4.503
4.507
4.510
4.492
4.486
4.482
4.491
4.492
4.494
4.504
4.505
4.501
4.511
4.517
4.503
4.510
4.514
4.520
4.518
4.523
4.529
4.529
4.532
4.534
4.540
4.543
4.540
4.547
4.547
4.543
4.551
4.551
4.552
4.559
4.562
4.566
4.565
4.573
4.574
4.572
4.579
4.567
4.574
4.586
4.577
4.572
4.560
4.550
4.549
4.555
4.563
4.559
4.557
4.566
4.569
4.561
4.568
4.570
4.569
4.578
4.577
4.578
4.584
4.575
4.576
4.575
4.573
4.573
4.579
4.580
4.587
4.584
4.590
4.586
4.593
4.591
4.599
4.591
4.607
4.605
4.606
4.599
4.599
4.597
4.612
4.608
4.617
4.616
4.618
4.622
4.617
4.614
4.612
4.610
4.610
4.621
4.614
4.616
4.612
4.618
4.626
4.618
4.625
4.621
4.623
4.629
4.628
4.636
4.637
4.633
4.647
4.643
4.637
4.646
4.643
4.643
4.640
4.636
4.647
4.647
4.650
4.649
4.658
4.652
4.653
4.666
4.662
4.657
4.669
4.668
4.662
4.671
4.672
4.662
4.659
4.657
4.659
4.665
4.673
4.666
4.659
4.663
4.664
4.662
4.667
4.666
4.666
4.665
4.677
4.671
4.669
4.669
4.684
4.687
4.681
4.673
4.688
4.688
4.684
4.684
4.692
4.695
4.694
4.684
4.692
4.703
4.695
4.688
4.681
4.674
4.667
4.665
4.664
4.658
4.650
4.658
4.662
4.662
4.658
4.658
4.667
4.669
4.667
4.669
4.662
4.673
4.669
4.660
4.667
4.665
4.675
4.676
4.677
4.671
4.669
4.676
4.686
4.684
4.684
4.684
4.683
4.688
4.695
4.688
4.688
4.688
4.681
4.674
4.672
4.669
4.669
4.673
4.683
4.674
4.672
4.674
4.670
4.671
4.673
4.671
4.670
4.669
4.669
4.674
4.681
4.673
4.672
4.668
4.662
4.673
4.684
4.681
4.683
4.677
4.684
4.676
4.680
4.692
4.699
4.692
4.686
4.681
4.688
4.687
4.694
4.693
4.692
4.690
4.688
4.681
4.681
4.695
4.706
4.703
4.697
4.693
4.694
4.692
4.692
4.701
4.705
4.706
4.708
4.703
4.702
4.704
4.706
4.706
4.718
4.718
4.711
4.718
4.716
4.717
4.710
4.704
4.713
4.715
4.710
4.709
4.705
4.707
4.705
4.699
4.711
4.715
4.706
4.707
4.703
4.701
4.700
4.704
4.702
4.712
4.725
4.721
4.719
4.718
4.718
4.717
4.714
4.714
4.714
4.723
4.733
4.739
4.730
4.720
4.718
4.715
4.721
4.714
4.714
4.726
4.736
4.734
4.740
4.734
4.733
4.731
4.730
4.729
4.732
4.734
4.735
4.745
4.755
4.748
4.747
4.747
4.744
4.739
4.736
4.737
4.738
4.739
4.746
4.750
4.746
4.748
4.744
4.747
4.743
4.753
4.747
4.742
4.738
4.732
4.727
4.731
4.730
4.729
4.730
4.721
4.721
4.720
4.718
4.723
4.732
4.743
4.738
4.740
4.736
4.729
4.722
4.715
4.710
4.710
4.706
4.717
4.725
4.732
4.735
4.736
4.729
4.725
4.725
4.720
4.719
4.726
4.724
4.721
4.716
4.725
4.733
4.739
4.740
4.742
4.740
4.745
4.746
4.742
4.741
4.742
4.736
4.728
4.727
4.732
4.733
4.740
4.744
4.742
4.741
4.737
4.740
4.737
4.741
4.743
4.738
4.729
4.727
4.728
4.724
4.731
4.741
4.739
4.743
4.742
4.741
4.739
4.740
4.734
4.738
4.739
4.740
4.740
4.738
4.732
4.733
4.734
4.743
4.750
4.760
4.758
4.754
4.755
4.755
4.762
4.757
4.756
4.755
4.758
4.758
4.750
4.741
4.740
4.747
4.743
4.752
4.759
4.768
4.769
4.762
4.758
4.754
4.751
4.754
4.751
4.752
4.751
4.755
4.748
4.743
4.745
4.751
4.748
4.751
4.759
4.766
4.775
4.769
4.777
4.776
4.772
4.771
4.773
4.773
4.772
4.769
4.769
4.766
4.772
4.771
4.773
4.776
4.772
4.766
4.764
4.773
4.778
4.787
4.789
4.787
4.783
4.776
4.781
4.781
4.778
4.782
4.780
4.777
4.773
4.777
4.770
4.765
4.759
4.760
4.769
4.765
4.769
4.771
4.767
4.766
4.766
4.766
4.769
4.766
4.766
4.765
4.759
4.765
4.766
4.768
4.767
4.766
4.770
4.763
4.756
4.754
4.755
4.760
4.769
4.771
4.773
4.766
4.767
4.768
4.769
4.768
4.766
4.769
4.761
4.763
4.759
4.762
4.759
4.758
4.762
4.760
4.764
4.763
4.762
4.766
4.767
4.762
4.769
4.776
4.781
4.785
4.786
4.782
4.780
4.779
4.777
4.776
4.775
4.779
4.778
4.779
4.773
4.768
4.766
4.765
4.772
4.769
4.770
4.769
4.766
4.766
4.761
4.763
4.772
4.776
4.783
4.788
4.795
4.803
4.805
4.799
4.797
4.799
4.795
4.790
4.786
4.785
4.786
4.784
4.786
4.787
4.786
4.790
4.791
4.788
4.788
4.784
4.784
4.784
4.784
4.790
4.786
4.782
4.784
4.787
4.794
4.801
4.808
4.814
4.813
4.810
4.810
4.814
4.813
4.815
4.816
4.817
4.814
4.807
4.802
4.799
4.797
4.799
4.799
4.801
4.800
4.799
4.802
4.799
4.797
4.795
4.792
4.796
4.797
4.792
4.792
4.795
4.802
4.806
4.805
4.803
4.805
4.803
4.800
4.803
4.803
4.803
4.799
4.792
4.795
4.795
4.797
4.801
4.802
4.798
4.799
4.801
4.797
4.795
4.792
4.788
4.786
4.785
4.789
4.787
4.783
4.782
4.788
4.787
4.791
4.798
4.803
4.809
4.814
4.820
4.825
4.825
4.819
4.820
4.818
4.815
4.816
4.821
4.822
4.823
4.818
4.812
4.814
4.812
4.808
4.807
4.810
4.812
4.811
4.814
4.814
4.814
4.813
4.812
4.808
4.809
4.810
4.810
4.810
4.809
4.813
4.812
4.811
4.812
4.811
4.815
4.822
4.826
4.832
4.837
4.844
4.847
4.847
4.847
4.841
4.840
4.843
4.850
4.847
4.847
4.847
4.842
4.836
4.831
4.832
4.834
4.829
4.826
4.827
4.826
4.821
4.818
4.822
4.821
4.821
4.820
4.818
4.818
4.819
4.825
4.830
4.831
4.825
4.818
4.816
4.814
4.819
4.821
4.827
4.829
4.827
4.823
4.821
4.817
4.816
4.815
4.811
4.806
4.806
4.806
4.806
4.807
4.808
4.806
4.810
4.809
4.805
4.804
4.803
4.801
4.797
4.798
4.799
4.804
4.805
4.803
4.803
4.801
4.797
4.798
4.800
4.798
4.795
4.796
4.795
4.799
4.795
4.796
4.800
4.804
4.806
4.806
4.811
4.817
4.819
4.817
4.818
4.817
4.814
4.812
4.808
4.810
4.808
4.809
4.811
4.812
4.813
4.809
4.808
4.807
4.810
4.810
4.810
4.807
4.808
4.806
4.800
4.795
4.792
4.793
4.795
4.798
4.795
4.796
4.799
4.795
4.799
4.795
4.795
4.795
4.789
4.784
4.783
4.785
4.786
4.787
4.792
4.796
4.802
4.806
4.810
4.815
4.821
4.821
4.819
4.817
4.818
4.818
4.814
4.814
4.813
4.815
4.818
4.817
4.819
4.820
4.824
4.826
4.822
4.825
4.827
4.821
4.821
4.817
4.813
4.810
4.810
4.810
4.811
4.809
4.806
4.803
4.803
4.803
4.799
4.798
4.806
4.807
4.803
4.803
4.799
4.795
4.792
4.788
4.786
4.787
4.792
4.796
4.795
4.793
4.791
4.790
4.794
4.798
