2.992
3.332
3.516
3.636
3.717
3.785
3.849
3.892
3.918
3.974
3.973
4.015
4.055
4.072
4.057
4.081
4.107
4.130
4.153
4.174
4.197
4.218
4.235
4.210
4.170
4.166
4.178
4.193
4.200
4.206
4.221
4.225
4.238
4.240
4.252
4.267
4.268
4.278
4.288
4.288
4.296
4.303
4.314
4.311
4.321
4.327
4.334
4.338
4.339
4.347
4.353
4.358
4.370
4.365
4.366
4.377
4.377
4.388
4.391
4.399
4.407
4.393
4.402
4.407
4.411
4.415
4.424
4.426
4.430
4.437
4.436
4.442
4.429
4.437
4.441
4.442
4.444
4.455
4.458
4.458
4.462
4.467
4.477
4.478
4.479
4.481
4.487
4.486
4.476
4.480
4.474
4.483
4.484
4.489
4.496
4.497
4.499
4.495
4.506
4.508
4.509
4.516
4.523
4.521
4.526
4.524
4.526
4.532
4.531
4.538
4.544
4.544
4.550
4.536
4.523
4.525
4.528
4.525
4.531
4.535
4.536
4.538
4.547
4.543
4.547
4.554
4.555
4.549
4.551
4.552
4.555
4.558
4.556
4.563
4.569
4.573
4.570
4.576
4.578
4.585
4.584
4.579
4.580
4.579
4.581
4.584
4.583
4.593
4.592
4.595
4.602
4.604
4.605
4.601
4.607
4.612
4.613
4.607
4.618
4.612
4.614
4.612
4.619
4.612
4.600
4.590
4.586
4.585
4.592
4.588
4.599
4.599
4.594
4.604
4.603
4.610
4.605
4.603
4.611
4.604
4.614
4.609
4.618
4.618
4.619
4.615
4.613
4.620
4.610
4.618
4.611
4.617
4.618
4.620
4.621
4.625
4.625
4.629
4.624
4.629
4.633
4.629
4.638
4.634
4.647
4.642
4.643
4.639
4.640
4.637
4.636
4.653
4.644
4.648
4.657
4.651
4.660
4.659
4.655
4.648
4.643
4.650
4.644
4.653
4.657
4.655
4.654
4.650
4.647
4.659
4.657
4.659
4.663
4.661
4.658
4.666
4.663
4.664
4.671
4.670
4.670
4.678
4.681
4.680
4.677
4.686
4.677
4.678
4.682
4.677
4.676
4.684
4.682
4.681
4.687
4.691
4.688
4.689
4.698
4.697
4.695
4.697
4.701
4.697
4.699
4.700
4.712
4.700
4.701
4.695
4.695
4.691
4.695
4.703
4.701
4.703
4.701
4.707
4.696
4.697
4.699
4.703
4.698
4.694
4.698
4.707
4.710
4.707
4.699
4.710
4.714
4.711
4.712
4.711
4.721
4.722
4.718
4.714
4.717
4.730
4.725
4.724
4.726
4.722
4.733
4.735
4.728
4.727
4.721
4.714
4.710
4.705
4.704
4.697
4.695
4.691
4.698
4.700
4.692
4.684
4.684
4.697
4.703
4.700
4.698
4.700
4.696
4.705
4.710
4.705
4.709
4.707
4.703
4.705
4.701
4.702
4.699
4.702
4.704
4.716
4.712
4.711
4.709
4.710
4.706
4.718
4.723
4.722
4.720
4.718
4.725
4.719
4.729
4.730
4.723
4.721
4.714
4.711
4.715
4.713
4.706
4.710
4.707
4.707
4.718
4.716
4.715
4.707
4.706
4.707
4.707
4.708
4.707
4.707
4.707
4.707
4.706
4.708
4.718
4.713
4.709
4.707
4.709
4.703
4.704
4.716
4.720
4.719
4.718
4.718
4.710
4.711
4.717
4.722
4.733
4.733
4.729
4.730
4.723
4.719
4.718
4.722
4.733
4.735
4.728
4.729
4.725
4.727
4.721
4.719
4.729
4.732
4.733
4.736
4.739
4.735
4.728
4.725
4.728
4.735
4.739
4.741
4.742
4.736
4.739
4.735
4.737
4.735
4.736
4.744
4.756
4.758
4.753
4.754
4.747
4.746
4.750
4.746
4.744
4.749
4.742
4.744
4.742
4.741
4.742
4.741
4.736
4.735
4.745
4.754
4.751
4.751
4.747
4.740
4.742
4.738
4.736
4.732
4.740
4.751
4.755
4.755
4.755
4.751
4.755
4.749
4.748
4.751
4.747
4.744
4.755
4.763
4.767
4.763
4.761
4.763
4.764
4.765
4.759
4.751
4.750
4.752
4.761
4.770
4.764
4.765
4.764
4.766
4.762
4.765
4.764
4.765
4.762
4.760
4.764
4.771
4.781
4.784
4.784
4.782
4.780
4.784
4.786
4.777
4.775
4.779
4.770
4.771
4.778
4.785
4.788
4.790
4.783
4.781
4.780
4.781
4.773
4.774
4.773
4.771
4.777
4.777
4.777
4.771
4.767
4.763
4.758
4.758
4.755
4.757
4.753
4.752
4.755
4.762
4.767
4.768
4.769
4.771
4.769
4.766
4.766
4.758
4.764
4.766
4.761
4.758
4.753
4.755
4.761
4.758
4.761
4.755
4.758
4.755
4.759
4.760
4.758
4.760
4.758
4.755
4.755
4.751
4.755
4.763
4.769
4.776
4.773
4.770
4.766
4.766
4.762
4.762
4.764
4.766
4.769
4.768
4.764
4.768
4.762
4.763
4.769
4.777
4.781
4.777
4.777
4.779
4.773
4.777
4.777
4.773
4.769
4.762
4.761
4.762
4.767
4.766
4.766
4.768
4.777
4.777
4.778
4.776
4.778
4.777
4.773
4.770
4.770
4.766
4.769
4.766
4.764
4.762
4.758
4.757
4.759
4.766
4.773
4.781
4.788
4.793
4.791
4.787
4.783
4.784
4.781
4.784
4.783
4.779
4.777
4.779
4.780
4.779
4.778
4.777
4.780
4.779
4.780
4.787
4.792
4.799
4.800
4.798
4.795
4.798
4.797
4.795
4.789
4.787
4.788
4.787
4.786
4.785
4.783
4.782
4.783
4.779
4.778
4.782
4.789
4.795
4.802
4.796
4.797
4.796
4.797
4.793
4.794
4.795
4.794
4.796
4.795
4.798
4.795
4.792
4.792
4.792
4.794
4.792
4.794
4.793
4.789
4.796
4.802
4.809
4.814
4.823
4.822
4.818
4.821
4.821
4.819
4.821
4.814
4.810
4.807
4.804
4.803
4.804
4.810
4.809
4.813
4.810
4.805
4.804
4.799
4.799
4.805
4.810
4.818
4.825
4.819
4.814
4.810
4.810
4.816
4.814
4.810
4.804
4.800
4.796
4.791
4.787
4.784
4.781
4.780
4.779
4.788
4.785
4.788
4.790
4.797
4.801
4.808
4.812
4.811
4.810
4.811
4.815
4.816
4.814
4.811
4.806
4.802
4.801
4.800
4.795
4.791
4.790
4.794
4.796
4.794
4.790
4.788
4.787
4.780
4.782
4.789
4.793
4.800
4.807
4.811
4.806
4.811
4.815
4.814
4.815
4.814
4.814
4.807
4.809
4.810
4.810
4.808
4.807
4.808
4.804
4.808
4.807
4.807
4.807
4.811
4.806
4.807
4.803
4.800
4.796
4.794
4.799
4.805
4.810
4.816
4.823
4.821
4.820
4.816
4.814
4.816
4.814
4.813
4.817
4.816
4.817
4.819
4.817
4.816
4.814
4.813
4.817
4.818
4.820
4.818
4.815
4.814
4.820
4.814
4.812
4.814
4.814
4.811
4.812
4.808
4.814
4.819
4.826
4.830
4.836
4.838
4.840
4.841
4.837
4.830
4.828
4.829
4.831
4.830
4.828
4.827
4.829
4.830
4.829
4.832
4.833
4.835
4.834
4.836
4.837
4.838
4.836
4.832
4.834
4.835
4.834
4.827
4.821
4.821
4.825
4.825
4.823
4.829
4.834
4.838
4.844
4.844
4.845
4.844
4.848
4.847
4.848
4.849
4.850
4.851
4.848
4.844
4.839
4.835
4.837
4.841
4.839
4.841
4.844
4.840
4.837
4.836
4.833
4.833
4.829
4.825
4.821
4.818
4.815
4.813
4.815
4.816
4.815
4.821
4.826
4.832
4.836
4.841
4.839
4.844
4.844
4.841
4.840
4.841
4.844
4.840
4.840
4.838
4.834
4.835
4.842
4.840
4.842
4.841
4.840
4.840
4.842
4.835
4.833
4.835
4.833
4.830
4.825
4.822
4.825
4.825
4.825
4.829
4.826
4.825
4.826
4.829
4.828
4.827
4.831
4.833
4.833
4.838
4.844
4.847
4.851
4.857
4.862
4.860
4.855
4.852
4.855
4.858
4.862
4.865
4.861
4.858
4.861
4.858
4.853
4.854
4.855
4.852
4.853
4.852
4.855
4.854
4.850
4.849
4.853
4.860
4.864
4.863
4.861
4.855
4.851
4.852
4.855
4.855
4.855
4.851
4.853
4.851
4.850
4.851
4.851
4.847
4.847
4.849
4.851
4.854
4.858
4.863
4.869
4.871
4.877
4.877
4.873
4.870
4.867
4.871
4.872
4.871
4.872
