2.989
3.334
3.511
3.627
3.721
3.774
3.827
3.901
3.912
3.965
3.969
3.980
4.018
4.051
4.082
4.106
4.142
4.150
4.095
4.081
4.096
4.118
4.128
4.137
4.159
4.164
4.180
4.188
4.201
4.203
4.219
4.228
4.230
4.242
4.258
4.249
4.259
4.272
4.282
4.274
4.288
4.299
4.305
4.316
4.323
4.316
4.319
4.331
4.339
4.346
4.350
4.353
4.363
4.351
4.358
4.364
4.372
4.374
4.382
4.391
4.397
4.397
4.409
4.414
4.394
4.395
4.401
4.403
4.415
4.421
4.417
4.423
4.429
4.435
4.440
4.445
4.442
4.442
4.453
4.463
4.466
4.469
4.470
4.447
4.448
4.449
4.455
4.456
4.470
4.465
4.475
4.476
4.475
4.475
4.480
4.485
4.494
4.496
4.491
4.498
4.508
4.508
4.496
4.506
4.504
4.510
4.515
4.520
4.524
4.527
4.530
4.532
4.533
4.537
4.544
4.533
4.542
4.535
4.540
4.534
4.518
4.514
4.521
4.516
4.527
4.531
4.529
4.527
4.532
4.537
4.534
4.542
4.553
4.543
4.537
4.539
4.544
4.536
4.543
4.548
4.546
4.551
4.551
4.554
4.564
4.558
4.573
4.570
4.563
4.566
4.565
4.576
4.575
4.583
4.580
4.588
4.583
4.587
4.570
4.582
4.580
4.586
4.572
4.580
4.577
4.590
4.578
4.589
4.589
4.593
4.594
4.591
4.606
4.601
4.609
4.611
4.601
4.617
4.604
4.611
4.610
4.608
4.616
4.616
4.619
4.623
4.625
4.630
4.629
4.630
4.635
4.632
4.633
4.632
4.617
4.626
4.637
4.631
4.629
4.625
4.628
4.630
4.625
4.628
4.629
4.636
4.633
4.631
4.648
4.649
4.648
4.642
4.653
4.648
4.650
4.656
4.664
4.656
4.648
4.667
4.667
4.667
4.660
4.659
4.651
4.642
4.634
4.625
4.625
4.626
4.623
4.624
4.627
4.635
4.637
4.631
4.628
4.638
4.627
4.629
4.626
4.641
4.641
4.641
4.632
4.634
4.651
4.653
4.650
4.648
4.650
4.661
4.658
4.656
4.655
4.651
4.645
4.634
4.640
4.639
4.648
4.641
4.637
4.635
4.637
4.638
4.638
4.642
4.637
4.629
4.645
4.642
4.636
4.634
4.639
4.637
4.650
4.648
4.651
4.647
4.647
4.650
4.659
4.657
4.651
4.661
4.654
4.651
4.660
4.663
4.661
4.652
4.650
4.651
4.657
4.668
4.665
4.665
4.665
4.657
4.658
4.665
4.677
4.676
4.673
4.681
4.675
4.672
4.669
4.684
4.690
4.690
4.685
4.677
4.668
4.668
4.682
4.677
4.680
4.679
4.671
4.669
4.671
4.676
4.674
4.677
4.677
4.675
4.677
4.677
4.669
4.679
4.689
4.691
4.693
4.690
4.689
4.689
4.685
4.685
4.691
4.689
4.689
4.688
4.688
4.691
4.690
4.685
4.688
4.697
4.710
4.708
4.706
4.705
4.710
4.711
4.710
4.705
4.701
4.709
4.719
4.718
4.717
4.720
4.716
4.715
4.704
4.702
4.702
4.715
4.728
4.724
4.720
4.718
4.716
4.708
4.701
4.694
4.702
4.700
4.700
4.694
4.688
4.693
4.697
4.691
4.693
4.692
4.695
4.697
4.693
4.688
4.684
4.687
4.688
4.682
4.686
4.688
4.681
4.692
4.704
4.698
4.700
4.694
4.700
4.701
4.695
4.694
4.695
4.692
4.692
4.699
4.706
4.717
4.711
4.707
4.710
4.706
4.696
4.702
4.700
4.694
4.693
4.692
4.699
4.710
4.712
4.711
4.712
4.704
4.695
4.697
4.696
4.692
4.694
4.695
4.693
4.696
4.706
4.717
4.723
4.722
4.715
4.712
4.715
4.715
4.716
4.712
4.710
4.710
4.714
4.708
4.708
4.714
4.725
4.735
4.731
4.732
4.723
4.721
4.719
4.722
4.720
4.725
4.724
4.716
4.709
4.707
4.712
4.722
4.732
4.734
4.735
4.732
4.731
4.730
4.731
4.735
4.728
4.728
4.723
4.720
4.728
4.728
4.730
4.730
4.729
4.739
4.748
4.758
4.757
4.748
4.747
4.742
4.747
4.752
4.750
4.747
4.742
4.739
4.733
4.733
4.727
4.730
4.735
4.743
4.753
4.753
4.752
4.749
4.745
4.747
4.741
4.734
4.728
4.725
4.722
4.720
4.724
4.726
4.721
4.718
4.727
4.736
4.745
4.744
4.740
4.742
4.744
4.736
4.738
4.731
4.728
4.725
4.723
4.718
4.715
4.718
4.721
4.718
4.718
4.719
4.725
4.734
4.742
4.751
4.752
4.749
4.751
4.753
4.752
4.751
4.749
4.750
4.745
4.740
4.736
4.731
4.735
4.729
4.732
4.735
4.734
4.729
4.727
4.735
4.743
4.751
4.760
4.763
4.762
4.766
4.767
4.764
4.764
4.765
4.765
4.759
4.758
4.755
4.749
4.749
4.752
4.749
4.748
4.745
4.747
4.744
4.742
4.746
4.745
4.754
4.761
4.769
4.776
4.779
4.783
4.784
4.778
4.782
4.788
4.784
4.780
4.773
4.772
4.770
4.762
4.764
4.771
4.766
4.767
4.768
4.768
4.763
4.759
4.754
4.756
4.757
4.762
4.770
4.778
4.785
4.790
4.789
4.785
4.783
4.779
4.777
4.775
4.774
4.767
4.761
4.762
4.764
4.763
4.764
4.762
4.755
4.750
4.749
4.750
4.748
4.748
4.750
4.748
4.753
4.761
4.768
4.775
4.781
4.790
4.789
4.786
4.782
4.781
4.781
4.777
4.779
4.783
4.782
4.777
4.771
4.775
4.773
4.771
4.769
4.772
4.773
4.778
4.776
4.776
4.771
4.771
4.771
4.771
4.773
4.770
4.769
4.768
4.775
4.782
4.789
4.796
4.803
4.810
4.808
4.806
4.808
4.809
4.799
4.805
4.804
4.800
4.803
4.802
4.806
4.807
4.811
4.808
4.813
4.816
4.810
4.802
4.797
4.789
4.793
4.789
4.782
4.776
4.785
4.787
4.788
4.789
4.785
4.785
4.788
4.795
4.801
4.808
4.814
4.819
4.816
4.812
4.808
4.804
4.800
4.797
4.793
4.789
4.785
4.782
4.782
4.786
4.782
4.775
4.769
4.763
4.761
4.760
4.760
4.760
4.761
4.761
4.757
4.758
4.760
4.760
4.761
4.759
4.764
4.770
4.776
4.782
4.789
4.795
4.799
4.794
4.790
4.785
4.781
4.776
4.772
4.768
4.767
4.775
4.774
4.768
4.768
4.765
4.765
4.766
4.768
4.771
4.767
4.766
4.761
4.761
4.761
4.765
4.771
4.769
4.772
4.770
4.765
4.763
4.758
4.758
4.756
4.757
4.754
4.759
4.765
4.771
4.777
4.783
4.789
4.781
4.782
4.780
4.780
4.784
4.782
4.775
4.771
4.770
4.775
4.780
4.782
4.789
4.787
4.784
4.783
4.785
4.784
4.778
4.776
4.777
4.780
4.777
4.779
4.778
4.775
4.773
4.775
4.771
4.770
4.772
4.766
4.768
4.766
4.761
4.759
4.762
4.764
4.768
4.774
4.777
4.774
4.771
4.772
4.778
4.783
4.789
4.795
4.793
4.787
4.783
4.786
4.782
4.779
4.780
4.783
4.781
4.780
4.777
4.778
4.771
4.769
4.767
4.766
4.767
4.765
4.768
4.765
4.763
4.765
4.771
4.777
4.774
4.776
4.769
4.763
4.762
4.761
4.760
4.762
4.766
4.764
4.762
4.760
4.757
4.760
4.762
4.759
4.762
4.761
4.758
4.763
4.762
4.760
4.763
4.769
4.774
4.779
4.785
4.790
4.795
4.801
4.805
4.806
4.806
4.801
4.799
4.800
4.795
4.790
4.795
4.793
4.794
4.795
4.794
4.795
4.796
4.796
4.791
4.786
4.781
4.776
4.771
4.766
4.763
4.764
4.763
4.763
4.764
4.763
4.761
4.760
4.761
4.759
4.758
4.765
4.765
4.761
4.763
4.768
4.776
4.776
4.773
4.770
4.772
4.774
4.773
4.770
4.770
4.769
4.768
4.767
4.761
4.762
4.765
4.770
4.775
4.780
4.785
4.790
4.795
4.800
4.799
4.801
4.799
4.803
4.800
4.797
4.803
4.803
4.806
4.807
4.806
4.804
4.805
4.804
4.801
4.797
4.795
4.792
4.790
4.789
4.795
4.801
4.806
4.808
4.806
4.804
4.800
4.794
4.793
4.793
4.788
4.782
4.777
4.774
4.772
4.769
4.771
4.775
4.776
4.776
4.780
4.779
