2.993
3.308
3.484
3.615
3.645
3.758
3.768
3.737
3.794
3.822
3.853
3.893
3.907
3.942
3.959
3.982
3.988
4.013
4.034
4.063
4.052
4.069
4.091
4.112
4.123
4.117
4.131
4.132
4.147
4.174
4.168
4.189
4.203
4.198
4.215
4.228
4.187
4.205
4.226
4.210
4.212
4.240
4.229
4.257
4.263
4.258
4.259
4.257
4.268
4.276
4.279
4.288
4.295
4.299
4.319
4.315
4.294
4.315
4.317
4.348
4.335
4.343
4.373
4.367
4.357
4.374
4.354
4.329
4.323
4.341
4.345
4.347
4.361
4.323
4.317
4.330
4.323
4.337
4.346
4.342
4.346
4.331
4.363
4.363
4.372
4.385
4.367
4.369
4.355
4.379
4.370
4.372
4.387
4.379
4.379
4.405
4.404
4.404
4.407
4.419
4.412
4.400
4.424
4.417
4.410
4.426
4.407
4.390
4.402
4.390
4.392
4.389
4.408
4.412
4.402
4.389
4.404
4.394
4.411
4.395
4.389
4.425
4.425
4.421
4.415
4.408
4.429
4.438
4.424
4.418
4.426
4.427
4.460
4.457
4.465
4.439
4.431
4.440
4.472
4.467
4.465
4.454
4.430
4.437
4.443
4.440
4.434
4.438
4.428
4.420
4.447
4.457
4.456
4.458
4.463
4.455
4.433
4.439
4.467
4.495
4.487
4.480
4.471
4.476
4.477
4.481
4.466
4.492
4.490
4.512
4.492
4.484
4.464
4.463
4.468
4.468
4.493
4.500
4.504
4.484
4.493
4.495
4.497
4.484
4.480
4.490
4.494
4.518
4.542
4.529
4.521
4.520
4.496
4.511
4.521
4.507
4.498
4.511
4.514
4.537
4.555
4.548
4.534
4.521
4.508
4.500
4.491
4.500
4.498
4.480
4.501
4.508
4.483
4.484
4.486
4.488
4.487
4.487
4.480
4.484
4.483
4.472
4.471
4.477
4.497
4.517
4.519
4.501
4.482
4.474
4.471
4.491
4.469
4.478
4.478
4.471
4.479
4.474
4.472
4.474
4.493
4.511
4.512
4.508
4.514
4.520
4.509
4.499
4.509
4.486
4.476
4.466
4.464
4.463
4.481
4.470
4.478
4.481
4.481
4.498
4.515
4.532
4.537
4.531
4.513
4.498
4.501
4.502
4.511
4.502
4.508
4.504
4.495
4.484
4.483
4.499
4.489
4.485
4.481
4.477
4.485
4.500
4.516
4.532
4.548
4.539
4.539
4.543
4.552
4.536
4.534
4.521
4.522
4.524
4.530
4.518
4.508
4.518
4.520
4.520
4.510
4.519
4.524
4.524
4.507
4.505
4.488
4.502
4.517
4.532
4.546
4.561
4.575
4.574
4.573
4.570
4.577
4.588
4.592
4.576
4.570
4.575
4.580
4.575
4.561
4.551
4.536
4.541
4.537
4.526
4.530
4.528
4.530
4.541
4.542
4.536
4.519
4.509
4.507
4.515
4.529
4.542
4.555
4.543
4.549
4.548
4.557
4.558
4.555
4.556
4.546
4.550
4.534
4.524
4.540
4.528
4.536
4.532
4.529
4.528
4.525
4.525
4.526
4.524
4.521
4.518
4.508
4.511
4.513
4.525
4.510
4.502
4.489
4.483
4.482
4.496
4.507
4.524
4.527
4.539
4.551
4.563
4.575
4.587
4.594
4.600
4.604
4.612
4.603
4.598
4.598
4.601
4.600
4.592
4.589
4.584
4.586
4.580
4.573
4.580
4.574
4.575
4.591
4.582
4.584
4.583
4.584
4.576
4.568
4.559
4.550
4.543
4.534
4.526
4.525
4.527
4.523
4.525
4.517
4.511
4.506
4.497
4.488
4.499
4.509
4.520
4.530
4.541
4.552
4.562
4.573
4.580
4.585
4.571
4.570
4.560
4.563
4.552
4.559
4.569
4.565
4.561
4.567
4.561
4.549
4.546
4.550
4.545
4.541
4.540
4.540
4.539
4.535
4.526
4.534
4.547
4.558
4.552
4.553
4.555
4.560
4.548
4.549
4.552
4.547
4.547
4.552
4.546
4.547
4.535
4.534
4.526
4.524
4.534
4.526
4.518
4.524
4.524
4.526
4.525
4.523
4.517
4.513
4.510
4.517
4.523
4.523
4.528
4.537
4.546
4.555
4.564
4.574
4.583
4.590
4.590
4.591
4.592
4.594
4.588
4.586
4.580
4.582
4.581
4.586
4.586
4.587
4.587
4.594
4.592
4.580
4.566
4.558
4.550
4.548
4.545
4.544
4.541
4.554
4.564
4.551
4.552
4.567
4.559
4.553
4.547
4.554
4.539
4.546
4.548
4.546
4.547
4.548
4.556
4.550
4.552
4.544
4.537
4.540
4.538
4.534
4.533
4.535
4.539
4.539
4.537
4.531
4.530
4.530
4.534
4.532
4.528
4.523
4.514
4.504
4.504
4.501
4.504
4.505
4.515
4.505
4.494
4.498
4.499
4.500
4.501
4.506
4.517
4.528
4.540
4.544
4.546
4.554
4.562
4.570
4.577
4.585
4.593
4.601
4.609
4.617
4.623
4.619
4.626
4.620
4.623
4.620
4.632
4.618
4.619
4.607
4.609
4.604
4.595
4.600
4.608
4.602
4.607
4.603
4.614
4.605
4.605
4.614
4.610
4.609
4.605
4.599
4.595
4.585
4.584
4.575
4.582
4.576
4.574
4.567
4.571
4.573
4.574
4.580
4.579
4.580
4.572
4.569
4.565
4.560
4.563
4.556
4.563
4.568
4.563
4.577
4.578
4.579
4.577
4.574
4.570
4.574
4.584
4.590
4.585
4.590
4.591
4.592
4.594
4.582
4.572
4.569
4.576
4.569
4.567
4.567
4.565
4.557
4.557
4.547
4.539
4.535
4.536
4.537
4.544
4.546
4.542
4.536
4.536
4.541
4.540
4.547
4.555
4.543
4.553
4.544
4.543
4.542
4.536
4.530
4.524
4.518
4.520
4.509
4.500
4.507
4.514
4.520
4.527
4.533
4.540
4.547
4.553
4.560
4.566
4.573
4.580
4.586
4.593
4.600
4.606
4.606
4.602
4.604
4.597
4.606
4.594
4.598
4.594
4.589
4.591
4.598
4.582
4.579
4.575
4.588
4.582
4.574
4.574
4.580
4.570
4.574
4.583
4.590
4.589
4.592
4.588
4.591
4.580
4.583
4.587
4.587
4.587
4.582
4.586
4.589
4.588
4.597
4.589
4.581
4.590
4.586
4.587
4.589
4.586
4.587
4.578
4.579
4.584
4.587
4.586
4.583
4.572
4.566
4.561
4.560
4.557
4.553
4.551
4.556
4.552
4.560
4.559
4.559
4.556
4.551
4.553
4.552
4.559
4.559
4.557
4.552
4.549
4.536
4.541
4.534
4.533
4.533
4.533
4.545
4.544
4.539
4.540
4.537
4.537
4.529
4.526
4.535
4.534
4.538
4.544
4.537
4.532
4.534
4.531
4.531
4.534
4.534
4.532
4.532
4.531
4.532
4.530
4.526
4.530
4.533
4.529
4.535
4.532
4.528
4.525
4.529
4.530
4.530
4.535
4.533
4.540
4.541
4.551
4.555
4.550
4.552
4.558
4.566
4.564
4.565
4.571
4.564
4.560
4.556
4.547
4.551
4.552
4.548
4.544
4.539
4.550
4.552
4.544
4.540
4.529
4.526
4.523
4.534
4.525
4.519
4.518
4.514
4.516
4.510
4.507
4.502
4.498
4.505
4.497
4.503
4.508
4.513
4.519
4.524
4.529
4.534
4.540
4.545
4.550
4.556
4.561
4.566
4.572
4.577
4.582
4.587
4.592
4.598
4.603
4.608
4.614
4.619
4.624
4.629
4.635
4.640
4.637
4.628
4.628
4.636
4.625
4.630
4.633
4.642
4.648
4.644
4.653
4.651
4.646
4.639
4.638
4.633
4.623
4.623
4.622
4.626
4.628
4.629
4.629
4.633
4.626
4.624
4.620
4.620
4.615
4.613
4.617
4.617
4.612
4.616
4.612
4.616
4.616
4.617
4.617
4.621
4.614
4.607
4.608
4.600
4.609
4.609
4.619
4.625
4.633
4.633
4.625
4.616
4.610
4.616
4.615
4.609
4.607
4.614
4.617
4.613
4.616
4.613
4.609
4.609
4.599
4.591
4.592
4.588
4.583
4.582
4.581
4.584
4.587
4.588
4.581
4.578
4.571
4.576
4.577
4.579
4.588
4.587
4.594
4.601
4.601
4.596
4.591
4.586
4.581
4.577
4.572
4.567
4.562
4.557
4.553
4.550
4.555
4.563
4.562
4.561
4.560
4.561
4.563
4.565
4.562
4.561
4.563
4.571
4.578
4.586
4.577
4.573
4.571
4.570
4.565
4.564
4.555
4.555
4.560
4.561
4.559
4.550
4.546
