2.992
3.335
3.513
3.631
3.708
3.783
3.829
3.877
3.929
3.934
3.985
4.025
4.056
4.032
4.062
4.088
4.118
4.140
4.157
4.183
4.204
4.207
4.163
4.144
4.155
4.166
4.181
4.189
4.204
4.207
4.225
4.225
4.239
4.241
4.255
4.265
4.264
4.274
4.288
4.292
4.291
4.301
4.314
4.320
4.314
4.323
4.332
4.339
4.351
4.337
4.347
4.353
4.360
4.366
4.374
4.383
4.377
4.378
4.387
4.384
4.398
4.400
4.404
4.411
4.421
4.421
4.412
4.416
4.421
4.422
4.426
4.432
4.437
4.441
4.444
4.449
4.456
4.457
4.461
4.466
4.470
4.455
4.456
4.460
4.459
4.462
4.475
4.473
4.480
4.473
4.486
4.485
4.489
4.498
4.497
4.504
4.500
4.504
4.507
4.507
4.519
4.520
4.522
4.529
4.519
4.509
4.505
4.507
4.505
4.514
4.516
4.517
4.524
4.526
4.529
4.536
4.530
4.528
4.533
4.537
4.540
4.540
4.546
4.553
4.555
4.551
4.552
4.562
4.565
4.561
4.557
4.564
4.565
4.567
4.570
4.569
4.570
4.578
4.582
4.589
4.584
4.583
4.588
4.596
4.596
4.597
4.588
4.594
4.598
4.603
4.595
4.583
4.571
4.564
4.570
4.578
4.577
4.573
4.582
4.580
4.588
4.588
4.584
4.591
4.585
4.592
4.596
4.596
4.603
4.600
4.593
4.597
4.596
4.597
4.595
4.596
4.595
4.600
4.599
4.603
4.603
4.608
4.604
4.614
4.612
4.621
4.615
4.627
4.623
4.629
4.618
4.621
4.618
4.625
4.629
4.625
4.637
4.638
4.639
4.640
4.634
4.630
4.628
4.629
4.629
4.641
4.636
4.632
4.634
4.629
4.644
4.641
4.640
4.643
4.644
4.641
4.648
4.647
4.648
4.655
4.656
4.654
4.666
4.660
4.658
4.662
4.662
4.660
4.662
4.657
4.659
4.671
4.666
4.666
4.675
4.676
4.670
4.677
4.681
4.682
4.677
4.685
4.681
4.684
4.688
4.685
4.686
4.679
4.675
4.677
4.672
4.688
4.688
4.687
4.683
4.685
4.681
4.677
4.684
4.682
4.677
4.679
4.688
4.692
4.689
4.687
4.691
4.699
4.700
4.699
4.697
4.707
4.705
4.699
4.703
4.706
4.713
4.714
4.707
4.709
4.716
4.714
4.714
4.707
4.702
4.695
4.688
4.684
4.681
4.679
4.677
4.674
4.675
4.671
4.675
4.676
4.677
4.688
4.688
4.685
4.680
4.679
4.691
4.693
4.692
4.684
4.677
4.688
4.692
4.693
4.691
4.687
4.684
4.698
4.697
4.701
4.697
4.693
4.694
4.704
4.710
4.712
4.713
4.706
4.702
4.709
4.703
4.695
4.691
4.682
4.694
4.696
4.700
4.698
4.697
4.688
4.692
4.699
4.692
4.684
4.681
4.679
4.686
4.696
4.700
4.695
4.686
4.687
4.688
4.692
4.696
4.692
4.696
4.695
4.694
4.688
4.694
4.706
4.707
4.706
4.705
4.710
4.708
4.706
4.705
4.712
4.714
4.712
4.713
4.707
4.708
4.703
4.710
4.710
4.710
4.709
4.708
4.707
4.707
4.709
4.713
4.723
4.716
4.720
4.718
4.714
4.714
4.712
4.711
4.721
4.727
4.733
4.735
4.729
4.732
4.729
4.729
4.726
4.729
4.739
4.740
4.733
4.724
4.721
4.714
4.714
4.718
4.728
4.735
4.733
4.730
4.726
4.727
4.729
4.724
4.718
4.724
4.729
4.730
4.729
4.732
4.726
4.729
4.725
4.732
4.729
4.729
4.739
4.741
4.742
4.736
4.744
4.746
4.744
4.733
4.734
4.736
4.744
4.746
4.745
4.740
4.740
4.743
4.739
4.741
4.745
4.741
4.740
4.740
4.750
4.760
4.759
4.758
4.758
4.757
4.758
4.757
4.751
4.757
4.764
4.758
4.758
4.766
4.769
4.766
4.762
4.766
4.766
4.765
4.764
4.757
4.758
4.752
4.759
4.766
4.777
4.774
4.770
4.763
4.759
4.754
4.747
4.743
4.737
4.741
4.751
4.752
4.748
4.754
4.750
4.747
4.747
4.736
4.740
4.738
4.744
4.743
4.742
4.751
4.747
4.740
4.736
4.735
4.736
4.736
4.731
4.733
4.733
4.732
4.733
4.733
4.742
4.749
4.755
4.752
4.750
4.754
4.748
4.749
4.744
4.740
4.744
4.744
4.747
4.746
4.739
4.746
4.753
4.762
4.769
4.770
4.767
4.765
4.758
4.752
4.755
4.751
4.751
4.749
4.747
4.747
4.744
4.749
4.756
4.765
4.767
4.768
4.764
4.758
4.750
4.752
4.755
4.757
4.751
4.743
4.740
4.741
4.740
4.744
4.751
4.760
4.764
4.773
4.767
4.766
4.766
4.765
4.764
4.762
4.761
4.758
4.756
4.760
4.761
4.754
4.755
4.755
4.758
4.765
4.772
4.781
4.783
4.777
4.777
4.779
4.786
4.781
4.777
4.768
4.772
4.771
4.766
4.760
4.756
4.760
4.770
4.768
4.767
4.773
4.781
4.781
4.777
4.777
4.777
4.774
4.772
4.774
4.772
4.776
4.773
4.782
4.773
4.766
4.764
4.770
4.770
4.773
4.772
4.774
4.781
4.788
4.792
4.796
4.799
4.795
4.794
4.799
4.800
4.796
4.800
4.793
4.794
4.790
4.792
4.788
4.791
4.790
4.784
4.785
4.781
4.785
4.786
4.793
4.800
4.801
4.805
4.798
4.797
4.799
4.802
4.804
4.797
4.793
4.788
4.787
4.784
4.785
4.784
4.782
4.777
4.773
4.769
4.771
4.778
4.785
4.792
4.792
4.791
4.788
4.791
4.788
4.788
4.788
4.791
4.793
4.788
4.785
4.791
4.785
4.781
4.782
4.783
4.776
4.770
4.765
4.767
4.768
4.775
4.779
4.786
4.788
4.788
4.787
4.791
4.793
4.792
4.790
4.786
4.787
4.784
4.787
4.788
4.787
4.784
4.784
4.783
4.787
4.781
4.785
4.789
4.790
4.788
4.792
4.788
4.787
4.784
4.790
4.796
4.801
4.800
4.801
4.799
4.799
4.797
4.803
4.797
4.795
4.796
4.792
4.794
4.795
4.796
4.793
4.796
4.793
4.791
4.792
4.791
4.795
4.794
4.795
4.791
4.787
4.788
4.796
4.796
4.798
4.805
4.810
4.816
4.818
4.819
4.817
4.816
4.817
4.813
4.810
4.811
4.810
4.805
4.804
4.807
4.809
4.807
4.809
4.813
4.812
4.813
4.817
4.810
4.809
4.807
4.810
4.814
4.814
4.810
4.809
4.808
4.809
4.810
4.815
4.821
4.826
4.832
4.829
4.832
4.834
4.829
4.828
4.827
4.828
4.827
4.823
4.821
4.818
4.818
4.821
4.825
4.825
4.821
4.815
4.816
4.815
4.816
4.817
4.816
4.817
4.813
4.815
4.811
4.809
4.810
4.804
4.808
4.814
4.819
4.826
4.830
4.828
4.824
4.817
4.818
4.817
4.816
4.817
4.814
4.815
4.814
4.821
4.821
4.821
4.821
4.818
4.821
4.820
4.821
4.815
4.816
4.814
4.810
4.806
4.805
4.806
4.805
4.807
4.802
4.804
4.810
4.807
4.807
4.812
4.814
4.820
4.825
4.829
4.835
4.840
4.843
4.842
4.844
4.844
4.840
4.837
4.843
4.837
4.836
4.833
4.832
4.834
4.838
4.836
4.836
4.836
4.830
4.829
4.830
4.829
4.833
4.836
4.838
4.837
4.835
4.834
4.833
4.836
4.836
4.837
4.833
4.831
4.832
4.829
4.832
4.831
4.829
4.826
4.832
4.837
4.843
4.847
4.852
4.858
4.863
4.869
4.866
4.867
4.863
4.861
4.858
4.853
4.852
4.850
4.852
4.853
4.855
4.853
4.852
4.850
4.844
4.844
4.843
4.844
4.844
4.842
4.846
4.850
4.846
4.845
4.843
4.842
4.838
4.837
4.836
4.833
4.830
4.826
4.825
4.823
4.819
4.823
4.827
4.833
4.836
4.840
4.835
4.829
4.830
4.828
4.825
4.823
4.825
4.826
4.825
4.826
4.827
4.825
4.827
4.826
4.822
4.823
4.829
4.831
4.829
4.828
4.827
4.826
4.822
4.823
4.824
4.823
4.824
4.826
4.822
4.820
4.821
4.818
4.816
4.820
4.818
4.814
4.810
4.806
4.805
4.801
4.800
4.806
4.808
4.814
4.818
4.823
4.829
4.829
4.835
4.839
4.838
4.837
4.838
4.837
4.835
4.834
4.835
