2.994
3.334
3.508
3.618
3.707
3.786
3.836
3.859
3.919
3.972
3.951
3.986
4.029
4.055
4.086
4.120
4.138
4.082
4.066
4.081
4.096
4.120
4.125
4.137
4.157
4.158
4.177
4.181
4.198
4.213
4.210
4.225
4.237
4.236
4.247
4.257
4.272
4.263
4.269
4.284
4.291
4.298
4.296
4.303
4.311
4.323
4.325
4.339
4.338
4.344
4.338
4.340
4.347
4.359
4.355
4.370
4.377
4.381
4.387
4.400
4.384
4.378
4.382
4.391
4.396
4.408
4.404
4.407
4.417
4.418
4.425
4.425
4.429
4.441
4.444
4.446
4.451
4.455
4.433
4.432
4.434
4.441
4.448
4.446
4.458
4.460
4.458
4.457
4.467
4.463
4.470
4.479
4.478
4.481
4.488
4.488
4.486
4.485
4.488
4.496
4.503
4.509
4.514
4.518
4.524
4.520
4.530
4.528
4.525
4.533
4.529
4.533
4.514
4.499
4.507
4.499
4.511
4.514
4.511
4.514
4.516
4.523
4.522
4.526
4.538
4.528
4.522
4.522
4.522
4.528
4.525
4.529
4.535
4.533
4.544
4.547
4.547
4.555
4.552
4.550
4.555
4.553
4.562
4.559
4.570
4.561
4.570
4.567
4.559
4.569
4.565
4.569
4.557
4.564
4.566
4.572
4.568
4.578
4.571
4.581
4.581
4.581
4.592
4.585
4.598
4.594
4.598
4.585
4.593
4.596
4.598
4.610
4.601
4.600
4.615
4.611
4.614
4.619
4.614
4.625
4.622
4.614
4.614
4.610
4.620
4.619
4.615
4.622
4.614
4.607
4.620
4.621
4.612
4.629
4.623
4.624
4.631
4.632
4.629
4.629
4.640
4.643
4.640
4.644
4.645
4.644
4.644
4.660
4.653
4.649
4.639
4.632
4.623
4.613
4.606
4.603
4.617
4.614
4.610
4.611
4.628
4.625
4.618
4.611
4.629
4.624
4.622
4.619
4.629
4.635
4.629
4.624
4.628
4.644
4.644
4.640
4.633
4.640
4.650
4.640
4.629
4.627
4.637
4.632
4.622
4.619
4.633
4.627
4.618
4.618
4.618
4.629
4.628
4.625
4.618
4.618
4.631
4.633
4.633
4.627
4.628
4.630
4.645
4.651
4.640
4.633
4.634
4.638
4.653
4.652
4.639
4.640
4.634
4.643
4.653
4.651
4.650
4.643
4.639
4.644
4.658
4.655
4.658
4.655
4.656
4.655
4.655
4.668
4.670
4.670
4.667
4.665
4.666
4.660
4.664
4.665
4.659
4.655
4.656
4.654
4.662
4.673
4.661
4.655
4.656
4.659
4.653
4.659
4.672
4.677
4.673
4.670
4.667
4.671
4.669
4.670
4.678
4.684
4.678
4.670
4.672
4.668
4.666
4.673
4.680
4.693
4.691
4.682
4.685
4.692
4.688
4.682
4.686
4.688
4.702
4.707
4.699
4.696
4.692
4.695
4.699
4.696
4.692
4.703
4.703
4.703
4.710
4.709
4.703
4.692
4.692
4.696
4.691
4.690
4.683
4.676
4.678
4.674
4.669
4.674
4.675
4.687
4.689
4.690
4.685
4.677
4.667
4.660
4.670
4.670
4.670
4.682
4.691
4.682
4.685
4.684
4.681
4.676
4.673
4.682
4.669
4.671
4.683
4.695
4.707
4.704
4.699
4.698
4.688
4.687
4.688
4.685
4.681
4.676
4.686
4.698
4.700
4.703
4.703
4.695
4.688
4.682
4.678
4.676
4.678
4.671
4.683
4.692
4.703
4.707
4.708
4.701
4.696
4.701
4.697
4.695
4.692
4.690
4.692
4.685
4.691
4.703
4.711
4.723
4.721
4.718
4.708
4.710
4.703
4.698
4.710
4.703
4.705
4.703
4.697
4.701
4.710
4.717
4.716
4.715
4.713
4.718
4.714
4.712
4.713
4.710
4.711
4.704
4.711
4.712
4.711
4.714
4.721
4.729
4.740
4.740
4.738
4.737
4.735
4.734
4.732
4.733
4.732
4.731
4.725
4.723
4.722
4.720
4.718
4.728
4.736
4.747
4.749
4.742
4.735
4.733
4.730
4.728
4.729
4.726
4.721
4.715
4.708
4.707
4.703
4.714
4.721
4.731
4.735
4.731
4.732
4.731
4.727
4.726
4.729
4.718
4.711
4.709
4.708
4.706
4.703
4.704
4.705
4.706
4.716
4.723
4.732
4.736
4.732
4.729
4.733
4.736
4.733
4.733
4.730
4.739
4.735
4.733
4.730
4.722
4.714
4.710
4.711
4.710
4.713
4.722
4.729
4.737
4.746
4.745
4.740
4.745
4.749
4.745
4.747
4.742
4.740
4.736
4.740
4.740
4.741
4.744
4.740
4.736
4.729
4.726
4.727
4.726
4.730
4.739
4.746
4.755
4.752
4.759
4.765
4.756
4.757
4.764
4.770
4.766
4.768
4.767
4.763
4.756
4.752
4.753
4.751
4.748
4.754
4.747
4.747
4.756
4.755
4.747
4.747
4.755
4.762
4.770
4.774
4.775
4.776
4.769
4.770
4.762
4.765
4.761
4.754
4.762
4.760
4.756
4.751
4.744
4.746
4.747
4.741
4.740
4.735
4.726
4.732
4.737
4.744
4.751
4.759
4.767
4.771
4.775
4.771
4.767
4.766
4.769
4.760
4.761
4.763
4.764
4.760
4.759
4.760
4.755
4.752
4.751
4.755
4.762
4.763
4.764
4.762
4.756
4.754
4.753
4.751
4.756
4.757
4.762
4.770
4.775
4.784
4.789
4.795
4.792
4.793
4.794
4.792
4.786
4.793
4.791
4.782
4.789
4.785
4.786
4.785
4.789
4.788
4.792
4.788
4.788
4.788
4.788
4.787
4.781
4.773
4.769
4.774
4.773
4.777
4.773
4.771
4.778
4.785
4.791
4.798
4.805
4.809
4.799
4.796
4.796
4.795
4.796
4.798
4.796
4.792
4.788
4.784
4.781
4.777
4.773
4.768
4.764
4.760
4.756
4.752
4.750
4.744
4.742
4.743
4.744
4.738
4.744
4.751
4.756
4.763
4.769
4.776
4.778
4.777
4.780
4.784
4.789
4.788
4.783
4.779
4.773
4.768
4.766
4.760
4.756
4.754
4.755
4.751
4.750
4.752
4.747
4.746
4.747
4.746
4.747
4.752
4.750
4.754
4.753
4.747
4.755
4.755
4.750
4.749
4.747
4.744
4.751
4.757
4.762
4.768
4.775
4.773
4.767
4.768
4.761
4.759
4.761
4.760
4.759
4.762
4.758
4.765
4.770
4.774
4.770
4.768
4.766
4.768
4.764
4.760
4.761
4.762
4.758
4.760
4.761
4.759
4.759
4.754
4.750
4.755
4.756
4.760
4.758
4.759
4.751
4.747
4.747
4.754
4.761
4.760
4.756
4.760
4.767
4.771
4.777
4.779
4.778
4.779
4.775
4.776
4.773
4.768
4.766
4.765
4.767
4.771
4.772
4.765
4.759
4.752
4.753
4.751
4.747
4.751
4.747
4.747
4.753
4.759
4.758
4.754
4.758
4.755
4.753
4.759
4.753
4.749
4.750
4.743
4.742
4.743
4.740
4.744
4.744
4.741
4.742
4.740
4.745
4.747
4.750
4.755
4.761
4.766
4.770
4.776
4.781
4.788
4.794
4.796
4.796
4.793
4.788
4.787
4.792
4.792
4.788
4.782
4.777
4.777
4.775
4.779
4.781
4.779
4.775
4.774
4.773
4.774
4.769
4.766
4.764
4.759
4.753
4.749
4.747
4.743
4.742
4.741
4.742
4.746
4.748
4.746
4.750
4.757
4.758
4.760
4.761
4.760
4.758
4.760
4.756
4.754
4.748
4.749
4.745
4.747
4.753
4.759
4.764
4.768
4.772
4.777
4.783
4.788
4.788
4.787
4.789
4.787
4.785
4.782
4.786
4.785
4.788
4.788
4.788
4.785
4.783
4.782
4.786
4.784
4.783
4.784
4.780
4.785
4.783
4.785
4.788
4.785
4.783
4.781
4.781
4.777
4.781
4.779
4.778
4.773
4.770
4.771
4.766
4.762
4.761
4.763
4.759
4.759
4.756
4.757
4.758
4.755
4.753
4.747
4.742
4.741
4.744
4.740
4.742
4.740
4.740
4.746
4.751
4.755
4.756
4.762
4.766
4.771
4.777
4.781
4.785
4.790
4.794
4.799
4.805
4.806
4.803
4.803
4.802
4.799
4.807
4.801
4.799
4.799
4.799
4.798
4.799
4.796
4.796
4.793
4.792
4.788
4.791
4.790
4.794
4.795
4.799
4.799
4.797
4.795
4.789
4.782
4.777
4.773
4.767
4.765
4.762
4.763
4.769
4.774
4.775
4.777
4.781
4.777
4.781
4.781
4.778
