2.994
3.332
3.517
3.634
3.720
3.784
3.854
3.897
3.937
3.955
4.005
4.003
4.038
4.072
4.107
4.088
4.098
4.119
4.140
4.165
4.181
4.201
4.219
4.239
4.255
4.272
4.243
4.207
4.202
4.217
4.222
4.226
4.240
4.245
4.255
4.264
4.271
4.281
4.284
4.292
4.303
4.300
4.310
4.321
4.328
4.327
4.336
4.341
4.350
4.347
4.351
4.358
4.370
4.373
4.370
4.376
4.381
4.385
4.394
4.399
4.408
4.398
4.402
4.409
4.413
4.418
4.427
4.429
4.436
4.442
4.427
4.432
4.440
4.439
4.444
4.455
4.458
4.458
4.462
4.469
4.473
4.477
4.466
4.464
4.474
4.477
4.473
4.478
4.482
4.491
4.493
4.492
4.495
4.499
4.504
4.510
4.512
4.514
4.515
4.521
4.514
4.508
4.512
4.516
4.514
4.514
4.517
4.519
4.528
4.533
4.532
4.535
4.529
4.538
4.537
4.543
4.545
4.554
4.550
4.558
4.558
4.557
4.561
4.560
4.562
4.568
4.572
4.574
4.578
4.576
4.562
4.557
4.556
4.560
4.564
4.562
4.561
4.565
4.569
4.570
4.572
4.577
4.575
4.576
4.581
4.587
4.580
4.581
4.581
4.582
4.584
4.588
4.592
4.598
4.603
4.603
4.603
4.599
4.607
4.609
4.614
4.614
4.607
4.609
4.610
4.617
4.616
4.614
4.614
4.620
4.621
4.625
4.629
4.631
4.630
4.636
4.635
4.631
4.640
4.642
4.647
4.647
4.644
4.637
4.644
4.644
4.647
4.642
4.633
4.625
4.613
4.615
4.619
4.618
4.627
4.621
4.632
4.631
4.630
4.626
4.638
4.632
4.644
4.634
4.636
4.636
4.643
4.639
4.644
4.640
4.647
4.645
4.655
4.642
4.641
4.642
4.651
4.644
4.647
4.647
4.646
4.645
4.651
4.651
4.649
4.656
4.652
4.659
4.657
4.658
4.662
4.658
4.668
4.669
4.666
4.670
4.668
4.673
4.671
4.669
4.674
4.670
4.671
4.675
4.674
4.678
4.684
4.683
4.687
4.689
4.687
4.689
4.682
4.675
4.677
4.678
4.679
4.681
4.684
4.684
4.684
4.677
4.681
4.683
4.684
4.684
4.693
4.692
4.687
4.694
4.695
4.689
4.692
4.699
4.698
4.695
4.703
4.705
4.706
4.703
4.714
4.716
4.709
4.708
4.710
4.713
4.710
4.713
4.709
4.708
4.704
4.716
4.718
4.714
4.714
4.724
4.725
4.719
4.720
4.727
4.728
4.725
4.728
4.729
4.736
4.732
4.729
4.730
4.740
4.732
4.723
4.725
4.725
4.724
4.723
4.722
4.731
4.733
4.734
4.730
4.734
4.727
4.728
4.729
4.725
4.733
4.726
4.725
4.728
4.730
4.736
4.740
4.736
4.733
4.734
4.746
4.742
4.743
4.740
4.741
4.748
4.755
4.747
4.747
4.747
4.749
4.758
4.758
4.756
4.754
4.755
4.758
4.759
4.754
4.748
4.743
4.739
4.733
4.728
4.722
4.734
4.730
4.731
4.725
4.718
4.727
4.731
4.722
4.715
4.716
4.715
4.727
4.729
4.730
4.728
4.729
4.725
4.727
4.736
4.736
4.736
4.733
4.732
4.733
4.737
4.736
4.732
4.727
4.731
4.729
4.731
4.743
4.745
4.746
4.739
4.738
4.736
4.736
4.747
4.749
4.751
4.747
4.748
4.744
4.745
4.749
4.759
4.765
4.758
4.752
4.745
4.738
4.739
4.741
4.737
4.740
4.734
4.733
4.736
4.740
4.751
4.749
4.742
4.741
4.740
4.738
4.734
4.733
4.737
4.733
4.732
4.733
4.732
4.732
4.734
4.744
4.748
4.741
4.740
4.740
4.734
4.727
4.732
4.741
4.748
4.744
4.742
4.744
4.744
4.744
4.742
4.740
4.745
4.755
4.755
4.758
4.756
4.755
4.753
4.754
4.755
4.751
4.756
4.763
4.756
4.763
4.764
4.755
4.748
4.747
4.750
4.755
4.762
4.758
4.762
4.755
4.755
4.758
4.758
4.757
4.758
4.758
4.767
4.766
4.770
4.766
4.766
4.760
4.761
4.762
4.764
4.762
4.766
4.776
4.780
4.776
4.773
4.779
4.778
4.782
4.778
4.776
4.769
4.773
4.780
4.781
4.775
4.773
4.769
4.773
4.766
4.760
4.762
4.762
4.772
4.779
4.777
4.781
4.777
4.776
4.777
4.774
4.769
4.766
4.767
4.766
4.775
4.779
4.777
4.771
4.770
4.776
4.777
4.777
4.772
4.773
4.770
4.773
4.775
4.782
4.792
4.790
4.784
4.782
4.788
4.784
4.783
4.788
4.786
4.781
4.780
4.782
4.788
4.795
4.792
4.788
4.788
4.790
4.783
4.782
4.784
4.784
4.781
4.787
4.786
4.787
4.794
4.801
4.805
4.803
4.802
4.798
4.799
4.803
4.800
4.799
4.799
4.798
4.797
4.799
4.795
4.804
4.811
4.818
4.814
4.809
4.813
4.810
4.811
4.804
4.802
4.809
4.808
4.806
4.800
4.798
4.807
4.814
4.813
4.814
4.813
4.807
4.803
4.798
4.795
4.790
4.786
4.782
4.784
4.788
4.794
4.796
4.795
4.795
4.791
4.793
4.792
4.790
4.795
4.790
4.788
4.785
4.788
4.785
4.783
4.787
4.794
4.799
4.797
4.793
4.788
4.784
4.778
4.779
4.777
4.777
4.775
4.777
4.775
4.773
4.772
4.781
4.786
4.793
4.799
4.803
4.797
4.796
4.792
4.793
4.791
4.788
4.788
4.788
4.789
4.788
4.791
4.784
4.784
4.782
4.788
4.793
4.800
4.807
4.808
4.807
4.803
4.806
4.802
4.799
4.802
4.803
4.803
4.807
4.803
4.799
4.797
4.790
4.786
4.790
4.795
4.803
4.808
4.804
4.803
4.804
4.802
4.804
4.805
4.803
4.805
4.803
4.802
4.798
4.792
4.790
4.791
4.788
4.789
4.790
4.794
4.801
4.807
4.803
4.803
4.806
4.803
4.799
4.797
4.803
4.803
4.801
4.799
4.803
4.803
4.799
4.799
4.799
4.794
4.793
4.797
4.796
4.800
4.806
4.811
4.817
4.824
4.821
4.816
4.814
4.813
4.812
4.818
4.818
4.816
4.814
4.814
4.814
4.819
4.815
4.814
4.817
4.814
4.815
4.811
4.810
4.808
4.814
4.819
4.825
4.824
4.825
4.822
4.828
4.829
4.825
4.818
4.817
4.818
4.815
4.814
4.812
4.810
4.807
4.805
4.810
4.813
4.812
4.810
4.807
4.811
4.812
4.819
4.823
4.830
4.834
4.829
4.829
4.829
4.829
4.832
4.828
4.832
4.829
4.833
4.836
4.832
4.831
4.829
4.829
4.825
4.823
4.830
4.828
4.829
4.826
4.825
4.823
4.825
4.826
4.833
4.837
4.843
4.848
4.846
4.845
4.846
4.848
4.847
4.847
4.844
4.845
4.843
4.842
4.836
4.832
4.833
4.837
4.835
4.836
4.840
4.834
4.830
4.834
4.833
4.829
4.824
4.828
4.832
4.832
4.829
4.825
4.825
4.825
4.829
4.828
4.825
4.825
4.824
4.818
4.819
4.818
4.822
4.821
4.818
4.823
4.822
4.817
4.822
4.820
4.819
4.821
4.821
4.820
4.821
4.820
4.824
4.829
4.835
4.839
4.836
4.832
4.835
4.832
4.830
4.828
4.827
4.823
4.825
4.825
4.825
4.826
4.822
4.821
4.819
4.825
4.825
4.817
4.819
4.817
4.818
4.817
4.818
4.817
4.814
4.812
4.814
4.820
4.825
4.829
4.835
4.840
4.841
4.847
4.852
4.853
4.851
4.850
4.847
4.845
4.847
4.848
4.846
4.844
4.840
4.837
4.835
4.834
4.833
4.836
4.830
4.826
4.832
4.831
4.835
4.834
4.829
4.826
4.829
4.825
4.825
4.825
4.824
4.829
4.833
4.837
4.843
4.848
4.854
4.853
4.854
4.853
4.854
4.851
4.851
4.847
4.849
4.855
4.855
4.858
4.858
4.856
4.852
4.851
4.851
4.853
4.852
4.850
4.852
4.850
4.846
4.844
4.841
4.840
4.840
4.834
4.835
4.836
4.841
4.839
4.840
4.840
4.844
4.844
4.849
4.853
4.857
4.862
4.866
4.872
4.871
4.867
4.868
4.867
4.868
4.870
4.868
4.864
4.862
4.867
4.870
4.870
4.871
4.867
4.870
4.869
4.868
4.867
4.866
4.864
4.865
4.862
4.860
4.858
4.857
4.861
4.858
4.856
4.854
4.855
