2.989
3.319
3.491
3.617
3.704
3.789
3.824
3.883
3.880
3.926
3.973
4.022
4.057
3.988
3.983
4.004
4.026
4.037
4.069
4.082
4.091
4.110
4.115
4.133
4.139
4.155
4.173
4.169
4.185
4.201
4.214
4.206
4.220
4.230
4.242
4.252
4.257
4.249
4.263
4.269
4.283
4.294
4.298
4.304
4.301
4.289
4.307
4.315
4.321
4.328
4.333
4.346
4.341
4.351
4.365
4.370
4.370
4.356
4.354
4.365
4.363
4.377
4.374
4.376
4.376
4.391
4.397
4.396
4.406
4.409
4.402
4.413
4.416
4.422
4.431
4.437
4.441
4.449
4.441
4.441
4.446
4.457
4.436
4.427
4.432
4.439
4.439
4.442
4.449
4.457
4.458
4.445
4.442
4.455
4.452
4.447
4.458
4.463
4.476
4.473
4.464
4.470
4.482
4.486
4.481
4.491
4.501
4.487
4.483
4.482
4.493
4.490
4.495
4.494
4.502
4.512
4.505
4.520
4.510
4.517
4.514
4.515
4.524
4.521
4.532
4.539
4.537
4.536
4.541
4.543
4.545
4.537
4.541
4.540
4.539
4.538
4.534
4.542
4.536
4.556
4.554
4.550
4.564
4.556
4.570
4.571
4.559
4.580
4.570
4.571
4.583
4.582
4.581
4.570
4.558
4.545
4.537
4.544
4.544
4.540
4.548
4.542
4.540
4.553
4.548
4.548
4.564
4.568
4.565
4.557
4.570
4.568
4.572
4.561
4.550
4.544
4.560
4.560
4.544
4.543
4.552
4.552
4.539
4.548
4.557
4.557
4.550
4.559
4.573
4.560
4.562
4.561
4.570
4.573
4.566
4.559
4.562
4.576
4.575
4.579
4.562
4.572
4.593
4.587
4.594
4.583
4.580
4.600
4.602
4.597
4.599
4.584
4.594
4.590
4.585
4.584
4.587
4.591
4.592
4.596
4.589
4.586
4.584
4.604
4.611
4.607
4.596
4.597
4.590
4.608
4.611
4.614
4.605
4.604
4.604
4.606
4.626
4.631
4.628
4.624
4.619
4.610
4.617
4.636
4.637
4.625
4.627
4.629
4.623
4.624
4.639
4.637
4.640
4.629
4.618
4.607
4.616
4.623
4.619
4.612
4.615
4.613
4.604
4.605
4.610
4.614
4.609
4.602
4.597
4.600
4.599
4.604
4.621
4.626
4.625
4.626
4.625
4.617
4.609
4.605
4.612
4.628
4.629
4.632
4.634
4.619
4.615
4.603
4.597
4.609
4.625
4.627
4.635
4.630
4.626
4.617
4.618
4.621
4.622
4.622
4.629
4.644
4.648
4.649
4.639
4.636
4.632
4.634
4.631
4.627
4.628
4.636
4.649
4.652
4.642
4.642
4.635
4.643
4.639
4.641
4.641
4.636
4.634
4.648
4.662
4.669
4.677
4.668
4.658
4.663
4.658
4.651
4.658
4.653
4.644
4.649
4.660
4.674
4.676
4.664
4.665
4.665
4.664
4.664
4.656
4.645
4.635
4.639
4.646
4.659
4.663
4.668
4.659
4.653
4.644
4.641
4.636
4.637
4.631
4.630
4.634
4.636
4.646
4.658
4.671
4.671
4.674
4.673
4.673
4.663
4.650
4.647
4.645
4.646
4.650
4.651
4.650
4.643
4.655
4.667
4.680
4.686
4.686
4.680
4.681
4.680
4.671
4.672
4.670
4.663
4.662
4.662
4.658
4.657
4.665
4.665
4.672
4.684
4.695
4.700
4.700
4.701
4.696
4.693
4.691
4.693
4.690
4.691
4.691
4.687
4.684
4.683
4.689
4.680
4.676
4.681
4.693
4.699
4.700
4.708
4.699
4.694
4.684
4.684
4.674
4.675
4.678
4.672
4.670
4.672
4.674
4.676
4.675
4.668
4.672
4.682
4.693
4.704
4.712
4.705
4.702
4.702
4.705
4.700
4.706
4.705
4.701
4.697
4.698
4.695
4.700
4.695
4.695
4.691
4.691
4.696
4.695
4.697
4.694
4.704
4.714
4.724
4.734
4.744
4.746
4.738
4.732
4.727
4.722
4.721
4.715
4.719
4.712
4.720
4.716
4.717
4.715
4.713
4.702
4.704
4.707
4.706
4.705
4.705
4.710
4.720
4.729
4.732
4.726
4.721
4.715
4.710
4.704
4.698
4.700
4.696
4.685
4.688
4.689
4.689
4.693
4.684
4.682
4.695
4.686
4.686
4.692
4.689
4.688
4.691
4.700
4.709
4.707
4.706
4.713
4.703
4.700
4.698
4.697
4.695
4.689
4.699
4.700
4.697
4.689
4.686
4.691
4.680
4.675
4.676
4.672
4.673
4.664
4.665
4.667
4.672
4.664
4.672
4.681
4.690
4.698
4.707
4.716
4.724
4.724
4.721
4.719
4.717
4.710
4.704
4.702
4.704
4.712
4.710
4.707
4.705
4.703
4.700
4.702
4.700
4.696
4.689
4.684
4.675
4.673
4.673
4.677
4.675
4.665
4.659
4.666
4.674
4.683
4.690
4.699
4.707
4.710
4.701
4.704
4.699
4.700
4.695
4.706
4.710
4.710
4.704
4.710
4.704
4.706
4.710
4.705
4.715
4.713
4.713
4.704
4.704
4.701
4.696
4.694
4.688
4.690
4.689
4.685
4.686
4.687
4.689
4.685
4.688
4.683
4.683
4.682
4.687
4.695
4.703
4.710
4.715
4.714
4.718
4.713
4.710
4.712
4.710
4.710
4.712
4.715
4.716
4.710
4.706
4.699
4.696
4.697
4.705
4.701
4.699
4.703
4.704
4.703
4.693
4.687
4.692
4.697
4.693
4.693
4.691
4.699
4.699
4.701
4.700
4.697
4.696
4.688
4.684
4.689
4.685
4.681
4.688
4.695
4.703
4.710
4.716
4.722
4.728
4.720
4.723
4.725
4.724
4.723
4.726
4.723
4.730
4.723
4.723
4.721
4.721
4.721
4.720
4.711
4.709
4.708
4.712
4.710
4.707
4.707
4.706
4.705
4.703
4.698
4.698
4.701
4.710
4.707
4.711
4.716
4.712
4.717
4.711
4.706
4.703
4.704
4.704
4.700
4.699
4.699
4.690
4.682
4.684
4.691
4.697
4.704
4.711
4.717
4.723
4.730
4.737
4.743
4.743
4.738
4.732
4.729
4.735
4.745
4.744
4.742
4.738
4.746
4.741
4.748
4.749
4.746
4.742
4.741
4.734
4.734
4.728
4.728
4.727
4.727
4.727
4.727
4.729
4.725
4.724
4.725
4.717
4.710
4.716
4.715
4.721
4.718
4.717
4.723
4.721
4.719
4.726
4.727
4.723
4.716
4.711
4.710
4.716
4.725
4.721
4.718
4.718
4.712
4.713
4.718
4.718
4.714
4.714
4.720
4.727
4.733
4.739
4.745
4.751
4.757
4.763
4.769
4.769
4.768
4.777
4.779
4.780
4.778
4.779
4.772
4.778
4.768
4.763
4.768
4.768
4.768
4.767
4.766
4.765
4.757
4.756
4.753
4.754
4.755
4.762
4.761
4.754
4.757
4.753
4.750
4.747
4.748
4.752
4.751
4.756
4.760
4.764
4.757
4.750
4.744
4.741
4.743
4.744
4.733
4.727
4.726
4.721
4.725
4.727
4.724
4.725
4.725
4.724
4.725
4.728
4.733
4.728
4.723
4.718
4.713
4.708
4.708
4.713
4.719
4.724
4.730
4.735
4.741
4.747
4.746
4.752
4.750
4.758
4.764
4.762
4.766
4.767
4.761
4.759
4.755
4.754
4.749
4.749
4.753
4.752
4.752
4.751
4.750
4.742
4.734
4.741
4.735
4.737
4.734
4.735
4.733
4.726
4.723
4.723
4.725
4.721
4.722
4.725
4.725
4.724
4.726
4.731
4.726
4.722
4.722
4.722
4.720
4.719
4.718
4.716
4.723
4.720
4.718
4.726
4.730
4.732
4.729
4.725
4.721
4.724
4.722
4.722
4.726
4.726
4.725
4.725
4.717
4.714
4.711
4.709
4.707
4.701
4.703
4.702
4.703
4.702
4.705
4.704
4.705
4.710
4.708
4.712
4.717
4.722
4.727
4.732
4.737
4.743
4.748
4.753
4.758
4.763
4.768
4.773
4.776
4.776
4.775
4.771
4.776
4.776
4.778
4.784
4.777
4.769
4.769
4.765
4.763
4.764
4.766
4.763
4.759
4.756
4.754
4.756
4.760
4.767
4.773
4.771
4.774
4.775
4.776
4.780
4.776
4.768
4.764
4.761
4.759
4.763
4.771
4.765
4.761
4.761
4.759
4.759
4.765
4.773
4.769
4.770
4.765
4.767
4.766
4.770
4.769
4.767
4.767
4.768
4.764
4.759
4.759
4.762
4.758
4.757
4.755
4.750
4.755
4.754
4.749
4.749
