2.994
3.332
3.511
3.637
3.707
3.790
3.828
3.884
3.929
3.938
3.983
4.023
4.064
4.034
4.061
4.090
4.116
4.136
4.162
4.180
4.203
4.213
4.170
4.144
4.153
4.172
4.179
4.185
4.201
4.208
4.222
4.227
4.238
4.243
4.252
4.264
4.263
4.273
4.283
4.295
4.293
4.303
4.312
4.319
4.313
4.325
4.329
4.341
4.346
4.352
4.343
4.355
4.359
4.369
4.371
4.383
4.386
4.375
4.383
4.385
4.394
4.402
4.408
4.413
4.419
4.423
4.425
4.412
4.419
4.420
4.425
4.435
4.438
4.438
4.439
4.449
4.455
4.460
4.461
4.464
4.468
4.462
4.455
4.462
4.460
4.465
4.469
4.476
4.477
4.483
4.480
4.483
4.486
4.494
4.501
4.500
4.507
4.505
4.507
4.508
4.516
4.522
4.524
4.527
4.529
4.516
4.507
4.509
4.508
4.511
4.516
4.517
4.520
4.525
4.527
4.531
4.537
4.527
4.532
4.536
4.537
4.542
4.542
4.550
4.553
4.555
4.554
4.557
4.564
4.568
4.559
4.560
4.565
4.563
4.570
4.571
4.571
4.572
4.579
4.583
4.590
4.585
4.583
4.591
4.597
4.599
4.597
4.590
4.595
4.602
4.600
4.591
4.583
4.572
4.565
4.572
4.576
4.580
4.578
4.580
4.583
4.593
4.587
4.586
4.594
4.590
4.594
4.591
4.597
4.601
4.603
4.594
4.592
4.596
4.598
4.596
4.600
4.597
4.601
4.604
4.608
4.607
4.612
4.607
4.619
4.618
4.620
4.620
4.622
4.629
4.622
4.620
4.619
4.623
4.622
4.632
4.630
4.635
4.638
4.637
4.645
4.640
4.638
4.626
4.636
4.631
4.633
4.643
4.634
4.637
4.633
4.632
4.642
4.643
4.642
4.648
4.641
4.649
4.649
4.648
4.655
4.657
4.657
4.660
4.666
4.659
4.666
4.664
4.663
4.667
4.663
4.656
4.666
4.670
4.664
4.667
4.675
4.676
4.668
4.683
4.683
4.686
4.680
4.689
4.685
4.687
4.690
4.689
4.683
4.683
4.677
4.679
4.675
4.692
4.690
4.687
4.685
4.683
4.682
4.681
4.686
4.683
4.679
4.683
4.690
4.690
4.691
4.690
4.693
4.701
4.702
4.701
4.697
4.708
4.707
4.705
4.704
4.706
4.715
4.716
4.708
4.712
4.715
4.717
4.713
4.708
4.702
4.695
4.688
4.683
4.683
4.681
4.677
4.673
4.679
4.675
4.675
4.678
4.674
4.689
4.691
4.686
4.685
4.681
4.690
4.695
4.691
4.687
4.677
4.684
4.694
4.695
4.693
4.690
4.690
4.694
4.696
4.701
4.699
4.695
4.696
4.701
4.713
4.716
4.715
4.709
4.705
4.705
4.707
4.698
4.690
4.687
4.690
4.698
4.702
4.703
4.701
4.690
4.688
4.700
4.696
4.687
4.685
4.684
4.682
4.694
4.704
4.701
4.693
4.689
4.690
4.686
4.697
4.695
4.697
4.698
4.697
4.695
4.693
4.700
4.710
4.714
4.705
4.706
4.712
4.709
4.705
4.708
4.715
4.719
4.716
4.714
4.708
4.705
4.704
4.712
4.710
4.711
4.713
4.711
4.708
4.711
4.712
4.716
4.724
4.719
4.723
4.716
4.718
4.716
4.716
4.714
4.724
4.730
4.735
4.738
4.732
4.733
4.732
4.731
4.727
4.730
4.740
4.738
4.735
4.723
4.721
4.717
4.715
4.719
4.729
4.734
4.734
4.733
4.727
4.728
4.729
4.728
4.720
4.725
4.731
4.734
4.732
4.734
4.727
4.731
4.726
4.734
4.731
4.728
4.737
4.745
4.746
4.739
4.746
4.745
4.745
4.736
4.737
4.739
4.743
4.744
4.748
4.742
4.742
4.744
4.740
4.744
4.748
4.742
4.740
4.739
4.748
4.757
4.760
4.763
4.760
4.760
4.760
4.758
4.756
4.755
4.760
4.763
4.757
4.764
4.770
4.768
4.765
4.768
4.767
4.769
4.767
4.760
4.756
4.755
4.754
4.764
4.773
4.775
4.771
4.766
4.762
4.757
4.751
4.745
4.740
4.739
4.746
4.753
4.754
4.753
4.751
4.750
4.749
4.744
4.738
4.742
4.740
4.745
4.743
4.745
4.751
4.744
4.740
4.734
4.735
4.736
4.740
4.731
4.737
4.736
4.737
4.736
4.737
4.744
4.753
4.755
4.754
4.752
4.756
4.750
4.749
4.742
4.743
4.747
4.746
4.749
4.745
4.739
4.748
4.755
4.764
4.771
4.771
4.769
4.765
4.757
4.754
4.757
4.754
4.753
4.751
4.747
4.749
4.742
4.749
4.757
4.765
4.769
4.771
4.763
4.757
4.750
4.753
4.755
4.760
4.752
4.743
4.742
4.743
4.744
4.745
4.752
4.760
4.766
4.773
4.769
4.767
4.766
4.767
4.766
4.762
4.764
4.760
4.757
4.764
4.763
4.757
4.757
4.754
4.760
4.764
4.771
4.778
4.786
4.781
4.779
4.781
4.785
4.781
4.779
4.771
4.772
4.775
4.771
4.762
4.758
4.760
4.766
4.771
4.768
4.771
4.779
4.783
4.782
4.781
4.780
4.773
4.774
4.776
4.775
4.778
4.775
4.779
4.779
4.770
4.768
4.770
4.772
4.773
4.774
4.771
4.779
4.784
4.793
4.795
4.801
4.800
4.796
4.798
4.802
4.801
4.801
4.798
4.794
4.792
4.794
4.792
4.791
4.789
4.791
4.787
4.788
4.786
4.788
4.789
4.796
4.803
4.805
4.803
4.797
4.800
4.802
4.805
4.802
4.797
4.791
4.789
4.788
4.786
4.786
4.786
4.782
4.776
4.772
4.767
4.774
4.781
4.786
4.794
4.794
4.794
4.791
4.792
4.791
4.790
4.791
4.794
4.794
4.790
4.786
4.790
4.785
4.783
4.782
4.783
4.777
4.770
4.763
4.768
4.769
4.775
4.780
4.787
4.790
4.790
4.788
4.795
4.796
4.794
4.793
4.787
4.790
4.786
4.786
4.790
4.786
4.789
4.783
4.783
4.788
4.786
4.785
4.794
4.791
4.790
4.793
4.792
4.788
4.786
4.790
4.795
4.801
4.803
4.801
4.801
4.802
4.801
4.802
4.800
4.793
4.798
4.793
4.797
4.799
4.800
4.796
4.794
4.793
4.795
4.796
4.794
4.796
4.795
4.799
4.794
4.788
4.789
4.793
4.797
4.797
4.803
4.807
4.814
4.820
4.819
4.820
4.820
4.820
4.816
4.815
4.812
4.812
4.811
4.805
4.808
4.810
4.811
4.810
4.812
4.813
4.816
4.813
4.816
4.812
4.811
4.808
4.814
4.816
4.814
4.812
4.809
4.812
4.811
4.812
4.819
4.823
4.828
4.834
4.833
4.834
4.833
4.827
4.831
4.831
4.828
4.827
4.825
4.821
4.822
4.820
4.823
4.829
4.823
4.820
4.817
4.816
4.819
4.818
4.819
4.815
4.817
4.815
4.817
4.813
4.812
4.808
4.805
4.810
4.814
4.821
4.827
4.831
4.827
4.824
4.820
4.820
4.819
4.820
4.817
4.816
4.816
4.816
4.822
4.823
4.822
4.823
4.822
4.823
4.820
4.824
4.817
4.818
4.814
4.810
4.808
4.807
4.808
4.808
4.809
4.802
4.805
4.808
4.809
4.808
4.811
4.816
4.819
4.824
4.830
4.835
4.841
4.846
4.845
4.846
4.844
4.843
4.838
4.842
4.839
4.838
4.834
4.834
4.834
4.837
4.839
4.840
4.838
4.834
4.833
4.832
4.830
4.832
4.838
4.840
4.839
4.838
4.834
4.837
4.838
4.837
4.839
4.835
4.833
4.835
4.834
4.831
4.834
4.832
4.830
4.831
4.834
4.840
4.845
4.851
4.855
4.860
4.866
4.870
4.864
4.868
4.863
4.860
4.857
4.854
4.853
4.851
4.853
4.856
4.857
4.851
4.853
4.849
4.845
4.846
4.845
4.846
4.844
4.845
4.849
4.848
4.849
4.846
4.845
4.842
4.841
4.837
4.834
4.832
4.830
4.826
4.825
4.821
4.819
4.824
4.828
4.834
4.838
4.838
4.834
4.832
4.831
4.831
4.828
4.826
4.827
4.831
4.827
4.826
4.828
4.827
4.830
4.827
4.825
4.824
4.828
4.834
4.831
4.831
4.830
4.827
4.827
4.826
4.825
4.823
4.825
4.827
4.823
4.821
4.822
4.821
4.819
4.821
4.817
4.813
4.809
4.807
4.805
4.801
4.800
4.805
4.809
4.813
4.817
4.823
4.827
4.829
4.834
4.840
