2.992
3.330
3.510
3.616
3.710
3.788
3.836
3.858
3.918
3.976
3.949
3.989
4.024
4.057
4.086
4.120
4.128
4.070
4.065
4.082
4.099
4.114
4.130
4.134
4.156
4.161
4.178
4.182
4.198
4.202
4.210
4.224
4.238
4.235
4.247
4.261
4.268
4.267
4.273
4.282
4.294
4.303
4.295
4.302
4.313
4.318
4.331
4.334
4.344
4.331
4.336
4.345
4.348
4.355
4.361
4.372
4.381
4.377
4.391
4.394
4.383
4.383
4.382
4.395
4.396
4.397
4.402
4.412
4.418
4.425
4.427
4.430
4.431
4.436
4.445
4.449
4.461
4.436
4.432
4.427
4.437
4.444
4.442
4.454
4.456
4.454
4.456
4.464
4.461
4.469
4.476
4.474
4.478
4.486
4.488
4.485
4.483
4.491
4.498
4.503
4.505
4.510
4.509
4.518
4.516
4.525
4.523
4.521
4.526
4.522
4.530
4.512
4.497
4.502
4.498
4.509
4.513
4.513
4.513
4.509
4.519
4.527
4.526
4.531
4.522
4.519
4.530
4.518
4.524
4.528
4.529
4.528
4.538
4.536
4.541
4.546
4.552
4.548
4.543
4.549
4.555
4.560
4.567
4.562
4.575
4.567
4.565
4.561
4.564
4.567
4.556
4.563
4.565
4.574
4.567
4.572
4.568
4.575
4.585
4.582
4.591
4.585
4.598
4.587
4.594
4.588
4.587
4.594
4.596
4.607
4.599
4.597
4.612
4.610
4.612
4.615
4.609
4.625
4.620
4.617
4.607
4.607
4.619
4.617
4.614
4.620
4.610
4.606
4.613
4.613
4.611
4.622
4.624
4.619
4.634
4.630
4.628
4.632
4.638
4.638
4.640
4.641
4.641
4.640
4.644
4.656
4.648
4.647
4.638
4.629
4.619
4.610
4.601
4.611
4.616
4.613
4.608
4.616
4.619
4.623
4.610
4.619
4.625
4.619
4.618
4.619
4.626
4.629
4.622
4.625
4.636
4.644
4.638
4.633
4.630
4.649
4.644
4.635
4.623
4.632
4.633
4.624
4.613
4.627
4.629
4.618
4.613
4.613
4.627
4.621
4.623
4.619
4.612
4.629
4.633
4.627
4.625
4.621
4.626
4.644
4.648
4.639
4.632
4.630
4.636
4.648
4.654
4.639
4.637
4.636
4.641
4.651
4.648
4.648
4.640
4.633
4.642
4.658
4.655
4.652
4.656
4.650
4.648
4.655
4.670
4.668
4.667
4.665
4.664
4.662
4.663
4.659
4.667
4.657
4.652
4.651
4.650
4.665
4.669
4.657
4.652
4.651
4.652
4.648
4.663
4.673
4.671
4.671
4.665
4.665
4.669
4.667
4.671
4.686
4.683
4.676
4.666
4.665
4.664
4.668
4.673
4.687
4.690
4.687
4.680
4.689
4.688
4.681
4.683
4.684
4.697
4.706
4.699
4.693
4.690
4.693
4.697
4.695
4.694
4.700
4.704
4.699
4.705
4.708
4.704
4.695
4.692
4.696
4.692
4.685
4.681
4.679
4.678
4.671
4.666
4.671
4.674
4.687
4.690
4.690
4.686
4.677
4.667
4.658
4.666
4.668
4.670
4.683
4.684
4.675
4.684
4.682
4.676
4.673
4.672
4.679
4.668
4.672
4.684
4.696
4.702
4.701
4.697
4.693
4.684
4.687
4.686
4.679
4.678
4.678
4.689
4.699
4.697
4.704
4.701
4.691
4.683
4.678
4.677
4.679
4.673
4.674
4.686
4.697
4.700
4.704
4.702
4.696
4.699
4.697
4.695
4.691
4.690
4.689
4.681
4.685
4.697
4.708
4.719
4.727
4.717
4.713
4.707
4.704
4.702
4.705
4.702
4.700
4.702
4.695
4.698
4.708
4.713
4.714
4.712
4.709
4.715
4.712
4.711
4.711
4.706
4.708
4.704
4.709
4.709
4.708
4.709
4.718
4.729
4.735
4.740
4.735
4.734
4.732
4.732
4.733
4.728
4.727
4.725
4.723
4.722
4.719
4.718
4.718
4.728
4.738
4.747
4.747
4.742
4.733
4.730
4.726
4.724
4.724
4.726
4.721
4.714
4.707
4.702
4.705
4.715
4.725
4.734
4.731
4.728
4.728
4.728
4.725
4.723
4.721
4.716
4.707
4.705
4.704
4.703
4.704
4.700
4.700
4.709
4.719
4.728
4.734
4.733
4.725
4.728
4.731
4.728
4.729
4.728
4.736
4.731
4.728
4.732
4.725
4.719
4.709
4.708
4.707
4.709
4.718
4.727
4.733
4.743
4.742
4.737
4.743
4.745
4.744
4.743
4.743
4.736
4.734
4.737
4.740
4.739
4.742
4.738
4.732
4.728
4.722
4.723
4.724
4.729
4.737
4.746
4.755
4.749
4.758
4.762
4.756
4.756
4.762
4.768
4.763
4.763
4.765
4.762
4.752
4.750
4.748
4.747
4.745
4.746
4.744
4.748
4.754
4.749
4.745
4.748
4.756
4.764
4.773
4.772
4.775
4.771
4.764
4.764
4.762
4.761
4.757
4.756
4.757
4.756
4.754
4.747
4.742
4.743
4.740
4.735
4.735
4.730
4.727
4.732
4.740
4.748
4.756
4.764
4.769
4.772
4.769
4.768
4.765
4.763
4.764
4.756
4.761
4.763
4.758
4.755
4.759
4.756
4.753
4.748
4.752
4.758
4.759
4.762
4.758
4.757
4.749
4.750
4.749
4.753
4.752
4.760
4.768
4.775
4.783
4.787
4.787
4.788
4.791
4.792
4.789
4.786
4.790
4.786
4.779
4.786
4.785
4.785
4.784
4.787
4.788
4.786
4.786
4.784
4.786
4.785
4.785
4.780
4.771
4.768
4.774
4.773
4.774
4.771
4.772
4.779
4.786
4.793
4.801
4.808
4.807
4.797
4.794
4.790
4.791
4.791
4.796
4.795
4.791
4.787
4.783
4.779
4.775
4.771
4.767
4.763
4.759
4.755
4.751
4.746
4.742
4.739
4.738
4.737
4.739
4.746
4.753
4.760
4.766
4.773
4.778
4.775
4.775
4.784
4.784
4.788
4.786
4.781
4.776
4.771
4.766
4.762
4.757
4.752
4.750
4.749
4.746
4.750
4.743
4.741
4.742
4.742
4.743
4.748
4.747
4.750
4.750
4.746
4.754
4.753
4.747
4.748
4.748
4.743
4.750
4.756
4.762
4.769
4.776
4.772
4.764
4.764
4.761
4.757
4.758
4.757
4.756
4.758
4.759
4.764
4.768
4.770
4.768
4.765
4.765
4.765
4.758
4.756
4.757
4.761
4.758
4.760
4.758
4.756
4.757
4.749
4.748
4.752
4.754
4.760
4.755
4.753
4.751
4.745
4.749
4.754
4.755
4.754
4.756
4.762
4.768
4.774
4.776
4.774
4.777
4.775
4.770
4.777
4.769
4.765
4.762
4.762
4.767
4.770
4.768
4.759
4.755
4.747
4.749
4.746
4.747
4.748
4.744
4.750
4.756
4.759
4.752
4.752
4.753
4.750
4.753
4.750
4.750
4.746
4.741
4.739
4.739
4.738
4.742
4.741
4.739
4.741
4.736
4.742
4.742
4.748
4.754
4.760
4.765
4.771
4.777
4.782
4.788
4.794
4.793
4.794
4.789
4.787
4.787
4.791
4.789
4.783
4.781
4.775
4.776
4.771
4.776
4.778
4.777
4.772
4.771
4.770
4.772
4.768
4.764
4.760
4.755
4.753
4.747
4.742
4.742
4.739
4.737
4.743
4.743
4.743
4.744
4.752
4.754
4.756
4.760
4.755
4.755
4.756
4.757
4.752
4.748
4.745
4.744
4.744
4.749
4.755
4.760
4.765
4.771
4.776
4.782
4.785
4.785
4.782
4.787
4.785
4.783
4.779
4.781
4.783
4.786
4.786
4.784
4.782
4.780
4.779
4.783
4.779
4.781
4.780
4.779
4.782
4.781
4.784
4.784
4.781
4.780
4.776
4.776
4.775
4.778
4.777
4.777
4.770
4.769
4.767
4.766
4.761
4.759
4.760
4.759
4.758
4.755
4.757
4.755
4.753
4.754
4.746
4.738
4.739
4.740
4.737
4.736
4.738
4.741
4.745
4.751
4.755
4.756
4.761
4.767
4.772
4.777
4.782
4.786
4.792
4.797
4.802
4.804
4.803
4.800
4.800
4.797
4.802
4.804
4.797
4.799
4.796
4.797
4.797
4.794
4.792
4.790
4.788
4.790
4.788
4.787
4.791
4.794
4.794
4.798
4.796
4.791
4.790
4.786
4.780
4.774
4.768
4.763
4.761
4.760
4.767
4.770
4.771
4.777
4.778
4.778
4.777
4.776
4.775
4.773
4.776
4.773
4.775
4.777
4.779
4.779
4.778
4.777
4.774
4.772
