2.992
3.332
3.510
3.621
3.718
3.786
3.845
3.881
3.927
3.947
3.995
4.029
4.009
4.040
4.070
4.098
4.124
4.145
4.173
4.192
4.144
4.117
4.129
4.139
4.160
4.167
4.174
4.189
4.198
4.210
4.214
4.225
4.239
4.240
4.251
4.263
4.261
4.270
4.286
4.296
4.289
4.298
4.308
4.312
4.324
4.318
4.324
4.333
4.340
4.348
4.355
4.344
4.354
4.361
4.366
4.373
4.374
4.388
4.390
4.399
4.382
4.392
4.392
4.397
4.407
4.414
4.418
4.422
4.426
4.430
4.434
4.438
4.447
4.433
4.433
4.432
4.434
4.438
4.450
4.451
4.456
4.460
4.458
4.465
4.470
4.473
4.478
4.476
4.484
4.484
4.489
4.495
4.499
4.503
4.499
4.484
4.483
4.479
4.488
4.487
4.494
4.501
4.494
4.504
4.513
4.503
4.505
4.507
4.513
4.512
4.519
4.523
4.524
4.528
4.532
4.537
4.541
4.534
4.540
4.540
4.540
4.545
4.551
4.555
4.555
4.555
4.557
4.559
4.568
4.569
4.574
4.577
4.570
4.569
4.576
4.570
4.568
4.556
4.543
4.550
4.552
4.553
4.554
4.562
4.562
4.567
4.565
4.561
4.563
4.572
4.570
4.575
4.579
4.573
4.571
4.570
4.568
4.570
4.573
4.572
4.581
4.577
4.587
4.580
4.587
4.584
4.596
4.589
4.601
4.599
4.603
4.592
4.596
4.594
4.607
4.603
4.615
4.611
4.617
4.616
4.618
4.611
4.609
4.605
4.612
4.616
4.610
4.610
4.606
4.616
4.617
4.618
4.620
4.616
4.628
4.621
4.623
4.632
4.631
4.635
4.639
4.633
4.644
4.641
4.639
4.641
4.633
4.638
4.644
4.644
4.645
4.654
4.650
4.646
4.658
4.660
4.655
4.666
4.661
4.662
4.666
4.668
4.662
4.655
4.655
4.651
4.662
4.668
4.662
4.658
4.662
4.660
4.659
4.662
4.661
4.660
4.661
4.668
4.667
4.663
4.669
4.682
4.681
4.677
4.675
4.682
4.684
4.681
4.680
4.695
4.686
4.690
4.680
4.696
4.700
4.693
4.684
4.679
4.672
4.665
4.662
4.655
4.656
4.651
4.658
4.657
4.656
4.652
4.659
4.668
4.662
4.665
4.658
4.668
4.666
4.657
4.659
4.658
4.670
4.671
4.670
4.670
4.666
4.673
4.678
4.679
4.680
4.679
4.677
4.688
4.688
4.687
4.681
4.684
4.681
4.673
4.666
4.665
4.662
4.674
4.681
4.673
4.667
4.665
4.666
4.665
4.666
4.666
4.664
4.668
4.666
4.673
4.672
4.666
4.669
4.660
4.664
4.676
4.683
4.679
4.675
4.674
4.675
4.673
4.684
4.695
4.694
4.685
4.681
4.682
4.683
4.690
4.696
4.688
4.689
4.684
4.680
4.677
4.691
4.699
4.700
4.695
4.689
4.692
4.686
4.688
4.700
4.699
4.703
4.701
4.697
4.695
4.703
4.698
4.707
4.717
4.714
4.710
4.714
4.712
4.713
4.707
4.705
4.707
4.710
4.706
4.705
4.703
4.700
4.696
4.703
4.714
4.711
4.703
4.700
4.699
4.696
4.699
4.699
4.707
4.719
4.720
4.718
4.715
4.713
4.712
4.711
4.709
4.710
4.718
4.729
4.733
4.730
4.723
4.714
4.710
4.713
4.710
4.711
4.721
4.732
4.729
4.735
4.731
4.730
4.729
4.725
4.723
4.727
4.729
4.735
4.745
4.752
4.748
4.744
4.744
4.741
4.736
4.730
4.731
4.735
4.739
4.749
4.747
4.743
4.744
4.738
4.742
4.744
4.747
4.746
4.739
4.735
4.731
4.724
4.726
4.724
4.723
4.722
4.715
4.714
4.718
4.719
4.728
4.736
4.737
4.733
4.736
4.730
4.725
4.718
4.710
4.703
4.704
4.714
4.723
4.730
4.733
4.730
4.729
4.722
4.720
4.716
4.715
4.722
4.720
4.719
4.715
4.724
4.733
4.735
4.739
4.738
4.739
4.741
4.737
4.736
4.736
4.736
4.729
4.725
4.723
4.725
4.736
4.743
4.739
4.738
4.736
4.738
4.733
4.733
4.737
4.740
4.734
4.727
4.721
4.721
4.728
4.735
4.739
4.740
4.739
4.735
4.734
4.733
4.733
4.735
4.736
4.733
4.736
4.735
4.729
4.730
4.731
4.741
4.748
4.755
4.753
4.751
4.750
4.752
4.758
4.757
4.753
4.751
4.751
4.755
4.748
4.741
4.736
4.744
4.744
4.752
4.759
4.765
4.769
4.760
4.753
4.749
4.747
4.749
4.751
4.747
4.747
4.747
4.742
4.736
4.745
4.746
4.747
4.754
4.761
4.770
4.766
4.773
4.772
4.770
4.769
4.771
4.767
4.768
4.766
4.765
4.762
4.765
4.767
4.770
4.772
4.768
4.766
4.762
4.770
4.776
4.784
4.790
4.781
4.781
4.777
4.777
4.780
4.773
4.780
4.774
4.773
4.770
4.772
4.771
4.764
4.758
4.758
4.762
4.766
4.766
4.762
4.763
4.764
4.763
4.766
4.763
4.761
4.763
4.762
4.757
4.759
4.760
4.761
4.762
4.766
4.766
4.759
4.752
4.751
4.757
4.764
4.771
4.767
4.770
4.764
4.765
4.766
4.763
4.759
4.762
4.762
4.758
4.756
4.755
4.756
4.754
4.758
4.757
4.761
4.760
4.758
4.762
4.764
4.760
4.767
4.774
4.781
4.784
4.780
4.782
4.775
4.774
4.772
4.773
4.773
4.776
4.772
4.777
4.773
4.765
4.764
4.763
4.764
4.766
4.764
4.766
4.761
4.760
4.758
4.765
4.770
4.777
4.783
4.790
4.797
4.804
4.802
4.796
4.792
4.796
4.789
4.782
4.781
4.784
4.780
4.781
4.784
4.784
4.788
4.784
4.783
4.782
4.784
4.779
4.778
4.781
4.786
4.782
4.778
4.779
4.786
4.793
4.799
4.806
4.811
4.810
4.808
4.806
4.811
4.807
4.810
4.810
4.813
4.809
4.808
4.801
4.796
4.796
4.794
4.792
4.794
4.795
4.792
4.795
4.796
4.796
4.789
4.787
4.794
4.792
4.789
4.793
4.797
4.803
4.805
4.798
4.797
4.803
4.796
4.795
4.799
4.798
4.796
4.795
4.792
4.788
4.794
4.796
4.794
4.793
4.796
4.799
4.794
4.790
4.789
4.787
4.781
4.781
4.783
4.785
4.781
4.779
4.784
4.784
4.791
4.796
4.803
4.807
4.814
4.820
4.824
4.818
4.816
4.815
4.813
4.812
4.814
4.817
4.816
4.814
4.811
4.810
4.808
4.810
4.805
4.804
4.807
4.807
4.808
4.815
4.813
4.809
4.810
4.806
4.803
4.804
4.805
4.806
4.803
4.807
4.807
4.806
4.810
4.809
4.813
4.818
4.824
4.829
4.835
4.842
4.843
4.842
4.840
4.839
4.836
4.840
4.847
4.845
4.844
4.844
4.841
4.837
4.830
4.828
4.827
4.825
4.822
4.821
4.822
4.820
4.816
4.815
4.816
4.815
4.813
4.815
4.814
4.818
4.824
4.829
4.825
4.823
4.816
4.810
4.813
4.818
4.822
4.826
4.822
4.823
4.818
4.814
4.811
4.810
4.814
4.809
4.805
4.806
4.802
4.803
4.800
4.803
4.805
4.806
4.802
4.798
4.799
4.798
4.792
4.792
4.794
4.801
4.803
4.798
4.799
4.796
4.792
4.796
4.796
4.795
4.789
4.790
4.792
4.795
4.791
4.795
4.799
4.804
4.802
4.806
4.808
4.814
4.816
4.815
4.813
4.814
4.810
4.806
4.805
4.803
4.805
4.809
4.805
4.807
4.807
4.806
4.805
4.807
4.807
4.806
4.805
4.801
4.803
4.801
4.797
4.793
4.788
4.792
4.797
4.795
4.791
4.792
4.792
4.795
4.794
4.790
4.791
4.790
4.786
4.781
4.780
4.784
4.784
4.790
4.796
4.801
4.803
4.809
4.814
4.817
4.816
4.817
4.811
4.814
4.816
4.812
4.808
4.807
4.811
4.812
4.814
4.814
4.819
4.825
4.819
4.821
4.822
4.823
4.818
4.817
4.814
4.812
4.808
4.806
4.807
4.804
4.805
4.799
4.800
4.799
4.799
4.795
4.800
4.801
4.803
4.803
4.802
4.798
4.792
4.790
4.786
4.784
4.789
4.788
4.789
4.790
4.788
4.787
4.792
4.796
4.800
4.804
4.810
4.815
4.816
4.810
4.810
4.810
4.811
4.809
4.807
4.809
4.808
4.810
4.814
4.814
4.811
