2.991
3.318
3.493
3.615
3.705
3.791
3.823
3.885
3.880
3.930
3.974
4.019
4.056
3.990
3.980
4.003
4.024
4.039
4.071
4.080
4.089
4.110
4.119
4.134
4.137
4.156
4.172
4.171
4.187
4.195
4.212
4.212
4.218
4.226
4.244
4.250
4.261
4.250
4.263
4.272
4.278
4.295
4.298
4.311
4.304
4.296
4.309
4.320
4.317
4.324
4.333
4.347
4.343
4.355
4.363
4.372
4.372
4.360
4.349
4.358
4.364
4.368
4.379
4.370
4.378
4.389
4.396
4.396
4.408
4.407
4.408
4.408
4.421
4.422
4.430
4.440
4.435
4.446
4.448
4.448
4.446
4.452
4.441
4.421
4.428
4.434
4.439
4.443
4.445
4.448
4.455
4.444
4.448
4.446
4.445
4.448
4.457
4.463
4.471
4.472
4.462
4.473
4.485
4.480
4.486
4.496
4.492
4.488
4.483
4.489
4.484
4.491
4.495
4.487
4.497
4.503
4.507
4.518
4.518
4.523
4.519
4.518
4.517
4.526
4.522
4.537
4.530
4.541
4.531
4.548
4.544
4.543
4.532
4.544
4.542
4.542
4.528
4.547
4.534
4.550
4.553
4.550
4.560
4.553
4.561
4.575
4.561
4.578
4.578
4.573
4.583
4.584
4.572
4.574
4.562
4.549
4.537
4.548
4.549
4.538
4.549
4.540
4.543
4.553
4.553
4.546
4.555
4.571
4.563
4.561
4.574
4.568
4.573
4.567
4.556
4.550
4.550
4.560
4.551
4.540
4.553
4.556
4.542
4.539
4.558
4.556
4.553
4.554
4.564
4.570
4.568
4.564
4.560
4.581
4.571
4.561
4.565
4.575
4.574
4.573
4.571
4.564
4.585
4.591
4.587
4.587
4.586
4.590
4.604
4.600
4.597
4.591
4.590
4.591
4.590
4.586
4.584
4.585
4.595
4.595
4.593
4.585
4.587
4.595
4.614
4.613
4.604
4.601
4.597
4.599
4.615
4.611
4.609
4.606
4.598
4.612
4.616
4.636
4.630
4.624
4.624
4.613
4.608
4.626
4.645
4.629
4.625
4.627
4.629
4.623
4.629
4.647
4.640
4.634
4.624
4.613
4.607
4.625
4.622
4.613
4.614
4.612
4.610
4.598
4.613
4.611
4.609
4.605
4.604
4.602
4.599
4.596
4.612
4.629
4.628
4.625
4.625
4.623
4.610
4.607
4.612
4.618
4.633
4.629
4.632
4.624
4.624
4.610
4.597
4.600
4.616
4.627
4.634
4.634
4.629
4.623
4.615
4.616
4.620
4.619
4.620
4.634
4.646
4.648
4.644
4.638
4.632
4.633
4.637
4.631
4.626
4.630
4.642
4.652
4.648
4.646
4.643
4.638
4.645
4.641
4.638
4.641
4.631
4.639
4.652
4.667
4.671
4.675
4.663
4.658
4.664
4.659
4.653
4.657
4.648
4.650
4.651
4.665
4.678
4.672
4.660
4.671
4.671
4.669
4.663
4.652
4.643
4.635
4.638
4.650
4.663
4.663
4.665
4.658
4.651
4.645
4.643
4.641
4.636
4.631
4.636
4.635
4.636
4.649
4.661
4.672
4.669
4.675
4.670
4.673
4.661
4.651
4.646
4.647
4.647
4.652
4.649
4.645
4.646
4.658
4.670
4.682
4.687
4.684
4.679
4.681
4.677
4.672
4.669
4.669
4.665
4.660
4.665
4.656
4.661
4.662
4.665
4.674
4.686
4.697
4.702
4.698
4.698
4.696
4.689
4.692
4.690
4.688
4.693
4.694
4.686
4.684
4.686
4.690
4.679
4.674
4.683
4.694
4.702
4.701
4.707
4.697
4.694
4.685
4.682
4.676
4.679
4.678
4.671
4.670
4.674
4.675
4.674
4.673
4.668
4.673
4.684
4.694
4.705
4.711
4.706
4.702
4.703
4.703
4.701
4.707
4.703
4.702
4.699
4.700
4.696
4.699
4.696
4.696
4.693
4.692
4.696
4.696
4.695
4.695
4.704
4.714
4.724
4.735
4.745
4.748
4.740
4.732
4.728
4.723
4.720
4.716
4.719
4.713
4.720
4.718
4.716
4.716
4.712
4.703
4.705
4.708
4.707
4.706
4.704
4.710
4.720
4.729
4.732
4.726
4.721
4.715
4.710
4.704
4.699
4.699
4.696
4.686
4.688
4.688
4.689
4.693
4.685
4.682
4.694
4.686
4.690
4.692
4.689
4.689
4.691
4.699
4.709
4.708
4.706
4.712
4.704
4.702
4.698
4.697
4.696
4.688
4.699
4.700
4.699
4.691
4.686
4.693
4.681
4.676
4.677
4.672
4.674
4.665
4.665
4.670
4.672
4.664
4.672
4.680
4.689
4.698
4.706
4.715
4.723
4.726
4.721
4.719
4.719
4.711
4.707
4.703
4.703
4.712
4.709
4.707
4.706
4.706
4.701
4.704
4.699
4.697
4.689
4.684
4.678
4.673
4.673
4.678
4.676
4.666
4.660
4.665
4.673
4.681
4.689
4.697
4.705
4.711
4.701
4.708
4.700
4.699
4.696
4.704
4.709
4.711
4.702
4.714
4.703
4.705
4.712
4.704
4.712
4.716
4.713
4.705
4.706
4.701
4.698
4.693
4.688
4.690
4.688
4.683
4.688
4.687
4.687
4.689
4.691
4.687
4.686
4.681
4.686
4.693
4.701
4.708
4.716
4.715
4.717
4.717
4.713
4.714
4.713
4.710
4.708
4.713
4.719
4.710
4.707
4.699
4.696
4.697
4.704
4.704
4.700
4.705
4.703
4.707
4.695
4.689
4.689
4.697
4.696
4.691
4.691
4.698
4.698
4.699
4.699
4.700
4.696
4.691
4.685
4.689
4.686
4.679
4.686
4.693
4.700
4.707
4.714
4.721
4.728
4.723
4.722
4.723
4.727
4.722
4.724
4.726
4.730
4.728
4.723
4.724
4.720
4.721
4.721
4.714
4.711
4.710
4.714
4.710
4.710
4.709
4.710
4.707
4.702
4.701
4.700
4.701
4.706
4.711
4.709
4.713
4.715
4.714
4.712
4.707
4.702
4.702
4.704
4.703
4.701
4.702
4.694
4.686
4.681
4.688
4.694
4.701
4.708
4.714
4.721
4.727
4.734
4.740
4.743
4.740
4.735
4.732
4.730
4.741
4.743
4.744
4.739
4.743
4.742
4.743
4.751
4.748
4.743
4.740
4.736
4.732
4.731
4.731
4.729
4.730
4.728
4.728
4.726
4.732
4.726
4.727
4.720
4.711
4.710
4.719
4.717
4.721
4.715
4.720
4.718
4.722
4.723
4.726
4.729
4.719
4.714
4.708
4.711
4.720
4.726
4.716
4.719
4.717
4.715
4.713
4.719
4.716
4.718
4.717
4.723
4.729
4.735
4.742
4.747
4.753
4.760
4.766
4.769
4.769
4.771
4.780
4.779
4.778
4.778
4.776
4.776
4.773
4.764
4.766
4.767
4.766
4.768
4.768
4.768
4.761
4.756
4.756
4.754
4.758
4.756
4.764
4.760
4.754
4.757
4.753
4.750
4.747
4.751
4.754
4.753
4.756
4.763
4.761
4.755
4.748
4.742
4.739
4.744
4.741
4.733
4.725
4.723
4.720
4.723
4.725
4.726
4.728
4.725
4.726
4.727
4.731
4.731
4.726
4.721
4.716
4.712
4.707
4.709
4.715
4.720
4.726
4.731
4.737
4.743
4.748
4.748
4.751
4.752
4.760
4.766
4.764
4.766
4.768
4.762
4.759
4.756
4.752
4.749
4.749
4.753
4.752
4.755
4.751
4.748
4.742
4.735
4.741
4.735
4.738
4.735
4.735
4.730
4.723
4.725
4.724
4.725
4.721
4.723
4.727
4.727
4.726
4.726
4.732
4.725
4.725
4.722
4.724
4.720
4.718
4.718
4.717
4.724
4.719
4.720
4.727
4.732
4.731
4.729
4.726
4.722
4.728
4.722
4.724
4.726
4.728
4.726
4.724
4.716
4.715
4.711
4.707
4.706
4.700
4.704
4.702
4.704
4.703
4.706
4.705
4.707
4.709
4.708
4.713
4.718
4.723
4.728
4.733
4.738
4.743
4.748
4.753
4.758
4.763
4.768
4.773
4.777
4.775
4.775
4.772
4.777
4.777
4.779
4.784
4.776
4.769
4.770
4.765
4.763
4.765
4.768
4.764
4.759
4.755
4.755
4.755
4.760
4.767
4.773
4.772
4.774
4.777
4.777
4.782
4.776
4.768
4.765
4.762
4.760
4.763
4.771
4.765
4.761
4.761
4.760
4.760
4.765
4.773
4.768
4.769
4.765
4.769
4.767
4.771
4.769
4.767
4.767
4.767
4.764
4.760
4.759
4.763
4.759
4.758
4.756
4.751
4.755
4.753
