2.994
3.332
3.510
3.639
3.723
3.798
3.836
3.881
3.928
3.965
4.002
4.009
4.044
4.080
4.084
4.080
4.101
4.124
4.148
4.169
4.189
4.204
4.224
4.240
4.252
4.214
4.183
4.193
4.200
4.215
4.221
4.226
4.238
4.245
4.254
4.266
4.268
4.280
4.290
4.291
4.301
4.310
4.307
4.314
4.326
4.332
4.331
4.335
4.343
4.354
4.358
4.355
4.359
4.369
4.375
4.381
4.388
4.385
4.386
4.392
4.397
4.403
4.411
4.412
4.419
4.425
4.414
4.420
4.424
4.428
4.435
4.437
4.443
4.447
4.452
4.455
4.460
4.455
4.451
4.456
4.457
4.462
4.466
4.470
4.477
4.475
4.484
4.483
4.490
4.494
4.498
4.497
4.501
4.506
4.499
4.494
4.496
4.497
4.499
4.502
4.504
4.511
4.517
4.519
4.518
4.513
4.526
4.524
4.528
4.533
4.537
4.540
4.542
4.540
4.542
4.549
4.548
4.551
4.558
4.560
4.564
4.565
4.551
4.546
4.539
4.546
4.545
4.541
4.548
4.551
4.553
4.558
4.562
4.566
4.567
4.573
4.573
4.565
4.567
4.574
4.567
4.577
4.578
4.581
4.584
4.587
4.588
4.588
4.589
4.592
4.599
4.606
4.592
4.596
4.595
4.601
4.600
4.603
4.603
4.606
4.608
4.614
4.616
4.617
4.622
4.621
4.619
4.625
4.632
4.629
4.627
4.632
4.630
4.628
4.632
4.636
4.625
4.615
4.605
4.603
4.605
4.606
4.611
4.609
4.616
4.615
4.611
4.618
4.621
4.626
4.624
4.623
4.622
4.631
4.622
4.631
4.624
4.636
4.632
4.639
4.629
4.631
4.632
4.632
4.630
4.636
4.630
4.634
4.632
4.639
4.640
4.643
4.640
4.645
4.644
4.643
4.651
4.648
4.657
4.655
4.654
4.661
4.660
4.661
4.655
4.658
4.655
4.655
4.666
4.666
4.662
4.675
4.673
4.670
4.676
4.672
4.671
4.661
4.665
4.666
4.665
4.670
4.676
4.672
4.669
4.669
4.665
4.677
4.674
4.672
4.679
4.680
4.674
4.680
4.676
4.678
4.681
4.689
4.685
4.684
4.693
4.697
4.690
4.695
4.696
4.695
4.693
4.703
4.703
4.691
4.696
4.697
4.696
4.697
4.706
4.706
4.704
4.703
4.712
4.710
4.709
4.706
4.718
4.721
4.714
4.713
4.723
4.722
4.726
4.716
4.717
4.710
4.706
4.711
4.712
4.718
4.712
4.714
4.725
4.725
4.720
4.710
4.721
4.721
4.717
4.716
4.717
4.718
4.720
4.716
4.717
4.725
4.725
4.724
4.726
4.721
4.732
4.740
4.736
4.736
4.731
4.736
4.742
4.740
4.736
4.735
4.740
4.751
4.745
4.744
4.742
4.743
4.739
4.732
4.726
4.722
4.717
4.714
4.712
4.708
4.717
4.716
4.712
4.711
4.707
4.711
4.707
4.710
4.710
4.706
4.709
4.718
4.721
4.721
4.718
4.716
4.715
4.721
4.731
4.725
4.720
4.718
4.712
4.721
4.725
4.725
4.729
4.727
4.723
4.719
4.731
4.732
4.729
4.729
4.731
4.729
4.726
4.738
4.745
4.744
4.742
4.743
4.745
4.736
4.736
4.730
4.723
4.724
4.717
4.721
4.731
4.732
4.728
4.727
4.734
4.729
4.720
4.729
4.728
4.725
4.718
4.714
4.714
4.714
4.725
4.730
4.728
4.730
4.729
4.725
4.720
4.718
4.728
4.733
4.731
4.725
4.725
4.725
4.726
4.724
4.729
4.740
4.739
4.736
4.739
4.738
4.736
4.733
4.740
4.736
4.747
4.746
4.739
4.744
4.743
4.743
4.743
4.740
4.739
4.751
4.751
4.747
4.739
4.736
4.742
4.740
4.739
4.741
4.750
4.760
4.753
4.754
4.751
4.747
4.747
4.744
4.745
4.747
4.756
4.762
4.761
4.757
4.759
4.758
4.759
4.760
4.759
4.757
4.759
4.768
4.773
4.769
4.767
4.768
4.761
4.755
4.756
4.751
4.755
4.763
4.764
4.765
4.764
4.760
4.759
4.758
4.755
4.755
4.755
4.760
4.764
4.762
4.762
4.757
4.759
4.758
4.755
4.752
4.758
4.757
4.758
4.766
4.773
4.776
4.775
4.773
4.772
4.769
4.764
4.771
4.769
4.765
4.769
4.769
4.778
4.784
4.784
4.781
4.780
4.776
4.766
4.768
4.764
4.763
4.770
4.769
4.777
4.784
4.786
4.787
4.784
4.788
4.783
4.787
4.784
4.782
4.781
4.781
4.781
4.781
4.786
4.793
4.802
4.809
4.805
4.803
4.799
4.796
4.791
4.787
4.794
4.793
4.784
4.787
4.789
4.796
4.800
4.801
4.800
4.799
4.799
4.796
4.794
4.793
4.792
4.787
4.783
4.779
4.786
4.782
4.781
4.779
4.775
4.777
4.773
4.776
4.773
4.779
4.778
4.773
4.772
4.771
4.778
4.785
4.783
4.788
4.789
4.788
4.786
4.779
4.773
4.769
4.764
4.763
4.759
4.760
4.764
4.771
4.778
4.777
4.781
4.779
4.780
4.779
4.781
4.782
4.777
4.776
4.772
4.771
4.770
4.769
4.767
4.769
4.775
4.781
4.788
4.790
4.789
4.792
4.791
4.792
4.786
4.781
4.783
4.784
4.791
4.792
4.789
4.790
4.788
4.787
4.781
4.785
4.791
4.798
4.797
4.796
4.797
4.790
4.784
4.785
4.786
4.787
4.783
4.782
4.784
4.782
4.786
4.784
4.778
4.779
4.786
4.793
4.799
4.793
4.789
4.785
4.783
4.782
4.788
4.790
4.784
4.782
4.781
4.782
4.781
4.782
4.783
4.779
4.780
4.781
4.788
4.795
4.800
4.807
4.806
4.804
4.802
4.804
4.800
4.798
4.800
4.798
4.797
4.798
4.799
4.801
4.799
4.798
4.800
4.801
4.799
4.798
4.795
4.801
4.808
4.814
4.814
4.810
4.808
4.812
4.810
4.809
4.810
4.809
4.811
4.807
4.802
4.796
4.794
4.793
4.794
4.798
4.799
4.795
4.795
4.798
4.803
4.809
4.816
4.817
4.818
4.818
4.816
4.814
4.811
4.810
4.813
4.814
4.816
4.823
4.816
4.817
4.810
4.809
4.808
4.812
4.814
4.812
4.811
4.810
4.806
4.810
4.816
4.823
4.829
4.834
4.838
4.836
4.836
4.836
4.832
4.829
4.829
4.826
4.825
4.825
4.824
4.826
4.827
4.826
4.822
4.821
4.821
4.817
4.818
4.820
4.814
4.815
4.818
4.825
4.829
4.829
4.827
4.825
4.821
4.817
4.813
4.812
4.810
4.807
4.805
4.804
4.805
4.799
4.800
4.804
4.805
4.801
4.805
4.806
4.806
4.807
4.806
4.807
4.808
4.814
4.819
4.825
4.830
4.834
4.832
4.826
4.829
4.823
4.819
4.815
4.810
4.809
4.808
4.810
4.810
4.810
4.814
4.812
4.810
4.804
4.800
4.799
4.800
4.801
4.799
4.798
4.799
4.804
4.811
4.815
4.821
4.826
4.825
4.829
4.835
4.837
4.838
4.834
4.832
4.826
4.829
4.831
4.830
4.829
4.832
4.829
4.827
4.828
4.824
4.818
4.818
4.818
4.821
4.818
4.819
4.817
4.814
4.815
4.810
4.807
4.811
4.817
4.822
4.826
4.832
4.836
4.838
4.836
4.835
4.837
4.838
4.837
4.836
4.832
4.836
4.837
4.840
4.837
4.838
4.840
4.838
4.834
4.838
4.837
4.840
4.839
4.836
4.839
4.836
4.831
4.829
4.826
4.822
4.823
4.827
4.821
4.824
4.825
4.830
4.836
4.841
4.845
4.851
4.855
4.857
4.858
4.854
4.855
4.849
4.848
4.849
4.848
4.846
4.848
4.852
4.853
4.851
4.850
4.852
4.851
4.855
4.858
4.857
4.858
4.854
4.850
4.846
4.845
4.844
4.847
4.844
4.842
4.838
4.840
4.840
4.840
4.843
4.843
4.843
4.847
4.852
4.858
4.862
4.864
4.862
4.864
4.866
4.862
4.863
4.862
4.862
4.861
4.860
4.856
4.854
4.856
4.860
4.859
4.857
4.853
4.847
4.845
4.841
4.837
4.832
4.831
4.836
4.834
4.830
4.834
4.835
4.834
4.830
4.832
4.836
4.832
4.833
4.834
4.840
4.842
4.847
4.853
4.857
4.862
4.866
4.862
4.862
4.861
4.860
4.855
4.855
4.858
4.852
4.850
4.852
4.855
4.857
4.858
4.855
4.856
4.857
4.856
