2.992
3.332
3.510
3.629
3.714
3.789
3.839
3.877
3.938
3.958
4.004
4.003
4.040
4.073
4.108
4.073
4.100
4.123
4.144
4.162
4.187
4.202
4.218
4.238
4.251
4.258
4.223
4.196
4.204
4.210
4.226
4.229
4.244
4.247
4.258
4.262
4.275
4.274
4.283
4.295
4.292
4.303
4.313
4.320
4.322
4.328
4.335
4.344
4.341
4.347
4.352
4.364
4.368
4.364
4.371
4.378
4.382
4.392
4.396
4.405
4.392
4.397
4.407
4.410
4.417
4.418
4.426
4.432
4.433
4.424
4.429
4.436
4.437
4.444
4.450
4.449
4.455
4.463
4.467
4.465
4.470
4.458
4.466
4.470
4.469
4.473
4.478
4.485
4.488
4.487
4.492
4.496
4.500
4.501
4.508
4.509
4.511
4.518
4.510
4.503
4.505
4.507
4.508
4.509
4.513
4.518
4.522
4.525
4.530
4.528
4.525
4.536
4.535
4.539
4.541
4.548
4.546
4.555
4.547
4.556
4.558
4.556
4.560
4.566
4.566
4.573
4.573
4.564
4.551
4.553
4.551
4.556
4.558
4.555
4.558
4.561
4.566
4.569
4.574
4.575
4.576
4.580
4.584
4.577
4.576
4.584
4.579
4.586
4.587
4.586
4.587
4.594
4.599
4.603
4.598
4.603
4.603
4.608
4.614
4.599
4.607
4.610
4.609
4.610
4.615
4.611
4.614
4.618
4.625
4.625
4.628
4.630
4.633
4.627
4.634
4.638
4.639
4.641
4.642
4.638
4.637
4.641
4.639
4.641
4.631
4.622
4.612
4.610
4.614
4.610
4.617
4.618
4.625
4.625
4.625
4.629
4.629
4.635
4.634
4.633
4.628
4.638
4.634
4.636
4.639
4.643
4.639
4.649
4.645
4.636
4.634
4.647
4.640
4.643
4.639
4.640
4.637
4.647
4.648
4.646
4.648
4.649
4.656
4.647
4.656
4.657
4.653
4.663
4.661
4.665
4.664
4.665
4.673
4.665
4.667
4.666
4.664
4.670
4.667
4.668
4.677
4.676
4.677
4.685
4.686
4.681
4.686
4.677
4.673
4.674
4.672
4.681
4.677
4.677
4.688
4.676
4.675
4.682
4.678
4.676
4.686
4.684
4.684
4.692
4.689
4.687
4.689
4.692
4.692
4.690
4.700
4.699
4.700
4.699
4.708
4.710
4.707
4.709
4.707
4.704
4.702
4.706
4.703
4.703
4.708
4.714
4.710
4.710
4.714
4.717
4.718
4.714
4.718
4.723
4.719
4.720
4.722
4.728
4.727
4.723
4.724
4.737
4.732
4.726
4.719
4.715
4.719
4.720
4.721
4.726
4.729
4.728
4.727
4.731
4.727
4.723
4.722
4.725
4.730
4.726
4.721
4.721
4.729
4.729
4.732
4.731
4.729
4.736
4.738
4.736
4.735
4.733
4.741
4.751
4.751
4.740
4.741
4.742
4.754
4.750
4.752
4.748
4.747
4.755
4.755
4.755
4.751
4.745
4.740
4.734
4.729
4.723
4.725
4.723
4.727
4.720
4.716
4.723
4.730
4.723
4.714
4.709
4.716
4.725
4.722
4.723
4.725
4.721
4.721
4.729
4.733
4.729
4.732
4.726
4.727
4.728
4.736
4.731
4.727
4.723
4.725
4.725
4.735
4.739
4.743
4.737
4.732
4.731
4.730
4.740
4.743
4.744
4.743
4.742
4.741
4.737
4.746
4.756
4.760
4.759
4.752
4.747
4.740
4.734
4.733
4.734
4.733
4.731
4.729
4.731
4.741
4.745
4.744
4.740
4.736
4.736
4.732
4.736
4.730
4.728
4.727
4.726
4.724
4.726
4.729
4.737
4.744
4.744
4.736
4.736
4.733
4.728
4.727
4.737
4.743
4.739
4.736
4.737
4.740
4.739
4.738
4.734
4.744
4.750
4.749
4.755
4.751
4.748
4.751
4.748
4.752
4.747
4.757
4.758
4.752
4.756
4.760
4.755
4.747
4.742
4.746
4.756
4.752
4.753
4.752
4.750
4.751
4.750
4.752
4.750
4.752
4.761
4.766
4.766
4.763
4.762
4.760
4.755
4.755
4.759
4.757
4.762
4.770
4.773
4.771
4.770
4.774
4.770
4.773
4.772
4.771
4.767
4.770
4.778
4.781
4.775
4.768
4.762
4.768
4.764
4.758
4.756
4.763
4.770
4.777
4.770
4.776
4.773
4.768
4.772
4.770
4.762
4.765
4.764
4.768
4.775
4.773
4.772
4.763
4.767
4.771
4.769
4.770
4.767
4.763
4.767
4.773
4.780
4.788
4.788
4.784
4.778
4.779
4.778
4.779
4.783
4.782
4.778
4.777
4.778
4.787
4.794
4.790
4.788
4.784
4.784
4.777
4.777
4.777
4.778
4.777
4.780
4.781
4.788
4.795
4.797
4.798
4.797
4.798
4.792
4.798
4.796
4.795
4.792
4.793
4.791
4.792
4.792
4.799
4.807
4.815
4.814
4.809
4.805
4.806
4.805
4.801
4.799
4.803
4.803
4.801
4.800
4.798
4.803
4.812
4.808
4.810
4.810
4.807
4.803
4.798
4.794
4.792
4.786
4.782
4.781
4.787
4.792
4.792
4.791
4.788
4.786
4.787
4.786
4.790
4.789
4.787
4.781
4.779
4.781
4.777
4.783
4.790
4.796
4.795
4.794
4.790
4.784
4.779
4.773
4.776
4.772
4.770
4.772
4.771
4.769
4.771
4.778
4.784
4.791
4.795
4.792
4.793
4.792
4.787
4.791
4.785
4.783
4.785
4.784
4.782
4.780
4.782
4.781
4.781
4.781
4.788
4.796
4.803
4.803
4.804
4.802
4.798
4.797
4.795
4.796
4.796
4.799
4.801
4.802
4.799
4.794
4.787
4.783
4.785
4.792
4.798
4.805
4.804
4.800
4.798
4.796
4.799
4.797
4.798
4.799
4.796
4.796
4.795
4.792
4.788
4.784
4.782
4.784
4.788
4.796
4.801
4.802
4.798
4.800
4.798
4.797
4.795
4.796
4.798
4.796
4.796
4.796
4.796
4.794
4.795
4.794
4.790
4.788
4.790
4.792
4.796
4.803
4.807
4.814
4.817
4.818
4.815
4.810
4.809
4.808
4.812
4.811
4.812
4.808
4.809
4.811
4.812
4.811
4.810
4.810
4.809
4.813
4.809
4.803
4.807
4.813
4.820
4.821
4.820
4.821
4.821
4.821
4.821
4.821
4.815
4.814
4.812
4.810
4.809
4.808
4.803
4.799
4.803
4.808
4.809
4.805
4.803
4.805
4.810
4.816
4.821
4.827
4.829
4.827
4.823
4.821
4.825
4.825
4.825
4.824
4.826
4.830
4.828
4.827
4.823
4.822
4.823
4.819
4.821
4.824
4.825
4.822
4.820
4.816
4.820
4.821
4.828
4.833
4.837
4.844
4.847
4.844
4.839
4.841
4.840
4.841
4.840
4.840
4.837
4.836
4.837
4.833
4.828
4.832
4.834
4.830
4.829
4.832
4.826
4.827
4.826
4.829
4.826
4.827
4.831
4.832
4.829
4.825
4.821
4.822
4.823
4.822
4.823
4.822
4.817
4.816
4.812
4.814
4.815
4.814
4.815
4.816
4.815
4.814
4.814
4.814
4.817
4.819
4.815
4.814
4.815
4.821
4.826
4.830
4.837
4.838
4.834
4.830
4.828
4.825
4.826
4.822
4.818
4.818
4.818
4.821
4.823
4.822
4.817
4.816
4.820
4.818
4.815
4.811
4.810
4.811
4.810
4.811
4.812
4.810
4.810
4.814
4.820
4.825
4.829
4.835
4.837
4.841
4.847
4.847
4.845
4.844
4.842
4.840
4.840
4.843
4.840
4.841
4.842
4.838
4.831
4.830
4.831
4.829
4.828
4.825
4.826
4.829
4.829
4.832
4.826
4.822
4.821
4.819
4.820
4.819
4.823
4.829
4.833
4.836
4.842
4.847
4.850
4.846
4.845
4.851
4.848
4.844
4.845
4.843
4.848
4.847
4.855
4.851
4.853
4.849
4.845
4.844
4.850
4.847
4.850
4.846
4.845
4.843
4.844
4.836
4.834
4.835
4.836
4.829
4.831
4.835
4.833
4.835
4.837
4.838
4.842
4.847
4.851
4.855
4.861
4.866
4.869
4.865
4.864
4.860
4.861
4.860
4.864
4.862
4.861
4.860
4.862
4.865
4.862
4.863
4.864
4.865
4.864
4.866
4.866
4.860
4.859
4.858
4.856
4.857
4.856
4.854
4.853
4.852
4.850
4.849
4.855
4.851
4.847
4.844
4.845
4.851
4.855
4.858
4.864
4.868
4.873
4.871
4.872
4.873
4.872
4.876
4.875
4.876
4.870
4.871
4.870
4.871
