2.991
3.319
3.489
3.592
3.589
3.610
3.678
3.724
3.773
3.793
3.834
3.874
3.912
3.915
3.932
3.972
3.959
3.986
4.016
4.034
4.066
4.071
4.079
4.049
4.060
4.102
4.084
4.124
4.110
4.104
4.141
4.127
4.170
4.183
4.152
4.179
4.200
4.206
4.228
4.229
4.236
4.215
4.196
4.214
4.199
4.175
4.182
4.199
4.202
4.192
4.235
4.212
4.227
4.230
4.209
4.248
4.236
4.257
4.259
4.257
4.287
4.259
4.286
4.286
4.294
4.259
4.263
4.259
4.248
4.277
4.273
4.235
4.290
4.285
4.260
4.283
4.297
4.273
4.283
4.315
4.317
4.305
4.296
4.329
4.325
4.320
4.280
4.322
4.315
4.310
4.290
4.300
4.343
4.323
4.318
4.331
4.326
4.346
4.379
4.362
4.339
4.336
4.323
4.364
4.352
4.341
4.338
4.329
4.341
4.354
4.394
4.399
4.401
4.366
4.364
4.354
4.358
4.391
4.411
4.411
4.404
4.424
4.417
4.395
4.373
4.379
4.355
4.352
4.331
4.348
4.357
4.349
4.348
4.353
4.385
4.384
4.365
4.352
4.347
4.333
4.342
4.335
4.344
4.339
4.369
4.399
4.401
4.383
4.342
4.351
4.352
4.352
4.339
4.341
4.339
4.334
4.361
4.389
4.405
4.392
4.368
4.381
4.398
4.381
4.361
4.353
4.357
4.368
4.349
4.345
4.349
4.375
4.400
4.422
4.426
4.394
4.404
4.421
4.423
4.401
4.410
4.395
4.396
4.384
4.369
4.397
4.384
4.404
4.404
4.394
4.411
4.434
4.457
4.461
4.434
4.448
4.450
4.432
4.426
4.419
4.427
4.415
4.395
4.383
4.374
4.355
4.343
4.359
4.343
4.360
4.381
4.401
4.422
4.436
4.462
4.442
4.446
4.439
4.431
4.425
4.429
4.415
4.411
4.403
4.383
4.398
4.394
4.404
4.418
4.418
4.433
4.403
4.393
4.412
4.404
4.412
4.418
4.405
4.412
4.424
4.443
4.461
4.479
4.467
4.453
4.439
4.445
4.440
4.436
4.411
4.418
4.408
4.392
4.401
4.380
4.375
4.394
4.396
4.398
4.400
4.383
4.375
4.355
4.346
4.353
4.373
4.378
4.371
4.367
4.362
4.374
4.382
4.398
4.414
4.431
4.447
4.463
4.479
4.482
4.479
4.467
4.466
4.446
4.442
4.443
4.438
4.434
4.446
4.441
4.424
4.412
4.409
4.408
4.408
4.424
4.435
4.420
4.412
4.416
4.421
4.426
4.418
4.413
4.393
4.391
4.381
4.364
4.358
4.360
4.353
4.362
4.361
4.349
4.341
4.353
4.365
4.373
4.386
4.400
4.414
4.428
4.441
4.455
4.469
4.483
4.495
4.494
4.488
4.481
4.475
4.476
4.481
4.483
4.481
4.463
4.451
4.455
4.445
4.443
4.437
4.439
4.432
4.424
4.430
4.428
4.441
4.441
4.431
4.418
4.416
4.404
4.399
4.409
4.426
4.419
4.420
4.434
4.432
4.436
4.451
4.447
4.437
4.419
4.423
4.428
4.429
4.417
4.407
4.404
4.397
4.387
4.376
4.383
4.399
4.394
4.408
4.396
4.411
4.415
4.415
4.420
4.425
4.411
4.415
4.422
4.432
4.443
4.455
4.466
4.478
4.489
4.501
4.508
4.498
4.487
4.477
4.466
4.469
4.477
4.456
4.446
4.440
4.446
4.431
4.447
4.457
4.471
4.457
4.448
4.459
4.445
4.449
4.439
4.439
4.446
4.455
4.456
4.449
4.449
4.435
4.442
4.443
4.434
4.426
4.423
4.407
4.412
4.394
4.415
4.401
4.405
4.404
4.403
4.406
4.386
4.396
4.370
4.390
4.389
4.387
4.373
4.381
4.376
4.379
4.378
4.375
4.371
4.363
4.381
4.389
4.382
4.378
4.369
4.363
4.358
4.363
4.366
4.374
4.391
4.401
4.415
4.429
4.419
4.435
4.428
4.411
4.404
4.400
4.392
4.399
4.411
4.402
4.400
4.397
4.397
4.402
4.409
4.413
4.401
4.418
4.413
4.422
4.431
4.440
4.450
4.459
4.468
4.477
4.486
4.495
4.503
4.507
4.503
4.493
4.500
4.492
4.494
4.493
4.480
4.479
4.491
4.485
4.489
4.496
4.496
4.492
4.482
4.468
4.462
4.458
4.468
4.469
4.459
4.457
4.455
4.458
4.445
4.442
4.439
4.442
4.457
4.466
4.469
4.473
4.476
4.471
4.466
4.465
4.459
4.466
4.458
4.460
4.475
4.462
4.463
4.450
4.455
4.442
4.443
4.449
4.446
4.458
4.470
4.482
4.494
4.492
4.488
4.479
4.469
4.453
4.441
4.456
4.457
4.451
4.454
4.455
4.454
4.453
4.457
4.449
4.456
4.450
4.451
4.439
4.431
4.430
4.432
4.422
4.413
4.409
4.413
4.416
4.416
4.416
4.421
4.421
4.416
4.420
4.417
4.409
4.401
4.399
4.397
4.391
4.384
4.398
4.392
4.388
4.385
4.379
4.388
4.401
4.407
4.402
4.402
4.412
4.414
4.408
4.401
4.395
4.390
4.390
4.383
4.385
4.386
4.384
4.387
4.385
4.382
4.373
4.372
4.369
4.360
4.351
4.351
4.351
4.355
4.362
4.363
4.365
4.359
4.353
4.349
4.341
4.329
4.337
4.329
4.325
4.336
4.330
4.337
4.344
4.351
4.358
4.364
4.371
4.378
4.385
4.392
4.399
4.406
4.413
4.419
4.426
4.433
4.440
4.447
4.454
4.460
4.467
4.474
4.481
4.488
4.495
4.502
4.509
4.515
4.522
4.529
4.536
4.543
4.550
4.557
4.563
4.570
4.569
4.564
4.555
4.556
4.549
4.553
4.551
4.548
4.546
4.546
4.544
4.535
4.522
4.516
4.514
4.521
4.521
4.515
4.506
4.500
4.496
4.493
4.486
4.489
4.485
4.479
4.479
4.478
4.475
4.480
4.463
4.470
4.474
4.485
4.496
4.506
4.518
4.505
4.506
4.501
4.500
4.493
4.496
4.498
4.489
4.492
4.490
4.495
4.491
4.487
4.481
4.487
4.496
4.507
4.498
4.491
4.497
4.488
4.497
4.507
4.502
4.499
4.488
4.477
4.474
4.478
4.488
4.488
4.484
4.473
4.467
4.463
4.460
4.454
4.460
4.461
4.457
4.461
4.454
4.452
4.451
4.455
4.447
4.449
4.438
4.441
4.440
4.433
4.428
4.419
4.422
4.438
4.431
4.419
4.417
4.419
4.414
4.415
4.418
4.416
4.423
4.436
4.422
4.416
4.421
4.413
4.410
4.411
4.421
4.414
4.407
4.400
4.394
4.387
4.380
4.374
4.369
4.373
4.379
4.372
4.367
4.365
4.360
4.374
4.370
4.378
4.373
4.369
4.381
4.376
4.371
4.375
4.366
4.368
4.368
4.369
4.378
4.373
4.374
4.382
4.390
4.398
4.406
4.414
4.422
4.429
4.437
4.438
4.436
4.424
4.428
4.422
4.429
4.435
4.435
4.436
4.432
4.443
4.435
4.430
4.417
4.423
4.419
4.416
4.415
4.426
4.429
4.426
4.434
4.443
4.452
4.458
4.469
4.454
4.450
4.447
4.438
4.430
4.421
4.420
4.417
4.412
4.404
4.400
4.398
4.409
4.409
4.400
4.403
4.403
4.406
4.405
4.397
4.402
4.404
4.398
4.392
4.387
4.384
4.376
4.384
4.381
4.392
4.388
4.392
4.395
4.398
4.389
4.394
4.386
4.396
4.396
4.399
4.396
4.405
4.399
4.395
4.383
4.385
4.380
4.379
4.379
4.369
4.382
4.395
4.391
4.390
4.386
4.391
4.394
4.399
4.403
4.400
4.394
4.390
4.380
4.379
4.370
4.373
4.372
4.367
4.368
4.363
4.354
4.355
4.361
4.361
4.364
4.377
4.363
4.361
4.369
4.367
4.362
4.362
4.372
4.374
4.365
4.361
4.373
4.368
4.360
4.362
4.370
4.361
4.355
4.355
4.357
4.364
4.356
4.354
4.356
4.363
4.357
4.361
4.363
4.358
4.370
4.379
4.375
4.376
4.382
4.380
4.386
4.390
4.391
4.381
4.374
4.377
4.386
4.396
4.388
4.385
4.389
4.394
4.398
4.403
4.407
4.412
4.417
4.421
4.426
4.430
4.435
4.440
4.444
4.449
4.453
4.458
4.462
4.467
4.471
4.476
4.480
4.485
4.490
4.494
4.499
4.503
4.508
4.512
4.517
4.522
4.526
4.531
4.535
4.538
4.532
4.525
4.530
4.520
4.522
4.529
4.531
4.533
