2.994
3.332
3.511
3.631
3.725
3.794
3.837
3.883
3.919
3.964
3.993
4.008
4.048
4.082
4.076
4.075
4.103
4.124
4.145
4.170
4.186
4.208
4.226
4.244
4.242
4.205
4.177
4.197
4.202
4.209
4.223
4.227
4.242
4.242
4.256
4.266
4.267
4.279
4.278
4.290
4.300
4.310
4.309
4.318
4.328
4.332
4.328
4.340
4.342
4.351
4.360
4.353
4.363
4.367
4.380
4.382
4.391
4.376
4.385
4.395
4.396
4.406
4.410
4.414
4.419
4.411
4.413
4.420
4.421
4.428
4.435
4.438
4.440
4.449
4.454
4.455
4.459
4.447
4.456
4.458
4.457
4.460
4.470
4.471
4.475
4.479
4.478
4.485
4.492
4.496
4.492
4.497
4.503
4.501
4.492
4.494
4.497
4.497
4.500
4.504
4.505
4.515
4.516
4.518
4.512
4.521
4.523
4.524
4.531
4.532
4.538
4.537
4.536
4.540
4.547
4.543
4.552
4.556
4.556
4.562
4.563
4.549
4.539
4.538
4.544
4.543
4.542
4.548
4.555
4.557
4.560
4.567
4.561
4.562
4.566
4.567
4.563
4.565
4.569
4.568
4.571
4.573
4.575
4.581
4.590
4.590
4.585
4.594
4.593
4.595
4.599
4.587
4.594
4.598
4.602
4.600
4.596
4.600
4.608
4.611
4.612
4.616
4.619
4.617
4.615
4.623
4.626
4.630
4.627
4.633
4.624
4.627
4.632
4.628
4.629
4.619
4.608
4.598
4.601
4.601
4.610
4.605
4.616
4.614
4.610
4.614
4.619
4.622
4.623
4.620
4.619
4.627
4.619
4.628
4.624
4.631
4.627
4.638
4.627
4.627
4.631
4.628
4.631
4.631
4.631
4.631
4.631
4.636
4.634
4.642
4.635
4.642
4.643
4.645
4.646
4.644
4.654
4.650
4.656
4.660
4.656
4.656
4.653
4.660
4.651
4.655
4.660
4.663
4.665
4.669
4.667
4.675
4.673
4.672
4.668
4.658
4.668
4.661
4.662
4.669
4.671
4.669
4.665
4.666
4.667
4.674
4.668
4.671
4.678
4.674
4.671
4.682
4.673
4.674
4.687
4.685
4.684
4.686
4.694
4.690
4.692
4.701
4.695
4.693
4.695
4.701
4.695
4.691
4.697
4.691
4.692
4.701
4.705
4.702
4.698
4.708
4.711
4.705
4.703
4.715
4.720
4.712
4.711
4.719
4.719
4.723
4.717
4.719
4.711
4.701
4.709
4.712
4.712
4.708
4.709
4.723
4.720
4.721
4.711
4.718
4.719
4.713
4.714
4.716
4.716
4.716
4.712
4.715
4.727
4.721
4.722
4.724
4.720
4.731
4.734
4.732
4.731
4.731
4.739
4.740
4.736
4.732
4.734
4.742
4.749
4.743
4.739
4.737
4.742
4.737
4.731
4.726
4.720
4.715
4.709
4.707
4.709
4.713
4.714
4.712
4.712
4.705
4.708
4.705
4.709
4.708
4.705
4.712
4.719
4.719
4.717
4.713
4.712
4.715
4.727
4.727
4.725
4.715
4.711
4.716
4.722
4.721
4.727
4.723
4.722
4.719
4.727
4.731
4.731
4.724
4.728
4.729
4.725
4.734
4.742
4.745
4.742
4.738
4.742
4.738
4.738
4.731
4.725
4.718
4.714
4.718
4.728
4.729
4.728
4.724
4.731
4.729
4.722
4.727
4.728
4.727
4.719
4.712
4.711
4.713
4.723
4.729
4.723
4.727
4.728
4.726
4.716
4.718
4.728
4.731
4.728
4.721
4.723
4.724
4.723
4.723
4.730
4.738
4.734
4.735
4.736
4.734
4.733
4.734
4.736
4.738
4.749
4.743
4.739
4.745
4.739
4.738
4.741
4.735
4.742
4.751
4.745
4.745
4.736
4.737
4.736
4.737
4.733
4.743
4.753
4.757
4.752
4.751
4.749
4.743
4.744
4.745
4.741
4.751
4.756
4.759
4.755
4.753
4.760
4.754
4.756
4.756
4.755
4.756
4.764
4.773
4.769
4.764
4.768
4.764
4.758
4.753
4.753
4.751
4.760
4.760
4.761
4.765
4.758
4.757
4.756
4.754
4.752
4.754
4.756
4.764
4.756
4.760
4.756
4.757
4.755
4.753
4.750
4.753
4.752
4.757
4.764
4.773
4.775
4.773
4.769
4.770
4.768
4.762
4.769
4.767
4.761
4.765
4.769
4.778
4.782
4.781
4.782
4.779
4.772
4.764
4.766
4.762
4.763
4.768
4.768
4.776
4.785
4.782
4.782
4.782
4.783
4.781
4.783
4.781
4.782
4.779
4.780
4.776
4.779
4.789
4.796
4.801
4.804
4.805
4.801
4.795
4.793
4.787
4.788
4.794
4.788
4.784
4.785
4.794
4.797
4.798
4.801
4.798
4.794
4.795
4.793
4.790
4.791
4.790
4.785
4.781
4.782
4.784
4.779
4.776
4.774
4.775
4.772
4.773
4.771
4.775
4.775
4.771
4.771
4.767
4.775
4.782
4.780
4.786
4.790
4.786
4.788
4.781
4.775
4.770
4.764
4.765
4.756
4.757
4.763
4.768
4.777
4.776
4.777
4.776
4.777
4.776
4.779
4.781
4.775
4.775
4.772
4.768
4.764
4.767
4.764
4.768
4.774
4.781
4.785
4.787
4.786
4.787
4.786
4.789
4.783
4.779
4.780
4.782
4.786
4.787
4.786
4.787
4.783
4.782
4.780
4.786
4.791
4.795
4.793
4.795
4.794
4.787
4.783
4.782
4.785
4.781
4.782
4.778
4.782
4.781
4.785
4.781
4.777
4.782
4.788
4.795
4.796
4.790
4.786
4.781
4.780
4.782
4.788
4.786
4.780
4.781
4.780
4.778
4.780
4.779
4.775
4.778
4.777
4.784
4.791
4.797
4.804
4.808
4.802
4.800
4.801
4.798
4.796
4.797
4.794
4.797
4.796
4.797
4.797
4.795
4.794
4.798
4.799
4.800
4.796
4.792
4.799
4.805
4.812
4.811
4.810
4.806
4.810
4.808
4.807
4.806
4.807
4.808
4.808
4.803
4.796
4.794
4.791
4.792
4.796
4.795
4.793
4.794
4.797
4.805
4.808
4.816
4.816
4.816
4.813
4.814
4.812
4.809
4.808
4.811
4.815
4.814
4.819
4.814
4.813
4.806
4.807
4.806
4.812
4.808
4.808
4.806
4.804
4.805
4.812
4.819
4.824
4.830
4.837
4.836
4.837
4.833
4.834
4.830
4.824
4.823
4.824
4.822
4.824
4.823
4.823
4.827
4.826
4.820
4.818
4.816
4.812
4.816
4.815
4.812
4.815
4.820
4.826
4.828
4.827
4.825
4.823
4.820
4.815
4.811
4.807
4.805
4.802
4.803
4.802
4.803
4.797
4.801
4.801
4.801
4.801
4.803
4.802
4.805
4.804
4.803
4.807
4.812
4.818
4.823
4.829
4.831
4.832
4.827
4.826
4.823
4.819
4.814
4.808
4.808
4.807
4.808
4.807
4.808
4.812
4.812
4.807
4.803
4.799
4.797
4.799
4.795
4.796
4.795
4.799
4.805
4.810
4.816
4.821
4.827
4.823
4.828
4.834
4.834
4.834
4.831
4.829
4.825
4.827
4.828
4.829
4.827
4.829
4.825
4.823
4.825
4.823
4.817
4.816
4.819
4.819
4.817
4.818
4.814
4.812
4.811
4.807
4.808
4.813
4.819
4.824
4.828
4.834
4.836
4.832
4.831
4.831
4.838
4.834
4.831
4.834
4.833
4.835
4.836
4.835
4.838
4.837
4.834
4.832
4.836
4.834
4.836
4.835
4.834
4.835
4.836
4.832
4.825
4.826
4.820
4.819
4.825
4.821
4.820
4.823
4.828
4.834
4.839
4.843
4.849
4.851
4.853
4.854
4.853
4.851
4.849
4.846
4.847
4.843
4.842
4.845
4.850
4.851
4.847
4.845
4.849
4.849
4.855
4.856
4.855
4.854
4.855
4.849
4.845
4.845
4.844
4.843
4.842
4.840
4.836
4.838
4.838
4.840
4.841
4.838
4.844
4.848
4.852
4.857
4.860
4.860
4.860
4.865
4.866
4.862
4.860
4.860
4.860
4.857
4.856
4.854
4.852
4.854
4.858
4.857
4.856
4.851
4.847
4.843
4.839
4.835
4.831
4.831
4.833
4.829
4.831
4.831
4.834
4.832
4.830
4.832
4.833
4.831
4.831
4.837
4.841
4.845
4.850
4.854
4.860
4.862
4.861
4.859
4.861
4.857
4.853
4.853
4.855
4.853
4.847
4.848
4.853
4.854
4.855
4.854
4.852
4.853
4.855
4.849
4.847
4.848
4.847
4.845
4.845
4.845
4.845
4.845
4.842
