2.994
3.331
3.502
3.634
3.713
3.783
3.816
3.887
3.871
3.920
3.967
4.011
4.052
4.071
4.000
4.003
4.023
4.042
4.067
4.085
4.096
4.120
4.124
4.145
4.142
4.162
4.167
4.176
4.198
4.192
4.204
4.219
4.231
4.234
4.233
4.250
4.257
4.271
4.278
4.264
4.272
4.284
4.292
4.301
4.311
4.311
4.328
4.334
4.311
4.323
4.331
4.338
4.340
4.348
4.360
4.366
4.368
4.372
4.383
4.391
4.400
4.386
4.363
4.369
4.384
4.386
4.397
4.391
4.395
4.396
4.410
4.411
4.419
4.424
4.430
4.430
4.422
4.431
4.447
4.446
4.447
4.455
4.460
4.468
4.457
4.461
4.469
4.476
4.461
4.446
4.450
4.454
4.454
4.458
4.459
4.460
4.467
4.477
4.454
4.464
4.458
4.466
4.481
4.475
4.485
4.481
4.494
4.490
4.481
4.493
4.505
4.498
4.503
4.516
4.510
4.512
4.510
4.502
4.500
4.513
4.509
4.511
4.514
4.515
4.526
4.533
4.537
4.534
4.541
4.529
4.537
4.530
4.544
4.541
4.553
4.547
4.558
4.557
4.562
4.560
4.560
4.563
4.555
4.558
4.550
4.560
4.553
4.559
4.560
4.561
4.563
4.566
4.578
4.575
4.573
4.584
4.584
4.583
4.588
4.591
4.585
4.601
4.595
4.592
4.594
4.585
4.574
4.562
4.564
4.559
4.560
4.567
4.564
4.552
4.563
4.570
4.566
4.559
4.575
4.578
4.575
4.577
4.595
4.585
4.584
4.582
4.591
4.576
4.565
4.571
4.571
4.566
4.569
4.571
4.564
4.558
4.570
4.569
4.567
4.567
4.566
4.580
4.584
4.586
4.579
4.581
4.594
4.589
4.592
4.581
4.590
4.590
4.590
4.588
4.580
4.597
4.598
4.592
4.590
4.595
4.598
4.619
4.610
4.608
4.608
4.602
4.614
4.619
4.604
4.600
4.599
4.605
4.610
4.615
4.604
4.595
4.598
4.610
4.614
4.610
4.611
4.611
4.609
4.610
4.629
4.632
4.616
4.611
4.610
4.613
4.623
4.633
4.636
4.633
4.633
4.623
4.635
4.630
4.647
4.649
4.639
4.646
4.644
4.642
4.634
4.646
4.654
4.657
4.649
4.648
4.640
4.642
4.646
4.649
4.639
4.629
4.619
4.616
4.619
4.624
4.640
4.637
4.632
4.626
4.614
4.609
4.611
4.619
4.630
4.635
4.629
4.626
4.629
4.618
4.621
4.627
4.623
4.638
4.648
4.645
4.638
4.638
4.627
4.628
4.621
4.627
4.632
4.647
4.649
4.639
4.628
4.628
4.622
4.625
4.620
4.618
4.632
4.647
4.653
4.651
4.644
4.644
4.638
4.639
4.645
4.648
4.640
4.645
4.651
4.662
4.663
4.657
4.662
4.662
4.656
4.660
4.649
4.637
4.640
4.646
4.659
4.672
4.666
4.667
4.665
4.658
4.664
4.669
4.663
4.667
4.659
4.658
4.662
4.669
4.682
4.690
4.693
4.689
4.679
4.681
4.679
4.667
4.672
4.669
4.668
4.671
4.670
4.679
4.688
4.688
4.683
4.682
4.673
4.667
4.655
4.656
4.658
4.655
4.656
4.658
4.664
4.676
4.676
4.671
4.665
4.659
4.661
4.657
4.661
4.662
4.658
4.660
4.657
4.657
4.656
4.660
4.672
4.683
4.695
4.691
4.678
4.681
4.677
4.677
4.673
4.667
4.665
4.663
4.670
4.671
4.670
4.668
4.666
4.676
4.687
4.698
4.708
4.699
4.695
4.692
4.693
4.692
4.692
4.690
4.688
4.681
4.684
4.687
4.682
4.686
4.690
4.695
4.693
4.697
4.707
4.715
4.716
4.723
4.716
4.720
4.716
4.712
4.711
4.700
4.706
4.705
4.714
4.711
4.699
4.701
4.687
4.689
4.688
4.698
4.708
4.712
4.714
4.717
4.705
4.706
4.705
4.702
4.700
4.697
4.697
4.698
4.694
4.693
4.691
4.694
4.698
4.696
4.689
4.689
4.691
4.701
4.710
4.720
4.730
4.731
4.726
4.724
4.720
4.720
4.725
4.723
4.719
4.713
4.717
4.721
4.723
4.725
4.724
4.726
4.715
4.713
4.706
4.710
4.711
4.712
4.720
4.720
4.730
4.739
4.748
4.751
4.753
4.749
4.743
4.740
4.736
4.730
4.738
4.732
4.733
4.734
4.740
4.736
4.732
4.729
4.731
4.725
4.727
4.725
4.730
4.728
4.732
4.728
4.729
4.733
4.729
4.723
4.718
4.718
4.718
4.724
4.723
4.713
4.711
4.714
4.707
4.707
4.712
4.713
4.711
4.713
4.707
4.701
4.708
4.717
4.711
4.710
4.708
4.702
4.696
4.703
4.711
4.720
4.728
4.732
4.732
4.731
4.720
4.716
4.705
4.711
4.705
4.706
4.716
4.721
4.720
4.713
4.703
4.696
4.692
4.697
4.696
4.695
4.686
4.687
4.688
4.685
4.692
4.693
4.690
4.683
4.690
4.698
4.704
4.712
4.720
4.728
4.736
4.733
4.731
4.728
4.728
4.726
4.733
4.727
4.723
4.726
4.732
4.734
4.727
4.720
4.714
4.707
4.700
4.702
4.697
4.700
4.697
4.696
4.694
4.692
4.685
4.692
4.687
4.681
4.681
4.680
4.682
4.690
4.697
4.705
4.712
4.720
4.727
4.727
4.726
4.721
4.719
4.723
4.721
4.728
4.727
4.731
4.727
4.735
4.727
4.731
4.734
4.732
4.734
4.735
4.728
4.719
4.721
4.715
4.715
4.713
4.706
4.709
4.700
4.694
4.699
4.699
4.701
4.706
4.703
4.706
4.707
4.703
4.699
4.692
4.698
4.706
4.712
4.719
4.726
4.733
4.738
4.733
4.729
4.727
4.730
4.734
4.731
4.729
4.730
4.729
4.728
4.721
4.714
4.714
4.715
4.715
4.725
4.726
4.719
4.720
4.725
4.724
4.717
4.713
4.713
4.716
4.722
4.720
4.716
4.712
4.718
4.718
4.716
4.715
4.715
4.712
4.712
4.703
4.707
4.698
4.695
4.696
4.700
4.706
4.713
4.719
4.726
4.732
4.739
4.745
4.747
4.746
4.748
4.746
4.746
4.749
4.747
4.749
4.752
4.747
4.739
4.735
4.738
4.738
4.734
4.731
4.727
4.724
4.727
4.726
4.732
4.729
4.730
4.729
4.723
4.727
4.724
4.719
4.718
4.725
4.731
4.733
4.736
4.733
4.732
4.730
4.724
4.717
4.717
4.713
4.710
4.709
4.713
4.710
4.708
4.703
4.703
4.705
4.705
4.711
4.717
4.723
4.729
4.735
4.741
4.747
4.753
4.759
4.757
4.755
4.758
4.755
4.758
4.763
4.762
4.763
4.760
4.760
4.755
4.760
4.765
4.762
4.759
4.758
4.757
4.755
4.755
4.751
4.743
4.746
4.743
4.746
4.749
4.747
4.742
4.737
4.738
4.731
4.727
4.730
4.733
4.741
4.744
4.744
4.743
4.746
4.745
4.745
4.742
4.741
4.740
4.738
4.734
4.732
4.730
4.731
4.737
4.741
4.740
4.741
4.741
4.735
4.731
4.736
4.736
4.734
4.734
4.732
4.736
4.741
4.747
4.753
4.758
4.764
4.770
4.775
4.781
4.786
4.792
4.798
4.802
4.800
4.790
4.785
4.785
4.788
4.787
4.786
4.790
4.789
4.794
4.786
4.785
4.786
4.786
4.783
4.782
4.780
4.779
4.773
4.769
4.764
4.758
4.762
4.770
4.774
4.779
4.778
4.771
4.772
4.773
4.767
4.768
4.771
4.768
4.766
4.766
4.758
4.753
4.755
4.751
4.746
4.747
4.748
4.749
4.744
4.744
4.742
4.745
4.748
4.743
4.739
4.734
4.730
4.726
4.728
4.727
4.724
4.716
4.716
4.714
4.717
4.722
4.727
4.732
4.737
4.743
4.748
4.753
4.758
4.763
4.768
4.771
4.771
4.778
4.784
4.777
4.772
4.773
4.772
4.766
4.769
4.767
4.766
4.770
4.772
4.767
4.766
4.766
4.765
4.761
4.758
4.760
4.758
4.755
4.751
4.749
4.751
4.757
4.753
4.750
4.750
4.747
4.744
4.745
4.748
4.745
4.742
4.740
4.741
4.745
4.746
4.742
4.737
4.735
4.733
4.739
4.733
4.740
4.742
4.740
4.738
4.738
4.738
4.745
4.752
4.753
4.753
4.751
4.747
4.750
4.744
4.737
4.735
4.739
4.737
4.739
4.736
4.732
4.733
4.728
4.724
4.728
4.722
4.723
4.721
4.721
4.724
