2.989
3.325
3.495
3.613
3.690
3.712
3.793
3.866
3.931
3.857
3.864
3.909
3.923
3.952
3.983
3.998
4.013
4.044
4.040
4.071
4.098
4.096
4.109
4.135
4.116
4.147
4.158
4.165
4.189
4.172
4.183
4.194
4.205
4.226
4.231
4.244
4.262
4.257
4.243
4.244
4.259
4.258
4.271
4.274
4.287
4.286
4.301
4.306
4.311
4.323
4.331
4.332
4.341
4.345
4.312
4.320
4.323
4.332
4.343
4.322
4.327
4.342
4.350
4.364
4.345
4.365
4.366
4.371
4.386
4.370
4.369
4.373
4.382
4.394
4.396
4.398
4.407
4.403
4.413
4.412
4.420
4.430
4.430
4.441
4.434
4.437
4.420
4.424
4.441
4.442
4.456
4.442
4.457
4.454
4.472
4.458
4.479
4.467
4.478
4.472
4.458
4.439
4.428
4.436
4.428
4.459
4.446
4.457
4.456
4.461
4.476
4.455
4.456
4.442
4.443
4.431
4.427
4.451
4.452
4.446
4.460
4.457
4.453
4.459
4.456
4.452
4.471
4.463
4.466
4.474
4.486
4.481
4.484
4.497
4.488
4.462
4.481
4.486
4.481
4.473
4.491
4.496
4.493
4.490
4.495
4.498
4.497
4.488
4.500
4.523
4.527
4.520
4.508
4.513
4.542
4.526
4.519
4.516
4.524
4.528
4.534
4.526
4.527
4.515
4.505
4.513
4.511
4.495
4.515
4.510
4.494
4.500
4.498
4.508
4.526
4.515
4.516
4.499
4.503
4.512
4.527
4.515
4.509
4.497
4.505
4.505
4.526
4.532
4.541
4.525
4.521
4.527
4.521
4.534
4.545
4.541
4.532
4.520
4.525
4.525
4.529
4.551
4.561
4.559
4.551
4.557
4.557
4.544
4.539
4.554
4.575
4.568
4.572
4.559
4.568
4.554
4.547
4.544
4.565
4.557
4.557
4.542
4.546
4.538
4.528
4.520
4.540
4.560
4.565
4.561
4.565
4.559
4.556
4.551
4.537
4.534
4.541
4.560
4.577
4.589
4.581
4.575
4.574
4.560
4.555
4.559
4.560
4.558
4.561
4.580
4.598
4.594
4.587
4.600
4.594
4.592
4.585
4.584
4.585
4.576
4.570
4.579
4.597
4.611
4.607
4.606
4.593
4.579
4.575
4.566
4.574
4.567
4.567
4.570
4.576
4.592
4.606
4.616
4.613
4.615
4.604
4.598
4.594
4.587
4.600
4.606
4.604
4.594
4.590
4.586
4.598
4.614
4.630
4.645
4.639
4.625
4.622
4.625
4.624
4.620
4.612
4.605
4.605
4.616
4.607
4.613
4.602
4.609
4.624
4.638
4.643
4.636
4.627
4.619
4.610
4.601
4.607
4.607
4.595
4.598
4.593
4.590
4.598
4.589
4.592
4.605
4.607
4.604
4.611
4.606
4.593
4.591
4.585
4.581
4.583
4.585
4.573
4.575
4.575
4.579
4.582
4.578
4.577
4.583
4.585
4.598
4.611
4.625
4.622
4.624
4.623
4.614
4.610
4.608
4.597
4.585
4.579
4.577
4.576
4.568
4.567
4.559
4.560
4.562
4.569
4.569
4.574
4.583
4.595
4.608
4.620
4.633
4.634
4.622
4.617
4.613
4.606
4.601
4.607
4.600
4.598
4.597
4.596
4.598
4.594
4.599
4.589
4.577
4.577
4.579
4.574
4.579
4.580
4.578
4.589
4.601
4.612
4.623
4.612
4.619
4.623
4.630
4.628
4.630
4.624
4.628
4.626
4.617
4.605
4.604
4.601
4.602
4.596
4.602
4.601
4.591
4.584
4.580
4.588
4.593
4.589
4.589
4.586
4.589
4.583
4.594
4.605
4.615
4.626
4.637
4.648
4.635
4.632
4.633
4.628
4.622
4.629
4.625
4.628
4.625
4.624
4.624
4.620
4.625
4.621
4.608
4.606
4.600
4.609
4.606
4.598
4.606
4.615
4.613
4.618
4.610
4.604
4.593
4.597
4.603
4.599
4.606
4.607
4.617
4.627
4.637
4.647
4.657
4.663
4.668
4.667
4.664
4.661
4.665
4.659
4.656
4.648
4.652
4.648
4.648
4.648
4.641
4.641
4.639
4.639
4.634
4.647
4.639
4.635
4.639
4.646
4.644
4.652
4.653
4.650
4.636
4.639
4.637
4.631
4.624
4.629
4.630
4.633
4.631
4.626
4.626
4.636
4.632
4.641
4.650
4.659
4.668
4.668
4.667
4.666
4.674
4.683
4.687
4.687
4.686
4.676
4.671
4.663
4.656
4.651
4.640
4.632
4.628
4.621
4.623
4.622
4.610
4.604
4.603
4.608
4.619
4.624
4.622
4.617
4.623
4.621
4.614
4.622
4.620
4.623
4.614
4.607
4.601
4.604
4.600
4.601
4.609
4.609
4.604
4.605
4.607
4.615
4.623
4.631
4.639
4.648
4.656
4.664
4.673
4.674
4.667
4.672
4.666
4.662
4.654
4.655
4.657
4.656
4.659
4.659
4.653
4.645
4.645
4.648
4.655
4.657
4.652
4.655
4.649
4.648
4.648
4.648
4.640
4.647
4.650
4.644
4.648
4.652
4.646
4.647
4.644
4.635
4.637
4.641
4.639
4.640
4.643
4.641
4.638
4.636
4.628
4.628
4.625
4.627
4.621
4.619
4.624
4.626
4.638
4.632
4.630
4.639
4.649
4.642
4.634
4.633
4.636
4.644
4.651
4.659
4.666
4.673
4.681
4.688
4.696
4.697
4.695
4.691
4.700
4.699
4.700
4.693
4.683
4.686
4.680
4.685
4.677
4.674
4.669
4.664
4.665
4.654
4.650
4.647
4.646
4.649
4.655
4.646
4.655
4.649
4.647
4.638
4.636
4.628
4.630
4.636
4.639
4.643
4.637
4.630
4.638
4.630
4.621
4.620
4.616
4.622
4.631
4.625
4.630
4.623
4.622
4.624
4.630
4.624
4.620
4.628
4.619
4.608
4.611
4.612
4.604
4.605
4.608
4.609
4.603
4.595
4.590
4.590
4.596
4.603
4.609
4.616
4.623
4.629
4.636
4.642
4.649
4.656
4.662
4.669
4.675
4.679
4.688
4.681
4.683
4.693
4.686
4.687
4.686
4.681
4.677
4.683
4.691
4.699
4.706
4.700
4.694
4.687
4.690
4.688
4.692
4.688
4.688
4.685
4.689
4.688
4.685
4.684
4.682
4.686
4.684
4.675
4.672
4.667
4.668
4.666
4.670
4.670
4.661
4.659
4.664
4.669
4.672
4.660
4.657
4.656
4.658
4.659
4.655
4.647
4.643
4.639
4.638
4.639
4.627
4.627
4.634
4.632
4.631
4.630
4.623
4.617
4.611
4.612
4.614
4.614
4.615
4.617
4.622
4.622
4.621
4.613
4.608
4.603
4.607
4.604
4.601
4.607
4.608
4.608
4.606
4.612
4.621
4.625
4.625
4.623
4.622
4.620
4.617
4.621
4.621
4.619
4.622
4.628
4.634
4.640
4.646
4.651
4.657
4.663
4.669
4.674
4.680
4.686
4.692
4.694
4.686
4.683
4.685
4.684
4.676
4.680
4.682
4.672
4.677
4.672
4.672
4.677
4.681
4.675
4.672
4.669
4.664
4.662
4.658
4.653
4.645
4.651
4.661
4.664
4.665
4.658
4.665
4.664
4.665
4.667
4.669
4.672
4.666
4.659
4.666
4.674
4.682
4.685
4.682
4.682
4.691
4.696
4.691
4.693
4.689
4.695
4.686
4.681
4.676
4.681
4.680
4.679
4.674
4.678
4.673
4.667
4.669
4.658
4.655
4.652
4.651
4.651
4.645
4.639
4.632
4.625
4.619
4.619
4.622
4.624
4.621
4.628
4.626
4.626
4.631
4.635
4.633
4.635
4.643
4.646
4.645
4.640
4.637
4.636
4.638
4.636
4.638
4.634
4.637
4.637
4.635
4.629
4.631
4.628
4.622
4.622
4.617
4.615
4.614
4.611
4.607
4.610
4.615
4.612
4.616
4.611
4.607
4.613
4.621
4.619
4.621
4.627
4.628
4.626
4.631
4.638
4.645
4.652
4.647
4.651
4.650
4.646
4.649
4.640
4.645
4.650
4.655
4.660
4.665
4.670
4.675
4.680
4.685
4.690
4.695
4.700
4.705
4.710
4.715
4.720
4.725
4.730
4.733
4.738
4.736
4.732
4.726
4.725
4.722
4.721
4.712
4.715
4.708
4.707
4.710
4.713
4.716
4.713
4.712
4.718
4.720
4.722
4.724
4.726
4.732
4.725
4.719
4.713
4.713
4.716
4.709
4.704
4.704
4.699
4.690
4.687
4.686
4.683
4.684
4.684
4.684
4.678
4.686
4.694
4.698
4.698
4.695
4.702
4.704
