2.988
3.325
3.495
3.615
3.712
3.795
3.819
3.892
3.877
3.927
3.977
4.019
4.058
3.997
3.982
4.002
4.022
4.042
4.065
4.079
4.088
4.109
4.117
4.136
4.150
4.155
4.171
4.181
4.182
4.197
4.218
4.212
4.217
4.231
4.245
4.252
4.265
4.251
4.260
4.274
4.285
4.294
4.294
4.309
4.318
4.299
4.305
4.313
4.317
4.321
4.336
4.344
4.343
4.354
4.361
4.372
4.383
4.373
4.349
4.358
4.367
4.369
4.378
4.372
4.381
4.387
4.396
4.393
4.412
4.409
4.409
4.413
4.415
4.421
4.433
4.430
4.434
4.449
4.455
4.445
4.447
4.457
4.454
4.431
4.429
4.437
4.433
4.438
4.440
4.447
4.460
4.453
4.451
4.444
4.454
4.457
4.452
4.464
4.463
4.481
4.476
4.466
4.476
4.486
4.487
4.485
4.492
4.502
4.486
4.487
4.483
4.492
4.492
4.496
4.493
4.501
4.509
4.510
4.520
4.513
4.520
4.514
4.518
4.520
4.526
4.526
4.540
4.531
4.541
4.534
4.552
4.547
4.541
4.534
4.545
4.541
4.544
4.528
4.549
4.538
4.550
4.558
4.554
4.565
4.554
4.560
4.578
4.562
4.575
4.580
4.575
4.584
4.587
4.569
4.575
4.563
4.551
4.538
4.550
4.546
4.540
4.549
4.546
4.549
4.553
4.557
4.551
4.549
4.576
4.565
4.563
4.568
4.575
4.572
4.570
4.558
4.553
4.543
4.568
4.556
4.546
4.551
4.555
4.543
4.544
4.555
4.557
4.562
4.553
4.559
4.579
4.566
4.565
4.562
4.574
4.576
4.567
4.563
4.566
4.579
4.580
4.580
4.565
4.575
4.595
4.594
4.596
4.585
4.580
4.601
4.607
4.596
4.599
4.583
4.596
4.592
4.589
4.585
4.586
4.594
4.595
4.599
4.593
4.589
4.585
4.603
4.615
4.613
4.599
4.603
4.594
4.606
4.615
4.617
4.610
4.608
4.602
4.611
4.622
4.637
4.634
4.630
4.623
4.617
4.614
4.631
4.641
4.628
4.629
4.627
4.627
4.625
4.633
4.643
4.643
4.632
4.621
4.611
4.610
4.628
4.624
4.609
4.617
4.616
4.609
4.598
4.615
4.615
4.612
4.606
4.605
4.606
4.603
4.597
4.613
4.629
4.629
4.625
4.626
4.625
4.609
4.606
4.614
4.618
4.634
4.630
4.634
4.628
4.624
4.610
4.602
4.599
4.614
4.630
4.632
4.636
4.631
4.625
4.617
4.619
4.622
4.621
4.622
4.632
4.647
4.651
4.647
4.641
4.636
4.632
4.638
4.632
4.633
4.630
4.638
4.651
4.655
4.647
4.644
4.641
4.645
4.642
4.640
4.646
4.636
4.638
4.648
4.662
4.669
4.679
4.669
4.663
4.662
4.665
4.656
4.657
4.653
4.646
4.649
4.659
4.672
4.677
4.665
4.662
4.669
4.668
4.667
4.657
4.647
4.637
4.641
4.644
4.657
4.666
4.673
4.662
4.657
4.648
4.644
4.644
4.641
4.633
4.635
4.637
4.639
4.641
4.654
4.666
4.673
4.673
4.679
4.674
4.666
4.656
4.650
4.649
4.647
4.649
4.654
4.655
4.643
4.649
4.661
4.673
4.686
4.693
4.684
4.683
4.684
4.677
4.672
4.667
4.668
4.667
4.664
4.667
4.657
4.665
4.665
4.666
4.676
4.688
4.699
4.705
4.699
4.697
4.700
4.692
4.695
4.697
4.690
4.695
4.693
4.689
4.685
4.688
4.692
4.680
4.674
4.683
4.694
4.706
4.703
4.707
4.697
4.696
4.686
4.682
4.680
4.681
4.681
4.674
4.672
4.673
4.675
4.676
4.677
4.671
4.675
4.682
4.693
4.703
4.711
4.708
4.704
4.703
4.708
4.702
4.705
4.709
4.705
4.698
4.697
4.698
4.699
4.698
4.698
4.696
4.698
4.697
4.696
4.694
4.694
4.701
4.711
4.722
4.731
4.742
4.747
4.740
4.735
4.730
4.727
4.722
4.717
4.718
4.714
4.717
4.721
4.722
4.719
4.718
4.705
4.704
4.710
4.710
4.705
4.706
4.709
4.715
4.725
4.734
4.729
4.723
4.718
4.712
4.707
4.701
4.696
4.703
4.691
4.688
4.690
4.690
4.695
4.689
4.685
4.687
4.694
4.691
4.693
4.697
4.692
4.691
4.694
4.703
4.712
4.706
4.709
4.712
4.705
4.704
4.701
4.700
4.694
4.692
4.699
4.702
4.696
4.691
4.691
4.691
4.682
4.680
4.674
4.677
4.675
4.668
4.663
4.671
4.675
4.667
4.673
4.682
4.690
4.699
4.707
4.716
4.724
4.725
4.724
4.720
4.720
4.710
4.709
4.704
4.706
4.712
4.713
4.712
4.709
4.707
4.702
4.706
4.701
4.697
4.692
4.685
4.682
4.678
4.673
4.677
4.679
4.667
4.661
4.664
4.672
4.680
4.688
4.696
4.704
4.712
4.706
4.709
4.703
4.701
4.698
4.702
4.710
4.712
4.706
4.711
4.709
4.708
4.712
4.708
4.712
4.718
4.717
4.708
4.712
4.706
4.698
4.697
4.692
4.695
4.692
4.686
4.690
4.684
4.689
4.691
4.688
4.688
4.687
4.684
4.683
4.690
4.698
4.705
4.713
4.717
4.719
4.723
4.715
4.714
4.716
4.711
4.707
4.714
4.718
4.715
4.709
4.704
4.697
4.698
4.699
4.709
4.706
4.701
4.705
4.706
4.701
4.691
4.691
4.695
4.697
4.695
4.695
4.693
4.700
4.702
4.701
4.702
4.703
4.697
4.689
4.687
4.693
4.686
4.681
4.688
4.695
4.702
4.709
4.716
4.723
4.730
4.724
4.726
4.725
4.729
4.726
4.726
4.723
4.733
4.727
4.727
4.725
4.724
4.722
4.722
4.715
4.712
4.712
4.715
4.713
4.711
4.711
4.712
4.712
4.703
4.703
4.701
4.702
4.707
4.710
4.711
4.717
4.718
4.716
4.713
4.709
4.703
4.704
4.706
4.704
4.702
4.702
4.694
4.686
4.681
4.687
4.694
4.701
4.707
4.714
4.720
4.727
4.733
4.740
4.746
4.745
4.739
4.734
4.731
4.739
4.746
4.746
4.743
4.740
4.746
4.745
4.751
4.751
4.747
4.744
4.739
4.736
4.739
4.730
4.732
4.732
4.731
4.730
4.725
4.733
4.728
4.728
4.724
4.715
4.713
4.717
4.718
4.725
4.720
4.720
4.724
4.722
4.724
4.729
4.731
4.724
4.718
4.712
4.713
4.716
4.725
4.721
4.720
4.721
4.717
4.716
4.719
4.720
4.716
4.717
4.720
4.726
4.732
4.738
4.744
4.750
4.756
4.762
4.768
4.772
4.772
4.775
4.783
4.782
4.783
4.780
4.776
4.779
4.770
4.765
4.769
4.771
4.770
4.771
4.768
4.768
4.761
4.758
4.758
4.756
4.759
4.759
4.764
4.760
4.754
4.755
4.756
4.753
4.750
4.754
4.755
4.756
4.757
4.765
4.760
4.753
4.747
4.742
4.741
4.748
4.740
4.732
4.723
4.725
4.723
4.729
4.730
4.727
4.729
4.728
4.729
4.729
4.732
4.731
4.726
4.721
4.716
4.711
4.706
4.709
4.715
4.720
4.726
4.731
4.737
4.742
4.748
4.748
4.753
4.752
4.759
4.767
4.766
4.770
4.769
4.765
4.762
4.758
4.753
4.751
4.750
4.756
4.754
4.758
4.752
4.750
4.743
4.738
4.743
4.738
4.738
4.738
4.738
4.734
4.727
4.729
4.727
4.725
4.725
4.725
4.727
4.728
4.731
4.729
4.730
4.729
4.727
4.726
4.722
4.723
4.722
4.721
4.722
4.724
4.724
4.721
4.724
4.731
4.733
4.733
4.730
4.724
4.727
4.725
4.726
4.728
4.725
4.726
4.727
4.719
4.719
4.714
4.712
4.709
4.708
4.706
4.704
4.700
4.706
4.706
4.710
4.706
4.712
4.711
4.710
4.715
4.720
4.725
4.730
4.735
4.740
4.745
4.750
4.755
4.760
4.765
4.770
4.775
4.780
4.779
4.777
4.776
4.780
4.781
4.780
4.782
4.773
4.771
4.772
4.767
4.765
4.767
4.772
4.766
4.758
4.756
4.756
4.757
4.761
4.768
4.776
4.776
4.775
4.776
4.778
4.784
4.775
4.770
4.766
4.765
4.763
4.764
4.772
4.764
4.762
4.763
4.760
4.760
4.765
4.773
4.768
4.770
4.766
4.770
4.768
4.771
4.768
4.767
4.767
4.769
4.769
4.762
4.760
