2.987
3.330
3.498
3.603
3.703
3.759
3.843
3.834
3.893
3.949
3.991
3.995
3.941
3.955
3.981
4.001
4.019
4.050
4.060
4.066
4.092
4.099
4.117
4.138
4.135
4.155
4.171
4.165
4.180
4.195
4.211
4.224
4.211
4.225
4.231
4.248
4.251
4.265
4.280
4.251
4.267
4.276
4.279
4.298
4.304
4.311
4.318
4.326
4.342
4.334
4.313
4.315
4.321
4.333
4.334
4.343
4.351
4.356
4.356
4.362
4.366
4.365
4.371
4.391
4.393
4.405
4.405
4.415
4.412
4.413
4.421
4.417
4.391
4.388
4.397
4.399
4.412
4.418
4.417
4.403
4.399
4.402
4.415
4.418
4.428
4.438
4.444
4.437
4.437
4.444
4.451
4.457
4.463
4.452
4.448
4.447
4.459
4.459
4.452
4.468
4.471
4.476
4.484
4.475
4.479
4.495
4.481
4.497
4.495
4.501
4.501
4.506
4.512
4.521
4.507
4.499
4.506
4.496
4.510
4.499
4.515
4.512
4.524
4.523
4.529
4.542
4.524
4.543
4.537
4.550
4.542
4.542
4.548
4.544
4.530
4.516
4.509
4.505
4.511
4.508
4.504
4.520
4.517
4.511
4.542
4.528
4.524
4.535
4.543
4.537
4.532
4.521
4.513
4.532
4.515
4.506
4.520
4.508
4.503
4.524
4.528
4.525
4.528
4.536
4.534
4.528
4.532
4.542
4.533
4.533
4.526
4.548
4.550
4.537
4.534
4.547
4.565
4.556
4.548
4.548
4.566
4.567
4.565
4.547
4.555
4.561
4.557
4.556
4.538
4.562
4.566
4.564
4.554
4.560
4.564
4.578
4.573
4.563
4.560
4.563
4.582
4.583
4.584
4.578
4.589
4.576
4.593
4.600
4.593
4.595
4.591
4.590
4.597
4.610
4.605
4.597
4.595
4.591
4.594
4.604
4.591
4.579
4.569
4.568
4.584
4.589
4.586
4.570
4.562
4.561
4.566
4.586
4.581
4.574
4.578
4.584
4.573
4.575
4.580
4.594
4.586
4.590
4.574
4.583
4.585
4.582
4.584
4.589
4.584
4.584
4.578
4.575
4.579
4.584
4.578
4.596
4.600
4.603
4.603
4.606
4.604
4.600
4.597
4.591
4.598
4.615
4.623
4.613
4.605
4.594
4.603
4.600
4.599
4.590
4.605
4.622
4.629
4.631
4.631
4.627
4.622
4.624
4.620
4.620
4.611
4.617
4.633
4.638
4.633
4.631
4.637
4.640
4.634
4.631
4.620
4.609
4.622
4.631
4.630
4.630
4.625
4.621
4.617
4.620
4.615
4.613
4.606
4.601
4.616
4.627
4.629
4.630
4.624
4.626
4.629
4.627
4.625
4.621
4.617
4.620
4.609
4.617
4.631
4.641
4.634
4.637
4.636
4.637
4.641
4.638
4.643
4.639
4.631
4.632
4.618
4.622
4.629
4.643
4.656
4.664
4.655
4.663
4.663
4.668
4.658
4.652
4.652
4.642
4.651
4.653
4.647
4.648
4.643
4.650
4.663
4.676
4.666
4.673
4.673
4.664
4.657
4.658
4.658
4.666
4.656
4.645
4.636
4.635
4.637
4.638
4.650
4.662
4.669
4.672
4.666
4.663
4.664
4.658
4.666
4.661
4.658
4.658
4.665
4.663
4.662
4.657
4.648
4.643
4.643
4.658
4.666
4.678
4.690
4.702
4.703
4.692
4.694
4.695
4.696
4.696
4.691
4.692
4.688
4.687
4.692
4.687
4.676
4.675
4.667
4.665
4.668
4.670
4.681
4.692
4.703
4.706
4.713
4.708
4.717
4.706
4.695
4.693
4.688
4.692
4.691
4.684
4.678
4.671
4.665
4.659
4.652
4.646
4.650
4.658
4.669
4.680
4.690
4.698
4.690
4.682
4.674
4.666
4.658
4.654
4.663
4.670
4.673
4.670
4.656
4.654
4.648
4.640
4.638
4.640
4.637
4.638
4.633
4.642
4.652
4.662
4.672
4.682
4.689
4.686
4.679
4.676
4.675
4.673
4.675
4.672
4.672
4.681
4.677
4.676
4.667
4.656
4.655
4.666
4.662
4.669
4.667
4.668
4.665
4.665
4.663
4.654
4.647
4.653
4.663
4.672
4.674
4.674
4.671
4.668
4.666
4.667
4.673
4.673
4.662
4.664
4.665
4.658
4.665
4.662
4.666
4.664
4.659
4.663
4.658
4.653
4.655
4.653
4.656
4.659
4.661
4.660
4.659
4.664
4.656
4.652
4.656
4.665
4.674
4.683
4.692
4.690
4.682
4.673
4.669
4.665
4.669
4.670
4.679
4.673
4.675
4.674
4.668
4.664
4.677
4.673
4.668
4.666
4.667
4.658
4.651
4.653
4.656
4.651
4.652
4.654
4.650
4.656
4.657
4.656
4.650
4.652
4.652
4.653
4.661
4.670
4.678
4.686
4.694
4.694
4.705
4.700
4.690
4.692
4.686
4.687
4.682
4.681
4.680
4.674
4.670
4.680
4.682
4.673
4.671
4.678
4.676
4.675
4.673
4.671
4.665
4.665
4.662
4.670
4.665
4.672
4.672
4.674
4.677
4.675
4.675
4.672
4.670
4.668
4.671
4.671
4.666
4.660
4.668
4.675
4.683
4.691
4.698
4.701
4.708
4.708
4.710
4.710
4.703
4.698
4.703
4.698
4.695
4.700
4.704
4.714
4.715
4.718
4.711
4.713
4.714
4.708
4.701
4.692
4.688
4.687
4.691
4.692
4.686
4.688
4.679
4.681
4.688
4.689
4.690
4.685
4.684
4.678
4.675
4.672
4.672
4.669
4.672
4.682
4.690
4.693
4.686
4.682
4.678
4.675
4.679
4.686
4.693
4.700
4.707
4.714
4.721
4.728
4.736
4.736
4.731
4.730
4.740
4.744
4.739
4.732
4.729
4.730
4.731
4.729
4.733
4.738
4.737
4.732
4.733
4.729
4.722
4.712
4.710
4.722
4.723
4.719
4.726
4.725
4.730
4.730
4.729
4.729
4.725
4.730
4.729
4.722
4.715
4.713
4.714
4.713
4.710
4.705
4.700
4.707
4.704
4.706
4.698
4.693
4.684
4.682
4.694
4.693
4.691
4.683
4.680
4.687
4.693
4.700
4.706
4.713
4.718
4.719
4.715
4.718
4.725
4.729
4.727
4.730
4.723
4.719
4.717
4.711
4.714
4.716
4.722
4.723
4.723
4.720
4.725
4.721
4.713
4.704
4.705
4.706
4.697
4.698
4.690
4.688
4.684
4.681
4.685
4.687
4.683
4.690
4.694
4.691
4.685
4.687
4.688
4.685
4.694
4.695
4.694
4.691
4.700
4.698
4.694
4.683
4.684
4.687
4.678
4.679
4.682
4.678
4.688
4.681
4.682
4.679
4.681
4.679
4.675
4.671
4.672
4.673
4.671
4.676
4.682
4.688
4.694
4.700
4.705
4.712
4.717
4.723
4.729
4.735
4.741
4.746
4.747
4.739
4.742
4.739
4.734
4.744
4.739
4.741
4.739
4.732
4.735
4.723
4.724
4.732
4.726
4.722
4.723
4.726
4.733
4.739
4.742
4.735
4.732
4.731
4.734
4.732
4.727
4.725
4.722
4.728
4.733
4.735
4.732
4.730
4.727
4.728
4.728
4.732
4.729
4.721
4.722
4.727
4.728
4.732
4.726
4.726
4.719
4.723
4.723
4.726
4.722
4.718
4.715
4.719
4.715
4.712
4.710
4.711
4.709
4.705
4.709
4.710
4.717
4.718
4.722
4.725
4.721
4.719
4.716
4.715
4.712
4.715
4.711
4.707
4.703
4.699
4.695
4.693
4.701
4.700
4.705
4.710
4.716
4.721
4.726
4.732
4.737
4.742
4.747
4.753
4.758
4.758
4.758
4.759
4.756
4.754
4.747
4.741
4.739
4.734
4.728
4.723
4.718
4.721
4.722
4.725
4.726
4.722
4.716
4.710
4.706
4.706
4.711
4.704
4.712
4.715
4.716
4.713
4.716
4.707
4.708
4.706
4.698
4.700
4.698
4.707
4.709
4.710
4.711
4.707
4.702
4.703
4.710
4.713
4.712
4.713
4.715
4.715
4.712
4.707
4.704
4.704
4.703
4.697
4.692
4.689
4.688
4.690
4.687
4.684
4.689
4.690
4.689
4.686
4.685
4.687
4.687
4.684
4.679
4.677
4.678
4.677
4.675
4.669
4.672
4.677
4.672
4.669
4.670
4.666
4.663
4.665
4.669
4.660
4.662
4.670
4.671
4.675
4.679
4.679
4.675
4.673
4.666
4.671
4.676
4.680
4.685
4.690
4.695
4.699
4.704
4.709
4.713
4.718
4.723
4.728
4.732
4.737
4.742
4.747
4.751
4.756
