2.973
3.317
3.459
3.541
3.691
3.646
3.678
3.723
3.788
3.819
3.854
3.878
3.910
3.924
3.955
3.979
3.970
4.011
4.036
4.053
4.039
4.049
4.072
4.091
4.110
4.133
4.139
4.153
4.114
4.135
4.124
4.144
4.150
4.159
4.192
4.169
4.184
4.188
4.210
4.224
4.230
4.249
4.260
4.232
4.241
4.247
4.254
4.258
4.283
4.297
4.298
4.292
4.263
4.259
4.270
4.296
4.263
4.243
4.247
4.264
4.267
4.267
4.258
4.291
4.275
4.322
4.285
4.298
4.276
4.312
4.303
4.317
4.313
4.316
4.341
4.328
4.340
4.355
4.323
4.349
4.375
4.352
4.343
4.302
4.305
4.355
4.328
4.303
4.342
4.337
4.321
4.319
4.349
4.355
4.337
4.333
4.361
4.346
4.353
4.347
4.368
4.399
4.377
4.374
4.362
4.389
4.399
4.381
4.378
4.353
4.384
4.372
4.377
4.362
4.346
4.378
4.415
4.395
4.382
4.384
4.364
4.381
4.417
4.416
4.417
4.431
4.408
4.398
4.397
4.431
4.429
4.400
4.416
4.388
4.385
4.388
4.420
4.452
4.452
4.433
4.444
4.424
4.445
4.446
4.417
4.444
4.466
4.460
4.473
4.466
4.438
4.439
4.434
4.438
4.444
4.466
4.471
4.458
4.436
4.434
4.413
4.398
4.375
4.397
4.424
4.451
4.455
4.452
4.435
4.427
4.423
4.414
4.410
4.412
4.405
4.400
4.425
4.449
4.454
4.453
4.437
4.436
4.428
4.434
4.403
4.399
4.398
4.416
4.416
4.407
4.430
4.453
4.456
4.456
4.446
4.434
4.440
4.441
4.430
4.431
4.430
4.411
4.404
4.403
4.388
4.407
4.428
4.449
4.471
4.475
4.466
4.456
4.466
4.462
4.445
4.429
4.426
4.435
4.440
4.447
4.428
4.429
4.439
4.437
4.419
4.428
4.447
4.467
4.486
4.500
4.496
4.487
4.486
4.501
4.490
4.495
4.494
4.489
4.484
4.481
4.470
4.466
4.462
4.466
4.465
4.469
4.482
4.478
4.458
4.456
4.466
4.484
4.502
4.507
4.496
4.493
4.484
4.476
4.480
4.470
4.466
4.459
4.449
4.453
4.447
4.449
4.456
4.453
4.429
4.435
4.425
4.434
4.434
4.419
4.423
4.416
4.432
4.448
4.464
4.480
4.496
4.512
4.528
4.523
4.516
4.512
4.505
4.507
4.510
4.514
4.501
4.492
4.495
4.487
4.485
4.488
4.483
4.483
4.490
4.499
4.496
4.512
4.509
4.496
4.514
4.493
4.491
4.499
4.512
4.505
4.498
4.481
4.467
4.469
4.476
4.490
4.504
4.502
4.501
4.497
4.489
4.497
4.493
4.500
4.508
4.508
4.502
4.498
4.492
4.485
4.475
4.473
4.460
4.444
4.432
4.448
4.464
4.456
4.458
4.451
4.454
4.452
4.445
4.443
4.443
4.440
4.440
4.441
4.446
4.464
4.470
4.457
4.457
4.467
4.473
4.467
4.452
4.447
4.460
4.472
4.485
4.497
4.509
4.522
4.534
4.540
4.527
4.514
4.515
4.506
4.495
4.488
4.478
4.478
4.475
4.486
4.480
4.476
4.470
4.475
4.485
4.487
4.482
4.497
4.513
4.517
4.503
4.501
4.485
4.475
4.467
4.461
4.462
4.459
4.462
4.457
4.443
4.446
4.444
4.436
4.431
4.442
4.444
4.440
4.446
4.446
4.458
4.451
4.448
4.443
4.440
4.443
4.437
4.446
4.443
4.433
4.436
4.447
4.457
4.468
4.479
4.489
4.500
4.511
4.521
4.532
4.543
4.553
4.564
4.560
4.551
4.535
4.520
4.539
4.529
4.527
4.526
4.520
4.517
4.518
4.527
4.520
4.530
4.538
4.536
4.524
4.518
4.505
4.511
4.506
4.494
4.500
4.515
4.511
4.510
4.498
4.506
4.511
4.496
4.490
4.487
4.487
4.497
4.490
4.485
4.487
4.499
4.511
4.507
4.496
4.510
4.512
4.499
4.492
4.497
4.490
4.493
4.498
4.490
4.492
4.485
4.483
4.470
4.474
4.489
4.488
4.483
4.466
4.469
4.472
4.474
4.478
4.493
4.495
4.494
4.483
4.474
4.481
4.490
4.482
4.477
4.467
4.461
4.467
4.473
4.482
4.491
4.500
4.508
4.517
4.526
4.535
4.542
4.537
4.542
4.534
4.522
4.520
4.524
4.529
4.525
4.526
4.520
4.517
4.509
4.500
4.513
4.515
4.500
4.506
4.518
4.531
4.519
4.519
4.518
4.522
4.511
4.517
4.517
4.507
4.507
4.514
4.510
4.512
4.518
4.511
4.511
4.507
4.507
4.512
4.500
4.513
4.509
4.514
4.498
4.490
4.486
4.472
4.476
4.474
4.480
4.476
4.482
4.473
4.467
4.479
4.479
4.465
4.458
4.449
4.450
4.454
4.455
4.463
4.466
4.453
4.466
4.462
4.456
4.456
4.453
4.454
4.442
4.443
4.444
4.442
4.447
4.461
4.455
4.457
4.446
4.435
4.446
4.446
4.440
4.450
4.446
4.448
4.449
4.456
4.463
4.462
4.472
4.483
4.493
4.504
4.499
4.503
4.501
4.488
4.483
4.496
4.496
4.478
4.483
4.486
4.487
4.485
4.472
4.463
4.463
4.468
4.483
4.481
4.470
4.467
4.469
4.464
4.458
4.460
4.467
4.474
4.482
4.489
4.495
4.503
4.510
4.517
4.524
4.531
4.538
4.545
4.552
4.559
4.564
4.563
4.555
4.559
4.567
4.574
4.562
4.550
4.551
4.551
4.563
4.566
4.559
4.565
4.570
4.562
4.562
4.552
4.545
4.541
4.544
4.537
4.540
4.544
4.544
4.540
4.544
4.534
4.532
4.529
4.519
4.520
4.525
4.525
4.520
4.538
4.537
4.526
4.535
4.539
4.551
4.556
4.560
4.557
4.553
4.546
4.544
4.539
4.539
4.542
4.554
4.558
4.560
4.548
4.551
4.538
4.534
4.527
4.525
4.520
4.523
4.514
4.505
4.508
4.518
4.527
4.536
4.545
4.554
4.550
4.544
4.542
4.540
4.529
4.520
4.510
4.506
4.503
4.502
4.513
4.515
4.511
4.513
4.515
4.512
4.512
4.511
4.520
4.518
4.511
4.505
4.498
4.492
4.486
4.479
4.473
4.467
4.460
4.454
4.453
4.454
4.451
4.464
4.461
4.467
4.464
4.458
4.467
4.465
4.459
4.470
4.472
4.472
4.475
4.480
4.488
4.490
4.489
4.481
4.476
4.477
4.479
4.486
4.482
4.478
4.469
4.463
4.453
4.455
4.465
4.474
4.470
4.466
4.459
4.451
4.443
4.435
4.427
4.429
4.428
4.422
4.426
4.425
4.432
4.430
4.427
4.432
4.439
4.439
4.438
4.445
4.449
4.445
4.435
4.433
4.430
4.433
4.425
4.427
4.421
4.418
4.418
4.429
4.439
4.438
4.439
4.437
4.440
4.432
4.432
4.439
4.434
4.431
4.434
4.432
4.428
4.423
4.414
4.413
4.411
4.405
4.413
4.424
4.415
4.410
4.408
4.416
4.415
4.419
4.425
4.430
4.435
4.440
4.446
4.451
4.456
4.462
4.467
4.472
4.478
4.483
4.488
4.493
4.499
4.504
4.509
4.515
4.520
4.525
4.531
4.536
4.541
4.546
4.552
4.557
4.562
4.568
4.573
4.578
4.584
4.589
4.594
4.599
4.605
4.610
4.615
4.621
4.626
4.631
4.633
4.637
4.623
4.618
4.615
4.609
4.603
4.603
4.601
4.593
4.598
4.595
4.582
4.580
4.580
4.572
4.570
4.572
4.574
4.570
4.570
4.567
4.570
4.572
4.570
4.577
4.567
4.573
4.568
4.569
4.569
4.567
4.564
4.567
4.553
4.554
4.554
4.558
4.554
4.549
4.552
4.561
4.554
4.551
4.554
4.554
4.547
4.547
4.552
4.549
4.562
4.564
4.553
4.552
4.545
4.543
4.547
4.542
4.538
4.532
4.538
4.541
4.548
4.551
4.552
4.548
4.549
4.552
4.558
4.560
4.559
4.564
4.571
4.567
4.569
4.562
4.558
4.558
4.561
4.552
4.556
4.549
4.555
4.557
4.552
4.553
4.547
4.545
4.545
4.539
4.534
4.525
4.517
4.509
4.511
4.514
4.515
4.515
4.512
4.521
4.523
4.516
4.516
4.510
4.506
4.507
4.511
4.514
4.503
4.504
4.506
4.507
4.501
4.496
4.491
4.485
4.480
4.475
4.470
4.464
4.468
4.465
4.462
4.466
4.470
4.464
4.455
