2.992
3.331
3.518
3.634
3.720
3.793
3.833
3.877
3.945
3.960
4.010
4.007
4.043
4.077
4.106
4.073
4.101
4.124
4.144
4.168
4.186
4.206
4.224
4.244
4.260
4.234
4.197
4.188
4.203
4.212
4.218
4.234
4.236
4.250
4.252
4.264
4.273
4.277
4.285
4.288
4.295
4.305
4.314
4.316
4.321
4.330
4.339
4.335
4.344
4.349
4.359
4.363
4.361
4.365
4.375
4.377
4.389
4.392
4.392
4.390
4.397
4.398
4.407
4.412
4.419
4.425
4.432
4.415
4.419
4.429
4.430
4.433
4.443
4.447
4.451
4.455
4.463
4.462
4.470
4.455
4.458
4.461
4.462
4.469
4.473
4.478
4.482
4.480
4.487
4.492
4.495
4.496
4.499
4.507
4.506
4.511
4.501
4.500
4.498
4.500
4.504
4.505
4.510
4.511
4.520
4.522
4.523
4.519
4.526
4.529
4.529
4.536
4.540
4.543
4.548
4.547
4.545
4.549
4.550
4.551
4.559
4.565
4.566
4.565
4.561
4.551
4.551
4.544
4.550
4.555
4.551
4.554
4.559
4.562
4.561
4.570
4.566
4.570
4.572
4.574
4.575
4.576
4.578
4.577
4.580
4.581
4.581
4.585
4.591
4.595
4.594
4.596
4.600
4.598
4.605
4.599
4.597
4.603
4.608
4.604
4.603
4.604
4.613
4.614
4.614
4.621
4.624
4.621
4.627
4.626
4.625
4.629
4.640
4.633
4.636
4.633
4.633
4.633
4.641
4.636
4.624
4.615
4.605
4.610
4.605
4.612
4.613
4.615
4.621
4.620
4.619
4.620
4.627
4.628
4.630
4.625
4.630
4.629
4.629
4.634
4.635
4.637
4.640
4.639
4.633
4.637
4.638
4.639
4.635
4.639
4.632
4.637
4.640
4.637
4.646
4.642
4.647
4.648
4.649
4.648
4.646
4.658
4.655
4.659
4.663
4.656
4.666
4.661
4.665
4.661
4.657
4.664
4.660
4.667
4.671
4.669
4.676
4.677
4.676
4.683
4.681
4.673
4.665
4.662
4.674
4.673
4.668
4.680
4.681
4.670
4.673
4.675
4.668
4.683
4.676
4.678
4.685
4.683
4.682
4.684
4.682
4.684
4.684
4.692
4.692
4.691
4.696
4.699
4.699
4.700
4.703
4.705
4.696
4.703
4.704
4.697
4.696
4.700
4.703
4.702
4.704
4.713
4.710
4.710
4.709
4.719
4.714
4.716
4.714
4.724
4.718
4.718
4.717
4.730
4.728
4.724
4.720
4.714
4.709
4.711
4.715
4.718
4.718
4.718
4.721
4.729
4.728
4.718
4.715
4.724
4.725
4.719
4.715
4.719
4.725
4.724
4.721
4.727
4.726
4.732
4.729
4.730
4.726
4.732
4.742
4.744
4.744
4.736
4.734
4.747
4.745
4.744
4.742
4.741
4.750
4.751
4.747
4.749
4.747
4.741
4.734
4.729
4.725
4.719
4.714
4.721
4.718
4.711
4.723
4.722
4.718
4.714
4.704
4.716
4.715
4.719
4.717
4.714
4.715
4.719
4.729
4.729
4.723
4.724
4.720
4.721
4.733
4.730
4.725
4.718
4.717
4.719
4.731
4.730
4.736
4.733
4.731
4.724
4.728
4.738
4.736
4.735
4.737
4.738
4.736
4.733
4.744
4.752
4.751
4.752
4.747
4.744
4.737
4.733
4.728
4.730
4.726
4.724
4.723
4.733
4.739
4.736
4.737
4.736
4.731
4.725
4.731
4.733
4.726
4.719
4.721
4.718
4.721
4.724
4.734
4.736
4.736
4.735
4.729
4.729
4.721
4.725
4.736
4.736
4.733
4.730
4.729
4.733
4.731
4.732
4.736
4.744
4.740
4.744
4.745
4.743
4.739
4.738
4.745
4.743
4.750
4.749
4.745
4.747
4.751
4.751
4.748
4.743
4.742
4.751
4.756
4.749
4.745
4.744
4.745
4.744
4.744
4.743
4.750
4.758
4.756
4.762
4.755
4.755
4.755
4.751
4.751
4.751
4.755
4.763
4.766
4.766
4.766
4.765
4.762
4.766
4.767
4.766
4.762
4.763
4.772
4.777
4.775
4.771
4.766
4.758
4.762
4.760
4.751
4.757
4.767
4.770
4.770
4.765
4.767
4.763
4.767
4.763
4.759
4.758
4.761
4.768
4.769
4.765
4.764
4.762
4.762
4.763
4.761
4.760
4.762
4.758
4.766
4.773
4.781
4.781
4.780
4.776
4.775
4.768
4.773
4.776
4.773
4.773
4.772
4.774
4.781
4.790
4.789
4.784
4.783
4.776
4.773
4.771
4.769
4.768
4.775
4.773
4.778
4.785
4.792
4.793
4.791
4.793
4.789
4.788
4.792
4.788
4.788
4.788
4.789
4.785
4.786
4.793
4.800
4.809
4.813
4.809
4.803
4.801
4.799
4.793
4.794
4.798
4.796
4.793
4.792
4.795
4.800
4.807
4.805
4.803
4.805
4.804
4.800
4.799
4.796
4.790
4.786
4.782
4.781
4.787
4.783
4.785
4.784
4.781
4.783
4.779
4.781
4.781
4.781
4.781
4.778
4.774
4.772
4.777
4.784
4.790
4.788
4.795
4.792
4.787
4.781
4.774
4.770
4.773
4.766
4.765
4.764
4.765
4.769
4.774
4.783
4.784
4.789
4.785
4.786
4.787
4.786
4.784
4.783
4.777
4.777
4.777
4.775
4.774
4.775
4.776
4.777
4.782
4.789
4.795
4.796
4.795
4.796
4.796
4.791
4.788
4.788
4.790
4.792
4.795
4.796
4.795
4.796
4.788
4.783
4.784
4.791
4.796
4.803
4.799
4.800
4.793
4.791
4.790
4.794
4.792
4.792
4.788
4.788
4.790
4.788
4.787
4.781
4.777
4.783
4.790
4.796
4.801
4.794
4.793
4.791
4.787
4.789
4.792
4.792
4.790
4.788
4.790
4.789
4.785
4.789
4.788
4.781
4.784
4.783
4.787
4.794
4.801
4.807
4.814
4.811
4.809
4.810
4.806
4.802
4.804
4.805
4.804
4.802
4.803
4.803
4.806
4.802
4.804
4.805
4.803
4.805
4.803
4.802
4.804
4.810
4.815
4.818
4.812
4.813
4.817
4.813
4.814
4.816
4.815
4.811
4.807
4.805
4.803
4.802
4.801
4.796
4.799
4.805
4.804
4.800
4.799
4.803
4.810
4.814
4.821
4.822
4.825
4.821
4.820
4.816
4.818
4.818
4.821
4.819
4.825
4.827
4.821
4.818
4.815
4.816
4.814
4.816
4.815
4.818
4.817
4.816
4.812
4.813
4.818
4.825
4.831
4.836
4.842
4.838
4.844
4.838
4.834
4.835
4.834
4.832
4.836
4.830
4.831
4.832
4.829
4.827
4.828
4.829
4.826
4.821
4.821
4.825
4.818
4.821
4.821
4.822
4.826
4.833
4.831
4.825
4.823
4.819
4.818
4.818
4.817
4.814
4.812
4.810
4.809
4.808
4.807
4.807
4.812
4.808
4.807
4.811
4.809
4.810
4.812
4.811
4.812
4.810
4.815
4.821
4.825
4.832
4.837
4.833
4.833
4.829
4.825
4.822
4.820
4.819
4.812
4.810
4.815
4.816
4.818
4.818
4.814
4.814
4.810
4.808
4.807
4.803
4.807
4.803
4.804
4.803
4.803
4.808
4.814
4.819
4.823
4.829
4.833
4.832
4.839
4.841
4.844
4.838
4.837
4.835
4.833
4.836
4.836
4.838
4.834
4.835
4.836
4.829
4.825
4.825
4.823
4.822
4.825
4.822
4.823
4.824
4.821
4.818
4.817
4.811
4.814
4.816
4.820
4.825
4.829
4.835
4.840
4.844
4.844
4.843
4.840
4.844
4.842
4.841
4.837
4.841
4.840
4.844
4.844
4.844
4.847
4.844
4.839
4.843
4.842
4.844
4.842
4.843
4.837
4.841
4.837
4.832
4.828
4.827
4.829
4.827
4.828
4.827
4.829
4.832
4.836
4.840
4.845
4.849
4.855
4.860
4.864
4.862
4.861
4.857
4.855
4.852
4.856
4.854
4.853
4.854
4.856
4.858
4.856
4.855
4.856
4.860
4.859
4.862
4.862
4.858
4.858
4.854
4.850
4.851
4.851
4.852
4.847
4.846
4.845
4.844
4.845
4.846
4.848
4.844
4.844
4.849
4.853
4.857
4.862
4.866
4.869
4.866
4.869
4.866
4.869
4.870
4.870
4.868
4.867
4.862
4.862
4.862
4.864
4.862
4.858
4.854
4.851
4.847
4.844
4.841
4.837
4.836
4.837
4.838
4.834
4.836
4.842
4.838
4.837
4.840
4.840
4.840
4.839
4.835
4.834
4.840
4.845
