2.988
3.334
3.511
3.619
3.715
3.766
3.801
3.842
3.899
3.953
4.000
3.923
3.936
3.952
3.975
3.995
4.031
4.049
4.051
4.075
4.087
4.104
4.122
4.128
4.141
4.163
4.157
4.171
4.191
4.203
4.186
4.203
4.212
4.226
4.238
4.248
4.251
4.245
4.253
4.263
4.268
4.283
4.293
4.300
4.307
4.321
4.319
4.292
4.308
4.311
4.317
4.320
4.326
4.337
4.341
4.348
4.358
4.349
4.358
4.367
4.378
4.382
4.392
4.398
4.394
4.394
4.410
4.390
4.373
4.377
4.382
4.391
4.397
4.395
4.386
4.390
4.395
4.400
4.403
4.405
4.418
4.405
4.418
4.429
4.433
4.442
4.439
4.432
4.433
4.430
4.440
4.440
4.436
4.454
4.465
4.460
4.468
4.471
4.458
4.472
4.478
4.482
4.489
4.482
4.494
4.494
4.499
4.498
4.500
4.489
4.478
4.487
4.484
4.505
4.500
4.509
4.502
4.523
4.512
4.523
4.527
4.520
4.541
4.526
4.539
4.524
4.509
4.493
4.498
4.485
4.504
4.493
4.489
4.511
4.510
4.506
4.520
4.519
4.510
4.537
4.523
4.508
4.501
4.499
4.504
4.493
4.490
4.504
4.501
4.498
4.496
4.523
4.519
4.506
4.514
4.526
4.523
4.510
4.525
4.525
4.522
4.518
4.532
4.540
4.536
4.536
4.534
4.555
4.553
4.541
4.540
4.541
4.536
4.535
4.533
4.541
4.542
4.539
4.534
4.534
4.559
4.559
4.559
4.543
4.540
4.563
4.563
4.562
4.557
4.560
4.561
4.581
4.583
4.576
4.567
4.568
4.575
4.591
4.583
4.583
4.579
4.575
4.583
4.593
4.585
4.586
4.573
4.560
4.574
4.572
4.570
4.568
4.557
4.552
4.565
4.559
4.561
4.558
4.551
4.551
4.557
4.577
4.587
4.577
4.564
4.566
4.557
4.554
4.573
4.587
4.583
4.567
4.555
4.550
4.558
4.560
4.578
4.583
4.581
4.579
4.583
4.579
4.584
4.575
4.574
4.592
4.597
4.604
4.590
4.592
4.588
4.577
4.573
4.577
4.595
4.606
4.604
4.606
4.605
4.599
4.604
4.594
4.606
4.599
4.603
4.620
4.631
4.616
4.611
4.614
4.610
4.614
4.605
4.606
4.608
4.615
4.632
4.624
4.612
4.600
4.602
4.602
4.597
4.588
4.590
4.597
4.611
4.602
4.610
4.603
4.604
4.604
4.604
4.605
4.591
4.603
4.611
4.598
4.612
4.624
4.618
4.615
4.613
4.610
4.623
4.617
4.616
4.617
4.613
4.615
4.608
4.611
4.625
4.640
4.642
4.634
4.641
4.636
4.641
4.635
4.638
4.639
4.633
4.635
4.625
4.628
4.626
4.635
4.649
4.654
4.658
4.660
4.653
4.647
4.645
4.636
4.637
4.638
4.637
4.638
4.639
4.627
4.625
4.638
4.652
4.654
4.652
4.647
4.648
4.644
4.645
4.645
4.636
4.635
4.639
4.641
4.643
4.635
4.632
4.630
4.634
4.647
4.660
4.673
4.685
4.691
4.677
4.673
4.675
4.671
4.668
4.664
4.675
4.675
4.678
4.672
4.670
4.667
4.660
4.656
4.653
4.657
4.669
4.681
4.693
4.691
4.682
4.692
4.692
4.694
4.693
4.687
4.679
4.667
4.662
4.668
4.674
4.664
4.662
4.658
4.652
4.645
4.653
4.665
4.676
4.681
4.677
4.677
4.675
4.669
4.666
4.659
4.651
4.648
4.648
4.644
4.641
4.641
4.635
4.634
4.626
4.616
4.620
4.622
4.633
4.644
4.655
4.661
4.667
4.670
4.663
4.655
4.654
4.652
4.657
4.654
4.655
4.660
4.660
4.654
4.646
4.646
4.647
4.644
4.648
4.646
4.646
4.642
4.645
4.649
4.644
4.639
4.646
4.656
4.661
4.652
4.655
4.653
4.645
4.645
4.654
4.656
4.652
4.653
4.650
4.642
4.643
4.644
4.647
4.641
4.638
4.633
4.632
4.633
4.632
4.634
4.636
4.640
4.651
4.647
4.642
4.639
4.643
4.652
4.662
4.672
4.680
4.672
4.669
4.671
4.662
4.662
4.656
4.657
4.654
4.655
4.652
4.645
4.649
4.662
4.652
4.651
4.658
4.652
4.644
4.634
4.640
4.637
4.632
4.632
4.630
4.639
4.636
4.632
4.627
4.628
4.637
4.646
4.655
4.664
4.673
4.682
4.679
4.688
4.692
4.684
4.684
4.682
4.675
4.674
4.669
4.664
4.658
4.654
4.655
4.652
4.650
4.660
4.652
4.654
4.655
4.660
4.650
4.644
4.653
4.655
4.652
4.657
4.652
4.654
4.652
4.647
4.647
4.656
4.656
4.655
4.652
4.651
4.654
4.662
4.671
4.679
4.681
4.679
4.686
4.683
4.685
4.680
4.680
4.688
4.692
4.687
4.679
4.687
4.697
4.691
4.693
4.686
4.691
4.690
4.685
4.683
4.685
4.684
4.674
4.677
4.671
4.672
4.666
4.660
4.670
4.673
4.676
4.673
4.673
4.665
4.665
4.660
4.652
4.655
4.658
4.666
4.666
4.662
4.665
4.665
4.663
4.671
4.679
4.686
4.694
4.701
4.709
4.717
4.725
4.728
4.719
4.717
4.722
4.715
4.716
4.713
4.716
4.714
4.712
4.707
4.714
4.711
4.712
4.711
4.713
4.705
4.703
4.703
4.704
4.700
4.711
4.710
4.704
4.709
4.703
4.707
4.706
4.716
4.723
4.711
4.706
4.703
4.702
4.703
4.696
4.689
4.682
4.681
4.679
4.686
4.689
4.690
4.685
4.680
4.671
4.666
4.668
4.675
4.682
4.689
4.696
4.703
4.710
4.709
4.706
4.707
4.714
4.709
4.711
4.712
4.706
4.700
4.698
4.700
4.693
4.702
4.704
4.704
4.700
4.702
4.696
4.692
4.695
4.695
4.693
4.688
4.684
4.682
4.673
4.667
4.668
4.667
4.671
4.678
4.673
4.668
4.664
4.673
4.665
4.674
4.673
4.674
4.679
4.689
4.683
4.681
4.673
4.670
4.668
4.662
4.658
4.662
4.665
4.669
4.661
4.655
4.656
4.651
4.651
4.652
4.658
4.658
4.664
4.671
4.677
4.684
4.690
4.696
4.702
4.709
4.715
4.722
4.728
4.734
4.735
4.730
4.720
4.719
4.716
4.722
4.723
4.721
4.725
4.719
4.714
4.709
4.706
4.708
4.700
4.702
4.710
4.719
4.721
4.719
4.714
4.719
4.720
4.721
4.710
4.711
4.701
4.708
4.712
4.714
4.709
4.711
4.709
4.717
4.714
4.715
4.708
4.706
4.710
4.712
4.707
4.706
4.706
4.707
4.705
4.705
4.704
4.703
4.698
4.694
4.700
4.699
4.693
4.695
4.697
4.693
4.687
4.689
4.690
4.697
4.702
4.704
4.702
4.703
4.702
4.697
4.704
4.712
4.708
4.708
4.702
4.703
4.698
4.694
4.691
4.697
4.703
4.709
4.714
4.720
4.726
4.732
4.737
4.743
4.746
4.743
4.745
4.745
4.744
4.734
4.735
4.730
4.731
4.728
4.723
4.715
4.713
4.711
4.709
4.705
4.707
4.703
4.699
4.697
4.697
4.696
4.691
4.697
4.690
4.693
4.697
4.697
4.698
4.698
4.693
4.687
4.688
4.684
4.689
4.690
4.689
4.689
4.690
4.697
4.698
4.693
4.696
4.691
4.694
4.689
4.688
4.690
4.687
4.685
4.683
4.685
4.688
4.686
4.680
4.674
4.674
4.671
4.676
4.671
4.667
4.664
4.667
4.663
4.659
4.660
4.657
4.656
4.652
4.652
4.652
4.653
4.650
4.653
4.648
4.645
4.649
4.641
4.647
4.654
4.652
4.659
4.662
4.656
4.654
4.655
4.660
4.665
4.670
4.675
4.680
4.685
4.691
4.696
4.701
4.706
4.711
4.716
4.721
4.726
4.731
4.736
4.742
4.747
4.752
4.757
4.757
4.751
4.750
4.747
4.753
4.750
4.758
4.753
4.758
4.765
4.764
4.765
4.760
4.757
4.756
4.746
4.748
4.744
4.738
4.743
4.742
4.737
4.730
4.726
4.723
4.725
4.725
4.722
4.715
4.718
4.717
4.723
4.719
4.718
4.714
4.720
4.712
4.716
4.715
4.711
4.714
4.712
4.707
4.703
4.698
4.693
4.688
4.688
4.686
4.685
4.688
4.684
4.685
4.682
4.682
4.677
4.681
4.673
4.673
4.668
4.672
4.675
4.677
4.673
4.676
4.669
4.662
4.659
4.658
4.655
