2.992
3.335
3.512
3.631
3.720
3.777
3.838
3.871
3.935
3.942
3.987
4.034
4.006
4.038
4.063
4.092
4.118
4.147
4.164
4.188
4.198
4.152
4.131
4.142
4.151
4.169
4.176
4.185
4.201
4.205
4.220
4.229
4.233
4.246
4.247
4.259
4.269
4.279
4.275
4.286
4.301
4.309
4.299
4.312
4.321
4.328
4.337
4.325
4.340
4.341
4.353
4.358
4.367
4.371
4.360
4.369
4.371
4.385
4.386
4.391
4.401
4.404
4.409
4.396
4.401
4.402
4.408
4.418
4.420
4.423
4.427
4.435
4.442
4.440
4.450
4.451
4.461
4.438
4.445
4.443
4.445
4.451
4.458
4.462
4.469
4.468
4.472
4.475
4.483
4.487
4.491
4.494
4.491
4.492
4.501
4.501
4.508
4.509
4.518
4.508
4.496
4.490
4.494
4.497
4.502
4.508
4.512
4.511
4.516
4.522
4.521
4.519
4.521
4.522
4.526
4.527
4.532
4.536
4.535
4.538
4.542
4.545
4.548
4.544
4.549
4.552
4.553
4.552
4.554
4.558
4.565
4.568
4.573
4.571
4.575
4.575
4.579
4.585
4.586
4.583
4.581
4.588
4.579
4.579
4.567
4.553
4.560
4.560
4.567
4.561
4.568
4.572
4.578
4.574
4.571
4.579
4.575
4.579
4.587
4.588
4.592
4.585
4.582
4.585
4.579
4.586
4.586
4.585
4.594
4.588
4.597
4.593
4.601
4.597
4.605
4.601
4.608
4.607
4.616
4.608
4.609
4.605
4.611
4.615
4.617
4.621
4.617
4.632
4.623
4.635
4.628
4.620
4.614
4.624
4.625
4.624
4.622
4.616
4.628
4.621
4.627
4.634
4.625
4.635
4.630
4.629
4.642
4.635
4.638
4.648
4.647
4.645
4.649
4.653
4.650
4.656
4.650
4.651
4.652
4.648
4.657
4.664
4.657
4.660
4.666
4.662
4.661
4.675
4.668
4.668
4.677
4.678
4.669
4.675
4.672
4.660
4.668
4.670
4.674
4.668
4.679
4.676
4.664
4.670
4.674
4.667
4.666
4.676
4.680
4.678
4.671
4.684
4.680
4.681
4.683
4.689
4.696
4.687
4.690
4.690
4.697
4.697
4.696
4.697
4.707
4.697
4.701
4.697
4.704
4.697
4.690
4.682
4.677
4.670
4.663
4.673
4.668
4.657
4.658
4.664
4.672
4.671
4.672
4.665
4.671
4.679
4.679
4.678
4.674
4.673
4.674
4.675
4.672
4.676
4.674
4.686
4.685
4.684
4.677
4.681
4.685
4.694
4.696
4.695
4.696
4.695
4.693
4.700
4.704
4.695
4.686
4.682
4.680
4.684
4.680
4.682
4.680
4.684
4.686
4.679
4.685
4.678
4.671
4.679
4.685
4.682
4.683
4.679
4.672
4.681
4.683
4.682
4.680
4.678
4.677
4.678
4.686
4.695
4.691
4.687
4.693
4.690
4.688
4.692
4.704
4.698
4.694
4.697
4.696
4.700
4.694
4.703
4.702
4.698
4.696
4.694
4.690
4.690
4.699
4.711
4.710
4.708
4.702
4.703
4.702
4.697
4.702
4.714
4.716
4.717
4.715
4.712
4.713
4.717
4.715
4.716
4.726
4.727
4.724
4.731
4.723
4.716
4.707
4.709
4.721
4.725
4.718
4.716
4.712
4.719
4.713
4.708
4.713
4.716
4.720
4.717
4.712
4.711
4.715
4.709
4.713
4.712
4.723
4.733
4.731
4.727
4.727
4.728
4.727
4.725
4.724
4.723
4.726
4.738
4.740
4.730
4.727
4.727
4.727
4.723
4.724
4.723
4.726
4.736
4.745
4.744
4.746
4.745
4.742
4.742
4.742
4.738
4.740
4.745
4.745
4.750
4.759
4.758
4.753
4.753
4.753
4.749
4.749
4.747
4.748
4.750
4.748
4.757
4.760
4.760
4.762
4.757
4.760
4.758
4.751
4.745
4.740
4.738
4.735
4.733
4.740
4.742
4.738
4.734
4.726
4.728
4.726
4.728
4.724
4.734
4.743
4.749
4.743
4.736
4.731
4.723
4.720
4.717
4.718
4.717
4.716
4.723
4.732
4.739
4.745
4.739
4.735
4.738
4.735
4.736
4.729
4.731
4.734
4.728
4.726
4.728
4.735
4.742
4.748
4.752
4.754
4.752
4.756
4.753
4.749
4.747
4.738
4.736
4.732
4.738
4.740
4.738
4.745
4.752
4.753
4.755
4.749
4.752
4.751
4.745
4.743
4.741
4.738
4.738
4.735
4.730
4.732
4.739
4.749
4.749
4.756
4.753
4.753
4.749
4.749
4.745
4.749
4.755
4.746
4.745
4.748
4.744
4.740
4.742
4.745
4.753
4.760
4.766
4.767
4.766
4.765
4.766
4.768
4.766
4.770
4.769
4.762
4.755
4.754
4.753
4.753
4.750
4.753
4.757
4.765
4.772
4.770
4.768
4.764
4.761
4.764
4.763
4.757
4.763
4.762
4.761
4.759
4.757
4.759
4.757
4.757
4.755
4.757
4.766
4.771
4.780
4.778
4.786
4.784
4.780
4.782
4.786
4.781
4.783
4.782
4.779
4.781
4.777
4.775
4.783
4.782
4.777
4.773
4.768
4.771
4.780
4.787
4.794
4.792
4.786
4.782
4.790
4.787
4.793
4.789
4.790
4.787
4.785
4.781
4.775
4.771
4.771
4.768
4.769
4.773
4.766
4.773
4.780
4.779
4.780
4.778
4.775
4.778
4.777
4.776
4.774
4.775
4.772
4.773
4.777
4.778
4.774
4.773
4.772
4.770
4.768
4.762
4.760
4.765
4.771
4.778
4.774
4.775
4.775
4.778
4.777
4.781
4.783
4.776
4.769
4.770
4.775
4.771
4.772
4.770
4.768
4.773
4.769
4.773
4.774
4.775
4.774
4.781
4.774
4.773
4.779
4.786
4.791
4.789
4.788
4.792
4.788
4.784
4.783
4.786
4.785
4.792
4.785
4.781
4.777
4.776
4.777
4.781
4.782
4.781
4.775
4.778
4.777
4.779
4.777
4.773
4.775
4.779
4.783
4.790
4.797
4.803
4.810
4.809
4.810
4.805
4.804
4.801
4.801
4.795
4.794
4.797
4.794
4.794
4.796
4.794
4.799
4.801
4.797
4.794
4.797
4.795
4.799
4.794
4.794
4.797
4.794
4.798
4.793
4.794
4.801
4.808
4.812
4.819
4.821
4.819
4.816
4.820
4.824
4.825
4.823
4.817
4.813
4.812
4.808
4.805
4.807
4.812
4.810
4.808
4.808
4.811
4.808
4.803
4.797
4.805
4.807
4.803
4.804
4.801
4.799
4.801
4.801
4.805
4.812
4.817
4.813
4.811
4.816
4.814
4.810
4.809
4.805
4.800
4.797
4.800
4.805
4.805
4.808
4.812
4.810
4.808
4.807
4.812
4.805
4.798
4.801
4.798
4.797
4.797
4.794
4.795
4.794
4.792
4.796
4.794
4.794
4.800
4.805
4.812
4.818
4.822
4.829
4.831
4.831
4.828
4.827
4.827
4.824
4.827
4.834
4.828
4.823
4.822
4.821
4.820
4.818
4.820
4.821
4.819
4.823
4.820
4.818
4.825
4.826
4.822
4.826
4.819
4.820
4.819
4.820
4.822
4.821
4.820
4.824
4.820
4.818
4.816
4.818
4.820
4.826
4.833
4.837
4.842
4.848
4.853
4.857
4.855
4.853
4.853
4.854
4.853
4.856
4.852
4.848
4.841
4.840
4.839
4.840
4.842
4.843
4.841
4.834
4.828
4.826
4.827
4.829
4.833
4.831
4.833
4.832
4.828
4.826
4.823
4.829
4.834
4.832
4.828
4.826
4.823
4.821
4.819
4.823
4.828
4.834
4.834
4.834
4.830
4.826
4.820
4.816
4.816
4.816
4.811
4.812
4.816
4.815
4.814
4.813
4.811
4.816
4.819
4.815
4.812
4.810
4.812
4.810
4.808
4.810
4.811
4.813
4.814
4.810
4.811
4.808
4.806
4.807
4.806
4.808
4.808
4.807
4.805
4.805
4.801
4.799
4.803
4.808
4.812
4.815
4.816
4.823
4.827
4.831
4.828
4.824
4.823
4.821
4.820
4.821
4.817
4.816
4.819
4.824
4.819
4.820
4.819
4.818
4.819
4.816
4.820
4.818
4.814
4.810
4.806
4.804
4.803
4.799
4.800
4.801
4.806
4.808
4.809
4.805
4.806
4.801
4.806
4.801
4.797
4.791
4.794
4.794
4.792
4.791
4.794
4.793
4.795
4.801
4.805
4.808
4.814
4.818
4.823
4.827
4.830
4.829
4.825
4.824
4.827
4.823
4.825
4.823
4.825
4.826
4.823
4.829
